.comp 920 000011110011000
.start _nostart_
.depend "StdCharList" "20210430140248"
.depend "_SystemArray" "20210430140248"
.depend "StdArray" "20210430140248"
.depend "StdEnv" "20210430140248"
.depend "_SystemEnum" "20210430140248"
.depend "StdEnum" "20210430140248"
.depend "StdTuple" "20210430140248"
.depend "StdOrdList" "20210430140248"
.depend "Data.GenDefault" "20210430140248"
.depend "Data.Integer" "20210430140248"
.depend "Text.GenJSON" "20210430140248"
.depend "StdFile" "20210430140248"
.depend "StdString" "20210430140248"
.depend "Control.Monad.Fail" "20210430140248"
.depend "Data.Traversable" "20210430140248"
.depend "StdMisc" "20210430140248"
.depend "StdOverloadedList" "20210430140248"
.depend "Data.List" "20210430140248"
.depend "Data.Foldable" "20210430140248"
.depend "Data.GenLexOrd" "20210430140248"
.depend "StdFunctions" "20210430140248"
.depend "StdFunc" "20210430140248"
.depend "_SystemEnumStrict" "20210430140248"
.depend "_SystemStrictLists" "20210430140248"
.depend "StdStrictLists" "20210430140248"
.depend "StdGeneric" "20210430140248"
.depend "Data.GenEq" "20210430140248"
.depend "StdReal" "20210430140248"
.depend "StdChar" "20210430140248"
.depend "StdInt" "20210430140248"
.depend "StdBool" "20210430140248"
.depend "StdClass" "20210430140248"
.depend "StdList" "20210430140248"
.depend "Data.Monoid" "20210430140248"
.depend "Control.Applicative" "20210430140248"
.depend "Control.Monad" "20210430140248"
.depend "Data.Functor" "20210430140248"
.depend "StdOverloaded" "20210430140248"
.depend "_SystemDynamic" "20210430140248"
.depend "Data.Integer.GenJSON" "20210430140248"
.module m_Data.Integer.GenJSON "Data.Integer.GenJSON" "20210430140248"
.endinfo
.impmod _system
.implab _cycle_in_spine
.implab _type_error
.implab _hnf
.impdesc e_system_dind
.implab e_system_nind e_system_eaind
.impdesc e_system_dif
.implab e_system_nif e_system_eaif
.implab e_system_sif
.impdesc e_system_dAP
.implab e_system_nAP e_system_eaAP
.implab e_system_sAP
.impdesc ARRAY
.impdesc _Nil
.impdesc _Cons
.impdesc _Conss
.implab n_Conss ea_Conss
.impdesc _Consts
.implab n_Consts ea_Consts
.impdesc _Conssts
.implab n_Conssts ea_Conssts
.impdesc _Tuple
.impdesc d_S.1
.implab n_S.1 ea_S.1
.impdesc d_S.2
.implab n_S.2 ea_S.2
.impdesc d_S.3
.implab n_S.3 ea_S.3
.impdesc d_S.4
.implab n_S.4 ea_S.4
.impdesc d_S.5
.implab n_S.5 ea_S.5
.impdesc d_S.6
.implab n_S.6 ea_S.6
.implab _driver
.impmod _SystemArray
.impdesc e__SystemArray_dusize;15
.implab e__SystemArray_nusize;15
.impmod StdInt
.implab e_StdInt_s+;6
.implab e_StdInt_s-;7
.implab e_StdInt_sone;11
.implab e_StdInt_s<;17
.impmod StdBool
.implab e_StdBool_snot
.impmod StdList
.implab e_StdList_sall
.impmod Data.Integer
.impdesc e_Data.Integer_rInteger
.impdesc e_Data.Integer_dInteger.integer_s
.implab e_Data.Integer_nInteger.integer_s
.impdesc e_Data.Integer_dInteger.integer_a
.implab e_Data.Integer_nInteger.integer_a
.impmod Text.GenJSON
.impdesc e_Text.GenJSON_kJSONInt
.impdesc e_Text.GenJSON_dJSONInt
.implab e_Text.GenJSON_nJSONInt e_Text.GenJSON_eaJSONInt
.impdesc e_Text.GenJSON_kJSONArray
.impdesc e_Text.GenJSON_dJSONArray
.implab e_Text.GenJSON_nJSONArray e_Text.GenJSON_eaJSONArray
.export e_Data.Integer.GenJSON_sJSONDecode_Integer;1
.descexp e_Data.Integer.GenJSON_dJSONDecode_Integer;1 e_Data.Integer.GenJSON_nJSONDecode_Integer;1 e_Data.Integer.GenJSON_lJSONDecode_Integer;1 2 0 "JSONDecode_Integer;1"
.o 2 1 b
e_Data.Integer.GenJSON_iJSONDecode_Integer;1
.d 1 1 b
	pop_a_jmp 1 s2
.ai 0 a2 e_Data.Integer.GenJSON_iJSONDecode_Integer;1
.o 2 0 
e_Data.Integer.GenJSON_lJSONDecode_Integer;1
	repl_args 1 1
.o 2 0 
a2
.d 2 0 
	jsr ea2
.o 2 0 
	buildh _Tuple 2
.d 1 0 
	rtn 
.n 2 e_Data.Integer.GenJSON_dJSONDecode_Integer;1
.o 1 0 
e_Data.Integer.GenJSON_nJSONDecode_Integer;1
	push_node _cycle_in_spine 2
.d 2 0 
	jsr ea2
.o 2 0 
	fillh _Tuple 2 2
.d 1 0 
	rtn 
.o 2 0 
ea2
	jsr_eval 1
	jsr_eval 0
	pushB0_pop_a1 
.o 1 1 b
e_Data.Integer.GenJSON_sJSONDecode_Integer;1
.o 1 1 b
s2
	jmp_ne_desc _Cons 2 0 case.2
	push_args 0 2 2
	jsr_eval 0
	jmp_eq_desc e_Text.GenJSON_kJSONInt 0 0 case.3
	pop_a_jmp 2 case.2
case.3
	repl_r_args 0 1
	jsr_eval 0
	jmp_eq_desc _Cons 2 0 case.4
	pop_b 1
	pop_a_jmp 1 case.2
case.4
	repl_args 2 2
	jsr_eval 0
	jmp_eq_desc e_Text.GenJSON_kJSONArray 0 0 case.5
	pop_b 1
	pop_a_jmp 2 case.2
case.5
	repl_args 1 1
	buildh e_Data.Integer.GenJSON_d\;8;17;3.4 0
	push_update_a 0 1
.d 2 0 
	jsr e_StdList_sall
.o 0 1 b
	jmp_true else.6
	pop_a 2
	buildh _None 0
.d 2 0 
	pop_b_rtn 2
else.6
	push_jsr_eval 1
	push_a 1
	pushI 0
.d 1 1 i
	buildh0_put_a_jsr _Nil 4 s10
.o 0 1 i
	create_array_ INT 0 1
	push_a 2
	buildI 0
	push_a 2
	update3pop_a 0 1
.d 3 0 
	buildh0_put_a_jsr _Nil 5 s9
.o 1 0 
	push_b 0
	buildhr e_Data.Integer_rInteger 1 1
	buildh _Just 1
	update2pop_a 0 3
.d 2 0 
	pop_b_rtn 2
case.2
	buildh _None 0
.d 2 0 
	pop_b_rtn 1
.o 1 1 i
s10
s21
	jmp_ne_desc _Cons 2 0 case.8
	repl_args 2 2
	push_jsr_eval 1
	push_jsr_eval 1
	update2pop_a 0 2
.d 2 1 i
	jmp s20
case.8
.d 0 1 i
	pop_a_rtn 1
.o 2 1 i
s20
	jmp_ne_desc e_Text.GenJSON_kJSONInt 0 0 case.10
	pop_a 1
	incI
.d 1 1 i
	jmp s10
case.10
.d 1 1 i
	pop_a_jmp 1 s10
.o 3 0 
s9
	push_a 2
	update3pop_a 0 1
s19
	jmp_ne_desc _Cons 2 0 case.12
	repl_args 2 2
	push_jsr_eval 1
	push_jsr_eval 1
	updates3_a 1 5 4 3
	updatepop_a 0 2
.d 4 0 
	jmp s18
case.12
	updatepop_a 1 2
.d 1 0 
	rtn 
.o 4 0 
s18
	jmp_ne_desc e_Text.GenJSON_kJSONInt 0 0 case.14
	repl_r_args 0 1
	buildo1 e_Data.Integer.GenJSON_n_f2.146 1
	push_jsr_eval 2
	pushI_a 3
	update_a 2 0
	buildh0_dup2_a _Nil 3
	pop_a 1
	update INT 0 1
	update2pop_a 0 2
.d 3 0 
	jmp s9
case.14
.d 3 0 
	pop_a_jmp 1 s9
.export e_Data.Integer.GenJSON_d_f2.146
.export e_Data.Integer.GenJSON_n_f2.146
.descn e_Data.Integer.GenJSON_d_f2.146 e_Data.Integer.GenJSON_n_f2.146 1 0 "_f2.146"
.n 1 e_Data.Integer.GenJSON_d_f2.146 ea146
.o 1 0 
e_Data.Integer.GenJSON_n_f2.146
	push_node _cycle_in_spine 1
.o 2 0 
ea146
.o 2 0 
s146
	jsr_eval 0
	pushI0_pop_a1 
	incI
	fillI_b 0 0
.d 1 0 
	pop_b_rtn 1
.export e_Data.Integer.GenJSON_d\;8;17;3.4
.desc e_Data.Integer.GenJSON_d\;8;17;3.4 _hnf l4 1 0 "\;8;17;3.4"
.o 2 0 
l4
.d 1 0 
	pop_a_jsr 1 ea4
.o 0 1 b
	buildB_b 0
.d 1 0 
	pop_b_rtn 1
.o 1 0 
ea4
	jsr_eval 0
.o 1 0 
s4
	eq_desc e_Text.GenJSON_kJSONInt 0 0
.d 0 1 b
	pop_a_rtn 1
.export e_Data.Integer.GenJSON_sJSONEncode_Integer;0
.export e_Data.Integer.GenJSON_eaJSONEncode_Integer;0
.descexp e_Data.Integer.GenJSON_dJSONEncode_Integer;0 e_Data.Integer.GenJSON_nJSONEncode_Integer;0 e_Data.Integer.GenJSON_lJSONEncode_Integer;0 2 0 "JSONEncode_Integer;0"
.o 3 1 b
e_Data.Integer.GenJSON_iJSONEncode_Integer;0
	pop_a 1
	push_r_args 0 1 1
	put_a 1
	swap_b1 
.d 2 2 bi
	jmp s1
.ai 2 e_Data.Integer.GenJSON_eaJSONEncode_Integer;0 e_Data.Integer.GenJSON_iJSONEncode_Integer;0
.o 2 0 
e_Data.Integer.GenJSON_lJSONEncode_Integer;0
	push_args 0 1 1
	update_a 2 1
	create 
.d 3 0 
	put_a_jmp 3 e_Data.Integer.GenJSON_eaJSONEncode_Integer;0
.n 2 e_Data.Integer.GenJSON_dJSONEncode_Integer;0 e_Data.Integer.GenJSON_eaJSONEncode_Integer;0
.o 1 0 
e_Data.Integer.GenJSON_nJSONEncode_Integer;0
	push_node _cycle_in_spine 2
.o 3 0 
e_Data.Integer.GenJSON_eaJSONEncode_Integer;0
	jsr_eval 1
	jsr_eval 0
	push_r_args 1 1 1
	pushB_a 1
	updatepop_a 0 2
.o 2 2 bi
e_Data.Integer.GenJSON_sJSONEncode_Integer;0
.o 2 2 bi
s1
	push_a 0
	buildh ARRAY 1
	build e__SystemArray_dusize;15 1 e__SystemArray_nusize;15
	buildh _Nil 0
	buildo1 n_S.2 1
	buildo1 n_S.1 2
	build e_Data.Integer.GenJSON_d_f0.144 2 e_Data.Integer.GenJSON_n_f0.144
	build e_Text.GenJSON_dJSONArray 1 e_Text.GenJSON_nJSONArray
	buildh _Cons 2
	buildI_b 1
	build e_Text.GenJSON_dJSONInt 1 e_Text.GenJSON_nJSONInt
	fillh _Cons 2 4
.d 1 0 
	pop_ab_rtn 2 2
.export e_Data.Integer.GenJSON_d_f0.144
.export e_Data.Integer.GenJSON_n_f0.144
.descn e_Data.Integer.GenJSON_d_f0.144 e_Data.Integer.GenJSON_n_f0.144 2 0 "_f0.144"
.n 2 e_Data.Integer.GenJSON_d_f0.144 ea144
.o 1 0 
e_Data.Integer.GenJSON_n_f0.144
	push_node _cycle_in_spine 2
.o 3 0 
ea144
.o 3 0 
s144
	jsr_eval 0
	pushI_a 0
	decI
	pushI 0
.d 2 2 ii
	pop_a_jmp 1 s7
.o 2 2 ii
s7
	push_b2 0 1
	jmp_ltI else.15
	jsr_eval 0
	push_a 0
	push_array 0
	dup_a 2
	put_a 1
	push_b 0
	select INT 0 1
	push_a 0
	buildh ARRAY 1
	push_a 0
	push2_b 2
	build_u e_Data.Integer.GenJSON_d_f1.145 1 2 e_Data.Integer.GenJSON_n_f1.145
	push_b 0
	buildhr e_Text.GenJSON_kJSONInt 0 1
	fillh _Cons 2 4
.d 1 0 
	pop_ab_rtn 2 3
else.15
	fillh _Nil 0 1
.d 1 0 
	pop_ab_rtn 1 2
.export e_Data.Integer.GenJSON_d_f1.145
.export e_Data.Integer.GenJSON_n_f1.145
.descn e_Data.Integer.GenJSON_d_f1.145 e_Data.Integer.GenJSON_n_f1.145 3 0 "_f1.145"
.nu 1 2 e_Data.Integer.GenJSON_d_f1.145 _
.o 1 0 
e_Data.Integer.GenJSON_n_f1.145
	push_node_u _cycle_in_spine 1 2
.o 2 2 ii
ea145
.o 2 2 ii
s145
	incI
.d 2 2 ii
	jmp s7
