.comp 920 000111010010000
.start _nostart_
.depend "semidynamic" "20210609153047"
.depend "receivertable" "20210609153047"
.depend "receivermessage" "20210609153047"
.depend "systemid" "20210609153047"
.depend "device" "20210609153047"
.depend "id" "20210609153047"
.depend "oskey" "20210609153047"
.depend "StdKey" "20210609153047"
.depend "StdPicture" "20210609153047"
.depend "StdIOBasic" "20210609153047"
.depend "StdPictureDef" "20210609153047"
.depend "osfont" "20210609153047"
.depend "ostypes" "20210609153047"
.depend "ostoolbox" "20210609153047"
.depend "osrgn" "20210609153047"
.depend "ospicture" "20210609153047"
.depend "osbitmap" "20210609153049"
.depend "StdFile" "20210609153010"
.depend "_SystemStrictMaybes" "20210609153011"
.depend "StdMaybe" "20210609153011"
.depend "StdBitmap" "20210609153047"
.depend "StdString" "20210609153011"
.depend "StdOverloaded" "20210609153011"
.depend "StdIOCommon" "20210609153049"
.depend "StdFunctions" "20210609153011"
.depend "StdFunc" "20210609153011"
.depend "receiverhandle" "20210609153047"
.module m_receiverhandle "receiverhandle" "20210609153047"
.endinfo
.impmod _system
.implab _cycle_in_spine
.implab _type_error
.implab _hnf
.impdesc e_system_dind
.implab e_system_nind e_system_eaind
.impdesc e_system_dif
.implab e_system_nif e_system_eaif
.implab e_system_sif
.impdesc e_system_dAP
.implab e_system_nAP e_system_eaAP
.implab e_system_sAP
.impdesc ARRAY
.impdesc _Nil
.impdesc _Cons
.impdesc _Conss
.implab n_Conss ea_Conss
.impdesc _Consts
.implab n_Consts ea_Consts
.impdesc _Conssts
.implab n_Conssts ea_Conssts
.impdesc _Tuple
.impdesc d_S.1
.implab n_S.1 ea_S.1
.impdesc d_S.2
.implab n_S.2 ea_S.2
.impdesc d_S.3
.implab n_S.3 ea_S.3
.impdesc d_S.4
.implab n_S.4 ea_S.4
.impdesc d_S.5
.implab n_S.5 ea_S.5
.impdesc d_S.6
.implab n_S.6 ea_S.6
.implab _driver
.export e_receiverhandle_rReceiverHandles
.record e_receiverhandle_rReceiverHandles a 1 0 "ReceiverHandles"
.export e_receiverhandle_dReceiverHandles.rReceivers
.export e_receiverhandle_nReceiverHandles.rReceivers
.export e_receiverhandle_eaReceiverHandles.rReceivers
.descs e_receiverhandle_dReceiverHandles.rReceivers e_receiverhandle_nReceiverHandles.rReceivers _ 1 0 "ReceiverHandles.rReceivers"
.n -4 e_receiverhandle_dReceiverHandles.rReceivers e_receiverhandle_eaReceiverHandles.rReceivers
.o 1 0
e_receiverhandle_nReceiverHandles.rReceivers
	push_node _cycle_in_spine 1
.o 2 0
e_receiverhandle_eaReceiverHandles.rReceivers
	jsr_eval 0
	repl_r_args_a 1 0 1 1
	jmp_eval_upd
.export e_receiverhandle_rReceiverStateHandle
.record e_receiverhandle_rReceiverStateHandle aa 2 0 "ReceiverStateHandle"
.export e_receiverhandle_dReceiverStateHandle.rState
.export e_receiverhandle_nReceiverStateHandle.rState
.descs e_receiverhandle_dReceiverStateHandle.rState e_receiverhandle_nReceiverStateHandle.rState _ 1 0 "ReceiverStateHandle.rState"
.n -4 e_receiverhandle_dReceiverStateHandle.rState _
.o 1 0
e_receiverhandle_nReceiverStateHandle.rState
	push_node _cycle_in_spine 1
	jsr_eval 0
	repl_r_args_a 2 0 1 1
	jsr_eval 0
	fill_a 0 1
	pop_a 1
.d 1 0
	rtn
.export e_receiverhandle_dReceiverStateHandle.rHandle
.export e_receiverhandle_nReceiverStateHandle.rHandle
.descs e_receiverhandle_dReceiverStateHandle.rHandle e_receiverhandle_nReceiverStateHandle.rHandle _ 2 0 "ReceiverStateHandle.rHandle"
.n -4 e_receiverhandle_dReceiverStateHandle.rHandle
.o 1 0
e_receiverhandle_nReceiverStateHandle.rHandle
	push_node _cycle_in_spine 1
	jsr_eval 0
	repl_r_args_a 2 0 2 1
	jsr_eval 0
	fill_a 0 1
	pop_a 1
.d 1 0
	rtn
.export e_receiverhandle_rReceiverHandle
.record e_receiverhandle_rReceiverHandle aaaaaaa 7 0 "ReceiverHandle"
.descexp e_receiverhandle_tReceiverHandle e_receiverhandle_cReceiverHandle _hnf 7 1 "ReceiverHandle"
.n 7 e_receiverhandle_tReceiverHandle
.o 1 0
e_receiverhandle_cReceiverHandle
	push_node _cycle_in_spine 7
	jsr_eval 6
	jsr_eval 5
.impmod receiverhandle
.impdesc e_receiverhandle_rReceiverHandle
	fill_r e_receiverhandle_rReceiverHandle 7 0 7 0 0
	pop_a 7
.d 1 0
	rtn
.export e_receiverhandle_dReceiverHandle.rId
.export e_receiverhandle_nReceiverHandle.rId
.export e_receiverhandle_eaReceiverHandle.rId
.descs e_receiverhandle_dReceiverHandle.rId e_receiverhandle_nReceiverHandle.rId _ 1 0 "ReceiverHandle.rId"
.n -4 e_receiverhandle_dReceiverHandle.rId e_receiverhandle_eaReceiverHandle.rId
.o 1 0
e_receiverhandle_nReceiverHandle.rId
	push_node _cycle_in_spine 1
.o 2 0
e_receiverhandle_eaReceiverHandle.rId
	jsr_eval 0
	repl_r_args_a 7 0 1 1
	jsr_eval 0
	fill_a 0 1
	pop_a 1
.d 1 0
	rtn
.export e_receiverhandle_dReceiverHandle.rASMQ
.export e_receiverhandle_nReceiverHandle.rASMQ
.export e_receiverhandle_eaReceiverHandle.rASMQ
.descs e_receiverhandle_dReceiverHandle.rASMQ e_receiverhandle_nReceiverHandle.rASMQ _ 3 0 "ReceiverHandle.rASMQ"
.n -4 e_receiverhandle_dReceiverHandle.rASMQ e_receiverhandle_eaReceiverHandle.rASMQ
.o 1 0
e_receiverhandle_nReceiverHandle.rASMQ
	push_node _cycle_in_spine 1
.o 2 0
e_receiverhandle_eaReceiverHandle.rASMQ
	jsr_eval 0
	repl_r_args_a 7 0 2 1
	jmp_eval_upd
.export e_receiverhandle_dReceiverHandle.rSelect
.export e_receiverhandle_nReceiverHandle.rSelect
.export e_receiverhandle_eaReceiverHandle.rSelect
.descs e_receiverhandle_dReceiverHandle.rSelect e_receiverhandle_nReceiverHandle.rSelect _ 4 0 "ReceiverHandle.rSelect"
.n -4 e_receiverhandle_dReceiverHandle.rSelect e_receiverhandle_eaReceiverHandle.rSelect
.o 1 0
e_receiverhandle_nReceiverHandle.rSelect
	push_node _cycle_in_spine 1
.o 2 0
e_receiverhandle_eaReceiverHandle.rSelect
	jsr_eval 0
	repl_r_args_a 7 0 3 1
	jmp_eval_upd
.export e_receiverhandle_dReceiverHandle.rOneWay
.export e_receiverhandle_nReceiverHandle.rOneWay
.descs e_receiverhandle_dReceiverHandle.rOneWay e_receiverhandle_nReceiverHandle.rOneWay _ 5 0 "ReceiverHandle.rOneWay"
.n -4 e_receiverhandle_dReceiverHandle.rOneWay
.o 1 0
e_receiverhandle_nReceiverHandle.rOneWay
	push_node _cycle_in_spine 1
	jsr_eval 0
	repl_r_args_a 7 0 4 1
	jsr_eval 0
	fill_a 0 1
	pop_a 1
.d 1 0
	rtn
.export e_receiverhandle_dReceiverHandle.rFun
.export e_receiverhandle_nReceiverHandle.rFun
.export e_receiverhandle_eaReceiverHandle.rFun
.descs e_receiverhandle_dReceiverHandle.rFun e_receiverhandle_nReceiverHandle.rFun _ 6 0 "ReceiverHandle.rFun"
.n -4 e_receiverhandle_dReceiverHandle.rFun e_receiverhandle_eaReceiverHandle.rFun
.o 1 0
e_receiverhandle_nReceiverHandle.rFun
	push_node _cycle_in_spine 1
.o 2 0
e_receiverhandle_eaReceiverHandle.rFun
	jsr_eval 0
	repl_r_args_a 7 0 5 1
	jmp_eval_upd
.export e_receiverhandle_dReceiverHandle.rInetInfo
.export e_receiverhandle_nReceiverHandle.rInetInfo
.export e_receiverhandle_eaReceiverHandle.rInetInfo
.descs e_receiverhandle_dReceiverHandle.rInetInfo e_receiverhandle_nReceiverHandle.rInetInfo _ 7 0 "ReceiverHandle.rInetInfo"
.n -4 e_receiverhandle_dReceiverHandle.rInetInfo e_receiverhandle_eaReceiverHandle.rInetInfo
.o 1 0
e_receiverhandle_nReceiverHandle.rInetInfo
	push_node _cycle_in_spine 1
.o 2 0
e_receiverhandle_eaReceiverHandle.rInetInfo
	jsr_eval 0
	repl_r_args_a 7 0 6 1
	fill_a 0 1
	pop_a 1
.d 1 0
	rtn
.export e_receiverhandle_dReceiverHandle.rConnected
.export e_receiverhandle_nReceiverHandle.rConnected
.export e_receiverhandle_eaReceiverHandle.rConnected
.descs e_receiverhandle_dReceiverHandle.rConnected e_receiverhandle_nReceiverHandle.rConnected _ 8 0 "ReceiverHandle.rConnected"
.n -4 e_receiverhandle_dReceiverHandle.rConnected e_receiverhandle_eaReceiverHandle.rConnected
.o 1 0
e_receiverhandle_nReceiverHandle.rConnected
	push_node _cycle_in_spine 1
.o 2 0
e_receiverhandle_eaReceiverHandle.rConnected
	jsr_eval 0
	repl_r_args_a 7 0 7 1
	fill_a 0 1
	pop_a 1
.d 1 0
	rtn
