.comp 920 000111010010000
.start _nostart_
.depend "StdReceiverDef" "20210609153047"
.depend "systemid" "20210609153047"
.depend "device" "20210609153047"
.depend "id" "20210609153047"
.depend "oskey" "20210609153047"
.depend "StdKey" "20210609153047"
.depend "StdPicture" "20210609153047"
.depend "StdIOBasic" "20210609153047"
.depend "StdPictureDef" "20210609153047"
.depend "osfont" "20210609153047"
.depend "ostypes" "20210609153047"
.depend "ostoolbox" "20210609153047"
.depend "osrgn" "20210609153047"
.depend "ospicture" "20210609153047"
.depend "osbitmap" "20210609153049"
.depend "StdFile" "20210609153010"
.depend "_SystemStrictMaybes" "20210609153011"
.depend "StdMaybe" "20210609153011"
.depend "StdBitmap" "20210609153047"
.depend "StdString" "20210609153011"
.depend "StdOverloaded" "20210609153011"
.depend "StdIOCommon" "20210609153049"
.depend "StdFunctions" "20210609153011"
.depend "StdFunc" "20210609153011"
.depend "StdReceiverAttribute" "20210609153047"
.module m_StdReceiverAttribute "StdReceiverAttribute" "20210609153047"
.endinfo
.impmod _system
.implab _cycle_in_spine
.implab _type_error
.implab _hnf
.impdesc e_system_dind
.implab e_system_nind e_system_eaind
.impdesc e_system_dif
.implab e_system_nif e_system_eaif
.implab e_system_sif
.impdesc e_system_dAP
.implab e_system_nAP e_system_eaAP
.implab e_system_sAP
.impdesc ARRAY
.impdesc _Nil
.impdesc _Cons
.impdesc _Conss
.implab n_Conss ea_Conss
.impdesc _Consts
.implab n_Consts ea_Consts
.impdesc _Conssts
.implab n_Conssts ea_Conssts
.impdesc _Tuple
.impdesc d_S.1
.implab n_S.1 ea_S.1
.impdesc d_S.2
.implab n_S.2 ea_S.2
.impdesc d_S.3
.implab n_S.3 ea_S.3
.impdesc d_S.4
.implab n_S.4 ea_S.4
.impdesc d_S.5
.implab n_S.5 ea_S.5
.impdesc d_S.6
.implab n_S.6 ea_S.6
.implab _driver
.impmod StdReceiverDef
.impdesc e_StdReceiverDef_dReceiverInit
.impdesc e_StdReceiverDef_dReceiverSelectState
.impdesc e_StdReceiverDef_dReceiverConnectedReceivers
.export e_StdReceiverAttribute_sgetReceiverConnectedReceivers
.export e_StdReceiverAttribute_eagetReceiverConnectedReceivers
.descexp e_StdReceiverAttribute_dgetReceiverConnectedReceivers e_StdReceiverAttribute_ngetReceiverConnectedReceivers e_StdReceiverAttribute_lgetReceiverConnectedReceivers 1 0 "getReceiverConnectedReceivers"
.o 2 0
e_StdReceiverAttribute_lgetReceiverConnectedReceivers
	update_a 1 0
	create
	update_a 0 2
	pop_a 1
.d 2 0
	jmp e_StdReceiverAttribute_eagetReceiverConnectedReceivers
.n 1 e_StdReceiverAttribute_dgetReceiverConnectedReceivers e_StdReceiverAttribute_eagetReceiverConnectedReceivers
.o 1 0
e_StdReceiverAttribute_ngetReceiverConnectedReceivers
	push_node _cycle_in_spine 1
.o 2 0
e_StdReceiverAttribute_eagetReceiverConnectedReceivers
	jsr_eval 0
.o 2 0
e_StdReceiverAttribute_sgetReceiverConnectedReceivers
.o 2 0
s8
	eq_desc e_StdReceiverDef_dReceiverConnectedReceivers 1 0
	jmp_true case.1
	jmp s8.1
case.1
	repl_args 1 1
	jmp_eval_upd
s8.1
	pop_a 2
	pushD m_StdReceiverAttribute
	pushD e_StdReceiverAttribute_dgetReceiverConnectedReceivers
.d 0 2 ii
	jmp _match_error
.export e_StdReceiverAttribute_sgetReceiverSelectStateAtt
.export e_StdReceiverAttribute_eagetReceiverSelectStateAtt
.descexp e_StdReceiverAttribute_dgetReceiverSelectStateAtt e_StdReceiverAttribute_ngetReceiverSelectStateAtt e_StdReceiverAttribute_lgetReceiverSelectStateAtt 1 0 "getReceiverSelectStateAtt"
.o 2 0
e_StdReceiverAttribute_lgetReceiverSelectStateAtt
	update_a 1 0
	create
	update_a 0 2
	pop_a 1
.d 2 0
	jmp e_StdReceiverAttribute_eagetReceiverSelectStateAtt
.n 1 e_StdReceiverAttribute_dgetReceiverSelectStateAtt e_StdReceiverAttribute_eagetReceiverSelectStateAtt
.o 1 0
e_StdReceiverAttribute_ngetReceiverSelectStateAtt
	push_node _cycle_in_spine 1
.o 2 0
e_StdReceiverAttribute_eagetReceiverSelectStateAtt
	jsr_eval 0
.o 2 0
e_StdReceiverAttribute_sgetReceiverSelectStateAtt
.o 2 0
s7
	eq_desc e_StdReceiverDef_dReceiverSelectState 1 0
	jmp_true case.2
	jmp s7.1
case.2
	repl_args 1 1
	jmp_eval_upd
s7.1
	pop_a 2
	pushD m_StdReceiverAttribute
	pushD e_StdReceiverAttribute_dgetReceiverSelectStateAtt
.d 0 2 ii
	jmp _match_error
.export e_StdReceiverAttribute_sgetReceiverInitFun
.export e_StdReceiverAttribute_eagetReceiverInitFun
.descexp e_StdReceiverAttribute_dgetReceiverInitFun e_StdReceiverAttribute_ngetReceiverInitFun e_StdReceiverAttribute_lgetReceiverInitFun 1 0 "getReceiverInitFun"
.o 2 0
e_StdReceiverAttribute_lgetReceiverInitFun
	update_a 1 0
	create
	update_a 0 2
	pop_a 1
.d 2 0
	jmp e_StdReceiverAttribute_eagetReceiverInitFun
.n 1 e_StdReceiverAttribute_dgetReceiverInitFun e_StdReceiverAttribute_eagetReceiverInitFun
.o 1 0
e_StdReceiverAttribute_ngetReceiverInitFun
	push_node _cycle_in_spine 1
.o 2 0
e_StdReceiverAttribute_eagetReceiverInitFun
	jsr_eval 0
.o 2 0
e_StdReceiverAttribute_sgetReceiverInitFun
.o 2 0
s6
	eq_desc e_StdReceiverDef_dReceiverInit 1 0
	jmp_true case.3
	jmp s6.1
case.3
	repl_args 1 1
	jmp_eval_upd
s6.1
	pop_a 2
	pushD m_StdReceiverAttribute
	pushD e_StdReceiverAttribute_dgetReceiverInitFun
.d 0 2 ii
	jmp _match_error
.export e_StdReceiverAttribute_sisReceiverConnectedReceivers
.descexp e_StdReceiverAttribute_disReceiverConnectedReceivers e_StdReceiverAttribute_nisReceiverConnectedReceivers e_StdReceiverAttribute_lisReceiverConnectedReceivers 1 0 "isReceiverConnectedReceivers"
.o 2 0
e_StdReceiverAttribute_lisReceiverConnectedReceivers
	pop_a 1
.d 1 0
	jsr ea5
.o 0 1 b
	buildB_b 0
	pop_b 1
.d 1 0
	rtn
.n 1 e_StdReceiverAttribute_disReceiverConnectedReceivers
.o 1 0
e_StdReceiverAttribute_nisReceiverConnectedReceivers
	push_node _cycle_in_spine 1
.d 1 0
	jsr ea5
.o 0 1 b
	fillB_b 0 0
	pop_b 1
.d 1 0
	rtn
.o 1 0
ea5
	jsr_eval 0
.o 1 0
e_StdReceiverAttribute_sisReceiverConnectedReceivers
.o 1 0
s5
	eq_desc e_StdReceiverDef_dReceiverConnectedReceivers 1 0
	pop_a 1
.d 0 1 b
	rtn
.export e_StdReceiverAttribute_sisReceiverSelectState
.descexp e_StdReceiverAttribute_disReceiverSelectState e_StdReceiverAttribute_nisReceiverSelectState e_StdReceiverAttribute_lisReceiverSelectState 1 0 "isReceiverSelectState"
.o 2 0
e_StdReceiverAttribute_lisReceiverSelectState
	pop_a 1
.d 1 0
	jsr ea4
.o 0 1 b
	buildB_b 0
	pop_b 1
.d 1 0
	rtn
.n 1 e_StdReceiverAttribute_disReceiverSelectState
.o 1 0
e_StdReceiverAttribute_nisReceiverSelectState
	push_node _cycle_in_spine 1
.d 1 0
	jsr ea4
.o 0 1 b
	fillB_b 0 0
	pop_b 1
.d 1 0
	rtn
.o 1 0
ea4
	jsr_eval 0
.o 1 0
e_StdReceiverAttribute_sisReceiverSelectState
.o 1 0
s4
	eq_desc e_StdReceiverDef_dReceiverSelectState 1 0
	pop_a 1
.d 0 1 b
	rtn
.export e_StdReceiverAttribute_sisReceiverInit
.descexp e_StdReceiverAttribute_disReceiverInit e_StdReceiverAttribute_nisReceiverInit e_StdReceiverAttribute_lisReceiverInit 1 0 "isReceiverInit"
.o 2 0
e_StdReceiverAttribute_lisReceiverInit
	pop_a 1
.d 1 0
	jsr ea3
.o 0 1 b
	buildB_b 0
	pop_b 1
.d 1 0
	rtn
.n 1 e_StdReceiverAttribute_disReceiverInit
.o 1 0
e_StdReceiverAttribute_nisReceiverInit
	push_node _cycle_in_spine 1
.d 1 0
	jsr ea3
.o 0 1 b
	fillB_b 0 0
	pop_b 1
.d 1 0
	rtn
.o 1 0
ea3
	jsr_eval 0
.o 1 0
e_StdReceiverAttribute_sisReceiverInit
.o 1 0
s3
	eq_desc e_StdReceiverDef_dReceiverInit 1 0
	pop_a 1
.d 0 1 b
	rtn
.export e_StdReceiverAttribute_sisValidReceiver2Attribute
.descexp e_StdReceiverAttribute_disValidReceiver2Attribute e_StdReceiverAttribute_nisValidReceiver2Attribute e_StdReceiverAttribute_lisValidReceiver2Attribute 1 0 "isValidReceiver2Attribute"
.o 2 0
e_StdReceiverAttribute_lisValidReceiver2Attribute
	pop_a 1
.d 1 0
	jsr ea2
.o 0 1 b
	buildB_b 0
	pop_b 1
.d 1 0
	rtn
.n 1 e_StdReceiverAttribute_disValidReceiver2Attribute
.o 1 0
e_StdReceiverAttribute_nisValidReceiver2Attribute
	push_node _cycle_in_spine 1
.d 1 0
	jsr ea2
.o 0 1 b
	fillB_b 0 0
	pop_b 1
.d 1 0
	rtn
.o 1 0
ea2
	jsr_eval 0
.o 1 0
e_StdReceiverAttribute_sisValidReceiver2Attribute
.o 1 0
s2
	pushD_a 0
	jmpD be e_StdReceiverDef_dReceiverSelectState 1 case.4 case.5
	pop_b 1
	jmp case.6
case.4
	pop_b 1
	repl_args 1 1
	pop_a 1
	pushB TRUE
.d 0 1 b
	rtn
case.5
	pop_b 1
	repl_args 1 1
	pop_a 1
	pushB TRUE
.d 0 1 b
	rtn
case.6
	pop_a 1
	pushB FALSE
.d 0 1 b
	rtn
.export e_StdReceiverAttribute_sisValidReceiverAttribute
.descexp e_StdReceiverAttribute_disValidReceiverAttribute e_StdReceiverAttribute_nisValidReceiverAttribute e_StdReceiverAttribute_lisValidReceiverAttribute 1 0 "isValidReceiverAttribute"
.o 2 0
e_StdReceiverAttribute_lisValidReceiverAttribute
	pop_a 1
.d 1 0
	jsr ea1
.o 0 1 b
	buildB_b 0
	pop_b 1
.d 1 0
	rtn
.n 1 e_StdReceiverAttribute_disValidReceiverAttribute
.o 1 0
e_StdReceiverAttribute_nisValidReceiverAttribute
	push_node _cycle_in_spine 1
.d 1 0
	jsr ea1
.o 0 1 b
	fillB_b 0 0
	pop_b 1
.d 1 0
	rtn
.o 1 0
ea1
	jsr_eval 0
.o 1 0
e_StdReceiverAttribute_sisValidReceiverAttribute
.o 1 0
s1
	pushD_a 0
	jmpD be e_StdReceiverDef_dReceiverSelectState 1 case.7 case.8
	pop_b 1
	jmp case.9
case.7
	pop_b 1
	repl_args 1 1
	pop_a 1
	pushB TRUE
.d 0 1 b
	rtn
case.8
	pop_b 1
	repl_args 1 1
	pop_a 1
	pushB TRUE
.d 0 1 b
	rtn
case.9
	pop_a 1
	pushB FALSE
.d 0 1 b
	rtn
.impmod _system
.implab _match_error
