.comp 920 000111010010000
.start _nostart_
.depend "StdReal" "20210609153011"
.depend "StdTuple" "20210609153011"
.depend "StdBool" "20210609153010"
.depend "StdClass" "20210609153010"
.depend "ossystem" "20210609153047"
.depend "StdInt" "20210609153010"
.depend "ostoolbar" "20210609153047"
.depend "menuCrossCall_12" "20210609153047"
.depend "osdocumentinterface" "20210609153047"
.depend "systemid" "20210609153047"
.depend "device" "20210609153047"
.depend "id" "20210609153047"
.depend "oskey" "20210609153047"
.depend "StdKey" "20210609153047"
.depend "StdPicture" "20210609153047"
.depend "StdIOBasic" "20210609153047"
.depend "StdPictureDef" "20210609153047"
.depend "osfont" "20210609153047"
.depend "ostypes" "20210609153047"
.depend "ostoolbox" "20210609153047"
.depend "osrgn" "20210609153047"
.depend "ospicture" "20210609153047"
.depend "osbitmap" "20210609153049"
.depend "StdFile" "20210609153010"
.depend "_SystemStrictMaybes" "20210609153011"
.depend "StdMaybe" "20210609153011"
.depend "StdBitmap" "20210609153047"
.depend "StdString" "20210609153011"
.depend "StdOverloaded" "20210609153011"
.depend "StdIOCommon" "20210609153049"
.depend "StdFunctions" "20210609153011"
.depend "StdFunc" "20210609153011"
.depend "StdSystem" "20210609153047"
.module m_StdSystem "StdSystem" "20210609153047"
.endinfo
.impmod _system
.implab _cycle_in_spine
.implab _type_error
.implab _hnf
.impdesc e_system_dind
.implab e_system_nind e_system_eaind
.impdesc e_system_dif
.implab e_system_nif e_system_eaif
.implab e_system_sif
.impdesc e_system_dAP
.implab e_system_nAP e_system_eaAP
.implab e_system_sAP
.impdesc ARRAY
.impdesc _Nil
.impdesc _Cons
.impdesc _Conss
.implab n_Conss ea_Conss
.impdesc _Consts
.implab n_Consts ea_Consts
.impdesc _Conssts
.implab n_Conssts ea_Conssts
.impdesc _Tuple
.impdesc d_S.1
.implab n_S.1 ea_S.1
.impdesc d_S.2
.implab n_S.2 ea_S.2
.impdesc d_S.3
.implab n_S.3 ea_S.3
.impdesc d_S.4
.implab n_S.4 ea_S.4
.impdesc d_S.5
.implab n_S.5 ea_S.5
.impdesc d_S.6
.implab n_S.6 ea_S.6
.implab _driver
.impmod StdReal
.implab e_StdReal_s*;4
.impmod ossystem
.implab e_ossystem_sosHomepath
.implab e_ossystem_sosApplicationpath
.implab e_ossystem_sosMMtoHPixels
.implab e_ossystem_sosMMtoVPixels
.implab e_ossystem_sosMaxScrollWindowSize
.implab e_ossystem_sosPrintSetupTypical
.impmod StdIOBasic
.impdesc e_StdIOBasic_rSize
.export e_StdSystem_smaxFixedWindowSize
.descexp e_StdSystem_dmaxFixedWindowSize e_StdSystem_nmaxFixedWindowSize e_StdSystem_lmaxFixedWindowSize 0 0 "maxFixedWindowSize"
.o 1 0
e_StdSystem_lmaxFixedWindowSize
	halt
.n 0 e_StdSystem_dmaxFixedWindowSize
.o 1 0
e_StdSystem_nmaxFixedWindowSize
	push_node _cycle_in_spine 0
.d 0 0
	jsr ea12
.o 0 2 ii
	fill_r e_StdIOBasic_rSize 0 2 0 0 0
	pop_b 2
.d 1 0
	rtn
.o 0 0
ea12
.o 0 0
e_StdSystem_smaxFixedWindowSize
.o 0 0
s12
.d 0 0
	jsr e_ossystem_sosMaxScrollWindowSize
.o 0 2 ii
	push_b 1
	push_b 1
	update_b 1 3
	updatepop_b 0 2
.d 0 2 ii
	rtn
.export e_StdSystem_smaxScrollWindowSize
.descexp e_StdSystem_dmaxScrollWindowSize e_StdSystem_nmaxScrollWindowSize e_StdSystem_lmaxScrollWindowSize 0 0 "maxScrollWindowSize"
.o 1 0
e_StdSystem_lmaxScrollWindowSize
	halt
.n 0 e_StdSystem_dmaxScrollWindowSize
.o 1 0
e_StdSystem_nmaxScrollWindowSize
	push_node _cycle_in_spine 0
.d 0 0
	jsr ea11
.o 0 2 ii
	fill_r e_StdIOBasic_rSize 0 2 0 0 0
	pop_b 2
.d 1 0
	rtn
.o 0 0
ea11
.o 0 0
e_StdSystem_smaxScrollWindowSize
.o 0 0
s11
.d 0 0
	jsr e_ossystem_sosMaxScrollWindowSize
.o 0 2 ii
	push_b 1
	push_b 1
	update_b 1 3
	updatepop_b 0 2
.d 0 2 ii
	rtn
.export e_StdSystem_svinch
.descexp e_StdSystem_dvinch e_StdSystem_nvinch e_StdSystem_lvinch 1 0 "vinch"
.o 2 0
e_StdSystem_lvinch
	pop_a 1
.d 1 0
	jsr ea10
.o 0 1 i
	buildI_b 0
	pop_b 1
.d 1 0
	rtn
.n 1 e_StdSystem_dvinch
.o 1 0
e_StdSystem_nvinch
	push_node _cycle_in_spine 1
.d 1 0
	jsr ea10
.o 0 1 i
	fillI_b 0 0
	pop_b 1
.d 1 0
	rtn
.o 1 0
ea10
	jsr_eval 0
	pushR_a 0
	pop_a 1
.o 0 1 r
e_StdSystem_svinch
.o 0 1 r
s10
	pushR 25.4
	push_b 1
	mulR
	updatepop_b 0 1
.d 0 1 r
	jmp e_ossystem_sosMMtoVPixels
.export e_StdSystem_shinch
.descexp e_StdSystem_dhinch e_StdSystem_nhinch e_StdSystem_lhinch 1 0 "hinch"
.o 2 0
e_StdSystem_lhinch
	pop_a 1
.d 1 0
	jsr ea9
.o 0 1 i
	buildI_b 0
	pop_b 1
.d 1 0
	rtn
.n 1 e_StdSystem_dhinch
.o 1 0
e_StdSystem_nhinch
	push_node _cycle_in_spine 1
.d 1 0
	jsr ea9
.o 0 1 i
	fillI_b 0 0
	pop_b 1
.d 1 0
	rtn
.o 1 0
ea9
	jsr_eval 0
	pushR_a 0
	pop_a 1
.o 0 1 r
e_StdSystem_shinch
.o 0 1 r
s9
	pushR 25.4
	push_b 1
	mulR
	updatepop_b 0 1
.d 0 1 r
	jmp e_ossystem_sosMMtoHPixels
.export e_StdSystem_svmm
.descexp e_StdSystem_dvmm e_StdSystem_nvmm e_StdSystem_lvmm 1 0 "vmm"
.o 2 0
e_StdSystem_lvmm
	pop_a 1
.d 1 0
	jsr ea8
.o 0 1 i
	buildI_b 0
	pop_b 1
.d 1 0
	rtn
.n 1 e_StdSystem_dvmm
.o 1 0
e_StdSystem_nvmm
	push_node _cycle_in_spine 1
.d 1 0
	jsr ea8
.o 0 1 i
	fillI_b 0 0
	pop_b 1
.d 1 0
	rtn
.o 1 0
ea8
	jsr_eval 0
	pushR_a 0
	pop_a 1
.o 0 1 r
e_StdSystem_svmm
.o 0 1 r
s8
	push_b 0
	updatepop_b 0 1
.d 0 1 r
	jmp e_ossystem_sosMMtoVPixels
.export e_StdSystem_shmm
.descexp e_StdSystem_dhmm e_StdSystem_nhmm e_StdSystem_lhmm 1 0 "hmm"
.o 2 0
e_StdSystem_lhmm
	pop_a 1
.d 1 0
	jsr ea7
.o 0 1 i
	buildI_b 0
	pop_b 1
.d 1 0
	rtn
.n 1 e_StdSystem_dhmm
.o 1 0
e_StdSystem_nhmm
	push_node _cycle_in_spine 1
.d 1 0
	jsr ea7
.o 0 1 i
	fillI_b 0 0
	pop_b 1
.d 1 0
	rtn
.o 1 0
ea7
	jsr_eval 0
	pushR_a 0
	pop_a 1
.o 0 1 r
e_StdSystem_shmm
.o 0 1 r
s7
	push_b 0
	updatepop_b 0 1
.d 0 1 r
	jmp e_ossystem_sosMMtoHPixels
.export e_StdSystem_sticksPerSecond
.descexp e_StdSystem_dticksPerSecond e_StdSystem_nticksPerSecond e_StdSystem_lticksPerSecond 0 0 "ticksPerSecond"
.o 1 0
e_StdSystem_lticksPerSecond
	halt
.n 0 e_StdSystem_dticksPerSecond
.o 1 0
e_StdSystem_nticksPerSecond
	push_node _cycle_in_spine 0
.d 0 0
	jsr ea6
.o 0 1 i
	fillI_b 0 0
	pop_b 1
.d 1 0
	rtn
.o 0 0
ea6
.o 0 0
e_StdSystem_sticksPerSecond
.o 0 0
s6
	pushI 1000
.d 0 1 i
	rtn
.export e_StdSystem_sprintSetupTypical
.descexp e_StdSystem_dprintSetupTypical e_StdSystem_nprintSetupTypical e_StdSystem_lprintSetupTypical 0 0 "printSetupTypical"
.o 1 0
e_StdSystem_lprintSetupTypical
	halt
.n 0 e_StdSystem_dprintSetupTypical
.o 1 0
e_StdSystem_nprintSetupTypical
	push_node _cycle_in_spine 0
.d 0 0
	jsr ea5
.o 0 1 b
	fillB_b 0 0
	pop_b 1
.d 1 0
	rtn
.o 0 0
ea5
.o 0 0
e_StdSystem_sprintSetupTypical
.o 0 0
s5
.d 0 0
	jmp e_ossystem_sosPrintSetupTypical
.export e_StdSystem_snewlineChars
.descexp e_StdSystem_dnewlineChars e_StdSystem_nnewlineChars e_StdSystem_lnewlineChars 0 0 "newlineChars"
.o 1 0
e_StdSystem_lnewlineChars
	halt
.n 0 e_StdSystem_dnewlineChars
.o 1 0
e_StdSystem_nnewlineChars
	push_node _cycle_in_spine 0
.d 0 0
	jsr ea4
.o 1 0
	fillh ARRAY 1 1
.d 1 0
	rtn
.o 0 0
ea4
.o 0 0
e_StdSystem_snewlineChars
.o 0 0
s4
	buildAC "\r\n"
.d 1 0
	rtn
.export e_StdSystem_sapplicationpath
.descexp e_StdSystem_dapplicationpath e_StdSystem_napplicationpath e_StdSystem_lapplicationpath 1 0 "applicationpath"
.o 2 0
e_StdSystem_lapplicationpath
	pop_a 1
.d 1 0
	jsr ea3
.o 1 0
	buildh ARRAY 1
.d 1 0
	rtn
.n 1 e_StdSystem_dapplicationpath
.o 1 0
e_StdSystem_napplicationpath
	push_node _cycle_in_spine 1
.d 1 0
	jsr ea3
.o 1 0
	fillh ARRAY 1 1
.d 1 0
	rtn
.o 1 0
ea3
	jsr_eval 0
	push_array 0
	update_a 0 1
	pop_a 1
.o 1 0
e_StdSystem_sapplicationpath
.o 1 0
s3
	push_a 0
	updatepop_a 0 1
.d 1 0
	jmp e_ossystem_sosApplicationpath
.export e_StdSystem_shomepath
.descexp e_StdSystem_dhomepath e_StdSystem_nhomepath e_StdSystem_lhomepath 1 0 "homepath"
.o 2 0
e_StdSystem_lhomepath
	pop_a 1
.d 1 0
	jsr ea2
.o 1 0
	buildh ARRAY 1
.d 1 0
	rtn
.n 1 e_StdSystem_dhomepath
.o 1 0
e_StdSystem_nhomepath
	push_node _cycle_in_spine 1
.d 1 0
	jsr ea2
.o 1 0
	fillh ARRAY 1 1
.d 1 0
	rtn
.o 1 0
ea2
	jsr_eval 0
	push_array 0
	update_a 0 1
	pop_a 1
.o 1 0
e_StdSystem_shomepath
.o 1 0
s2
	push_a 0
	updatepop_a 0 1
.d 1 0
	jmp e_ossystem_sosHomepath
.export e_StdSystem_sdirseparator
.descexp e_StdSystem_ddirseparator e_StdSystem_ndirseparator e_StdSystem_ldirseparator 0 0 "dirseparator"
.o 1 0
e_StdSystem_ldirseparator
	halt
.n 0 e_StdSystem_ddirseparator
.o 1 0
e_StdSystem_ndirseparator
	push_node _cycle_in_spine 0
.d 0 0
	jsr ea1
.o 0 1 c
	fillC_b 0 0
	pop_b 1
.d 1 0
	rtn
.o 0 0
ea1
.o 0 0
e_StdSystem_sdirseparator
.o 0 0
s1
	pushC '\\'
.d 0 1 c
	rtn
