.comp 920 000011110011000
.start _nostart_
.depend "StdCharList" "20210609153507"
.depend "_SystemArray" "20210609153507"
.depend "StdArray" "20210609153507"
.depend "StdEnv" "20210609153507"
.depend "_SystemEnum" "20210609153507"
.depend "StdEnum" "20210609153507"
.depend "StdTuple" "20210609153507"
.depend "StdOrdList" "20210609153507"
.depend "TCPEvent" "20210609153507"
.depend "tcp_bytestreams" "20210609153507"
.depend "TCPDef" "20210609153507"
.depend "TCPChannels" "20210609153507"
.depend "StdFile" "20210609153507"
.depend "tcp" "20210609153507"
.depend "TCPChannelClass" "20210609153507"
.depend "StdMisc" "20210609153507"
.depend "StdFunctions" "20210609153507"
.depend "StdFunc" "20210609153507"
.depend "StdString" "20210609153507"
.depend "_SystemEnumStrict" "20210609153507"
.depend "_SystemStrictLists" "20210609153507"
.depend "StdStrictLists" "20210609153507"
.depend "StdReal" "20210609153507"
.depend "StdChar" "20210609153507"
.depend "StdInt" "20210609153507"
.depend "StdBool" "20210609153507"
.depend "StdClass" "20210609153507"
.depend "StdList" "20210609153507"
.depend "StdOverloaded" "20210609153507"
.depend "_SystemDynamic" "20210609153507"
.depend "TCPStringChannelsInternal" "20210609153507"
.module m_TCPStringChannelsInternal "TCPStringChannelsInternal" "20210609153507"
.endinfo
.impmod _system
.implab _cycle_in_spine
.implab _type_error
.implab _hnf
.impdesc e_system_dind
.implab e_system_nind e_system_eaind
.impdesc e_system_dif
.implab e_system_nif e_system_eaif
.implab e_system_sif
.impdesc e_system_dAP
.implab e_system_nAP e_system_eaAP
.implab e_system_sAP
.impdesc ARRAY
.impdesc _Nil
.impdesc _Cons
.impdesc _Conss
.implab n_Conss ea_Conss
.impdesc _Consts
.implab n_Consts ea_Consts
.impdesc _Conssts
.implab n_Conssts ea_Conssts
.impdesc _Tuple
.impdesc d_S.1
.implab n_S.1 ea_S.1
.impdesc d_S.2
.implab n_S.2 ea_S.2
.impdesc d_S.3
.implab n_S.3 ea_S.3
.impdesc d_S.4
.implab n_S.4 ea_S.4
.impdesc d_S.5
.implab n_S.5 ea_S.5
.impdesc d_S.6
.implab n_S.6 ea_S.6
.implab _driver
.impmod _SystemArray
.impdesc e__SystemArray_dselect;19
.implab e__SystemArray_nselect;19
.impmod StdFunc
.implab e_StdFunc_sseq
.impmod StdChar
.implab e_StdChar_sdigitToInt
.impdesc e_StdChar_disDigit
.impmod StdInt
.implab e_StdInt_s+;6
.implab e_StdInt_s-;7
.implab e_StdInt_s*;9
.implab e_StdInt_sone;11
.implab e_StdInt_s<;17
.impmod StdBool
.implab e_StdBool_snot
.impmod StdList
.implab e_StdList_stakeWhile
.implab e_StdList_smap
.implab e_StdList_slength;47
.export e_TCPStringChannelsInternal_eaReadingLength
.descexp e_TCPStringChannelsInternal_dReadingLength e_TCPStringChannelsInternal_nReadingLength e_TCPStringChannelsInternal_lReadingLength 1 0 "ReadingLength"
.o 2 0
e_TCPStringChannelsInternal_lReadingLength
	update_a 1 0
	create
	update_a 0 2
	pop_a 1
.d 2 0
	jmp e_TCPStringChannelsInternal_eaReadingLength
.n 1 e_TCPStringChannelsInternal_dReadingLength e_TCPStringChannelsInternal_eaReadingLength
.o 1 0
e_TCPStringChannelsInternal_nReadingLength
	push_node _cycle_in_spine 1
.o 2 0
e_TCPStringChannelsInternal_eaReadingLength
	jsr_eval 0
	pushI_a 0
	pop_a 1
	fill_r e_TCPStringChannelsInternal_kReadingLength 0 1 0 0 0
	pop_b 1
.d 1 0
	rtn
.export e_TCPStringChannelsInternal_eaReadingString
.descexp e_TCPStringChannelsInternal_dReadingString e_TCPStringChannelsInternal_nReadingString e_TCPStringChannelsInternal_lReadingString 3 0 "ReadingString"
.a 3 e_TCPStringChannelsInternal_eaReadingString
.o 2 0
e_TCPStringChannelsInternal_lReadingString
	push_args 0 2 2
	update_a 3 2
	create
	update_a 0 4
	pop_a 1
.d 4 0
	jmp e_TCPStringChannelsInternal_eaReadingString
.n 3 e_TCPStringChannelsInternal_dReadingString e_TCPStringChannelsInternal_eaReadingString
.o 1 0
e_TCPStringChannelsInternal_nReadingString
	push_node _cycle_in_spine 3
.o 4 0
e_TCPStringChannelsInternal_eaReadingString
	jsr_eval 2
	jsr_eval 1
	jsr_eval 0
	pushI_a 2
	pushI_a 1
	push_array 0
	update_a 0 3
	pop_a 3
	fill_r e_TCPStringChannelsInternal_kReadingString 1 2 1 0 0
	pop_a 1
	pop_b 2
.d 1 0
	rtn
.export e_TCPStringChannelsInternal_kReadingLength
.record e_TCPStringChannelsInternal_kReadingLength di 0 1 "ReadingLength"
.export e_TCPStringChannelsInternal_kReadingString
.record e_TCPStringChannelsInternal_kReadingString daii 1 2 "ReadingString"
.export e_TCPStringChannelsInternal_dEndOfMessages
.desc e_TCPStringChannelsInternal_dEndOfMessages _hnf _hnf 0 0 "EndOfMessages"
.export e_TCPStringChannelsInternal_rStringRChannel_
.record e_TCPStringChannelsInternal_rStringRChannel_ aaai 3 1 "StringRChannel_"
.descexp e_TCPStringChannelsInternal_tStringRChannel_ e_TCPStringChannelsInternal_cStringRChannel_ _hnf 4 1 "StringRChannel_"
.n 4 e_TCPStringChannelsInternal_tStringRChannel_
.o 1 0
e_TCPStringChannelsInternal_cStringRChannel_
	push_node _cycle_in_spine 4
	jsr_eval 3
	jsr_eval 2
	jsr_eval 1
	jsr_eval 0
	pushI_a 3
	update_a 2 3
	update_a 1 2
	update_a 0 1
	pop_a 1
.impmod TCPStringChannelsInternal
.impdesc e_TCPStringChannelsInternal_rStringRChannel_
	fill_r e_TCPStringChannelsInternal_rStringRChannel_ 3 1 3 0 0
	pop_a 3
	pop_b 1
.d 1 0
	rtn
.export e_TCPStringChannelsInternal_dStringRChannel_.tcp_rchan
.export e_TCPStringChannelsInternal_nStringRChannel_.tcp_rchan
.export e_TCPStringChannelsInternal_eaStringRChannel_.tcp_rchan
.descs e_TCPStringChannelsInternal_dStringRChannel_.tcp_rchan e_TCPStringChannelsInternal_nStringRChannel_.tcp_rchan _ 1 0 "StringRChannel_.tcp_rchan"
.n -4 e_TCPStringChannelsInternal_dStringRChannel_.tcp_rchan e_TCPStringChannelsInternal_eaStringRChannel_.tcp_rchan
.o 1 0
e_TCPStringChannelsInternal_nStringRChannel_.tcp_rchan
	push_node _cycle_in_spine 1
.o 2 0
e_TCPStringChannelsInternal_eaStringRChannel_.tcp_rchan
	jsr_eval 0
	repl_r_args_a 3 1 1 1
	fill_a 0 1
	pop_a 1
.d 1 0
	rtn
.export e_TCPStringChannelsInternal_dStringRChannel_.readPhase
.export e_TCPStringChannelsInternal_nStringRChannel_.readPhase
.export e_TCPStringChannelsInternal_eaStringRChannel_.readPhase
.descs e_TCPStringChannelsInternal_dStringRChannel_.readPhase e_TCPStringChannelsInternal_nStringRChannel_.readPhase _ 3 0 "StringRChannel_.readPhase"
.n -4 e_TCPStringChannelsInternal_dStringRChannel_.readPhase e_TCPStringChannelsInternal_eaStringRChannel_.readPhase
.o 1 0
e_TCPStringChannelsInternal_nStringRChannel_.readPhase
	push_node _cycle_in_spine 1
.o 2 0
e_TCPStringChannelsInternal_eaStringRChannel_.readPhase
	jsr_eval 0
	repl_r_args_a 3 1 2 1
	fill_a 0 1
	pop_a 1
.d 1 0
	rtn
.export e_TCPStringChannelsInternal_dStringRChannel_.receivedStrings
.export e_TCPStringChannelsInternal_nStringRChannel_.receivedStrings
.export e_TCPStringChannelsInternal_eaStringRChannel_.receivedStrings
.descs e_TCPStringChannelsInternal_dStringRChannel_.receivedStrings e_TCPStringChannelsInternal_nStringRChannel_.receivedStrings _ 4 0 "StringRChannel_.receivedStrings"
.n -4 e_TCPStringChannelsInternal_dStringRChannel_.receivedStrings e_TCPStringChannelsInternal_eaStringRChannel_.receivedStrings
.o 1 0
e_TCPStringChannelsInternal_nStringRChannel_.receivedStrings
	push_node _cycle_in_spine 1
.o 2 0
e_TCPStringChannelsInternal_eaStringRChannel_.receivedStrings
	jsr_eval 0
	repl_r_args_a 3 1 3 1
	fill_a 0 1
	pop_a 1
.d 1 0
	rtn
.export e_TCPStringChannelsInternal_dStringRChannel_.maxSize
.export e_TCPStringChannelsInternal_nStringRChannel_.maxSize
.descs e_TCPStringChannelsInternal_dStringRChannel_.maxSize e_TCPStringChannelsInternal_nStringRChannel_.maxSize INT 5 0 "StringRChannel_.maxSize"
.n -3 e_TCPStringChannelsInternal_dStringRChannel_.maxSize
.o 1 0
e_TCPStringChannelsInternal_nStringRChannel_.maxSize
	push_node _cycle_in_spine 1
	jsr_eval 0
	push_r_args_b 0 3 1 1 1
	pop_a 1
	fillI_b 0 0
	pop_b 1
.d 1 0
	rtn
.export e_TCPStringChannelsInternal_sTD;StringRChannel_
.export e_TCPStringChannelsInternal_eaTD;StringRChannel_
.descexp e_TCPStringChannelsInternal_dTD;StringRChannel_ e_TCPStringChannelsInternal_nTD;StringRChannel_ e_TCPStringChannelsInternal_lTD;StringRChannel_ 1 0 "TD;StringRChannel_"
.o 2 0
e_TCPStringChannelsInternal_lTD;StringRChannel_
	update_a 1 0
	create
	update_a 0 2
	pop_a 1
.d 2 0
	jmp e_TCPStringChannelsInternal_eaTD;StringRChannel_
.n 1 e_TCPStringChannelsInternal_dTD;StringRChannel_ e_TCPStringChannelsInternal_eaTD;StringRChannel_
.o 1 0
e_TCPStringChannelsInternal_nTD;StringRChannel_
	push_node _cycle_in_spine 1
.o 2 0
e_TCPStringChannelsInternal_eaTD;StringRChannel_
.o 2 0
e_TCPStringChannelsInternal_sTD;StringRChannel_
.o 2 0
s3
	fillh _Nil 0 1
	pop_a 1
.d 1 0
	rtn
.export e_TCPStringChannelsInternal_sTD;ReadPhase
.export e_TCPStringChannelsInternal_eaTD;ReadPhase
.descexp e_TCPStringChannelsInternal_dTD;ReadPhase e_TCPStringChannelsInternal_nTD;ReadPhase e_TCPStringChannelsInternal_lTD;ReadPhase 1 0 "TD;ReadPhase"
.o 2 0
e_TCPStringChannelsInternal_lTD;ReadPhase
	update_a 1 0
	create
	update_a 0 2
	pop_a 1
.d 2 0
	jmp e_TCPStringChannelsInternal_eaTD;ReadPhase
.n 1 e_TCPStringChannelsInternal_dTD;ReadPhase e_TCPStringChannelsInternal_eaTD;ReadPhase
.o 1 0
e_TCPStringChannelsInternal_nTD;ReadPhase
	push_node _cycle_in_spine 1
.o 2 0
e_TCPStringChannelsInternal_eaTD;ReadPhase
.o 2 0
e_TCPStringChannelsInternal_sTD;ReadPhase
.o 2 0
s2
	fillh _Nil 0 1
	pop_a 1
.d 1 0
	rtn
.export e_TCPStringChannelsInternal_saddString
.descexp e_TCPStringChannelsInternal_daddString e_TCPStringChannelsInternal_naddString e_TCPStringChannelsInternal_laddString 3 0 "addString"
.a 0 a1
.o 2 0
e_TCPStringChannelsInternal_laddString
	repl_args 2 2
.o 3 0
a1
.d 3 0
	jsr ea1
.o 2 0
	push_a 1
	push_a 1
	buildh _Tuple 2
	updatepop_a 0 2
.d 1 0
	rtn
.n 3 e_TCPStringChannelsInternal_daddString
.o 1 0
e_TCPStringChannelsInternal_naddString
	push_node _cycle_in_spine 3
.d 3 0
	jsr ea1
.o 2 0
	push_a 1
	push_a 1
	fillh _Tuple 2 4
	pop_a 2
.d 1 0
	rtn
.o 3 0
ea1
	jsr_eval 2
	jsr_eval 1
	jsr_eval 0
	repl_args 2 2
	jsr_eval 1
	jsr_eval 0
	pushI_a 3
	pushI_a 1
	push_array 0
	update_a 3 4
	update_a 0 3
	pop_a 3
.o 2 2 ii
e_TCPStringChannelsInternal_saddString
.o 2 2 ii
s1
	pushD_a 1
	jmpD be e_TCPStringChannelsInternal_kReadingString 0 case.2 case.3
case.1
	pop_b 1
	buildh _Nil 0
	push_a 2
	push_a 1
	update_a 1 2
	update_a 0 1
	pop_a 1
	update_a 1 3
	updatepop_a 0 2
	pop_b 2
.d 2 0
	rtn
case.2
	pop_b 1
	push_r_args 1 0 1
	push_a 0
	push_arraysize CHAR 0 1
	push_b 2
	ltI
	notB
	jmp_false else.4
	buildh _Nil 0
	push_a 2
	push_a 1
	update_a 1 2
	update_a 0 1
	pop_a 1
	update_a 1 3
	updatepop_a 0 2
	pop_b 3
.d 2 0
	rtn
else.4
	push_a 0
	update_a 1 2
	updatepop_a 0 1
	push_arraysize CHAR 0 1
	pushI 1
	push_b 1
	update_b 1 2
	update_b 0 1
	pop_b 1
	subI
	create
	push_b 2
	push_a 1
	buildh ARRAY 1
.d 2 2 ii
	jsr s7
.o 1 0
	buildh e_StdChar_disDigit 0
	create
	push_a 2
	push_a 2
	update_a 2 3
	update_a 1 2
	update_a 0 1
	pop_a 1
	update_a 2 3
	update_a 1 2
	updatepop_a 0 1
.d 3 0
	jsr e_StdList_stakeWhile
.o 1 0
	buildh e_TCPStringChannelsInternal_dtransition;5.6 0
	create
	push_a 2
	push_a 2
	update_a 2 3
	update_a 1 2
	update_a 0 1
	pop_a 1
.d 3 0
	jsr e_StdList_smap
.o 1 0
	buildI_b 0
	push_a 1
	update_a 1 2
	update_a 0 1
	pop_a 1
	pop_b 1
.d 2 0
	jsr e_StdFunc_sseq
.o 1 0
	pushI_a 0
	push_b 2
	ltI
	jmp_false else.5
	push_b 1
	pushI 0
	ltI
	jmp_false else.5
	buildh e_TCPStringChannelsInternal_dEndOfMessages 0
	buildh _Nil 0
	update_a 1 4
	updatepop_a 0 3
	pop_b 2
.d 2 0
	rtn
else.5
	push_a 2
	push_arraysize CHAR 0 1
	push_b 1
	push_b 1
	update_b 1 2
	update_b 0 1
	pop_b 1
	subI
	push_a 1
.d 1 0
	jsr e_StdList_slength;47
.o 0 1 i
	ltI
	jmp_false else.7
	pushC ' '
	pushI_a 0
	create_array CHAR 0 1
	pushI_a 1
	pushI_a 1
	buildhr e_TCPStringChannelsInternal_kReadingString 1 2
	push_a 2
	buildh _Nil 0
	update_a 0 4
	update_a 0 3
	pop_a 1
.d 1 0
	jsr e_StdList_slength;47
.o 0 1 i
	push_b 1
	addI
	pushI 1
	push_b 1
	update_b 1 2
	update_b 0 1
	pop_b 1
	addI
	push_a 3
	push_b 2
	push_b 1
	update_b 1 2
	update_b 0 1
	pop_b 1
	update_a 1 4
	updatepop_a 0 3
	update_b 1 3
	updatepop_b 0 2
.d 2 2 ii
	jmp s1
else.7
	pushI_a 0
	buildhr e_TCPStringChannelsInternal_kReadingLength 0 1
	buildh _Nil 0
	update_a 1 4
	updatepop_a 0 3
	pop_b 2
.d 2 0
	rtn
case.3
	pop_b 1
	push_r_args 1 1 2
	push_a 1
	push_arraysize CHAR 0 1
	push_b 3
	ltI
	notB
	jmp_false else.8
	buildh _Nil 0
	push_a 3
	push_a 1
	update_a 1 2
	update_a 0 1
	pop_a 1
	update_a 1 4
	updatepop_a 0 3
	pop_b 4
.d 2 0
	rtn
else.8
	push_a 1
	push_arraysize CHAR 0 1
	push_b 3
	push_b 1
	update_b 1 2
	update_b 0 1
	pop_b 1
	subI
	push_b 1
	push_b 1
	ltI
	notB
	jmp_false else.9
	push_b 1
	push_b 3
	subI
	push_b 2
	push_b 5
	push_a 1
	push_a 1
	push_b 2
	update_b 2 3
	update_b 1 2
	update_b 0 1
	pop_b 1
	update_b 2 3
	update_b 1 2
	updatepop_b 0 1
	update_a 3 4
	update_a 1 3
	updatepop_a 0 2
.d 2 3 iii
	jsr s4
.o 1 0
	push_b 0
	push_b 3
	addI
	pushI 1
	push_b 1
	update_b 1 2
	update_b 0 1
	pop_b 1
	update_b 1 4
	updatepop_b 0 3
	addI
	pushI 0
	buildhr e_TCPStringChannelsInternal_kReadingLength 0 1
	push_b 0
	push_a 2
	push_b 2
	push_b 1
	update_b 1 2
	update_b 0 1
	pop_b 1
	update_b 1 3
	updatepop_b 0 2
	update_a 2 3
	update_a 1 2
	updatepop_a 0 1
.d 2 2 ii
	jsr s1
.o 2 0
	push_a 0
	push_a 3
	buildh ARRAY 1
	buildh _Cons 2
	push_a 2
	push_a 1
	update_a 1 2
	update_a 0 1
	pop_a 1
	update_a 1 4
	updatepop_a 0 3
.d 2 0
	rtn
else.9
	push_b 1
	push_b 3
	subI
	push_b 1
	push_b 5
	push_a 1
	push_a 1
	push_b 2
	update_b 2 3
	update_b 1 2
	update_b 0 1
	pop_b 1
	update_a 1 4
	updatepop_a 0 3
.d 2 3 iii
	jsr s4
.o 1 0
	push_b 0
	push_b 2
	subI
	push_b 3
	push_a 0
	push_b 1
	update_b 1 2
	update_b 0 1
	pop_b 1
	buildhr e_TCPStringChannelsInternal_kReadingString 1 2
	buildh _Nil 0
	update_a 1 2
	updatepop_a 0 1
	pop_b 5
.d 2 0
	rtn
.o 2 2 ii
s7
	push_b 0
	push_b 2
	ltI
	notB
	jmp_false else.10
	push_b 1
	push_b 1
	push_a 0
	build_u e_TCPStringChannelsInternal_d_f0.19 1 2 e_TCPStringChannelsInternal_n_f0.19
	buildI_b 0
	push_a 2
	build e__SystemArray_dselect;19 2 e__SystemArray_nselect;19
	fillh _Cons 2 3
	pop_a 1
	pop_b 2
.d 1 0
	rtn
else.10
	fillh _Nil 0 1
	pop_a 1
	pop_b 2
.d 1 0
	rtn
.export e_TCPStringChannelsInternal_d_f0.19
.export e_TCPStringChannelsInternal_n_f0.19
.descn e_TCPStringChannelsInternal_d_f0.19 e_TCPStringChannelsInternal_n_f0.19 3 0 "_f0.19"
.nu 1 2 e_TCPStringChannelsInternal_d_f0.19 _
.o 1 0
e_TCPStringChannelsInternal_n_f0.19
	push_node_u _cycle_in_spine 1 2
.o 2 2 ii
ea19
.o 2 2 ii
s19
	pushI 1
	push_b 1
	addI
	push_b 2
	push_a 0
	push_b 1
	update_b 1 2
	update_b 0 1
	pop_b 1
	updatepop_a 0 1
	update_b 1 3
	updatepop_b 0 2
.d 2 2 ii
	jmp s7
.o 2 3 iii
s4
	push_b 2
	pushI 0
	ltI
	notB
	jmp_false else.11
	updatepop_a 0 1
	pop_b 3
.d 1 0
	rtn
else.11
	pushI 1
	push_b 3
	subI
	pushI 1
	push_b 3
	addI
	pushI 1
	push_b 3
	addI
	push_b 4
	push_a 1
	select CHAR 0 1
	push_b 4
	push_a 0
	updatepop_a 0 1
	update CHAR 0 1
	push_a 1
	push_a 1
	update_a 1 2
	update_a 0 1
	pop_a 1
	update_a 1 2
	updatepop_a 0 1
	update_b 2 5
	update_b 1 4
	updatepop_b 0 3
.d 2 3 iii
	jmp s4
.export e_TCPStringChannelsInternal_dtransition;5.6
.desc e_TCPStringChannelsInternal_dtransition;5.6 _hnf l6 2 0 "transition;5.6"
.a 0 a6
.o 2 0
l6
	repl_args 1 1
.o 2 0
a6
.d 2 0
	jsr ea6
.o 0 1 i
	buildI_b 0
	pop_b 1
.d 1 0
	rtn
.o 2 0
ea6
	jsr_eval 1
	jsr_eval 0
	pushI_a 1
	pushC_a 0
	pop_a 2
.o 0 2 ci
s6
	push_b 0
	updatepop_b 0 1
.d 0 1 c
	jsr e_StdChar_sdigitToInt
.o 0 1 i
	push_b 1
	pushI 10
	mulI
	update_b 1 2
	updatepop_b 0 1
	addI
.d 0 1 i
	rtn
