.comp 920 000011110011000
.start _nostart_
.depend "Text.GenJSON" "20210613143555"
.depend "StdFile" "20210613143554"
.depend "StdString" "20210613143554"
.depend "Control.Monad.Fail" "20210613143554"
.depend "Data.Traversable" "20210613143554"
.depend "StdMisc" "20210613143554"
.depend "StdOverloadedList" "20210613143554"
.depend "Data.List" "20210613143554"
.depend "Data.Foldable" "20210613143554"
.depend "StdFunctions" "20210613143554"
.depend "StdFunc" "20210613143554"
.depend "_SystemEnumStrict" "20210613143554"
.depend "_SystemStrictLists" "20210613143554"
.depend "StdStrictLists" "20210613143554"
.depend "StdGeneric" "20210613143554"
.depend "Data.GenEq" "20210613143554"
.depend "StdReal" "20210613143554"
.depend "StdChar" "20210613143554"
.depend "StdInt" "20210613143554"
.depend "StdBool" "20210613143554"
.depend "StdClass" "20210613143554"
.depend "StdList" "20210613143554"
.depend "Data.Monoid" "20210613143554"
.depend "Control.Applicative" "20210613143554"
.depend "Control.Monad" "20210613143554"
.depend "Data.Functor" "20210613143554"
.depend "Data.Error" "20210613143554"
.depend "StdOverloaded" "20210613143554"
.depend "_SystemDynamic" "20210613143554"
.depend "Data.Error.GenJSON" "20210613143554"
.module m_Data.Error.GenJSON "Data.Error.GenJSON" "20210613143554"
.endinfo
.impmod _system
.implab _cycle_in_spine
.implab _type_error
.implab _hnf
.impdesc e_system_dind
.implab e_system_nind e_system_eaind
.impdesc e_system_dif
.implab e_system_nif e_system_eaif
.implab e_system_sif
.impdesc e_system_dAP
.implab e_system_nAP e_system_eaAP
.implab e_system_sAP
.impdesc ARRAY
.impdesc _Nil
.impdesc _Cons
.impdesc _Conss
.implab n_Conss ea_Conss
.impdesc _Consts
.implab n_Consts ea_Consts
.impdesc _Conssts
.implab n_Conssts ea_Conssts
.impdesc _Tuple
.impdesc d_S.1
.implab n_S.1 ea_S.1
.impdesc d_S.2
.implab n_S.2 ea_S.2
.impdesc d_S.3
.implab n_S.3 ea_S.3
.impdesc d_S.4
.implab n_S.4 ea_S.4
.impdesc d_S.5
.implab n_S.5 ea_S.5
.impdesc d_S.6
.implab n_S.6 ea_S.6
.implab _driver
.impmod StdString
.implab e_StdString_s==;2
.impmod Text.GenJSON
.impdesc e_Text.GenJSON_kJSONString
.impdesc e_Text.GenJSON_dJSONString
.implab e_Text.GenJSON_nJSONString e_Text.GenJSON_eaJSONString
.impdesc e_Text.GenJSON_kJSONArray
.impmod StdGeneric
.impdesc e_StdGeneric_dLEFT
.impdesc e_StdGeneric_dRIGHT
.impdesc e_StdGeneric_dCONS
.impmod Data.Error
.impdesc e_Data.Error_dError
.impdesc e_Data.Error_dOk
.export e_Data.Error.GenJSON_sJSONDecode_MaybeError;1
.descexp e_Data.Error.GenJSON_dJSONDecode_MaybeError;1 e_Data.Error.GenJSON_nJSONDecode_MaybeError;1 e_Data.Error.GenJSON_lJSONDecode_MaybeError;1 4 0 "JSONDecode_MaybeError;1"
.o 4 1 b
e_Data.Error.GenJSON_iJSONDecode_MaybeError;1
	pop_a 1
.d 3 1 b
	jmp s2
.ai 0 a2 e_Data.Error.GenJSON_iJSONDecode_MaybeError;1
.o 2 0
e_Data.Error.GenJSON_lJSONDecode_MaybeError;1
	repl_args 3 3
.o 4 0
a2
.d 4 0
	jsr ea2
.o 2 0
	push_a 1
	push_a 1
	buildh _Tuple 2
	updatepop_a 0 2
.d 1 0
	rtn
.n 4 e_Data.Error.GenJSON_dJSONDecode_MaybeError;1
.o 1 0
e_Data.Error.GenJSON_nJSONDecode_MaybeError;1
	push_node _cycle_in_spine 4
.d 4 0
	jsr ea2
.o 2 0
	push_a 1
	push_a 1
	fillh _Tuple 2 4
	pop_a 2
.d 1 0
	rtn
.o 4 0
ea2
	jsr_eval 3
	jsr_eval 2
	pushB_a 2
	update_a 1 2
	update_a 0 1
	pop_a 1
.o 3 1 b
e_Data.Error.GenJSON_sJSONDecode_MaybeError;1
.o 3 1 b
s2
	push_a 2
	push_b 0
	push_a 2
	buildAC "Ok"
	buildh ARRAY 1
	push_a 3
	buildAC "Error"
	buildh ARRAY 1
	updatepop_b 0 1
	update_a 4 7
	update_a 3 6
	update_a 2 5
	update_a 1 4
	updatepop_a 0 3
.d 5 1 b
	jsr s11
.o 2 0
.d 2 0
	jmp s88
.o 5 1 b
s11
	push_a 4
	pushB FALSE
	push_a 4
	push_a 4
	push_a 4
	push_a 4
	updatepop_b 0 1
	update_a 4 8
	update_a 3 7
	update_a 2 6
	update_a 1 5
	updatepop_a 0 4
.d 5 1 b
	jsr s12
.o 2 0
	push_a 2
	push_a 2
	update_a 1 3
	update_a 2 1
	update_a 0 2
	pop_a 1
	update_a 2 3
	update_a 1 2
	updatepop_a 0 1
.d 3 0
	jmp s87
.o 5 1 b
s12
	push_a 4
	pushB FALSE
	push_a 2
	push_a 2
	updatepop_b 0 1
	update_a 2 4
	update_a 1 3
	updatepop_a 0 2
.d 3 1 b
	jsr s6
.o 2 0
	push_a 4
	push_a 4
	push_a 4
	push_a 4
	update_a 3 5
	update_a 1 3
	update_a 4 1
	update_a 2 4
	update_a 0 2
	pop_a 1
	update_a 4 7
	update_a 3 6
	update_a 2 5
	update_a 1 4
	updatepop_a 0 3
.d 5 0
	jmp s86
.o 3 1 b
s6
	eq_desc _Cons 2 2
	jmp_true case.1
	jmp case.2
case.1
	push_args 2 2 2
	jsr_eval 0
	eq_desc e_Text.GenJSON_kJSONArray 0 0
	jmp_true case.3
	pop_a 2
	jmp case.2
case.3
	repl_args 1 1
	eq_desc _Cons 2 0
	jmp_true case.4
	pop_a 2
	jmp case.2
case.4
	repl_args 2 2
	jsr_eval 0
	eq_desc e_Text.GenJSON_kJSONString 0 0
	jmp_true case.5
	pop_a 3
	jmp case.2
case.5
	repl_args 1 1
	push_a 3
	jsr_eval 0
	push_array 0
	updatepop_a 0 1
	push_a 1
	pop_b 1
	update_a 1 2
	updatepop_a 0 1
	buildh _Nil 0
	update_a 0 5
	pop_a 1
.d 2 0
	jsr eqAC
.o 0 1 b
	jmp_false else.6
	push_a 0
	push_a 4
	jsr_eval 0
	buildB FALSE
	push_a 1
	update_a 1 2
	update_a 0 1
	pop_a 1
	update_a 4 6
	update_a 2 5
	update_a 1 4
	updatepop_a 0 3
	jsr_ap 2
	repl_args 2 2
	jsr_eval 1
	jsr_eval 0
	push_a 3
	push_a 3
	push_a 3
	update_a 2 4
	update_a 0 2
	update_a 3 0
	update_a 1 3
	update_a 0 1
	pop_a 1
	update_a 3 5
	update_a 2 4
	update_a 1 3
	updatepop_a 0 2
.d 4 0
	jmp s85
else.6
	buildh _None 0
	push_a 5
	push_a 1
	update_a 1 2
	update_a 0 1
	pop_a 1
	update_a 1 6
	updatepop_a 0 5
.d 2 0
	rtn
case.2
	buildh _None 0
	push_a 3
	push_a 1
	update_a 1 2
	update_a 0 1
	pop_a 1
	update_a 1 4
	updatepop_a 0 3
	pop_b 1
.d 2 0
	rtn
.o 2 0
s7
	eq_desc _Just 1 0
	jmp_true case.7
	jmp case.8
case.7
	repl_args 1 1
	create
	push_a 1
	update_a 1 2
	updatepop_a 0 1
.d 2 0
	jsr s3
.o 1 0
	fillh _Just 1 1
.d 1 0
	rtn
case.8
	fillh _None 0 1
	pop_a 1
.d 1 0
	rtn
.o 2 0
s3
	eq_desc e_StdGeneric_dLEFT 1 0
	jmp_true case.9
	jmp case.10
case.9
	repl_args 1 1
	jsr_eval 0
	repl_args 1 1
	push_a 0
	fillh e_Data.Error_dError 1 2
	pop_a 1
.d 1 0
	rtn
case.10
	repl_args 1 1
	jsr_eval 0
	repl_args 1 1
	push_a 0
	fillh e_Data.Error_dOk 1 2
	pop_a 1
.d 1 0
	rtn
.export e_Data.Error.GenJSON_sJSONEncode_MaybeError;0
.export e_Data.Error.GenJSON_eaJSONEncode_MaybeError;0
.descexp e_Data.Error.GenJSON_dJSONEncode_MaybeError;0 e_Data.Error.GenJSON_nJSONEncode_MaybeError;0 e_Data.Error.GenJSON_lJSONEncode_MaybeError;0 4 0 "JSONEncode_MaybeError;0"
.o 5 1 b
e_Data.Error.GenJSON_iJSONEncode_MaybeError;0
	pop_a 1
.d 4 1 b
	jmp s1
.ai 4 e_Data.Error.GenJSON_eaJSONEncode_MaybeError;0 e_Data.Error.GenJSON_iJSONEncode_MaybeError;0
.o 2 0
e_Data.Error.GenJSON_lJSONEncode_MaybeError;0
	push_args 0 3 3
	update_a 4 3
	create
	update_a 0 5
	pop_a 1
.d 5 0
	jmp e_Data.Error.GenJSON_eaJSONEncode_MaybeError;0
.n 4 e_Data.Error.GenJSON_dJSONEncode_MaybeError;0 e_Data.Error.GenJSON_eaJSONEncode_MaybeError;0
.o 1 0
e_Data.Error.GenJSON_nJSONEncode_MaybeError;0
	push_node _cycle_in_spine 4
.o 5 0
e_Data.Error.GenJSON_eaJSONEncode_MaybeError;0
	jsr_eval 3
	jsr_eval 2
	pushB_a 2
	update_a 1 2
	update_a 0 1
	pop_a 1
.o 4 1 b
e_Data.Error.GenJSON_sJSONEncode_MaybeError;0
.o 4 1 b
s1
	create
	push_a 3
	buildh _Nil 0
	update_a 0 5
	pop_a 1
.d 2 0
	jsr s4
.o 1 0
	push_b 0
	push_a 2
	buildAC "Ok"
	buildh ARRAY 1
	push_a 3
	buildAC "Error"
	buildh ARRAY 1
	update_a 4 7
	update_a 3 6
	update_a 2 5
	update_a 1 4
	updatepop_a 0 3
	updatepop_b 0 1
.d 6 1 b
	jmp s9
.o 2 0
s4
	eq_desc e_Data.Error_dError 1 0
	jmp_true case.11
	jmp case.12
case.11
	repl_args 1 1
	push_a 0
	buildh e_StdGeneric_dCONS 1
	fillh e_StdGeneric_dLEFT 1 2
	pop_a 1
.d 1 0
	rtn
case.12
	repl_args 1 1
	push_a 0
	buildh e_StdGeneric_dCONS 1
	fillh e_StdGeneric_dRIGHT 1 2
	pop_a 1
.d 1 0
	rtn
.o 6 1 b
s9
	push_a 4
	pushB FALSE
	push_a 4
	push_a 4
	push_a 4
	push_a 4
	update_a 4 9
	update_a 3 8
	update_a 2 7
	update_a 1 6
	updatepop_a 0 5
	updatepop_b 0 1
.d 6 1 b
	jmp s10
.o 6 1 b
s10
	eq_desc e_StdGeneric_dLEFT 1 4
	jmp_true case.13
	jmp case.14
case.13
	push_args 4 1 1
	buildh _Nil 0
	update_a 0 6
	pop_a 1
	push_a 0
	jsr_eval 0
	pushB FALSE
	push_a 3
	push_a 3
	update_a 2 8
	update_a 1 7
	updatepop_a 0 6
	updatepop_b 0 1
.d 4 1 b
	jmp s5
case.14
	push_args 4 1 1
	buildh _Nil 0
	update_a 0 6
	pop_a 1
	push_a 0
	jsr_eval 0
	pushB FALSE
	push_a 5
	push_a 5
	update_a 2 8
	update_a 1 7
	updatepop_a 0 6
	updatepop_b 0 1
.d 4 1 b
	jmp s5
.o 4 1 b
s5
	push_args 2 1 1
	buildh _Nil 0
	update_a 0 4
	pop_a 1
	buildh _Nil 0
	push_a 1
	push_a 4
	build e_Data.Error.GenJSON_d_f0.90 2 e_Data.Error.GenJSON_n_f0.90
	push_a 3
	build e_Text.GenJSON_dJSONString 1 e_Text.GenJSON_nJSONString
	buildh _Cons 2
	buildhr e_Text.GenJSON_kJSONArray 1 0
	fillh _Cons 2 6
	pop_a 4
	pop_b 1
.d 1 0
	rtn
.export e_Data.Error.GenJSON_d_f0.90
.export e_Data.Error.GenJSON_n_f0.90
.descn e_Data.Error.GenJSON_d_f0.90 e_Data.Error.GenJSON_n_f0.90 2 0 "_f0.90"
.n 2 e_Data.Error.GenJSON_d_f0.90 ea90
.o 1 0
e_Data.Error.GenJSON_n_f0.90
	push_node _cycle_in_spine 2
.o 3 0
ea90
.o 3 0
s90
	push_a 1
	push_a 1
	jsr_eval 0
	buildB FALSE
	push_a 1
	update_a 1 2
	update_a 0 1
	pop_a 1
	update_a 2 4
	update_a 1 3
	updatepop_a 0 2
	jsr_ap 2
	fill_a 0 1
	pop_a 1
.d 1 0
	rtn
.o 4 0
s85
case.15
	eq_desc _Just 1 0
	jmp_true case.17
	jmp case.16
case.17
	repl_args 1 1
	push_a 2
	jsr_eval 0
	push_a 1
	buildh e_StdGeneric_dCONS 1
	buildh _Just 1
	update_a 1 5
	updatepop_a 0 4
.d 2 0
	rtn
case.16
	buildh _None 0
	push_a 4
	push_a 1
	update_a 1 2
	update_a 0 1
	pop_a 1
	update_a 1 5
	updatepop_a 0 4
.d 2 0
	rtn
.o 5 0
s86
	eq_desc _Just 1 0
	jmp_true case.18
	jmp case.19
case.18
	repl_args 1 1
	push_a 0
	buildh e_StdGeneric_dLEFT 1
	buildh _Just 1
	push_a 2
	push_a 1
	update_a 1 2
	update_a 0 1
	pop_a 1
	update_a 1 6
	updatepop_a 0 5
.d 2 0
	rtn
case.19
	push_a 4
	pushB FALSE
	push_a 4
	push_a 4
	update_a 2 6
	update_a 1 5
	updatepop_a 0 4
.d 3 1 b
	jsr s6
.o 2 0
	push_a 2
	push_a 2
	update_a 1 3
	update_a 2 1
	update_a 0 2
	pop_a 1
	update_a 2 3
	update_a 1 2
	updatepop_a 0 1
.d 3 0
	jmp s89
.o 3 0
s87
case.20
	eq_desc _Just 1 0
	jmp_true case.22
	jmp case.21
case.22
	repl_args 1 1
	push_a 0
	buildh _Just 1
	push_a 2
	push_a 1
	update_a 1 2
	update_a 0 1
	pop_a 1
	update_a 1 4
	updatepop_a 0 3
.d 2 0
	rtn
case.21
	buildh _None 0
	push_a 3
	push_a 1
	update_a 1 2
	update_a 0 1
	pop_a 1
	update_a 1 4
	updatepop_a 0 3
.d 2 0
	rtn
.o 2 0
s88
	create
	push_a 1
	update_a 1 2
	updatepop_a 0 1
.d 2 0
	jsr s7
.o 1 0
	push_a 1
	push_a 1
	update_a 1 2
	update_a 0 1
	pop_a 1
	update_a 1 2
	updatepop_a 0 1
.d 2 0
	rtn
.o 3 0
s89
	eq_desc _Just 1 0
	jmp_true case.23
	jmp case.24
case.23
	repl_args 1 1
	push_a 0
	buildh e_StdGeneric_dRIGHT 1
	buildh _Just 1
	push_a 2
	push_a 1
	update_a 1 2
	update_a 0 1
	pop_a 1
	update_a 1 4
	updatepop_a 0 3
.d 2 0
	rtn
case.24
	buildh _None 0
	push_a 3
	push_a 1
	update_a 1 2
	update_a 0 1
	pop_a 1
	update_a 1 4
	updatepop_a 0 3
.d 2 0
	rtn
