.comp 920 000111010010000
.start _nostart_
.depend "StdCharList" "20210609153430"
.depend "StdArray" "20210609153430"
.depend "StdEnv" "20210609153430"
.depend "Data.Either" "20210609153430"
.depend "Data.Bifunctor" "20210609153430"
.depend "Control.Monad.Fail" "20210609153430"
.depend "Data.Traversable" "20210609153430"
.depend "Data.Foldable" "20210609153430"
.depend "StdOverloadedList" "20210609153430"
.depend "Data.List" "20210609153430"
.depend "Data.Func" "20210609153430"
.depend "_SystemEnumStrict" "20210609153430"
.depend "_SystemStrictLists" "20210609153430"
.depend "StdStrictLists" "20210609153430"
.depend "StdGeneric" "20210609153430"
.depend "Data.GenEq" "20210609153430"
.depend "StdReal" "20210609153430"
.depend "StdList" "20210609153430"
.depend "Data.Monoid" "20210609153430"
.depend "Data.Functor" "20210609153430"
.depend "Control.Monad" "20210609153430"
.depend "Control.Applicative" "20210609153430"
.depend "StdTuple" "20210609153430"
.depend "StdString" "20210609153430"
.depend "StdOrdList" "20210609153430"
.depend "StdMisc" "20210609153430"
.depend "StdFunctions" "20210609153430"
.depend "StdFunc" "20210609153430"
.depend "StdFile" "20210609153430"
.depend "StdChar" "20210609153430"
.depend "StdInt" "20210609153430"
.depend "StdClass" "20210609153430"
.depend "_SystemEnum" "20210609153430"
.depend "StdEnum" "20210609153430"
.depend "StdOverloaded" "20210609153430"
.depend "StdBool" "20210609153430"
.depend "_SystemArray" "20210609153430"
.depend "Text.Parsers.Simple.Core" "20210609153431"
.module m_Text.Parsers.Simple.Core "Text.Parsers.Simple.Core" "20210609153431"
.endinfo
.impmod _system
.implab _cycle_in_spine
.implab _type_error
.implab _hnf
.impdesc e_system_dind
.implab e_system_nind e_system_eaind
.impdesc e_system_dif
.implab e_system_nif e_system_eaif
.implab e_system_sif
.impdesc e_system_dAP
.implab e_system_nAP e_system_eaAP
.implab e_system_sAP
.impdesc ARRAY
.impdesc _Nil
.impdesc _Cons
.impdesc _Conss
.implab n_Conss ea_Conss
.impdesc _Consts
.implab n_Consts ea_Consts
.impdesc _Conssts
.implab n_Conssts ea_Conssts
.impdesc _Tuple
.impdesc d_S.1
.implab n_S.1 ea_S.1
.impdesc d_S.2
.implab n_S.2 ea_S.2
.impdesc d_S.3
.implab n_S.3 ea_S.3
.impdesc d_S.4
.implab n_S.4 ea_S.4
.impdesc d_S.5
.implab n_S.5 ea_S.5
.impdesc d_S.6
.implab n_S.6 ea_S.6
.implab _driver
.impmod Data.List
.implab e_Data.List_selem
.impmod StdList
.impdesc e_StdList_d++
.implab e_StdList_n++ e_StdList_ea++
.impdesc e_StdList_dflatten
.implab e_StdList_nflatten e_StdList_eaflatten
.impdesc e_StdList_dunzip
.implab e_StdList_nunzip
.impmod Control.Monad
.implab e_Control.Monad_ssequence
.implab e_Control.Monad_sap
.impmod Data.Either
.impdesc e_Data.Either_dLeft
.impdesc e_Data.Either_dRight
.impmod Data.Functor
.impdesc e_Data.Functor_rFunctor;
.impmod Control.Monad
.impdesc e_Control.Monad_rMonad;
.impmod Control.Applicative
.impdesc e_Control.Applicative_rpure;
.impdesc e_Control.Applicative_r<*>;
.impdesc e_Control.Applicative_rApplicative;
.export e_Text.Parsers.Simple.Core_smzero;30
.export e_Text.Parsers.Simple.Core_eamzero;30
.descexp e_Text.Parsers.Simple.Core_dmzero;30 e_Text.Parsers.Simple.Core_nmzero;30 e_Text.Parsers.Simple.Core_lmzero;30 0 0 "mzero;30"
.o 1 0
e_Text.Parsers.Simple.Core_imzero;30
	pop_a 1
	create
.d 1 0
	jmp s31
.o 1 0
e_Text.Parsers.Simple.Core_lmzero;30
	halt
.n 0 e_Text.Parsers.Simple.Core_dmzero;30 e_Text.Parsers.Simple.Core_eamzero;30
.o 1 0
e_Text.Parsers.Simple.Core_nmzero;30
	push_node _cycle_in_spine 0
.o 1 0
e_Text.Parsers.Simple.Core_eamzero;30
.o 1 0
e_Text.Parsers.Simple.Core_smzero;30
.o 1 0
s31
.d 1 0
	jmp s3
.export e_Text.Parsers.Simple.Core_smplus;29
.export e_Text.Parsers.Simple.Core_eamplus;29
.descexp e_Text.Parsers.Simple.Core_dmplus;29 e_Text.Parsers.Simple.Core_nmplus;29 e_Text.Parsers.Simple.Core_lmplus;29 2 0 "mplus;29"
.o 3 0
e_Text.Parsers.Simple.Core_implus;29
	pop_a 1
	create
	push_a 2
	update_a 1 3
	update_a 2 1
	update_a 0 2
	pop_a 1
.d 3 0
	jmp s30
.ai 2 e_Text.Parsers.Simple.Core_eamplus;29 e_Text.Parsers.Simple.Core_implus;29
.o 2 0
e_Text.Parsers.Simple.Core_lmplus;29
	push_args 0 1 1
	update_a 2 1
	create
	update_a 0 3
	pop_a 1
.d 3 0
	jmp e_Text.Parsers.Simple.Core_eamplus;29
.n 2 e_Text.Parsers.Simple.Core_dmplus;29 e_Text.Parsers.Simple.Core_eamplus;29
.o 1 0
e_Text.Parsers.Simple.Core_nmplus;29
	push_node _cycle_in_spine 2
.o 3 0
e_Text.Parsers.Simple.Core_eamplus;29
	jsr_eval 0
.o 3 0
e_Text.Parsers.Simple.Core_smplus;29
.o 3 0
s30
	push_a 1
	push_a 1
	update_a 1 3
	updatepop_a 0 2
.d 3 0
	jmp s27
.export e_Text.Parsers.Simple.Core_s<*;25
.export e_Text.Parsers.Simple.Core_ea<*;25
.descexp e_Text.Parsers.Simple.Core_d<*;25 e_Text.Parsers.Simple.Core_n<*;25 e_Text.Parsers.Simple.Core_l<*;25 2 0 "<*;25"
.o 3 0
e_Text.Parsers.Simple.Core_i<*;25
	pop_a 1
	create
	push_a 2
	update_a 1 3
	update_a 2 1
	update_a 0 2
	pop_a 1
.d 3 0
	jmp s26
.ai 2 e_Text.Parsers.Simple.Core_ea<*;25 e_Text.Parsers.Simple.Core_i<*;25
.o 2 0
e_Text.Parsers.Simple.Core_l<*;25
	push_args 0 1 1
	update_a 2 1
	create
	update_a 0 3
	pop_a 1
.d 3 0
	jmp e_Text.Parsers.Simple.Core_ea<*;25
.n 2 e_Text.Parsers.Simple.Core_d<*;25 e_Text.Parsers.Simple.Core_ea<*;25
.o 1 0
e_Text.Parsers.Simple.Core_n<*;25
	push_node _cycle_in_spine 2
.o 3 0
e_Text.Parsers.Simple.Core_ea<*;25
	jsr_eval 0
.o 3 0
e_Text.Parsers.Simple.Core_s<*;25
.o 3 0
s26
	buildh d59 0
	create
	push_a 1
	update_a 1 2
	update_a 0 1
	pop_a 1
.d 2 0
	jsr s23
.o 1 0
	create
	push_a 2
	push_a 2
	update_a 2 3
	update_a 1 2
	update_a 0 1
	pop_a 1
	update_a 2 3
	update_a 1 2
	updatepop_a 0 1
.d 3 0
	jsr s24
.o 1 0
	push_a 1
	push_a 1
	update_a 1 2
	update_a 0 1
	pop_a 1
	update_a 1 2
	updatepop_a 0 1
.d 3 0
	jmp s24
.desc d59 _hnf l59 2 0 "<lambda>[line:22];24;58"
.a 0 ea59
.o 2 0
l59
	repl_args 1 1
.o 2 0
ea59
	jsr_eval 0
.o 2 0
s59
	updatepop_a 0 1
.d 1 0
	rtn
.export e_Text.Parsers.Simple.Core_s*>;24
.export e_Text.Parsers.Simple.Core_ea*>;24
.descexp e_Text.Parsers.Simple.Core_d*>;24 e_Text.Parsers.Simple.Core_n*>;24 e_Text.Parsers.Simple.Core_l*>;24 2 0 "*>;24"
.o 3 0
e_Text.Parsers.Simple.Core_i*>;24
	pop_a 1
	create
	push_a 2
	update_a 1 3
	update_a 2 1
	update_a 0 2
	pop_a 1
.d 3 0
	jmp s25
.ai 2 e_Text.Parsers.Simple.Core_ea*>;24 e_Text.Parsers.Simple.Core_i*>;24
.o 2 0
e_Text.Parsers.Simple.Core_l*>;24
	push_args 0 1 1
	update_a 2 1
	create
	update_a 0 3
	pop_a 1
.d 3 0
	jmp e_Text.Parsers.Simple.Core_ea*>;24
.n 2 e_Text.Parsers.Simple.Core_d*>;24 e_Text.Parsers.Simple.Core_ea*>;24
.o 1 0
e_Text.Parsers.Simple.Core_n*>;24
	push_node _cycle_in_spine 2
.o 3 0
e_Text.Parsers.Simple.Core_ea*>;24
	jsr_eval 0
.o 3 0
e_Text.Parsers.Simple.Core_s*>;24
.o 3 0
s25
	buildh d58 0
	create
	push_a 1
	update_a 1 2
	update_a 0 1
	pop_a 1
.d 2 0
	jsr s23
.o 1 0
	create
	push_a 2
	push_a 2
	update_a 2 3
	update_a 1 2
	update_a 0 1
	pop_a 1
	update_a 2 3
	update_a 1 2
	updatepop_a 0 1
.d 3 0
	jsr s24
.o 1 0
	push_a 1
	push_a 1
	update_a 1 2
	update_a 0 1
	pop_a 1
	update_a 1 2
	updatepop_a 0 1
.d 3 0
	jmp s24
.desc d58 _hnf l58 2 0 "<lambda>[line:27];24;57"
.a 0 ea58
.o 2 0
l58
	repl_args 1 1
.o 2 0
ea58
	jsr_eval 1
.o 2 0
s58
	pop_a 1
.d 1 0
	rtn
.export e_Text.Parsers.Simple.Core_spList
.export e_Text.Parsers.Simple.Core_eapList
.descexp e_Text.Parsers.Simple.Core_dpList e_Text.Parsers.Simple.Core_npList e_Text.Parsers.Simple.Core_lpList 1 0 "pList"
.o 2 0
e_Text.Parsers.Simple.Core_lpList
	update_a 1 0
	create
	update_a 0 2
	pop_a 1
.d 2 0
	jmp e_Text.Parsers.Simple.Core_eapList
.n 1 e_Text.Parsers.Simple.Core_dpList e_Text.Parsers.Simple.Core_eapList
.o 1 0
e_Text.Parsers.Simple.Core_npList
	push_node _cycle_in_spine 1
.o 2 0
e_Text.Parsers.Simple.Core_eapList
	jsr_eval 0
.o 2 0
e_Text.Parsers.Simple.Core_spList
.o 2 0
s21
	buildh e_Text.Parsers.Simple.Core_d<*>;23 0
	buildh e_Text.Parsers.Simple.Core_dpure;22 0
	buildh e_Text.Parsers.Simple.Core_dfmap;21 0
	buildhr e_Control.Applicative_rApplicative; 3 0
	buildh e_Text.Parsers.Simple.Core_dbind;28 0
	push_a 2
	push_a 2
	update_a 1 3
	update_a 2 1
	update_a 0 2
	pop_a 1
	update_a 2 3
	update_a 1 2
	updatepop_a 0 1
.d 3 0
	jsr e_Control.Monad_ssequence
.o 1 0
	fill_a 0 1
	pop_a 1
.d 1 0
	rtn
.export e_Text.Parsers.Simple.Core_spSepBy
.export e_Text.Parsers.Simple.Core_eapSepBy
.descexp e_Text.Parsers.Simple.Core_dpSepBy e_Text.Parsers.Simple.Core_npSepBy e_Text.Parsers.Simple.Core_lpSepBy 2 0 "pSepBy"
.a 2 e_Text.Parsers.Simple.Core_eapSepBy
.o 2 0
e_Text.Parsers.Simple.Core_lpSepBy
	push_args 0 1 1
	update_a 2 1
	create
	update_a 0 3
	pop_a 1
.d 3 0
	jmp e_Text.Parsers.Simple.Core_eapSepBy
.n 2 e_Text.Parsers.Simple.Core_dpSepBy e_Text.Parsers.Simple.Core_eapSepBy
.o 1 0
e_Text.Parsers.Simple.Core_npSepBy
	push_node _cycle_in_spine 2
.o 3 0
e_Text.Parsers.Simple.Core_eapSepBy
	jsr_eval 0
.o 3 0
e_Text.Parsers.Simple.Core_spSepBy
.o 3 0
s19
	buildh _Nil 0
	build e_Text.Parsers.Simple.Core_dpure;22 1 e_Text.Parsers.Simple.Core_npure;22
	create
	push_a 3
	push_a 3
	buildh _Nil 0
	update_a 0 5
	update_a 0 6
	pop_a 1
.d 3 0
	jsr s20
.o 1 0
	update_a 1 3
	updatepop_a 0 2
.d 3 0
	jmp s27
.export e_Text.Parsers.Simple.Core_spSepBy1
.export e_Text.Parsers.Simple.Core_eapSepBy1
.descexp e_Text.Parsers.Simple.Core_dpSepBy1 e_Text.Parsers.Simple.Core_npSepBy1 e_Text.Parsers.Simple.Core_lpSepBy1 2 0 "pSepBy1"
.a 2 e_Text.Parsers.Simple.Core_eapSepBy1
.o 2 0
e_Text.Parsers.Simple.Core_lpSepBy1
	push_args 0 1 1
	update_a 2 1
	create
	update_a 0 3
	pop_a 1
.d 3 0
	jmp e_Text.Parsers.Simple.Core_eapSepBy1
.n 2 e_Text.Parsers.Simple.Core_dpSepBy1 e_Text.Parsers.Simple.Core_eapSepBy1
.o 1 0
e_Text.Parsers.Simple.Core_npSepBy1
	push_node _cycle_in_spine 2
.o 3 0
e_Text.Parsers.Simple.Core_eapSepBy1
	jsr_eval 0
.o 3 0
e_Text.Parsers.Simple.Core_spSepBy1
.o 3 0
s20
	push_a 0
	buildh d57 1
	push_a 2
	build e_Text.Parsers.Simple.Core_dbind;28 2 e_Text.Parsers.Simple.Core_nbind;28
	build e_Text.Parsers.Simple.Core_dpMany 1 e_Text.Parsers.Simple.Core_npMany
	push_a 1
	update_a 1 3
	updatepop_a 0 2
.d 3 0
	jmp s11
.desc d57 _hnf l57 2 0 "<lambda>[line:17];28;56"
.a 0 ea57
.o 2 0
l57
	repl_args 1 1
.o 2 0
ea57
.o 2 0
s57
	updatepop_a 0 1
.d 1 0
	rtn
.export e_Text.Parsers.Simple.Core_spToken
.export e_Text.Parsers.Simple.Core_eapToken
.descexp e_Text.Parsers.Simple.Core_dpToken e_Text.Parsers.Simple.Core_npToken e_Text.Parsers.Simple.Core_lpToken 2 0 "pToken"
.a 2 e_Text.Parsers.Simple.Core_eapToken
.o 2 0
e_Text.Parsers.Simple.Core_lpToken
	push_args 0 1 1
	update_a 2 1
	create
	update_a 0 3
	pop_a 1
.d 3 0
	jmp e_Text.Parsers.Simple.Core_eapToken
.n 2 e_Text.Parsers.Simple.Core_dpToken e_Text.Parsers.Simple.Core_eapToken
.o 1 0
e_Text.Parsers.Simple.Core_npToken
	push_node _cycle_in_spine 2
.o 3 0
e_Text.Parsers.Simple.Core_eapToken
	jsr_eval 0
	repl_r_args 1 0
.o 3 0
e_Text.Parsers.Simple.Core_spToken
.o 3 0
s18
.impmod StdOverloaded
.impdesc e_StdOverloaded_r==;
	build_r e_StdOverloaded_r==; 1 0 0 0
	push_a 2
	push_a 1
	update_a 1 2
	update_a 0 1
	pop_a 1
	buildh d56 2
	updatepop_a 0 2
.d 2 0
	jmp s5
.desc d56 _hnf l56 3 0 "<lambda>[line:133];22;55"
.a 0 a56
.o 2 0
l56
	repl_args 2 2
.o 3 0
a56
.d 3 0
	jsr ea56
.o 0 1 b
	buildB_b 0
	pop_b 1
.d 1 0
	rtn
.o 3 0
ea56
	jsr_eval 2
	jsr_eval 1
	repl_r_args 1 0
.o 3 0
s56
	push_a 2
	push_a 1
	push_a 3
	push_a 1
	update_a 1 2
	update_a 0 1
	pop_a 1
	update_a 2 5
	update_a 1 4
	updatepop_a 0 3
.d 3 0
	jmp_i 2
.export e_Text.Parsers.Simple.Core_spChainl
.export e_Text.Parsers.Simple.Core_eapChainl
.descexp e_Text.Parsers.Simple.Core_dpChainl e_Text.Parsers.Simple.Core_npChainl e_Text.Parsers.Simple.Core_lpChainl 3 0 "pChainl"
.a 3 e_Text.Parsers.Simple.Core_eapChainl
.o 2 0
e_Text.Parsers.Simple.Core_lpChainl
	push_args 0 2 2
	update_a 3 2
	create
	update_a 0 4
	pop_a 1
.d 4 0
	jmp e_Text.Parsers.Simple.Core_eapChainl
.n 3 e_Text.Parsers.Simple.Core_dpChainl e_Text.Parsers.Simple.Core_eapChainl
.o 1 0
e_Text.Parsers.Simple.Core_npChainl
	push_node _cycle_in_spine 3
.o 4 0
e_Text.Parsers.Simple.Core_eapChainl
	jsr_eval 0
.o 4 0
e_Text.Parsers.Simple.Core_spChainl
.o 4 0
s16
	push_a 2
	build e_Text.Parsers.Simple.Core_dpure;22 1 e_Text.Parsers.Simple.Core_npure;22
	create
	push_a 3
	push_a 3
	buildh _Nil 0
	update_a 0 5
	update_a 0 6
	update_a 0 7
	pop_a 1
.d 3 0
	jsr s17
.o 1 0
	update_a 1 4
	updatepop_a 0 3
.d 3 0
	jmp s27
.export e_Text.Parsers.Simple.Core_spChainl1
.export e_Text.Parsers.Simple.Core_eapChainl1
.descexp e_Text.Parsers.Simple.Core_dpChainl1 e_Text.Parsers.Simple.Core_npChainl1 e_Text.Parsers.Simple.Core_lpChainl1 2 0 "pChainl1"
.a 2 e_Text.Parsers.Simple.Core_eapChainl1
.o 2 0
e_Text.Parsers.Simple.Core_lpChainl1
	push_args 0 1 1
	update_a 2 1
	create
	update_a 0 3
	pop_a 1
.d 3 0
	jmp e_Text.Parsers.Simple.Core_eapChainl1
.n 2 e_Text.Parsers.Simple.Core_dpChainl1 e_Text.Parsers.Simple.Core_eapChainl1
.o 1 0
e_Text.Parsers.Simple.Core_npChainl1
	push_node _cycle_in_spine 2
.o 3 0
e_Text.Parsers.Simple.Core_eapChainl1
	jsr_eval 0
.o 3 0
e_Text.Parsers.Simple.Core_spChainl1
.o 3 0
s17
	push_a 1
	push_a 1
	buildh d64 2
	push_a 1
	update_a 1 3
	updatepop_a 0 2
.d 3 0
	jmp s29
.desc d64 _hnf l64 3 0 "<lambda>[line:127];23;112"
.a 3 ea64
.o 2 0
l64
	push_args 0 2 2
	update_a 3 2
	create
	update_a 0 4
	pop_a 1
.o 4 0
ea64
	jsr_eval 1
.o 4 0
s64
	push_a 2
	push_a 2
	push_a 2
	update_a 2 5
	update_a 1 4
	updatepop_a 0 3
.d 4 0
	jmp s65
.desc d67 _hnf l67 5 0 "<lambda>[line:129];32;115"
.a 5 ea67
.o 2 0
l67
	push_args 0 4 4
	update_a 5 4
	create
	update_a 0 6
	pop_a 1
.o 6 0
ea67
	jsr_eval 1
.o 6 0
s67
	push_a 4
	push_a 3
	push_a 5
	build _ 3 n114
	push_a 2
	push_a 2
	update_a 2 7
	update_a 1 6
	updatepop_a 0 5
.d 4 0
	jmp s65
.n 3 _ ea114
.o 1 0
n114
	push_node _cycle_in_spine 3
.o 4 0
ea114
.o 4 0
s114
	push_a 2
	push_a 1
	jsr_eval 0
	push_a 3
	push_a 1
	update_a 1 2
	update_a 0 1
	pop_a 1
	update_a 2 5
	update_a 1 4
	updatepop_a 0 3
	jsr_ap 2
	fill_a 0 1
	pop_a 1
.d 1 0
	rtn
.desc d66 _hnf l66 4 0 "<lambda>[line:129];20;114"
.a 4 ea66
.o 2 0
l66
	push_args 0 3 3
	update_a 4 3
	create
	update_a 0 5
	pop_a 1
.o 5 0
ea66
	jsr_eval 1
.o 5 0
s66
	push_a 3
	push_a 3
	push_a 2
	push_a 4
	buildh d67 4
	push_a 2
	update_a 1 5
	updatepop_a 0 4
.d 3 0
	jmp s29
.o 4 0
s65
	push_a 2
	build e_Text.Parsers.Simple.Core_dpure;22 1 e_Text.Parsers.Simple.Core_npure;22
	push_a 3
	push_a 2
	push_a 4
	buildh d66 3
	create
	push_a 4
	push_a 2
	update_a 2 3
	update_a 0 2
	pop_a 1
	buildh _Nil 0
	update_a 0 6
	update_a 0 5
	update_a 0 7
	pop_a 1
.d 3 0
	jsr s29
.o 1 0
	update_a 1 4
	updatepop_a 0 3
.d 3 0
	jmp s27
.export e_Text.Parsers.Simple.Core_sempty;27
.export e_Text.Parsers.Simple.Core_eaempty;27
.descexp e_Text.Parsers.Simple.Core_dempty;27 e_Text.Parsers.Simple.Core_nempty;27 e_Text.Parsers.Simple.Core_lempty;27 0 0 "empty;27"
.o 1 0
e_Text.Parsers.Simple.Core_iempty;27
	pop_a 1
	create
.d 1 0
	jmp s28
.o 1 0
e_Text.Parsers.Simple.Core_lempty;27
	halt
.n 0 e_Text.Parsers.Simple.Core_dempty;27 e_Text.Parsers.Simple.Core_eaempty;27
.o 1 0
e_Text.Parsers.Simple.Core_nempty;27
	push_node _cycle_in_spine 0
.o 1 0
e_Text.Parsers.Simple.Core_eaempty;27
.o 1 0
e_Text.Parsers.Simple.Core_sempty;27
.o 1 0
s28
.d 1 0
	jmp s3
.export e_Text.Parsers.Simple.Core_s<|>;26
.export e_Text.Parsers.Simple.Core_ea<|>;26
.descexp e_Text.Parsers.Simple.Core_d<|>;26 e_Text.Parsers.Simple.Core_n<|>;26 e_Text.Parsers.Simple.Core_l<|>;26 2 0 "<|>;26"
.o 3 0
e_Text.Parsers.Simple.Core_i<|>;26
	pop_a 1
	create
	push_a 2
	update_a 1 3
	update_a 2 1
	update_a 0 2
	pop_a 1
.d 3 0
	jmp s27
.ai 2 e_Text.Parsers.Simple.Core_ea<|>;26 e_Text.Parsers.Simple.Core_i<|>;26
.o 2 0
e_Text.Parsers.Simple.Core_l<|>;26
	push_args 0 1 1
	update_a 2 1
	create
	update_a 0 3
	pop_a 1
.d 3 0
	jmp e_Text.Parsers.Simple.Core_ea<|>;26
.n 2 e_Text.Parsers.Simple.Core_d<|>;26 e_Text.Parsers.Simple.Core_ea<|>;26
.o 1 0
e_Text.Parsers.Simple.Core_n<|>;26
	push_node _cycle_in_spine 2
.o 3 0
e_Text.Parsers.Simple.Core_ea<|>;26
	jsr_eval 0
.o 3 0
e_Text.Parsers.Simple.Core_s<|>;26
.o 3 0
s27
	push_a 1
	push_a 1
	update_a 1 3
	updatepop_a 0 2
.d 3 0
	jmp s33
.o 3 0
s33
	push_a 0
	push_a 2
	fillh d42 2 4
	pop_a 2
.d 1 0
	rtn
.desc d42 _hnf l42 3 0 "choice`;41"
.a 0 a42
.o 2 0
l42
	repl_args 2 2
.o 3 0
a42
.d 3 0
	jsr ea42
.o 2 0
	push_a 1
	push_a 1
	buildh _Tuple 2
	updatepop_a 0 2
.d 1 0
	rtn
.o 3 0
ea42
	jsr_eval 0
.o 3 0
s42
	push_a 2
	push_a 1
	update_a 1 2
	updatepop_a 0 1
.d 2 0
	jsr s2
.o 2 0
	push_a 3
	push_a 3
	buildh _Nil 0
	update_a 0 5
	update_a 0 6
	pop_a 1
.d 2 0
	jsr s2
.o 2 0
	update_a 3 5
	update_a 2 4
	update_a 1 3
	updatepop_a 0 2
.d 4 0
	jmp s79
.o 4 0
s79
	push_a 3
	push_a 2
	build e_StdList_d++ 2 e_StdList_n++
	push_a 3
	push_a 2
	build e_StdList_d++ 2 e_StdList_n++
	update_a 1 5
	updatepop_a 0 4
.d 2 0
	rtn
.export e_Text.Parsers.Simple.Core_spOneOf
.export e_Text.Parsers.Simple.Core_eapOneOf
.descexp e_Text.Parsers.Simple.Core_dpOneOf e_Text.Parsers.Simple.Core_npOneOf e_Text.Parsers.Simple.Core_lpOneOf 2 0 "pOneOf"
.a 2 e_Text.Parsers.Simple.Core_eapOneOf
.o 2 0
e_Text.Parsers.Simple.Core_lpOneOf
	push_args 0 1 1
	update_a 2 1
	create
	update_a 0 3
	pop_a 1
.d 3 0
	jmp e_Text.Parsers.Simple.Core_eapOneOf
.n 2 e_Text.Parsers.Simple.Core_dpOneOf e_Text.Parsers.Simple.Core_eapOneOf
.o 1 0
e_Text.Parsers.Simple.Core_npOneOf
	push_node _cycle_in_spine 2
.o 3 0
e_Text.Parsers.Simple.Core_eapOneOf
	jsr_eval 0
	repl_r_args 1 0
.o 3 0
e_Text.Parsers.Simple.Core_spOneOf
.o 3 0
s15
	build_r e_StdOverloaded_r==; 1 0 0 0
	push_a 2
	push_a 1
	update_a 1 2
	update_a 0 1
	pop_a 1
	buildh d51 2
	updatepop_a 0 2
.d 2 0
	jmp s5
.desc d51 _hnf l51 3 0 "<lambda>[line:121];23;50"
.a 0 a51
.o 2 0
l51
	repl_args 2 2
.o 3 0
a51
.d 3 0
	jsr ea51
.o 0 1 b
	buildB_b 0
	pop_b 1
.d 1 0
	rtn
.o 3 0
ea51
	jsr_eval 1
	repl_r_args 1 0
.o 3 0
s51
	push_a 1
	push_a 3
	push_a 2
	update_a 2 5
	update_a 1 4
	updatepop_a 0 3
.d 3 0
	jmp e_Data.List_selem
.export e_Text.Parsers.Simple.Core_spOptional
.export e_Text.Parsers.Simple.Core_eapOptional
.descexp e_Text.Parsers.Simple.Core_dpOptional e_Text.Parsers.Simple.Core_npOptional e_Text.Parsers.Simple.Core_lpOptional 2 0 "pOptional"
.a 2 e_Text.Parsers.Simple.Core_eapOptional
.o 2 0
e_Text.Parsers.Simple.Core_lpOptional
	push_args 0 1 1
	update_a 2 1
	create
	update_a 0 3
	pop_a 1
.d 3 0
	jmp e_Text.Parsers.Simple.Core_eapOptional
.n 2 e_Text.Parsers.Simple.Core_dpOptional e_Text.Parsers.Simple.Core_eapOptional
.o 1 0
e_Text.Parsers.Simple.Core_npOptional
	push_node _cycle_in_spine 2
.o 3 0
e_Text.Parsers.Simple.Core_eapOptional
	jsr_eval 0
.o 3 0
e_Text.Parsers.Simple.Core_spOptional
.o 3 0
s14
	push_a 1
	buildh d50 1
	push_a 1
	update_a 1 3
	updatepop_a 0 2
.d 3 0
	jmp s29
.desc d50 _hnf l50 2 0 "<lambda>[line:118];26;49"
.a 2 ea50
.o 2 0
l50
	push_args 0 1 1
	update_a 2 1
	create
	update_a 0 3
	pop_a 1
.o 3 0
ea50
.o 3 0
s50
	push_a 1
	build e_Text.Parsers.Simple.Core_dpure;22 1 e_Text.Parsers.Simple.Core_npure;22
	push_a 2
	push_a 2
	build e_system_dAP 2 e_system_nAP
	update_a 1 3
	updatepop_a 0 2
.d 3 0
	jmp s9
.export e_Text.Parsers.Simple.Core_spSome
.export e_Text.Parsers.Simple.Core_eapSome
.descexp e_Text.Parsers.Simple.Core_dpSome e_Text.Parsers.Simple.Core_npSome e_Text.Parsers.Simple.Core_lpSome 1 0 "pSome"
.o 2 0
e_Text.Parsers.Simple.Core_lpSome
	update_a 1 0
	create
	update_a 0 2
	pop_a 1
.d 2 0
	jmp e_Text.Parsers.Simple.Core_eapSome
.n 1 e_Text.Parsers.Simple.Core_dpSome e_Text.Parsers.Simple.Core_eapSome
.o 1 0
e_Text.Parsers.Simple.Core_npSome
	push_node _cycle_in_spine 1
.o 2 0
e_Text.Parsers.Simple.Core_eapSome
	jsr_eval 0
.o 2 0
e_Text.Parsers.Simple.Core_spSome
.o 2 0
s13
	push_a 0
	build e_Text.Parsers.Simple.Core_dpMany 1 e_Text.Parsers.Simple.Core_npMany
	push_a 1
	update_a 1 2
	updatepop_a 0 1
.d 3 0
	jmp s11
.export e_Text.Parsers.Simple.Core_spMany
.export e_Text.Parsers.Simple.Core_eapMany
.descexp e_Text.Parsers.Simple.Core_dpMany e_Text.Parsers.Simple.Core_npMany e_Text.Parsers.Simple.Core_lpMany 1 0 "pMany"
.o 2 0
e_Text.Parsers.Simple.Core_lpMany
	update_a 1 0
	create
	update_a 0 2
	pop_a 1
.d 2 0
	jmp e_Text.Parsers.Simple.Core_eapMany
.n 1 e_Text.Parsers.Simple.Core_dpMany e_Text.Parsers.Simple.Core_eapMany
.o 1 0
e_Text.Parsers.Simple.Core_npMany
	push_node _cycle_in_spine 1
.o 2 0
e_Text.Parsers.Simple.Core_eapMany
.o 2 0
e_Text.Parsers.Simple.Core_spMany
.o 2 0
s12
	buildh _Nil 0
	build e_Text.Parsers.Simple.Core_dpure;22 1 e_Text.Parsers.Simple.Core_npure;22
	push_a 1
	build e_Text.Parsers.Simple.Core_dpSome 1 e_Text.Parsers.Simple.Core_npSome
	update_a 1 2
	updatepop_a 0 1
.d 3 0
	jmp s9
.export e_Text.Parsers.Simple.Core_s<:>
.export e_Text.Parsers.Simple.Core_ea<:>
.descexp e_Text.Parsers.Simple.Core_d<:> e_Text.Parsers.Simple.Core_n<:> e_Text.Parsers.Simple.Core_l<:> 2 0 "<:>"
.a 2 e_Text.Parsers.Simple.Core_ea<:>
.o 2 0
e_Text.Parsers.Simple.Core_l<:>
	push_args 0 1 1
	update_a 2 1
	create
	update_a 0 3
	pop_a 1
.d 3 0
	jmp e_Text.Parsers.Simple.Core_ea<:>
.n 2 e_Text.Parsers.Simple.Core_d<:> e_Text.Parsers.Simple.Core_ea<:>
.o 1 0
e_Text.Parsers.Simple.Core_n<:>
	push_node _cycle_in_spine 2
.o 3 0
e_Text.Parsers.Simple.Core_ea<:>
	jsr_eval 0
.o 3 0
e_Text.Parsers.Simple.Core_s<:>
.o 3 0
s11
	buildh d49 0
	create
	push_a 2
	push_a 2
	update_a 2 3
	update_a 1 2
	update_a 0 1
	pop_a 1
	update_a 2 3
	update_a 1 2
	updatepop_a 0 1
.d 3 0
	jsr s22
.o 1 0
	push_a 1
	push_a 1
	update_a 1 2
	update_a 0 1
	pop_a 1
	update_a 1 2
	updatepop_a 0 1
.d 3 0
	jmp s24
.export e_Text.Parsers.Simple.Core_s<*>;23
.export e_Text.Parsers.Simple.Core_ea<*>;23
.descexp e_Text.Parsers.Simple.Core_d<*>;23 e_Text.Parsers.Simple.Core_n<*>;23 e_Text.Parsers.Simple.Core_l<*>;23 2 0 "<*>;23"
.o 3 0
e_Text.Parsers.Simple.Core_i<*>;23
	pop_a 1
	create
	push_a 2
	update_a 1 3
	update_a 2 1
	update_a 0 2
	pop_a 1
.d 3 0
	jmp s24
.ai 2 e_Text.Parsers.Simple.Core_ea<*>;23 e_Text.Parsers.Simple.Core_i<*>;23
.o 2 0
e_Text.Parsers.Simple.Core_l<*>;23
	push_args 0 1 1
	update_a 2 1
	create
	update_a 0 3
	pop_a 1
.d 3 0
	jmp e_Text.Parsers.Simple.Core_ea<*>;23
.n 2 e_Text.Parsers.Simple.Core_d<*>;23 e_Text.Parsers.Simple.Core_ea<*>;23
.o 1 0
e_Text.Parsers.Simple.Core_n<*>;23
	push_node _cycle_in_spine 2
.o 3 0
e_Text.Parsers.Simple.Core_ea<*>;23
	jsr_eval 0
.o 3 0
e_Text.Parsers.Simple.Core_s<*>;23
.o 3 0
s24
	push_a 1
	buildh e_Text.Parsers.Simple.Core_d<*>;23 0
	buildh e_Text.Parsers.Simple.Core_dpure;22 0
	buildh e_Text.Parsers.Simple.Core_dfmap;21 0
	buildhr e_Control.Applicative_rApplicative; 3 0
	buildh e_Text.Parsers.Simple.Core_dbind;28 0
	create
	push_a 2
	update_a 1 3
	update_a 2 1
	update_a 0 2
	pop_a 1
	buildh _Nil 0
	update_a 0 6
	pop_a 1
.d 3 0
	jsr e_Control.Monad_sap
.o 1 0
	push_a 2
	push_a 1
	update_a 1 2
	update_a 0 1
	pop_a 1
	update_a 2 4
	update_a 1 3
	updatepop_a 0 2
	jsr_ap 2
	fill_a 0 1
	pop_a 1
.d 1 0
	rtn
.o 3 0
s32
	create
	push_a 1
	update_a 1 2
	updatepop_a 0 1
.d 2 0
	jsr s23
.o 1 0
	push_a 1
	push_a 1
	update_a 1 2
	update_a 0 1
	pop_a 1
	update_a 1 2
	updatepop_a 0 1
.d 3 0
	jmp s24
.export e_Text.Parsers.Simple.Core_sfmap;21
.export e_Text.Parsers.Simple.Core_eafmap;21
.descexp e_Text.Parsers.Simple.Core_dfmap;21 e_Text.Parsers.Simple.Core_nfmap;21 e_Text.Parsers.Simple.Core_lfmap;21 2 0 "fmap;21"
.o 3 0
e_Text.Parsers.Simple.Core_ifmap;21
	pop_a 1
	create
	push_a 2
	update_a 1 3
	update_a 2 1
	update_a 0 2
	pop_a 1
.d 3 0
	jmp s22
.ai 2 e_Text.Parsers.Simple.Core_eafmap;21 e_Text.Parsers.Simple.Core_ifmap;21
.o 2 0
e_Text.Parsers.Simple.Core_lfmap;21
	push_args 0 1 1
	update_a 2 1
	create
	update_a 0 3
	pop_a 1
.d 3 0
	jmp e_Text.Parsers.Simple.Core_eafmap;21
.n 2 e_Text.Parsers.Simple.Core_dfmap;21 e_Text.Parsers.Simple.Core_eafmap;21
.o 1 0
e_Text.Parsers.Simple.Core_nfmap;21
	push_node _cycle_in_spine 2
.o 3 0
e_Text.Parsers.Simple.Core_eafmap;21
.o 3 0
e_Text.Parsers.Simple.Core_sfmap;21
.o 3 0
s22
	push_a 1
	push_a 1
	update_a 1 3
	updatepop_a 0 2
.d 3 0
	jmp s32
.export e_Text.Parsers.Simple.Core_sbind;28
.export e_Text.Parsers.Simple.Core_eabind;28
.descexp e_Text.Parsers.Simple.Core_dbind;28 e_Text.Parsers.Simple.Core_nbind;28 e_Text.Parsers.Simple.Core_lbind;28 2 0 "bind;28"
.o 3 0
e_Text.Parsers.Simple.Core_ibind;28
	pop_a 1
	create
	push_a 2
	update_a 1 3
	update_a 2 1
	update_a 0 2
	pop_a 1
.d 3 0
	jmp s29
.ai 2 e_Text.Parsers.Simple.Core_eabind;28 e_Text.Parsers.Simple.Core_ibind;28
.o 2 0
e_Text.Parsers.Simple.Core_lbind;28
	push_args 0 1 1
	update_a 2 1
	create
	update_a 0 3
	pop_a 1
.d 3 0
	jmp e_Text.Parsers.Simple.Core_eabind;28
.n 2 e_Text.Parsers.Simple.Core_dbind;28 e_Text.Parsers.Simple.Core_eabind;28
.o 1 0
e_Text.Parsers.Simple.Core_nbind;28
	push_node _cycle_in_spine 2
.o 3 0
e_Text.Parsers.Simple.Core_eabind;28
	jsr_eval 0
.o 3 0
e_Text.Parsers.Simple.Core_sbind;28
.o 3 0
s29
	push_a 1
	push_a 1
	update_a 1 3
	updatepop_a 0 2
.d 3 0
	jmp s35
.o 3 0
s35
	push_a 0
	push_a 2
	fillh d47 2 4
	pop_a 2
.d 1 0
	rtn
.desc d47 _hnf l47 3 0 "bind;46"
.a 0 a47
.o 2 0
l47
	repl_args 2 2
.o 3 0
a47
.o 3 0
ea47
	push_a 2
	push_a 2
	build e_system_dAP 2 e_system_nAP
	push_a 0
	build d_S.1 -1 n_S.1
	push_a 1
	build d_S.2 -1 n_S.2
	push_a 3
	build _ 3 n46
	build e_StdList_dunzip 1 e_StdList_nunzip
	push_a 0
	build d_S.2 -1 n_S.2
	build e_StdList_dflatten 1 e_StdList_nflatten
	push_a 1
	build d_S.1 -1 n_S.1
	update_a 1 6
	updatepop_a 0 5
	push_a 1
	push_a 1
	buildh _Tuple 2
	updatepop_a 0 2
.d 1 0
	rtn
.n 5 _ ea45
.o 1 0
n45
	push_node _cycle_in_spine 5
.o 6 0
ea45
	jsr_eval 4
.o 6 0
s45
	push_a 2
	push_a 1
	push_a 5
	push_a 4
	push_a 8
	update_a 4 9
	update_a 3 8
	update_a 2 7
	update_a 1 6
	updatepop_a 0 5
.d 6 0
	jmp s78
.n 3 _ ea46
.o 1 0
n46
	push_node _cycle_in_spine 3
.o 4 0
ea46
	jsr_eval 2
.o 4 0
s46
	push_a 1
	push_a 1
	push_a 4
	update_a 2 5
	update_a 1 4
	updatepop_a 0 3
.d 4 0
	jmp s76
.o 6 0
s78
	eq_desc _Cons 2 0
	jmp_true case.1
	jmp case.2
case.1
	repl_args 2 2
	push_a 0
	jsr_eval 0
	repl_args 2 2
	push_a 3
	push_a 8
	push_a 8
	push_a 8
	push_a 8
	push_a 6
	update_a 5 7
	update_a 3 5
	update_a 1 3
	update_a 6 1
	update_a 4 6
	update_a 2 4
	update_a 0 2
	pop_a 1
	update_a 6 12
	update_a 5 11
	update_a 4 10
	update_a 3 9
	update_a 2 8
	update_a 1 7
	updatepop_a 0 6
.d 8 0
	jmp s77
case.2
	push_a 4
	jsr_eval 0
	push_a 2
	push_a 5
	update_a 2 7
	update_a 1 6
	updatepop_a 0 5
.d 4 0
	jmp s46
.o 8 0
s77
case.3
	push_a 6
	push_a 4
	push_a 7
	push_a 5
	push_a 8
	build _ 5 n45
	push_a 4
	push_a 4
	build e_StdList_d++ 2 e_StdList_n++
	push_a 3
	push_a 3
	buildh _Tuple 2
	buildh _Tuple 2
	fillh _Cons 2 9
	pop_a 7
.d 1 0
	rtn
case.4
	push_a 6
	jsr_eval 0
	push_a 4
	push_a 7
	push_a 5
	push_a 8
	update_a 4 11
	update_a 3 10
	update_a 2 9
	update_a 1 8
	updatepop_a 0 7
.d 6 0
	jmp s45
.o 4 0
s76
	eq_desc _Cons 2 0
	jmp_true case.5
	jmp case.6
case.5
	repl_args 2 2
	push_a 2
	jsr_eval 0
	push_a 1
	jsr_eval 0
	repl_args 2 2
	push_a 4
	push_a 7
	push_a 4
	update_a 2 5
	update_a 4 2
	update_a 1 4
	update_a 3 1
	update_a 0 3
	pop_a 1
	update_a 4 8
	update_a 3 7
	update_a 2 6
	update_a 1 5
	updatepop_a 0 4
.d 6 0
	jmp s75
case.6
	fillh _Nil 0 3
	pop_a 3
.d 1 0
	rtn
.o 6 0
s75
case.7
	push_a 0
	push_a 3
	update_a 1 2
	updatepop_a 0 1
	jsr_ap 1
	push_a 1
	push_a 1
	update_a 1 2
	update_a 0 1
	pop_a 1
	update_a 1 2
	updatepop_a 0 1
.d 2 0
	jsr s113
.o 2 0
	push_a 0
	push_a 2
	push_a 6
	push_a 6
	push_a 6
	update_a 4 9
	update_a 3 8
	update_a 2 7
	update_a 1 6
	updatepop_a 0 5
.d 6 0
	jmp s45
case.8
	push_a 4
	jsr_eval 0
	push_a 4
	push_a 4
	update_a 2 7
	update_a 1 6
	updatepop_a 0 5
.d 4 0
	jmp s46
.export e_Text.Parsers.Simple.Core_spure;22
.export e_Text.Parsers.Simple.Core_eapure;22
.descexp e_Text.Parsers.Simple.Core_dpure;22 e_Text.Parsers.Simple.Core_npure;22 e_Text.Parsers.Simple.Core_lpure;22 1 0 "pure;22"
.o 2 0
e_Text.Parsers.Simple.Core_ipure;22
	pop_a 1
	create
	push_a 1
	update_a 1 2
	update_a 0 1
	pop_a 1
.d 2 0
	jmp s23
.ai 1 _ e_Text.Parsers.Simple.Core_ipure;22
.o 2 0
e_Text.Parsers.Simple.Core_lpure;22
	update_a 1 0
	create
	update_a 0 2
	pop_a 1
.d 2 0
	jmp e_Text.Parsers.Simple.Core_eapure;22
.n 1 e_Text.Parsers.Simple.Core_dpure;22 e_Text.Parsers.Simple.Core_eapure;22
.o 1 0
e_Text.Parsers.Simple.Core_npure;22
	push_node _cycle_in_spine 1
.o 2 0
e_Text.Parsers.Simple.Core_eapure;22
.o 2 0
e_Text.Parsers.Simple.Core_spure;22
.o 2 0
s23
	push_a 0
	updatepop_a 0 1
.d 2 0
	jmp s4
.desc d49 _hnf l49 2 0 "<lambda>[line:109];16;48"
.a 2 ea49
.o 2 0
l49
	push_args 0 1 1
	update_a 2 1
	create
	update_a 0 3
	pop_a 1
.o 3 0
ea49
.o 3 0
s49
	push_a 1
	push_a 1
	fillh _Cons 2 4
	pop_a 2
.d 1 0
	rtn
.export e_Text.Parsers.Simple.Core_s<|>>
.export e_Text.Parsers.Simple.Core_ea<|>>
.descexp e_Text.Parsers.Simple.Core_d<|>> e_Text.Parsers.Simple.Core_n<|>> e_Text.Parsers.Simple.Core_l<|>> 2 0 "<|>>"
.a 2 e_Text.Parsers.Simple.Core_ea<|>>
.o 2 0
e_Text.Parsers.Simple.Core_l<|>>
	push_args 0 1 1
	update_a 2 1
	create
	update_a 0 3
	pop_a 1
.d 3 0
	jmp e_Text.Parsers.Simple.Core_ea<|>>
.n 2 e_Text.Parsers.Simple.Core_d<|>> e_Text.Parsers.Simple.Core_ea<|>>
.o 1 0
e_Text.Parsers.Simple.Core_n<|>>
	push_node _cycle_in_spine 2
.o 3 0
e_Text.Parsers.Simple.Core_ea<|>>
.o 3 0
e_Text.Parsers.Simple.Core_s<|>>
.o 3 0
s10
	push_a 0
	push_a 2
	update_a 1 3
	updatepop_a 0 2
.d 3 0
	jmp s9
.export e_Text.Parsers.Simple.Core_s@!
.export e_Text.Parsers.Simple.Core_ea@!
.descexp e_Text.Parsers.Simple.Core_d@! e_Text.Parsers.Simple.Core_n@! e_Text.Parsers.Simple.Core_l@! 2 0 "@!"
.a 2 e_Text.Parsers.Simple.Core_ea@!
.o 2 0
e_Text.Parsers.Simple.Core_l@!
	push_args 0 1 1
	update_a 2 1
	create
	update_a 0 3
	pop_a 1
.d 3 0
	jmp e_Text.Parsers.Simple.Core_ea@!
.n 2 e_Text.Parsers.Simple.Core_d@! e_Text.Parsers.Simple.Core_ea@!
.o 1 0
e_Text.Parsers.Simple.Core_n@!
	push_node _cycle_in_spine 2
.o 3 0
e_Text.Parsers.Simple.Core_ea@!
.o 3 0
e_Text.Parsers.Simple.Core_s@!
.o 3 0
s8
	push_a 1
	build e_Text.Parsers.Simple.Core_dpError 1 e_Text.Parsers.Simple.Core_npError
	push_a 1
	update_a 1 3
	updatepop_a 0 2
.d 3 0
	jmp s9
.export e_Text.Parsers.Simple.Core_s<<|>
.export e_Text.Parsers.Simple.Core_ea<<|>
.descexp e_Text.Parsers.Simple.Core_d<<|> e_Text.Parsers.Simple.Core_n<<|> e_Text.Parsers.Simple.Core_l<<|> 2 0 "<<|>"
.a 2 e_Text.Parsers.Simple.Core_ea<<|>
.o 2 0
e_Text.Parsers.Simple.Core_l<<|>
	push_args 0 1 1
	update_a 2 1
	create
	update_a 0 3
	pop_a 1
.d 3 0
	jmp e_Text.Parsers.Simple.Core_ea<<|>
.n 2 e_Text.Parsers.Simple.Core_d<<|> e_Text.Parsers.Simple.Core_ea<<|>
.o 1 0
e_Text.Parsers.Simple.Core_n<<|>
	push_node _cycle_in_spine 2
.o 3 0
e_Text.Parsers.Simple.Core_ea<<|>
.o 3 0
e_Text.Parsers.Simple.Core_s<<|>
.o 3 0
s9
	push_a 0
	push_a 2
	fillh d48 2 4
	pop_a 2
.d 1 0
	rtn
.desc d48 _hnf l48 3 0 "pbl;47"
.a 0 a48
.o 2 0
l48
	repl_args 2 2
.o 3 0
a48
.d 3 0
	jsr ea48
.o 2 0
	push_a 1
	push_a 1
	buildh _Tuple 2
	updatepop_a 0 2
.d 1 0
	rtn
.o 3 0
ea48
	jsr_eval 1
.o 3 0
s48
	push_a 2
	push_a 2
	update_a 2 3
	update_a 1 2
	updatepop_a 0 1
.d 2 0
	jsr s113
.o 2 0
	push_a 3
	push_a 3
	push_a 3
	update_a 2 4
	update_a 0 2
	update_a 3 0
	update_a 1 3
	update_a 0 1
	pop_a 1
	update_a 3 5
	update_a 2 4
	update_a 1 3
	updatepop_a 0 2
.d 4 0
	jmp s74
.o 4 0
s74
case.9
	eq_desc _Nil 0 0
	jmp_true case.11
	jmp case.10
case.11
	push_a 2
	jsr_eval 0
	push_a 4
	push_a 1
	update_a 1 2
	update_a 0 1
	pop_a 1
	update_a 1 5
	updatepop_a 0 4
.d 2 0
	jmp s2
case.10
	update_a 1 3
	update_a 0 2
	pop_a 2
.d 2 0
	rtn
.export e_Text.Parsers.Simple.Core_spPeek
.export e_Text.Parsers.Simple.Core_eapPeek
.descexp e_Text.Parsers.Simple.Core_dpPeek e_Text.Parsers.Simple.Core_npPeek e_Text.Parsers.Simple.Core_lpPeek 0 0 "pPeek"
.o 1 0
e_Text.Parsers.Simple.Core_lpPeek
	halt
.n 0 e_Text.Parsers.Simple.Core_dpPeek e_Text.Parsers.Simple.Core_eapPeek
.o 1 0
e_Text.Parsers.Simple.Core_npPeek
	push_node _cycle_in_spine 0
.o 1 0
e_Text.Parsers.Simple.Core_eapPeek
.o 1 0
e_Text.Parsers.Simple.Core_spPeek
.o 1 0
s7
	fillh d41 0 0
.d 1 0
	rtn
.desc d41 _hnf l41 1 0 "<lambda>[line:68];16;40"
.o 2 0
l41
	pop_a 1
.o 1 0
ea41
	buildh _Nil 0
	buildh _Nil 0
	push_a 2
	push_a 3
	buildh _Tuple 2
	buildh _Cons 2
	update_a 1 2
	updatepop_a 0 1
	push_a 1
	push_a 1
	buildh _Tuple 2
	updatepop_a 0 2
.d 1 0
	rtn
.export e_Text.Parsers.Simple.Core_spError
.export e_Text.Parsers.Simple.Core_eapError
.descexp e_Text.Parsers.Simple.Core_dpError e_Text.Parsers.Simple.Core_npError e_Text.Parsers.Simple.Core_lpError 1 0 "pError"
.o 2 0
e_Text.Parsers.Simple.Core_lpError
	update_a 1 0
	create
	update_a 0 2
	pop_a 1
.d 2 0
	jmp e_Text.Parsers.Simple.Core_eapError
.n 1 e_Text.Parsers.Simple.Core_dpError e_Text.Parsers.Simple.Core_eapError
.o 1 0
e_Text.Parsers.Simple.Core_npError
	push_node _cycle_in_spine 1
.o 2 0
e_Text.Parsers.Simple.Core_eapError
.o 2 0
e_Text.Parsers.Simple.Core_spError
.o 2 0
s6
	push_a 0
	fillh d38 1 2
	pop_a 1
.d 1 0
	rtn
.desc d38 _hnf l38 2 0 "<lambda>[line:52];22;37"
.a 0 a38
.o 2 0
l38
	repl_args 1 1
.o 2 0
a38
.o 2 0
ea38
	buildh _Nil 0
	push_a 1
	buildh _Cons 2
	buildh _Nil 0
	update_a 1 3
	updatepop_a 0 2
	push_a 1
	push_a 1
	buildh _Tuple 2
	updatepop_a 0 2
.d 1 0
	rtn
.export e_Text.Parsers.Simple.Core_spSatisfy
.export e_Text.Parsers.Simple.Core_eapSatisfy
.descexp e_Text.Parsers.Simple.Core_dpSatisfy e_Text.Parsers.Simple.Core_npSatisfy e_Text.Parsers.Simple.Core_lpSatisfy 1 0 "pSatisfy"
.o 2 0
e_Text.Parsers.Simple.Core_lpSatisfy
	update_a 1 0
	create
	update_a 0 2
	pop_a 1
.d 2 0
	jmp e_Text.Parsers.Simple.Core_eapSatisfy
.n 1 e_Text.Parsers.Simple.Core_dpSatisfy e_Text.Parsers.Simple.Core_eapSatisfy
.o 1 0
e_Text.Parsers.Simple.Core_npSatisfy
	push_node _cycle_in_spine 1
.o 2 0
e_Text.Parsers.Simple.Core_eapSatisfy
.o 2 0
e_Text.Parsers.Simple.Core_spSatisfy
.o 2 0
s5
	push_a 0
	fillh d40 1 2
	pop_a 1
.d 1 0
	rtn
.desc d40 _hnf l40 2 0 "pSatisfy`;39"
.a 0 a40
.o 2 0
l40
	repl_args 1 1
.o 2 0
a40
.d 2 0
	jsr ea40
.o 2 0
	push_a 1
	push_a 1
	buildh _Tuple 2
	updatepop_a 0 2
.d 1 0
	rtn
.o 2 0
ea40
	jsr_eval 1
.o 2 0
s40
	eq_desc _Cons 2 1
	jmp_true case.12
	jmp case.13
case.12
	push_args 1 2 2
	buildh _Nil 0
	update_a 0 4
	pop_a 1
	push_a 2
	jsr_eval 0
	push_a 1
	push_a 1
	update_a 1 2
	update_a 0 1
	pop_a 1
	buildh _Nil 0
	update_a 0 5
	pop_a 1
	jsr_ap 1
	pushB_a 0
	pop_a 1
	jmp_false else.14
	buildh _Nil 0
	buildh _Nil 0
	push_a 3
	push_a 3
	buildh _Tuple 2
	buildh _Cons 2
	update_a 1 5
	updatepop_a 0 4
.d 2 0
	rtn
else.14
	pop_a 2
	jmp case.13
case.13
	buildh _Nil 0
	buildh _Nil 0
	update_a 1 3
	updatepop_a 0 2
.d 2 0
	rtn
.export e_Text.Parsers.Simple.Core_spYield
.export e_Text.Parsers.Simple.Core_eapYield
.descexp e_Text.Parsers.Simple.Core_dpYield e_Text.Parsers.Simple.Core_npYield e_Text.Parsers.Simple.Core_lpYield 1 0 "pYield"
.o 2 0
e_Text.Parsers.Simple.Core_lpYield
	update_a 1 0
	create
	update_a 0 2
	pop_a 1
.d 2 0
	jmp e_Text.Parsers.Simple.Core_eapYield
.n 1 e_Text.Parsers.Simple.Core_dpYield e_Text.Parsers.Simple.Core_eapYield
.o 1 0
e_Text.Parsers.Simple.Core_npYield
	push_node _cycle_in_spine 1
.o 2 0
e_Text.Parsers.Simple.Core_eapYield
.o 2 0
e_Text.Parsers.Simple.Core_spYield
.o 2 0
s4
	push_a 0
	fillh d39 1 2
	pop_a 1
.d 1 0
	rtn
.desc d39 _hnf l39 2 0 "<lambda>[line:58];20;38"
.a 0 a39
.o 2 0
l39
	repl_args 1 1
.o 2 0
a39
.o 2 0
ea39
	buildh _Nil 0
	buildh _Nil 0
	push_a 3
	push_a 3
	buildh _Tuple 2
	buildh _Cons 2
	update_a 1 3
	updatepop_a 0 2
	push_a 1
	push_a 1
	buildh _Tuple 2
	updatepop_a 0 2
.d 1 0
	rtn
.export e_Text.Parsers.Simple.Core_spFail
.export e_Text.Parsers.Simple.Core_eapFail
.descexp e_Text.Parsers.Simple.Core_dpFail e_Text.Parsers.Simple.Core_npFail e_Text.Parsers.Simple.Core_lpFail 0 0 "pFail"
.o 1 0
e_Text.Parsers.Simple.Core_lpFail
	halt
.n 0 e_Text.Parsers.Simple.Core_dpFail e_Text.Parsers.Simple.Core_eapFail
.o 1 0
e_Text.Parsers.Simple.Core_npFail
	push_node _cycle_in_spine 0
.o 1 0
e_Text.Parsers.Simple.Core_eapFail
.o 1 0
e_Text.Parsers.Simple.Core_spFail
.o 1 0
s3
	fillh d37 0 0
.d 1 0
	rtn
.desc d37 _hnf l37 1 0 "<lambda>[line:49];17;36"
.o 2 0
l37
	pop_a 1
.o 1 0
ea37
	buildh _Nil 0
	buildh _Nil 0
	update_a 1 2
	updatepop_a 0 1
	push_a 1
	push_a 1
	buildh _Tuple 2
	updatepop_a 0 2
.d 1 0
	rtn
.export e_Text.Parsers.Simple.Core_sparse
.export e_Text.Parsers.Simple.Core_eaparse
.descexp e_Text.Parsers.Simple.Core_dparse e_Text.Parsers.Simple.Core_nparse e_Text.Parsers.Simple.Core_lparse 2 0 "parse"
.a 2 e_Text.Parsers.Simple.Core_eaparse
.o 2 0
e_Text.Parsers.Simple.Core_lparse
	push_args 0 1 1
	update_a 2 1
	create
	update_a 0 3
	pop_a 1
.d 3 0
	jmp e_Text.Parsers.Simple.Core_eaparse
.n 2 e_Text.Parsers.Simple.Core_dparse e_Text.Parsers.Simple.Core_eaparse
.o 1 0
e_Text.Parsers.Simple.Core_nparse
	push_node _cycle_in_spine 2
.o 3 0
e_Text.Parsers.Simple.Core_eaparse
	jsr_eval 0
.o 3 0
e_Text.Parsers.Simple.Core_sparse
.o 3 0
s1
	push_a 1
	push_a 1
	update_a 1 3
	updatepop_a 0 2
.d 2 0
	jsr s112
.o 2 0
.d 3 0
	jmp s73
.o 3 0
s73
	eq_desc _Nil 0 1
	jmp_true case.15
	jmp case.16
case.15
	push_a 0
	jsr_eval 0
	create
	push_a 1
	update_a 1 2
	update_a 0 1
	pop_a 1
	update_a 1 3
	updatepop_a 0 2
.d 2 0
	jsr s36
.o 1 0
.d 2 0
	jmp s72
case.16
	push_a 1
	fillh e_Data.Either_dLeft 1 3
	pop_a 2
.d 1 0
	rtn
.o 2 0
s72
	eq_desc _Cons 2 0
	jmp_true case.17
	jmp case.18
case.17
	repl_args 2 2
	update_a 0 1
	pop_a 1
	push_a 0
	fillh e_Data.Either_dRight 1 2
	pop_a 1
.d 1 0
	rtn
case.18
	buildh _Nil 0
	buildAC "No parse results with a fully consumed input."
	buildh ARRAY 1
	buildh _Cons 2
	fillh e_Data.Either_dLeft 1 2
	pop_a 1
.d 1 0
	rtn
.n 1 _ ea36
.o 1 0
n36
	push_node _cycle_in_spine 1
.o 2 0
ea36
	jsr_eval 0
.o 2 0
s36
	push_a 0
	updatepop_a 0 1
.d 2 0
	jmp s71
.o 2 0
s71
	eq_desc _Cons 2 0
	jmp_true case.19
	jmp case.20
case.19
	repl_args 2 2
	push_a 0
	jsr_eval 0
	repl_args 2 2
	jsr_eval 1
	push_a 3
	push_a 2
	update_a 1 3
	update_a 2 1
	update_a 0 2
	pop_a 1
	update_a 2 4
	update_a 1 3
	updatepop_a 0 2
.d 4 0
	jmp s70
case.20
	fillh _Nil 0 1
	pop_a 1
.d 1 0
	rtn
.o 4 0
s70
case.21
	eq_desc _Nil 0 1
	jmp_true case.23
	jmp case.22
case.23
	push_a 2
	build _ 1 n36
	push_a 1
	fillh _Cons 2 5
	pop_a 3
.d 1 0
	rtn
case.22
	push_a 2
	jsr_eval 0
	updatepop_a 0 3
.d 2 0
	jmp s36
.export e_Text.Parsers.Simple.Core_srunParser
.descexp e_Text.Parsers.Simple.Core_drunParser e_Text.Parsers.Simple.Core_nrunParser e_Text.Parsers.Simple.Core_lrunParser 2 0 "runParser"
.a 0 a2
.o 2 0
e_Text.Parsers.Simple.Core_lrunParser
	repl_args 1 1
.o 2 0
a2
.d 2 0
	jsr ea2
.o 2 0
	push_a 1
	push_a 1
	buildh _Tuple 2
	updatepop_a 0 2
.d 1 0
	rtn
.n 2 e_Text.Parsers.Simple.Core_drunParser
.o 1 0
e_Text.Parsers.Simple.Core_nrunParser
	push_node _cycle_in_spine 2
.d 2 0
	jsr ea2
.o 2 0
	push_a 1
	push_a 1
	fillh _Tuple 2 4
	pop_a 2
.d 1 0
	rtn
.o 2 0
ea2
	jsr_eval 0
.o 2 0
e_Text.Parsers.Simple.Core_srunParser
.o 2 0
s2
	push_a 1
	push_a 1
	update_a 1 3
	updatepop_a 0 2
	jsr_ap 1
	repl_args 2 2
.d 2 0
	rtn
.o 2 0
s112
	push_a 1
	push_a 1
	update_a 1 3
	updatepop_a 0 2
	jsr_ap 1
	repl_args 2 2
	jsr_eval 1
.d 2 0
	rtn
.o 2 0
s113
	push_a 1
	push_a 1
	update_a 1 3
	updatepop_a 0 2
	jsr_ap 1
	repl_args 2 2
	jsr_eval 0
.d 2 0
	rtn
