.comp 920 000011110011000
.start _nostart_
.depend "Text.GenJSON" "20210613122637"
.depend "Data.Bifunctor" "20210613122637"
.depend "Data.Either" "20210613122637"
.depend "StdFile" "20210613122638"
.depend "StdString" "20210613122638"
.depend "Control.Monad.Fail" "20210613122637"
.depend "Data.Traversable" "20210613122637"
.depend "StdMisc" "20210613122638"
.depend "StdOverloadedList" "20210613122638"
.depend "Data.List" "20210613122637"
.depend "Data.Foldable" "20210613122637"
.depend "StdFunctions" "20210613122638"
.depend "StdFunc" "20210613122638"
.depend "_SystemEnumStrict" "20210613122638"
.depend "_SystemStrictLists" "20210613122638"
.depend "StdStrictLists" "20210613122638"
.depend "StdGeneric" "20210613122638"
.depend "Data.GenEq" "20210613122637"
.depend "StdReal" "20210613122638"
.depend "StdChar" "20210613122638"
.depend "StdInt" "20210613122638"
.depend "StdBool" "20210613122638"
.depend "StdClass" "20210613122638"
.depend "StdList" "20210613122638"
.depend "Data.Monoid" "20210613122637"
.depend "Control.Applicative" "20210613122637"
.depend "Control.Monad" "20210613122637"
.depend "Data.Functor" "20210613122637"
.depend "StdOverloaded" "20210613122638"
.depend "_SystemDynamic" "20210613122638"
.depend "Data.Either.GenJSON" "20210613122637"
.module m_Data.Either.GenJSON "Data.Either.GenJSON" "20210613122637"
.endinfo
.impmod _system
.implab _cycle_in_spine
.implab _type_error
.implab _hnf
.impdesc e_system_dind
.implab e_system_nind e_system_eaind
.impdesc e_system_dif
.implab e_system_nif e_system_eaif
.implab e_system_sif
.impdesc e_system_dAP
.implab e_system_nAP e_system_eaAP
.implab e_system_sAP
.impdesc ARRAY
.impdesc _Nil
.impdesc _Cons
.impdesc _Conss
.implab n_Conss ea_Conss
.impdesc _Consts
.implab n_Consts ea_Consts
.impdesc _Conssts
.implab n_Conssts ea_Conssts
.impdesc _Tuple
.impdesc d_S.1
.implab n_S.1 ea_S.1
.impdesc d_S.2
.implab n_S.2 ea_S.2
.impdesc d_S.3
.implab n_S.3 ea_S.3
.impdesc d_S.4
.implab n_S.4 ea_S.4
.impdesc d_S.5
.implab n_S.5 ea_S.5
.impdesc d_S.6
.implab n_S.6 ea_S.6
.implab _driver
.impmod StdString
.implab e_StdString_s==;2
.impmod Text.GenJSON
.impdesc e_Text.GenJSON_kJSONString
.impdesc e_Text.GenJSON_dJSONString
.implab e_Text.GenJSON_nJSONString e_Text.GenJSON_eaJSONString
.impdesc e_Text.GenJSON_kJSONArray
.impmod Data.Either
.impdesc e_Data.Either_dLeft
.impdesc e_Data.Either_dRight
.impmod StdGeneric
.impdesc e_StdGeneric_dLEFT
.impdesc e_StdGeneric_dRIGHT
.impdesc e_StdGeneric_dCONS
.export e_Data.Either.GenJSON_sJSONDecode_Either;1
.descexp e_Data.Either.GenJSON_dJSONDecode_Either;1 e_Data.Either.GenJSON_nJSONDecode_Either;1 e_Data.Either.GenJSON_lJSONDecode_Either;1 4 0 "JSONDecode_Either;1"
.o 4 1 b
e_Data.Either.GenJSON_iJSONDecode_Either;1
.d 3 1 b
	pop_a_jmp 1 s2
.ai 0 a2 e_Data.Either.GenJSON_iJSONDecode_Either;1
.o 2 0 
e_Data.Either.GenJSON_lJSONDecode_Either;1
	repl_args 3 3
.o 4 0 
a2
.d 4 0 
	jsr ea2
.o 2 0 
	buildh _Tuple 2
.d 1 0 
	rtn 
.n 4 e_Data.Either.GenJSON_dJSONDecode_Either;1
.o 1 0 
e_Data.Either.GenJSON_nJSONDecode_Either;1
	push_node _cycle_in_spine 4
.d 4 0 
	jsr ea2
.o 2 0 
	fillh _Tuple 2 2
.d 1 0 
	rtn 
.o 4 0 
ea2
	jsr_eval 3
	jsr_eval 2
	pushB_a 2
	update2pop_a 0 1
.o 3 1 b
e_Data.Either.GenJSON_sJSONDecode_Either;1
.o 3 1 b
s2
	push2_a 2
	push_b 0
	buildAC "Right"
	buildh ARRAY 1
	push_a 3
	buildAC "Left"
	buildh ARRAY 1
	put_b 1
	update2_a 3 6
	update3pop_a 0 3
.d 5 1 b
	jsr s19
.o 2 0 
.d 2 0 
	jmp s106
.o 5 1 b
s19
	push_update_a 0 1
	updates3_a 5 4 3 2
	pop_b_pushB 1 FALSE
.d 5 1 b
	jsr s20
.o 2 0 
.d 3 0 
	jmp s105
.o 5 1 b
s20
	push_update_a 0 1
	update_a 5 2
	pop_b_pushB 1 FALSE
.d 3 1 b
	jsr s10
.o 2 0 
.d 5 0 
	jmp s104
.o 2 0 
s11
	jmp_ne_desc _Just 1 0 case.2
	repl_args 1 1
	create 
	swap_a1 
.d 2 0 
	jsr s3
.o 1 0 
	fillh _Just 1 1
.d 1 0 
	rtn 
case.2
	fillh _Nothing 0 1
.d 1 0 
	pop_a_rtn 1
.o 2 0 
s3
	jmp_ne_desc e_StdGeneric_dLEFT 1 0 case.4
	repl_args 1 1
	jsr_eval 0
	repl_args 1 1
	push_a 0
	fillh e_Data.Either_dLeft 1 2
.d 1 0 
	pop_a_rtn 1
case.4
	repl_args 1 1
	jsr_eval 0
	repl_args 1 1
	push_a 0
	fillh e_Data.Either_dRight 1 2
.d 1 0 
	pop_a_rtn 1
.o 3 1 b
s10
	jmp_ne_desc _Cons 2 2 case.6
	push_args 2 2 2
	jsr_eval 0
	jmp_eq_desc e_Text.GenJSON_kJSONArray 0 0 case.7
	pop_a_jmp 2 case.6
case.7
	repl_args 1 1
	jmp_eq_desc _Cons 2 0 case.8
	pop_a_jmp 2 case.6
case.8
	repl_args 2 2
	jsr_eval 0
	jmp_eq_desc e_Text.GenJSON_kJSONString 0 0 case.9
	pop_a_jmp 3 case.6
case.9
	repl_args 1 1
	push_jsr_eval 3
	push_array 0
	updates2_a_pop_a 0 2 1 1
	pop_b 1
.d 2 0 
	buildh0_put_a_jsr _Nil 5 eqAC
.o 0 1 b
	jmp_false else.10
	push_a2 0 3
	jsr_eval 0
	buildB FALSE
	update_a 4 6
	update_a 2 5
	dup_a 4
	updatepop_a 1 3
	jsr_ap 2
	repl_args 2 2
	jsr_eval 1
	jsr_eval 0
.d 4 0 
	jmp s99
else.10
	pop_a 4
	buildh _Nothing 0
.d 2 0 
	rtn 
case.6
	pop_a 2
	buildh _Nothing 0
.d 2 0 
	pop_b_rtn 1
.export e_Data.Either.GenJSON_sJSONEncode_Either;0
.export e_Data.Either.GenJSON_eaJSONEncode_Either;0
.descexp e_Data.Either.GenJSON_dJSONEncode_Either;0 e_Data.Either.GenJSON_nJSONEncode_Either;0 e_Data.Either.GenJSON_lJSONEncode_Either;0 4 0 "JSONEncode_Either;0"
.o 5 1 b
e_Data.Either.GenJSON_iJSONEncode_Either;0
.d 4 1 b
	pop_a_jmp 1 s1
.ai 4 e_Data.Either.GenJSON_eaJSONEncode_Either;0 e_Data.Either.GenJSON_iJSONEncode_Either;0
.o 2 0 
e_Data.Either.GenJSON_lJSONEncode_Either;0
	push_args 0 3 3
	update_a 4 3
	create 
.d 5 0 
	put_a_jmp 5 e_Data.Either.GenJSON_eaJSONEncode_Either;0
.n 4 e_Data.Either.GenJSON_dJSONEncode_Either;0 e_Data.Either.GenJSON_eaJSONEncode_Either;0
.o 1 0 
e_Data.Either.GenJSON_nJSONEncode_Either;0
	push_node _cycle_in_spine 4
.o 5 0 
e_Data.Either.GenJSON_eaJSONEncode_Either;0
	jsr_eval 3
	jsr_eval 2
	pushB_a 2
	update2pop_a 0 1
.o 4 1 b
e_Data.Either.GenJSON_sJSONEncode_Either;0
.o 4 1 b
s1
	create 
	push_a 3
.d 2 0 
	buildh0_put_a_jsr _Nil 5 s4
.o 1 0 
	push_ab 2 0
	buildAC "Right"
	buildh ARRAY 1
	push_a 3
	buildAC "Left"
	buildh ARRAY 1
	update2_a 3 6
	update3pop_a 0 3
.d 6 1 b
	put_b_jmp 1 s15
.o 6 1 b
s15
	pop_b_pushB 1 FALSE
s16
	jmp_ne_desc e_StdGeneric_dLEFT 1 4 case.12
	push_args 4 1 1
	buildh0_put_a _Nil 6
	jsr_eval 0
	dup_a 5
	update2pop_a 1 3
	pop_b_pushB 1 FALSE
.d 4 1 b
	jmp s7
case.12
	push_args 4 1 1
	buildh0_put_a _Nil 6
	jsr_eval 0
	dup_a 5
	pop_b_pushB 1 FALSE
.d 4 1 b
	pop_a_jmp 3 s7
.o 4 1 b
s7
	push_args 2 1 1
	buildh0_put_a _Nil 4
	buildh _Nil 0
	push_a2 1 3
	build e_Data.Either.GenJSON_d_f0.110 2 e_Data.Either.GenJSON_n_f0.110
	buildo1 e_Text.GenJSON_nJSONString 3
	buildh _Cons 2
	buildhr e_Text.GenJSON_kJSONArray 1 0
	fillh _Cons 2 6
.d 1 0 
	pop_ab_rtn 4 1
.export e_Data.Either.GenJSON_d_f0.110
.export e_Data.Either.GenJSON_n_f0.110
.descn e_Data.Either.GenJSON_d_f0.110 e_Data.Either.GenJSON_n_f0.110 2 0 "_f0.110"
.n 2 e_Data.Either.GenJSON_d_f0.110 ea110
.o 1 0 
e_Data.Either.GenJSON_n_f0.110
	push_node _cycle_in_spine 2
.o 3 0 
ea110
.o 3 0 
s110
	push2_a 1
	jsr_eval 0
	buildB FALSE
	update_a 2 4
	dup_a 3
	updatepop_a 1 2
	jsr_ap 2
.d 1 0 
	fill_a01_pop_rtn 
.o 2 0 
s4
	jmp_ne_desc e_Data.Either_dLeft 1 0 case.14
	repl_args 1 1
	push_a 0
	buildh e_StdGeneric_dCONS 1
	fillh e_StdGeneric_dLEFT 1 2
.d 1 0 
	pop_a_rtn 1
case.14
	repl_args 1 1
	push_a 0
	buildh e_StdGeneric_dCONS 1
	fillh e_StdGeneric_dRIGHT 1 2
.d 1 0 
	pop_a_rtn 1
.o 4 0 
s99
case.15
	jmp_ne_desc _Just 1 0 case.16
	repl_args 1 1
	push_jsr_eval 2
	push_a 1
	buildh e_StdGeneric_dCONS 1
	buildh _Just 1
	update2pop_a 0 4
.d 2 0 
	rtn 
case.16
	pop_a 3
	buildh _Nothing 0
.d 2 0 
	rtn 
.o 5 0 
s104
	jmp_ne_desc _Just 1 0 case.19
	repl_args 1 1
	push_a 0
	buildh e_StdGeneric_dLEFT 1
	buildh _Just 1
	update_a 2 5
	updatepop_a 0 4
.d 2 0 
	rtn 
case.19
	updates3_a 4 3 2 1
	pushB FALSE
.d 3 1 b
	pop_a_jsr 1 s10
.o 2 0 
.d 3 0 
	jmp s107
.o 3 0 
s105
case.20
	jmp_ne_desc _Just 1 0 case.21
	repl_args 1 1
	push_a 0
	buildh _Just 1
	updates2pop_a 0 2 3
.d 2 0 
	rtn 
case.21
	pop_a 2
	buildh _Nothing 0
.d 2 0 
	rtn 
.o 2 0 
s106
	create 
	swap_a1 
.d 2 0 
	jsr s11
.o 1 0 
.d 2 0 
	rtn 
.o 3 0 
s107
	jmp_ne_desc _Just 1 0 case.24
	repl_args 1 1
	push_a 0
	buildh e_StdGeneric_dRIGHT 1
	buildh _Just 1
	updates2pop_a 0 2 3
.d 2 0 
	rtn 
case.24
	pop_a 2
	buildh _Nothing 0
.d 2 0 
	rtn 
