.comp 920 000011110011000
.start _nostart_
.depend "iTasks.Extensions.Clock" "20210609153500"
.depend "iTasks.Internal.TaskIO" "20210609153501"
.depend "iTasks.Internal.WebService" "20210609153501"
.depend "iTasks.Internal.SDSService" "20210609153501"
.depend "iTasks.Internal.Serialization" "20210609153501"
.depend "_SystemEnum" "20210609153507"
.depend "StdEnum" "20210609153507"
.depend "StdTuple" "20210609153507"
.depend "StdOrdList" "20210609153507"
.depend "Control.Monad.Trans" "20210609153506"
.depend "StdMaybe" "20210609153507"
.depend "_SystemStrictMaybes" "20210609153507"
.depend "Data.Maybe" "20210609153506"
.depend "iTasks.Extensions.Admin.WorkflowAdmin" "20210609153500"
.depend "iTasks.Extensions.User" "20210609153501"
.depend "iTasks.Extensions.Admin.UserAdmin" "20210609153500"
.depend "iTasks.UI.Layout.Common" "20210609153501"
.depend "iTasks.UI.Editor.Modifiers" "20210609153501"
.depend "iTasks.UI.Editor.Containers" "20210609153501"
.depend "iTasks.UI.Tune" "20210609153501"
.depend "iTasks.Internal.Distributed.Domain" "20210609153501"
.depend "iTasks.WF.Combinators.Common" "20210609153501"
.depend "iTasks.WF.Combinators.SDS" "20210609153501"
.depend "iTasks.UI.Editor.Controls" "20210609153501"
.depend "iTasks.WF.Tasks.Interaction" "20210609153501"
.depend "iTasks.WF.Tasks.System" "20210609153501"
.depend "iTasks.WF.Tasks.SDS" "20210609153501"
.depend "iTasks.WF.Tasks.Core" "20210609153501"
.depend "System.Time.GenJSON" "20210609153506"
.depend "Text.HTML.GenJSON" "20210609153506"
.depend "Data.Map.GenJSON" "20210609153506"
.depend "Data.Error.GenJSON" "20210609153506"
.depend "Data.Either.GenJSON" "20210609153506"
.depend "iTasks.WF.Derives" "20210609153501"
.depend "iTasks.SDS.Combinators.Common" "20210609153501"
.depend "iTasks.SDS.Combinators.Core" "20210609153501"
.depend "iTasks.SDS.Sources.System" "20210609153501"
.depend "iTasks.SDS.Sources.Store" "20210609153501"
.depend "iTasks.SDS.Sources.Core" "20210609153501"
.depend "System._Signal" "20210609153506"
.depend "System.Signal" "20210609153506"
.depend "Text.GenPrint" "20210609153507"
.depend "iTasks.Extensions.DateTime" "20210609153500"
.depend "iTasks.Internal.TaskServer" "20210609153501"
.depend "iTasks.Extensions.Document" "20210609153500"
.depend "System.File" "20210609153506"
.depend "iTasks.Util.DeferredJSON" "20210609153501"
.depend "iTasks.Internal.SDS" "20210609153501"
.depend "iTasks.Internal.TaskEval" "20210609153501"
.depend "iTasks.UI.Layout" "20210609153501"
.depend "iTasks.Internal.TaskState" "20210609153501"
.depend "iTasks.WF.Combinators.Core" "20210609153501"
.depend "Data.IntMap.Base" "20210609153506"
.depend "Data.IntMap.Strict" "20210609153506"
.depend "Data.CircularStack" "20210609153506"
.depend "System._Process" "20210609153506"
.depend "System.Process" "20210609153506"
.depend "System.OS" "20210609153506"
.depend "Data.GenHash" "20210609153506"
.depend "Data.Maybe.Ord" "20210609153506"
.depend "Control.GenBimap" "20210609153506"
.depend "ABC.Interpreter.JavaScript" "20210609153507"
.depend "ABC.Interpreter" "20210609153507"
.depend "iTasks.UI.Editor" "20210609153501"
.depend "iTasks.UI.Editor.Generic" "20210609153501"
.depend "iTasks.Internal.Generic.Defaults" "20210609153501"
.depend "Data.GenDefault" "20210609153506"
.depend "Data.Integer" "20210609153506"
.depend "Text.HTML" "20210609153506"
.depend "iTasks.Internal.Generic.Visualization" "20210609153501"
.depend "iTasks.SDS.Definition" "20210609153501"
.depend "TCPStringChannelsInternal" "20210609153507"
.depend "TCPStringChannels" "20210609153507"
.depend "TCPEvent" "20210609153507"
.depend "tcp_bytestreams" "20210609153507"
.depend "TCPDef" "20210609153507"
.depend "TCPChannels" "20210609153507"
.depend "TCPIP" "20210609153507"
.depend "iTasks.WF.Tasks.IO" "20210609153501"
.depend "iTasks.Internal.Task" "20210609153501"
.depend "iTasks.UI.Definition" "20210609153501"
.depend "Text.GenJSON" "20210609153506"
.depend "Data.Bifunctor" "20210609153506"
.depend "Data.Either" "20210609153506"
.depend "Data.Queue" "20210609153506"
.depend "StdFile" "20210609153507"
.depend "symbols_in_program" "20210609153507"
.depend "iTasks.Internal.IWorld" "20210609153501"
.depend "iTasks.WF.Definition" "20210609153501"
.depend "tcp" "20210609153507"
.depend "TCPChannelClass" "20210609153507"
.depend "Control.Monad.Fail" "20210609153506"
.depend "Data.Traversable" "20210609153506"
.depend "StdMisc" "20210609153507"
.depend "StdOverloadedList" "20210609153507"
.depend "Data.List" "20210609153506"
.depend "Data.Foldable" "20210609153506"
.depend "Data.Set" "20210609153506"
.depend "Data.GenLexOrd" "20210609153506"
.depend "StdFunctions" "20210609153507"
.depend "StdFunc" "20210609153507"
.depend "Data.Map" "20210609153506"
.depend "StdString" "20210609153507"
.depend "Internet.HTTP" "20210609153506"
.depend "System._Time" "20210609153506"
.depend "System.Time" "20210609153506"
.depend "System.OSError" "20210609153506"
.depend "System.FilePath" "20210609153506"
.depend "_SystemEnumStrict" "20210609153507"
.depend "_SystemStrictLists" "20210609153507"
.depend "StdStrictLists" "20210609153507"
.depend "StdGeneric" "20210609153507"
.depend "Data.GenEq" "20210609153506"
.depend "StdReal" "20210609153507"
.depend "StdChar" "20210609153507"
.depend "StdInt" "20210609153507"
.depend "StdBool" "20210609153507"
.depend "StdClass" "20210609153507"
.depend "StdList" "20210609153507"
.depend "Data.Monoid" "20210609153506"
.depend "Control.Applicative" "20210609153506"
.depend "Control.Monad" "20210609153506"
.depend "Data.Functor" "20210609153506"
.depend "Data.Error" "20210609153506"
.depend "iTasks.Engine" "20210609153501"
.depend "iTasks" "20210609153500"
.depend "StdOverloaded" "20210609153507"
.depend "_SystemDynamic" "20210609153507"
.depend "BasicAPIExamples.InteractionUsingShares.CurrentDateAndTime" "20210609153500"
.module m_BasicAPIExamples.InteractionUsingShares.CurrentDateAndTime "BasicAPIExamples.InteractionUsingShares.CurrentDateAndTime" "20210609153500"
.endinfo
.impmod _system
.implab _cycle_in_spine
.implab _type_error
.implab _hnf
.impdesc e_system_dind
.implab e_system_nind e_system_eaind
.impdesc e_system_dif
.implab e_system_nif e_system_eaif
.implab e_system_sif
.impdesc e_system_dAP
.implab e_system_nAP e_system_eaAP
.implab e_system_sAP
.impdesc ARRAY
.impdesc _Nil
.impdesc _Cons
.impdesc _Conss
.implab n_Conss ea_Conss
.impdesc _Consts
.implab n_Consts ea_Consts
.impdesc _Conssts
.implab n_Conssts ea_Conssts
.impdesc _Tuple
.impdesc d_S.1
.implab n_S.1 ea_S.1
.impdesc d_S.2
.implab n_S.2 ea_S.2
.impdesc d_S.3
.implab n_S.3 ea_S.3
.impdesc d_S.4
.implab n_S.4 ea_S.4
.impdesc d_S.5
.implab n_S.5 ea_S.5
.impdesc d_S.6
.implab n_S.6 ea_S.6
.implab _driver
.impmod iTasks.Extensions.Clock
.impdesc e_iTasks.Extensions.Clock_dJSONEncode_AnalogClock;0
.impdesc e_iTasks.Extensions.Clock_dJSONDecode_AnalogClock;1
.impdesc e_iTasks.Extensions.Clock_dgEditor_AnalogClock;2
.impdesc e_iTasks.Extensions.Clock_dgEq_AnalogClock;3
.impdesc e_iTasks.Extensions.Clock_dgText_AnalogClock;4
.impdesc e_iTasks.Extensions.Clock_dTD;AnalogClock
.impmod iTasks.Extensions.Admin.WorkflowAdmin
.implab e_iTasks.Extensions.Admin.WorkflowAdmin_sworkflow
.impdesc e_iTasks.Extensions.Admin.WorkflowAdmin_dtoWorkflow;13
.impmod iTasks.UI.Tune
.implab e_iTasks.UI.Tune_s@>>
.impdesc e_iTasks.UI.Tune_dtune;7
.impmod iTasks.WF.Combinators.Common
.implab e_iTasks.WF.Combinators.Common_s>!|
.implab e_iTasks.WF.Combinators.Common_s@!
.impmod iTasks.WF.Tasks.Interaction
.implab e_iTasks.WF.Tasks.Interaction_sviewSharedInformation
.impmod iTasks.SDS.Sources.System
.implab e_iTasks.SDS.Sources.System_scurrentDateTime
.implab e_iTasks.SDS.Sources.System_scurrentTime
.impmod iTasks.Extensions.DateTime
.impdesc e_iTasks.Extensions.DateTime_dJSONEncode_Time;31
.impdesc e_iTasks.Extensions.DateTime_dJSONEncode_DateTime;32
.impdesc e_iTasks.Extensions.DateTime_dJSONDecode_Time;34
.impdesc e_iTasks.Extensions.DateTime_dJSONDecode_DateTime;35
.impdesc e_iTasks.Extensions.DateTime_dgEq_Time;37
.impdesc e_iTasks.Extensions.DateTime_dgEq_DateTime;38
.impdesc e_iTasks.Extensions.DateTime_dgText_Time;40
.impdesc e_iTasks.Extensions.DateTime_dgText_DateTime;41
.impdesc e_iTasks.Extensions.DateTime_dgEditor_Time;43
.impdesc e_iTasks.Extensions.DateTime_dgEditor_DateTime;44
.impdesc e_iTasks.Extensions.DateTime_dTD;Time
.impdesc e_iTasks.Extensions.DateTime_dTD;DateTime
.impmod iTasks.Internal.SDS
.impdesc e_iTasks.Internal.SDS_dsdsIdentity;17
.impdesc e_iTasks.Internal.SDS_dreadSDS;18
.impdesc e_iTasks.Internal.SDS_dwriteSDS;19
.impdesc e_iTasks.Internal.SDS_dmodifySDS;20
.impdesc e_iTasks.Internal.SDS_dreadRegisterSDS;21
.impdesc e_iTasks.Internal.SDS_dsdsIdentity;37
.impdesc e_iTasks.Internal.SDS_dreadSDS;38
.impdesc e_iTasks.Internal.SDS_dwriteSDS;39
.impdesc e_iTasks.Internal.SDS_dmodifySDS;40
.impdesc e_iTasks.Internal.SDS_dreadRegisterSDS;41
.impmod iTasks.Extensions.Clock
.impdesc e_iTasks.Extensions.Clock_dAnalogClock
.impmod iTasks.Extensions.Admin.WorkflowAdmin
.impdesc e_iTasks.Extensions.Admin.WorkflowAdmin_rtoWorkflow;
.impmod iTasks.UI.Tune
.impdesc e_iTasks.UI.Tune_rtune;
.impmod iTasks.WF.Tasks.Interaction
.impdesc e_iTasks.WF.Tasks.Interaction_kViewAs
.impmod iTasks.SDS.Definition
.impdesc e_iTasks.SDS.Definition_rIdentifiable;
.impdesc e_iTasks.SDS.Definition_rReadable;
.impdesc e_iTasks.SDS.Definition_rRegistrable;
.impdesc e_iTasks.SDS.Definition_rWriteable;
.impdesc e_iTasks.SDS.Definition_rModifiable;
.impdesc e_iTasks.SDS.Definition_rRWShared;
.impmod iTasks.UI.Definition
.impdesc e_iTasks.UI.Definition_kHint
.impmod iTasks.WF.Definition
.impdesc e_iTasks.WF.Definition_riTask;
.impmod _SystemDynamic
.impdesc e__SystemDynamic_kTypeCons
.impdesc e__SystemDynamic_rTypeCodeConstructor
.impdesc e__SystemDynamic_dTC__Unit
.export e_BasicAPIExamples.InteractionUsingShares.CurrentDateAndTime_rgEditor_s;
.record e_BasicAPIExamples.InteractionUsingShares.CurrentDateAndTime_rgEditor_s; a 1 0 "gEditor_s;"
.export e_BasicAPIExamples.InteractionUsingShares.CurrentDateAndTime_tgEditor_s;
.export e_BasicAPIExamples.InteractionUsingShares.CurrentDateAndTime_cgEditor_s;
.descn e_BasicAPIExamples.InteractionUsingShares.CurrentDateAndTime_tgEditor_s; e_BasicAPIExamples.InteractionUsingShares.CurrentDateAndTime_cgEditor_s; 1 1 "gEditor_s;"
.n 1 e_BasicAPIExamples.InteractionUsingShares.CurrentDateAndTime_tgEditor_s;
.o 1 0 
e_BasicAPIExamples.InteractionUsingShares.CurrentDateAndTime_cgEditor_s;
	push_node _cycle_in_spine 1
	jsr_eval 0
.impmod BasicAPIExamples.InteractionUsingShares.CurrentDateAndTime
.impdesc e_BasicAPIExamples.InteractionUsingShares.CurrentDateAndTime_rgEditor_s;
	fill_r e_BasicAPIExamples.InteractionUsingShares.CurrentDateAndTime_rgEditor_s; 1 0 1 0 0
.d 1 0 
	pop_a_rtn 1
.export e_BasicAPIExamples.InteractionUsingShares.CurrentDateAndTime_rgText_s;
.record e_BasicAPIExamples.InteractionUsingShares.CurrentDateAndTime_rgText_s; a 1 0 "gText_s;"
.export e_BasicAPIExamples.InteractionUsingShares.CurrentDateAndTime_tgText_s;
.export e_BasicAPIExamples.InteractionUsingShares.CurrentDateAndTime_cgText_s;
.descn e_BasicAPIExamples.InteractionUsingShares.CurrentDateAndTime_tgText_s; e_BasicAPIExamples.InteractionUsingShares.CurrentDateAndTime_cgText_s; 1 1 "gText_s;"
.n 1 e_BasicAPIExamples.InteractionUsingShares.CurrentDateAndTime_tgText_s;
.o 1 0 
e_BasicAPIExamples.InteractionUsingShares.CurrentDateAndTime_cgText_s;
	push_node _cycle_in_spine 1
	jsr_eval 0
.impdesc e_BasicAPIExamples.InteractionUsingShares.CurrentDateAndTime_rgText_s;
	fill_r e_BasicAPIExamples.InteractionUsingShares.CurrentDateAndTime_rgText_s; 1 0 1 0 0
.d 1 0 
	pop_a_rtn 1
.export e_BasicAPIExamples.InteractionUsingShares.CurrentDateAndTime_rJSONEncode_s;
.record e_BasicAPIExamples.InteractionUsingShares.CurrentDateAndTime_rJSONEncode_s; a 1 0 "JSONEncode_s;"
.export e_BasicAPIExamples.InteractionUsingShares.CurrentDateAndTime_tJSONEncode_s;
.export e_BasicAPIExamples.InteractionUsingShares.CurrentDateAndTime_cJSONEncode_s;
.descn e_BasicAPIExamples.InteractionUsingShares.CurrentDateAndTime_tJSONEncode_s; e_BasicAPIExamples.InteractionUsingShares.CurrentDateAndTime_cJSONEncode_s; 1 1 "JSONEncode_s;"
.n 1 e_BasicAPIExamples.InteractionUsingShares.CurrentDateAndTime_tJSONEncode_s;
.o 1 0 
e_BasicAPIExamples.InteractionUsingShares.CurrentDateAndTime_cJSONEncode_s;
	push_node _cycle_in_spine 1
	jsr_eval 0
.impdesc e_BasicAPIExamples.InteractionUsingShares.CurrentDateAndTime_rJSONEncode_s;
	fill_r e_BasicAPIExamples.InteractionUsingShares.CurrentDateAndTime_rJSONEncode_s; 1 0 1 0 0
.d 1 0 
	pop_a_rtn 1
.export e_BasicAPIExamples.InteractionUsingShares.CurrentDateAndTime_rJSONDecode_s;
.record e_BasicAPIExamples.InteractionUsingShares.CurrentDateAndTime_rJSONDecode_s; a 1 0 "JSONDecode_s;"
.export e_BasicAPIExamples.InteractionUsingShares.CurrentDateAndTime_tJSONDecode_s;
.export e_BasicAPIExamples.InteractionUsingShares.CurrentDateAndTime_cJSONDecode_s;
.descn e_BasicAPIExamples.InteractionUsingShares.CurrentDateAndTime_tJSONDecode_s; e_BasicAPIExamples.InteractionUsingShares.CurrentDateAndTime_cJSONDecode_s; 1 1 "JSONDecode_s;"
.n 1 e_BasicAPIExamples.InteractionUsingShares.CurrentDateAndTime_tJSONDecode_s;
.o 1 0 
e_BasicAPIExamples.InteractionUsingShares.CurrentDateAndTime_cJSONDecode_s;
	push_node _cycle_in_spine 1
	jsr_eval 0
.impdesc e_BasicAPIExamples.InteractionUsingShares.CurrentDateAndTime_rJSONDecode_s;
	fill_r e_BasicAPIExamples.InteractionUsingShares.CurrentDateAndTime_rJSONDecode_s; 1 0 1 0 0
.d 1 0 
	pop_a_rtn 1
.export e_BasicAPIExamples.InteractionUsingShares.CurrentDateAndTime_rgEq_s;
.record e_BasicAPIExamples.InteractionUsingShares.CurrentDateAndTime_rgEq_s; a 1 0 "gEq_s;"
.export e_BasicAPIExamples.InteractionUsingShares.CurrentDateAndTime_tgEq_s;
.export e_BasicAPIExamples.InteractionUsingShares.CurrentDateAndTime_cgEq_s;
.descn e_BasicAPIExamples.InteractionUsingShares.CurrentDateAndTime_tgEq_s; e_BasicAPIExamples.InteractionUsingShares.CurrentDateAndTime_cgEq_s; 1 1 "gEq_s;"
.n 1 e_BasicAPIExamples.InteractionUsingShares.CurrentDateAndTime_tgEq_s;
.o 1 0 
e_BasicAPIExamples.InteractionUsingShares.CurrentDateAndTime_cgEq_s;
	push_node _cycle_in_spine 1
	jsr_eval 0
.impdesc e_BasicAPIExamples.InteractionUsingShares.CurrentDateAndTime_rgEq_s;
	fill_r e_BasicAPIExamples.InteractionUsingShares.CurrentDateAndTime_rgEq_s; 1 0 1 0 0
.d 1 0 
	pop_a_rtn 1
.export e_BasicAPIExamples.InteractionUsingShares.CurrentDateAndTime_smain
.export e_BasicAPIExamples.InteractionUsingShares.CurrentDateAndTime_eamain
.descexp e_BasicAPIExamples.InteractionUsingShares.CurrentDateAndTime_dmain e_BasicAPIExamples.InteractionUsingShares.CurrentDateAndTime_nmain e_BasicAPIExamples.InteractionUsingShares.CurrentDateAndTime_lmain 0 0 "main"
.o 1 0 
e_BasicAPIExamples.InteractionUsingShares.CurrentDateAndTime_lmain
	halt
.n 0 e_BasicAPIExamples.InteractionUsingShares.CurrentDateAndTime_dmain e_BasicAPIExamples.InteractionUsingShares.CurrentDateAndTime_eamain
.o 1 0 
e_BasicAPIExamples.InteractionUsingShares.CurrentDateAndTime_nmain
	push_node _cycle_in_spine 0
.o 1 0 
e_BasicAPIExamples.InteractionUsingShares.CurrentDateAndTime_eamain
.o 1 0 
e_BasicAPIExamples.InteractionUsingShares.CurrentDateAndTime_smain
.o 1 0 
s2
	buildh e__predef_d_Unit 0
	create 
.d 1 0 
	jsr s3
.o 1 0 
.d 3 0 
	jmp e_iTasks.WF.Combinators.Common_s@!
.export e_BasicAPIExamples.InteractionUsingShares.CurrentDateAndTime_swf
.descexp e_BasicAPIExamples.InteractionUsingShares.CurrentDateAndTime_dwf e_BasicAPIExamples.InteractionUsingShares.CurrentDateAndTime_nwf e_BasicAPIExamples.InteractionUsingShares.CurrentDateAndTime_lwf 1 0 "wf"
.o 2 0 
e_BasicAPIExamples.InteractionUsingShares.CurrentDateAndTime_lwf
.d 1 0 
	pop_a_jsr 1 ea1
.o 6 0 
.impmod iTasks.Extensions.Admin.WorkflowAdmin
.impdesc e_iTasks.Extensions.Admin.WorkflowAdmin_rWorkflow
	buildhr e_iTasks.Extensions.Admin.WorkflowAdmin_rWorkflow 6 0
.d 1 0 
	rtn 
.n 1 e_BasicAPIExamples.InteractionUsingShares.CurrentDateAndTime_dwf
.o 1 0 
e_BasicAPIExamples.InteractionUsingShares.CurrentDateAndTime_nwf
	push_node _cycle_in_spine 1
.d 1 0 
	jsr ea1
.o 6 0 
	fill_r e_iTasks.Extensions.Admin.WorkflowAdmin_rWorkflow 6 0 6 0 0
.d 1 0 
	pop_a_rtn 6
.o 1 0 
ea1
.o 1 0 
e_BasicAPIExamples.InteractionUsingShares.CurrentDateAndTime_swf
.o 1 0 
s1
	build e_BasicAPIExamples.InteractionUsingShares.CurrentDateAndTime_dshowDateAndTime.3 0 e_BasicAPIExamples.InteractionUsingShares.CurrentDateAndTime_nshowDateAndTime.3
	buildh e_iTasks.Extensions.DateTime_dTD;Time 0
	buildhr e__SystemDynamic_kTypeCons 1 0
	buildh e_iTasks.Extensions.DateTime_dgEq_Time;37 0
	buildh e_iTasks.Extensions.DateTime_dJSONDecode_Time;34 0
	buildh e_iTasks.Extensions.DateTime_dJSONEncode_Time;31 0
	buildh e_iTasks.Extensions.DateTime_dgText_Time;40 0
	buildh e_iTasks.Extensions.DateTime_dgEditor_Time;43 0
	buildhr e_iTasks.WF.Definition_riTask; 6 0
	buildh e_iTasks.Extensions.Admin.WorkflowAdmin_dtoWorkflow;13 1
	buildAC "View the current Date and Time"
	buildh ARRAY 1
	push_update_a 1 3
	updates3pop_a 0 1 3 4
.d 4 0 
	jmp e_iTasks.Extensions.Admin.WorkflowAdmin_sworkflow
.export e_BasicAPIExamples.InteractionUsingShares.CurrentDateAndTime_dshowDateAndTime.3
.export e_BasicAPIExamples.InteractionUsingShares.CurrentDateAndTime_nshowDateAndTime.3
.descn e_BasicAPIExamples.InteractionUsingShares.CurrentDateAndTime_dshowDateAndTime.3 e_BasicAPIExamples.InteractionUsingShares.CurrentDateAndTime_nshowDateAndTime.3 0 0 "showDateAndTime.3"
.n 0 e_BasicAPIExamples.InteractionUsingShares.CurrentDateAndTime_dshowDateAndTime.3 ea3
.o 1 0 
e_BasicAPIExamples.InteractionUsingShares.CurrentDateAndTime_nshowDateAndTime.3
	push_node _cycle_in_spine 0
.o 1 0 
ea3
.o 1 0 
s3
	create 
.d 1 0 
	jsr e_iTasks.SDS.Sources.System_scurrentTime
.o 1 0 
	buildh _Nil 0
	buildh e_iTasks.Extensions.Clock_dAnalogClock 0
	buildh e_iTasks.Extensions.Clock_dTD;AnalogClock 0
	buildhr e__SystemDynamic_kTypeCons 1 0
	buildh e_iTasks.Extensions.Clock_dgEq_AnalogClock;3 0
	buildh e_iTasks.Extensions.Clock_dJSONDecode_AnalogClock;1 0
	buildh e_iTasks.Extensions.Clock_dJSONEncode_AnalogClock;0 0
	buildh e_iTasks.Extensions.Clock_dgText_AnalogClock;4 0
	buildh e_iTasks.Extensions.Clock_dgEditor_AnalogClock;2 0
	buildhr e_iTasks.WF.Definition_riTask; 6 0
	buildhr e_iTasks.WF.Tasks.Interaction_kViewAs 2 0
	buildh _Cons 2
	buildh e_iTasks.Internal.SDS_dsdsIdentity;17 0
	buildh e_iTasks.Internal.SDS_dreadSDS;18 0
	buildhr e_iTasks.SDS.Definition_rReadable; 2 0
	buildh e_iTasks.Internal.SDS_dreadRegisterSDS;21 0
	buildhr e_iTasks.SDS.Definition_rRegistrable; 2 0
	buildh e_iTasks.Internal.SDS_dsdsIdentity;17 0
	buildh e_iTasks.Internal.SDS_dwriteSDS;19 0
	buildhr e_iTasks.SDS.Definition_rWriteable; 2 0
	buildh e_iTasks.Internal.SDS_dsdsIdentity;17 0
	buildh e_iTasks.Internal.SDS_dreadSDS;18 0
	buildhr e_iTasks.SDS.Definition_rReadable; 2 0
	buildh e_iTasks.Internal.SDS_dmodifySDS;20 0
	buildhr e_iTasks.SDS.Definition_rModifiable; 3 0
	buildh e__SystemDynamic_dTC__Unit 0
	buildhr e__SystemDynamic_kTypeCons 1 0
	buildh e_iTasks.Extensions.DateTime_dTD;Time 0
	buildhr e__SystemDynamic_kTypeCons 1 0
	buildh e_iTasks.Extensions.DateTime_dgEq_Time;37 0
	buildh e_iTasks.Extensions.DateTime_dJSONDecode_Time;34 0
	buildh e_iTasks.Extensions.DateTime_dJSONEncode_Time;31 0
	buildh e_iTasks.Extensions.DateTime_dgText_Time;40 0
	buildh e_iTasks.Extensions.DateTime_dgEditor_Time;43 0
	create 
	push_update_a 1 2
	updates4_a 7 6 5 4 3
	updates4_a 11 10 9 8 7
	updates3pop_a 0 1 12 11
.d 12 0 
	jsr e_iTasks.WF.Tasks.Interaction_sviewSharedInformation
.o 1 0 
	buildAC "The current time is:"
	buildhr e_iTasks.UI.Definition_kHint 1 0
	buildh e_iTasks.UI.Tune_dtune;7 0
.d 3 0 
	jsr e_iTasks.UI.Tune_s@>>
.o 1 0 
	create 
.d 1 0 
	jsr e_iTasks.SDS.Sources.System_scurrentDateTime
.o 1 0 
	buildh _Nil 0
	buildh e_iTasks.Internal.SDS_dsdsIdentity;37 0
	buildh e_iTasks.Internal.SDS_dreadSDS;38 0
	buildhr e_iTasks.SDS.Definition_rReadable; 2 0
	buildh e_iTasks.Internal.SDS_dreadRegisterSDS;41 0
	buildhr e_iTasks.SDS.Definition_rRegistrable; 2 0
	buildh e_iTasks.Internal.SDS_dsdsIdentity;37 0
	buildh e_iTasks.Internal.SDS_dwriteSDS;39 0
	buildhr e_iTasks.SDS.Definition_rWriteable; 2 0
	buildh e_iTasks.Internal.SDS_dsdsIdentity;37 0
	buildh e_iTasks.Internal.SDS_dreadSDS;38 0
	buildhr e_iTasks.SDS.Definition_rReadable; 2 0
	buildh e_iTasks.Internal.SDS_dmodifySDS;40 0
	buildhr e_iTasks.SDS.Definition_rModifiable; 3 0
	buildh e__SystemDynamic_dTC__Unit 0
	buildhr e__SystemDynamic_kTypeCons 1 0
	buildh e_iTasks.Extensions.DateTime_dTD;DateTime 0
	buildhr e__SystemDynamic_kTypeCons 1 0
	buildh e_iTasks.Extensions.DateTime_dgEq_DateTime;38 0
	buildh e_iTasks.Extensions.DateTime_dJSONDecode_DateTime;35 0
	buildh e_iTasks.Extensions.DateTime_dJSONEncode_DateTime;32 0
	buildh e_iTasks.Extensions.DateTime_dgText_DateTime;41 0
	buildh e_iTasks.Extensions.DateTime_dgEditor_DateTime;44 0
	create 
	push_update_a 1 2
	updates4_a 7 6 5 4 3
	updates4_a 11 10 9 8 7
	updates3pop_a 0 1 12 11
.d 12 0 
	jsr e_iTasks.WF.Tasks.Interaction_sviewSharedInformation
.o 1 0 
	buildAC "The current Date and Time is:"
	buildhr e_iTasks.UI.Definition_kHint 1 0
	buildh e_iTasks.UI.Tune_dtune;7 0
.d 3 0 
	jsr e_iTasks.UI.Tune_s@>>
.o 1 0 
	buildh e_iTasks.Extensions.DateTime_dJSONEncode_DateTime;32 0
	buildh e_iTasks.Extensions.DateTime_dTD;DateTime 0
	buildhr e__SystemDynamic_kTypeCons 1 0
.d 5 0 
	jmp e_iTasks.WF.Combinators.Common_s>!|
