.comp 920 000011110011000
.start _nostart_
.depend "Data.IntMap.Base" "20210613144732"
.depend "Data.IntMap.Strict" "20210613144732"
.depend "Text.GenJSON" "20210613144732"
.depend "StdFile" "20210613144732"
.depend "StdString" "20210613144732"
.depend "Control.Monad.Fail" "20210613144732"
.depend "Data.Traversable" "20210613144732"
.depend "StdMisc" "20210613144732"
.depend "StdOverloadedList" "20210613144732"
.depend "Data.List" "20210613144732"
.depend "Data.Foldable" "20210613144732"
.depend "StdFunctions" "20210613144732"
.depend "StdFunc" "20210613144732"
.depend "_SystemEnumStrict" "20210613144732"
.depend "_SystemStrictLists" "20210613144732"
.depend "StdStrictLists" "20210613144732"
.depend "StdGeneric" "20210613144732"
.depend "Data.GenEq" "20210613144732"
.depend "StdReal" "20210613144732"
.depend "StdChar" "20210613144732"
.depend "StdInt" "20210613144732"
.depend "StdBool" "20210613144732"
.depend "StdClass" "20210613144732"
.depend "StdList" "20210613144732"
.depend "Data.Monoid" "20210613144732"
.depend "Control.Applicative" "20210613144732"
.depend "Control.Monad" "20210613144732"
.depend "Data.Functor" "20210613144732"
.depend "StdOverloaded" "20210613144732"
.depend "_SystemDynamic" "20210613144732"
.depend "Data.CircularStack" "20210613144732"
.module m_Data.CircularStack "Data.CircularStack" "20210613144732"
.endinfo
.impmod _system
.implab _cycle_in_spine
.implab _type_error
.implab _hnf
.impdesc e_system_dind
.implab e_system_nind e_system_eaind
.impdesc e_system_dif
.implab e_system_nif e_system_eaif
.implab e_system_sif
.impdesc e_system_dAP
.implab e_system_nAP e_system_eaAP
.implab e_system_sAP
.impdesc ARRAY
.impdesc _Nil
.impdesc _Cons
.impdesc _Conss
.implab n_Conss ea_Conss
.impdesc _Consts
.implab n_Consts ea_Consts
.impdesc _Conssts
.implab n_Conssts ea_Conssts
.impdesc _Tuple
.impdesc d_S.1
.implab n_S.1 ea_S.1
.impdesc d_S.2
.implab n_S.2 ea_S.2
.impdesc d_S.3
.implab n_S.3 ea_S.3
.impdesc d_S.4
.implab n_S.4 ea_S.4
.impdesc d_S.5
.implab n_S.5 ea_S.5
.impdesc d_S.6
.implab n_S.6 ea_S.6
.implab _driver
.impmod Data.IntMap.Strict
.implab e_Data.IntMap.Strict_snewMap
.implab e_Data.IntMap.Strict_sput
.implab e_Data.IntMap.Strict_sget
.impmod StdMisc
.implab e_StdMisc_sabort
.impmod StdInt
.implab e_StdInt_s+;6
.implab e_StdInt_s-;7
.implab e_StdInt_s*;9
.implab e_StdInt_s/;10
.implab e_StdInt_s==;16
.implab e_StdInt_s<;17
.impmod StdList
.implab e_StdList_slength;47
.export e_Data.CircularStack_rCircularStack
.record e_Data.CircularStack_rCircularStack iiia 1 3 "CircularStack"
.descexp e_Data.CircularStack_tCircularStack e_Data.CircularStack_cCircularStack _hnf 4 1 "CircularStack"
.n 4 e_Data.CircularStack_tCircularStack
.o 1 0
e_Data.CircularStack_cCircularStack
	push_node _cycle_in_spine 4
	jsr_eval 3
	jsr_eval 2
	jsr_eval 1
	jsr_eval 0
	pushI_a 2
	pushI_a 1
	pushI_a 0
	pop_a 3
.impmod Data.CircularStack
.impdesc e_Data.CircularStack_rCircularStack
	fill_r e_Data.CircularStack_rCircularStack 1 3 1 0 0
	pop_a 1
	pop_b 3
.d 1 0
	rtn
.export e_Data.CircularStack_dCircularStack.maxSize
.export e_Data.CircularStack_nCircularStack.maxSize
.descs e_Data.CircularStack_dCircularStack.maxSize e_Data.CircularStack_nCircularStack.maxSize INT 3 0 "CircularStack.maxSize"
.n -3 e_Data.CircularStack_dCircularStack.maxSize
.o 1 0
e_Data.CircularStack_nCircularStack.maxSize
	push_node _cycle_in_spine 1
	jsr_eval 0
	push_r_args_b 0 1 3 1 1
	pop_a 1
	fillI_b 0 0
	pop_b 1
.d 1 0
	rtn
.export e_Data.CircularStack_dCircularStack.actualSize
.export e_Data.CircularStack_nCircularStack.actualSize
.descs e_Data.CircularStack_dCircularStack.actualSize e_Data.CircularStack_nCircularStack.actualSize INT 4 0 "CircularStack.actualSize"
.n -3 e_Data.CircularStack_dCircularStack.actualSize
.o 1 0
e_Data.CircularStack_nCircularStack.actualSize
	push_node _cycle_in_spine 1
	jsr_eval 0
	push_r_args_b 0 1 3 2 1
	pop_a 1
	fillI_b 0 0
	pop_b 1
.d 1 0
	rtn
.export e_Data.CircularStack_dCircularStack.nextIdx
.export e_Data.CircularStack_nCircularStack.nextIdx
.descs e_Data.CircularStack_dCircularStack.nextIdx e_Data.CircularStack_nCircularStack.nextIdx INT 5 0 "CircularStack.nextIdx"
.n -3 e_Data.CircularStack_dCircularStack.nextIdx
.o 1 0
e_Data.CircularStack_nCircularStack.nextIdx
	push_node _cycle_in_spine 1
	jsr_eval 0
	push_r_args_b 0 1 3 3 1
	pop_a 1
	fillI_b 0 0
	pop_b 1
.d 1 0
	rtn
.export e_Data.CircularStack_dCircularStack.stackData
.export e_Data.CircularStack_nCircularStack.stackData
.export e_Data.CircularStack_eaCircularStack.stackData
.descs e_Data.CircularStack_dCircularStack.stackData e_Data.CircularStack_nCircularStack.stackData _ 1 0 "CircularStack.stackData"
.n -4 e_Data.CircularStack_dCircularStack.stackData e_Data.CircularStack_eaCircularStack.stackData
.o 1 0
e_Data.CircularStack_nCircularStack.stackData
	push_node _cycle_in_spine 1
.o 2 0
e_Data.CircularStack_eaCircularStack.stackData
	jsr_eval 0
	repl_r_args_a 1 3 1 1
	fill_a 0 1
	pop_a 1
.d 1 0
	rtn
.export e_Data.CircularStack_sTD;CircularStack
.export e_Data.CircularStack_eaTD;CircularStack
.descexp e_Data.CircularStack_dTD;CircularStack e_Data.CircularStack_nTD;CircularStack e_Data.CircularStack_lTD;CircularStack 1 0 "TD;CircularStack"
.o 2 0
e_Data.CircularStack_lTD;CircularStack
	update_a 1 0
	create
	update_a 0 2
	pop_a 1
.d 2 0
	jmp e_Data.CircularStack_eaTD;CircularStack
.n 1 e_Data.CircularStack_dTD;CircularStack e_Data.CircularStack_eaTD;CircularStack
.o 1 0
e_Data.CircularStack_nTD;CircularStack
	push_node _cycle_in_spine 1
.o 2 0
e_Data.CircularStack_eaTD;CircularStack
.o 2 0
e_Data.CircularStack_sTD;CircularStack
.o 2 0
s8
	fillh _Nil 0 1
	pop_a 1
.d 1 0
	rtn
.export e_Data.CircularStack_stoList
.export e_Data.CircularStack_eatoList
.descexp e_Data.CircularStack_dtoList e_Data.CircularStack_ntoList e_Data.CircularStack_ltoList 1 0 "toList"
.o 2 0
e_Data.CircularStack_ltoList
	update_a 1 0
	create
	update_a 0 2
	pop_a 1
.d 2 0
	jmp e_Data.CircularStack_eatoList
.n 1 e_Data.CircularStack_dtoList e_Data.CircularStack_eatoList
.o 1 0
e_Data.CircularStack_ntoList
	push_node _cycle_in_spine 1
.o 2 0
e_Data.CircularStack_eatoList
	jsr_eval 0
	repl_r_args 1 3
.o 2 3 iii
e_Data.CircularStack_stoList
.o 2 3 iii
s7
	push_a 0
	push_b 2
	push_b 2
	push_b 2
.d 1 3 iii
	jsr s5
.o 0 1 b
	jmp_false else.1
	fillh _Nil 0 1
	pop_a 1
	pop_b 3
.d 1 0
	rtn
else.1
	push_a 0
	push_b 2
	push_b 2
	push_b 2
	update_b 2 5
	update_b 1 4
	updatepop_b 0 3
	updatepop_a 0 1
.d 1 3 iii
	jsr s3
.o 2 3 iii
	build_r e_Data.CircularStack_rCircularStack 1 3 1 0
	push_a 1
	update_a 1 3
	updatepop_a 0 2
	pop_b 3
.d 3 0
	jmp s13
.o 3 0
s13
	eq_desc _Just 1 0
	jmp_true case.2
	jmp case.3
case.2
	repl_args 1 1
	push_a 1
	build e_Data.CircularStack_dtoList 1 e_Data.CircularStack_ntoList
	push_a 1
	fillh _Cons 2 4
	pop_a 2
.d 1 0
	rtn
case.3
	push_r_args 1 1 3
	updatepop_a 0 2
.d 2 3 iii
	jmp s7
.export e_Data.CircularStack_sfromList
.descexp e_Data.CircularStack_dfromList e_Data.CircularStack_nfromList e_Data.CircularStack_lfromList 1 0 "fromList"
.o 2 0
e_Data.CircularStack_lfromList
	pop_a 1
.d 1 0
	jsr ea6
.o 1 3 iii
	buildhr e_Data.CircularStack_rCircularStack 1 3
.d 1 0
	rtn
.n 1 e_Data.CircularStack_dfromList
.o 1 0
e_Data.CircularStack_nfromList
	push_node _cycle_in_spine 1
.d 1 0
	jsr ea6
.o 1 3 iii
	fill_r e_Data.CircularStack_rCircularStack 1 3 1 0 0
	pop_a 1
	pop_b 3
.d 1 0
	rtn
.o 1 0
ea6
	jsr_eval 0
.o 1 0
e_Data.CircularStack_sfromList
.o 1 0
s6
	push_a 0
.d 1 0
	jsr e_StdList_slength;47
.o 0 1 i
.d 0 1 i
	jsr s1
.o 1 3 iii
	push_a 1
	push_a 1
	update_a 1 2
	update_a 0 1
	pop_a 1
	update_a 1 2
	updatepop_a 0 1
.d 2 3 iii
	jmp s11
.o 2 3 iii
s11
	eq_desc _Nil 0 1
	jmp_true case.4
	jmp case.5
case.4
	updatepop_a 0 1
.d 1 3 iii
	rtn
case.5
	push_args 1 2 2
	buildh _Nil 0
	update_a 0 4
	pop_a 1
	push_a 1
	jsr_eval 0
	push_a 3
	push_b 2
	push_b 2
	push_b 2
	update_b 2 5
	update_b 1 4
	updatepop_b 0 3
	update_a 2 5
	update_a 1 4
	updatepop_a 0 3
.d 2 3 iii
	jsr s11
.o 1 3 iii
	push_a 1
	jsr_eval 0
	update_a 1 2
	updatepop_a 0 1
.d 2 3 iii
	jmp s2
.export e_Data.CircularStack_speek
.export e_Data.CircularStack_eapeek
.descexp e_Data.CircularStack_dpeek e_Data.CircularStack_npeek e_Data.CircularStack_lpeek 1 0 "peek"
.o 2 0
e_Data.CircularStack_lpeek
	update_a 1 0
	create
	update_a 0 2
	pop_a 1
.d 2 0
	jmp e_Data.CircularStack_eapeek
.n 1 e_Data.CircularStack_dpeek e_Data.CircularStack_eapeek
.o 1 0
e_Data.CircularStack_npeek
	push_node _cycle_in_spine 1
.o 2 0
e_Data.CircularStack_eapeek
	jsr_eval 0
	repl_r_args 1 3
.o 2 3 iii
e_Data.CircularStack_speek
.o 2 3 iii
s4
	push_a 0
	push_b 2
	push_b 2
	push_b 2
.d 1 3 iii
	jsr s5
.o 0 1 b
	jmp_false else.6
	fillh _None 0 1
	pop_a 1
	pop_b 3
.d 1 0
	rtn
else.6
	push_a 0
	push_a 1
	push_b 2
	push_b 2
	push_b 2
	update_b 2 5
	update_b 1 4
	updatepop_b 0 3
	buildh _Nil 0
	update_a 0 3
	pop_a 1
.d 1 3 iii
	jsr s9
.o 0 1 i
	updatepop_a 0 1
.d 2 1 i
	jmp e_Data.IntMap.Strict_sget
.export e_Data.CircularStack_spop
.descexp e_Data.CircularStack_dpop e_Data.CircularStack_npop e_Data.CircularStack_lpop 1 0 "pop"
.o 2 0
e_Data.CircularStack_lpop
	pop_a 1
.d 1 0
	jsr ea3
.o 2 3 iii
	build_r e_Data.CircularStack_rCircularStack 1 3 1 0
	push_a 1
	buildh _Tuple 2
	updatepop_a 0 2
	pop_b 3
.d 1 0
	rtn
.n 1 e_Data.CircularStack_dpop
.o 1 0
e_Data.CircularStack_npop
	push_node _cycle_in_spine 1
.d 1 0
	jsr ea3
.o 2 3 iii
	build_r e_Data.CircularStack_rCircularStack 1 3 1 0
	push_a 1
	fillh _Tuple 2 4
	pop_a 2
	pop_b 3
.d 1 0
	rtn
.o 1 0
ea3
	jsr_eval 0
	repl_r_args 1 3
.o 1 3 iii
e_Data.CircularStack_spop
.o 1 3 iii
s3
	push_a 0
	push_b 2
	push_b 2
	push_b 2
.d 1 3 iii
	jsr s5
.o 0 1 b
	jmp_false else.7
	buildh _None 0
	push_a 1
	push_b 2
	push_b 2
	push_b 2
	push_a 1
	update_a 1 2
	update_a 0 1
	pop_a 1
	update_a 1 2
	updatepop_a 0 1
	update_b 2 5
	update_b 1 4
	updatepop_b 0 3
.d 2 3 iii
	rtn
else.7
	push_a 0
	push_b 2
	push_b 2
	push_b 2
.d 1 3 iii
	jsr s9
.o 0 1 i
	push_b 2
	pushI 1
	push_b 1
	update_b 1 2
	update_b 0 1
	pop_b 1
	subI
	push_b 1
	push_a 0
	push_b 5
	push_b 5
	push_b 5
	push_b 4
	update_b 4 5
	update_b 0 4
	pop_b 1
	update_b 3 1
	update_b 4 2
	update_b 2 4
	update_b 1 3
	updatepop_b 0 2
	push_a 1
	create
	push_b 3
	push_a 1
	update_a 1 2
	update_a 0 1
	pop_a 1
	buildh _Nil 0
	update_a 0 4
	pop_a 1
.d 2 1 i
	jsr e_Data.IntMap.Strict_sget
.o 1 0
	update_a 1 2
	updatepop_a 0 1
	update_b 2 6
	update_b 1 5
	updatepop_b 0 4
.d 2 3 iii
	rtn
.export e_Data.CircularStack_semptyStack
.descexp e_Data.CircularStack_demptyStack e_Data.CircularStack_nemptyStack e_Data.CircularStack_lemptyStack 1 0 "emptyStack"
.o 2 0
e_Data.CircularStack_lemptyStack
	pop_a 1
.d 1 0
	jsr ea5
.o 0 1 b
	buildB_b 0
	pop_b 1
.d 1 0
	rtn
.n 1 e_Data.CircularStack_demptyStack
.o 1 0
e_Data.CircularStack_nemptyStack
	push_node _cycle_in_spine 1
.d 1 0
	jsr ea5
.o 0 1 b
	fillB_b 0 0
	pop_b 1
.d 1 0
	rtn
.o 1 0
ea5
	jsr_eval 0
	repl_r_args 1 3
.o 1 3 iii
e_Data.CircularStack_semptyStack
.o 1 3 iii
s5
	push_b 1
	pushI 0
	push_b 1
	update_b 1 2
	update_b 0 1
	pop_b 1
	update_b 1 4
	updatepop_b 0 3
	pop_a 1
	eqI
.d 0 1 b
	rtn
.o 1 3 iii
s9
	push_b 2
	pushI 0
	push_b 1
	update_b 1 2
	update_b 0 1
	pop_b 1
	eqI
	jmp_false else.8
	push_b 0
	pushI 1
	push_b 1
	update_b 1 2
	update_b 0 1
	pop_b 1
	update_b 1 4
	updatepop_b 0 3
	pop_a 1
	subI
.d 0 1 i
	rtn
else.8
	push_b 2
	pushI 1
	push_b 1
	update_b 1 2
	update_b 0 1
	pop_b 1
	update_b 1 4
	updatepop_b 0 3
	pop_a 1
	subI
.d 0 1 i
	rtn
.export e_Data.CircularStack_spush
.descexp e_Data.CircularStack_dpush e_Data.CircularStack_npush e_Data.CircularStack_lpush 2 0 "push"
.a 0 a2
.o 2 0
e_Data.CircularStack_lpush
	repl_args 1 1
.o 2 0
a2
.d 2 0
	jsr ea2
.o 1 3 iii
	buildhr e_Data.CircularStack_rCircularStack 1 3
.d 1 0
	rtn
.n 2 e_Data.CircularStack_dpush
.o 1 0
e_Data.CircularStack_npush
	push_node _cycle_in_spine 2
.d 2 0
	jsr ea2
.o 1 3 iii
	fill_r e_Data.CircularStack_rCircularStack 1 3 1 0 0
	pop_a 1
	pop_b 3
.d 1 0
	rtn
.o 2 0
ea2
	jsr_eval 1
	jsr_eval 0
	push_r_args 1 1 3
	update_a 0 2
	pop_a 1
.o 2 3 iii
e_Data.CircularStack_spush
.o 2 3 iii
s2
	push_a 1
	push_b 2
	create
	push_a 2
	push_a 2
	update_a 2 3
	update_a 0 2
	pop_a 1
	update_a 2 3
	update_a 1 2
	updatepop_a 0 1
.d 3 1 i
	jsr e_Data.IntMap.Strict_sput
.o 1 0
	push_b 0
	push_b 3
	pushI 1
	push_b 1
	update_b 1 2
	update_b 0 1
	pop_b 1
	addI
.d 0 2 ii
	jsr s10
.o 0 1 i
	push_b 1
	push_b 3
	eqI
	push_a 1
	push_b 4
	push_b 4
	push_b 4
	push_b 3
	update_b 3 4
	update_b 2 3
	update_b 1 2
	update_b 0 1
	pop_b 1
.d 1 4 biii
	jsr s12
.o 0 1 i
	push_a 1
	push_b 4
	push_b 4
	push_b 4
	update_b 3 1
	update_b 4 2
	update_a 1 0
	updatepop_a 0 2
	update_b 2 7
	update_b 1 6
	updatepop_b 0 5
.d 1 3 iii
	rtn
.o 1 4 biii
s12
	eqB_b TRUE 0
	jmp_true case.9
	jmp case.10
case.9
	update_b 2 3
	pop_a 1
	pop_b 3
.d 0 1 i
	rtn
case.10
	push_b 2
	pushI 1
	push_b 1
	update_b 1 2
	update_b 0 1
	pop_b 1
	update_b 1 5
	updatepop_b 0 4
	pop_a 1
	addI
.d 0 1 i
	rtn
.o 0 2 ii
s10
	pushI 0
	push_b 2
	eqI
	jmp_false else.11
	buildAC "Division by zero"
	pop_b 2
.d 1 0
	jsr print_string_
.o 0 0
	halt
	pushI_a 0
	pop_a 1
.d 0 1 i
	rtn
else.11
	pushI -1
	push_b 2
	eqI
	jmp_false else.12
	pop_b 2
	pushI 0
.d 0 1 i
	rtn
else.12
	push_b 1
	push_b 1
	eqI
	jmp_false else.13
	pop_b 2
	pushI 0
.d 0 1 i
	rtn
else.13
	push_b 1
	push_b 1
	ltI
	jmp_false else.14
	update_b 0 1
	pop_b 1
.d 0 1 i
	rtn
else.14
	push_b 1
	push_b 1
	divI
	push_b 2
	push_b 1
	update_b 1 2
	update_b 0 1
	pop_b 1
	mulI
	push_b 1
	update_b 1 3
	updatepop_b 0 2
	subI
.d 0 1 i
	rtn
.export e_Data.CircularStack_snewStack
.descexp e_Data.CircularStack_dnewStack e_Data.CircularStack_nnewStack e_Data.CircularStack_lnewStack 1 0 "newStack"
.o 2 0
e_Data.CircularStack_lnewStack
	pop_a 1
.d 1 0
	jsr ea1
.o 1 3 iii
	buildhr e_Data.CircularStack_rCircularStack 1 3
.d 1 0
	rtn
.n 1 e_Data.CircularStack_dnewStack
.o 1 0
e_Data.CircularStack_nnewStack
	push_node _cycle_in_spine 1
.d 1 0
	jsr ea1
.o 1 3 iii
	fill_r e_Data.CircularStack_rCircularStack 1 3 1 0 0
	pop_a 1
	pop_b 3
.d 1 0
	rtn
.o 1 0
ea1
	jsr_eval 0
	pushI_a 0
	pop_a 1
.o 0 1 i
e_Data.CircularStack_snewStack
.o 0 1 i
s1
	create
.d 1 0
	jsr e_Data.IntMap.Strict_snewMap
.o 1 0
	pushI 0
	pushI 0
	push_b 2
	update_b 2 3
	update_b 1 2
	updatepop_b 0 1
.d 1 3 iii
	rtn
