.comp 920 000011110011000
.start _nostart_
.depend "Data.Func" "20210613144732"
.depend "StdCharList" "20210613144732"
.depend "_SystemArray" "20210613144732"
.depend "StdArray" "20210613144732"
.depend "StdEnv" "20210613144732"
.depend "_SystemEnum" "20210613144732"
.depend "StdEnum" "20210613144732"
.depend "StdTuple" "20210613144732"
.depend "StdOrdList" "20210613144732"
.depend "Control.Monad.Trans" "20210613144732"
.depend "StdMaybe" "20210613144732"
.depend "Data.Maybe" "20210613144732"
.depend "_SystemStrictMaybes" "20210613144732"
.depend "StdFile" "20210613144732"
.depend "StdString" "20210613144732"
.depend "Control.Monad.Fail" "20210613144732"
.depend "Data.Traversable" "20210613144732"
.depend "StdMisc" "20210613144732"
.depend "StdOverloadedList" "20210613144732"
.depend "Data.List" "20210613144732"
.depend "Data.Foldable" "20210613144732"
.depend "StdFunctions" "20210613144732"
.depend "StdFunc" "20210613144732"
.depend "_SystemEnumStrict" "20210613144732"
.depend "_SystemStrictLists" "20210613144732"
.depend "StdStrictLists" "20210613144732"
.depend "StdGeneric" "20210613144732"
.depend "Data.GenEq" "20210613144732"
.depend "StdReal" "20210613144732"
.depend "StdChar" "20210613144732"
.depend "StdInt" "20210613144732"
.depend "StdBool" "20210613144732"
.depend "StdClass" "20210613144732"
.depend "StdList" "20210613144732"
.depend "Data.Monoid" "20210613144732"
.depend "Control.Applicative" "20210613144732"
.depend "Control.Monad" "20210613144732"
.depend "Data.Functor" "20210613144732"
.depend "StdOverloaded" "20210613144732"
.depend "_SystemDynamic" "20210613144732"
.depend "Data.Error" "20210613144732"
.module m_Data.Error "Data.Error" "20210613144732"
.endinfo
.impmod _system
.implab _cycle_in_spine
.implab _type_error
.implab _hnf
.impdesc e_system_dind
.implab e_system_nind e_system_eaind
.impdesc e_system_dif
.implab e_system_nif e_system_eaif
.implab e_system_sif
.impdesc e_system_dAP
.implab e_system_nAP e_system_eaAP
.implab e_system_sAP
.impdesc ARRAY
.impdesc _Nil
.impdesc _Cons
.impdesc _Conss
.implab n_Conss ea_Conss
.impdesc _Consts
.implab n_Consts ea_Consts
.impdesc _Conssts
.implab n_Conssts ea_Conssts
.impdesc _Tuple
.impdesc d_S.1
.implab n_S.1 ea_S.1
.impdesc d_S.2
.implab n_S.2 ea_S.2
.impdesc d_S.3
.implab n_S.3 ea_S.3
.impdesc d_S.4
.implab n_S.4 ea_S.4
.impdesc d_S.5
.implab n_S.5 ea_S.5
.impdesc d_S.6
.implab n_S.6 ea_S.6
.implab _driver
.impmod Data.Maybe
.implab e_Data.Maybe_smaybe;63
.impmod StdString
.implab e_StdString_s+++;11
.impmod StdMisc
.implab e_StdMisc_sabort
.impmod StdGeneric
.impdesc e_StdGeneric_dLEFT
.impdesc e_StdGeneric_dRIGHT
.impdesc e_StdGeneric_dCONS
.export e_Data.Error_dError
.desc e_Data.Error_dError _hnf _add_arg 1 0 "Error"
.export e_Data.Error_dOk
.desc e_Data.Error_dOk _hnf _add_arg 1 0 "Ok"
.export e_Data.Error_sTD;MaybeErrorString
.export e_Data.Error_eaTD;MaybeErrorString
.descexp e_Data.Error_dTD;MaybeErrorString e_Data.Error_nTD;MaybeErrorString e_Data.Error_lTD;MaybeErrorString 1 0 "TD;MaybeErrorString"
.o 2 0
e_Data.Error_lTD;MaybeErrorString
	update_a 1 0
	create
	update_a 0 2
	pop_a 1
.d 2 0
	jmp e_Data.Error_eaTD;MaybeErrorString
.n 1 e_Data.Error_dTD;MaybeErrorString e_Data.Error_eaTD;MaybeErrorString
.o 1 0
e_Data.Error_nTD;MaybeErrorString
	push_node _cycle_in_spine 1
.o 2 0
e_Data.Error_eaTD;MaybeErrorString
.o 2 0
e_Data.Error_sTD;MaybeErrorString
.o 2 0
s22
	fillh _Nil 0 1
	pop_a 1
.d 1 0
	rtn
.export e_Data.Error_sTD;MaybeError
.export e_Data.Error_eaTD;MaybeError
.descexp e_Data.Error_dTD;MaybeError e_Data.Error_nTD;MaybeError e_Data.Error_lTD;MaybeError 1 0 "TD;MaybeError"
.o 2 0
e_Data.Error_lTD;MaybeError
	update_a 1 0
	create
	update_a 0 2
	pop_a 1
.d 2 0
	jmp e_Data.Error_eaTD;MaybeError
.n 1 e_Data.Error_dTD;MaybeError e_Data.Error_eaTD;MaybeError
.o 1 0
e_Data.Error_nTD;MaybeError
	push_node _cycle_in_spine 1
.o 2 0
e_Data.Error_eaTD;MaybeError
.o 2 0
e_Data.Error_sTD;MaybeError
.o 2 0
s21
	fillh _Nil 0 1
	pop_a 1
.d 1 0
	rtn
.export e_Data.Error_sgEq_MaybeError;19
.descexp e_Data.Error_dgEq_MaybeError;19 e_Data.Error_ngEq_MaybeError;19 e_Data.Error_lgEq_MaybeError;19 4 0 "gEq_MaybeError;19"
.o 5 0
e_Data.Error_igEq_MaybeError;19
	pop_a 1
.d 4 0
	jmp s20
.ai 0 a20 e_Data.Error_igEq_MaybeError;19
.o 2 0
e_Data.Error_lgEq_MaybeError;19
	repl_args 3 3
.o 4 0
a20
.d 4 0
	jsr ea20
.o 0 1 b
	buildB_b 0
	pop_b 1
.d 1 0
	rtn
.n 4 e_Data.Error_dgEq_MaybeError;19
.o 1 0
e_Data.Error_ngEq_MaybeError;19
	push_node _cycle_in_spine 4
.d 4 0
	jsr ea20
.o 0 1 b
	fillB_b 0 0
	pop_b 1
.d 1 0
	rtn
.o 4 0
ea20
	jsr_eval 3
	jsr_eval 2
.o 4 0
e_Data.Error_sgEq_MaybeError;19
.o 4 0
s20
	create
	push_a 4
	buildh _Nil 0
	update_a 0 6
	pop_a 1
.d 2 0
	jsr s23
.o 1 0
	create
	push_a 4
	buildh _Nil 0
	update_a 0 6
	pop_a 1
.d 2 0
	jsr s23
.o 1 0
	push_a 3
	push_a 3
	update_a 3 7
	update_a 2 6
	update_a 1 5
	updatepop_a 0 4
.d 4 0
	jmp s25
.o 2 0
s23
	eq_desc e_Data.Error_dError 1 0
	jmp_true case.1
	jmp case.2
case.1
	repl_args 1 1
	push_a 0
	buildh e_StdGeneric_dCONS 1
	fillh e_StdGeneric_dLEFT 1 2
	pop_a 1
.d 1 0
	rtn
case.2
	repl_args 1 1
	push_a 0
	buildh e_StdGeneric_dCONS 1
	fillh e_StdGeneric_dRIGHT 1 2
	pop_a 1
.d 1 0
	rtn
.o 4 0
s25
	push_a 3
	push_a 3
	push_a 3
	push_a 3
	update_a 3 7
	update_a 2 6
	update_a 1 5
	updatepop_a 0 4
.d 4 0
	jmp s26
.o 4 0
s26
	eq_desc e_StdGeneric_dLEFT 1 2
	jmp_true case.3
	jmp case.4
case.3
	push_args 2 1 1
	buildh _Nil 0
	update_a 0 4
	pop_a 1
	eq_desc e_StdGeneric_dLEFT 1 4
	jmp_true case.5
	jmp case.6
case.5
	push_args 4 1 1
	buildh _Nil 0
	update_a 0 6
	pop_a 1
	push_a 0
	jsr_eval 0
	push_a 2
	jsr_eval 0
	push_a 4
	jsr_eval 0
	update_a 2 8
	update_a 1 7
	updatepop_a 0 6
.d 3 0
	jmp s24
case.6
	push_args 4 1 1
	buildh _Nil 0
	update_a 0 6
	pop_a 1
	pop_a 1
	pop_a 5
	pushB FALSE
.d 0 1 b
	rtn
case.4
	push_args 2 1 1
	buildh _Nil 0
	update_a 0 4
	pop_a 1
	eq_desc e_StdGeneric_dRIGHT 1 4
	jmp_true case.7
	jmp case.8
case.7
	push_args 4 1 1
	buildh _Nil 0
	update_a 0 6
	pop_a 1
	push_a 0
	jsr_eval 0
	push_a 2
	jsr_eval 0
	push_a 5
	jsr_eval 0
	update_a 2 8
	update_a 1 7
	updatepop_a 0 6
.d 3 0
	jmp s24
case.8
	push_args 4 1 1
	buildh _Nil 0
	update_a 0 6
	pop_a 1
	pop_a 1
	pop_a 5
	pushB FALSE
.d 0 1 b
	rtn
.o 3 0
s24
	push_args 1 1 1
	buildh _Nil 0
	update_a 0 3
	pop_a 1
	push_args 3 1 1
	buildh _Nil 0
	update_a 0 5
	pop_a 1
	push_a 0
	push_a 2
	push_a 4
	update_a 2 7
	update_a 1 6
	updatepop_a 0 5
	jsr_ap 2
	pushB_a 0
	pop_a 1
.d 0 1 b
	rtn
.export e_Data.Error_s==;18
.descexp e_Data.Error_d==;18 e_Data.Error_n==;18 e_Data.Error_l==;18 4 0 "==;18"
.o 3 0
e_Data.Error_i==;18
	repl_args 2 2
	jsr_eval 1
	push_r_args 1 1 0
	jsr_eval 1
	push_r_args 1 1 0
	update_a 1 3
	update_a 0 2
	pop_a 2
.d 4 0
	jmp s19
.ai 0 a19 e_Data.Error_i==;18
.o 2 0
e_Data.Error_l==;18
	repl_args 3 3
.o 4 0
a19
.d 4 0
	jsr ea19
.o 0 1 b
	buildB_b 0
	pop_b 1
.d 1 0
	rtn
.n 4 e_Data.Error_d==;18
.o 1 0
e_Data.Error_n==;18
	push_node _cycle_in_spine 4
.d 4 0
	jsr ea19
.o 0 1 b
	fillB_b 0 0
	pop_b 1
.d 1 0
	rtn
.o 4 0
ea19
	jsr_eval 3
	jsr_eval 2
	jsr_eval 1
	jsr_eval 0
	push_r_args 1 1 0
	push_r_args 1 1 0
	update_a 1 3
	update_a 0 2
	pop_a 2
.o 4 0
e_Data.Error_s==;18
.o 4 0
s19
	eq_desc e_Data.Error_dOk 1 2
	jmp_true case.9
	jmp case.10
case.9
	push_args 2 1 1
	buildh _Nil 0
	update_a 0 4
	pop_a 1
	push_a 0
	push_a 3
	push_a 6
	update_a 2 7
	update_a 1 6
	updatepop_a 0 5
.d 3 0
	jmp s33
case.10
	push_args 2 1 1
	buildh _Nil 0
	update_a 0 4
	pop_a 1
	push_a 0
	push_a 2
	push_a 6
	update_a 2 7
	update_a 1 6
	updatepop_a 0 5
.d 3 0
	jmp s34
.o 3 0
s34
	eq_desc e_Data.Error_dError 1 0
	jmp_true case.11
	jmp case.12
case.11
	repl_args 1 1
	push_a 0
	jsr_eval 0
	push_a 3
	jsr_eval 0
	push_a 3
	update_a 2 5
	update_a 1 4
	updatepop_a 0 3
.d 3 0
	jmp_i 2
case.12
	pop_a 3
	pushB FALSE
.d 0 1 b
	rtn
.o 3 0
s33
	eq_desc e_Data.Error_dOk 1 0
	jmp_true case.13
	jmp case.14
case.13
	repl_args 1 1
	push_a 0
	jsr_eval 0
	push_a 3
	jsr_eval 0
	push_a 3
	update_a 2 5
	update_a 1 4
	updatepop_a 0 3
.d 3 0
	jmp_i 2
case.14
	pop_a 3
	pushB FALSE
.d 0 1 b
	rtn
.export e_Data.Error_sbind;17
.export e_Data.Error_eabind;17
.descexp e_Data.Error_dbind;17 e_Data.Error_nbind;17 e_Data.Error_lbind;17 2 0 "bind;17"
.o 3 0
e_Data.Error_ibind;17
	pop_a 1
	create
	push_a 2
	update_a 1 3
	update_a 2 1
	update_a 0 2
	pop_a 1
.d 3 0
	jmp s18
.ai 2 e_Data.Error_eabind;17 e_Data.Error_ibind;17
.o 2 0
e_Data.Error_lbind;17
	push_args 0 1 1
	update_a 2 1
	create
	update_a 0 3
	pop_a 1
.d 3 0
	jmp e_Data.Error_eabind;17
.n 2 e_Data.Error_dbind;17 e_Data.Error_eabind;17
.o 1 0
e_Data.Error_nbind;17
	push_node _cycle_in_spine 2
.o 3 0
e_Data.Error_eabind;17
	jsr_eval 0
.o 3 0
e_Data.Error_sbind;17
.o 3 0
s18
	eq_desc e_Data.Error_dError 1 0
	jmp_true case.15
	jmp case.16
case.15
	repl_args 1 1
	push_a 0
	fillh e_Data.Error_dError 1 3
	pop_a 2
.d 1 0
	rtn
case.16
	repl_args 1 1
	push_a 1
	jsr_eval 0
	push_a 1
	push_a 1
	update_a 1 2
	update_a 0 1
	pop_a 1
	update_a 1 3
	updatepop_a 0 2
	jsr_ap 1
	fill_a 0 1
	pop_a 1
.d 1 0
	rtn
.export e_Data.Error_s<*>;16
.export e_Data.Error_ea<*>;16
.descexp e_Data.Error_d<*>;16 e_Data.Error_n<*>;16 e_Data.Error_l<*>;16 2 0 "<*>;16"
.o 3 0
e_Data.Error_i<*>;16
	pop_a 1
	create
	push_a 2
	update_a 1 3
	update_a 2 1
	update_a 0 2
	pop_a 1
.d 3 0
	jmp s17
.ai 2 e_Data.Error_ea<*>;16 e_Data.Error_i<*>;16
.o 2 0
e_Data.Error_l<*>;16
	push_args 0 1 1
	update_a 2 1
	create
	update_a 0 3
	pop_a 1
.d 3 0
	jmp e_Data.Error_ea<*>;16
.n 2 e_Data.Error_d<*>;16 e_Data.Error_ea<*>;16
.o 1 0
e_Data.Error_n<*>;16
	push_node _cycle_in_spine 2
.o 3 0
e_Data.Error_ea<*>;16
	jsr_eval 0
.o 3 0
e_Data.Error_s<*>;16
.o 3 0
s17
	eq_desc e_Data.Error_dError 1 0
	jmp_true case.17
	jmp case.18
case.17
	repl_args 1 1
	push_a 0
	fillh e_Data.Error_dError 1 3
	pop_a 2
.d 1 0
	rtn
case.18
	repl_args 1 1
	push_a 1
	jsr_eval 0
	push_a 1
	update_a 1 3
	updatepop_a 0 2
.d 3 0
	jmp s15
.export e_Data.Error_spure;15
.export e_Data.Error_eapure;15
.descexp e_Data.Error_dpure;15 e_Data.Error_npure;15 e_Data.Error_lpure;15 1 0 "pure;15"
.o 2 0
e_Data.Error_ipure;15
	pop_a 1
	create
	push_a 1
	update_a 1 2
	update_a 0 1
	pop_a 1
.d 2 0
	jmp s16
.ai 1 _ e_Data.Error_ipure;15
.o 2 0
e_Data.Error_lpure;15
	update_a 1 0
	create
	update_a 0 2
	pop_a 1
.d 2 0
	jmp e_Data.Error_eapure;15
.n 1 e_Data.Error_dpure;15 e_Data.Error_eapure;15
.o 1 0
e_Data.Error_npure;15
	push_node _cycle_in_spine 1
.o 2 0
e_Data.Error_eapure;15
.o 2 0
e_Data.Error_spure;15
.o 2 0
s16
	push_a 0
	fillh e_Data.Error_dOk 1 2
	pop_a 1
.d 1 0
	rtn
.export e_Data.Error_sfmap;14
.export e_Data.Error_eafmap;14
.descexp e_Data.Error_dfmap;14 e_Data.Error_nfmap;14 e_Data.Error_lfmap;14 2 0 "fmap;14"
.o 3 0
e_Data.Error_ifmap;14
	pop_a 1
	create
	jsr_eval 2
	push_a 2
	update_a 1 3
	update_a 2 1
	update_a 0 2
	pop_a 1
.d 3 0
	jmp s15
.ai 2 e_Data.Error_eafmap;14 e_Data.Error_ifmap;14
.o 2 0
e_Data.Error_lfmap;14
	push_args 0 1 1
	update_a 2 1
	create
	update_a 0 3
	pop_a 1
.d 3 0
	jmp e_Data.Error_eafmap;14
.n 2 e_Data.Error_dfmap;14 e_Data.Error_eafmap;14
.o 1 0
e_Data.Error_nfmap;14
	push_node _cycle_in_spine 2
.o 3 0
e_Data.Error_eafmap;14
	jsr_eval 1
.o 3 0
e_Data.Error_sfmap;14
.o 3 0
s15
	push_a 1
	push_a 1
	update_a 1 3
	updatepop_a 0 2
.d 3 0
	jmp s7
.export e_Data.Error_scombineErrorsSt
.descexp e_Data.Error_dcombineErrorsSt e_Data.Error_ncombineErrorsSt e_Data.Error_lcombineErrorsSt 4 0 "combineErrorsSt"
.a 0 a14
.o 2 0
e_Data.Error_lcombineErrorsSt
	repl_args 3 3
.o 4 0
a14
.d 4 0
	jsr ea14
.o 2 0
	push_a 1
	push_a 1
	buildh _Tuple 2
	updatepop_a 0 2
.d 1 0
	rtn
.n 4 e_Data.Error_dcombineErrorsSt
.o 1 0
e_Data.Error_ncombineErrorsSt
	push_node _cycle_in_spine 4
.d 4 0
	jsr ea14
.o 2 0
	push_a 1
	push_a 1
	fillh _Tuple 2 4
	pop_a 2
.d 1 0
	rtn
.o 4 0
ea14
	jsr_eval 3
	jsr_eval 0
.o 4 0
e_Data.Error_scombineErrorsSt
.o 4 0
s14
	push_a 3
	push_a 1
	update_a 1 2
	updatepop_a 0 1
	buildh _Nil 0
	update_a 0 5
	pop_a 1
	jsr_ap 1
	push_arg 0 2 2
	push_arg 1 2 1
	jsr_eval 0
	push_a 4
	push_a 4
	push_a 3
	update_a 2 4
	update_a 0 2
	update_a 3 0
	update_a 1 3
	update_a 0 1
	pop_a 1
	update_a 3 7
	update_a 2 6
	update_a 1 5
	updatepop_a 0 4
.d 4 0
	jmp s71
.export e_Data.Error_sseqErrorsSt
.descexp e_Data.Error_dseqErrorsSt e_Data.Error_nseqErrorsSt e_Data.Error_lseqErrorsSt 3 0 "seqErrorsSt"
.a 0 a13
.o 2 0
e_Data.Error_lseqErrorsSt
	repl_args 2 2
.o 3 0
a13
.d 3 0
	jsr ea13
.o 2 0
	push_a 1
	push_a 1
	buildh _Tuple 2
	updatepop_a 0 2
.d 1 0
	rtn
.n 3 e_Data.Error_dseqErrorsSt
.o 1 0
e_Data.Error_nseqErrorsSt
	push_node _cycle_in_spine 3
.d 3 0
	jsr ea13
.o 2 0
	push_a 1
	push_a 1
	fillh _Tuple 2 4
	pop_a 2
.d 1 0
	rtn
.o 3 0
ea13
	jsr_eval 2
	jsr_eval 0
.o 3 0
e_Data.Error_sseqErrorsSt
.o 3 0
s13
	push_a 2
	push_a 1
	update_a 3 4
	update_a 1 3
	updatepop_a 0 2
	jsr_ap 1
	push_arg 0 2 2
	push_arg 1 2 1
	jsr_eval 0
	push_a 3
	push_a 2
	update_a 1 3
	update_a 2 1
	update_a 0 2
	pop_a 1
	update_a 2 4
	update_a 1 3
	updatepop_a 0 2
.d 3 0
	jmp s70
.export e_Data.Error_scombineErrors
.export e_Data.Error_eacombineErrors
.descexp e_Data.Error_dcombineErrors e_Data.Error_ncombineErrors e_Data.Error_lcombineErrors 3 0 "combineErrors"
.a 3 e_Data.Error_eacombineErrors
.o 2 0
e_Data.Error_lcombineErrors
	push_args 0 2 2
	update_a 3 2
	create
	update_a 0 4
	pop_a 1
.d 4 0
	jmp e_Data.Error_eacombineErrors
.n 3 e_Data.Error_dcombineErrors e_Data.Error_eacombineErrors
.o 1 0
e_Data.Error_ncombineErrors
	push_node _cycle_in_spine 3
.o 4 0
e_Data.Error_eacombineErrors
	jsr_eval 0
.o 4 0
e_Data.Error_scombineErrors
.o 4 0
s12
	push_a 2
	push_a 2
	push_a 2
	update_a 2 5
	update_a 1 4
	updatepop_a 0 3
.d 4 0
	jmp s29
.o 4 0
s29
	eq_desc e_Data.Error_dError 1 0
	jmp_true case.19
	jmp case.20
case.19
	repl_args 1 1
	push_a 0
	fillh e_Data.Error_dError 1 4
	pop_a 3
.d 1 0
	rtn
case.20
	repl_args 1 1
	push_a 1
	jsr_eval 0
	push_a 1
	push_a 4
	push_a 2
	update_a 2 3
	update_a 1 2
	update_a 0 1
	pop_a 1
	update_a 2 5
	update_a 1 4
	updatepop_a 0 3
.d 4 0
	jmp s28
.o 4 0
s28
	eq_desc e_Data.Error_dError 1 0
	jmp_true case.21
	jmp case.22
case.21
	repl_args 1 1
	push_a 0
	fillh e_Data.Error_dError 1 4
	pop_a 3
.d 1 0
	rtn
case.22
	repl_args 1 1
	push_a 0
	push_a 2
	jsr_eval 0
	push_a 4
	push_a 1
	update_a 1 2
	update_a 0 1
	pop_a 1
	update_a 2 5
	update_a 1 4
	updatepop_a 0 3
	jsr_ap 2
	fill_a 0 1
	pop_a 1
.d 1 0
	rtn
.export e_Data.Error_sseqErrors
.export e_Data.Error_easeqErrors
.descexp e_Data.Error_dseqErrors e_Data.Error_nseqErrors e_Data.Error_lseqErrors 2 0 "seqErrors"
.a 2 e_Data.Error_easeqErrors
.o 2 0
e_Data.Error_lseqErrors
	push_args 0 1 1
	update_a 2 1
	create
	update_a 0 3
	pop_a 1
.d 3 0
	jmp e_Data.Error_easeqErrors
.n 2 e_Data.Error_dseqErrors e_Data.Error_easeqErrors
.o 1 0
e_Data.Error_nseqErrors
	push_node _cycle_in_spine 2
.o 3 0
e_Data.Error_easeqErrors
	jsr_eval 0
.o 3 0
e_Data.Error_sseqErrors
.o 3 0
s11
	push_a 1
	push_a 1
	update_a 1 3
	updatepop_a 0 2
.d 3 0
	jmp s27
.o 3 0
s27
	eq_desc e_Data.Error_dOk 1 0
	jmp_true case.23
	jmp case.24
case.23
	repl_args 1 1
	push_a 1
	jsr_eval 0
	push_a 1
	push_a 1
	update_a 1 2
	update_a 0 1
	pop_a 1
	update_a 1 3
	updatepop_a 0 2
	jsr_ap 1
	fill_a 0 1
	pop_a 1
.d 1 0
	rtn
case.24
	repl_args 1 1
	push_a 0
	fillh e_Data.Error_dError 1 3
	pop_a 2
.d 1 0
	rtn
.export e_Data.Error_serror2mb
.export e_Data.Error_eaerror2mb
.descexp e_Data.Error_derror2mb e_Data.Error_nerror2mb e_Data.Error_lerror2mb 1 0 "error2mb"
.o 2 0
e_Data.Error_lerror2mb
	update_a 1 0
	create
	update_a 0 2
	pop_a 1
.d 2 0
	jmp e_Data.Error_eaerror2mb
.n 1 e_Data.Error_derror2mb e_Data.Error_eaerror2mb
.o 1 0
e_Data.Error_nerror2mb
	push_node _cycle_in_spine 1
.o 2 0
e_Data.Error_eaerror2mb
	jsr_eval 0
.o 2 0
e_Data.Error_serror2mb
.o 2 0
s10
	eq_desc e_Data.Error_dError 1 0
	jmp_true case.25
	jmp case.26
case.25
	repl_args 1 1
	pop_a 1
	fillh _None 0 0
.d 1 0
	rtn
case.26
	repl_args 1 1
	push_a 0
	jsr_eval 0
	fillh _Just 1 2
	pop_a 1
.d 1 0
	rtn
.export e_Data.Error_sokSt
.descexp e_Data.Error_dokSt e_Data.Error_nokSt e_Data.Error_lokSt 3 0 "okSt"
.a 0 ea9
.o 2 0
e_Data.Error_lokSt
	repl_args 2 2
.d 3 0
	jmp ea9
.n 3 e_Data.Error_dokSt _
.o 1 0
e_Data.Error_nokSt
	push_node _cycle_in_spine 3
.d 3 0
	jsr ea9
.o 1 0
	fill_a 0 1
	pop_a 1
.d 1 0
	rtn
.o 3 0
ea9
	jsr_eval 2
.o 3 0
e_Data.Error_sokSt
.o 3 0
s9
	eq_desc e_Data.Error_dError 1 2
	jmp_true case.27
	jmp case.28
case.27
	push_args 2 1 1
	buildh _Nil 0
	update_a 0 4
	pop_a 1
	pop_a 1
	updatepop_a 0 2
	jmp_eval
case.28
	push_args 2 1 1
	buildh _Nil 0
	update_a 0 4
	pop_a 1
	push_a 1
	push_a 3
	jsr_eval 0
	push_a 2
	push_a 1
	update_a 1 2
	update_a 0 1
	pop_a 1
	update_a 2 6
	update_a 1 5
	updatepop_a 0 4
	jmp_ap 2
.export e_Data.Error_smb2error
.export e_Data.Error_eamb2error
.descexp e_Data.Error_dmb2error e_Data.Error_nmb2error e_Data.Error_lmb2error 2 0 "mb2error"
.a 2 e_Data.Error_eamb2error
.o 2 0
e_Data.Error_lmb2error
	push_args 0 1 1
	update_a 2 1
	create
	update_a 0 3
	pop_a 1
.d 3 0
	jmp e_Data.Error_eamb2error
.n 2 e_Data.Error_dmb2error e_Data.Error_eamb2error
.o 1 0
e_Data.Error_nmb2error
	push_node _cycle_in_spine 2
.o 3 0
e_Data.Error_eamb2error
	jsr_eval 1
	jsr_eval 0
.o 3 0
e_Data.Error_smb2error
.o 3 0
s8
	buildh e_Data.Error_dOk 0
	push_a 1
	buildh e_Data.Error_dError 1
	push_a 3
	push_a 2
	update_a 1 3
	update_a 2 1
	update_a 0 2
	pop_a 1
	update_a 2 4
	update_a 1 3
	updatepop_a 0 2
.d 3 0
	jsr e_Data.Maybe_smaybe;63
.o 1 0
	fill_a 0 1
	pop_a 1
.d 1 0
	rtn
.export e_Data.Error_smapMaybeError
.export e_Data.Error_eamapMaybeError
.descexp e_Data.Error_dmapMaybeError e_Data.Error_nmapMaybeError e_Data.Error_lmapMaybeError 2 0 "mapMaybeError"
.a 2 e_Data.Error_eamapMaybeError
.o 2 0
e_Data.Error_lmapMaybeError
	push_args 0 1 1
	update_a 2 1
	create
	update_a 0 3
	pop_a 1
.d 3 0
	jmp e_Data.Error_eamapMaybeError
.n 2 e_Data.Error_dmapMaybeError e_Data.Error_eamapMaybeError
.o 1 0
e_Data.Error_nmapMaybeError
	push_node _cycle_in_spine 2
.o 3 0
e_Data.Error_eamapMaybeError
	jsr_eval 1
.o 3 0
e_Data.Error_smapMaybeError
.o 3 0
s7
	eq_desc e_Data.Error_dOk 1 1
	jmp_true case.29
	jmp case.30
case.29
	push_args 1 1 1
	buildh _Nil 0
	update_a 0 3
	pop_a 1
	push_a 0
	push_a 2
	build e_system_dAP 2 e_system_nAP
	fillh e_Data.Error_dOk 1 4
	pop_a 3
.d 1 0
	rtn
case.30
	push_a 1
	updatepop_a 0 2
.d 2 0
	jmp s6
.export e_Data.Error_sliftError
.export e_Data.Error_ealiftError
.descexp e_Data.Error_dliftError e_Data.Error_nliftError e_Data.Error_lliftError 1 0 "liftError"
.o 2 0
e_Data.Error_lliftError
	update_a 1 0
	create
	update_a 0 2
	pop_a 1
.d 2 0
	jmp e_Data.Error_ealiftError
.n 1 e_Data.Error_dliftError e_Data.Error_ealiftError
.o 1 0
e_Data.Error_nliftError
	push_node _cycle_in_spine 1
.o 2 0
e_Data.Error_ealiftError
	jsr_eval 0
.o 2 0
e_Data.Error_sliftError
.o 2 0
s6
	eq_desc e_Data.Error_dError 1 0
	jmp_true case.31
	jmp case.32
case.31
	repl_args 1 1
	push_a 0
	fillh e_Data.Error_dError 1 2
	pop_a 1
.d 1 0
	rtn
case.32
	repl_args 1 1
	pop_a 1
	buildAC "Data.Error.liftError: argument is Ok"
.d 1 0
	jsr print_string_
.o 0 0
	halt
	fill_a 0 1
	pop_a 1
.d 1 0
	rtn
.export e_Data.Error_sfromError
.descexp e_Data.Error_dfromError e_Data.Error_nfromError e_Data.Error_lfromError 1 0 "fromError"
.o 2 0
e_Data.Error_lfromError
	pop_a 1
.d 1 0
	jmp ea5
.n 1 e_Data.Error_dfromError _
.o 1 0
e_Data.Error_nfromError
	push_node _cycle_in_spine 1
.d 1 0
	jsr ea5
.o 1 0
	fill_a 0 1
	pop_a 1
.d 1 0
	rtn
.o 1 0
ea5
	jsr_eval 0
.o 1 0
e_Data.Error_sfromError
.o 1 0
s5
	eq_desc e_Data.Error_dError 1 0
	jmp_true case.33
	jmp case.34
case.33
	repl_args 1 1
	jmp_eval
case.34
	repl_args 1 1
	pop_a 1
	buildAC "Data.Error.fromError: argument is Ok"
.d 1 0
	jsr print_string_
.o 0 0
	halt
.d 1 0
	rtn
.export e_Data.Error_sfromOkWithError
.descexp e_Data.Error_dfromOkWithError e_Data.Error_nfromOkWithError e_Data.Error_lfromOkWithError 2 0 "fromOkWithError"
.a 0 ea4
.o 2 0
e_Data.Error_lfromOkWithError
	repl_args 1 1
.d 2 0
	jmp ea4
.n 2 e_Data.Error_dfromOkWithError _
.o 1 0
e_Data.Error_nfromOkWithError
	push_node _cycle_in_spine 2
.d 2 0
	jsr ea4
.o 1 0
	fill_a 0 1
	pop_a 1
.d 1 0
	rtn
.o 2 0
ea4
	jsr_eval 1
	jsr_eval 0
	repl_r_args 1 0
.o 2 0
e_Data.Error_sfromOkWithError
.o 2 0
s4
	eq_desc e_Data.Error_dOk 1 1
	jmp_true case.35
	jmp case.36
case.35
	push_args 1 1 1
	buildh _Nil 0
	update_a 0 3
	pop_a 1
	updatepop_a 0 2
	jmp_eval
case.36
	push_args 1 1 1
	buildh _Nil 0
	update_a 0 3
	pop_a 1
	push_a 0
	jsr_eval 0
	push_a 2
	update_a 1 4
	updatepop_a 0 3
.d 2 0
	jsr_i 1
.o 1 0
	buildAC "Data.Error.fromOkWithError: "
.d 2 0
	jsr catAC
.o 1 0
.d 1 0
	jsr print_string_
.o 0 0
	halt
.d 1 0
	rtn
.export e_Data.Error_sfromOk
.descexp e_Data.Error_dfromOk e_Data.Error_nfromOk e_Data.Error_lfromOk 1 0 "fromOk"
.o 2 0
e_Data.Error_lfromOk
	pop_a 1
.d 1 0
	jmp ea3
.n 1 e_Data.Error_dfromOk _
.o 1 0
e_Data.Error_nfromOk
	push_node _cycle_in_spine 1
.d 1 0
	jsr ea3
.o 1 0
	fill_a 0 1
	pop_a 1
.d 1 0
	rtn
.o 1 0
ea3
	jsr_eval 0
.o 1 0
e_Data.Error_sfromOk
.o 1 0
s3
	eq_desc e_Data.Error_dOk 1 0
	jmp_true case.37
	jmp case.38
case.37
	repl_args 1 1
	jmp_eval
case.38
	repl_args 1 1
	pop_a 1
	buildAC "Data.Error.fromOk: argument is Error"
.d 1 0
	jsr print_string_
.o 0 0
	halt
.d 1 0
	rtn
.export e_Data.Error_sisError
.descexp e_Data.Error_disError e_Data.Error_nisError e_Data.Error_lisError 1 0 "isError"
.o 2 0
e_Data.Error_lisError
	pop_a 1
.d 1 0
	jsr ea2
.o 0 1 b
	buildB_b 0
	pop_b 1
.d 1 0
	rtn
.n 1 e_Data.Error_disError
.o 1 0
e_Data.Error_nisError
	push_node _cycle_in_spine 1
.d 1 0
	jsr ea2
.o 0 1 b
	fillB_b 0 0
	pop_b 1
.d 1 0
	rtn
.o 1 0
ea2
	jsr_eval 0
.o 1 0
e_Data.Error_sisError
.o 1 0
s2
	eq_desc e_Data.Error_dOk 1 0
	jmp_true case.39
	jmp case.40
case.39
	repl_args 1 1
	pop_a 1
	pushB FALSE
.d 0 1 b
	rtn
case.40
	repl_args 1 1
	pop_a 1
	pushB TRUE
.d 0 1 b
	rtn
.export e_Data.Error_sisOk
.descexp e_Data.Error_disOk e_Data.Error_nisOk e_Data.Error_lisOk 1 0 "isOk"
.o 2 0
e_Data.Error_lisOk
	pop_a 1
.d 1 0
	jsr ea1
.o 0 1 b
	buildB_b 0
	pop_b 1
.d 1 0
	rtn
.n 1 e_Data.Error_disOk
.o 1 0
e_Data.Error_nisOk
	push_node _cycle_in_spine 1
.d 1 0
	jsr ea1
.o 0 1 b
	fillB_b 0 0
	pop_b 1
.d 1 0
	rtn
.o 1 0
ea1
	jsr_eval 0
.o 1 0
e_Data.Error_sisOk
.o 1 0
s1
	eq_desc e_Data.Error_dOk 1 0
	jmp_true case.41
	jmp case.42
case.41
	repl_args 1 1
	pop_a 1
	pushB TRUE
.d 0 1 b
	rtn
case.42
	repl_args 1 1
	pop_a 1
	pushB FALSE
.d 0 1 b
	rtn
.o 3 0
s70
	eq_desc e_Data.Error_dError 1 0
	jmp_true case.43
	jmp case.44
case.43
	repl_args 1 1
	push_a 1
	jsr_eval 0
	push_a 1
	buildh e_Data.Error_dError 1
	update_a 1 4
	updatepop_a 0 3
.d 2 0
	rtn
case.44
	repl_args 1 1
	push_a 1
	push_a 3
	jsr_eval 0
	push_a 2
	push_a 1
	update_a 1 2
	update_a 0 1
	pop_a 1
	update_a 2 5
	update_a 1 4
	updatepop_a 0 3
	jsr_ap 2
	repl_args 2 2
	jsr_eval 1
.d 2 0
	rtn
.o 4 0
s71
	eq_desc e_Data.Error_dError 1 0
	jmp_true case.45
	jmp case.46
case.45
	repl_args 1 1
	push_a 1
	jsr_eval 0
	push_a 1
	buildh e_Data.Error_dError 1
	update_a 1 5
	updatepop_a 0 4
.d 2 0
	rtn
case.46
	repl_args 1 1
	push_a 2
	jsr_eval 0
	push_a 2
	push_a 1
	update_a 1 2
	update_a 0 1
	pop_a 1
	update_a 2 4
	update_a 1 3
	updatepop_a 0 2
	jsr_ap 1
	push_arg 0 2 2
	jsr_eval 0
	push_arg 1 2 1
	jsr_eval 0
	push_a 3
	push_a 5
	push_a 3
	update_a 2 4
	update_a 0 2
	update_a 3 0
	update_a 1 3
	update_a 0 1
	pop_a 1
	update_a 3 6
	update_a 2 5
	update_a 1 4
	updatepop_a 0 3
.d 4 0
	jmp s72
.o 4 0
s72
	eq_desc e_Data.Error_dError 1 0
	jmp_true case.47
	jmp case.48
case.47
	repl_args 1 1
	push_a 0
	buildh e_Data.Error_dError 1
	push_a 2
	push_a 1
	update_a 1 2
	update_a 0 1
	pop_a 1
	update_a 1 5
	updatepop_a 0 4
.d 2 0
	rtn
case.48
	repl_args 1 1
	push_a 0
	push_a 3
	jsr_eval 0
	push_a 5
	push_a 1
	update_a 1 2
	update_a 0 1
	pop_a 1
	update_a 4 6
	update_a 2 5
	update_a 1 4
	updatepop_a 0 3
	jsr_ap 2
	push_a 1
	push_a 1
	update_a 1 2
	update_a 0 1
	pop_a 1
	update_a 1 2
	updatepop_a 0 1
.d 2 0
	rtn
