.comp 920 000011110011000
.start _nostart_
.depend "StdCharList" "20210613144732"
.depend "_SystemArray" "20210613144732"
.depend "StdArray" "20210613144732"
.depend "StdEnv" "20210613144732"
.depend "_SystemEnum" "20210613144732"
.depend "StdEnum" "20210613144732"
.depend "StdTuple" "20210613144732"
.depend "StdOrdList" "20210613144732"
.depend "Data.Bifunctor" "20210613144732"
.depend "Data.Either" "20210613144732"
.depend "StdFile" "20210613144732"
.depend "StdString" "20210613144732"
.depend "Control.Monad.Fail" "20210613144732"
.depend "Data.Traversable" "20210613144732"
.depend "StdMisc" "20210613144732"
.depend "StdOverloadedList" "20210613144732"
.depend "Data.List" "20210613144732"
.depend "Data.Foldable" "20210613144732"
.depend "Data.Set" "20210613144732"
.depend "Data.GenLexOrd" "20210613144732"
.depend "StdFunctions" "20210613144732"
.depend "StdFunc" "20210613144732"
.depend "Data.Map" "20210613144732"
.depend "_SystemEnumStrict" "20210613144732"
.depend "_SystemStrictLists" "20210613144732"
.depend "StdStrictLists" "20210613144732"
.depend "StdGeneric" "20210613144732"
.depend "Data.GenEq" "20210613144732"
.depend "StdReal" "20210613144732"
.depend "StdChar" "20210613144732"
.depend "StdInt" "20210613144732"
.depend "StdBool" "20210613144732"
.depend "StdClass" "20210613144732"
.depend "StdList" "20210613144732"
.depend "Data.Monoid" "20210613144732"
.depend "Control.Applicative" "20210613144732"
.depend "Control.Monad" "20210613144732"
.depend "Data.Functor" "20210613144732"
.depend "Data.Error" "20210613144732"
.depend "StdOverloaded" "20210613144732"
.depend "_SystemDynamic" "20210613144732"
.depend "Data.GenHash" "20210613144732"
.module m_Data.GenHash "Data.GenHash" "20210613144732"
.endinfo
.impmod _system
.implab _cycle_in_spine
.implab _type_error
.implab _hnf
.impdesc e_system_dind
.implab e_system_nind e_system_eaind
.impdesc e_system_dif
.implab e_system_nif e_system_eaif
.implab e_system_sif
.impdesc e_system_dAP
.implab e_system_nAP e_system_eaAP
.implab e_system_sAP
.impdesc ARRAY
.impdesc _Nil
.impdesc _Cons
.impdesc _Conss
.implab n_Conss ea_Conss
.impdesc _Consts
.implab n_Consts ea_Consts
.impdesc _Conssts
.implab n_Conssts ea_Conssts
.impdesc _Tuple
.impdesc d_S.1
.implab n_S.1 ea_S.1
.impdesc d_S.2
.implab n_S.2 ea_S.2
.impdesc d_S.3
.implab n_S.3 ea_S.3
.impdesc d_S.4
.implab n_S.4 ea_S.4
.impdesc d_S.5
.implab n_S.5 ea_S.5
.impdesc d_S.6
.implab n_S.6 ea_S.6
.implab _driver
.impmod _SystemArray
.impmod StdString
.implab e_StdString_stoString;7
.impmod StdInt
.implab e_StdInt_sbitand
.implab e_StdInt_sbitxor
.implab e_StdInt_s<<
.implab e_StdInt_s>>
.implab e_StdInt_sbitnot
.implab e_StdInt_s+;6
.implab e_StdInt_s-;7
.implab e_StdInt_s*;9
.implab e_StdInt_s<;17
.implab e_StdInt_stoInt;20
.impmod StdBool
.implab e_StdBool_snot
.impmod Data.Either
.impdesc e_Data.Either_dLeft
.impdesc e_Data.Either_dRight
.impmod StdGeneric
.impdesc e_StdGeneric_dUNIT
.impdesc e_StdGeneric_dLEFT
.impdesc e_StdGeneric_dRIGHT
.impdesc e_StdGeneric_dPAIR
.impdesc e_StdGeneric_dCONS
.impdesc e_StdGeneric_dRECORD
.impmod Data.Error
.impdesc e_Data.Error_dError
.impdesc e_Data.Error_dOk
.export e_Data.GenHash_sgHash_MaybeError;21
.descexp e_Data.GenHash_dgHash_MaybeError;21 e_Data.GenHash_ngHash_MaybeError;21 e_Data.GenHash_lgHash_MaybeError;21 3 0 "gHash_MaybeError;21"
.o 4 0 
e_Data.GenHash_igHash_MaybeError;21
.d 3 0 
	pop_a_jmp 1 s22
.ai 0 a22 e_Data.GenHash_igHash_MaybeError;21
.o 2 0 
e_Data.GenHash_lgHash_MaybeError;21
	repl_args 2 2
.o 3 0 
a22
.d 3 0 
	jsr ea22
.o 0 1 i
	buildI_b 0
.d 1 0 
	pop_b_rtn 1
.n 3 e_Data.GenHash_dgHash_MaybeError;21
.o 1 0 
e_Data.GenHash_ngHash_MaybeError;21
	push_node _cycle_in_spine 3
.d 3 0 
	jsr ea22
.o 0 1 i
	fillI_b 0 0
.d 1 0 
	pop_b_rtn 1
.o 3 0 
ea22
	jsr_eval 2
.o 3 0 
e_Data.GenHash_sgHash_MaybeError;21
.o 3 0 
s22
	create 
	push_a 3
.d 2 0 
	buildh0_put_a_jsr _Nil 5 s35
.o 1 0 
	push_a 2
	buildI 1
	buildh e_Data.GenHash_dgHash_CONS;15 2
	push_a 2
	buildI 0
	buildh e_Data.GenHash_dgHash_CONS;15 2
	buildh e_Data.GenHash_dgHash_EITHER;14 2
	update2pop_a 0 3
.d 2 0 
	jmp s17
.o 2 0 
s35
	jmp_ne_desc e_Data.Error_dError 1 0 case.2
	repl_args 1 1
	push_a 0
	buildh e_StdGeneric_dCONS 1
	fillh e_StdGeneric_dLEFT 1 2
.d 1 0 
	pop_a_rtn 1
case.2
	repl_args 1 1
	push_a 0
	buildh e_StdGeneric_dCONS 1
	fillh e_StdGeneric_dRIGHT 1 2
.d 1 0 
	pop_a_rtn 1
.export e_Data.GenHash_sgHash_Either;20
.descexp e_Data.GenHash_dgHash_Either;20 e_Data.GenHash_ngHash_Either;20 e_Data.GenHash_lgHash_Either;20 3 0 "gHash_Either;20"
.o 4 0 
e_Data.GenHash_igHash_Either;20
.d 3 0 
	pop_a_jmp 1 s21
.ai 0 a21 e_Data.GenHash_igHash_Either;20
.o 2 0 
e_Data.GenHash_lgHash_Either;20
	repl_args 2 2
.o 3 0 
a21
.d 3 0 
	jsr ea21
.o 0 1 i
	buildI_b 0
.d 1 0 
	pop_b_rtn 1
.n 3 e_Data.GenHash_dgHash_Either;20
.o 1 0 
e_Data.GenHash_ngHash_Either;20
	push_node _cycle_in_spine 3
.d 3 0 
	jsr ea21
.o 0 1 i
	fillI_b 0 0
.d 1 0 
	pop_b_rtn 1
.o 3 0 
ea21
	jsr_eval 2
.o 3 0 
e_Data.GenHash_sgHash_Either;20
.o 3 0 
s21
	create 
	push_a 3
.d 2 0 
	buildh0_put_a_jsr _Nil 5 s34
.o 1 0 
	push_a 2
	buildI 1
	buildh e_Data.GenHash_dgHash_CONS;15 2
	push_a 2
	buildI 0
	buildh e_Data.GenHash_dgHash_CONS;15 2
	buildh e_Data.GenHash_dgHash_EITHER;14 2
	update2pop_a 0 3
.d 2 0 
	jmp s17
.o 2 0 
s34
	jmp_ne_desc e_Data.Either_dLeft 1 0 case.4
	repl_args 1 1
	push_a 0
	buildh e_StdGeneric_dCONS 1
	fillh e_StdGeneric_dLEFT 1 2
.d 1 0 
	pop_a_rtn 1
case.4
	repl_args 1 1
	push_a 0
	buildh e_StdGeneric_dCONS 1
	fillh e_StdGeneric_dRIGHT 1 2
.d 1 0 
	pop_a_rtn 1
.export e_Data.GenHash_sgHash__!Maybe;19
.descexp e_Data.GenHash_dgHash__!Maybe;19 e_Data.GenHash_ngHash__!Maybe;19 e_Data.GenHash_lgHash__!Maybe;19 2 0 "gHash__!Maybe;19"
.o 3 0 
e_Data.GenHash_igHash__!Maybe;19
.d 2 0 
	pop_a_jmp 1 s20
.ai 0 a20 e_Data.GenHash_igHash__!Maybe;19
.o 2 0 
e_Data.GenHash_lgHash__!Maybe;19
	repl_args 1 1
.o 2 0 
a20
.d 2 0 
	jsr ea20
.o 0 1 i
	buildI_b 0
.d 1 0 
	pop_b_rtn 1
.n 2 e_Data.GenHash_dgHash__!Maybe;19
.o 1 0 
e_Data.GenHash_ngHash__!Maybe;19
	push_node _cycle_in_spine 2
.d 2 0 
	jsr ea20
.o 0 1 i
	fillI_b 0 0
.d 1 0 
	pop_b_rtn 1
.o 2 0 
ea20
	jsr_eval 1
.o 2 0 
e_Data.GenHash_sgHash__!Maybe;19
.o 2 0 
s20
	create 
	push_a 2
	update3pop_a 0 1
.d 2 0 
	jsr s33
.o 1 0 
	buildh e_Data.GenHash_d_f0.101 0
	push_a 2
	buildI 0
	buildh e_Data.GenHash_dgHash_CONS;15 2
	buildh e_Data.GenHash_dgHash_EITHER;14 2
	update2pop_a 0 1
.d 2 0 
	jmp s17
.export e_Data.GenHash_d_f0.101
.desc e_Data.GenHash_d_f0.101 _hnf l101 1 0 "_f0.101"
.o 2 0 
l101
	update_a 1 0
	create 
	put_a 2
.o 2 0 
ea101
.o 2 0 
s101
	jsr_eval 0
	push_a 0
	buildh e_Data.GenHash_dgHash_UNIT;12 0
	pushI 1
	update2pop_a 0 1
.d 2 1 i
	jsr s16
.o 0 1 i
	fillI_b 0 0
.d 1 0 
	pop_b_rtn 1
.o 2 0 
s33
	jmp_ne_desc _Just 1 0 case.6
	repl_args 1 1
	push_a 0
	buildh e_StdGeneric_dCONS 1
	fillh e_StdGeneric_dLEFT 1 2
.d 1 0 
	pop_a_rtn 1
case.6
	buildh e_StdGeneric_dUNIT 0
	buildh e_StdGeneric_dCONS 1
	fillh e_StdGeneric_dRIGHT 1 2
.d 1 0 
	pop_a_rtn 1
.export e_Data.GenHash_sgHash_RECORD;18
.descexp e_Data.GenHash_dgHash_RECORD;18 e_Data.GenHash_ngHash_RECORD;18 e_Data.GenHash_lgHash_RECORD;18 2 0 "gHash_RECORD;18"
.a 0 a19
.o 2 0 
e_Data.GenHash_lgHash_RECORD;18
	repl_args 1 1
.o 2 0 
a19
.d 2 0 
	jsr ea19
.o 0 1 i
	buildI_b 0
.d 1 0 
	pop_b_rtn 1
.n 2 e_Data.GenHash_dgHash_RECORD;18
.o 1 0 
e_Data.GenHash_ngHash_RECORD;18
	push_node _cycle_in_spine 2
.d 2 0 
	jsr ea19
.o 0 1 i
	fillI_b 0 0
.d 1 0 
	pop_b_rtn 1
.o 2 0 
e_Data.GenHash_sgHash_RECORD;18
	jsr_eval 0
.d 2 0 
	jmp s19
.o 2 0 
ea19
	jsr_eval 1
	jsr_eval 0
.o 2 0 
s19
	push_args 1 1 1
	put_a 2
	jsr_ap 1
	pushI0_pop_a1 
.d 0 1 i
	rtn 
.export e_Data.GenHash_sgHash_FIELD;17
.descexp e_Data.GenHash_dgHash_FIELD;17 e_Data.GenHash_ngHash_FIELD;17 e_Data.GenHash_lgHash_FIELD;17 2 0 "gHash_FIELD;17"
.a 0 a18
.o 2 0 
e_Data.GenHash_lgHash_FIELD;17
	repl_args 1 1
.o 2 0 
a18
.d 2 0 
	jsr ea18
.o 0 1 i
	buildI_b 0
.d 1 0 
	pop_b_rtn 1
.n 2 e_Data.GenHash_dgHash_FIELD;17
.o 1 0 
e_Data.GenHash_ngHash_FIELD;17
	push_node _cycle_in_spine 2
.d 2 0 
	jsr ea18
.o 0 1 i
	fillI_b 0 0
.d 1 0 
	pop_b_rtn 1
.o 2 0 
e_Data.GenHash_sgHash_FIELD;17
	jsr_eval 0
.d 2 0 
	jmp s18
.o 2 0 
ea18
	jsr_eval 1
	jsr_eval 0
.o 2 0 
s18
	jsr_ap 1
	pushI0_pop_a1 
.d 0 1 i
	rtn 
.export e_Data.GenHash_sgHash_OBJECT;16
.descexp e_Data.GenHash_dgHash_OBJECT;16 e_Data.GenHash_ngHash_OBJECT;16 e_Data.GenHash_lgHash_OBJECT;16 2 0 "gHash_OBJECT;16"
.a 0 a17
.o 2 0 
e_Data.GenHash_lgHash_OBJECT;16
	repl_args 1 1
.o 2 0 
a17
.d 2 0 
	jsr ea17
.o 0 1 i
	buildI_b 0
.d 1 0 
	pop_b_rtn 1
.n 2 e_Data.GenHash_dgHash_OBJECT;16
.o 1 0 
e_Data.GenHash_ngHash_OBJECT;16
	push_node _cycle_in_spine 2
.d 2 0 
	jsr ea17
.o 0 1 i
	fillI_b 0 0
.d 1 0 
	pop_b_rtn 1
.o 2 0 
e_Data.GenHash_sgHash_OBJECT;16
	jsr_eval 0
.d 2 0 
	jmp s17
.o 2 0 
ea17
	jsr_eval 1
	jsr_eval 0
.o 2 0 
s17
	jsr_ap 1
	pushI0_pop_a1 
.d 0 1 i
	rtn 
.export e_Data.GenHash_sgHash_CONS;15
.descexp e_Data.GenHash_dgHash_CONS;15 e_Data.GenHash_ngHash_CONS;15 e_Data.GenHash_lgHash_CONS;15 3 0 "gHash_CONS;15"
.a 0 a16
.o 2 0 
e_Data.GenHash_lgHash_CONS;15
	repl_args 2 2
.o 3 0 
a16
.d 3 0 
	jsr ea16
.o 0 1 i
	buildI_b 0
.d 1 0 
	pop_b_rtn 1
.n 3 e_Data.GenHash_dgHash_CONS;15
.o 1 0 
e_Data.GenHash_ngHash_CONS;15
	push_node _cycle_in_spine 3
.d 3 0 
	jsr ea16
.o 0 1 i
	fillI_b 0 0
.d 1 0 
	pop_b_rtn 1
.o 3 0 
e_Data.GenHash_sgHash_CONS;15
	jsr_eval 1
	jsr_eval 0
	pushI0_pop_a1 
.d 2 1 i
	jmp s16
.o 3 0 
ea16
	jsr_eval 2
	jsr_eval 1
	jsr_eval 0
	pushI0_pop_a1 
.o 2 1 i
s16
	push_args 1 1 1
	buildh0_put_a _Nil 3
	pushI -4132994306676758123
	swap_b1 
	mulI
	put_a 2
	jsr_ap 1
	pushI0_pop_a1 
	pushI 47
	push_b 2
	shiftrU
	push_b 2
	xor%
	xor%
	pushI -4132994306676758123
	put_b 2
	mulI
.d 0 1 i
	rtn 
.export e_Data.GenHash_sgHash_EITHER;14
.descexp e_Data.GenHash_dgHash_EITHER;14 e_Data.GenHash_ngHash_EITHER;14 e_Data.GenHash_lgHash_EITHER;14 3 0 "gHash_EITHER;14"
.a 0 a15
.o 2 0 
e_Data.GenHash_lgHash_EITHER;14
	repl_args 2 2
.o 3 0 
a15
.d 3 0 
	jsr ea15
.o 0 1 i
	buildI_b 0
.d 1 0 
	pop_b_rtn 1
.n 3 e_Data.GenHash_dgHash_EITHER;14
.o 1 0 
e_Data.GenHash_ngHash_EITHER;14
	push_node _cycle_in_spine 3
.d 3 0 
	jsr ea15
.o 0 1 i
	fillI_b 0 0
.d 1 0 
	pop_b_rtn 1
.o 3 0 
ea15
	jsr_eval 2
.o 3 0 
e_Data.GenHash_sgHash_EITHER;14
.o 3 0 
s15
	jmp_ne_desc e_StdGeneric_dLEFT 1 2 case.8
	push_args 2 1 1
	buildh _Nil 0
	updates2_a 2 0 4
	jsr_eval 0
	update2pop_a 0 3
	jsr_ap 1
	pushI0_pop_a1 
.d 0 1 i
	rtn 
case.8
	push_args 2 1 1
	buildh _Nil 0
	updates2_a 3 0 4
	jsr_eval 0
	update2pop_a 0 3
	jsr_ap 1
	pushI0_pop_a1 
.d 0 1 i
	rtn 
.export e_Data.GenHash_sgHash_PAIR;13
.descexp e_Data.GenHash_dgHash_PAIR;13 e_Data.GenHash_ngHash_PAIR;13 e_Data.GenHash_lgHash_PAIR;13 3 0 "gHash_PAIR;13"
.a 0 a14
.o 2 0 
e_Data.GenHash_lgHash_PAIR;13
	repl_args 2 2
.o 3 0 
a14
.d 3 0 
	jsr ea14
.o 0 1 i
	buildI_b 0
.d 1 0 
	pop_b_rtn 1
.n 3 e_Data.GenHash_dgHash_PAIR;13
.o 1 0 
e_Data.GenHash_ngHash_PAIR;13
	push_node _cycle_in_spine 3
.d 3 0 
	jsr ea14
.o 0 1 i
	fillI_b 0 0
.d 1 0 
	pop_b_rtn 1
.o 3 0 
e_Data.GenHash_sgHash_PAIR;13
	jsr_eval 1
	jsr_eval 0
.d 3 0 
	jmp s14
.o 3 0 
ea14
	jsr_eval 2
	jsr_eval 1
	jsr_eval 0
.o 3 0 
s14
	push_args 2 2 2
	updates4_a 0 3 1 2 4
	pop_a 1
	jsr_ap 1
	pushI_a 0
	push_a 2
	updates2pop_a 0 2 3
	jsr_ap 1
	pushI0_pop_a1 
	xor%
	pushI -4132994306676758123
	swap_b1 
	mulI
.d 0 1 i
	rtn 
.export e_Data.GenHash_sgHash_UNIT;12
.descexp e_Data.GenHash_dgHash_UNIT;12 e_Data.GenHash_ngHash_UNIT;12 e_Data.GenHash_lgHash_UNIT;12 1 0 "gHash_UNIT;12"
.o 2 0 
e_Data.GenHash_lgHash_UNIT;12
.d 1 0 
	pop_a_jsr 1 ea13
.o 0 1 i
	buildI_b 0
.d 1 0 
	pop_b_rtn 1
.n 1 e_Data.GenHash_dgHash_UNIT;12
.o 1 0 
e_Data.GenHash_ngHash_UNIT;12
	push_node _cycle_in_spine 1
.d 1 0 
	jsr ea13
.o 0 1 i
	fillI_b 0 0
.d 1 0 
	pop_b_rtn 1
.o 1 0 
ea13
	jsr_eval 0
.o 1 0 
e_Data.GenHash_sgHash_UNIT;12
.o 1 0 
s13
	pushI 0
.d 0 1 i
	pop_a_rtn 1
.export e_Data.GenHash_sgHash__List;11
.descexp e_Data.GenHash_dgHash__List;11 e_Data.GenHash_ngHash__List;11 e_Data.GenHash_lgHash__List;11 2 0 "gHash__List;11"
.o 3 0 
e_Data.GenHash_igHash__List;11
.d 2 0 
	pop_a_jmp 1 s12
.ai 0 a12 e_Data.GenHash_igHash__List;11
.o 2 0 
e_Data.GenHash_lgHash__List;11
	repl_args 1 1
.o 2 0 
a12
.d 2 0 
	jsr ea12
.o 0 1 i
	buildI_b 0
.d 1 0 
	pop_b_rtn 1
.n 2 e_Data.GenHash_dgHash__List;11
.o 1 0 
e_Data.GenHash_ngHash__List;11
	push_node _cycle_in_spine 2
.d 2 0 
	jsr ea12
.o 0 1 i
	fillI_b 0 0
.d 1 0 
	pop_b_rtn 1
.o 2 0 
ea12
	jsr_eval 1
.o 2 0 
e_Data.GenHash_sgHash__List;11
.o 2 0 
s12
	create 
	push_a 1
	updates3pop_a 0 1 3 2
.d 3 0 
	jsr s26
.o 1 0 
.d 1 0 
	jmp s31
.export e_Data.GenHash_dc;23;46;28.26
.export e_Data.GenHash_nc;23;46;28.26
.descn e_Data.GenHash_dc;23;46;28.26 e_Data.GenHash_nc;23;46;28.26 2 0 "c;23;46;28.26"
.n 2 e_Data.GenHash_dc;23;46;28.26 ea26
.o 1 0 
e_Data.GenHash_nc;23;46;28.26
	push_node _cycle_in_spine 2
.o 3 0 
ea26
	jsr_eval 1
.o 3 0 
s26
	swap_a1 
s40
	jmp_ne_desc _Cons 2 0 case.10
	repl_args 2 2
	push_a2 1 2
	build e_Data.GenHash_dc;23;46;28.26 2 e_Data.GenHash_nc;23;46;28.26
	push_a2 1 3
	build e_system_dAP 2 e_system_nAP
	fillh _Cons 2 5
.d 1 0 
	pop_a_rtn 3
case.10
	fillh _Nil 0 2
.d 1 0 
	pop_a_rtn 2
.o 1 0 
s31
	jmp_ne_desc _Nil 0 0 case.12
	pushI -4132994306676758123
	pushI 3
	pop_a 1
	mulI
	pushI 47
	push_b 1
	shiftrU
	swap_b1 
	xor%
.d 0 1 i
	rtn 
case.12
	repl_args 2 2
	push_jsr_eval 1
	push_jsr_eval 1
	pushI_a 2
	updatepop_a 1 3
s38
	jmp_ne_desc _Nil 0 0 case.14
.d 0 1 i
	pop_a_rtn 1
case.14
	repl_args 2 2
	push_jsr_eval 1
	push_jsr_eval 1
	pushI_a 2
	pop_a 1
	swap_b1 
	buildh0_dup2_a _Nil 2
.d 0 2 ii
	pop_a_jsr 1 s32
.o 0 1 i
	updatepop_a 0 2
.d 1 1 i
	jmp s38
.o 0 2 ii
s32
	push2_b 1
	xor%
	pushI -4132994306676758123
	update_b 0 3
	updatepop_b 1 2
	mulI
.d 0 1 i
	rtn 
.export e_Data.GenHash_sgHash__Tuple4;10
.descexp e_Data.GenHash_dgHash__Tuple4;10 e_Data.GenHash_ngHash__Tuple4;10 e_Data.GenHash_lgHash__Tuple4;10 5 0 "gHash__Tuple4;10"
.o 6 0 
e_Data.GenHash_igHash__Tuple4;10
	pop_a 1
	push_args 4 4 4
	jsr_eval 7
	jsr_eval 6
	jsr_eval 5
	jsr_eval 4
	updates4_a 4 1 6 3 8
	updates4_a 0 5 2 7 4
.d 8 0 
	pop_a_jmp 1 s11
.ai 0 a11 e_Data.GenHash_igHash__Tuple4;10
.o 2 0 
e_Data.GenHash_lgHash__Tuple4;10
	repl_args 4 4
.o 5 0 
a11
.d 5 0 
	jsr ea11
.o 0 1 i
	buildI_b 0
.d 1 0 
	pop_b_rtn 1
.n 5 e_Data.GenHash_dgHash__Tuple4;10
.o 1 0 
e_Data.GenHash_ngHash__Tuple4;10
	push_node _cycle_in_spine 5
.d 5 0 
	jsr ea11
.o 0 1 i
	fillI_b 0 0
.d 1 0 
	pop_b_rtn 1
.o 8 0 
e_Data.GenHash_sgHash__Tuple4;10
	jsr_eval 3
	jsr_eval 2
	jsr_eval 1
	jsr_eval 0
.d 8 0 
	jmp s11
.o 5 0 
ea11
	push_jsr_eval 4
	repl_args 4 4
	jsr_eval 7
	jsr_eval 6
	jsr_eval 5
	jsr_eval 4
	updates4_a 4 1 6 3 8
	updates4_a 0 5 2 7 4
	pop_a 1
.o 8 0 
s11
	buildh _Nil 0
	push_a2 8 4
	build e_system_dAP 2 e_system_nAP
	buildh _Cons 2
	push_a2 7 3
	build e_system_dAP 2 e_system_nAP
	buildh _Cons 2
	push_a2 6 2
	build e_system_dAP 2 e_system_nAP
	buildh _Cons 2
	push_a2 5 1
	build e_system_dAP 2 e_system_nAP
	buildh _Cons 2
	updatepop_a 0 8
s29
	jmp_ne_desc _Nil 0 0 case.16
	pushI -4132994306676758123
	pushI 3
	pop_a 1
	mulI
	pushI 47
	push_b 1
	shiftrU
	swap_b1 
	xor%
.d 0 1 i
	rtn 
case.16
	repl_args 2 2
	push_jsr_eval 1
	push_jsr_eval 1
	pushI_a 2
	updatepop_a 1 3
s37
	jmp_ne_desc _Nil 0 0 case.18
.d 0 1 i
	pop_a_rtn 1
case.18
	repl_args 2 2
	push_jsr_eval 1
	push_jsr_eval 1
	pushI_a 2
	pop_a 1
	swap_b1 
	buildh0_dup2_a _Nil 2
.d 0 2 ii
	pop_a_jsr 1 s30
.o 0 1 i
	updatepop_a 0 2
.d 1 1 i
	jmp s37
.o 0 2 ii
s30
	push2_b 1
	xor%
	pushI -4132994306676758123
	update_b 0 3
	updatepop_b 1 2
	mulI
.d 0 1 i
	rtn 
.export e_Data.GenHash_sgHash__Tuple3;9
.descexp e_Data.GenHash_dgHash__Tuple3;9 e_Data.GenHash_ngHash__Tuple3;9 e_Data.GenHash_lgHash__Tuple3;9 4 0 "gHash__Tuple3;9"
.o 5 0 
e_Data.GenHash_igHash__Tuple3;9
	pop_a 1
	push_args 3 3 3
	jsr_eval 5
	jsr_eval 4
	jsr_eval 3
	updates3_a 0 4 2 6
	push_a 3
	updates3pop_a 0 2 6 4
.d 6 0 
	jmp s10
.ai 0 a10 e_Data.GenHash_igHash__Tuple3;9
.o 2 0 
e_Data.GenHash_lgHash__Tuple3;9
	repl_args 3 3
.o 4 0 
a10
.d 4 0 
	jsr ea10
.o 0 1 i
	buildI_b 0
.d 1 0 
	pop_b_rtn 1
.n 4 e_Data.GenHash_dgHash__Tuple3;9
.o 1 0 
e_Data.GenHash_ngHash__Tuple3;9
	push_node _cycle_in_spine 4
.d 4 0 
	jsr ea10
.o 0 1 i
	fillI_b 0 0
.d 1 0 
	pop_b_rtn 1
.o 6 0 
e_Data.GenHash_sgHash__Tuple3;9
	jsr_eval 2
	jsr_eval 1
	jsr_eval 0
.d 6 0 
	jmp s10
.o 4 0 
ea10
	push_jsr_eval 3
	repl_args 3 3
	jsr_eval 5
	jsr_eval 4
	jsr_eval 3
	updates3_a 0 4 2 6
	push_a 3
	updates3pop_a 0 2 6 4
.o 6 0 
s10
	buildh _Nil 0
	push_a2 6 3
	build e_system_dAP 2 e_system_nAP
	buildh _Cons 2
	push_a2 5 2
	build e_system_dAP 2 e_system_nAP
	buildh _Cons 2
	push_a2 4 1
	build e_system_dAP 2 e_system_nAP
	buildh _Cons 2
	updatepop_a 0 6
s27
	jmp_ne_desc _Nil 0 0 case.20
	pushI -4132994306676758123
	pushI 3
	pop_a 1
	mulI
	pushI 47
	push_b 1
	shiftrU
	swap_b1 
	xor%
.d 0 1 i
	rtn 
case.20
	repl_args 2 2
	push_jsr_eval 1
	push_jsr_eval 1
	pushI_a 2
	updatepop_a 1 3
s36
	jmp_ne_desc _Nil 0 0 case.22
.d 0 1 i
	pop_a_rtn 1
case.22
	repl_args 2 2
	push_jsr_eval 1
	push_jsr_eval 1
	pushI_a 2
	pop_a 1
	swap_b1 
	buildh0_dup2_a _Nil 2
.d 0 2 ii
	pop_a_jsr 1 s28
.o 0 1 i
	updatepop_a 0 2
.d 1 1 i
	jmp s36
.o 0 2 ii
s28
	push2_b 1
	xor%
	pushI -4132994306676758123
	update_b 0 3
	updatepop_b 1 2
	mulI
.d 0 1 i
	rtn 
.export e_Data.GenHash_sgHash__Tuple2;8
.descexp e_Data.GenHash_dgHash__Tuple2;8 e_Data.GenHash_ngHash__Tuple2;8 e_Data.GenHash_lgHash__Tuple2;8 3 0 "gHash__Tuple2;8"
.o 4 0 
e_Data.GenHash_igHash__Tuple2;8
	pop_a 1
	push_args 2 2 2
	jsr_eval 3
	jsr_eval 2
	updates4_a 0 3 2 1 4
.d 4 0 
	pop_a_jmp 1 s9
.ai 0 a9 e_Data.GenHash_igHash__Tuple2;8
.o 2 0 
e_Data.GenHash_lgHash__Tuple2;8
	repl_args 2 2
.o 3 0 
a9
.d 3 0 
	jsr ea9
.o 0 1 i
	buildI_b 0
.d 1 0 
	pop_b_rtn 1
.n 3 e_Data.GenHash_dgHash__Tuple2;8
.o 1 0 
e_Data.GenHash_ngHash__Tuple2;8
	push_node _cycle_in_spine 3
.d 3 0 
	jsr ea9
.o 0 1 i
	fillI_b 0 0
.d 1 0 
	pop_b_rtn 1
.o 4 0 
e_Data.GenHash_sgHash__Tuple2;8
	jsr_eval 1
	jsr_eval 0
.d 4 0 
	jmp s9
.o 3 0 
ea9
	push_jsr_eval 2
	repl_args 2 2
	jsr_eval 3
	jsr_eval 2
	updates4_a 0 3 2 1 4
	pop_a 1
.o 4 0 
s9
	push_update_a 1 3
	updates3pop_a 0 1 3 4
	jsr_ap 1
	pushI0_pop_a1 
	jsr_ap 1
	pushI0_pop_a1 
	xor%
	pushI -4132994306676758123
	swap_b1 
	mulI
.d 0 1 i
	rtn 
.export e_Data.GenHash_sgHash__Unit;7
.descexp e_Data.GenHash_dgHash__Unit;7 e_Data.GenHash_ngHash__Unit;7 e_Data.GenHash_lgHash__Unit;7 1 0 "gHash__Unit;7"
.o 2 0 
e_Data.GenHash_igHash__Unit;7
.d 1 0 
	pop_a_jmp 1 s8
.ai 1 _ e_Data.GenHash_igHash__Unit;7
.o 2 0 
e_Data.GenHash_lgHash__Unit;7
.d 1 0 
	pop_a_jsr 1 ea8
.o 0 1 i
	buildI_b 0
.d 1 0 
	pop_b_rtn 1
.n 1 e_Data.GenHash_dgHash__Unit;7
.o 1 0 
e_Data.GenHash_ngHash__Unit;7
	push_node _cycle_in_spine 1
.d 1 0 
	jsr ea8
.o 0 1 i
	fillI_b 0 0
.d 1 0 
	pop_b_rtn 1
.o 1 0 
ea8
	jsr_eval 0
.o 1 0 
e_Data.GenHash_sgHash__Unit;7
.o 1 0 
s8
	pushI 0
.d 0 1 i
	pop_a_rtn 1
.export e_Data.GenHash_sgHash__String;6
.descexp e_Data.GenHash_dgHash__String;6 e_Data.GenHash_ngHash__String;6 e_Data.GenHash_lgHash__String;6 1 0 "gHash__String;6"
.o 2 0 
e_Data.GenHash_igHash__String;6
	pop_a 1
	push_array 0
.d 1 0 
	put_a_jmp 1 s7
.ai 1 _ e_Data.GenHash_igHash__String;6
.o 2 0 
e_Data.GenHash_lgHash__String;6
.d 1 0 
	pop_a_jsr 1 ea7
.o 0 1 i
	buildI_b 0
.d 1 0 
	pop_b_rtn 1
.n 1 e_Data.GenHash_dgHash__String;6
.o 1 0 
e_Data.GenHash_ngHash__String;6
	push_node _cycle_in_spine 1
.d 1 0 
	jsr ea7
.o 0 1 i
	fillI_b 0 0
.d 1 0 
	pop_b_rtn 1
.o 1 0 
ea7
	jsr_eval 0
	push_array 0
	put_a 1
.o 1 0 
e_Data.GenHash_sgHash__String;6
.o 1 0 
s7
.d 1 0 
	jmp s1
.export e_Data.GenHash_sgHash_Real;5
.descexp e_Data.GenHash_dgHash_Real;5 e_Data.GenHash_ngHash_Real;5 e_Data.GenHash_lgHash_Real;5 1 0 "gHash_Real;5"
.o 2 0 
e_Data.GenHash_igHash_Real;5
	pop_a 1
	pushR_a 0
.d 0 1 r
	pop_a_jmp 1 s6
.ai 1 _ e_Data.GenHash_igHash_Real;5
.o 2 0 
e_Data.GenHash_lgHash_Real;5
.d 1 0 
	pop_a_jsr 1 ea6
.o 0 1 i
	buildI_b 0
.d 1 0 
	pop_b_rtn 1
.n 1 e_Data.GenHash_dgHash_Real;5
.o 1 0 
e_Data.GenHash_ngHash_Real;5
	push_node _cycle_in_spine 1
.d 1 0 
	jsr ea6
.o 0 1 i
	fillI_b 0 0
.d 1 0 
	pop_b_rtn 1
.o 1 0 
ea6
	jsr_eval 0
	pushR_a 0
	pop_a 1
.o 0 1 r
e_Data.GenHash_sgHash_Real;5
.o 0 1 r
s6
.d 0 1 r
	jsr RtoAC
.o 1 0 
.d 1 0 
	jmp s1
.export e_Data.GenHash_sgHash_Bool;4
.descexp e_Data.GenHash_dgHash_Bool;4 e_Data.GenHash_ngHash_Bool;4 e_Data.GenHash_lgHash_Bool;4 1 0 "gHash_Bool;4"
.o 2 0 
e_Data.GenHash_igHash_Bool;4
	pop_a 1
	pushB0_pop_a1 
.d 0 1 b
	jmp s5
.ai 1 _ e_Data.GenHash_igHash_Bool;4
.o 2 0 
e_Data.GenHash_lgHash_Bool;4
.d 1 0 
	pop_a_jsr 1 ea5
.o 0 1 i
	buildI_b 0
.d 1 0 
	pop_b_rtn 1
.n 1 e_Data.GenHash_dgHash_Bool;4
.o 1 0 
e_Data.GenHash_ngHash_Bool;4
	push_node _cycle_in_spine 1
.d 1 0 
	jsr ea5
.o 0 1 i
	fillI_b 0 0
.d 1 0 
	pop_b_rtn 1
.o 1 0 
ea5
	jsr_eval 0
	pushB0_pop_a1 
.o 0 1 b
e_Data.GenHash_sgHash_Bool;4
.o 0 1 b
s5
.d 0 1 b
	jsr s39
.o 0 1 i
	pushI -4132994306676758123
	swap_b1 
	mulI
	pushI 47
	push_b 1
	shiftrU
	swap_b1 
	xor%
.d 0 1 i
	rtn 
.o 0 1 b
s39
	eqB_b TRUE 0
	jmp_false case.24
	pop_b 1
	pushI 1
.d 0 1 i
	rtn 
case.24
	pop_b 1
	pushI 2
.d 0 1 i
	rtn 
.export e_Data.GenHash_sgHash_Char;3
.descexp e_Data.GenHash_dgHash_Char;3 e_Data.GenHash_ngHash_Char;3 e_Data.GenHash_lgHash_Char;3 1 0 "gHash_Char;3"
.o 2 0 
e_Data.GenHash_igHash_Char;3
	pop_a 1
	pushC0_pop_a1 
.d 0 1 c
	jmp s4
.ai 1 _ e_Data.GenHash_igHash_Char;3
.o 2 0 
e_Data.GenHash_lgHash_Char;3
.d 1 0 
	pop_a_jsr 1 ea4
.o 0 1 i
	buildI_b 0
.d 1 0 
	pop_b_rtn 1
.n 1 e_Data.GenHash_dgHash_Char;3
.o 1 0 
e_Data.GenHash_ngHash_Char;3
	push_node _cycle_in_spine 1
.d 1 0 
	jsr ea4
.o 0 1 i
	fillI_b 0 0
.d 1 0 
	pop_b_rtn 1
.o 1 0 
ea4
	jsr_eval 0
	pushC0_pop_a1 
.o 0 1 c
e_Data.GenHash_sgHash_Char;3
.o 0 1 c
s4
	push_b 0
	CtoI
	incI
	pushI -4132994306676758123
	put_b 2
	mulI
	pushI 47
	push_b 1
	shiftrU
	swap_b1 
	xor%
.d 0 1 i
	rtn 
.export e_Data.GenHash_sgHash_Int;2
.descexp e_Data.GenHash_dgHash_Int;2 e_Data.GenHash_ngHash_Int;2 e_Data.GenHash_lgHash_Int;2 1 0 "gHash_Int;2"
.o 2 0 
e_Data.GenHash_igHash_Int;2
	pop_a 1
	pushI0_pop_a1 
.d 0 1 i
	jmp s3
.ai 1 _ e_Data.GenHash_igHash_Int;2
.o 2 0 
e_Data.GenHash_lgHash_Int;2
.d 1 0 
	pop_a_jsr 1 ea3
.o 0 1 i
	buildI_b 0
.d 1 0 
	pop_b_rtn 1
.n 1 e_Data.GenHash_dgHash_Int;2
.o 1 0 
e_Data.GenHash_ngHash_Int;2
	push_node _cycle_in_spine 1
.d 1 0 
	jsr ea3
.o 0 1 i
	fillI_b 0 0
.d 1 0 
	pop_b_rtn 1
.o 1 0 
ea3
	jsr_eval 0
	pushI0_pop_a1 
.o 0 1 i
e_Data.GenHash_sgHash_Int;2
.o 0 1 i
s3
	pushI -4132994306676758123
	swap_b1 
	mulI
	pushI 47
	push_b 1
	shiftrU
	swap_b1 
	xor%
.d 0 1 i
	rtn 
.export e_Data.GenHash_smurmurHash
.descexp e_Data.GenHash_dmurmurHash e_Data.GenHash_nmurmurHash e_Data.GenHash_lmurmurHash 1 0 "murmurHash"
.o 2 0 
e_Data.GenHash_lmurmurHash
.d 1 0 
	pop_a_jsr 1 ea1
.o 0 1 i
	buildI_b 0
.d 1 0 
	pop_b_rtn 1
.n 1 e_Data.GenHash_dmurmurHash
.o 1 0 
e_Data.GenHash_nmurmurHash
	push_node _cycle_in_spine 1
.d 1 0 
	jsr ea1
.o 0 1 i
	fillI_b 0 0
.d 1 0 
	pop_b_rtn 1
.o 1 0 
ea1
	jsr_eval 0
	push_array 0
	put_a 1
.o 1 0 
e_Data.GenHash_smurmurHash
.o 1 0 
s1
s23
	push_arraysize_a CHAR 0 1 0
	pushI 3
	push_b 1
	shiftr%
	pushI 3
	swap_b1 
	shiftl%
	andIio 7 1
	pushI 3
	swap_b1 
	shiftl%
	pushI 1
	shiftl%
	decI
	push_ab 0 1
	push_a_b 0
	pop_a 1
	addI
	load_i 16
	and%
	pushI -4132994306676758123
	push_b 3
	mulI
	pushI -4132994306676758123
	not%
	xor%
	push_b 2
	pushI 0
.d 1 3 iii
	jsr s24
.o 0 1 i
	xor%
	pushI -4132994306676758123
	update_b 0 3
	updatepop_b 1 2
	mulI
	pushI 47
	push_b 1
	shiftrU
	push_b 1
	xor%
	pushI -4132994306676758123
	put_b 2
	mulI
	pushI 47
	push_b 1
	shiftrU
	swap_b1 
	xor%
.d 0 1 i
	rtn 
.o 1 3 iii
s24
	push2_b 1
	jmp_ltI else.25
.d 0 1 i
	pop_ab_rtn 1 2
else.25
	push_ab 0 0
	push_a_b 0
	pop_a 1
	addI
	load_i 16
	pushI -4132994306676758123
	swap_b1 
	mulI
	pushI 47
	push_b 1
	shiftrU
	push_b 1
	xor%
	pushI -4132994306676758123
	swap_b1 
	mulI
	pushI -4132994306676758123
	push_b 5
	mulI
	xor%
	pushI 8
	push_b 3
	addI
	update_b 1 5
	updatepop_b 0 3
.d 1 3 iii
	jmp s24
.export e_Data.GenHash_sshiftrU
.descexp e_Data.GenHash_dshiftrU e_Data.GenHash_nshiftrU e_Data.GenHash_lshiftrU 2 0 "shiftrU"
.a 0 a2
.o 2 0 
e_Data.GenHash_lshiftrU
	repl_args 1 1
.o 2 0 
a2
.d 2 0 
	jsr ea2
.o 0 1 i
	buildI_b 0
.d 1 0 
	pop_b_rtn 1
.n 2 e_Data.GenHash_dshiftrU
.o 1 0 
e_Data.GenHash_nshiftrU
	push_node _cycle_in_spine 2
.d 2 0 
	jsr ea2
.o 0 1 i
	fillI_b 0 0
.d 1 0 
	pop_b_rtn 1
.o 2 0 
ea2
	jsr_eval 1
	jsr_eval 0
	pushI_a 1
	pushI_a 0
	pop_a 2
.o 0 2 ii
e_Data.GenHash_sshiftrU
.o 0 2 ii
s2
.inline shiftrU
	shiftrU
.end
.d 0 1 i
	rtn 
.o 1 1 i
s25
.inline get_int_from_string;25
	push_a_b 0
	pop_a 1
	addI
	load_i 16
.end
.d 0 1 i
	rtn 
