.comp 920 000011110011000
.start _nostart_
.depend "Text" "20210613144732"
.depend "Control.Monad.Trans" "20210613144732"
.depend "StdMaybe" "20210613144732"
.depend "Data.Maybe" "20210613144732"
.depend "_SystemStrictMaybes" "20210613144732"
.depend "Data.Bifunctor" "20210613144732"
.depend "StdString" "20210613144732"
.depend "Control.Monad.Fail" "20210613144732"
.depend "Data.Traversable" "20210613144732"
.depend "StdMisc" "20210613144732"
.depend "StdOverloadedList" "20210613144732"
.depend "Data.List" "20210613144732"
.depend "Data.Foldable" "20210613144732"
.depend "StdFunctions" "20210613144732"
.depend "StdFunc" "20210613144732"
.depend "_SystemEnumStrict" "20210613144732"
.depend "_SystemStrictLists" "20210613144732"
.depend "StdStrictLists" "20210613144732"
.depend "StdGeneric" "20210613144732"
.depend "Data.GenEq" "20210613144732"
.depend "StdReal" "20210613144732"
.depend "StdChar" "20210613144732"
.depend "StdInt" "20210613144732"
.depend "StdBool" "20210613144732"
.depend "StdClass" "20210613144732"
.depend "StdList" "20210613144732"
.depend "Data.Monoid" "20210613144732"
.depend "Control.Applicative" "20210613144732"
.depend "Control.Monad" "20210613144732"
.depend "Data.Functor" "20210613144732"
.depend "StdOverloaded" "20210613144732"
.depend "_SystemDynamic" "20210613144732"
.depend "Data.Tuple" "20210613144732"
.module m_Data.Tuple "Data.Tuple" "20210613144732"
.endinfo
.impmod _system
.implab _cycle_in_spine
.implab _type_error
.implab _hnf
.impdesc e_system_dind
.implab e_system_nind e_system_eaind
.impdesc e_system_dif
.implab e_system_nif e_system_eaif
.implab e_system_sif
.impdesc e_system_dAP
.implab e_system_nAP e_system_eaAP
.implab e_system_sAP
.impdesc ARRAY
.impdesc _Nil
.impdesc _Cons
.impdesc _Conss
.implab n_Conss ea_Conss
.impdesc _Consts
.implab n_Consts ea_Consts
.impdesc _Conssts
.implab n_Conssts ea_Conssts
.impdesc _Tuple
.impdesc d_S.1
.implab n_S.1 ea_S.1
.impdesc d_S.2
.implab n_S.2 ea_S.2
.impdesc d_S.3
.implab n_S.3 ea_S.3
.impdesc d_S.4
.implab n_S.4 ea_S.4
.impdesc d_S.5
.implab n_S.5 ea_S.5
.impdesc d_S.6
.implab n_S.6 ea_S.6
.implab _driver
.impmod Text
.implab e_Text_sconcat;4
.impmod Data.Maybe
.implab e_Data.Maybe_sfromMaybe;67
.impmod StdMisc
.impdesc e_StdMisc_dabort
.implab e_StdMisc_nabort _
.impmod StdFunctions
.impdesc e_StdFunctions_did
.impmod Data.Monoid
.implab e_Data.Monoid_sgetDual
.implab e_Data.Monoid_sappEndo
.impdesc e_Data.Monoid_dmappend;10
.impdesc e_Data.Monoid_dmappend;11
.implab e_Data.Monoid_smempty;18
.impdesc e_Data.Monoid_dmempty;19
.implab e_Data.Monoid_nmempty;19 e_Data.Monoid_eamempty;19
.impdesc e_Data.Monoid_dDual
.impdesc e_Data.Monoid_dEndo
.impdesc e_Data.Monoid_rSemigroup;
.impdesc e_Data.Monoid_dSemigroup;.mappend
.implab e_Data.Monoid_nSemigroup;.mappend e_Data.Monoid_eaSemigroup;.mappend
.impdesc e_Data.Monoid_rMonoid;
.impdesc e_Data.Monoid_dMonoid;.mempty
.implab e_Data.Monoid_nMonoid;.mempty e_Data.Monoid_eaMonoid;.mempty
.impmod StdOverloaded
.impdesc e_StdOverloaded_dtoString;.toString
.implab e_StdOverloaded_ntoString;.toString e_StdOverloaded_eatoString;.toString
.export e_Data.Tuple_stoString;49
.descexp e_Data.Tuple_dtoString;49 e_Data.Tuple_ntoString;49 e_Data.Tuple_ltoString;49 6 0 "toString;49"
.o 2 0
e_Data.Tuple_itoString;49
	repl_args 5 5
	push_args 5 5 5
	jsr_eval 9
	push_r_args 9 1 0
	jsr_eval 9
	push_r_args 9 1 0
	jsr_eval 9
	push_r_args 9 1 0
	jsr_eval 9
	push_r_args 9 1 0
	jsr_eval 9
	push_r_args 9 1 0
	update_a 9 15
	update_a 3 9
	update_a 8 14
	update_a 2 8
	update_a 7 13
	update_a 1 7
	update_a 6 12
	update_a 0 6
	update_a 5 11
	update_a 4 10
	pop_a 6
.d 10 0
	jmp s50
.ai 0 a50 e_Data.Tuple_itoString;49
.o 2 0
e_Data.Tuple_ltoString;49
	repl_args 5 5
.o 6 0
a50
.d 6 0
	jsr ea50
.o 1 0
	buildh ARRAY 1
.d 1 0
	rtn
.n 6 e_Data.Tuple_dtoString;49
.o 1 0
e_Data.Tuple_ntoString;49
	push_node _cycle_in_spine 6
.d 6 0
	jsr ea50
.o 1 0
	fillh ARRAY 1 1
.d 1 0
	rtn
.o 6 0
ea50
	push_a 5
	jsr_eval 0
	repl_args 5 5
	jsr_eval 9
	jsr_eval 8
	jsr_eval 7
	jsr_eval 6
	jsr_eval 5
	push_r_args 9 1 0
	push_r_args 9 1 0
	push_r_args 9 1 0
	push_r_args 9 1 0
	push_r_args 9 1 0
	update_a 9 15
	update_a 3 9
	update_a 8 14
	update_a 2 8
	update_a 7 13
	update_a 1 7
	update_a 6 12
	update_a 0 6
	update_a 5 11
	update_a 4 10
	pop_a 6
.o 10 0
e_Data.Tuple_stoString;49
.o 10 0
s50
	buildh _Nil 0
	buildAC ")"
	buildh ARRAY 1
	buildh _Cons 2
	push_a 5
	push_a 11
	push_a 1
	update_a 1 2
	update_a 0 1
	pop_a 1
	build e_system_dAP 2 e_system_nAP
	buildh _Cons 2
	buildAC ", "
	buildh ARRAY 1
	buildh _Cons 2
	push_a 4
	push_a 10
	push_a 1
	update_a 1 2
	update_a 0 1
	pop_a 1
	build e_system_dAP 2 e_system_nAP
	buildh _Cons 2
	buildAC ", "
	buildh ARRAY 1
	buildh _Cons 2
	push_a 3
	push_a 9
	push_a 1
	update_a 1 2
	update_a 0 1
	pop_a 1
	build e_system_dAP 2 e_system_nAP
	buildh _Cons 2
	buildAC ", "
	buildh ARRAY 1
	buildh _Cons 2
	push_a 2
	push_a 8
	push_a 1
	update_a 1 2
	update_a 0 1
	pop_a 1
	build e_system_dAP 2 e_system_nAP
	buildh _Cons 2
	buildAC ", "
	buildh ARRAY 1
	buildh _Cons 2
	push_a 1
	push_a 7
	push_a 1
	update_a 1 2
	update_a 0 1
	pop_a 1
	build e_system_dAP 2 e_system_nAP
	buildh _Cons 2
	buildAC "("
	buildh ARRAY 1
	buildh _Cons 2
	updatepop_a 0 10
.d 1 0
	jmp e_Text_sconcat;4
.export e_Data.Tuple_stoString;48
.descexp e_Data.Tuple_dtoString;48 e_Data.Tuple_ntoString;48 e_Data.Tuple_ltoString;48 5 0 "toString;48"
.o 2 0
e_Data.Tuple_itoString;48
	repl_args 4 4
	push_args 4 4 4
	jsr_eval 7
	push_r_args 7 1 0
	jsr_eval 7
	push_r_args 7 1 0
	jsr_eval 7
	push_r_args 7 1 0
	jsr_eval 7
	push_r_args 7 1 0
	update_a 7 12
	update_a 2 7
	update_a 6 11
	update_a 1 6
	update_a 5 10
	update_a 0 5
	update_a 4 9
	update_a 3 8
	pop_a 5
.d 8 0
	jmp s49
.ai 0 a49 e_Data.Tuple_itoString;48
.o 2 0
e_Data.Tuple_ltoString;48
	repl_args 4 4
.o 5 0
a49
.d 5 0
	jsr ea49
.o 1 0
	buildh ARRAY 1
.d 1 0
	rtn
.n 5 e_Data.Tuple_dtoString;48
.o 1 0
e_Data.Tuple_ntoString;48
	push_node _cycle_in_spine 5
.d 5 0
	jsr ea49
.o 1 0
	fillh ARRAY 1 1
.d 1 0
	rtn
.o 5 0
ea49
	push_a 4
	jsr_eval 0
	repl_args 4 4
	jsr_eval 7
	jsr_eval 6
	jsr_eval 5
	jsr_eval 4
	push_r_args 7 1 0
	push_r_args 7 1 0
	push_r_args 7 1 0
	push_r_args 7 1 0
	update_a 7 12
	update_a 2 7
	update_a 6 11
	update_a 1 6
	update_a 5 10
	update_a 0 5
	update_a 4 9
	update_a 3 8
	pop_a 5
.o 8 0
e_Data.Tuple_stoString;48
.o 8 0
s49
	buildh _Nil 0
	buildAC ")"
	buildh ARRAY 1
	buildh _Cons 2
	push_a 4
	push_a 9
	push_a 1
	update_a 1 2
	update_a 0 1
	pop_a 1
	build e_system_dAP 2 e_system_nAP
	buildh _Cons 2
	buildAC ", "
	buildh ARRAY 1
	buildh _Cons 2
	push_a 3
	push_a 8
	push_a 1
	update_a 1 2
	update_a 0 1
	pop_a 1
	build e_system_dAP 2 e_system_nAP
	buildh _Cons 2
	buildAC ", "
	buildh ARRAY 1
	buildh _Cons 2
	push_a 2
	push_a 7
	push_a 1
	update_a 1 2
	update_a 0 1
	pop_a 1
	build e_system_dAP 2 e_system_nAP
	buildh _Cons 2
	buildAC ", "
	buildh ARRAY 1
	buildh _Cons 2
	push_a 1
	push_a 6
	push_a 1
	update_a 1 2
	update_a 0 1
	pop_a 1
	build e_system_dAP 2 e_system_nAP
	buildh _Cons 2
	buildAC "("
	buildh ARRAY 1
	buildh _Cons 2
	updatepop_a 0 8
.d 1 0
	jmp e_Text_sconcat;4
.export e_Data.Tuple_stoString;47
.descexp e_Data.Tuple_dtoString;47 e_Data.Tuple_ntoString;47 e_Data.Tuple_ltoString;47 4 0 "toString;47"
.o 2 0
e_Data.Tuple_itoString;47
	repl_args 3 3
	push_args 3 3 3
	jsr_eval 5
	push_r_args 5 1 0
	jsr_eval 5
	push_r_args 5 1 0
	jsr_eval 5
	push_r_args 5 1 0
	update_a 5 9
	update_a 1 5
	update_a 4 8
	update_a 0 4
	update_a 3 7
	update_a 2 6
	pop_a 4
.d 6 0
	jmp s48
.ai 0 a48 e_Data.Tuple_itoString;47
.o 2 0
e_Data.Tuple_ltoString;47
	repl_args 3 3
.o 4 0
a48
.d 4 0
	jsr ea48
.o 1 0
	buildh ARRAY 1
.d 1 0
	rtn
.n 4 e_Data.Tuple_dtoString;47
.o 1 0
e_Data.Tuple_ntoString;47
	push_node _cycle_in_spine 4
.d 4 0
	jsr ea48
.o 1 0
	fillh ARRAY 1 1
.d 1 0
	rtn
.o 4 0
ea48
	push_a 3
	jsr_eval 0
	repl_args 3 3
	jsr_eval 5
	jsr_eval 4
	jsr_eval 3
	push_r_args 5 1 0
	push_r_args 5 1 0
	push_r_args 5 1 0
	update_a 5 9
	update_a 1 5
	update_a 4 8
	update_a 0 4
	update_a 3 7
	update_a 2 6
	pop_a 4
.o 6 0
e_Data.Tuple_stoString;47
.o 6 0
s48
	buildh _Nil 0
	buildAC ")"
	buildh ARRAY 1
	buildh _Cons 2
	push_a 3
	push_a 7
	push_a 1
	update_a 1 2
	update_a 0 1
	pop_a 1
	build e_system_dAP 2 e_system_nAP
	buildh _Cons 2
	buildAC ", "
	buildh ARRAY 1
	buildh _Cons 2
	push_a 2
	push_a 6
	push_a 1
	update_a 1 2
	update_a 0 1
	pop_a 1
	build e_system_dAP 2 e_system_nAP
	buildh _Cons 2
	buildAC ", "
	buildh ARRAY 1
	buildh _Cons 2
	push_a 1
	push_a 5
	push_a 1
	update_a 1 2
	update_a 0 1
	pop_a 1
	build e_system_dAP 2 e_system_nAP
	buildh _Cons 2
	buildAC "("
	buildh ARRAY 1
	buildh _Cons 2
	updatepop_a 0 6
.d 1 0
	jmp e_Text_sconcat;4
.export e_Data.Tuple_stoString;46
.descexp e_Data.Tuple_dtoString;46 e_Data.Tuple_ntoString;46 e_Data.Tuple_ltoString;46 3 0 "toString;46"
.o 2 0
e_Data.Tuple_itoString;46
	repl_args 2 2
	push_args 2 2 2
	jsr_eval 3
	push_r_args 3 1 0
	jsr_eval 3
	push_r_args 3 1 0
	update_a 3 6
	update_a 0 3
	update_a 2 5
	update_a 1 4
	pop_a 3
.d 4 0
	jmp s47
.ai 0 a47 e_Data.Tuple_itoString;46
.o 2 0
e_Data.Tuple_ltoString;46
	repl_args 2 2
.o 3 0
a47
.d 3 0
	jsr ea47
.o 1 0
	buildh ARRAY 1
.d 1 0
	rtn
.n 3 e_Data.Tuple_dtoString;46
.o 1 0
e_Data.Tuple_ntoString;46
	push_node _cycle_in_spine 3
.d 3 0
	jsr ea47
.o 1 0
	fillh ARRAY 1 1
.d 1 0
	rtn
.o 3 0
ea47
	push_a 2
	jsr_eval 0
	repl_args 2 2
	jsr_eval 3
	jsr_eval 2
	push_r_args 3 1 0
	push_r_args 3 1 0
	update_a 3 6
	update_a 0 3
	update_a 2 5
	update_a 1 4
	pop_a 3
.o 4 0
e_Data.Tuple_stoString;46
.o 4 0
s47
	buildh _Nil 0
	buildAC ")"
	buildh ARRAY 1
	buildh _Cons 2
	push_a 2
	push_a 5
	push_a 1
	update_a 1 2
	update_a 0 1
	pop_a 1
	build e_system_dAP 2 e_system_nAP
	buildh _Cons 2
	buildAC ", "
	buildh ARRAY 1
	buildh _Cons 2
	push_a 1
	push_a 4
	push_a 1
	update_a 1 2
	update_a 0 1
	pop_a 1
	build e_system_dAP 2 e_system_nAP
	buildh _Cons 2
	buildAC "("
	buildh ARRAY 1
	buildh _Cons 2
	updatepop_a 0 4
.d 1 0
	jmp e_Text_sconcat;4
.export e_Data.Tuple_stoString;45
.descexp e_Data.Tuple_dtoString;45 e_Data.Tuple_ntoString;45 e_Data.Tuple_ltoString;45 1 0 "toString;45"
.o 2 0
e_Data.Tuple_itoString;45
	pop_a 1
.d 1 0
	jmp s46
.ai 1 _ e_Data.Tuple_itoString;45
.o 2 0
e_Data.Tuple_ltoString;45
	pop_a 1
.d 1 0
	jsr ea46
.o 1 0
	buildh ARRAY 1
.d 1 0
	rtn
.n 1 e_Data.Tuple_dtoString;45
.o 1 0
e_Data.Tuple_ntoString;45
	push_node _cycle_in_spine 1
.d 1 0
	jsr ea46
.o 1 0
	fillh ARRAY 1 1
.d 1 0
	rtn
.o 1 0
ea46
	jsr_eval 0
.o 1 0
e_Data.Tuple_stoString;45
.o 1 0
s46
	pop_a 1
	buildAC "()"
.d 1 0
	rtn
.export e_Data.Tuple_ssecond;44
.descexp e_Data.Tuple_dsecond;44 e_Data.Tuple_nsecond;44 e_Data.Tuple_lsecond;44 2 0 "second;44"
.o 3 0
e_Data.Tuple_isecond;44
	pop_a 1
.d 2 0
	jsr s45
.o 5 0
	push_a 4
	push_a 4
	push_a 4
	push_a 4
	push_a 4
	buildh _Tuple 5
	updatepop_a 0 5
.d 1 0
	rtn
.ai 0 a45 e_Data.Tuple_isecond;44
.o 2 0
e_Data.Tuple_lsecond;44
	repl_args 1 1
.o 2 0
a45
.d 2 0
	jsr ea45
.o 5 0
	push_a 4
	push_a 4
	push_a 4
	push_a 4
	push_a 4
	buildh _Tuple 5
	updatepop_a 0 5
.d 1 0
	rtn
.n 2 e_Data.Tuple_dsecond;44
.o 1 0
e_Data.Tuple_nsecond;44
	push_node _cycle_in_spine 2
.d 2 0
	jsr ea45
.o 5 0
	push_a 4
	push_a 4
	push_a 4
	push_a 4
	push_a 4
	fillh _Tuple 5 10
	pop_a 5
.d 1 0
	rtn
.o 2 0
ea45
.o 2 0
e_Data.Tuple_ssecond;44
.o 2 0
s45
	buildh e_Data.Tuple_d\;10;26;65.64 0
	push_a 2
	push_a 2
	push_a 2
	update_a 2 3
	update_a 1 2
	update_a 0 1
	pop_a 1
	update_a 2 4
	update_a 1 3
	updatepop_a 0 2
.d 3 0
	jmp s43
.export e_Data.Tuple_d\;10;26;65.64
.desc e_Data.Tuple_d\;10;26;65.64 _hnf l64 1 0 "\;10;26;65.64"
.o 2 0
l64
	pop_a 1
.o 1 0
ea64
	jsr_eval 0
.o 1 0
s64
.d 1 0
	rtn
.export e_Data.Tuple_sfirst;43
.descexp e_Data.Tuple_dfirst;43 e_Data.Tuple_nfirst;43 e_Data.Tuple_lfirst;43 2 0 "first;43"
.o 3 0
e_Data.Tuple_ifirst;43
	pop_a 1
.d 2 0
	jsr s44
.o 5 0
	push_a 4
	push_a 4
	push_a 4
	push_a 4
	push_a 4
	buildh _Tuple 5
	updatepop_a 0 5
.d 1 0
	rtn
.ai 0 a44 e_Data.Tuple_ifirst;43
.o 2 0
e_Data.Tuple_lfirst;43
	repl_args 1 1
.o 2 0
a44
.d 2 0
	jsr ea44
.o 5 0
	push_a 4
	push_a 4
	push_a 4
	push_a 4
	push_a 4
	buildh _Tuple 5
	updatepop_a 0 5
.d 1 0
	rtn
.n 2 e_Data.Tuple_dfirst;43
.o 1 0
e_Data.Tuple_nfirst;43
	push_node _cycle_in_spine 2
.d 2 0
	jsr ea44
.o 5 0
	push_a 4
	push_a 4
	push_a 4
	push_a 4
	push_a 4
	fillh _Tuple 5 10
	pop_a 5
.d 1 0
	rtn
.o 2 0
ea44
.o 2 0
e_Data.Tuple_sfirst;43
.o 2 0
s44
	buildh e_Data.Tuple_d\;8;27;64.63 0
	push_a 2
	push_a 2
	push_a 2
	update_a 2 3
	update_a 0 2
	pop_a 1
	update_a 2 4
	update_a 1 3
	updatepop_a 0 2
.d 3 0
	jmp s43
.export e_Data.Tuple_d\;8;27;64.63
.desc e_Data.Tuple_d\;8;27;64.63 _hnf l63 1 0 "\;8;27;64.63"
.o 2 0
l63
	pop_a 1
.o 1 0
ea63
	jsr_eval 0
.o 1 0
s63
.d 1 0
	rtn
.export e_Data.Tuple_sbifmap;42
.descexp e_Data.Tuple_dbifmap;42 e_Data.Tuple_nbifmap;42 e_Data.Tuple_lbifmap;42 3 0 "bifmap;42"
.o 4 0
e_Data.Tuple_ibifmap;42
	pop_a 1
.d 3 0
	jsr s43
.o 5 0
	push_a 4
	push_a 4
	push_a 4
	push_a 4
	push_a 4
	buildh _Tuple 5
	updatepop_a 0 5
.d 1 0
	rtn
.ai 0 a43 e_Data.Tuple_ibifmap;42
.o 2 0
e_Data.Tuple_lbifmap;42
	repl_args 2 2
.o 3 0
a43
.d 3 0
	jsr ea43
.o 5 0
	push_a 4
	push_a 4
	push_a 4
	push_a 4
	push_a 4
	buildh _Tuple 5
	updatepop_a 0 5
.d 1 0
	rtn
.n 3 e_Data.Tuple_dbifmap;42
.o 1 0
e_Data.Tuple_nbifmap;42
	push_node _cycle_in_spine 3
.d 3 0
	jsr ea43
.o 5 0
	push_a 4
	push_a 4
	push_a 4
	push_a 4
	push_a 4
	fillh _Tuple 5 10
	pop_a 5
.d 1 0
	rtn
.o 3 0
ea43
.o 3 0
e_Data.Tuple_sbifmap;42
.o 3 0
s43
	push_a 2
	build d_S.5 -1 n_S.5
	push_a 2
	build e_system_dAP 2 e_system_nAP
	push_a 3
	build d_S.4 -1 n_S.4
	push_a 2
	build e_system_dAP 2 e_system_nAP
	push_a 4
	build d_S.3 -1 n_S.3
	push_a 5
	build d_S.2 -1 n_S.2
	push_a 6
	build d_S.1 -1 n_S.1
	update_a 4 7
	update_a 3 6
	update_a 2 5
	update_a 1 4
	updatepop_a 0 3
.d 5 0
	rtn
.export e_Data.Tuple_ssecond;41
.descexp e_Data.Tuple_dsecond;41 e_Data.Tuple_nsecond;41 e_Data.Tuple_lsecond;41 2 0 "second;41"
.o 3 0
e_Data.Tuple_isecond;41
	pop_a 1
.d 2 0
	jsr s42
.o 4 0
	push_a 3
	push_a 3
	push_a 3
	push_a 3
	buildh _Tuple 4
	updatepop_a 0 4
.d 1 0
	rtn
.ai 0 a42 e_Data.Tuple_isecond;41
.o 2 0
e_Data.Tuple_lsecond;41
	repl_args 1 1
.o 2 0
a42
.d 2 0
	jsr ea42
.o 4 0
	push_a 3
	push_a 3
	push_a 3
	push_a 3
	buildh _Tuple 4
	updatepop_a 0 4
.d 1 0
	rtn
.n 2 e_Data.Tuple_dsecond;41
.o 1 0
e_Data.Tuple_nsecond;41
	push_node _cycle_in_spine 2
.d 2 0
	jsr ea42
.o 4 0
	push_a 3
	push_a 3
	push_a 3
	push_a 3
	fillh _Tuple 4 8
	pop_a 4
.d 1 0
	rtn
.o 2 0
ea42
.o 2 0
e_Data.Tuple_ssecond;41
.o 2 0
s42
	buildh e_Data.Tuple_d\;10;26;63.62 0
	push_a 2
	push_a 2
	push_a 2
	update_a 2 3
	update_a 1 2
	update_a 0 1
	pop_a 1
	update_a 2 4
	update_a 1 3
	updatepop_a 0 2
.d 3 0
	jmp s40
.export e_Data.Tuple_d\;10;26;63.62
.desc e_Data.Tuple_d\;10;26;63.62 _hnf l62 1 0 "\;10;26;63.62"
.o 2 0
l62
	pop_a 1
.o 1 0
ea62
	jsr_eval 0
.o 1 0
s62
.d 1 0
	rtn
.export e_Data.Tuple_sfirst;40
.descexp e_Data.Tuple_dfirst;40 e_Data.Tuple_nfirst;40 e_Data.Tuple_lfirst;40 2 0 "first;40"
.o 3 0
e_Data.Tuple_ifirst;40
	pop_a 1
.d 2 0
	jsr s41
.o 4 0
	push_a 3
	push_a 3
	push_a 3
	push_a 3
	buildh _Tuple 4
	updatepop_a 0 4
.d 1 0
	rtn
.ai 0 a41 e_Data.Tuple_ifirst;40
.o 2 0
e_Data.Tuple_lfirst;40
	repl_args 1 1
.o 2 0
a41
.d 2 0
	jsr ea41
.o 4 0
	push_a 3
	push_a 3
	push_a 3
	push_a 3
	buildh _Tuple 4
	updatepop_a 0 4
.d 1 0
	rtn
.n 2 e_Data.Tuple_dfirst;40
.o 1 0
e_Data.Tuple_nfirst;40
	push_node _cycle_in_spine 2
.d 2 0
	jsr ea41
.o 4 0
	push_a 3
	push_a 3
	push_a 3
	push_a 3
	fillh _Tuple 4 8
	pop_a 4
.d 1 0
	rtn
.o 2 0
ea41
.o 2 0
e_Data.Tuple_sfirst;40
.o 2 0
s41
	buildh e_Data.Tuple_d\;8;27;62.61 0
	push_a 2
	push_a 2
	push_a 2
	update_a 2 3
	update_a 0 2
	pop_a 1
	update_a 2 4
	update_a 1 3
	updatepop_a 0 2
.d 3 0
	jmp s40
.export e_Data.Tuple_d\;8;27;62.61
.desc e_Data.Tuple_d\;8;27;62.61 _hnf l61 1 0 "\;8;27;62.61"
.o 2 0
l61
	pop_a 1
.o 1 0
ea61
	jsr_eval 0
.o 1 0
s61
.d 1 0
	rtn
.export e_Data.Tuple_sbifmap;39
.descexp e_Data.Tuple_dbifmap;39 e_Data.Tuple_nbifmap;39 e_Data.Tuple_lbifmap;39 3 0 "bifmap;39"
.o 4 0
e_Data.Tuple_ibifmap;39
	pop_a 1
.d 3 0
	jsr s40
.o 4 0
	push_a 3
	push_a 3
	push_a 3
	push_a 3
	buildh _Tuple 4
	updatepop_a 0 4
.d 1 0
	rtn
.ai 0 a40 e_Data.Tuple_ibifmap;39
.o 2 0
e_Data.Tuple_lbifmap;39
	repl_args 2 2
.o 3 0
a40
.d 3 0
	jsr ea40
.o 4 0
	push_a 3
	push_a 3
	push_a 3
	push_a 3
	buildh _Tuple 4
	updatepop_a 0 4
.d 1 0
	rtn
.n 3 e_Data.Tuple_dbifmap;39
.o 1 0
e_Data.Tuple_nbifmap;39
	push_node _cycle_in_spine 3
.d 3 0
	jsr ea40
.o 4 0
	push_a 3
	push_a 3
	push_a 3
	push_a 3
	fillh _Tuple 4 8
	pop_a 4
.d 1 0
	rtn
.o 3 0
ea40
.o 3 0
e_Data.Tuple_sbifmap;39
.o 3 0
s40
	push_a 2
	build d_S.4 -1 n_S.4
	push_a 2
	build e_system_dAP 2 e_system_nAP
	push_a 3
	build d_S.3 -1 n_S.3
	push_a 2
	build e_system_dAP 2 e_system_nAP
	push_a 4
	build d_S.2 -1 n_S.2
	push_a 5
	build d_S.1 -1 n_S.1
	update_a 3 6
	update_a 2 5
	update_a 1 4
	updatepop_a 0 3
.d 4 0
	rtn
.export e_Data.Tuple_ssecond;38
.descexp e_Data.Tuple_dsecond;38 e_Data.Tuple_nsecond;38 e_Data.Tuple_lsecond;38 2 0 "second;38"
.o 3 0
e_Data.Tuple_isecond;38
	pop_a 1
.d 2 0
	jsr s39
.o 3 0
	push_a 2
	push_a 2
	push_a 2
	buildh _Tuple 3
	updatepop_a 0 3
.d 1 0
	rtn
.ai 0 a39 e_Data.Tuple_isecond;38
.o 2 0
e_Data.Tuple_lsecond;38
	repl_args 1 1
.o 2 0
a39
.d 2 0
	jsr ea39
.o 3 0
	push_a 2
	push_a 2
	push_a 2
	buildh _Tuple 3
	updatepop_a 0 3
.d 1 0
	rtn
.n 2 e_Data.Tuple_dsecond;38
.o 1 0
e_Data.Tuple_nsecond;38
	push_node _cycle_in_spine 2
.d 2 0
	jsr ea39
.o 3 0
	push_a 2
	push_a 2
	push_a 2
	fillh _Tuple 3 6
	pop_a 3
.d 1 0
	rtn
.o 2 0
ea39
.o 2 0
e_Data.Tuple_ssecond;38
.o 2 0
s39
	buildh e_Data.Tuple_d\;10;26;61.60 0
	push_a 2
	push_a 2
	push_a 2
	update_a 2 3
	update_a 1 2
	update_a 0 1
	pop_a 1
	update_a 2 4
	update_a 1 3
	updatepop_a 0 2
.d 3 0
	jmp s37
.export e_Data.Tuple_d\;10;26;61.60
.desc e_Data.Tuple_d\;10;26;61.60 _hnf l60 1 0 "\;10;26;61.60"
.o 2 0
l60
	pop_a 1
.o 1 0
ea60
	jsr_eval 0
.o 1 0
s60
.d 1 0
	rtn
.export e_Data.Tuple_sfirst;37
.descexp e_Data.Tuple_dfirst;37 e_Data.Tuple_nfirst;37 e_Data.Tuple_lfirst;37 2 0 "first;37"
.o 3 0
e_Data.Tuple_ifirst;37
	pop_a 1
.d 2 0
	jsr s38
.o 3 0
	push_a 2
	push_a 2
	push_a 2
	buildh _Tuple 3
	updatepop_a 0 3
.d 1 0
	rtn
.ai 0 a38 e_Data.Tuple_ifirst;37
.o 2 0
e_Data.Tuple_lfirst;37
	repl_args 1 1
.o 2 0
a38
.d 2 0
	jsr ea38
.o 3 0
	push_a 2
	push_a 2
	push_a 2
	buildh _Tuple 3
	updatepop_a 0 3
.d 1 0
	rtn
.n 2 e_Data.Tuple_dfirst;37
.o 1 0
e_Data.Tuple_nfirst;37
	push_node _cycle_in_spine 2
.d 2 0
	jsr ea38
.o 3 0
	push_a 2
	push_a 2
	push_a 2
	fillh _Tuple 3 6
	pop_a 3
.d 1 0
	rtn
.o 2 0
ea38
.o 2 0
e_Data.Tuple_sfirst;37
.o 2 0
s38
	buildh e_Data.Tuple_d\;8;27;60.59 0
	push_a 2
	push_a 2
	push_a 2
	update_a 2 3
	update_a 0 2
	pop_a 1
	update_a 2 4
	update_a 1 3
	updatepop_a 0 2
.d 3 0
	jmp s37
.export e_Data.Tuple_d\;8;27;60.59
.desc e_Data.Tuple_d\;8;27;60.59 _hnf l59 1 0 "\;8;27;60.59"
.o 2 0
l59
	pop_a 1
.o 1 0
ea59
	jsr_eval 0
.o 1 0
s59
.d 1 0
	rtn
.export e_Data.Tuple_sbifmap;36
.descexp e_Data.Tuple_dbifmap;36 e_Data.Tuple_nbifmap;36 e_Data.Tuple_lbifmap;36 3 0 "bifmap;36"
.o 4 0
e_Data.Tuple_ibifmap;36
	pop_a 1
.d 3 0
	jsr s37
.o 3 0
	push_a 2
	push_a 2
	push_a 2
	buildh _Tuple 3
	updatepop_a 0 3
.d 1 0
	rtn
.ai 0 a37 e_Data.Tuple_ibifmap;36
.o 2 0
e_Data.Tuple_lbifmap;36
	repl_args 2 2
.o 3 0
a37
.d 3 0
	jsr ea37
.o 3 0
	push_a 2
	push_a 2
	push_a 2
	buildh _Tuple 3
	updatepop_a 0 3
.d 1 0
	rtn
.n 3 e_Data.Tuple_dbifmap;36
.o 1 0
e_Data.Tuple_nbifmap;36
	push_node _cycle_in_spine 3
.d 3 0
	jsr ea37
.o 3 0
	push_a 2
	push_a 2
	push_a 2
	fillh _Tuple 3 6
	pop_a 3
.d 1 0
	rtn
.o 3 0
ea37
.o 3 0
e_Data.Tuple_sbifmap;36
.o 3 0
s37
	push_a 2
	build d_S.3 -1 n_S.3
	push_a 2
	build e_system_dAP 2 e_system_nAP
	push_a 3
	build d_S.2 -1 n_S.2
	push_a 2
	build e_system_dAP 2 e_system_nAP
	push_a 4
	build d_S.1 -1 n_S.1
	update_a 2 5
	update_a 1 4
	updatepop_a 0 3
.d 3 0
	rtn
.export e_Data.Tuple_ssecond;35
.descexp e_Data.Tuple_dsecond;35 e_Data.Tuple_nsecond;35 e_Data.Tuple_lsecond;35 2 0 "second;35"
.o 3 0
e_Data.Tuple_isecond;35
	pop_a 1
.d 2 0
	jsr s36
.o 2 0
	push_a 1
	push_a 1
	buildh _Tuple 2
	updatepop_a 0 2
.d 1 0
	rtn
.ai 0 a36 e_Data.Tuple_isecond;35
.o 2 0
e_Data.Tuple_lsecond;35
	repl_args 1 1
.o 2 0
a36
.d 2 0
	jsr ea36
.o 2 0
	push_a 1
	push_a 1
	buildh _Tuple 2
	updatepop_a 0 2
.d 1 0
	rtn
.n 2 e_Data.Tuple_dsecond;35
.o 1 0
e_Data.Tuple_nsecond;35
	push_node _cycle_in_spine 2
.d 2 0
	jsr ea36
.o 2 0
	push_a 1
	push_a 1
	fillh _Tuple 2 4
	pop_a 2
.d 1 0
	rtn
.o 2 0
ea36
.o 2 0
e_Data.Tuple_ssecond;35
.o 2 0
s36
	buildh e_Data.Tuple_d\;10;26;59.58 0
	push_a 2
	push_a 2
	push_a 2
	update_a 2 3
	update_a 1 2
	update_a 0 1
	pop_a 1
	update_a 2 4
	update_a 1 3
	updatepop_a 0 2
.d 3 0
	jmp s34
.export e_Data.Tuple_d\;10;26;59.58
.desc e_Data.Tuple_d\;10;26;59.58 _hnf l58 1 0 "\;10;26;59.58"
.o 2 0
l58
	pop_a 1
.o 1 0
ea58
	jsr_eval 0
.o 1 0
s58
.d 1 0
	rtn
.export e_Data.Tuple_sfirst;34
.descexp e_Data.Tuple_dfirst;34 e_Data.Tuple_nfirst;34 e_Data.Tuple_lfirst;34 2 0 "first;34"
.o 3 0
e_Data.Tuple_ifirst;34
	pop_a 1
.d 2 0
	jsr s35
.o 2 0
	push_a 1
	push_a 1
	buildh _Tuple 2
	updatepop_a 0 2
.d 1 0
	rtn
.ai 0 a35 e_Data.Tuple_ifirst;34
.o 2 0
e_Data.Tuple_lfirst;34
	repl_args 1 1
.o 2 0
a35
.d 2 0
	jsr ea35
.o 2 0
	push_a 1
	push_a 1
	buildh _Tuple 2
	updatepop_a 0 2
.d 1 0
	rtn
.n 2 e_Data.Tuple_dfirst;34
.o 1 0
e_Data.Tuple_nfirst;34
	push_node _cycle_in_spine 2
.d 2 0
	jsr ea35
.o 2 0
	push_a 1
	push_a 1
	fillh _Tuple 2 4
	pop_a 2
.d 1 0
	rtn
.o 2 0
ea35
.o 2 0
e_Data.Tuple_sfirst;34
.o 2 0
s35
	buildh e_Data.Tuple_d\;8;27;58.57 0
	push_a 2
	push_a 2
	push_a 2
	update_a 2 3
	update_a 0 2
	pop_a 1
	update_a 2 4
	update_a 1 3
	updatepop_a 0 2
.d 3 0
	jmp s34
.export e_Data.Tuple_d\;8;27;58.57
.desc e_Data.Tuple_d\;8;27;58.57 _hnf l57 1 0 "\;8;27;58.57"
.o 2 0
l57
	pop_a 1
.o 1 0
ea57
	jsr_eval 0
.o 1 0
s57
.d 1 0
	rtn
.export e_Data.Tuple_sbifmap;33
.descexp e_Data.Tuple_dbifmap;33 e_Data.Tuple_nbifmap;33 e_Data.Tuple_lbifmap;33 3 0 "bifmap;33"
.o 4 0
e_Data.Tuple_ibifmap;33
	pop_a 1
.d 3 0
	jsr s34
.o 2 0
	push_a 1
	push_a 1
	buildh _Tuple 2
	updatepop_a 0 2
.d 1 0
	rtn
.ai 0 a34 e_Data.Tuple_ibifmap;33
.o 2 0
e_Data.Tuple_lbifmap;33
	repl_args 2 2
.o 3 0
a34
.d 3 0
	jsr ea34
.o 2 0
	push_a 1
	push_a 1
	buildh _Tuple 2
	updatepop_a 0 2
.d 1 0
	rtn
.n 3 e_Data.Tuple_dbifmap;33
.o 1 0
e_Data.Tuple_nbifmap;33
	push_node _cycle_in_spine 3
.d 3 0
	jsr ea34
.o 2 0
	push_a 1
	push_a 1
	fillh _Tuple 2 4
	pop_a 2
.d 1 0
	rtn
.o 3 0
ea34
.o 3 0
e_Data.Tuple_sbifmap;33
.o 3 0
s34
	push_a 2
	build d_S.2 -1 n_S.2
	push_a 2
	build e_system_dAP 2 e_system_nAP
	push_a 3
	build d_S.1 -1 n_S.1
	push_a 2
	build e_system_dAP 2 e_system_nAP
	update_a 1 4
	updatepop_a 0 3
.d 2 0
	rtn
.export e_Data.Tuple_ssequence;30
.descexp e_Data.Tuple_dsequence;30 e_Data.Tuple_nsequence;30 e_Data.Tuple_lsequence;30 2 0 "sequence;30"
.o 4 0
e_Data.Tuple_isequence;30
	pop_a 1
	push_args 2 2 2
	update_a 1 4
	update_a 2 1
	update_a 3 2
	update_a 0 3
	pop_a 1
.d 4 0
	jmp s31
.ai 0 ea31 e_Data.Tuple_isequence;30
.o 2 0
e_Data.Tuple_lsequence;30
	repl_args 1 1
.d 2 0
	jmp ea31
.n 2 e_Data.Tuple_dsequence;30 _
.o 1 0
e_Data.Tuple_nsequence;30
	push_node _cycle_in_spine 2
.d 2 0
	jsr ea31
.o 1 0
	fill_a 0 1
	pop_a 1
.d 1 0
	rtn
.o 2 0
ea31
	push_a 1
	jsr_eval 0
	repl_args 2 2
	jsr_eval 2
	push_r_args 2 2 0
	update_a 3 5
	update_a 1 3
	update_a 2 4
	update_a 0 2
	pop_a 2
.o 4 0
e_Data.Tuple_ssequence;30
.o 4 0
s31
	push_r_args 1 3 0
	push_a 6
	push_a 6
	push_a 4
	update_a 2 5
	update_a 4 2
	update_a 1 4
	update_a 3 1
	update_a 0 3
	pop_a 1
	update_a 4 8
	update_a 3 7
	update_a 2 6
	update_a 1 5
	updatepop_a 0 4
.d 5 0
	jmp s32
.export e_Data.Tuple_ssequenceA;31
.descexp e_Data.Tuple_dsequenceA;31 e_Data.Tuple_nsequenceA;31 e_Data.Tuple_lsequenceA;31 2 0 "sequenceA;31"
.o 5 0
e_Data.Tuple_isequenceA;31
	pop_a 1
	push_args 3 2 2
	update_a 1 5
	update_a 2 1
	update_a 3 2
	update_a 4 3
	update_a 0 4
	pop_a 1
.d 5 0
	jmp s32
.ai 0 ea32 e_Data.Tuple_isequenceA;31
.o 2 0
e_Data.Tuple_lsequenceA;31
	repl_args 1 1
.d 2 0
	jmp ea32
.n 2 e_Data.Tuple_dsequenceA;31 _
.o 1 0
e_Data.Tuple_nsequenceA;31
	push_node _cycle_in_spine 2
.d 2 0
	jsr ea32
.o 1 0
	fill_a 0 1
	pop_a 1
.d 1 0
	rtn
.o 2 0
ea32
	push_a 1
	jsr_eval 0
	repl_args 2 2
	jsr_eval 2
	push_r_args 2 3 0
	update_a 4 6
	update_a 2 4
	update_a 0 2
	update_a 3 5
	update_a 1 3
	pop_a 2
.o 5 0
e_Data.Tuple_ssequenceA;31
.o 5 0
s32
	buildh e_Data.Tuple_d\;104;29;57.56 0
	push_a 5
	push_a 5
	push_a 5
	push_a 5
	push_a 5
	push_a 5
	update_a 5 6
	update_a 4 5
	update_a 0 4
	pop_a 1
	update_a 5 10
	update_a 4 9
	update_a 3 8
	update_a 2 7
	update_a 1 6
	updatepop_a 0 5
.d 6 0
	jmp s33
.export e_Data.Tuple_d\;104;29;57.56
.desc e_Data.Tuple_d\;104;29;57.56 _hnf l56 1 0 "\;104;29;57.56"
.o 2 0
l56
	pop_a 1
.o 1 0
ea56
	jsr_eval 0
.o 1 0
s56
.d 1 0
	rtn
.export e_Data.Tuple_smapM;29
.descexp e_Data.Tuple_dmapM;29 e_Data.Tuple_nmapM;29 e_Data.Tuple_lmapM;29 3 0 "mapM;29"
.o 5 0
e_Data.Tuple_imapM;29
	pop_a 1
	push_args 3 2 2
	jsr_eval 4
	update_a 1 5
	update_a 2 1
	update_a 3 2
	update_a 4 3
	update_a 0 4
	pop_a 1
.d 5 0
	jmp s30
.ai 0 ea30 e_Data.Tuple_imapM;29
.o 2 0
e_Data.Tuple_lmapM;29
	repl_args 2 2
.d 3 0
	jmp ea30
.n 3 e_Data.Tuple_dmapM;29 _
.o 1 0
e_Data.Tuple_nmapM;29
	push_node _cycle_in_spine 3
.d 3 0
	jsr ea30
.o 1 0
	fill_a 0 1
	pop_a 1
.d 1 0
	rtn
.o 5 0
e_Data.Tuple_smapM;29
	jsr_eval 2
.d 5 0
	jmp s30
.o 3 0
ea30
	push_a 2
	jsr_eval 0
	repl_args 2 2
	jsr_eval 3
	jsr_eval 2
	push_r_args 2 2 0
	update_a 3 6
	update_a 1 3
	update_a 5 4
	update_a 2 5
	update_a 0 2
	pop_a 2
.o 5 0
s30
	push_r_args 1 3 0
	push_a 7
	push_a 7
	push_a 7
	push_a 5
	update_a 3 6
	update_a 0 3
	update_a 5 0
	update_a 2 5
	update_a 0 2
	update_a 4 0
	update_a 1 4
	update_a 0 1
	pop_a 1
	update_a 5 10
	update_a 4 9
	update_a 3 8
	update_a 2 7
	update_a 1 6
	updatepop_a 0 5
.d 6 0
	jmp s33
.export e_Data.Tuple_straverse;32
.descexp e_Data.Tuple_dtraverse;32 e_Data.Tuple_ntraverse;32 e_Data.Tuple_ltraverse;32 3 0 "traverse;32"
.o 6 0
e_Data.Tuple_itraverse;32
	pop_a 1
	push_args 4 2 2
	jsr_eval 5
	update_a 1 6
	update_a 2 1
	update_a 3 2
	update_a 4 3
	update_a 5 4
	update_a 0 5
	pop_a 1
.d 6 0
	jmp s33
.ai 0 ea33 e_Data.Tuple_itraverse;32
.o 2 0
e_Data.Tuple_ltraverse;32
	repl_args 2 2
.d 3 0
	jmp ea33
.n 3 e_Data.Tuple_dtraverse;32 _
.o 1 0
e_Data.Tuple_ntraverse;32
	push_node _cycle_in_spine 3
.d 3 0
	jsr ea33
.o 1 0
	fill_a 0 1
	pop_a 1
.d 1 0
	rtn
.o 3 0
ea33
	push_a 2
	jsr_eval 0
	repl_args 2 2
	jsr_eval 3
	jsr_eval 2
	push_r_args 2 3 0
	update_a 4 7
	update_a 2 4
	update_a 0 2
	update_a 6 5
	update_a 3 6
	update_a 1 3
	pop_a 2
.o 6 0
e_Data.Tuple_straverse;32
.o 6 0
s33
	push_a 5
	push_a 4
	build e_system_dAP 2 e_system_nAP
	push_a 5
	buildh e_Data.Tuple_dtuple 1
	push_a 2
	update_a 2 8
	update_a 1 7
	updatepop_a 0 6
.d 3 0
	jmp_i 2
.export e_Data.Tuple_sfoldr`;28
.descexp e_Data.Tuple_dfoldr`;28 e_Data.Tuple_nfoldr`;28 e_Data.Tuple_lfoldr`;28 3 0 "foldr`;28"
.o 4 0
e_Data.Tuple_ifoldr`;28
	pop_a 1
	push_args 2 2 2
	update_a 1 4
	update_a 2 1
	update_a 3 2
	update_a 0 3
	pop_a 1
.d 4 0
	jmp s29
.ai 0 ea29 e_Data.Tuple_ifoldr`;28
.o 2 0
e_Data.Tuple_lfoldr`;28
	repl_args 2 2
.d 3 0
	jmp ea29
.n 3 e_Data.Tuple_dfoldr`;28 _
.o 1 0
e_Data.Tuple_nfoldr`;28
	push_node _cycle_in_spine 3
.d 3 0
	jsr ea29
.o 1 0
	fill_a 0 1
	pop_a 1
.d 1 0
	rtn
.o 3 0
ea29
	push_a 2
	jsr_eval 0
	repl_args 2 2
	jsr_eval 3
	update_a 1 4
	update_a 2 1
	update_a 3 2
	update_a 0 3
	pop_a 1
.o 4 0
e_Data.Tuple_sfoldr`;28
.o 4 0
s29
	buildh e_StdFunctions_did 0
	push_a 1
	buildh e_Data.Tuple_df`;50.51 1
	push_a 5
	push_a 5
	push_a 3
	update_a 2 4
	update_a 0 2
	update_a 3 0
	update_a 1 3
	update_a 0 1
	pop_a 1
	update_a 5 7
	update_a 3 6
	update_a 2 5
	update_a 1 4
	updatepop_a 0 3
.d 4 0
	jsr s24
.o 1 0
	push_a 1
	push_a 1
	update_a 1 2
	update_a 0 1
	pop_a 1
	update_a 1 2
	updatepop_a 0 1
	jmp_ap 1
.export e_Data.Tuple_df`;50.51
.desc e_Data.Tuple_df`;50.51 _hnf l51 4 0 "f`;50.51"
.a 0 ea51
.o 2 0
l51
	repl_args 3 3
.o 4 0
ea51
	jsr_eval 1
.o 4 0
s51
	push_a 3
	push_a 3
	push_a 2
	build e_Data.Tuple_d_f16.115 3 e_Data.Tuple_n_f16.115
	push_a 2
	update_a 1 5
	updatepop_a 0 4
	jmp_ap 1
.export e_Data.Tuple_d_f16.115
.export e_Data.Tuple_n_f16.115
.descn e_Data.Tuple_d_f16.115 e_Data.Tuple_n_f16.115 3 0 "_f16.115"
.n 3 e_Data.Tuple_d_f16.115 ea115
.o 1 0
e_Data.Tuple_n_f16.115
	push_node _cycle_in_spine 3
.o 4 0
ea115
.o 4 0
s115
	push_a 2
	push_a 1
	jsr_eval 0
	push_a 3
	push_a 1
	update_a 1 2
	update_a 0 1
	pop_a 1
	update_a 2 5
	update_a 1 4
	updatepop_a 0 3
	jsr_ap 2
	fill_a 0 1
	pop_a 1
.d 1 0
	rtn
.export e_Data.Tuple_sfoldr1;27
.descexp e_Data.Tuple_dfoldr1;27 e_Data.Tuple_nfoldr1;27 e_Data.Tuple_lfoldr1;27 2 0 "foldr1;27"
.o 3 0
e_Data.Tuple_ifoldr1;27
	pop_a 1
	push_args 1 2 2
	jsr_eval 1
	update_a 1 3
	update_a 2 1
	update_a 0 2
	pop_a 1
.d 3 0
	jmp s28
.ai 0 ea28 e_Data.Tuple_ifoldr1;27
.o 2 0
e_Data.Tuple_lfoldr1;27
	repl_args 1 1
.d 2 0
	jmp ea28
.n 2 e_Data.Tuple_dfoldr1;27 _
.o 1 0
e_Data.Tuple_nfoldr1;27
	push_node _cycle_in_spine 2
.d 2 0
	jsr ea28
.o 1 0
	fill_a 0 1
	pop_a 1
.d 1 0
	rtn
.o 3 0
e_Data.Tuple_sfoldr1;27
	jsr_eval 2
.d 3 0
	jmp s28
.o 2 0
ea28
	push_a 1
	jsr_eval 0
	repl_args 2 2
	jsr_eval 1
	jsr_eval 2
	update_a 1 3
	update_a 2 1
	update_a 0 2
	pop_a 1
.o 3 0
s28
	buildh _None 0
	push_a 1
	buildh e_Data.Tuple_dmf;52.53 1
	push_a 4
	push_a 4
	push_a 3
	update_a 2 4
	update_a 0 2
	update_a 3 0
	update_a 1 3
	update_a 0 1
	pop_a 1
	update_a 3 6
	update_a 2 5
	update_a 1 4
	updatepop_a 0 3
.d 4 0
	jsr s27
.o 1 0
	buildAC "foldr1: empty structure"
	buildh ARRAY 1
	build e_StdMisc_dabort 1 e_StdMisc_nabort
.d 2 0
	jmp e_Data.Maybe_sfromMaybe;67
.export e_Data.Tuple_dmf;52.53
.desc e_Data.Tuple_dmf;52.53 _hnf l53 3 0 "mf;52.53"
.a 3 ea53
.o 2 0
l53
	push_args 0 2 2
	update_a 3 2
	create
	update_a 0 4
	pop_a 1
.o 4 0
ea53
	jsr_eval 2
.o 4 0
s53
	eq_desc _None 0 2
	jmp_true case.1
	jmp case.2
case.1
	push_a 1
	jsr_eval 0
	fillh _Just 1 4
	pop_a 3
.d 1 0
	rtn
case.2
	push_args 2 1 1
	buildh _Nil 0
	update_a 0 4
	pop_a 1
	push_a 0
	push_a 2
	jsr_eval 0
	push_a 4
	push_a 1
	update_a 1 2
	update_a 0 1
	pop_a 1
	update_a 2 6
	update_a 1 5
	updatepop_a 0 4
	jsr_ap 2
	fillh _Just 1 1
.d 1 0
	rtn
.export e_Data.Tuple_sfoldl`;25
.descexp e_Data.Tuple_dfoldl`;25 e_Data.Tuple_nfoldl`;25 e_Data.Tuple_lfoldl`;25 3 0 "foldl`;25"
.o 4 0
e_Data.Tuple_ifoldl`;25
	pop_a 1
	push_args 2 2 2
	update_a 1 4
	update_a 2 1
	update_a 3 2
	update_a 0 3
	pop_a 1
.d 4 0
	jmp s26
.ai 0 ea26 e_Data.Tuple_ifoldl`;25
.o 2 0
e_Data.Tuple_lfoldl`;25
	repl_args 2 2
.d 3 0
	jmp ea26
.n 3 e_Data.Tuple_dfoldl`;25 _
.o 1 0
e_Data.Tuple_nfoldl`;25
	push_node _cycle_in_spine 3
.d 3 0
	jsr ea26
.o 1 0
	fill_a 0 1
	pop_a 1
.d 1 0
	rtn
.o 3 0
ea26
	push_a 2
	jsr_eval 0
	repl_args 2 2
	jsr_eval 3
	update_a 1 4
	update_a 2 1
	update_a 3 2
	update_a 0 3
	pop_a 1
.o 4 0
e_Data.Tuple_sfoldl`;25
.o 4 0
s26
	buildh e_StdFunctions_did 0
	push_a 1
	buildh e_Data.Tuple_df`;51.52 1
	push_a 5
	push_a 5
	push_a 3
	update_a 2 4
	update_a 0 2
	update_a 3 0
	update_a 1 3
	update_a 0 1
	pop_a 1
	update_a 5 7
	update_a 3 6
	update_a 2 5
	update_a 1 4
	updatepop_a 0 3
.d 4 0
	jsr s27
.o 1 0
	push_a 1
	push_a 1
	update_a 1 2
	update_a 0 1
	pop_a 1
	update_a 1 2
	updatepop_a 0 1
	jmp_ap 1
.export e_Data.Tuple_df`;51.52
.desc e_Data.Tuple_df`;51.52 _hnf l52 4 0 "f`;51.52"
.a 0 ea52
.o 2 0
l52
	repl_args 3 3
.o 4 0
ea52
	jsr_eval 2
.o 4 0
s52
	push_a 1
	push_a 4
	push_a 2
	build e_Data.Tuple_d_f15.114 3 e_Data.Tuple_n_f15.114
	push_a 3
	update_a 1 5
	updatepop_a 0 4
	jmp_ap 1
.export e_Data.Tuple_d_f15.114
.export e_Data.Tuple_n_f15.114
.descn e_Data.Tuple_d_f15.114 e_Data.Tuple_n_f15.114 3 0 "_f15.114"
.n 3 e_Data.Tuple_d_f15.114 ea114
.o 1 0
e_Data.Tuple_n_f15.114
	push_node _cycle_in_spine 3
.o 4 0
ea114
.o 4 0
s114
	push_a 2
	push_a 1
	jsr_eval 0
	push_a 3
	push_a 1
	update_a 1 2
	update_a 0 1
	pop_a 1
	update_a 2 5
	update_a 1 4
	updatepop_a 0 3
	jsr_ap 2
	fill_a 0 1
	pop_a 1
.d 1 0
	rtn
.export e_Data.Tuple_sfoldr;26
.descexp e_Data.Tuple_dfoldr;26 e_Data.Tuple_nfoldr;26 e_Data.Tuple_lfoldr;26 3 0 "foldr;26"
.o 4 0
e_Data.Tuple_ifoldr;26
	pop_a 1
	push_args 2 2 2
	jsr_eval 2
	update_a 1 4
	update_a 2 1
	update_a 3 2
	update_a 0 3
	pop_a 1
.d 4 0
	jmp s27
.ai 0 ea27 e_Data.Tuple_ifoldr;26
.o 2 0
e_Data.Tuple_lfoldr;26
	repl_args 2 2
.d 3 0
	jmp ea27
.n 3 e_Data.Tuple_dfoldr;26 _
.o 1 0
e_Data.Tuple_nfoldr;26
	push_node _cycle_in_spine 3
.d 3 0
	jsr ea27
.o 1 0
	fill_a 0 1
	pop_a 1
.d 1 0
	rtn
.o 3 0
ea27
	push_a 2
	jsr_eval 0
	repl_args 2 2
	jsr_eval 2
	update_a 1 4
	update_a 2 1
	update_a 3 2
	update_a 0 3
	pop_a 1
.o 4 0
e_Data.Tuple_sfoldr;26
.o 4 0
s27
	push_a 1
	push_a 4
	push_a 2
	update_a 2 6
	update_a 1 5
	updatepop_a 0 4
	jmp_ap 2
.export e_Data.Tuple_sfoldl1;24
.descexp e_Data.Tuple_dfoldl1;24 e_Data.Tuple_nfoldl1;24 e_Data.Tuple_lfoldl1;24 2 0 "foldl1;24"
.o 3 0
e_Data.Tuple_ifoldl1;24
	pop_a 1
	push_args 1 2 2
	update_a 1 3
	update_a 2 1
	update_a 0 2
	pop_a 1
.d 3 0
	jmp s25
.ai 0 ea25 e_Data.Tuple_ifoldl1;24
.o 2 0
e_Data.Tuple_lfoldl1;24
	repl_args 1 1
.d 2 0
	jmp ea25
.n 2 e_Data.Tuple_dfoldl1;24 _
.o 1 0
e_Data.Tuple_nfoldl1;24
	push_node _cycle_in_spine 2
.d 2 0
	jsr ea25
.o 1 0
	fill_a 0 1
	pop_a 1
.d 1 0
	rtn
.o 2 0
ea25
	push_a 1
	jsr_eval 0
	repl_args 2 2
	jsr_eval 2
	update_a 1 3
	update_a 2 1
	update_a 0 2
	pop_a 1
.o 3 0
e_Data.Tuple_sfoldl1;24
.o 3 0
s25
	buildh _None 0
	push_a 1
	buildh e_Data.Tuple_dmf;53.54 1
	push_a 4
	push_a 4
	push_a 3
	update_a 2 4
	update_a 0 2
	update_a 3 0
	update_a 1 3
	update_a 0 1
	pop_a 1
	update_a 3 6
	update_a 2 5
	update_a 1 4
	updatepop_a 0 3
.d 4 0
	jsr s24
.o 1 0
	buildAC "foldl1: empty structure"
	buildh ARRAY 1
	build e_StdMisc_dabort 1 e_StdMisc_nabort
.d 2 0
	jmp e_Data.Maybe_sfromMaybe;67
.export e_Data.Tuple_dmf;53.54
.desc e_Data.Tuple_dmf;53.54 _hnf l54 3 0 "mf;53.54"
.a 3 ea54
.o 2 0
l54
	push_args 0 2 2
	update_a 3 2
	create
	update_a 0 4
	pop_a 1
.o 4 0
ea54
	jsr_eval 1
.o 4 0
s54
	eq_desc _None 0 1
	jmp_true case.3
	jmp case.4
case.3
	push_a 2
	jsr_eval 0
	fillh _Just 1 4
	pop_a 3
.d 1 0
	rtn
case.4
	push_args 1 1 1
	buildh _Nil 0
	update_a 0 3
	pop_a 1
	push_a 3
	push_a 2
	jsr_eval 0
	push_a 2
	push_a 1
	update_a 1 2
	update_a 0 1
	pop_a 1
	update_a 2 6
	update_a 1 5
	updatepop_a 0 4
	jsr_ap 2
	fillh _Just 1 1
.d 1 0
	rtn
.export e_Data.Tuple_sfoldl;23
.descexp e_Data.Tuple_dfoldl;23 e_Data.Tuple_nfoldl;23 e_Data.Tuple_lfoldl;23 3 0 "foldl;23"
.o 4 0
e_Data.Tuple_ifoldl;23
	pop_a 1
	push_args 2 2 2
	update_a 1 4
	update_a 2 1
	update_a 3 2
	update_a 0 3
	pop_a 1
.d 4 0
	jmp s24
.ai 0 ea24 e_Data.Tuple_ifoldl;23
.o 2 0
e_Data.Tuple_lfoldl;23
	repl_args 2 2
.d 3 0
	jmp ea24
.n 3 e_Data.Tuple_dfoldl;23 _
.o 1 0
e_Data.Tuple_nfoldl;23
	push_node _cycle_in_spine 3
.d 3 0
	jsr ea24
.o 1 0
	fill_a 0 1
	pop_a 1
.d 1 0
	rtn
.o 3 0
ea24
	push_a 2
	jsr_eval 0
	repl_args 2 2
	update_a 1 4
	update_a 2 1
	update_a 3 2
	update_a 0 3
	pop_a 1
.o 4 0
e_Data.Tuple_sfoldl;23
.o 4 0
s24
	buildh e_Data.Monoid_dEndo 0
	buildh e_Data.Monoid_dDual 0
	push_a 2
	push_a 2
	update_a 1 3
	update_a 2 1
	update_a 0 2
	pop_a 1
	buildh e_Data.Tuple_d\;15;13;116.66 3
	buildh e_Data.Monoid_dmappend;11 0
	buildhr e_Data.Monoid_rSemigroup; 1 0
	buildh e_Data.Monoid_dmappend;10 1
	build e_Data.Monoid_dmempty;19 0 e_Data.Monoid_nmempty;19
	build e_Data.Tuple_d_f0.99 1 e_Data.Tuple_n_f0.99
	push_a 6
	push_a 6
	push_a 4
	update_a 2 5
	update_a 4 2
	update_a 1 4
	update_a 3 1
	update_a 0 3
	pop_a 1
	update_a 6 8
	update_a 4 7
	update_a 3 6
	update_a 2 5
	update_a 1 4
	updatepop_a 0 3
.d 5 0
	jsr s23
.o 1 0
.d 1 0
	jsr e_Data.Monoid_sgetDual
.o 1 0
	create
	push_a 1
	update_a 1 2
	update_a 0 1
	pop_a 1
.d 2 0
	jsr e_Data.Monoid_sappEndo
.o 1 0
	push_a 1
	push_a 1
	update_a 1 2
	update_a 0 1
	pop_a 1
	update_a 1 2
	updatepop_a 0 1
	jmp_ap 1
.export e_Data.Tuple_d_f0.99
.export e_Data.Tuple_n_f0.99
.descn e_Data.Tuple_d_f0.99 e_Data.Tuple_n_f0.99 1 0 "_f0.99"
.n 1 e_Data.Tuple_d_f0.99 ea99
.o 1 0
e_Data.Tuple_n_f0.99
	push_node _cycle_in_spine 1
.o 2 0
ea99
.o 2 0
s99
	buildh e_Data.Monoid_dmappend;11 0
	push_a 1
	update_a 1 2
	updatepop_a 0 1
.d 3 0
	jmp e_Data.Monoid_smempty;18
.export e_Data.Tuple_d\;15;13;116.66
.desc e_Data.Tuple_d\;15;13;116.66 _hnf l66 4 0 "\;15;13;116.66"
.a 0 ea66
.o 2 0
l66
	repl_args 3 3
.o 4 0
ea66
.o 4 0
s66
	push_a 3
	push_a 3
	push_a 3
	build e_Data.Tuple_d\;15;13;115.65 3 e_Data.Tuple_n\;15;13;115.65
	push_a 1
	update_a 1 5
	updatepop_a 0 4
	jmp_ap 1
.export e_Data.Tuple_d\;15;13;115.65
.export e_Data.Tuple_n\;15;13;115.65
.descn e_Data.Tuple_d\;15;13;115.65 e_Data.Tuple_n\;15;13;115.65 3 0 "\;15;13;115.65"
.n 3 e_Data.Tuple_d\;15;13;115.65 _
.o 1 0
e_Data.Tuple_n\;15;13;115.65
	push_node _cycle_in_spine 3
.d 3 0
	jsr ea65
.o 1 0
	fill_a 0 1
	pop_a 1
.d 1 0
	rtn
.o 3 0
ea65
	jsr_eval 0
.o 3 0
s65
	push_a 2
	push_a 2
	buildh e_Data.Tuple_dflip;54.55 2
	push_a 1
	update_a 1 4
	updatepop_a 0 3
	jmp_ap 1
.export e_Data.Tuple_dflip;54.55
.desc e_Data.Tuple_dflip;54.55 _hnf l55 3 0 "flip;54.55"
.a 0 ea55
.o 2 0
l55
	repl_args 2 2
.o 3 0
ea55
	jsr_eval 0
.o 3 0
s55
	push_a 1
	push_a 3
	push_a 2
	update_a 2 5
	update_a 1 4
	updatepop_a 0 3
	jmp_ap 2
.export e_Data.Tuple_sfold;21
.descexp e_Data.Tuple_dfold;21 e_Data.Tuple_nfold;21 e_Data.Tuple_lfold;21 2 0 "fold;21"
.o 4 0
e_Data.Tuple_ifold;21
	pop_a 1
	push_args 2 2 2
	update_a 1 4
	update_a 2 1
	update_a 3 2
	update_a 0 3
	pop_a 1
.d 4 0
	jmp s22
.ai 0 ea22 e_Data.Tuple_ifold;21
.o 2 0
e_Data.Tuple_lfold;21
	repl_args 1 1
.d 2 0
	jmp ea22
.n 2 e_Data.Tuple_dfold;21 _
.o 1 0
e_Data.Tuple_nfold;21
	push_node _cycle_in_spine 2
.d 2 0
	jsr ea22
.o 1 0
	fill_a 0 1
	pop_a 1
.d 1 0
	rtn
.o 2 0
ea22
	push_a 1
	jsr_eval 0
	repl_args 2 2
	jsr_eval 2
	push_r_args 2 2 0
	update_a 3 5
	update_a 1 3
	update_a 2 4
	update_a 0 2
	pop_a 2
.o 4 0
e_Data.Tuple_sfold;21
.o 4 0
s22
	buildh e_StdFunctions_did 0
	push_a 4
	push_a 4
	push_a 4
	push_a 4
	push_a 4
	update_a 4 5
	update_a 3 4
	update_a 0 3
	pop_a 1
	update_a 4 8
	update_a 3 7
	update_a 2 6
	update_a 1 5
	updatepop_a 0 4
.d 5 0
	jmp s23
.export e_Data.Tuple_sfoldMap;22
.descexp e_Data.Tuple_dfoldMap;22 e_Data.Tuple_nfoldMap;22 e_Data.Tuple_lfoldMap;22 3 0 "foldMap;22"
.o 5 0
e_Data.Tuple_ifoldMap;22
	pop_a 1
	push_args 3 2 2
	jsr_eval 4
	update_a 1 5
	update_a 2 1
	update_a 3 2
	update_a 4 3
	update_a 0 4
	pop_a 1
.d 5 0
	jmp s23
.ai 0 ea23 e_Data.Tuple_ifoldMap;22
.o 2 0
e_Data.Tuple_lfoldMap;22
	repl_args 2 2
.d 3 0
	jmp ea23
.n 3 e_Data.Tuple_dfoldMap;22 _
.o 1 0
e_Data.Tuple_nfoldMap;22
	push_node _cycle_in_spine 3
.d 3 0
	jsr ea23
.o 1 0
	fill_a 0 1
	pop_a 1
.d 1 0
	rtn
.o 3 0
ea23
	push_a 2
	jsr_eval 0
	repl_args 2 2
	jsr_eval 3
	jsr_eval 2
	push_r_args 2 2 0
	update_a 3 6
	update_a 1 3
	update_a 5 4
	update_a 2 5
	update_a 0 2
	pop_a 2
.o 5 0
e_Data.Tuple_sfoldMap;22
.o 5 0
s23
	push_a 4
	push_a 3
	update_a 1 6
	updatepop_a 0 5
	jmp_ap 1
.export e_Data.Tuple_smempty;20
.descexp e_Data.Tuple_dmempty;20 e_Data.Tuple_nmempty;20 e_Data.Tuple_lmempty;20 5 0 "mempty;20"
.o 1 0
e_Data.Tuple_imempty;20
	repl_args 5 5
	jsr_eval 4
	push_r_args 4 2 0
	jsr_eval 5
	push_r_args 5 2 0
	jsr_eval 6
	push_r_args 6 2 0
	jsr_eval 7
	push_r_args 7 2 0
	jsr_eval 8
	push_r_args 8 2 0
	update_a 9 14
	update_a 4 9
	update_a 8 13
	update_a 3 8
	update_a 7 12
	update_a 2 7
	update_a 6 11
	update_a 1 6
	update_a 5 10
	update_a 0 5
	pop_a 5
.d 10 0
	jsr s21
.o 5 0
	push_a 4
	push_a 4
	push_a 4
	push_a 4
	push_a 4
	buildh _Tuple 5
	updatepop_a 0 5
.d 1 0
	rtn
.ai 0 a21 e_Data.Tuple_imempty;20
.o 2 0
e_Data.Tuple_lmempty;20
	repl_args 4 4
.o 5 0
a21
.d 5 0
	jsr ea21
.o 5 0
	push_a 4
	push_a 4
	push_a 4
	push_a 4
	push_a 4
	buildh _Tuple 5
	updatepop_a 0 5
.d 1 0
	rtn
.n 5 e_Data.Tuple_dmempty;20
.o 1 0
e_Data.Tuple_nmempty;20
	push_node _cycle_in_spine 5
.d 5 0
	jsr ea21
.o 5 0
	push_a 4
	push_a 4
	push_a 4
	push_a 4
	push_a 4
	fillh _Tuple 5 10
	pop_a 5
.d 1 0
	rtn
.o 5 0
ea21
	jsr_eval 4
	jsr_eval 3
	jsr_eval 2
	jsr_eval 1
	jsr_eval 0
	push_r_args 4 2 0
	push_r_args 5 2 0
	push_r_args 6 2 0
	push_r_args 7 2 0
	push_r_args 8 2 0
	update_a 9 14
	update_a 4 9
	update_a 8 13
	update_a 3 8
	update_a 7 12
	update_a 2 7
	update_a 6 11
	update_a 1 6
	update_a 5 10
	update_a 0 5
	pop_a 5
.o 10 0
e_Data.Tuple_smempty;20
.o 10 0
s21
	push_a 8
	push_a 7
	push_a 6
	push_a 5
	push_a 4
	update_a 4 14
	update_a 3 13
	update_a 2 12
	update_a 1 11
	updatepop_a 0 10
.d 5 0
	rtn
.export e_Data.Tuple_smempty;19
.descexp e_Data.Tuple_dmempty;19 e_Data.Tuple_nmempty;19 e_Data.Tuple_lmempty;19 4 0 "mempty;19"
.o 1 0
e_Data.Tuple_imempty;19
	repl_args 4 4
	jsr_eval 3
	push_r_args 3 2 0
	jsr_eval 4
	push_r_args 4 2 0
	jsr_eval 5
	push_r_args 5 2 0
	jsr_eval 6
	push_r_args 6 2 0
	update_a 7 11
	update_a 3 7
	update_a 6 10
	update_a 2 6
	update_a 5 9
	update_a 1 5
	update_a 4 8
	update_a 0 4
	pop_a 4
.d 8 0
	jsr s20
.o 4 0
	push_a 3
	push_a 3
	push_a 3
	push_a 3
	buildh _Tuple 4
	updatepop_a 0 4
.d 1 0
	rtn
.ai 0 a20 e_Data.Tuple_imempty;19
.o 2 0
e_Data.Tuple_lmempty;19
	repl_args 3 3
.o 4 0
a20
.d 4 0
	jsr ea20
.o 4 0
	push_a 3
	push_a 3
	push_a 3
	push_a 3
	buildh _Tuple 4
	updatepop_a 0 4
.d 1 0
	rtn
.n 4 e_Data.Tuple_dmempty;19
.o 1 0
e_Data.Tuple_nmempty;19
	push_node _cycle_in_spine 4
.d 4 0
	jsr ea20
.o 4 0
	push_a 3
	push_a 3
	push_a 3
	push_a 3
	fillh _Tuple 4 8
	pop_a 4
.d 1 0
	rtn
.o 4 0
ea20
	jsr_eval 3
	jsr_eval 2
	jsr_eval 1
	jsr_eval 0
	push_r_args 3 2 0
	push_r_args 4 2 0
	push_r_args 5 2 0
	push_r_args 6 2 0
	update_a 7 11
	update_a 3 7
	update_a 6 10
	update_a 2 6
	update_a 5 9
	update_a 1 5
	update_a 4 8
	update_a 0 4
	pop_a 4
.o 8 0
e_Data.Tuple_smempty;19
.o 8 0
s20
	push_a 6
	push_a 5
	push_a 4
	push_a 3
	update_a 3 11
	update_a 2 10
	update_a 1 9
	updatepop_a 0 8
.d 4 0
	rtn
.export e_Data.Tuple_smempty;18
.descexp e_Data.Tuple_dmempty;18 e_Data.Tuple_nmempty;18 e_Data.Tuple_lmempty;18 3 0 "mempty;18"
.o 1 0
e_Data.Tuple_imempty;18
	repl_args 3 3
	jsr_eval 2
	push_r_args 2 2 0
	jsr_eval 3
	push_r_args 3 2 0
	jsr_eval 4
	push_r_args 4 2 0
	update_a 5 8
	update_a 2 5
	update_a 4 7
	update_a 1 4
	update_a 3 6
	update_a 0 3
	pop_a 3
.d 6 0
	jsr s19
.o 3 0
	push_a 2
	push_a 2
	push_a 2
	buildh _Tuple 3
	updatepop_a 0 3
.d 1 0
	rtn
.ai 0 a19 e_Data.Tuple_imempty;18
.o 2 0
e_Data.Tuple_lmempty;18
	repl_args 2 2
.o 3 0
a19
.d 3 0
	jsr ea19
.o 3 0
	push_a 2
	push_a 2
	push_a 2
	buildh _Tuple 3
	updatepop_a 0 3
.d 1 0
	rtn
.n 3 e_Data.Tuple_dmempty;18
.o 1 0
e_Data.Tuple_nmempty;18
	push_node _cycle_in_spine 3
.d 3 0
	jsr ea19
.o 3 0
	push_a 2
	push_a 2
	push_a 2
	fillh _Tuple 3 6
	pop_a 3
.d 1 0
	rtn
.o 3 0
ea19
	jsr_eval 2
	jsr_eval 1
	jsr_eval 0
	push_r_args 2 2 0
	push_r_args 3 2 0
	push_r_args 4 2 0
	update_a 5 8
	update_a 2 5
	update_a 4 7
	update_a 1 4
	update_a 3 6
	update_a 0 3
	pop_a 3
.o 6 0
e_Data.Tuple_smempty;18
.o 6 0
s19
	push_a 4
	push_a 3
	push_a 2
	update_a 2 8
	update_a 1 7
	updatepop_a 0 6
.d 3 0
	rtn
.export e_Data.Tuple_smempty;17
.descexp e_Data.Tuple_dmempty;17 e_Data.Tuple_nmempty;17 e_Data.Tuple_lmempty;17 2 0 "mempty;17"
.o 1 0
e_Data.Tuple_imempty;17
	repl_args 2 2
	jsr_eval 1
	push_r_args 1 2 0
	jsr_eval 2
	push_r_args 2 2 0
	update_a 3 5
	update_a 1 3
	update_a 2 4
	update_a 0 2
	pop_a 2
.d 4 0
	jsr s18
.o 2 0
	push_a 1
	push_a 1
	buildh _Tuple 2
	updatepop_a 0 2
.d 1 0
	rtn
.ai 0 a18 e_Data.Tuple_imempty;17
.o 2 0
e_Data.Tuple_lmempty;17
	repl_args 1 1
.o 2 0
a18
.d 2 0
	jsr ea18
.o 2 0
	push_a 1
	push_a 1
	buildh _Tuple 2
	updatepop_a 0 2
.d 1 0
	rtn
.n 2 e_Data.Tuple_dmempty;17
.o 1 0
e_Data.Tuple_nmempty;17
	push_node _cycle_in_spine 2
.d 2 0
	jsr ea18
.o 2 0
	push_a 1
	push_a 1
	fillh _Tuple 2 4
	pop_a 2
.d 1 0
	rtn
.o 2 0
ea18
	jsr_eval 1
	jsr_eval 0
	push_r_args 1 2 0
	push_r_args 2 2 0
	update_a 3 5
	update_a 1 3
	update_a 2 4
	update_a 0 2
	pop_a 2
.o 4 0
e_Data.Tuple_smempty;17
.o 4 0
s18
	push_a 2
	push_a 1
	update_a 1 5
	updatepop_a 0 4
.d 2 0
	rtn
.export e_Data.Tuple_smappend;16
.descexp e_Data.Tuple_dmappend;16 e_Data.Tuple_nmappend;16 e_Data.Tuple_lmappend;16 7 0 "mappend;16"
.o 3 0
e_Data.Tuple_imappend;16
	repl_args 5 5
	jsr_eval 6
	push_args 6 5 5
	push_args 10 5 5
	jsr_eval 14
	push_r_args 14 1 0
	jsr_eval 14
	push_r_args 14 1 0
	jsr_eval 14
	push_r_args 14 1 0
	jsr_eval 14
	push_r_args 14 1 0
	jsr_eval 14
	push_r_args 14 1 0
	update_a 14 21
	update_a 7 14
	update_a 0 7
	update_a 13 20
	update_a 6 13
	update_a 12 19
	update_a 5 12
	update_a 11 18
	update_a 4 11
	update_a 10 17
	update_a 3 10
	update_a 9 16
	update_a 2 9
	update_a 8 15
	update_a 1 8
	pop_a 7
.d 15 0
	jsr s17
.o 5 0
	push_a 4
	push_a 4
	push_a 4
	push_a 4
	push_a 4
	buildh _Tuple 5
	updatepop_a 0 5
.d 1 0
	rtn
.ai 0 a17 e_Data.Tuple_imappend;16
.o 2 0
e_Data.Tuple_lmappend;16
	repl_args 6 6
.o 7 0
a17
.d 7 0
	jsr ea17
.o 5 0
	push_a 4
	push_a 4
	push_a 4
	push_a 4
	push_a 4
	buildh _Tuple 5
	updatepop_a 0 5
.d 1 0
	rtn
.n 7 e_Data.Tuple_dmappend;16
.o 1 0
e_Data.Tuple_nmappend;16
	push_node _cycle_in_spine 7
.d 7 0
	jsr ea17
.o 5 0
	push_a 4
	push_a 4
	push_a 4
	push_a 4
	push_a 4
	fillh _Tuple 5 10
	pop_a 5
.d 1 0
	rtn
.o 7 0
ea17
	push_a 6
	jsr_eval 0
	repl_args 5 5
	push_a 10
	jsr_eval 0
	repl_args 5 5
	jsr_eval 14
	jsr_eval 13
	jsr_eval 12
	jsr_eval 11
	jsr_eval 10
	push_r_args 14 1 0
	push_r_args 14 1 0
	push_r_args 14 1 0
	push_r_args 14 1 0
	push_r_args 14 1 0
	update_a 14 21
	update_a 7 14
	update_a 0 7
	update_a 13 20
	update_a 6 13
	update_a 12 19
	update_a 5 12
	update_a 11 18
	update_a 4 11
	update_a 10 17
	update_a 3 10
	update_a 9 16
	update_a 2 9
	update_a 8 15
	update_a 1 8
	pop_a 7
.o 15 0
e_Data.Tuple_smappend;16
.o 15 0
s17
	push_a 4
	push_a 15
	push_a 11
	push_a 2
	update_a 2 3
	update_a 1 2
	update_a 0 1
	pop_a 1
	build e_Data.Tuple_d_f5.104 3 e_Data.Tuple_n_f5.104
	push_a 4
	push_a 15
	push_a 11
	push_a 2
	update_a 2 3
	update_a 1 2
	update_a 0 1
	pop_a 1
	build e_Data.Tuple_d_f4.103 3 e_Data.Tuple_n_f4.103
	push_a 4
	push_a 15
	push_a 11
	push_a 2
	update_a 2 3
	update_a 1 2
	update_a 0 1
	pop_a 1
	build e_Data.Tuple_d_f3.102 3 e_Data.Tuple_n_f3.102
	push_a 4
	push_a 15
	push_a 11
	push_a 2
	update_a 2 3
	update_a 1 2
	update_a 0 1
	pop_a 1
	build e_Data.Tuple_d_f2.101 3 e_Data.Tuple_n_f2.101
	push_a 4
	push_a 15
	push_a 11
	push_a 2
	update_a 2 3
	update_a 1 2
	update_a 0 1
	pop_a 1
	build e_Data.Tuple_d_f1.100 3 e_Data.Tuple_n_f1.100
	update_a 4 19
	update_a 3 18
	update_a 2 17
	update_a 1 16
	updatepop_a 0 15
.d 5 0
	rtn
.export e_Data.Tuple_d_f5.104
.export e_Data.Tuple_n_f5.104
.descn e_Data.Tuple_d_f5.104 e_Data.Tuple_n_f5.104 3 0 "_f5.104"
.n 3 e_Data.Tuple_d_f5.104 ea104
.o 1 0
e_Data.Tuple_n_f5.104
	push_node _cycle_in_spine 3
.o 4 0
ea104
.o 4 0
s104
	push_a 2
	push_a 2
	jsr_eval 0
	push_a 2
	jsr_eval 0
	update_a 2 5
	update_a 1 4
	updatepop_a 0 3
.d 3 0
	jsr_i 2
.o 1 0
	fill_a 0 1
	pop_a 1
.d 1 0
	rtn
.export e_Data.Tuple_d_f4.103
.export e_Data.Tuple_n_f4.103
.descn e_Data.Tuple_d_f4.103 e_Data.Tuple_n_f4.103 3 0 "_f4.103"
.n 3 e_Data.Tuple_d_f4.103 ea103
.o 1 0
e_Data.Tuple_n_f4.103
	push_node _cycle_in_spine 3
.o 4 0
ea103
.o 4 0
s103
	push_a 2
	push_a 2
	jsr_eval 0
	push_a 2
	jsr_eval 0
	update_a 2 5
	update_a 1 4
	updatepop_a 0 3
.d 3 0
	jsr_i 2
.o 1 0
	fill_a 0 1
	pop_a 1
.d 1 0
	rtn
.export e_Data.Tuple_d_f3.102
.export e_Data.Tuple_n_f3.102
.descn e_Data.Tuple_d_f3.102 e_Data.Tuple_n_f3.102 3 0 "_f3.102"
.n 3 e_Data.Tuple_d_f3.102 ea102
.o 1 0
e_Data.Tuple_n_f3.102
	push_node _cycle_in_spine 3
.o 4 0
ea102
.o 4 0
s102
	push_a 2
	push_a 2
	jsr_eval 0
	push_a 2
	jsr_eval 0
	update_a 2 5
	update_a 1 4
	updatepop_a 0 3
.d 3 0
	jsr_i 2
.o 1 0
	fill_a 0 1
	pop_a 1
.d 1 0
	rtn
.export e_Data.Tuple_d_f2.101
.export e_Data.Tuple_n_f2.101
.descn e_Data.Tuple_d_f2.101 e_Data.Tuple_n_f2.101 3 0 "_f2.101"
.n 3 e_Data.Tuple_d_f2.101 ea101
.o 1 0
e_Data.Tuple_n_f2.101
	push_node _cycle_in_spine 3
.o 4 0
ea101
.o 4 0
s101
	push_a 2
	push_a 2
	jsr_eval 0
	push_a 2
	jsr_eval 0
	update_a 2 5
	update_a 1 4
	updatepop_a 0 3
.d 3 0
	jsr_i 2
.o 1 0
	fill_a 0 1
	pop_a 1
.d 1 0
	rtn
.export e_Data.Tuple_d_f1.100
.export e_Data.Tuple_n_f1.100
.descn e_Data.Tuple_d_f1.100 e_Data.Tuple_n_f1.100 3 0 "_f1.100"
.n 3 e_Data.Tuple_d_f1.100 ea100
.o 1 0
e_Data.Tuple_n_f1.100
	push_node _cycle_in_spine 3
.o 4 0
ea100
.o 4 0
s100
	push_a 2
	push_a 2
	jsr_eval 0
	push_a 2
	jsr_eval 0
	update_a 2 5
	update_a 1 4
	updatepop_a 0 3
.d 3 0
	jsr_i 2
.o 1 0
	fill_a 0 1
	pop_a 1
.d 1 0
	rtn
.export e_Data.Tuple_smappend;15
.descexp e_Data.Tuple_dmappend;15 e_Data.Tuple_nmappend;15 e_Data.Tuple_lmappend;15 6 0 "mappend;15"
.o 3 0
e_Data.Tuple_imappend;15
	repl_args 4 4
	jsr_eval 5
	push_args 5 4 4
	push_args 8 4 4
	jsr_eval 11
	push_r_args 11 1 0
	jsr_eval 11
	push_r_args 11 1 0
	jsr_eval 11
	push_r_args 11 1 0
	jsr_eval 11
	push_r_args 11 1 0
	update_a 11 17
	update_a 5 11
	update_a 10 16
	update_a 4 10
	update_a 9 15
	update_a 3 9
	update_a 8 14
	update_a 2 8
	update_a 7 13
	update_a 1 7
	update_a 6 12
	update_a 0 6
	pop_a 6
.d 12 0
	jsr s16
.o 4 0
	push_a 3
	push_a 3
	push_a 3
	push_a 3
	buildh _Tuple 4
	updatepop_a 0 4
.d 1 0
	rtn
.ai 0 a16 e_Data.Tuple_imappend;15
.o 2 0
e_Data.Tuple_lmappend;15
	repl_args 5 5
.o 6 0
a16
.d 6 0
	jsr ea16
.o 4 0
	push_a 3
	push_a 3
	push_a 3
	push_a 3
	buildh _Tuple 4
	updatepop_a 0 4
.d 1 0
	rtn
.n 6 e_Data.Tuple_dmappend;15
.o 1 0
e_Data.Tuple_nmappend;15
	push_node _cycle_in_spine 6
.d 6 0
	jsr ea16
.o 4 0
	push_a 3
	push_a 3
	push_a 3
	push_a 3
	fillh _Tuple 4 8
	pop_a 4
.d 1 0
	rtn
.o 6 0
ea16
	push_a 5
	jsr_eval 0
	repl_args 4 4
	push_a 8
	jsr_eval 0
	repl_args 4 4
	jsr_eval 11
	jsr_eval 10
	jsr_eval 9
	jsr_eval 8
	push_r_args 11 1 0
	push_r_args 11 1 0
	push_r_args 11 1 0
	push_r_args 11 1 0
	update_a 11 17
	update_a 5 11
	update_a 10 16
	update_a 4 10
	update_a 9 15
	update_a 3 9
	update_a 8 14
	update_a 2 8
	update_a 7 13
	update_a 1 7
	update_a 6 12
	update_a 0 6
	pop_a 6
.o 12 0
e_Data.Tuple_smappend;15
.o 12 0
s16
	push_a 3
	push_a 12
	push_a 9
	push_a 2
	update_a 2 3
	update_a 1 2
	update_a 0 1
	pop_a 1
	build e_Data.Tuple_d_f9.108 3 e_Data.Tuple_n_f9.108
	push_a 3
	push_a 12
	push_a 9
	push_a 2
	update_a 2 3
	update_a 1 2
	update_a 0 1
	pop_a 1
	build e_Data.Tuple_d_f8.107 3 e_Data.Tuple_n_f8.107
	push_a 3
	push_a 12
	push_a 9
	push_a 2
	update_a 2 3
	update_a 1 2
	update_a 0 1
	pop_a 1
	build e_Data.Tuple_d_f7.106 3 e_Data.Tuple_n_f7.106
	push_a 3
	push_a 12
	push_a 9
	push_a 2
	update_a 2 3
	update_a 1 2
	update_a 0 1
	pop_a 1
	build e_Data.Tuple_d_f6.105 3 e_Data.Tuple_n_f6.105
	update_a 3 15
	update_a 2 14
	update_a 1 13
	updatepop_a 0 12
.d 4 0
	rtn
.export e_Data.Tuple_d_f9.108
.export e_Data.Tuple_n_f9.108
.descn e_Data.Tuple_d_f9.108 e_Data.Tuple_n_f9.108 3 0 "_f9.108"
.n 3 e_Data.Tuple_d_f9.108 ea108
.o 1 0
e_Data.Tuple_n_f9.108
	push_node _cycle_in_spine 3
.o 4 0
ea108
.o 4 0
s108
	push_a 2
	push_a 2
	jsr_eval 0
	push_a 2
	jsr_eval 0
	update_a 2 5
	update_a 1 4
	updatepop_a 0 3
.d 3 0
	jsr_i 2
.o 1 0
	fill_a 0 1
	pop_a 1
.d 1 0
	rtn
.export e_Data.Tuple_d_f8.107
.export e_Data.Tuple_n_f8.107
.descn e_Data.Tuple_d_f8.107 e_Data.Tuple_n_f8.107 3 0 "_f8.107"
.n 3 e_Data.Tuple_d_f8.107 ea107
.o 1 0
e_Data.Tuple_n_f8.107
	push_node _cycle_in_spine 3
.o 4 0
ea107
.o 4 0
s107
	push_a 2
	push_a 2
	jsr_eval 0
	push_a 2
	jsr_eval 0
	update_a 2 5
	update_a 1 4
	updatepop_a 0 3
.d 3 0
	jsr_i 2
.o 1 0
	fill_a 0 1
	pop_a 1
.d 1 0
	rtn
.export e_Data.Tuple_d_f7.106
.export e_Data.Tuple_n_f7.106
.descn e_Data.Tuple_d_f7.106 e_Data.Tuple_n_f7.106 3 0 "_f7.106"
.n 3 e_Data.Tuple_d_f7.106 ea106
.o 1 0
e_Data.Tuple_n_f7.106
	push_node _cycle_in_spine 3
.o 4 0
ea106
.o 4 0
s106
	push_a 2
	push_a 2
	jsr_eval 0
	push_a 2
	jsr_eval 0
	update_a 2 5
	update_a 1 4
	updatepop_a 0 3
.d 3 0
	jsr_i 2
.o 1 0
	fill_a 0 1
	pop_a 1
.d 1 0
	rtn
.export e_Data.Tuple_d_f6.105
.export e_Data.Tuple_n_f6.105
.descn e_Data.Tuple_d_f6.105 e_Data.Tuple_n_f6.105 3 0 "_f6.105"
.n 3 e_Data.Tuple_d_f6.105 ea105
.o 1 0
e_Data.Tuple_n_f6.105
	push_node _cycle_in_spine 3
.o 4 0
ea105
.o 4 0
s105
	push_a 2
	push_a 2
	jsr_eval 0
	push_a 2
	jsr_eval 0
	update_a 2 5
	update_a 1 4
	updatepop_a 0 3
.d 3 0
	jsr_i 2
.o 1 0
	fill_a 0 1
	pop_a 1
.d 1 0
	rtn
.export e_Data.Tuple_smappend;14
.descexp e_Data.Tuple_dmappend;14 e_Data.Tuple_nmappend;14 e_Data.Tuple_lmappend;14 5 0 "mappend;14"
.o 3 0
e_Data.Tuple_imappend;14
	repl_args 3 3
	jsr_eval 4
	push_args 4 3 3
	push_args 6 3 3
	jsr_eval 8
	push_r_args 8 1 0
	jsr_eval 8
	push_r_args 8 1 0
	jsr_eval 8
	push_r_args 8 1 0
	update_a 8 13
	update_a 3 8
	update_a 7 12
	update_a 2 7
	update_a 6 11
	update_a 1 6
	update_a 5 10
	update_a 0 5
	update_a 4 9
	pop_a 5
.d 9 0
	jsr s15
.o 3 0
	push_a 2
	push_a 2
	push_a 2
	buildh _Tuple 3
	updatepop_a 0 3
.d 1 0
	rtn
.ai 0 a15 e_Data.Tuple_imappend;14
.o 2 0
e_Data.Tuple_lmappend;14
	repl_args 4 4
.o 5 0
a15
.d 5 0
	jsr ea15
.o 3 0
	push_a 2
	push_a 2
	push_a 2
	buildh _Tuple 3
	updatepop_a 0 3
.d 1 0
	rtn
.n 5 e_Data.Tuple_dmappend;14
.o 1 0
e_Data.Tuple_nmappend;14
	push_node _cycle_in_spine 5
.d 5 0
	jsr ea15
.o 3 0
	push_a 2
	push_a 2
	push_a 2
	fillh _Tuple 3 6
	pop_a 3
.d 1 0
	rtn
.o 5 0
ea15
	push_a 4
	jsr_eval 0
	repl_args 3 3
	push_a 6
	jsr_eval 0
	repl_args 3 3
	jsr_eval 8
	jsr_eval 7
	jsr_eval 6
	push_r_args 8 1 0
	push_r_args 8 1 0
	push_r_args 8 1 0
	update_a 8 13
	update_a 3 8
	update_a 7 12
	update_a 2 7
	update_a 6 11
	update_a 1 6
	update_a 5 10
	update_a 0 5
	update_a 4 9
	pop_a 5
.o 9 0
e_Data.Tuple_smappend;14
.o 9 0
s15
	push_a 2
	push_a 9
	push_a 7
	push_a 2
	update_a 2 3
	update_a 1 2
	update_a 0 1
	pop_a 1
	build e_Data.Tuple_d_f12.111 3 e_Data.Tuple_n_f12.111
	push_a 2
	push_a 9
	push_a 7
	push_a 2
	update_a 2 3
	update_a 1 2
	update_a 0 1
	pop_a 1
	build e_Data.Tuple_d_f11.110 3 e_Data.Tuple_n_f11.110
	push_a 2
	push_a 9
	push_a 7
	push_a 2
	update_a 2 3
	update_a 1 2
	update_a 0 1
	pop_a 1
	build e_Data.Tuple_d_f10.109 3 e_Data.Tuple_n_f10.109
	update_a 2 11
	update_a 1 10
	updatepop_a 0 9
.d 3 0
	rtn
.export e_Data.Tuple_d_f12.111
.export e_Data.Tuple_n_f12.111
.descn e_Data.Tuple_d_f12.111 e_Data.Tuple_n_f12.111 3 0 "_f12.111"
.n 3 e_Data.Tuple_d_f12.111 ea111
.o 1 0
e_Data.Tuple_n_f12.111
	push_node _cycle_in_spine 3
.o 4 0
ea111
.o 4 0
s111
	push_a 2
	push_a 2
	jsr_eval 0
	push_a 2
	jsr_eval 0
	update_a 2 5
	update_a 1 4
	updatepop_a 0 3
.d 3 0
	jsr_i 2
.o 1 0
	fill_a 0 1
	pop_a 1
.d 1 0
	rtn
.export e_Data.Tuple_d_f11.110
.export e_Data.Tuple_n_f11.110
.descn e_Data.Tuple_d_f11.110 e_Data.Tuple_n_f11.110 3 0 "_f11.110"
.n 3 e_Data.Tuple_d_f11.110 ea110
.o 1 0
e_Data.Tuple_n_f11.110
	push_node _cycle_in_spine 3
.o 4 0
ea110
.o 4 0
s110
	push_a 2
	push_a 2
	jsr_eval 0
	push_a 2
	jsr_eval 0
	update_a 2 5
	update_a 1 4
	updatepop_a 0 3
.d 3 0
	jsr_i 2
.o 1 0
	fill_a 0 1
	pop_a 1
.d 1 0
	rtn
.export e_Data.Tuple_d_f10.109
.export e_Data.Tuple_n_f10.109
.descn e_Data.Tuple_d_f10.109 e_Data.Tuple_n_f10.109 3 0 "_f10.109"
.n 3 e_Data.Tuple_d_f10.109 ea109
.o 1 0
e_Data.Tuple_n_f10.109
	push_node _cycle_in_spine 3
.o 4 0
ea109
.o 4 0
s109
	push_a 2
	push_a 2
	jsr_eval 0
	push_a 2
	jsr_eval 0
	update_a 2 5
	update_a 1 4
	updatepop_a 0 3
.d 3 0
	jsr_i 2
.o 1 0
	fill_a 0 1
	pop_a 1
.d 1 0
	rtn
.export e_Data.Tuple_smappend;13
.descexp e_Data.Tuple_dmappend;13 e_Data.Tuple_nmappend;13 e_Data.Tuple_lmappend;13 4 0 "mappend;13"
.o 3 0
e_Data.Tuple_imappend;13
	repl_args 2 2
	jsr_eval 3
	push_args 3 2 2
	push_args 4 2 2
	jsr_eval 5
	push_r_args 5 1 0
	jsr_eval 5
	push_r_args 5 1 0
	update_a 5 9
	update_a 1 5
	update_a 4 8
	update_a 0 4
	update_a 3 7
	update_a 2 6
	pop_a 4
.d 6 0
	jsr s14
.o 2 0
	push_a 1
	push_a 1
	buildh _Tuple 2
	updatepop_a 0 2
.d 1 0
	rtn
.ai 0 a14 e_Data.Tuple_imappend;13
.o 2 0
e_Data.Tuple_lmappend;13
	repl_args 3 3
.o 4 0
a14
.d 4 0
	jsr ea14
.o 2 0
	push_a 1
	push_a 1
	buildh _Tuple 2
	updatepop_a 0 2
.d 1 0
	rtn
.n 4 e_Data.Tuple_dmappend;13
.o 1 0
e_Data.Tuple_nmappend;13
	push_node _cycle_in_spine 4
.d 4 0
	jsr ea14
.o 2 0
	push_a 1
	push_a 1
	fillh _Tuple 2 4
	pop_a 2
.d 1 0
	rtn
.o 4 0
ea14
	push_a 3
	jsr_eval 0
	repl_args 2 2
	push_a 4
	jsr_eval 0
	repl_args 2 2
	jsr_eval 5
	jsr_eval 4
	push_r_args 5 1 0
	push_r_args 5 1 0
	update_a 5 9
	update_a 1 5
	update_a 4 8
	update_a 0 4
	update_a 3 7
	update_a 2 6
	pop_a 4
.o 6 0
e_Data.Tuple_smappend;13
.o 6 0
s14
	push_a 1
	push_a 6
	push_a 5
	push_a 2
	update_a 2 3
	update_a 1 2
	update_a 0 1
	pop_a 1
	build e_Data.Tuple_d_f14.113 3 e_Data.Tuple_n_f14.113
	push_a 1
	push_a 6
	push_a 5
	push_a 2
	update_a 2 3
	update_a 1 2
	update_a 0 1
	pop_a 1
	build e_Data.Tuple_d_f13.112 3 e_Data.Tuple_n_f13.112
	update_a 1 7
	updatepop_a 0 6
.d 2 0
	rtn
.export e_Data.Tuple_d_f14.113
.export e_Data.Tuple_n_f14.113
.descn e_Data.Tuple_d_f14.113 e_Data.Tuple_n_f14.113 3 0 "_f14.113"
.n 3 e_Data.Tuple_d_f14.113 ea113
.o 1 0
e_Data.Tuple_n_f14.113
	push_node _cycle_in_spine 3
.o 4 0
ea113
.o 4 0
s113
	push_a 2
	push_a 2
	jsr_eval 0
	push_a 2
	jsr_eval 0
	update_a 2 5
	update_a 1 4
	updatepop_a 0 3
.d 3 0
	jsr_i 2
.o 1 0
	fill_a 0 1
	pop_a 1
.d 1 0
	rtn
.export e_Data.Tuple_d_f13.112
.export e_Data.Tuple_n_f13.112
.descn e_Data.Tuple_d_f13.112 e_Data.Tuple_n_f13.112 3 0 "_f13.112"
.n 3 e_Data.Tuple_d_f13.112 ea112
.o 1 0
e_Data.Tuple_n_f13.112
	push_node _cycle_in_spine 3
.o 4 0
ea112
.o 4 0
s112
	push_a 2
	push_a 2
	jsr_eval 0
	push_a 2
	jsr_eval 0
	update_a 2 5
	update_a 1 4
	updatepop_a 0 3
.d 3 0
	jsr_i 2
.o 1 0
	fill_a 0 1
	pop_a 1
.d 1 0
	rtn
.export e_Data.Tuple_sfmap;12
.descexp e_Data.Tuple_dfmap;12 e_Data.Tuple_nfmap;12 e_Data.Tuple_lfmap;12 2 0 "fmap;12"
.o 3 0
e_Data.Tuple_ifmap;12
	pop_a 1
	jsr_eval 1
	push_args 1 6 6
	update_a 5 7
	update_a 3 5
	update_a 1 3
	update_a 6 1
	update_a 4 6
	update_a 2 4
	update_a 0 2
	pop_a 1
.d 7 0
	jsr s13
.o 6 0
	push_a 5
	push_a 5
	push_a 5
	push_a 5
	push_a 5
	push_a 5
	buildh _Tuple 6
	updatepop_a 0 6
.d 1 0
	rtn
.ai 0 a13 e_Data.Tuple_ifmap;12
.o 2 0
e_Data.Tuple_lfmap;12
	repl_args 1 1
.o 2 0
a13
.d 2 0
	jsr ea13
.o 6 0
	push_a 5
	push_a 5
	push_a 5
	push_a 5
	push_a 5
	push_a 5
	buildh _Tuple 6
	updatepop_a 0 6
.d 1 0
	rtn
.n 2 e_Data.Tuple_dfmap;12
.o 1 0
e_Data.Tuple_nfmap;12
	push_node _cycle_in_spine 2
.d 2 0
	jsr ea13
.o 6 0
	push_a 5
	push_a 5
	push_a 5
	push_a 5
	push_a 5
	push_a 5
	fillh _Tuple 6 12
	pop_a 6
.d 1 0
	rtn
.o 2 0
e_Data.Tuple_sfmap;12
.o 2 0
ea13
	push_a 1
	jsr_eval 0
	repl_args 6 6
	update_a 5 7
	update_a 3 5
	update_a 1 3
	update_a 6 1
	update_a 4 6
	update_a 2 4
	update_a 0 2
	pop_a 1
.o 7 0
s13
	push_a 6
	push_a 1
	build e_system_dAP 2 e_system_nAP
	push_a 6
	push_a 6
	push_a 6
	push_a 6
	push_a 6
	update_a 5 12
	update_a 4 11
	update_a 3 10
	update_a 2 9
	update_a 1 8
	updatepop_a 0 7
.d 6 0
	rtn
.export e_Data.Tuple_sfmap;11
.descexp e_Data.Tuple_dfmap;11 e_Data.Tuple_nfmap;11 e_Data.Tuple_lfmap;11 2 0 "fmap;11"
.o 3 0
e_Data.Tuple_ifmap;11
	pop_a 1
	jsr_eval 1
	push_args 1 5 5
	update_a 4 6
	update_a 2 4
	update_a 0 2
	push_a 5
	update_a 4 6
	update_a 2 4
	update_a 0 2
	pop_a 2
.d 6 0
	jsr s12
.o 5 0
	push_a 4
	push_a 4
	push_a 4
	push_a 4
	push_a 4
	buildh _Tuple 5
	updatepop_a 0 5
.d 1 0
	rtn
.ai 0 a12 e_Data.Tuple_ifmap;11
.o 2 0
e_Data.Tuple_lfmap;11
	repl_args 1 1
.o 2 0
a12
.d 2 0
	jsr ea12
.o 5 0
	push_a 4
	push_a 4
	push_a 4
	push_a 4
	push_a 4
	buildh _Tuple 5
	updatepop_a 0 5
.d 1 0
	rtn
.n 2 e_Data.Tuple_dfmap;11
.o 1 0
e_Data.Tuple_nfmap;11
	push_node _cycle_in_spine 2
.d 2 0
	jsr ea12
.o 5 0
	push_a 4
	push_a 4
	push_a 4
	push_a 4
	push_a 4
	fillh _Tuple 5 10
	pop_a 5
.d 1 0
	rtn
.o 2 0
e_Data.Tuple_sfmap;11
.o 2 0
ea12
	push_a 1
	jsr_eval 0
	repl_args 5 5
	update_a 4 6
	update_a 2 4
	update_a 0 2
	push_a 5
	update_a 4 6
	update_a 2 4
	update_a 0 2
	pop_a 2
.o 6 0
s12
	push_a 5
	push_a 1
	build e_system_dAP 2 e_system_nAP
	push_a 5
	push_a 5
	push_a 5
	push_a 5
	update_a 4 10
	update_a 3 9
	update_a 2 8
	update_a 1 7
	updatepop_a 0 6
.d 5 0
	rtn
.export e_Data.Tuple_sfmap;10
.descexp e_Data.Tuple_dfmap;10 e_Data.Tuple_nfmap;10 e_Data.Tuple_lfmap;10 2 0 "fmap;10"
.o 3 0
e_Data.Tuple_ifmap;10
	pop_a 1
	jsr_eval 1
	push_args 1 4 4
	update_a 3 5
	update_a 1 3
	update_a 4 1
	update_a 2 4
	update_a 0 2
	pop_a 1
.d 5 0
	jsr s11
.o 4 0
	push_a 3
	push_a 3
	push_a 3
	push_a 3
	buildh _Tuple 4
	updatepop_a 0 4
.d 1 0
	rtn
.ai 0 a11 e_Data.Tuple_ifmap;10
.o 2 0
e_Data.Tuple_lfmap;10
	repl_args 1 1
.o 2 0
a11
.d 2 0
	jsr ea11
.o 4 0
	push_a 3
	push_a 3
	push_a 3
	push_a 3
	buildh _Tuple 4
	updatepop_a 0 4
.d 1 0
	rtn
.n 2 e_Data.Tuple_dfmap;10
.o 1 0
e_Data.Tuple_nfmap;10
	push_node _cycle_in_spine 2
.d 2 0
	jsr ea11
.o 4 0
	push_a 3
	push_a 3
	push_a 3
	push_a 3
	fillh _Tuple 4 8
	pop_a 4
.d 1 0
	rtn
.o 2 0
e_Data.Tuple_sfmap;10
.o 2 0
ea11
	push_a 1
	jsr_eval 0
	repl_args 4 4
	update_a 3 5
	update_a 1 3
	update_a 4 1
	update_a 2 4
	update_a 0 2
	pop_a 1
.o 5 0
s11
	push_a 4
	push_a 1
	build e_system_dAP 2 e_system_nAP
	push_a 4
	push_a 4
	push_a 4
	update_a 3 8
	update_a 2 7
	update_a 1 6
	updatepop_a 0 5
.d 4 0
	rtn
.export e_Data.Tuple_sfmap;9
.descexp e_Data.Tuple_dfmap;9 e_Data.Tuple_nfmap;9 e_Data.Tuple_lfmap;9 2 0 "fmap;9"
.o 3 0
e_Data.Tuple_ifmap;9
	pop_a 1
	jsr_eval 1
	push_args 1 3 3
	update_a 2 4
	update_a 0 2
	push_a 3
	update_a 2 4
	update_a 0 2
	pop_a 2
.d 4 0
	jsr s10
.o 3 0
	push_a 2
	push_a 2
	push_a 2
	buildh _Tuple 3
	updatepop_a 0 3
.d 1 0
	rtn
.ai 0 a10 e_Data.Tuple_ifmap;9
.o 2 0
e_Data.Tuple_lfmap;9
	repl_args 1 1
.o 2 0
a10
.d 2 0
	jsr ea10
.o 3 0
	push_a 2
	push_a 2
	push_a 2
	buildh _Tuple 3
	updatepop_a 0 3
.d 1 0
	rtn
.n 2 e_Data.Tuple_dfmap;9
.o 1 0
e_Data.Tuple_nfmap;9
	push_node _cycle_in_spine 2
.d 2 0
	jsr ea10
.o 3 0
	push_a 2
	push_a 2
	push_a 2
	fillh _Tuple 3 6
	pop_a 3
.d 1 0
	rtn
.o 2 0
e_Data.Tuple_sfmap;9
.o 2 0
ea10
	push_a 1
	jsr_eval 0
	repl_args 3 3
	update_a 2 4
	update_a 0 2
	push_a 3
	update_a 2 4
	update_a 0 2
	pop_a 2
.o 4 0
s10
	push_a 3
	push_a 1
	build e_system_dAP 2 e_system_nAP
	push_a 3
	push_a 3
	update_a 2 6
	update_a 1 5
	updatepop_a 0 4
.d 3 0
	rtn
.export e_Data.Tuple_sfmap;8
.descexp e_Data.Tuple_dfmap;8 e_Data.Tuple_nfmap;8 e_Data.Tuple_lfmap;8 2 0 "fmap;8"
.o 3 0
e_Data.Tuple_ifmap;8
	pop_a 1
	jsr_eval 1
	push_args 1 2 2
	update_a 1 3
	update_a 2 1
	update_a 0 2
	pop_a 1
.d 3 0
	jsr s9
.o 2 0
	push_a 1
	push_a 1
	buildh _Tuple 2
	updatepop_a 0 2
.d 1 0
	rtn
.ai 0 a9 e_Data.Tuple_ifmap;8
.o 2 0
e_Data.Tuple_lfmap;8
	repl_args 1 1
.o 2 0
a9
.d 2 0
	jsr ea9
.o 2 0
	push_a 1
	push_a 1
	buildh _Tuple 2
	updatepop_a 0 2
.d 1 0
	rtn
.n 2 e_Data.Tuple_dfmap;8
.o 1 0
e_Data.Tuple_nfmap;8
	push_node _cycle_in_spine 2
.d 2 0
	jsr ea9
.o 2 0
	push_a 1
	push_a 1
	fillh _Tuple 2 4
	pop_a 2
.d 1 0
	rtn
.o 2 0
e_Data.Tuple_sfmap;8
.o 2 0
ea9
	push_a 1
	jsr_eval 0
	repl_args 2 2
	update_a 1 3
	update_a 2 1
	update_a 0 2
	pop_a 1
.o 3 0
s9
	push_a 2
	push_a 1
	build e_system_dAP 2 e_system_nAP
	push_a 2
	update_a 1 4
	updatepop_a 0 3
.d 2 0
	rtn
.export e_Data.Tuple_sswap
.descexp e_Data.Tuple_dswap e_Data.Tuple_nswap e_Data.Tuple_lswap 1 0 "swap"
.o 2 0
e_Data.Tuple_lswap
	pop_a 1
.d 1 0
	jsr ea8
.o 2 0
	push_a 1
	push_a 1
	buildh _Tuple 2
	updatepop_a 0 2
.d 1 0
	rtn
.n 1 e_Data.Tuple_dswap
.o 1 0
e_Data.Tuple_nswap
	push_node _cycle_in_spine 1
.d 1 0
	jsr ea8
.o 2 0
	push_a 1
	push_a 1
	fillh _Tuple 2 4
	pop_a 2
.d 1 0
	rtn
.o 1 0
ea8
	jsr_eval 0
	repl_args 2 2
.o 2 0
e_Data.Tuple_sswap
.o 2 0
s8
	push_a 0
	push_a 2
	update_a 1 3
	updatepop_a 0 2
.d 2 0
	rtn
.export e_Data.Tuple_sappThd3
.descexp e_Data.Tuple_dappThd3 e_Data.Tuple_nappThd3 e_Data.Tuple_lappThd3 2 0 "appThd3"
.a 0 a7
.o 2 0
e_Data.Tuple_lappThd3
	repl_args 1 1
.o 2 0
a7
.d 2 0
	jsr ea7
.o 3 0
	push_a 2
	push_a 2
	push_a 2
	buildh _Tuple 3
	updatepop_a 0 3
.d 1 0
	rtn
.n 2 e_Data.Tuple_dappThd3
.o 1 0
e_Data.Tuple_nappThd3
	push_node _cycle_in_spine 2
.d 2 0
	jsr ea7
.o 3 0
	push_a 2
	push_a 2
	push_a 2
	fillh _Tuple 3 6
	pop_a 3
.d 1 0
	rtn
.o 2 0
ea7
	push_a 1
	jsr_eval 0
	repl_args 3 3
	update_a 2 4
	update_a 0 2
	push_a 3
	update_a 2 4
	update_a 0 2
	pop_a 2
.o 4 0
e_Data.Tuple_sappThd3
.o 4 0
s7
	push_a 3
	push_a 1
	build e_system_dAP 2 e_system_nAP
	push_a 3
	push_a 3
	update_a 2 6
	update_a 1 5
	updatepop_a 0 4
.d 3 0
	rtn
.export e_Data.Tuple_sappSnd3
.descexp e_Data.Tuple_dappSnd3 e_Data.Tuple_nappSnd3 e_Data.Tuple_lappSnd3 2 0 "appSnd3"
.a 0 a6
.o 2 0
e_Data.Tuple_lappSnd3
	repl_args 1 1
.o 2 0
a6
.d 2 0
	jsr ea6
.o 3 0
	push_a 2
	push_a 2
	push_a 2
	buildh _Tuple 3
	updatepop_a 0 3
.d 1 0
	rtn
.n 2 e_Data.Tuple_dappSnd3
.o 1 0
e_Data.Tuple_nappSnd3
	push_node _cycle_in_spine 2
.d 2 0
	jsr ea6
.o 3 0
	push_a 2
	push_a 2
	push_a 2
	fillh _Tuple 3 6
	pop_a 3
.d 1 0
	rtn
.o 2 0
ea6
	push_a 1
	jsr_eval 0
	repl_args 3 3
	update_a 2 4
	update_a 0 2
	push_a 3
	update_a 2 4
	update_a 0 2
	pop_a 2
.o 4 0
e_Data.Tuple_sappSnd3
.o 4 0
s6
	push_a 2
	push_a 1
	build e_system_dAP 2 e_system_nAP
	push_a 4
	push_a 3
	push_a 2
	update_a 2 3
	update_a 0 2
	pop_a 1
	update_a 2 6
	update_a 1 5
	updatepop_a 0 4
.d 3 0
	rtn
.export e_Data.Tuple_sappFst3
.descexp e_Data.Tuple_dappFst3 e_Data.Tuple_nappFst3 e_Data.Tuple_lappFst3 2 0 "appFst3"
.a 0 a5
.o 2 0
e_Data.Tuple_lappFst3
	repl_args 1 1
.o 2 0
a5
.d 2 0
	jsr ea5
.o 3 0
	push_a 2
	push_a 2
	push_a 2
	buildh _Tuple 3
	updatepop_a 0 3
.d 1 0
	rtn
.n 2 e_Data.Tuple_dappFst3
.o 1 0
e_Data.Tuple_nappFst3
	push_node _cycle_in_spine 2
.d 2 0
	jsr ea5
.o 3 0
	push_a 2
	push_a 2
	push_a 2
	fillh _Tuple 3 6
	pop_a 3
.d 1 0
	rtn
.o 2 0
ea5
	push_a 1
	jsr_eval 0
	repl_args 3 3
	update_a 2 4
	update_a 0 2
	push_a 3
	update_a 2 4
	update_a 0 2
	pop_a 2
.o 4 0
e_Data.Tuple_sappFst3
.o 4 0
s5
	push_a 1
	push_a 1
	build e_system_dAP 2 e_system_nAP
	push_a 4
	push_a 4
	push_a 2
	update_a 2 3
	update_a 1 2
	update_a 0 1
	pop_a 1
	update_a 2 6
	update_a 1 5
	updatepop_a 0 4
.d 3 0
	rtn
.export e_Data.Tuple_sappSnd
.descexp e_Data.Tuple_dappSnd e_Data.Tuple_nappSnd e_Data.Tuple_lappSnd 2 0 "appSnd"
.a 0 a4
.o 2 0
e_Data.Tuple_lappSnd
	repl_args 1 1
.o 2 0
a4
.d 2 0
	jsr ea4
.o 2 0
	push_a 1
	push_a 1
	buildh _Tuple 2
	updatepop_a 0 2
.d 1 0
	rtn
.n 2 e_Data.Tuple_dappSnd
.o 1 0
e_Data.Tuple_nappSnd
	push_node _cycle_in_spine 2
.d 2 0
	jsr ea4
.o 2 0
	push_a 1
	push_a 1
	fillh _Tuple 2 4
	pop_a 2
.d 1 0
	rtn
.o 2 0
ea4
	push_a 1
	jsr_eval 0
	repl_args 2 2
	update_a 1 3
	update_a 2 1
	update_a 0 2
	pop_a 1
.o 3 0
e_Data.Tuple_sappSnd
.o 3 0
s4
	push_a 2
	push_a 1
	build e_system_dAP 2 e_system_nAP
	push_a 2
	update_a 1 4
	updatepop_a 0 3
.d 2 0
	rtn
.export e_Data.Tuple_sappFst
.descexp e_Data.Tuple_dappFst e_Data.Tuple_nappFst e_Data.Tuple_lappFst 2 0 "appFst"
.a 0 a3
.o 2 0
e_Data.Tuple_lappFst
	repl_args 1 1
.o 2 0
a3
.d 2 0
	jsr ea3
.o 2 0
	push_a 1
	push_a 1
	buildh _Tuple 2
	updatepop_a 0 2
.d 1 0
	rtn
.n 2 e_Data.Tuple_dappFst
.o 1 0
e_Data.Tuple_nappFst
	push_node _cycle_in_spine 2
.d 2 0
	jsr ea3
.o 2 0
	push_a 1
	push_a 1
	fillh _Tuple 2 4
	pop_a 2
.d 1 0
	rtn
.o 2 0
ea3
	push_a 1
	jsr_eval 0
	repl_args 2 2
	update_a 1 3
	update_a 2 1
	update_a 0 2
	pop_a 1
.o 3 0
e_Data.Tuple_sappFst
.o 3 0
s3
	push_a 1
	push_a 1
	build e_system_dAP 2 e_system_nAP
	push_a 3
	push_a 1
	update_a 1 2
	update_a 0 1
	pop_a 1
	update_a 1 4
	updatepop_a 0 3
.d 2 0
	rtn
.export e_Data.Tuple_stuple3
.descexp e_Data.Tuple_dtuple3 e_Data.Tuple_ntuple3 e_Data.Tuple_ltuple3 3 0 "tuple3"
.a 0 a2
.o 2 0
e_Data.Tuple_ltuple3
	repl_args 2 2
.o 3 0
a2
.d 3 0
	jsr ea2
.o 3 0
	push_a 2
	push_a 2
	push_a 2
	buildh _Tuple 3
	updatepop_a 0 3
.d 1 0
	rtn
.n 3 e_Data.Tuple_dtuple3
.o 1 0
e_Data.Tuple_ntuple3
	push_node _cycle_in_spine 3
.d 3 0
	jsr ea2
.o 3 0
	push_a 2
	push_a 2
	push_a 2
	fillh _Tuple 3 6
	pop_a 3
.d 1 0
	rtn
.o 3 0
ea2
.o 3 0
e_Data.Tuple_stuple3
.o 3 0
s2
	push_a 2
	push_a 2
	push_a 2
	update_a 2 5
	update_a 1 4
	updatepop_a 0 3
.d 3 0
	rtn
.export e_Data.Tuple_stuple
.descexp e_Data.Tuple_dtuple e_Data.Tuple_ntuple e_Data.Tuple_ltuple 2 0 "tuple"
.a 0 a1
.o 2 0
e_Data.Tuple_ltuple
	repl_args 1 1
.o 2 0
a1
.d 2 0
	jsr ea1
.o 2 0
	push_a 1
	push_a 1
	buildh _Tuple 2
	updatepop_a 0 2
.d 1 0
	rtn
.n 2 e_Data.Tuple_dtuple
.o 1 0
e_Data.Tuple_ntuple
	push_node _cycle_in_spine 2
.d 2 0
	jsr ea1
.o 2 0
	push_a 1
	push_a 1
	fillh _Tuple 2 4
	pop_a 2
.d 1 0
	rtn
.o 2 0
ea1
.o 2 0
e_Data.Tuple_stuple
.o 2 0
s1
	push_a 1
	push_a 1
	update_a 1 3
	updatepop_a 0 2
.d 2 0
	rtn
