.comp 920 000011110011000
.start _nostart_
.depend "Data.Func" "20210613143554"
.depend "StdCharList" "20210613143554"
.depend "_SystemArray" "20210613143554"
.depend "StdArray" "20210613143554"
.depend "StdEnv" "20210613143554"
.depend "iTasks.Internal.SDSService" "20210613143555"
.depend "iTasks.Internal.Serialization" "20210613143555"
.depend "_SystemEnum" "20210613143554"
.depend "StdEnum" "20210613143554"
.depend "StdTuple" "20210613143554"
.depend "StdOrdList" "20210613143554"
.depend "Control.Monad.Trans" "20210613143554"
.depend "StdMaybe" "20210613143554"
.depend "Data.Maybe" "20210613143554"
.depend "iTasks.Extensions.Admin.WorkflowAdmin" "20210613143555"
.depend "iTasks.Extensions.User" "20210613143555"
.depend "iTasks.Extensions.Admin.UserAdmin" "20210613143555"
.depend "iTasks.UI.Layout.Common" "20210613143555"
.depend "iTasks.UI.Editor.Modifiers" "20210613143555"
.depend "iTasks.UI.Editor.Containers" "20210613143555"
.depend "iTasks.UI.Tune" "20210613143555"
.depend "iTasks.Internal.Distributed.Domain" "20210613143555"
.depend "iTasks.WF.Combinators.Common" "20210613143555"
.depend "iTasks.WF.Combinators.SDS" "20210613143555"
.depend "iTasks.UI.Editor.Controls" "20210613143555"
.depend "iTasks.WF.Tasks.Interaction" "20210613143555"
.depend "iTasks.WF.Tasks.System" "20210613143555"
.depend "iTasks.WF.Tasks.SDS" "20210613143555"
.depend "iTasks.WF.Tasks.Core" "20210613143555"
.depend "System.Time.GenJSON" "20210613143555"
.depend "Text.HTML.GenJSON" "20210613143555"
.depend "Data.Map.GenJSON" "20210613143554"
.depend "Data.Error.GenJSON" "20210613143554"
.depend "Data.Either.GenJSON" "20210613143554"
.depend "iTasks.WF.Derives" "20210613143555"
.depend "iTasks.SDS.Combinators.Common" "20210613143555"
.depend "iTasks.SDS.Combinators.Core" "20210613143555"
.depend "iTasks.SDS.Sources.System" "20210613143555"
.depend "iTasks.SDS.Sources.Store" "20210613143555"
.depend "iTasks.SDS.Sources.Core" "20210613143555"
.depend "iTasks.Internal.TaskIO" "20210613143555"
.depend "System._Signal" "20210613143555"
.depend "System.Signal" "20210613143555"
.depend "_SystemStrictMaybes" "20210613143554"
.depend "Text.GenPrint" "20210613143555"
.depend "iTasks.Extensions.DateTime" "20210613143555"
.depend "iTasks.Internal.TaskServer" "20210613143555"
.depend "AsyncIO" "20210613143555"
.depend "System._Process" "20210613143555"
.depend "System.Process" "20210613143555"
.depend "System.OS" "20210613143555"
.depend "TCPStringChannelsInternal" "20210613143555"
.depend "TCPStringChannels" "20210613143555"
.depend "TCPEvent" "20210613143555"
.depend "tcp_bytestreams" "20210613143555"
.depend "TCPDef" "20210613143555"
.depend "TCPChannels" "20210613143555"
.depend "TCPIP" "20210613143555"
.depend "iTasks.WF.Tasks.IO" "20210613143555"
.depend "Data.IntMap.Base" "20210613143554"
.depend "Data.IntMap.Strict" "20210613143554"
.depend "Data.CircularStack" "20210613143554"
.depend "iTasks.Extensions.Document" "20210613143555"
.depend "System.File" "20210613143555"
.depend "iTasks.Util.DeferredJSON" "20210613143555"
.depend "iTasks.UI.Layout" "20210613143555"
.depend "iTasks.Internal.TaskState" "20210613143555"
.depend "iTasks.Internal.SDS" "20210613143555"
.depend "Data.GenHash" "20210613143554"
.depend "Data.Maybe.Ord" "20210613143554"
.depend "Control.GenBimap" "20210613143554"
.depend "ABC.Interpreter.JavaScript" "20210613143554"
.depend "ABC.Interpreter" "20210613143554"
.depend "iTasks.UI.Editor" "20210613143555"
.depend "iTasks.UI.Editor.Generic" "20210613143555"
.depend "iTasks.Internal.Generic.Defaults" "20210613143555"
.depend "Data.GenDefault" "20210613143554"
.depend "Data.Integer" "20210613143554"
.depend "Text.HTML" "20210613143555"
.depend "iTasks.Internal.Generic.Visualization" "20210613143555"
.depend "iTasks.SDS.Definition" "20210613143555"
.depend "iTasks.WF.Combinators.Core" "20210613143555"
.depend "iTasks.Internal.TaskEval" "20210613143555"
.depend "iTasks.WF.Definition" "20210613143555"
.depend "iTasks.Internal.Task" "20210613143555"
.depend "iTasks.UI.Definition" "20210613143555"
.depend "Text.GenJSON" "20210613143555"
.depend "Data.Bifunctor" "20210613143554"
.depend "Data.Either" "20210613143554"
.depend "Data.Queue" "20210613143554"
.depend "StdFile" "20210613143554"
.depend "symbols_in_program" "20210613143555"
.depend "iTasks.Internal.IWorld" "20210613143555"
.depend "iTasks.Internal.WebService" "20210613143555"
.depend "tcp" "20210613143555"
.depend "TCPChannelClass" "20210613143555"
.depend "System._Time" "20210613143555"
.depend "System.Time" "20210613143555"
.depend "System.GetOpt" "20210613143555"
.depend "System.OSError" "20210613143555"
.depend "System.FilePath" "20210613143555"
.depend "StdString" "20210613143554"
.depend "Internet.HTTP" "20210613143555"
.depend "Control.Monad.Fail" "20210613143554"
.depend "Data.Traversable" "20210613143554"
.depend "StdMisc" "20210613143554"
.depend "StdOverloadedList" "20210613143554"
.depend "Data.List" "20210613143554"
.depend "Data.Foldable" "20210613143554"
.depend "Data.Set" "20210613143554"
.depend "Data.GenLexOrd" "20210613143554"
.depend "StdFunctions" "20210613143554"
.depend "StdFunc" "20210613143554"
.depend "Data.Map" "20210613143554"
.depend "_SystemEnumStrict" "20210613143554"
.depend "_SystemStrictLists" "20210613143554"
.depend "StdStrictLists" "20210613143554"
.depend "StdGeneric" "20210613143554"
.depend "Data.GenEq" "20210613143554"
.depend "StdReal" "20210613143554"
.depend "StdChar" "20210613143554"
.depend "StdInt" "20210613143554"
.depend "StdBool" "20210613143554"
.depend "StdClass" "20210613143554"
.depend "StdList" "20210613143554"
.depend "Data.Monoid" "20210613143554"
.depend "Control.Applicative" "20210613143554"
.depend "Control.Monad" "20210613143554"
.depend "Data.Functor" "20210613143554"
.depend "Data.Error" "20210613143554"
.depend "iTasks.Engine" "20210613143555"
.depend "iTasks" "20210613143555"
.depend "StdOverloaded" "20210613143554"
.depend "_SystemDynamic" "20210613143554"
.depend "iTasks.Extensions.Clock" "20210613143555"
.module m_iTasks.Extensions.Clock "iTasks.Extensions.Clock" "20210613143555"
.endinfo
.impmod _system
.implab _cycle_in_spine
.implab _type_error
.implab _hnf
.impdesc e_system_dind
.implab e_system_nind e_system_eaind
.impdesc e_system_dif
.implab e_system_nif e_system_eaif
.implab e_system_sif
.impdesc e_system_dAP
.implab e_system_nAP e_system_eaAP
.implab e_system_sAP
.impdesc ARRAY
.impdesc _Nil
.impdesc _Cons
.impdesc _Conss
.implab n_Conss ea_Conss
.impdesc _Consts
.implab n_Consts ea_Consts
.impdesc _Conssts
.implab n_Conssts ea_Conssts
.impdesc _Tuple
.impdesc d_S.1
.implab n_S.1 ea_S.1
.impdesc d_S.2
.implab n_S.2 ea_S.2
.impdesc d_S.3
.implab n_S.3 ea_S.3
.impdesc d_S.4
.implab n_S.4 ea_S.4
.impdesc d_S.5
.implab n_S.5 ea_S.5
.impdesc d_S.6
.implab n_S.6 ea_S.6
.implab _driver
.impmod _SystemArray
.impmod StdMaybe
.implab e_StdMaybe_s==;7
.impmod Data.Maybe
.impdesc e_Data.Maybe_dfromMaybe;67
.implab e_Data.Maybe_nfromMaybe;67 _
.impmod iTasks.Extensions.DateTime
.impdesc e_iTasks.Extensions.DateTime_dJSONEncode_Time;31
.implab e_iTasks.Extensions.DateTime_nJSONEncode_Time;31 e_iTasks.Extensions.DateTime_eaJSONEncode_Time;31
.implab e_iTasks.Extensions.DateTime_sJSONDecode_Time;34
.implab e_iTasks.Extensions.DateTime_sgEq_Time;37
.impdesc e_iTasks.Extensions.DateTime_dgText_Time;40
.impmod ABC.Interpreter.JavaScript
.implab e_ABC.Interpreter.JavaScript_sjsValToString
.implab e_ABC.Interpreter.JavaScript_s.?
.implab e_ABC.Interpreter.JavaScript_s.=
.implab e_ABC.Interpreter.JavaScript_s.$!
.implab e_ABC.Interpreter.JavaScript_sjsWrapFun
.implab e_ABC.Interpreter.JavaScript_sjsTrace
.implab e_ABC.Interpreter.JavaScript_s.#;46
.implab e_ABC.Interpreter.JavaScript_s.#;47
.impdesc e_ABC.Interpreter.JavaScript_dtoJSArgs;57
.implab e_ABC.Interpreter.JavaScript_s.??;64
.impdesc e_ABC.Interpreter.JavaScript_dgToJS__String;70
.impdesc e_ABC.Interpreter.JavaScript_dgToJS_JSVal;72
.impmod iTasks.UI.Editor
.implab e_iTasks.UI.Editor_sleafEditorToEditor
.implab e_iTasks.UI.Editor_swithClientSideInit
.impmod Text.HTML
.implab e_Text.HTML_stoString;7
.impmod iTasks.Internal.Generic.Visualization
.impdesc e_iTasks.Internal.Generic.Visualization_dgText_CONS;8
.implab e_iTasks.Internal.Generic.Visualization_sgText_OBJECT;9
.impmod iTasks.UI.Definition
.impdesc e_iTasks.UI.Definition_duia
.implab e_iTasks.UI.Definition_nuia e_iTasks.UI.Definition_eauia
.impdesc e_iTasks.UI.Definition_dsizeAttr
.implab e_iTasks.UI.Definition_nsizeAttr e_iTasks.UI.Definition_easizeAttr
.impdesc e_iTasks.UI.Definition_dvalueAttr
.implab e_iTasks.UI.Definition_nvalueAttr e_iTasks.UI.Definition_eavalueAttr
.impmod Text.GenJSON
.implab e_Text.GenJSON_stoJSON
.impdesc e_Text.GenJSON_dJSONEncode_Int;12
.implab e_Text.GenJSON_sJSONEncode__List;17
.implab e_Text.GenJSON_sJSONEncode__Tuple2;24
.impdesc e_Text.GenJSON_dJSONDecode__Unit;53
.impmod StdString
.impdesc e_StdString_d==;2
.implab e_StdString_s==;2
.implab e_StdString_stoString;5
.impdesc e_StdString_dtoString;9
.implab e_StdString_s+++;11
.impmod Data.Map
.impdesc e_Data.Map_dunions;70
.implab e_Data.Map_nunions;70 e_Data.Map_eaunions;70
.impmod StdInt
.implab e_StdInt_s+;6
.implab e_StdInt_s-;7
.implab e_StdInt_s*;9
.implab e_StdInt_sone;11
.implab e_StdInt_s==;16
.implab e_StdInt_s<;17
.impmod StdBool
.implab e_StdBool_snot
.impmod StdList
.impdesc e_StdList_d++
.implab e_StdList_s++
.implab e_StdList_n++ e_StdList_ea++
.impmod iTasks.Extensions.DateTime
.impdesc e_iTasks.Extensions.DateTime_rTime
.impdesc e_iTasks.Extensions.DateTime_dTime.hour
.implab e_iTasks.Extensions.DateTime_nTime.hour
.impdesc e_iTasks.Extensions.DateTime_dTime.min
.implab e_iTasks.Extensions.DateTime_nTime.min
.impdesc e_iTasks.Extensions.DateTime_dTime.sec
.implab e_iTasks.Extensions.DateTime_nTime.sec
.impmod ABC.Interpreter.JavaScript
.impdesc e_ABC.Interpreter.JavaScript_rtoJSArgs;
.impmod iTasks.UI.Editor
.impdesc e_iTasks.UI.Editor_rLeafEditor
.impmod Text.HTML
.impdesc e_Text.HTML_kSvgTag
.impdesc e_Text.HTML_kHeightAttr
.impdesc e_Text.HTML_kStyleAttr
.impdesc e_Text.HTML_kWidthAttr
.impdesc e_Text.HTML_kRectElt
.impdesc e_Text.HTML_kTransformAttr
.impdesc e_Text.HTML_kViewBoxAttr
.impdesc e_Text.HTML_kXAttr
.impdesc e_Text.HTML_kYAttr
.impdesc e_Text.HTML_dSVGLength
.impdesc e_Text.HTML_dPX
.impdesc e_Text.HTML_kRotateTransform
.impmod iTasks.UI.Definition
.impdesc e_iTasks.UI.Definition_dNoChange
.impdesc e_iTasks.UI.Definition_dChangeUI
.impdesc e_iTasks.UI.Definition_kSetAttribute
.impdesc e_iTasks.UI.Definition_dSetAttribute
.implab e_iTasks.UI.Definition_nSetAttribute e_iTasks.UI.Definition_eaSetAttribute
.impdesc e_iTasks.UI.Definition_dUIHtmlView
.impdesc e_iTasks.UI.Definition_kExactSize
.impmod Text.GenJSON
.impdesc e_Text.GenJSON_kJSONString
.impdesc e_Text.GenJSON_dJSONString
.implab e_Text.GenJSON_nJSONString e_Text.GenJSON_eaJSONString
.impdesc e_Text.GenJSON_kJSONArray
.impmod StdGeneric
.impdesc e_StdGeneric_dCONS
.impdesc e_StdGeneric_rGenericTypeDefDescriptor
.impdesc e_StdGeneric_rGenericConsDescriptor
.impdesc e_StdGeneric_dGenConsNoPrio
.impdesc e_StdGeneric_dGenTypeCons
.impdesc e_StdGeneric_dGenTypeArrow
.impmod Data.Error
.impdesc e_Data.Error_dOk
.impmod StdOverloaded
.impdesc e_StdOverloaded_r==;
.impdesc e_StdOverloaded_rtoString;
.impmod _SystemDynamic
.impdesc e__SystemDynamic_kTypeCons
.impdesc e__SystemDynamic_rTypeCodeConstructor
.impmod _predef
.impdesc e__predef_d_Unit
.export e_iTasks.Extensions.Clock_eaAnalogClock
.descexp e_iTasks.Extensions.Clock_dAnalogClock e_iTasks.Extensions.Clock_nAnalogClock e_iTasks.Extensions.Clock_lAnalogClock 1 0 "AnalogClock"
.o 2 0
e_iTasks.Extensions.Clock_lAnalogClock
	update_a 1 0
	create
	update_a 0 2
	pop_a 1
.d 2 0
	jmp e_iTasks.Extensions.Clock_eaAnalogClock
.n 1 e_iTasks.Extensions.Clock_dAnalogClock e_iTasks.Extensions.Clock_eaAnalogClock
.o 1 0
e_iTasks.Extensions.Clock_nAnalogClock
	push_node _cycle_in_spine 1
.o 2 0
e_iTasks.Extensions.Clock_eaAnalogClock
	jsr_eval 0
	repl_r_args 0 3
	fill_r e_iTasks.Extensions.Clock_kAnalogClock 0 3 0 0 0
	pop_b 3
.d 1 0
	rtn
.export e_iTasks.Extensions.Clock_kAnalogClock
.record e_iTasks.Extensions.Clock_kAnalogClock d{iii} 0 3 e_iTasks.Extensions.DateTime_rTime "AnalogClock"
.export e_iTasks.Extensions.Clock_rJSONEncode_s;
.record e_iTasks.Extensions.Clock_rJSONEncode_s; a 1 0 "JSONEncode_s;"
.export e_iTasks.Extensions.Clock_tJSONEncode_s;
.export e_iTasks.Extensions.Clock_cJSONEncode_s;
.descn e_iTasks.Extensions.Clock_tJSONEncode_s; e_iTasks.Extensions.Clock_cJSONEncode_s; 1 1 "JSONEncode_s;"
.n 1 e_iTasks.Extensions.Clock_tJSONEncode_s;
.o 1 0
e_iTasks.Extensions.Clock_cJSONEncode_s;
	push_node _cycle_in_spine 1
	jsr_eval 0
.impmod iTasks.Extensions.Clock
.impdesc e_iTasks.Extensions.Clock_rJSONEncode_s;
	fill_r e_iTasks.Extensions.Clock_rJSONEncode_s; 1 0 1 0 0
	pop_a 1
.d 1 0
	rtn
.export e_iTasks.Extensions.Clock_rJSONDecode_s;
.record e_iTasks.Extensions.Clock_rJSONDecode_s; a 1 0 "JSONDecode_s;"
.export e_iTasks.Extensions.Clock_tJSONDecode_s;
.export e_iTasks.Extensions.Clock_cJSONDecode_s;
.descn e_iTasks.Extensions.Clock_tJSONDecode_s; e_iTasks.Extensions.Clock_cJSONDecode_s; 1 1 "JSONDecode_s;"
.n 1 e_iTasks.Extensions.Clock_tJSONDecode_s;
.o 1 0
e_iTasks.Extensions.Clock_cJSONDecode_s;
	push_node _cycle_in_spine 1
	jsr_eval 0
.impdesc e_iTasks.Extensions.Clock_rJSONDecode_s;
	fill_r e_iTasks.Extensions.Clock_rJSONDecode_s; 1 0 1 0 0
	pop_a 1
.d 1 0
	rtn
.export e_iTasks.Extensions.Clock_rgToJS_s;
.record e_iTasks.Extensions.Clock_rgToJS_s; a 1 0 "gToJS_s;"
.export e_iTasks.Extensions.Clock_tgToJS_s;
.export e_iTasks.Extensions.Clock_cgToJS_s;
.descn e_iTasks.Extensions.Clock_tgToJS_s; e_iTasks.Extensions.Clock_cgToJS_s; 1 1 "gToJS_s;"
.n 1 e_iTasks.Extensions.Clock_tgToJS_s;
.o 1 0
e_iTasks.Extensions.Clock_cgToJS_s;
	push_node _cycle_in_spine 1
	jsr_eval 0
.impdesc e_iTasks.Extensions.Clock_rgToJS_s;
	fill_r e_iTasks.Extensions.Clock_rgToJS_s; 1 0 1 0 0
	pop_a 1
.d 1 0
	rtn
.export e_iTasks.Extensions.Clock_sgText_AnalogClock;4
.export e_iTasks.Extensions.Clock_eagText_AnalogClock;4
.descexp e_iTasks.Extensions.Clock_dgText_AnalogClock;4 e_iTasks.Extensions.Clock_ngText_AnalogClock;4 e_iTasks.Extensions.Clock_lgText_AnalogClock;4 2 0 "gText_AnalogClock;4"
.o 4 0
e_iTasks.Extensions.Clock_igText_AnalogClock;4
	pop_a 1
.d 3 0
	jmp s5
.ai 2 e_iTasks.Extensions.Clock_eagText_AnalogClock;4 e_iTasks.Extensions.Clock_igText_AnalogClock;4
.o 2 0
e_iTasks.Extensions.Clock_lgText_AnalogClock;4
	push_args 0 1 1
	update_a 2 1
	create
	update_a 0 3
	pop_a 1
.d 3 0
	jmp e_iTasks.Extensions.Clock_eagText_AnalogClock;4
.n 2 e_iTasks.Extensions.Clock_dgText_AnalogClock;4 e_iTasks.Extensions.Clock_eagText_AnalogClock;4
.o 1 0
e_iTasks.Extensions.Clock_ngText_AnalogClock;4
	push_node _cycle_in_spine 2
.o 3 0
e_iTasks.Extensions.Clock_eagText_AnalogClock;4
	jsr_eval 0
.o 3 0
e_iTasks.Extensions.Clock_sgText_AnalogClock;4
.o 3 0
s5
	push_a 1
	build e_iTasks.Extensions.Clock_dbimapToGeneric;32.24 1 e_iTasks.Extensions.Clock_nbimapToGeneric;32.24
	buildh e_iTasks.Extensions.DateTime_dgText_Time;40 0
	build e_iTasks.Extensions.Clock_dtdi_AnalogClock;19.17 0 e_iTasks.Extensions.Clock_ntdi_AnalogClock;19.17
	buildAC "AnalogClock"
	buildh ARRAY 1
	buildh e_iTasks.Internal.Generic.Visualization_dgText_CONS;8 3
	push_a 2
	push_a 1
	update_a 1 2
	update_a 0 1
	pop_a 1
	update_a 2 4
	update_a 1 3
	updatepop_a 0 2
.d 4 0
	jmp e_iTasks.Internal.Generic.Visualization_sgText_OBJECT;9
.export e_iTasks.Extensions.Clock_dcdi_AnalogClock;21.19
.export e_iTasks.Extensions.Clock_ncdi_AnalogClock;21.19
.descn e_iTasks.Extensions.Clock_dcdi_AnalogClock;21.19 e_iTasks.Extensions.Clock_ncdi_AnalogClock;21.19 0 0 "cdi_AnalogClock;21.19"
.n 0 e_iTasks.Extensions.Clock_dcdi_AnalogClock;21.19
.o 1 0
e_iTasks.Extensions.Clock_ncdi_AnalogClock;21.19
	push_node _cycle_in_spine 0
.o 0 0
ea19
	build e_iTasks.Extensions.Clock_dgti_AnalogClock;20.18 0 e_iTasks.Extensions.Clock_ngti_AnalogClock;20.18
	build e_iTasks.Extensions.Clock_dtdi_AnalogClock;19.17 0 e_iTasks.Extensions.Clock_ntdi_AnalogClock;19.17
	buildh e_StdGeneric_dGenConsNoPrio 0
	buildI 0
	buildI 1
	buildAC "AnalogClock"
	buildh ARRAY 1
	push_a 5
	update_a 3 6
	update_a 4 3
	update_a 5 4
	update_a 0 5
	pop_a 1
	fill_r e_StdGeneric_rGenericConsDescriptor 6 0 6 0 0
	pop_a 6
.d 1 0
	rtn
.export e_iTasks.Extensions.Clock_dcli_AnalogClock;18.16
.export e_iTasks.Extensions.Clock_ncli_AnalogClock;18.16
.descn e_iTasks.Extensions.Clock_dcli_AnalogClock;18.16 e_iTasks.Extensions.Clock_ncli_AnalogClock;18.16 0 0 "cli_AnalogClock;18.16"
.n 0 e_iTasks.Extensions.Clock_dcli_AnalogClock;18.16 ea16
.o 1 0
e_iTasks.Extensions.Clock_ncli_AnalogClock;18.16
	push_node _cycle_in_spine 0
.o 1 0
ea16
.o 1 0
s16
	buildh _Nil 0
	build e_iTasks.Extensions.Clock_dcdi_AnalogClock;21.19 0 e_iTasks.Extensions.Clock_ncdi_AnalogClock;21.19
	fillh _Cons 2 2
.d 1 0
	rtn
.export e_iTasks.Extensions.Clock_dtdi_AnalogClock;19.17
.export e_iTasks.Extensions.Clock_ntdi_AnalogClock;19.17
.descn e_iTasks.Extensions.Clock_dtdi_AnalogClock;19.17 e_iTasks.Extensions.Clock_ntdi_AnalogClock;19.17 0 0 "tdi_AnalogClock;19.17"
.n 0 e_iTasks.Extensions.Clock_dtdi_AnalogClock;19.17
.o 1 0
e_iTasks.Extensions.Clock_ntdi_AnalogClock;19.17
	push_node _cycle_in_spine 0
.o 0 0
ea17
	build e_iTasks.Extensions.Clock_dcli_AnalogClock;18.16 0 e_iTasks.Extensions.Clock_ncli_AnalogClock;18.16
	buildI 1
	buildI 0
	buildAC "AnalogClock"
	buildh ARRAY 1
	fill_r e_StdGeneric_rGenericTypeDefDescriptor 4 0 4 0 0
	pop_a 4
.d 1 0
	rtn
.export e_iTasks.Extensions.Clock_dgti_AnalogClock;20.18
.export e_iTasks.Extensions.Clock_ngti_AnalogClock;20.18
.descn e_iTasks.Extensions.Clock_dgti_AnalogClock;20.18 e_iTasks.Extensions.Clock_ngti_AnalogClock;20.18 0 0 "gti_AnalogClock;20.18"
.n 0 e_iTasks.Extensions.Clock_dgti_AnalogClock;20.18 ea18
.o 1 0
e_iTasks.Extensions.Clock_ngti_AnalogClock;20.18
	push_node _cycle_in_spine 0
.o 1 0
ea18
.o 1 0
s18
	buildAC "AnalogClock"
	buildh ARRAY 1
	buildh e_StdGeneric_dGenTypeCons 1
	buildAC "Time"
	buildh ARRAY 1
	buildh e_StdGeneric_dGenTypeCons 1
	fillh e_StdGeneric_dGenTypeArrow 2 2
.d 1 0
	rtn
.export e_iTasks.Extensions.Clock_dbimapToGeneric;32.24
.export e_iTasks.Extensions.Clock_nbimapToGeneric;32.24
.descn e_iTasks.Extensions.Clock_dbimapToGeneric;32.24 e_iTasks.Extensions.Clock_nbimapToGeneric;32.24 1 0 "bimapToGeneric;32.24"
.n 1 e_iTasks.Extensions.Clock_dbimapToGeneric;32.24 ea24
.o 1 0
e_iTasks.Extensions.Clock_nbimapToGeneric;32.24
	push_node _cycle_in_spine 1
.o 2 0
ea24
	jsr_eval 0
.o 2 0
s24
	eq_desc _Just 1 0
	jmp_true case.1
	jmp case.2
case.1
	repl_args 1 1
	create
	push_a 1
	update_a 1 2
	updatepop_a 0 1
.d 2 0
	jsr s21
.o 1 0
	fillh _Just 1 1
.d 1 0
	rtn
case.2
	fillh _None 0 1
	pop_a 1
.d 1 0
	rtn
.export e_iTasks.Extensions.Clock_sgEq_AnalogClock;3
.descexp e_iTasks.Extensions.Clock_dgEq_AnalogClock;3 e_iTasks.Extensions.Clock_ngEq_AnalogClock;3 e_iTasks.Extensions.Clock_lgEq_AnalogClock;3 2 0 "gEq_AnalogClock;3"
.o 3 0
e_iTasks.Extensions.Clock_igEq_AnalogClock;3
	pop_a 1
.d 2 0
	jmp s4
.ai 0 a4 e_iTasks.Extensions.Clock_igEq_AnalogClock;3
.o 2 0
e_iTasks.Extensions.Clock_lgEq_AnalogClock;3
	repl_args 1 1
.o 2 0
a4
.d 2 0
	jsr ea4
.o 0 1 b
	buildB_b 0
	pop_b 1
.d 1 0
	rtn
.n 2 e_iTasks.Extensions.Clock_dgEq_AnalogClock;3
.o 1 0
e_iTasks.Extensions.Clock_ngEq_AnalogClock;3
	push_node _cycle_in_spine 2
.d 2 0
	jsr ea4
.o 0 1 b
	fillB_b 0 0
	pop_b 1
.d 1 0
	rtn
.o 2 0
ea4
	jsr_eval 1
	jsr_eval 0
.o 2 0
e_iTasks.Extensions.Clock_sgEq_AnalogClock;3
.o 2 0
s4
	create
	push_a 2
	update_a 2 3
	update_a 1 2
	updatepop_a 0 1
.d 2 0
	jsr s21
.o 1 0
	create
	push_a 2
	buildh _Nil 0
	update_a 0 4
	pop_a 1
.d 2 0
	jsr s21
.o 1 0
	update_a 1 2
	updatepop_a 0 1
.d 2 0
	jmp s35
.o 2 0
s35
	push_a 1
	push_a 1
	update_a 1 3
	updatepop_a 0 2
.d 2 0
	jmp s34
.o 2 0
s34
	repl_args 1 1
	push_args 1 1 1
	buildh _Nil 0
	update_a 0 3
	pop_a 1
	push_a 0
	jsr_eval 0
	repl_r_args 0 3
	push_a 1
	jsr_eval 0
	repl_r_args 0 3
	pop_a 3
.d 0 6 iiiiii
	jmp e_iTasks.Extensions.DateTime_sgEq_Time;37
.export e_iTasks.Extensions.Clock_sgEditor_AnalogClock;2
.descexp e_iTasks.Extensions.Clock_dgEditor_AnalogClock;2 e_iTasks.Extensions.Clock_ngEditor_AnalogClock;2 e_iTasks.Extensions.Clock_lgEditor_AnalogClock;2 1 0 "gEditor_AnalogClock;2"
.o 2 0
e_iTasks.Extensions.Clock_igEditor_AnalogClock;2
	pop_a 1
.d 1 0
	jmp s3
.ai 1 _ e_iTasks.Extensions.Clock_igEditor_AnalogClock;2
.o 2 0
e_iTasks.Extensions.Clock_lgEditor_AnalogClock;2
	pop_a 1
.d 1 0
	jsr ea3
.o 4 0
.impmod iTasks.UI.Editor
.impdesc e_iTasks.UI.Editor_rEditor
	buildhr e_iTasks.UI.Editor_rEditor 4 0
.d 1 0
	rtn
.n 1 e_iTasks.Extensions.Clock_dgEditor_AnalogClock;2
.o 1 0
e_iTasks.Extensions.Clock_ngEditor_AnalogClock;2
	push_node _cycle_in_spine 1
.d 1 0
	jsr ea3
.o 4 0
	fill_r e_iTasks.UI.Editor_rEditor 4 0 4 0 0
	pop_a 4
.d 1 0
	rtn
.o 1 0
ea3
	jsr_eval 0
.o 1 0
e_iTasks.Extensions.Clock_sgEditor_AnalogClock;2
.o 1 0
s3
	pop_a 1
.d 0 0
	jmp s7
.o 0 0
s7
	buildh e_iTasks.Extensions.Clock_dwriteValue;17.15 0
	buildh e_iTasks.Extensions.Clock_donRefresh;15.13 0
	buildh e_iTasks.Extensions.Clock_donEdit;16.14 0
	buildI 11
	buildI 0
	build e_iTasks.Extensions.Clock_dc;45;146;7.8 2 e_iTasks.Extensions.Clock_nc;45;146;7.8
	buildh _Nil 0
	buildh e_Text.HTML_dPX 0
	buildAC "0"
	buildh ARRAY 1
	buildh e_Text.HTML_dSVGLength 2
	buildhr e_Text.HTML_kYAttr 1 0
	buildh _Cons 2
	buildh e_Text.HTML_dPX 0
	buildAC "0"
	buildh ARRAY 1
	buildh e_Text.HTML_dSVGLength 2
	buildhr e_Text.HTML_kXAttr 1 0
	buildh _Cons 2
	buildh _Nil 0
	buildAC "fill:#ccc;stroke: #000;stroke-width: 3px"
	buildhr e_Text.HTML_kStyleAttr 1 0
	buildh _Cons 2
	buildAC "100px"
	buildhr e_Text.HTML_kHeightAttr 1 0
	buildh _Cons 2
	buildAC "100px"
	buildhr e_Text.HTML_kWidthAttr 1 0
	buildh _Cons 2
	buildhr e_Text.HTML_kRectElt 2 0
	buildh _Cons 2
	buildh e_iTasks.Extensions.Clock_donReset;571.29 1
	buildh e_Text.GenJSON_dJSONDecode__Unit;53 0
	buildh e_iTasks.Extensions.Clock_dTD;AnalogClock 0
	buildhr e__SystemDynamic_kTypeCons 1 0
.d 6 0
	jsr e_iTasks.UI.Editor_sleafEditorToEditor
.o 4 0
	buildh e_iTasks.Extensions.Clock_dinitUI;11.10 0
.d 5 0
	jmp e_iTasks.UI.Editor_swithClientSideInit
.export e_iTasks.Extensions.Clock_dinitUI;11.10
.desc e_iTasks.Extensions.Clock_dinitUI;11.10 _hnf l10 3 0 "initUI;11.10"
.a 3 ea10
.o 2 0
l10
	push_args 0 2 2
	update_a 3 2
	create
	update_a 0 4
	pop_a 1
.o 4 0
ea10
	jsr_eval 2
	jsr_eval 1
.o 4 0
s10
	push_a 1
	buildh e_iTasks.Extensions.Clock_donAttributeChange;570.28 1
	push_a 3
	push_a 3
	push_a 2
	update_a 2 3
	update_a 1 2
	update_a 0 1
	pop_a 1
	update_a 4 5
	update_a 2 4
	update_a 1 3
	updatepop_a 0 2
.d 3 0
	jsr e_ABC.Interpreter.JavaScript_sjsWrapFun
.o 2 0
	create
	buildAC "onAttributeChange"
	push_a 4
	buildh _Nil 0
	update_a 0 6
	pop_a 1
.d 3 0
	jsr e_ABC.Interpreter.JavaScript_s.#;46
.o 1 0
	buildh e_ABC.Interpreter.JavaScript_dgToJS_JSVal;72 0
	push_a 3
	push_a 3
	push_a 3
	update_a 2 4
	update_a 0 2
	update_a 3 0
	update_a 1 3
	update_a 0 1
	pop_a 1
	update_a 3 6
	update_a 2 5
	update_a 1 4
	updatepop_a 0 3
.d 5 0
	jmp e_ABC.Interpreter.JavaScript_s.=
.export e_iTasks.Extensions.Clock_donAttributeChange;570.28
.desc e_iTasks.Extensions.Clock_donAttributeChange;570.28 _hnf l28 3 0 "onAttributeChange;570.28"
.a 3 ea28
.o 2 0
l28
	push_args 0 2 2
	update_a 3 2
	create
	update_a 0 4
	pop_a 1
.o 4 0
ea28
	jsr_eval 2
	jsr_eval 1
	push_array 1
	update_a 0 2
	pop_a 1
.o 4 0
s28
	pushI 0
	push_a 1
	update_a 1 2
	updatepop_a 0 1
	push_a 0
	select _ 1 0
	pushI 1
	push_a 1
	update_a 1 2
	updatepop_a 0 1
	push_a 0
	select _ 1 0
	buildAC "diff"
	buildh ARRAY 1
	buildh _Just 1
	create
	push_a 4
	buildh _Nil 0
	update_a 0 6
	update_a 0 5
	pop_a 1
.d 2 0
	jsr e_ABC.Interpreter.JavaScript_sjsValToString
.o 1 0
	buildh e_StdString_d==;2 0
	update_a 3 5
	update_a 2 4
	update_a 1 3
	updatepop_a 0 2
.d 3 0
	jsr e_StdMaybe_s==;7
.o 0 1 b
	jmp_false else.3
	push_a 2
	pushI 0
	create
	buildAC "length"
	push_a 3
	buildh _Nil 0
	update_a 0 7
	pop_a 1
.d 3 0
	jsr e_ABC.Interpreter.JavaScript_s.#;46
.o 1 0
.d 2 1 i
	jsr e_ABC.Interpreter.JavaScript_s.??;64
.o 1 1 i
	pushI 2
	push_b 1
	ltI
	jmp_false else.4
	create
	pushI 0
	push_a 2
	update_a 4 5
	update_a 2 4
	update_a 1 3
	updatepop_a 0 2
.d 2 1 i
	jsr e_ABC.Interpreter.JavaScript_s.#;47
.o 1 0
	push_a 2
	jsr_eval 0
	push_a 2
	push_a 2
	update_a 1 3
	update_a 2 1
	update_a 0 2
	pop_a 1
	update_a 2 4
	update_a 1 3
	updatepop_a 0 2
	pop_b 1
.d 4 0
	jmp s11
else.4
	pushI 3
	push_b 1
	ltI
	jmp_false else.5
	create
	pushI 0
	push_a 2
.d 2 1 i
	jsr e_ABC.Interpreter.JavaScript_s.#;47
.o 1 0
	push_a 3
	jsr_eval 0
	create
	push_a 3
	push_a 3
	update_a 2 4
	update_a 0 2
	update_a 3 0
	update_a 1 3
	update_a 0 1
	pop_a 1
	update_a 3 4
	update_a 2 3
	update_a 1 2
	updatepop_a 0 1
.d 4 0
	jsr s11
.o 1 0
	create
	pushI 1
	push_a 2
	buildh _Nil 0
	update_a 0 4
	pop_a 1
.d 2 1 i
	jsr e_ABC.Interpreter.JavaScript_s.#;47
.o 1 0
	push_a 3
	update_a 2 5
	update_a 1 4
	updatepop_a 0 3
	pop_b 1
.d 4 0
	jmp s11
else.5
	create
	pushI 0
	push_a 2
.d 2 1 i
	jsr e_ABC.Interpreter.JavaScript_s.#;47
.o 1 0
	push_a 3
	jsr_eval 0
	create
	push_a 3
	push_a 3
	update_a 2 4
	update_a 0 2
	update_a 3 0
	update_a 1 3
	update_a 0 1
	pop_a 1
	update_a 3 4
	update_a 2 3
	update_a 1 2
	updatepop_a 0 1
.d 4 0
	jsr s11
.o 1 0
	create
	pushI 1
	push_a 2
.d 2 1 i
	jsr e_ABC.Interpreter.JavaScript_s.#;47
.o 1 0
	create
	push_a 4
	push_a 3
	update_a 2 4
	update_a 3 2
	update_a 0 3
	pop_a 1
.d 4 0
	jsr s11
.o 1 0
	create
	pushI 2
	push_a 2
	buildh _Nil 0
	update_a 0 4
	pop_a 1
.d 2 1 i
	jsr e_ABC.Interpreter.JavaScript_s.#;47
.o 1 0
	push_a 3
	update_a 2 5
	update_a 1 4
	updatepop_a 0 3
	pop_b 1
.d 4 0
	jmp s11
else.3
	buildh e_StdString_dtoString;9 0
	push_a 3
	buildAC "Unknown attribute change"
	buildh ARRAY 1
	push_a 2
	update_a 2 3
	update_a 1 2
	update_a 0 1
	pop_a 1
	update_a 2 5
	update_a 1 4
	updatepop_a 0 3
.d 3 0
	jsr e_ABC.Interpreter.JavaScript_sjsTrace
.o 1 0
	fill_a 0 1
	pop_a 1
.d 1 0
	rtn
.o 4 0
s11
	push_a 2
	pushI 0
	create
	pushI 0
	push_a 3
	buildh _Nil 0
	update_a 0 6
	pop_a 1
.d 2 1 i
	jsr e_ABC.Interpreter.JavaScript_s.#;47
.o 1 0
.d 2 1 i
	jsr e_ABC.Interpreter.JavaScript_s.??;64
.o 1 1 i
	push_a 0
	pushI 0
	create
	pushI 1
	push_a 4
	buildh _Nil 0
	update_a 0 6
	update_a 0 4
	pop_a 1
.d 2 1 i
	jsr e_ABC.Interpreter.JavaScript_s.#;47
.o 1 0
	update_a 3 5
	update_a 1 4
	updatepop_a 0 3
.d 2 1 i
	jsr e_ABC.Interpreter.JavaScript_s.??;64
.o 1 1 i
	push_b 1
	pushI 13
	addI
	create
	buildAC "domEl.children"
	push_a 3
	update_a 3 4
	update_a 2 3
	update_a 1 2
	updatepop_a 0 1
.d 3 0
	jsr e_ABC.Interpreter.JavaScript_s.#;46
.o 1 0
	create
	pushI 0
	push_a 1
	update_a 1 2
	update_a 0 1
	pop_a 1
.d 2 1 i
	jsr e_ABC.Interpreter.JavaScript_s.#;47
.o 1 0
	create
	buildAC "children"
	push_a 2
	update_a 2 3
	update_a 1 2
	update_a 0 1
	pop_a 1
.d 3 0
	jsr e_ABC.Interpreter.JavaScript_s.#;46
.o 1 0
	create
	push_a 1
	update_a 1 2
	update_a 0 1
	pop_a 1
.d 2 1 i
	jsr e_ABC.Interpreter.JavaScript_s.#;47
.o 1 0
	push_a 1
	push_a 1
	update_a 1 2
	update_a 0 1
	pop_a 1
	update_a 1 2
	updatepop_a 0 1
.d 2 0
	jsr e_ABC.Interpreter.JavaScript_s.?
.o 2 0
	buildI_b 0
	push_b 1
	build_u e_iTasks.Extensions.Clock_d_f9.262 1 1 e_iTasks.Extensions.Clock_n_f9.262
	buildAC "transform"
	buildh ARRAY 1
	buildh _Tuple 2
	create
	buildAC "setAttribute"
	push_a 3
	pop_b 1
	buildh _Nil 0
	update_a 0 5
	pop_a 1
.d 3 0
	jsr e_ABC.Interpreter.JavaScript_s.#;46
.o 1 0
	buildh e_ABC.Interpreter.JavaScript_dgToJS__String;70 0
	buildhr e_iTasks.Extensions.Clock_rgToJS_s; 1 0
	buildh e_ABC.Interpreter.JavaScript_dgToJS__String;70 0
	buildhr e_iTasks.Extensions.Clock_rgToJS_s; 1 0
	buildh e_ABC.Interpreter.JavaScript_dtoJSArgs;57 2
	push_a 4
	push_a 3
	update_a 1 4
	update_a 2 1
	update_a 3 2
	update_a 0 3
	pop_a 1
	update_a 3 5
	update_a 2 4
	update_a 1 3
	updatepop_a 0 2
	pop_b 1
.d 5 0
	jmp e_ABC.Interpreter.JavaScript_s.$!
.export e_iTasks.Extensions.Clock_d_f9.262
.export e_iTasks.Extensions.Clock_n_f9.262
.descn e_iTasks.Extensions.Clock_d_f9.262 e_iTasks.Extensions.Clock_n_f9.262 2 0 "_f9.262"
.nu 1 1 e_iTasks.Extensions.Clock_d_f9.262 _
.o 1 0
e_iTasks.Extensions.Clock_n_f9.262
	push_node_u _cycle_in_spine 1 1
.o 2 1 i
ea262
.o 2 1 i
s262
	push_a 0
	jsr_eval 0
	pushI_a 1
	pop_a 1
	push_b 1
	update_b 1 2
	updatepop_b 0 1
	pop_a 1
.d 0 2 ii
	jsr s12
.o 0 1 i
	pushI 90
	push_b 1
	update_b 1 2
	update_b 0 1
	pop_b 1
	subI
.d 0 1 i
	jsr ItoAC
.o 1 0
	buildAC " 50 50)"
	push_a 1
	update_a 1 2
	update_a 0 1
	pop_a 1
.d 2 0
	jsr catAC
.o 1 0
	buildAC "rotate("
.d 2 0
	jsr catAC
.o 1 0
	fillh ARRAY 1 1
.d 1 0
	rtn
.export e_iTasks.Extensions.Clock_sTD;AnalogClock
.export e_iTasks.Extensions.Clock_eaTD;AnalogClock
.descexp e_iTasks.Extensions.Clock_dTD;AnalogClock e_iTasks.Extensions.Clock_nTD;AnalogClock e_iTasks.Extensions.Clock_lTD;AnalogClock 1 0 "TD;AnalogClock"
.o 2 0
e_iTasks.Extensions.Clock_lTD;AnalogClock
	update_a 1 0
	create
	update_a 0 2
	pop_a 1
.d 2 0
	jmp e_iTasks.Extensions.Clock_eaTD;AnalogClock
.n 1 e_iTasks.Extensions.Clock_dTD;AnalogClock e_iTasks.Extensions.Clock_eaTD;AnalogClock
.o 1 0
e_iTasks.Extensions.Clock_nTD;AnalogClock
	push_node _cycle_in_spine 1
.o 2 0
e_iTasks.Extensions.Clock_eaTD;AnalogClock
.o 2 0
e_iTasks.Extensions.Clock_sTD;AnalogClock
.o 2 0
s6
	fillh _Nil 0 1
	pop_a 1
.d 1 0
	rtn
.export e_iTasks.Extensions.Clock_donReset;571.29
.desc e_iTasks.Extensions.Clock_donReset;571.29 _hnf l29 4 0 "onReset;571.29"
.a 0 a29
.o 2 0
l29
	repl_args 3 3
.o 4 0
a29
.o 4 0
ea29
	pushI 0
	pushI 0
	pushI 0
	buildhr e_iTasks.Extensions.Clock_kAnalogClock 0 3
	push_a 3
	push_a 1
	update_a 1 2
	update_a 0 1
	pop_a 1
	build e_Data.Maybe_dfromMaybe;67 2 e_Data.Maybe_nfromMaybe;67
	push_a 0
	build e_iTasks.Extensions.Clock_d_match0.263 1 e_iTasks.Extensions.Clock_n_match0.263
	buildh _None 0
	buildh _Nil 0
	push_a 5
	buildh _Cons 2
	push_a 2
	build e_iTasks.Extensions.DateTime_dTime.sec -3 e_iTasks.Extensions.DateTime_nTime.sec
	push_a 3
	build e_iTasks.Extensions.DateTime_dTime.min -3 e_iTasks.Extensions.DateTime_nTime.min
	push_a 4
	build e_iTasks.Extensions.DateTime_dTime.hour -3 e_iTasks.Extensions.DateTime_nTime.hour
	push_a 7
	build e_iTasks.Extensions.Clock_dsvgClock;8.9 4 e_iTasks.Extensions.Clock_nsvgClock;8.9
	build e_iTasks.Extensions.Clock_d_f5.258 1 e_iTasks.Extensions.Clock_n_f5.258
	build e_iTasks.UI.Definition_dvalueAttr 1 e_iTasks.UI.Definition_nvalueAttr
	buildh _Cons 2
	pushI 100
	buildhr e_iTasks.UI.Definition_kExactSize 0 1
	pushI 100
	buildhr e_iTasks.UI.Definition_kExactSize 0 1
	build e_iTasks.UI.Definition_dsizeAttr 2 e_iTasks.UI.Definition_nsizeAttr
	buildh _Cons 2
	build e_Data.Map_dunions;70 1 e_Data.Map_nunions;70
	buildh e_iTasks.UI.Definition_dUIHtmlView 0
	build e_iTasks.UI.Definition_duia 2 e_iTasks.UI.Definition_nuia
	push_a 3
	push_a 1
	update_a 1 2
	update_a 0 1
	pop_a 1
	buildh _Tuple 3
	buildh e_Data.Error_dOk 1
	push_a 6
	push_a 1
	update_a 1 2
	update_a 0 1
	pop_a 1
	update_a 1 7
	updatepop_a 0 6
	push_a 1
	push_a 1
	buildh _Tuple 2
	updatepop_a 0 2
.d 1 0
	rtn
.export e_iTasks.Extensions.Clock_d_match0.263
.export e_iTasks.Extensions.Clock_n_match0.263
.descn e_iTasks.Extensions.Clock_d_match0.263 e_iTasks.Extensions.Clock_n_match0.263 1 0 "_match0.263"
.n 1 e_iTasks.Extensions.Clock_d_match0.263
.o 1 0
e_iTasks.Extensions.Clock_n_match0.263
	push_node _cycle_in_spine 1
.d 1 0
	jsr ea263
.o 0 3 iii
	fill_r e_iTasks.Extensions.DateTime_rTime 0 3 0 0 0
	pop_b 3
.d 1 0
	rtn
.o 1 0
ea263
	jsr_eval 0
.o 1 0
s263
	repl_r_args 0 3
.d 0 3 iii
	rtn
.export e_iTasks.Extensions.Clock_d_f5.258
.export e_iTasks.Extensions.Clock_n_f5.258
.descn e_iTasks.Extensions.Clock_d_f5.258 e_iTasks.Extensions.Clock_n_f5.258 1 0 "_f5.258"
.n 1 e_iTasks.Extensions.Clock_d_f5.258 ea258
.o 1 0
e_iTasks.Extensions.Clock_n_f5.258
	push_node _cycle_in_spine 1
.o 2 0
ea258
.o 2 0
s258
	push_a 0
	jsr_eval 0
	updatepop_a 0 1
.d 1 0
	jsr e_Text.HTML_stoString;7
.o 1 0
	fill_r e_Text.GenJSON_kJSONString 1 0 1 0 0
	pop_a 1
.d 1 0
	rtn
.export e_iTasks.Extensions.Clock_dsvgClock;8.9
.export e_iTasks.Extensions.Clock_nsvgClock;8.9
.descn e_iTasks.Extensions.Clock_dsvgClock;8.9 e_iTasks.Extensions.Clock_nsvgClock;8.9 4 0 "svgClock;8.9"
.n 4 e_iTasks.Extensions.Clock_dsvgClock;8.9 ea9
.o 1 0
e_iTasks.Extensions.Clock_nsvgClock;8.9
	push_node _cycle_in_spine 4
.o 5 0
ea9
	jsr_eval 0
.o 5 0
s9
	buildh _Nil 0
	push_a 2
	buildI 2
	build e_iTasks.Extensions.Clock_ddegrees;14.12 2 e_iTasks.Extensions.Clock_ndegrees;14.12
	buildAC "#999"
	buildh ARRAY 1
	buildI 40
	push_a 2
	update_a 2 3
	update_a 0 2
	pop_a 1
	build e_iTasks.Extensions.Clock_dhand;566.25 3 e_iTasks.Extensions.Clock_nhand;566.25
	buildh _Cons 2
	push_a 3
	buildI 1
	build e_iTasks.Extensions.Clock_ddegrees;14.12 2 e_iTasks.Extensions.Clock_ndegrees;14.12
	buildAC "#666"
	buildh ARRAY 1
	buildI 50
	push_a 2
	update_a 2 3
	update_a 0 2
	pop_a 1
	build e_iTasks.Extensions.Clock_dhand;566.25 3 e_iTasks.Extensions.Clock_nhand;566.25
	buildh _Cons 2
	push_a 4
	buildI 0
	build e_iTasks.Extensions.Clock_ddegrees;14.12 2 e_iTasks.Extensions.Clock_ndegrees;14.12
	buildAC "#000"
	buildh ARRAY 1
	buildI 45
	push_a 2
	update_a 2 3
	update_a 0 2
	pop_a 1
	build e_iTasks.Extensions.Clock_dhand;566.25 3 e_iTasks.Extensions.Clock_nhand;566.25
	buildh _Cons 2
	create
	push_a 2
	push_a 2
	update_a 2 3
	update_a 0 2
	pop_a 1
	update_a 2 6
	update_a 1 5
	updatepop_a 0 4
.d 3 0
	jsr e_StdList_s++
.o 1 0
	buildh _Nil 0
	buildAC "100"
	buildAC "100"
	buildAC "0"
	buildAC "0"
	buildhr e_Text.HTML_kViewBoxAttr 4 0
	buildh _Cons 2
	buildh _Nil 0
	buildAC "flex: 1; align-self: stretch;"
	buildhr e_Text.HTML_kStyleAttr 1 0
	buildh _Cons 2
	fill_r e_Text.HTML_kSvgTag 3 0 3 0 0
	pop_a 3
.d 1 0
	rtn
.export e_iTasks.Extensions.Clock_ddegrees;14.12
.export e_iTasks.Extensions.Clock_ndegrees;14.12
.descn e_iTasks.Extensions.Clock_ddegrees;14.12 e_iTasks.Extensions.Clock_ndegrees;14.12 2 0 "degrees;14.12"
.n 2 e_iTasks.Extensions.Clock_ddegrees;14.12
.o 1 0
e_iTasks.Extensions.Clock_ndegrees;14.12
	push_node _cycle_in_spine 2
.d 2 0
	jsr ea12
.o 0 1 i
	fillI_b 0 0
	pop_b 1
.d 1 0
	rtn
.o 2 0
ea12
	jsr_eval 1
	jsr_eval 0
	pushI_a 1
	pushI_a 0
	pop_a 2
.o 0 2 ii
s12
	eqI_b 0 0
	jmp_true case.6
	eqI_b 1 0
	jmp_true case.7
	eqI_b 2 0
	jmp_true case.8
	jmp s12.1
case.6
	push_b 1
	pushI 6
	update_b 1 3
	updatepop_b 0 2
	mulI
.d 0 1 i
	rtn
case.7
	push_b 1
	pushI 6
	update_b 1 3
	updatepop_b 0 2
	mulI
.d 0 1 i
	rtn
case.8
	push_b 1
	pushI 30
	update_b 1 3
	updatepop_b 0 2
	mulI
.d 0 1 i
	rtn
s12.1
	pop_b 2
	pushD m_iTasks.Extensions.Clock
	pushD e_iTasks.Extensions.Clock_ddegrees;14.12
.d 0 2 ii
	jmp _match_error
.export e_iTasks.Extensions.Clock_dhand;566.25
.export e_iTasks.Extensions.Clock_nhand;566.25
.descn e_iTasks.Extensions.Clock_dhand;566.25 e_iTasks.Extensions.Clock_nhand;566.25 3 0 "hand;566.25"
.n 3 e_iTasks.Extensions.Clock_dhand;566.25 ea25
.o 1 0
e_iTasks.Extensions.Clock_nhand;566.25
	push_node _cycle_in_spine 3
.o 4 0
ea25
.o 4 0
s25
	buildh _Nil 0
	buildh _Nil 0
	buildAC "50"
	buildh ARRAY 1
	buildAC "50"
	buildh ARRAY 1
	buildh _Tuple 2
	buildh _Just 1
	push_a 4
	build e_iTasks.Extensions.Clock_d_f8.261 2 e_iTasks.Extensions.Clock_n_f8.261
	buildh _Cons 2
	buildhr e_Text.HTML_kTransformAttr 1 0
	buildh _Cons 2
	buildh e_Text.HTML_dPX 0
	buildAC "50"
	buildh ARRAY 1
	buildh e_Text.HTML_dSVGLength 2
	buildhr e_Text.HTML_kYAttr 1 0
	buildh _Cons 2
	buildh e_Text.HTML_dPX 0
	buildAC "50"
	buildh ARRAY 1
	buildh e_Text.HTML_dSVGLength 2
	buildhr e_Text.HTML_kXAttr 1 0
	buildh _Cons 2
	buildh _Nil 0
	push_a 4
	build e_iTasks.Extensions.Clock_d_f7.260 1 e_iTasks.Extensions.Clock_n_f7.260
	buildh _Cons 2
	buildAC "2px"
	buildhr e_Text.HTML_kHeightAttr 1 0
	buildh _Cons 2
	push_a 2
	build e_iTasks.Extensions.Clock_d_f6.259 1 e_iTasks.Extensions.Clock_n_f6.259
	buildh _Cons 2
	fill_r e_Text.HTML_kRectElt 2 0 5 0 0
	pop_a 5
.d 1 0
	rtn
.export e_iTasks.Extensions.Clock_d_f8.261
.export e_iTasks.Extensions.Clock_n_f8.261
.descn e_iTasks.Extensions.Clock_d_f8.261 e_iTasks.Extensions.Clock_n_f8.261 2 0 "_f8.261"
.n 2 e_iTasks.Extensions.Clock_d_f8.261 ea261
.o 1 0
e_iTasks.Extensions.Clock_n_f8.261
	push_node _cycle_in_spine 2
.o 3 0
ea261
.o 3 0
s261
	push_a 1
	jsr_eval 0
	push_a 1
	jsr_eval 0
	pushI_a 2
	pop_a 1
	pushI 90
	push_b 1
	update_b 1 2
	update_b 0 1
	pop_b 1
	subI
	buildh _Nil 0
	update_a 0 2
	update_a 0 3
	pop_a 1
.d 0 1 i
	jsr ItoAC
.o 1 0
	fill_r e_Text.HTML_kRotateTransform 2 0 4 0 0
	pop_a 4
.d 1 0
	rtn
.export e_iTasks.Extensions.Clock_d_f7.260
.export e_iTasks.Extensions.Clock_n_f7.260
.descn e_iTasks.Extensions.Clock_d_f7.260 e_iTasks.Extensions.Clock_n_f7.260 1 0 "_f7.260"
.n 1 e_iTasks.Extensions.Clock_d_f7.260 ea260
.o 1 0
e_iTasks.Extensions.Clock_n_f7.260
	push_node _cycle_in_spine 1
.o 2 0
ea260
.o 2 0
s260
	push_a 0
	jsr_eval 0
	push_array 0
	updatepop_a 0 1
	buildAC "fill: "
	update_a 1 2
	updatepop_a 0 1
.d 2 0
	jsr catAC
.o 1 0
	fill_r e_Text.HTML_kStyleAttr 1 0 1 0 0
	pop_a 1
.d 1 0
	rtn
.export e_iTasks.Extensions.Clock_d_f6.259
.export e_iTasks.Extensions.Clock_n_f6.259
.descn e_iTasks.Extensions.Clock_d_f6.259 e_iTasks.Extensions.Clock_n_f6.259 1 0 "_f6.259"
.n 1 e_iTasks.Extensions.Clock_d_f6.259 ea259
.o 1 0
e_iTasks.Extensions.Clock_n_f6.259
	push_node _cycle_in_spine 1
.o 2 0
ea259
.o 2 0
s259
	push_a 0
	jsr_eval 0
	pushI_a 1
	pop_a 1
	pop_a 1
.d 0 1 i
	jsr ItoAC
.o 1 0
	buildAC "px"
	push_a 1
	update_a 1 2
	update_a 0 1
	pop_a 1
.d 2 0
	jsr catAC
.o 1 0
	fill_r e_Text.HTML_kWidthAttr 1 0 1 0 0
	pop_a 1
.d 1 0
	rtn
.export e_iTasks.Extensions.Clock_donEdit;16.14
.desc e_iTasks.Extensions.Clock_donEdit;16.14 _hnf l14 3 0 "onEdit;16.14"
.a 0 a14
.o 2 0
l14
	repl_args 2 2
.o 3 0
a14
.o 3 0
ea14
	jsr_eval 0
	buildh _None 0
	buildh e_iTasks.UI.Definition_dNoChange 0
	push_a 3
	push_a 1
	update_a 1 2
	update_a 0 1
	pop_a 1
	buildh _Tuple 3
	buildh e_Data.Error_dOk 1
	push_a 3
	push_a 1
	update_a 1 2
	update_a 0 1
	pop_a 1
	update_a 1 4
	updatepop_a 0 3
	push_a 1
	push_a 1
	buildh _Tuple 2
	updatepop_a 0 2
.d 1 0
	rtn
.export e_iTasks.Extensions.Clock_donRefresh;15.13
.desc e_iTasks.Extensions.Clock_donRefresh;15.13 _hnf l13 3 0 "onRefresh;15.13"
.a 0 a13
.o 2 0
l13
	repl_args 2 2
.o 3 0
a13
.d 3 0
	jsr ea13
.o 2 0
	push_a 1
	push_a 1
	buildh _Tuple 2
	updatepop_a 0 2
.d 1 0
	rtn
.o 3 0
ea13
	jsr_eval 1
	jsr_eval 0
.o 3 0
s13
	push_r_args 0 0 3
	push_r_args 1 0 3
	build_r e_iTasks.Extensions.DateTime_rTime 0 3 0 3
	buildI_b 3
	buildI_b 0
	build e_iTasks.Extensions.Clock_d_f1.254 3 e_iTasks.Extensions.Clock_n_f1.254
	build_r e_iTasks.Extensions.DateTime_rTime 0 3 0 3
	buildI_b 4
	buildI_b 1
	build e_iTasks.Extensions.Clock_d_f0.253 3 e_iTasks.Extensions.Clock_n_f0.253
	build e_StdList_d++ 2 e_StdList_n++
	build_r e_iTasks.Extensions.DateTime_rTime 0 3 0 3
	push_b 5
	push_b 3
	eqI
	create
	push_a 1
	update_a 1 2
	update_a 0 1
	pop_a 1
	updatepop_b 0 6
.d 2 1 b
	jsr s38
.o 1 0
	create
	push_a 2
	update_a 1 3
	update_a 2 1
	update_a 0 2
	pop_a 1
.d 3 0
	jsr e_StdList_s++
.o 1 0
	push_a 1
	push_a 4
	push_a 4
	push_a 3
	update_a 3 4
	update_a 2 3
	update_a 1 2
	update_a 0 1
	pop_a 1
	update_a 3 6
	update_a 2 5
	update_a 1 4
	updatepop_a 0 3
.d 4 0
	jmp s41
.export e_iTasks.Extensions.Clock_d_f1.254
.export e_iTasks.Extensions.Clock_n_f1.254
.descn e_iTasks.Extensions.Clock_d_f1.254 e_iTasks.Extensions.Clock_n_f1.254 3 0 "_f1.254"
.n 3 e_iTasks.Extensions.Clock_d_f1.254 ea254
.o 1 0
e_iTasks.Extensions.Clock_n_f1.254
	push_node _cycle_in_spine 3
.o 4 0
ea254
.o 4 0
s254
	push_a 1
	jsr_eval 0
	pushI_a 2
	pop_a 1
	push_a 0
	jsr_eval 0
	pushI_a 1
	pop_a 1
	eqI
	push_a 2
	updatepop_a 0 3
.d 2 1 b
	jmp s40
.export e_iTasks.Extensions.Clock_d_f0.253
.export e_iTasks.Extensions.Clock_n_f0.253
.descn e_iTasks.Extensions.Clock_d_f0.253 e_iTasks.Extensions.Clock_n_f0.253 3 0 "_f0.253"
.n 3 e_iTasks.Extensions.Clock_d_f0.253 ea253
.o 1 0
e_iTasks.Extensions.Clock_n_f0.253
	push_node _cycle_in_spine 3
.o 4 0
ea253
.o 4 0
s253
	push_a 1
	jsr_eval 0
	pushI_a 2
	pop_a 1
	push_a 0
	jsr_eval 0
	pushI_a 1
	pop_a 1
	eqI
	push_a 2
	updatepop_a 0 3
.d 2 1 b
	jmp s39
.o 4 0
s41
	eq_desc _Nil 0 0
	jmp_true case.9
	jmp case.10
case.9
	buildh _None 0
	buildh e_iTasks.UI.Definition_dNoChange 0
	push_a 3
	push_a 1
	update_a 1 2
	update_a 0 1
	pop_a 1
	buildh _Tuple 3
	buildh e_Data.Error_dOk 1
	push_a 3
	push_a 1
	update_a 1 2
	update_a 0 1
	pop_a 1
	update_a 1 5
	updatepop_a 0 4
.d 2 0
	rtn
case.10
	buildh _None 0
	buildh _Nil 0
	buildh _Nil 0
	push_a 3
	build e_iTasks.Extensions.Clock_d_f2.255 1 e_iTasks.Extensions.Clock_n_f2.255
	buildAC "diff"
	buildh ARRAY 1
	build e_iTasks.UI.Definition_dSetAttribute 2 e_iTasks.UI.Definition_nSetAttribute
	buildh _Cons 2
	buildh e_iTasks.UI.Definition_dChangeUI 2
	push_a 5
	push_a 1
	update_a 1 2
	update_a 0 1
	pop_a 1
	buildh _Tuple 3
	buildh e_Data.Error_dOk 1
	push_a 3
	push_a 1
	update_a 1 2
	update_a 0 1
	pop_a 1
	update_a 1 5
	updatepop_a 0 4
.d 2 0
	rtn
.export e_iTasks.Extensions.Clock_d_f2.255
.export e_iTasks.Extensions.Clock_n_f2.255
.descn e_iTasks.Extensions.Clock_d_f2.255 e_iTasks.Extensions.Clock_n_f2.255 1 0 "_f2.255"
.n 1 e_iTasks.Extensions.Clock_d_f2.255 ea255
.o 1 0
e_iTasks.Extensions.Clock_n_f2.255
	push_node _cycle_in_spine 1
.o 2 0
ea255
.o 2 0
s255
	buildh e_iTasks.Extensions.Clock_dJSONEncode_s;568.26 0
	push_a 1
	push_a 1
	update_a 1 2
	update_a 0 1
	pop_a 1
	update_a 1 2
	updatepop_a 0 1
.d 3 0
	jmp e_Text.GenJSON_stoJSON
.o 2 1 b
s40
	eqB_b TRUE 0
	jmp_true case.11
	jmp case.12
case.11
	fillh _Nil 0 1
	pop_a 1
	pop_b 1
.d 1 0
	rtn
case.12
	buildh _Nil 0
	push_r_args_b 1 0 3 1 1
	buildI_b 0
	pop_b 1
	buildI 2
	buildh _Tuple 2
	fillh _Cons 2 3
	pop_a 1
	pop_b 1
.d 1 0
	rtn
.o 2 1 b
s39
	eqB_b TRUE 0
	jmp_true case.13
	jmp case.14
case.13
	fillh _Nil 0 1
	pop_a 1
	pop_b 1
.d 1 0
	rtn
case.14
	buildh _Nil 0
	push_r_args_b 1 0 3 2 1
	buildI_b 0
	pop_b 1
	buildI 1
	buildh _Tuple 2
	fillh _Cons 2 3
	pop_a 1
	pop_b 1
.d 1 0
	rtn
.o 2 1 b
s38
	eqB_b TRUE 0
	jmp_true case.15
	jmp case.16
case.15
	fillh _Nil 0 1
	pop_a 1
	pop_b 1
.d 1 0
	rtn
case.16
	buildh _Nil 0
	push_r_args_b 1 0 3 3 1
	buildI_b 0
	pop_b 1
	buildI 0
	buildh _Tuple 2
	fillh _Cons 2 3
	pop_a 1
	pop_b 1
.d 1 0
	rtn
.export e_iTasks.Extensions.Clock_dJSONEncode_s;568.26
.desc e_iTasks.Extensions.Clock_dJSONEncode_s;568.26 _hnf l26 2 0 "JSONEncode_s;568.26"
.o 3 1 b
i26
	pop_a 1
.d 2 1 b
	jmp s26
.ai 2 ea26 i26
.o 2 0
l26
	push_args 0 1 1
	update_a 2 1
	create
	update_a 0 3
	pop_a 1
.o 3 0
ea26
	jsr_eval 1
	jsr_eval 0
	pushB_a 0
	pop_a 1
.o 2 1 b
s26
	buildh e_iTasks.Extensions.Clock_dJSONEncode_s;569.27 0
	push_a 1
	push_b 0
	push_a 1
	update_a 1 2
	update_a 0 1
	pop_a 1
	update_a 1 2
	updatepop_a 0 1
	updatepop_b 0 1
.d 3 1 b
	jmp e_Text.GenJSON_sJSONEncode__List;17
.export e_iTasks.Extensions.Clock_dJSONEncode_s;569.27
.desc e_iTasks.Extensions.Clock_dJSONEncode_s;569.27 _hnf l27 2 0 "JSONEncode_s;569.27"
.o 3 1 b
i27
	pop_a 1
	push_args 0 2 2
	update_a 1 2
	update_a 0 1
	pop_a 1
.d 3 1 b
	jmp s27
.ai 2 ea27 i27
.o 2 0
l27
	push_args 0 1 1
	update_a 2 1
	create
	update_a 0 3
	pop_a 1
.o 3 0
ea27
	push_a 1
	jsr_eval 0
	repl_args 2 2
	jsr_eval 2
	pushB_a 2
	update_a 1 3
	update_a 0 2
	pop_a 2
.o 3 1 b
s27
	buildh e_Text.GenJSON_dJSONEncode_Int;12 0
	buildh e_Text.GenJSON_dJSONEncode_Int;12 0
	push_a 3
	push_a 3
	push_b 0
	push_a 3
	update_a 2 4
	update_a 0 2
	update_a 3 0
	update_a 1 3
	update_a 0 1
	pop_a 1
	update_a 3 5
	update_a 2 4
	update_a 1 3
	updatepop_a 0 2
	updatepop_b 0 1
.d 5 1 b
	jmp e_Text.GenJSON_sJSONEncode__Tuple2;24
.export e_iTasks.Extensions.Clock_dwriteValue;17.15
.desc e_iTasks.Extensions.Clock_dwriteValue;17.15 _hnf l15 1 0 "writeValue;17.15"
.o 2 0
l15
	update_a 1 0
	create
	update_a 0 2
	pop_a 1
.o 2 0
ea15
.o 2 0
s15
	buildh _None 0
	fillh e_Data.Error_dOk 1 2
	pop_a 1
.d 1 0
	rtn
.export e_iTasks.Extensions.Clock_dc;45;146;7.8
.export e_iTasks.Extensions.Clock_nc;45;146;7.8
.descn e_iTasks.Extensions.Clock_dc;45;146;7.8 e_iTasks.Extensions.Clock_nc;45;146;7.8 2 0 "c;45;146;7.8"
.n 2 e_iTasks.Extensions.Clock_dc;45;146;7.8 ea8
.o 1 0
e_iTasks.Extensions.Clock_nc;45;146;7.8
	push_node _cycle_in_spine 2
.o 3 0
ea8
	pushI_a 1
	pushI_a 0
	pop_a 2
.o 1 2 ii
s8
	push_b 0
	push_b 2
	ltI
	notB
	jmp_false else.17
	push_b 1
	push_b 1
	build_u e_iTasks.Extensions.Clock_d_f4.257 0 2 e_iTasks.Extensions.Clock_n_f4.257
	buildh _Nil 0
	buildh _Nil 0
	buildAC "50"
	buildh ARRAY 1
	buildAC "50"
	buildh ARRAY 1
	buildh _Tuple 2
	buildh _Just 1
	push_b 0
	build_u e_iTasks.Extensions.Clock_d_f3.256 1 1 e_iTasks.Extensions.Clock_n_f3.256
	buildh _Cons 2
	buildhr e_Text.HTML_kTransformAttr 1 0
	buildh _Cons 2
	buildh e_Text.HTML_dPX 0
	buildAC "50"
	buildh ARRAY 1
	buildh e_Text.HTML_dSVGLength 2
	buildhr e_Text.HTML_kYAttr 1 0
	buildh _Cons 2
	buildh e_Text.HTML_dPX 0
	buildAC "90"
	buildh ARRAY 1
	buildh e_Text.HTML_dSVGLength 2
	buildhr e_Text.HTML_kXAttr 1 0
	buildh _Cons 2
	buildh _Nil 0
	buildAC "fill: #ddd;"
	buildhr e_Text.HTML_kStyleAttr 1 0
	buildh _Cons 2
	buildAC "2px"
	buildhr e_Text.HTML_kHeightAttr 1 0
	buildh _Cons 2
	buildAC "10px"
	buildhr e_Text.HTML_kWidthAttr 1 0
	buildh _Cons 2
	buildhr e_Text.HTML_kRectElt 2 0
	fillh _Cons 2 2
	pop_b 2
.d 1 0
	rtn
else.17
	fillh _Nil 0 0
	pop_b 2
.d 1 0
	rtn
.export e_iTasks.Extensions.Clock_d_f4.257
.export e_iTasks.Extensions.Clock_n_f4.257
.descn e_iTasks.Extensions.Clock_d_f4.257 e_iTasks.Extensions.Clock_n_f4.257 2 0 "_f4.257"
.nu 0 2 e_iTasks.Extensions.Clock_d_f4.257 _
.o 1 0
e_iTasks.Extensions.Clock_n_f4.257
	push_node_u _cycle_in_spine 0 2
.o 1 2 ii
ea257
.o 1 2 ii
s257
	pushI 1
	push_b 1
	addI
	push_b 2
	push_b 1
	update_b 1 2
	update_b 0 1
	pop_b 1
	update_b 1 3
	updatepop_b 0 2
.d 1 2 ii
	jmp s8
.export e_iTasks.Extensions.Clock_d_f3.256
.export e_iTasks.Extensions.Clock_n_f3.256
.descn e_iTasks.Extensions.Clock_d_f3.256 e_iTasks.Extensions.Clock_n_f3.256 2 0 "_f3.256"
.nu 1 1 e_iTasks.Extensions.Clock_d_f3.256 _
.o 1 0
e_iTasks.Extensions.Clock_n_f3.256
	push_node_u _cycle_in_spine 1 1
.o 2 1 i
ea256
.o 2 1 i
s256
	push_a 0
	jsr_eval 0
	push_b 0
	pushI 30
	mulI
	updatepop_b 0 1
	buildh _Nil 0
	update_a 0 2
	pop_a 1
.d 0 1 i
	jsr ItoAC
.o 1 0
	fill_r e_Text.HTML_kRotateTransform 2 0 3 0 0
	pop_a 3
.d 1 0
	rtn
.export e_iTasks.Extensions.Clock_sJSONDecode_AnalogClock;1
.descexp e_iTasks.Extensions.Clock_dJSONDecode_AnalogClock;1 e_iTasks.Extensions.Clock_nJSONDecode_AnalogClock;1 e_iTasks.Extensions.Clock_lJSONDecode_AnalogClock;1 2 0 "JSONDecode_AnalogClock;1"
.o 2 1 b
e_iTasks.Extensions.Clock_iJSONDecode_AnalogClock;1
	pop_a 1
.d 1 1 b
	jmp s2
.ai 0 a2 e_iTasks.Extensions.Clock_iJSONDecode_AnalogClock;1
.o 2 0
e_iTasks.Extensions.Clock_lJSONDecode_AnalogClock;1
	repl_args 1 1
.o 2 0
a2
.d 2 0
	jsr ea2
.o 2 0
	push_a 1
	push_a 1
	buildh _Tuple 2
	updatepop_a 0 2
.d 1 0
	rtn
.n 2 e_iTasks.Extensions.Clock_dJSONDecode_AnalogClock;1
.o 1 0
e_iTasks.Extensions.Clock_nJSONDecode_AnalogClock;1
	push_node _cycle_in_spine 2
.d 2 0
	jsr ea2
.o 2 0
	push_a 1
	push_a 1
	fillh _Tuple 2 4
	pop_a 2
.d 1 0
	rtn
.o 2 0
ea2
	jsr_eval 1
	jsr_eval 0
	pushB_a 0
	pop_a 1
.o 1 1 b
e_iTasks.Extensions.Clock_sJSONDecode_AnalogClock;1
.o 1 1 b
s2
	push_a 0
	push_b 0
	buildAC "AnalogClock"
	buildh ARRAY 1
	updatepop_b 0 1
	update_a 1 2
	updatepop_a 0 1
.d 2 1 b
	jsr s33
.o 2 0
.d 2 0
	jmp s252
.o 2 1 b
s33
	push_a 1
	pushB FALSE
	push_a 1
	updatepop_b 0 1
	update_a 1 2
	updatepop_a 0 1
.d 2 1 b
	jsr s32
.o 2 0
	push_a 2
	push_a 2
	update_a 1 3
	update_a 2 1
	update_a 0 2
	pop_a 1
	update_a 2 3
	update_a 1 2
	updatepop_a 0 1
.d 3 0
	jmp s251
.o 2 1 b
s32
	eq_desc _Cons 2 1
	jmp_true case.18
	jmp case.19
case.18
	push_args 1 2 2
	jsr_eval 0
	eq_desc e_Text.GenJSON_kJSONArray 0 0
	jmp_true case.20
	pop_a 2
	jmp case.19
case.20
	repl_args 1 1
	eq_desc _Cons 2 0
	jmp_true case.21
	pop_a 2
	jmp case.19
case.21
	repl_args 2 2
	jsr_eval 0
	eq_desc e_Text.GenJSON_kJSONString 0 0
	jmp_true case.22
	pop_a 3
	jmp case.19
case.22
	repl_args 1 1
	push_array 3
	push_a 1
	pop_b 1
	update_a 1 2
	updatepop_a 0 1
	buildh _Nil 0
	update_a 0 5
	pop_a 1
.d 2 0
	jsr eqAC
.o 0 1 b
	jmp_false else.23
	push_a 0
	jsr_eval 0
	pushB FALSE
	update_a 2 3
	updatepop_a 0 2
.d 1 1 b
	jsr e_iTasks.Extensions.DateTime_sJSONDecode_Time;34
.o 2 0
	push_a 3
	push_a 3
	push_a 3
	update_a 2 4
	update_a 0 2
	update_a 3 0
	update_a 1 3
	update_a 0 1
	pop_a 1
	update_a 3 5
	update_a 2 4
	update_a 1 3
	updatepop_a 0 2
.d 4 0
	jmp s250
else.23
	buildh _None 0
	push_a 4
	push_a 1
	update_a 1 2
	update_a 0 1
	pop_a 1
	update_a 1 5
	updatepop_a 0 4
.d 2 0
	rtn
case.19
	buildh _None 0
	push_a 2
	push_a 1
	update_a 1 2
	update_a 0 1
	pop_a 1
	update_a 1 3
	updatepop_a 0 2
	pop_b 1
.d 2 0
	rtn
.o 2 0
s22
	eq_desc _Just 1 0
	jmp_true case.24
	jmp case.25
case.24
	repl_args 1 1
	create
	push_a 1
	update_a 1 2
	updatepop_a 0 1
.d 2 0
	jsr s20
.o 1 0
	fillh _Just 1 1
.d 1 0
	rtn
case.25
	fillh _None 0 1
	pop_a 1
.d 1 0
	rtn
.o 2 0
s20
	repl_args 1 1
	push_a 0
	jsr_eval 0
	repl_r_args 0 3
	fill_r e_iTasks.Extensions.Clock_kAnalogClock 0 3 1 0 0
	pop_a 1
	pop_b 3
.d 1 0
	rtn
.export e_iTasks.Extensions.Clock_sJSONEncode_AnalogClock;0
.export e_iTasks.Extensions.Clock_eaJSONEncode_AnalogClock;0
.descexp e_iTasks.Extensions.Clock_dJSONEncode_AnalogClock;0 e_iTasks.Extensions.Clock_nJSONEncode_AnalogClock;0 e_iTasks.Extensions.Clock_lJSONEncode_AnalogClock;0 2 0 "JSONEncode_AnalogClock;0"
.o 3 1 b
e_iTasks.Extensions.Clock_iJSONEncode_AnalogClock;0
	pop_a 1
.d 2 1 b
	jmp s1
.ai 2 e_iTasks.Extensions.Clock_eaJSONEncode_AnalogClock;0 e_iTasks.Extensions.Clock_iJSONEncode_AnalogClock;0
.o 2 0
e_iTasks.Extensions.Clock_lJSONEncode_AnalogClock;0
	push_args 0 1 1
	update_a 2 1
	create
	update_a 0 3
	pop_a 1
.d 3 0
	jmp e_iTasks.Extensions.Clock_eaJSONEncode_AnalogClock;0
.n 2 e_iTasks.Extensions.Clock_dJSONEncode_AnalogClock;0 e_iTasks.Extensions.Clock_eaJSONEncode_AnalogClock;0
.o 1 0
e_iTasks.Extensions.Clock_nJSONEncode_AnalogClock;0
	push_node _cycle_in_spine 2
.o 3 0
e_iTasks.Extensions.Clock_eaJSONEncode_AnalogClock;0
	jsr_eval 1
	jsr_eval 0
	pushB_a 0
	pop_a 1
.o 2 1 b
e_iTasks.Extensions.Clock_sJSONEncode_AnalogClock;0
.o 2 1 b
s1
	create
	push_a 1
	update_a 1 2
	updatepop_a 0 1
.d 2 0
	jsr s21
.o 1 0
	push_b 0
	buildAC "AnalogClock"
	buildh ARRAY 1
	updatepop_b 0 1
.d 3 1 b
	jmp s31
.o 2 0
s21
	repl_r_args 0 3
	build_r e_iTasks.Extensions.DateTime_rTime 0 3 0 0
	fillh e_StdGeneric_dCONS 1 1
	pop_b 3
.d 1 0
	rtn
.o 3 1 b
s31
	push_a 1
	pushB FALSE
	push_a 1
	update_a 1 3
	updatepop_a 0 2
	updatepop_b 0 1
.d 3 1 b
	jmp s30
.o 3 1 b
s30
	push_args 1 1 1
	buildh _Nil 0
	update_a 0 3
	pop_a 1
	buildh _Nil 0
	push_a 1
	buildB FALSE
	build e_iTasks.Extensions.DateTime_dJSONEncode_Time;31 2 e_iTasks.Extensions.DateTime_nJSONEncode_Time;31
	push_a 3
	build e_Text.GenJSON_dJSONString 1 e_Text.GenJSON_nJSONString
	buildh _Cons 2
	buildhr e_Text.GenJSON_kJSONArray 1 0
	fillh _Cons 2 5
	pop_a 3
	pop_b 1
.d 1 0
	rtn
.o 4 0
s250
case.26
	eq_desc _Just 1 0
	jmp_true case.28
	jmp case.27
case.28
	repl_args 1 1
	push_a 2
	jsr_eval 0
	push_a 1
	buildh e_StdGeneric_dCONS 1
	buildh _Just 1
	update_a 1 5
	updatepop_a 0 4
.d 2 0
	rtn
case.27
	buildh _None 0
	push_a 4
	push_a 1
	update_a 1 2
	update_a 0 1
	pop_a 1
	update_a 1 5
	updatepop_a 0 4
.d 2 0
	rtn
.o 3 0
s251
case.29
	eq_desc _Just 1 0
	jmp_true case.31
	jmp case.30
case.31
	repl_args 1 1
	push_a 0
	buildh _Just 1
	push_a 2
	push_a 1
	update_a 1 2
	update_a 0 1
	pop_a 1
	update_a 1 4
	updatepop_a 0 3
.d 2 0
	rtn
case.30
	buildh _None 0
	push_a 3
	push_a 1
	update_a 1 2
	update_a 0 1
	pop_a 1
	update_a 1 4
	updatepop_a 0 3
.d 2 0
	rtn
.o 2 0
s252
	create
	push_a 1
	update_a 1 2
	updatepop_a 0 1
.d 2 0
	jsr s22
.o 1 0
	push_a 1
	push_a 1
	update_a 1 2
	update_a 0 1
	pop_a 1
	update_a 1 2
	updatepop_a 0 1
.d 2 0
	rtn
.impmod _system
.implab _match_error
