.comp 920 000011110011000
.start _nostart_
.depend "iTasks.Extensions.TextFile" "20210613143555"
.depend "Text.CSV" "20210613143555"
.depend "Text" "20210613143555"
.depend "iTasks.Internal.SDSService" "20210613143555"
.depend "iTasks.Internal.Serialization" "20210613143555"
.depend "_SystemEnum" "20210613143554"
.depend "StdEnum" "20210613143554"
.depend "StdTuple" "20210613143554"
.depend "StdOrdList" "20210613143554"
.depend "Control.Monad.Trans" "20210613143554"
.depend "StdMaybe" "20210613143554"
.depend "Data.Maybe" "20210613143554"
.depend "iTasks.Extensions.Admin.WorkflowAdmin" "20210613143555"
.depend "iTasks.Extensions.User" "20210613143555"
.depend "iTasks.Extensions.Admin.UserAdmin" "20210613143555"
.depend "iTasks.UI.Layout.Common" "20210613143555"
.depend "iTasks.UI.Editor.Modifiers" "20210613143555"
.depend "iTasks.UI.Editor.Containers" "20210613143555"
.depend "iTasks.UI.Tune" "20210613143555"
.depend "iTasks.Internal.Distributed.Domain" "20210613143555"
.depend "iTasks.WF.Combinators.Common" "20210613143555"
.depend "iTasks.WF.Combinators.SDS" "20210613143555"
.depend "iTasks.UI.Editor.Controls" "20210613143555"
.depend "iTasks.WF.Tasks.Interaction" "20210613143555"
.depend "iTasks.WF.Tasks.System" "20210613143555"
.depend "iTasks.WF.Tasks.SDS" "20210613143555"
.depend "iTasks.WF.Tasks.Core" "20210613143555"
.depend "System.Time.GenJSON" "20210613143555"
.depend "Text.HTML.GenJSON" "20210613143555"
.depend "Data.Map.GenJSON" "20210613143554"
.depend "Data.Error.GenJSON" "20210613143554"
.depend "Data.Either.GenJSON" "20210613143554"
.depend "iTasks.WF.Derives" "20210613143555"
.depend "iTasks.SDS.Combinators.Common" "20210613143555"
.depend "iTasks.SDS.Combinators.Core" "20210613143555"
.depend "iTasks.SDS.Sources.System" "20210613143555"
.depend "iTasks.SDS.Sources.Store" "20210613143555"
.depend "iTasks.SDS.Sources.Core" "20210613143555"
.depend "iTasks.Internal.TaskIO" "20210613143555"
.depend "System._Signal" "20210613143555"
.depend "System.Signal" "20210613143555"
.depend "_SystemStrictMaybes" "20210613143554"
.depend "Text.GenPrint" "20210613143555"
.depend "iTasks.Extensions.DateTime" "20210613143555"
.depend "iTasks.Internal.TaskServer" "20210613143555"
.depend "AsyncIO" "20210613143555"
.depend "System._Process" "20210613143555"
.depend "System.Process" "20210613143555"
.depend "System.OS" "20210613143555"
.depend "TCPStringChannelsInternal" "20210613143555"
.depend "TCPStringChannels" "20210613143555"
.depend "TCPEvent" "20210613143555"
.depend "tcp_bytestreams" "20210613143555"
.depend "TCPDef" "20210613143555"
.depend "TCPChannels" "20210613143555"
.depend "TCPIP" "20210613143555"
.depend "iTasks.WF.Tasks.IO" "20210613143555"
.depend "Data.IntMap.Base" "20210613143554"
.depend "Data.IntMap.Strict" "20210613143554"
.depend "Data.CircularStack" "20210613143554"
.depend "iTasks.Extensions.Document" "20210613143555"
.depend "System.File" "20210613143555"
.depend "iTasks.Util.DeferredJSON" "20210613143555"
.depend "iTasks.UI.Layout" "20210613143555"
.depend "iTasks.Internal.TaskState" "20210613143555"
.depend "iTasks.Internal.SDS" "20210613143555"
.depend "Data.GenHash" "20210613143554"
.depend "Data.Maybe.Ord" "20210613143554"
.depend "Control.GenBimap" "20210613143554"
.depend "ABC.Interpreter.JavaScript" "20210613143554"
.depend "ABC.Interpreter" "20210613143554"
.depend "iTasks.UI.Editor" "20210613143555"
.depend "iTasks.UI.Editor.Generic" "20210613143555"
.depend "iTasks.Internal.Generic.Defaults" "20210613143555"
.depend "Data.GenDefault" "20210613143554"
.depend "Data.Integer" "20210613143554"
.depend "Text.HTML" "20210613143555"
.depend "iTasks.Internal.Generic.Visualization" "20210613143555"
.depend "iTasks.SDS.Definition" "20210613143555"
.depend "iTasks.WF.Combinators.Core" "20210613143555"
.depend "iTasks.Internal.TaskEval" "20210613143555"
.depend "iTasks.WF.Definition" "20210613143555"
.depend "iTasks.Internal.Task" "20210613143555"
.depend "iTasks.UI.Definition" "20210613143555"
.depend "Text.GenJSON" "20210613143555"
.depend "Data.Bifunctor" "20210613143554"
.depend "Data.Either" "20210613143554"
.depend "Data.Queue" "20210613143554"
.depend "StdFile" "20210613143554"
.depend "symbols_in_program" "20210613143555"
.depend "iTasks.Internal.IWorld" "20210613143555"
.depend "iTasks.Internal.WebService" "20210613143555"
.depend "tcp" "20210613143555"
.depend "TCPChannelClass" "20210613143555"
.depend "System._Time" "20210613143555"
.depend "System.Time" "20210613143555"
.depend "System.GetOpt" "20210613143555"
.depend "System.OSError" "20210613143555"
.depend "System.FilePath" "20210613143555"
.depend "StdString" "20210613143554"
.depend "Internet.HTTP" "20210613143555"
.depend "Control.Monad.Fail" "20210613143554"
.depend "Data.Traversable" "20210613143554"
.depend "StdMisc" "20210613143554"
.depend "StdOverloadedList" "20210613143554"
.depend "Data.List" "20210613143554"
.depend "Data.Foldable" "20210613143554"
.depend "Data.Set" "20210613143554"
.depend "Data.GenLexOrd" "20210613143554"
.depend "StdFunctions" "20210613143554"
.depend "StdFunc" "20210613143554"
.depend "Data.Map" "20210613143554"
.depend "_SystemEnumStrict" "20210613143554"
.depend "_SystemStrictLists" "20210613143554"
.depend "StdStrictLists" "20210613143554"
.depend "StdGeneric" "20210613143554"
.depend "Data.GenEq" "20210613143554"
.depend "StdReal" "20210613143554"
.depend "StdChar" "20210613143554"
.depend "StdInt" "20210613143554"
.depend "StdBool" "20210613143554"
.depend "StdClass" "20210613143554"
.depend "StdList" "20210613143554"
.depend "Data.Monoid" "20210613143554"
.depend "Control.Applicative" "20210613143554"
.depend "Control.Monad" "20210613143554"
.depend "Data.Functor" "20210613143554"
.depend "Data.Error" "20210613143554"
.depend "iTasks.Engine" "20210613143555"
.depend "iTasks" "20210613143555"
.depend "StdOverloaded" "20210613143554"
.depend "_SystemDynamic" "20210613143554"
.depend "iTasks.Extensions.CSVFile" "20210613143555"
.module m_iTasks.Extensions.CSVFile "iTasks.Extensions.CSVFile" "20210613143555"
.endinfo
.impmod _system
.implab _cycle_in_spine
.implab _type_error
.implab _hnf
.impdesc e_system_dind
.implab e_system_nind e_system_eaind
.impdesc e_system_dif
.implab e_system_nif e_system_eaif
.implab e_system_sif
.impdesc e_system_dAP
.implab e_system_nAP e_system_eaAP
.implab e_system_sAP
.impdesc ARRAY
.impdesc _Nil
.impdesc _Cons
.impdesc _Conss
.implab n_Conss ea_Conss
.impdesc _Consts
.implab n_Consts ea_Consts
.impdesc _Conssts
.implab n_Conssts ea_Conssts
.impdesc _Tuple
.impdesc d_S.1
.implab n_S.1 ea_S.1
.impdesc d_S.2
.implab n_S.2 ea_S.2
.impdesc d_S.3
.implab n_S.3 ea_S.3
.impdesc d_S.4
.implab n_S.4 ea_S.4
.impdesc d_S.5
.implab n_S.5 ea_S.5
.impdesc d_S.6
.implab n_S.6 ea_S.6
.implab _driver
.impmod iTasks.Extensions.TextFile
.implab e_iTasks.Extensions.TextFile_simportTextFile
.impmod Text.CSV
.impdesc e_Text.CSV_dreadCSVFile
.impdesc e_Text.CSV_dreadCSVFileWith
.impdesc e_Text.CSV_dwriteCSVFile
.impdesc e_Text.CSV_dwriteCSVFileWith
.impmod iTasks.WF.Combinators.Common
.implab e_iTasks.WF.Combinators.Common_s>>-
.impmod iTasks.WF.Combinators.SDS
.implab e_iTasks.WF.Combinators.SDS_swithTemporaryDirectory
.impmod iTasks.Extensions.Document
.implab e_iTasks.Extensions.Document_simportDocument
.impdesc e_iTasks.Extensions.Document_dtoString;5
.implab e_iTasks.Extensions.Document_ntoString;5
.impdesc e_iTasks.Extensions.Document_dJSONEncode_Document;6
.impdesc e_iTasks.Extensions.Document_dJSONDecode_Document;7
.impdesc e_iTasks.Extensions.Document_dgEq_Document;8
.impdesc e_iTasks.Extensions.Document_dgText_Document;9
.impdesc e_iTasks.Extensions.Document_dgEditor_Document;10
.impdesc e_iTasks.Extensions.Document_dTD;Document
.impdesc e_iTasks.Extensions.Document_dTD;FileException
.impmod System.File
.impdesc e_System.File_dtoString;11
.implab e_System.File_ntoString;11
.impdesc e_System.File_dTD;FileError
.impmod iTasks.Internal.TaskState
.implab e_iTasks.Internal.TaskState_screateDocument
.implab e_iTasks.Internal.TaskState_sdocumentLocation
.impmod iTasks.Internal.Task
.implab e_iTasks.Internal.Task_smkInstantTask
.impmod Text.GenJSON
.impdesc e_Text.GenJSON_dJSONEncode__String;16
.implab e_Text.GenJSON_sJSONEncode__List;17
.impmod StdFile
.implab e_StdFile_sfclose;31
.implab e_StdFile_sfopen;32
.impmod System.FilePath
.implab e_System.FilePath_s</>
.impmod StdString
.implab e_StdString_s+++;11
.impmod StdBool
.implab e_StdBool_snot
.impmod iTasks.Extensions.Document
.impdesc e_iTasks.Extensions.Document_kFileException
.impdesc e_iTasks.Extensions.Document_dFileException
.implab e_iTasks.Extensions.Document_nFileException e_iTasks.Extensions.Document_eaFileException
.impmod System.File
.impdesc e_System.File_dCannotOpen
.impdesc e_System.File_dCannotClose
.impmod iTasks.WF.Definition
.impdesc e_iTasks.WF.Definition_riTask;
.impmod iTasks.Internal.IWorld
.impdesc e_iTasks.Internal.IWorld_rIWorld
.impdesc e_iTasks.Internal.IWorld_tIWorld
.implab e_iTasks.Internal.IWorld_cIWorld
.impmod Data.Error
.impdesc e_Data.Error_dError
.impdesc e_Data.Error_dOk
.impmod _SystemDynamic
.impdesc e__SystemDynamic_rDynamicTemp
.impdesc e__SystemDynamic_kTypeCons
.impdesc e__SystemDynamic_kTypeApp
.impdesc e__SystemDynamic_rTypeCodeConstructor
.impdesc e__SystemDynamic_dTC_Char
.impdesc e__SystemDynamic_dTC__List
.impdesc e__SystemDynamic_dTC__UnboxedArray
.export e_iTasks.Extensions.CSVFile_rgEditor_s;
.record e_iTasks.Extensions.CSVFile_rgEditor_s; a 1 0 "gEditor_s;"
.export e_iTasks.Extensions.CSVFile_tgEditor_s;
.export e_iTasks.Extensions.CSVFile_cgEditor_s;
.descn e_iTasks.Extensions.CSVFile_tgEditor_s; e_iTasks.Extensions.CSVFile_cgEditor_s; 1 1 "gEditor_s;"
.n 1 e_iTasks.Extensions.CSVFile_tgEditor_s;
.o 1 0 
e_iTasks.Extensions.CSVFile_cgEditor_s;
	push_node _cycle_in_spine 1
	jsr_eval 0
.impmod iTasks.Extensions.CSVFile
.impdesc e_iTasks.Extensions.CSVFile_rgEditor_s;
	fill_r e_iTasks.Extensions.CSVFile_rgEditor_s; 1 0 1 0 0
.d 1 0 
	pop_a_rtn 1
.export e_iTasks.Extensions.CSVFile_rgText_s;
.record e_iTasks.Extensions.CSVFile_rgText_s; a 1 0 "gText_s;"
.export e_iTasks.Extensions.CSVFile_tgText_s;
.export e_iTasks.Extensions.CSVFile_cgText_s;
.descn e_iTasks.Extensions.CSVFile_tgText_s; e_iTasks.Extensions.CSVFile_cgText_s; 1 1 "gText_s;"
.n 1 e_iTasks.Extensions.CSVFile_tgText_s;
.o 1 0 
e_iTasks.Extensions.CSVFile_cgText_s;
	push_node _cycle_in_spine 1
	jsr_eval 0
.impdesc e_iTasks.Extensions.CSVFile_rgText_s;
	fill_r e_iTasks.Extensions.CSVFile_rgText_s; 1 0 1 0 0
.d 1 0 
	pop_a_rtn 1
.export e_iTasks.Extensions.CSVFile_rJSONEncode_s;
.record e_iTasks.Extensions.CSVFile_rJSONEncode_s; a 1 0 "JSONEncode_s;"
.export e_iTasks.Extensions.CSVFile_tJSONEncode_s;
.export e_iTasks.Extensions.CSVFile_cJSONEncode_s;
.descn e_iTasks.Extensions.CSVFile_tJSONEncode_s; e_iTasks.Extensions.CSVFile_cJSONEncode_s; 1 1 "JSONEncode_s;"
.n 1 e_iTasks.Extensions.CSVFile_tJSONEncode_s;
.o 1 0 
e_iTasks.Extensions.CSVFile_cJSONEncode_s;
	push_node _cycle_in_spine 1
	jsr_eval 0
.impdesc e_iTasks.Extensions.CSVFile_rJSONEncode_s;
	fill_r e_iTasks.Extensions.CSVFile_rJSONEncode_s; 1 0 1 0 0
.d 1 0 
	pop_a_rtn 1
.export e_iTasks.Extensions.CSVFile_rJSONDecode_s;
.record e_iTasks.Extensions.CSVFile_rJSONDecode_s; a 1 0 "JSONDecode_s;"
.export e_iTasks.Extensions.CSVFile_tJSONDecode_s;
.export e_iTasks.Extensions.CSVFile_cJSONDecode_s;
.descn e_iTasks.Extensions.CSVFile_tJSONDecode_s; e_iTasks.Extensions.CSVFile_cJSONDecode_s; 1 1 "JSONDecode_s;"
.n 1 e_iTasks.Extensions.CSVFile_tJSONDecode_s;
.o 1 0 
e_iTasks.Extensions.CSVFile_cJSONDecode_s;
	push_node _cycle_in_spine 1
	jsr_eval 0
.impdesc e_iTasks.Extensions.CSVFile_rJSONDecode_s;
	fill_r e_iTasks.Extensions.CSVFile_rJSONDecode_s; 1 0 1 0 0
.d 1 0 
	pop_a_rtn 1
.export e_iTasks.Extensions.CSVFile_rgEq_s;
.record e_iTasks.Extensions.CSVFile_rgEq_s; a 1 0 "gEq_s;"
.export e_iTasks.Extensions.CSVFile_tgEq_s;
.export e_iTasks.Extensions.CSVFile_cgEq_s;
.descn e_iTasks.Extensions.CSVFile_tgEq_s; e_iTasks.Extensions.CSVFile_cgEq_s; 1 1 "gEq_s;"
.n 1 e_iTasks.Extensions.CSVFile_tgEq_s;
.o 1 0 
e_iTasks.Extensions.CSVFile_cgEq_s;
	push_node _cycle_in_spine 1
	jsr_eval 0
.impdesc e_iTasks.Extensions.CSVFile_rgEq_s;
	fill_r e_iTasks.Extensions.CSVFile_rgEq_s; 1 0 1 0 0
.d 1 0 
	pop_a_rtn 1
.export e_iTasks.Extensions.CSVFile_screateUtf8CSVFileWith
.export e_iTasks.Extensions.CSVFile_eacreateUtf8CSVFileWith
.descexp e_iTasks.Extensions.CSVFile_dcreateUtf8CSVFileWith e_iTasks.Extensions.CSVFile_ncreateUtf8CSVFileWith e_iTasks.Extensions.CSVFile_lcreateUtf8CSVFileWith 5 0 "createUtf8CSVFileWith"
.a 5 e_iTasks.Extensions.CSVFile_eacreateUtf8CSVFileWith
.o 2 0 
e_iTasks.Extensions.CSVFile_lcreateUtf8CSVFileWith
	push_args 0 4 4
	update_a 5 4
	create 
.d 6 0 
	put_a_jmp 6 e_iTasks.Extensions.CSVFile_eacreateUtf8CSVFileWith
.n 5 e_iTasks.Extensions.CSVFile_dcreateUtf8CSVFileWith e_iTasks.Extensions.CSVFile_eacreateUtf8CSVFileWith
.o 1 0 
e_iTasks.Extensions.CSVFile_ncreateUtf8CSVFileWith
	push_node _cycle_in_spine 5
.o 6 0 
e_iTasks.Extensions.CSVFile_eacreateUtf8CSVFileWith
	jsr_eval 4
	jsr_eval 3
	jsr_eval 2
	jsr_eval 1
	jsr_eval 0
	push_array 3
	pushC_a 3
	pushC_a 2
	pushC_a 1
	updatepop_a 0 4
.o 3 3 ccc
e_iTasks.Extensions.CSVFile_screateUtf8CSVFileWith
.o 3 3 ccc
s7
	push2_a 1
	buildh ARRAY 1
	buildC_b 2
	buildC_b 1
	buildC_b 0
	buildh e_iTasks.Extensions.CSVFile_d\;47;11;23.21 5
	buildh e_iTasks.Extensions.Document_dTD;Document 0
	buildhr e__SystemDynamic_kTypeCons 1 0
	buildh e_iTasks.Extensions.Document_dgEq_Document;8 0
	buildh e_iTasks.Extensions.Document_dJSONDecode_Document;7 0
	update4_a 0 2
	buildh0_dup_a e_iTasks.Extensions.Document_dJSONEncode_Document;6 2
	buildh0_dup_a e_iTasks.Extensions.Document_dgText_Document;9 2
	pop_a 2
	buildh e_iTasks.Extensions.Document_dgEditor_Document;10 0
.d 8 0 
	pop_b_jmp 3 e_iTasks.WF.Combinators.SDS_swithTemporaryDirectory
.export e_iTasks.Extensions.CSVFile_d\;47;11;23.21
.desc e_iTasks.Extensions.CSVFile_d\;47;11;23.21 _hnf l21 6 0 "\;47;11;23.21"
.a 6 ea21
.o 2 0 
l21
	push_args 0 5 5
	update_a 6 5
	create 
	put_a 7
.o 7 0 
ea21
	push_array 3
	pushC_a 3
	pushC_a 2
	pushC_a 1
	updatepop_a 0 4
.o 4 3 ccc
s21
	push_a 0
	buildh ARRAY 1
	buildh e_iTasks.Extensions.CSVFile_d\;50;85;22.20 1
	push_a2 1 3
	build e_iTasks.Extensions.CSVFile_d_f2.239 2 e_iTasks.Extensions.CSVFile_n_f2.239
	buildh e_iTasks.Extensions.CSVFile_d\;77;21;29.27 1
	create 
	push2_a 4
	buildh0_dup3_a _Nil 6
.d 3 3 ccc
	pop_a_jsr 1 s9
.o 1 0 
	buildh e_iTasks.Extensions.CSVFile_dJSONEncode_s;564.29 0
	buildh e__SystemDynamic_dTC_Char 0
	buildhr e__SystemDynamic_kTypeCons 1 0
	buildh e__SystemDynamic_dTC__UnboxedArray 0
	buildhr e__SystemDynamic_kTypeCons 1 0
	buildhr e__SystemDynamic_kTypeApp 2 0
	buildh e__SystemDynamic_dTC__List 0
	buildhr e__SystemDynamic_kTypeCons 1 0
	buildhr e__SystemDynamic_kTypeApp 2 0
	buildh e__SystemDynamic_dTC__List 0
	buildhr e__SystemDynamic_kTypeCons 1 0
	buildhr e__SystemDynamic_kTypeApp 2 0
	create 
	push_update_a 1 2
	update_a 4 3
	updates3pop_a 0 1 5 4
.d 5 0 
	jsr e_iTasks.WF.Combinators.Common_s>>-
.o 1 0 
	buildh e_Text.GenJSON_dJSONEncode__String;16 0
	buildh e__SystemDynamic_dTC_Char 0
	buildhr e__SystemDynamic_kTypeCons 1 0
	buildh e__SystemDynamic_dTC__UnboxedArray 0
	buildhr e__SystemDynamic_kTypeCons 1 0
	buildhr e__SystemDynamic_kTypeApp 2 0
	update_a 3 6
	update3pop_a 0 3
.d 5 0 
	jmp e_iTasks.WF.Combinators.Common_s>>-
.export e_iTasks.Extensions.CSVFile_d_f2.239
.export e_iTasks.Extensions.CSVFile_n_f2.239
.descn e_iTasks.Extensions.CSVFile_d_f2.239 e_iTasks.Extensions.CSVFile_n_f2.239 2 0 "_f2.239"
.n 2 e_iTasks.Extensions.CSVFile_d_f2.239 ea239
.o 1 0 
e_iTasks.Extensions.CSVFile_n_f2.239
	push_node _cycle_in_spine 2
.o 3 0 
ea239
.o 3 0 
s239
	jsr_eval 0
	push_a 0
	push_array 0
	updatepop_a 0 2
.d 2 0 
	jsr e_System.FilePath_s</>
.o 1 0 
.d 2 0 
	jmp e_iTasks.Extensions.TextFile_simportTextFile
.export e_iTasks.Extensions.CSVFile_d\;77;21;29.27
.desc e_iTasks.Extensions.CSVFile_d\;77;21;29.27 _hnf l27 2 0 "\;77;21;29.27"
.a 0 ea27
.o 2 0 
l27
	repl_args 1 1
.o 2 0 
ea27
	jsr_eval 0
.o 2 0 
s27
	put_a 1
.d 1 0 
	rtn 
.export e_iTasks.Extensions.CSVFile_d\;50;85;22.20
.desc e_iTasks.Extensions.CSVFile_d\;50;85;22.20 _hnf l20 2 0 "\;50;85;22.20"
.a 2 ea20
.o 2 0 
l20
	push_args 0 1 1
	update_a 2 1
	create 
	put_a 3
.o 3 0 
ea20
.o 3 0 
s20
	buildh e_iTasks.Extensions.CSVFile_dcreateDoc;24.22 2
.d 2 0 
	jmp e_iTasks.Internal.Task_smkInstantTask
.export e_iTasks.Extensions.CSVFile_dcreateDoc;24.22
.desc e_iTasks.Extensions.CSVFile_dcreateDoc;24.22 _hnf l22 4 0 "createDoc;24.22"
.a 0 a22
.o 2 0 
l22
	repl_args 3 3
.o 4 0 
a22
.d 4 0 
	jsr ea22
.o 2 0 
	buildh _Tuple 2
.d 1 0 
	rtn 
.o 4 0 
ea22
	jsr_eval 3
	jsr_eval 1
	jsr_eval 0
	push_array 1
	push_array 1
	update2pop_a 0 2
.o 4 0 
s22
	push_a 1
	buildAC "\357\273\277"
	update3pop_a 0 2
.d 2 0 
	jsr catAC
.o 1 0 
	push_a 2
	buildAC "text/csv"
	updates4_a 0 2 3 1 4
.d 4 0 
	pop_a_jsr 1 e_iTasks.Internal.TaskState_screateDocument
.o 2 0 
s30
	jmp_ne_desc e_Data.Error_dOk 1 0 case.2
	repl_args 1 1
	push_a 0
	buildh e_Data.Error_dOk 1
	put_a 1
.d 2 0 
	rtn 
case.2
	repl_args 1 1
	buildo1 e_System.File_ntoString;11 0
	buildh e_System.File_dTD;FileError 0
	buildhr e__SystemDynamic_kTypeCons 1 0
	push_a 2
	buildhr e__SystemDynamic_rDynamicTemp 2 0
	buildh _Tuple 2
	buildh e_Data.Error_dError 1
	put_a 1
.d 2 0 
	rtn 
.export e_iTasks.Extensions.CSVFile_screateCSVFileWith
.export e_iTasks.Extensions.CSVFile_eacreateCSVFileWith
.descexp e_iTasks.Extensions.CSVFile_dcreateCSVFileWith e_iTasks.Extensions.CSVFile_ncreateCSVFileWith e_iTasks.Extensions.CSVFile_lcreateCSVFileWith 5 0 "createCSVFileWith"
.a 5 e_iTasks.Extensions.CSVFile_eacreateCSVFileWith
.o 2 0 
e_iTasks.Extensions.CSVFile_lcreateCSVFileWith
	push_args 0 4 4
	update_a 5 4
	create 
.d 6 0 
	put_a_jmp 6 e_iTasks.Extensions.CSVFile_eacreateCSVFileWith
.n 5 e_iTasks.Extensions.CSVFile_dcreateCSVFileWith e_iTasks.Extensions.CSVFile_eacreateCSVFileWith
.o 1 0 
e_iTasks.Extensions.CSVFile_ncreateCSVFileWith
	push_node _cycle_in_spine 5
.o 6 0 
e_iTasks.Extensions.CSVFile_eacreateCSVFileWith
	jsr_eval 4
	jsr_eval 3
	jsr_eval 2
	jsr_eval 1
	jsr_eval 0
	push_array 3
	pushC_a 3
	pushC_a 2
	pushC_a 1
	updatepop_a 0 4
.o 3 3 ccc
e_iTasks.Extensions.CSVFile_screateCSVFileWith
.o 3 3 ccc
s6
	push2_a 1
	buildh ARRAY 1
	buildC_b 2
	buildC_b 1
	buildC_b 0
	buildh e_iTasks.Extensions.CSVFile_d\;39;11;21.19 5
	buildh e_iTasks.Extensions.Document_dTD;Document 0
	buildhr e__SystemDynamic_kTypeCons 1 0
	buildh e_iTasks.Extensions.Document_dgEq_Document;8 0
	buildh e_iTasks.Extensions.Document_dJSONDecode_Document;7 0
	update4_a 0 2
	buildh0_dup_a e_iTasks.Extensions.Document_dJSONEncode_Document;6 2
	buildh0_dup_a e_iTasks.Extensions.Document_dgText_Document;9 2
	pop_a 2
	buildh e_iTasks.Extensions.Document_dgEditor_Document;10 0
.d 8 0 
	pop_b_jmp 3 e_iTasks.WF.Combinators.SDS_swithTemporaryDirectory
.export e_iTasks.Extensions.CSVFile_d\;39;11;21.19
.desc e_iTasks.Extensions.CSVFile_d\;39;11;21.19 _hnf l19 6 0 "\;39;11;21.19"
.a 6 ea19
.o 2 0 
l19
	push_args 0 5 5
	update_a 6 5
	create 
	put_a 7
.o 7 0 
ea19
	push_array 3
	pushC_a 3
	pushC_a 2
	pushC_a 1
	updatepop_a 0 4
.o 4 3 ccc
s19
	push_a2 0 2
	build e_iTasks.Extensions.CSVFile_d_f1.238 2 e_iTasks.Extensions.CSVFile_n_f1.238
	buildh e_iTasks.Extensions.CSVFile_d\;77;21;28.26 1
	create 
	push2_a 3
	buildh0_dup3_a _Nil 5
.d 3 3 ccc
	pop_a_jsr 1 s9
.o 1 0 
	buildh e_iTasks.Extensions.CSVFile_dJSONEncode_s;564.29 0
	buildh e__SystemDynamic_dTC_Char 0
	buildhr e__SystemDynamic_kTypeCons 1 0
	buildh e__SystemDynamic_dTC__UnboxedArray 0
	buildhr e__SystemDynamic_kTypeCons 1 0
	buildhr e__SystemDynamic_kTypeApp 2 0
	buildh e__SystemDynamic_dTC__List 0
	buildhr e__SystemDynamic_kTypeCons 1 0
	buildhr e__SystemDynamic_kTypeApp 2 0
	buildh e__SystemDynamic_dTC__List 0
	buildhr e__SystemDynamic_kTypeCons 1 0
	buildhr e__SystemDynamic_kTypeApp 2 0
	update_a 3 6
	update3pop_a 0 3
.d 5 0 
	jmp e_iTasks.WF.Combinators.Common_s>>-
.export e_iTasks.Extensions.CSVFile_d_f1.238
.export e_iTasks.Extensions.CSVFile_n_f1.238
.descn e_iTasks.Extensions.CSVFile_d_f1.238 e_iTasks.Extensions.CSVFile_n_f1.238 2 0 "_f1.238"
.n 2 e_iTasks.Extensions.CSVFile_d_f1.238 ea238
.o 1 0 
e_iTasks.Extensions.CSVFile_n_f1.238
	push_node _cycle_in_spine 2
.o 3 0 
ea238
.o 3 0 
s238
	jsr_eval 0
	push_a 0
	push_array 0
	updatepop_a 0 2
.d 2 0 
	jsr e_System.FilePath_s</>
.o 1 0 
	pushB FALSE
.d 2 1 b
	jmp e_iTasks.Extensions.Document_simportDocument
.export e_iTasks.Extensions.CSVFile_sexportCSVFileWith
.export e_iTasks.Extensions.CSVFile_eaexportCSVFileWith
.descexp e_iTasks.Extensions.CSVFile_dexportCSVFileWith e_iTasks.Extensions.CSVFile_nexportCSVFileWith e_iTasks.Extensions.CSVFile_lexportCSVFileWith 5 0 "exportCSVFileWith"
.a 5 e_iTasks.Extensions.CSVFile_eaexportCSVFileWith
.o 2 0 
e_iTasks.Extensions.CSVFile_lexportCSVFileWith
	push_args 0 4 4
	update_a 5 4
	create 
.d 6 0 
	put_a_jmp 6 e_iTasks.Extensions.CSVFile_eaexportCSVFileWith
.n 5 e_iTasks.Extensions.CSVFile_dexportCSVFileWith e_iTasks.Extensions.CSVFile_eaexportCSVFileWith
.o 1 0 
e_iTasks.Extensions.CSVFile_nexportCSVFileWith
	push_node _cycle_in_spine 5
.o 6 0 
e_iTasks.Extensions.CSVFile_eaexportCSVFileWith
	jsr_eval 4
	jsr_eval 3
	jsr_eval 2
	jsr_eval 1
	jsr_eval 0
	push_array 3
	pushC_a 3
	pushC_a 2
	pushC_a 1
	updatepop_a 0 4
.o 3 3 ccc
e_iTasks.Extensions.CSVFile_sexportCSVFileWith
.o 3 3 ccc
s9
	buildC_b 2
	buildC_b 1
	buildC_b 0
	push2_a 4
	buildh ARRAY 1
	buildh e_iTasks.Extensions.CSVFile_deval;26.24 5
	updatepop_a 0 2
.d 2 0 
	pop_b_jmp 3 e_iTasks.Internal.Task_smkInstantTask
.export e_iTasks.Extensions.CSVFile_deval;26.24
.desc e_iTasks.Extensions.CSVFile_deval;26.24 _hnf l24 7 0 "eval;26.24"
.a 0 a24
.o 2 0 
l24
	repl_args 6 6
.o 7 0 
a24
.d 7 0 
	jsr ea24
.o 2 0 
	buildh _Tuple 2
.d 1 0 
	rtn 
.o 7 0 
ea24
	jsr_eval 6
	push_array 0
	put_a 1
.o 7 0 
s24
	push3_a 4
	buildh e_Text.CSV_dwriteCSVFileWith 3
	update2_a 1 4
	updates2_a 0 6 3
.d 5 0 
	pop_a_jmp 3 s10
.export e_iTasks.Extensions.CSVFile_d\;77;21;28.26
.desc e_iTasks.Extensions.CSVFile_d\;77;21;28.26 _hnf l26 2 0 "\;77;21;28.26"
.a 0 ea26
.o 2 0 
l26
	repl_args 1 1
.o 2 0 
ea26
	jsr_eval 0
.o 2 0 
s26
	put_a 1
.d 1 0 
	rtn 
.export e_iTasks.Extensions.CSVFile_screateCSVFile
.export e_iTasks.Extensions.CSVFile_eacreateCSVFile
.descexp e_iTasks.Extensions.CSVFile_dcreateCSVFile e_iTasks.Extensions.CSVFile_ncreateCSVFile e_iTasks.Extensions.CSVFile_lcreateCSVFile 2 0 "createCSVFile"
.a 2 e_iTasks.Extensions.CSVFile_eacreateCSVFile
.o 2 0 
e_iTasks.Extensions.CSVFile_lcreateCSVFile
	push_args 0 1 1
	update_a 2 1
	create 
.d 3 0 
	put_a_jmp 3 e_iTasks.Extensions.CSVFile_eacreateCSVFile
.n 2 e_iTasks.Extensions.CSVFile_dcreateCSVFile e_iTasks.Extensions.CSVFile_eacreateCSVFile
.o 1 0 
e_iTasks.Extensions.CSVFile_ncreateCSVFile
	push_node _cycle_in_spine 2
.o 3 0 
e_iTasks.Extensions.CSVFile_eacreateCSVFile
	jsr_eval 1
	jsr_eval 0
	push_array 0
	put_a 1
.o 3 0 
e_iTasks.Extensions.CSVFile_screateCSVFile
.o 3 0 
s5
	push2_a 1
	buildh ARRAY 1
	buildh e_iTasks.Extensions.CSVFile_d\;34;10;20.18 2
	buildh e_iTasks.Extensions.Document_dTD;Document 0
	buildhr e__SystemDynamic_kTypeCons 1 0
	buildh e_iTasks.Extensions.Document_dgEq_Document;8 0
	buildh e_iTasks.Extensions.Document_dJSONDecode_Document;7 0
	update4_a 0 2
	buildh0_dup_a e_iTasks.Extensions.Document_dJSONEncode_Document;6 2
	buildh0_dup_a e_iTasks.Extensions.Document_dgText_Document;9 2
	pop_a 2
	buildh e_iTasks.Extensions.Document_dgEditor_Document;10 0
.d 8 0 
	jmp e_iTasks.WF.Combinators.SDS_swithTemporaryDirectory
.export e_iTasks.Extensions.CSVFile_d\;34;10;20.18
.desc e_iTasks.Extensions.CSVFile_d\;34;10;20.18 _hnf l18 3 0 "\;34;10;20.18"
.a 3 ea18
.o 2 0 
l18
	push_args 0 2 2
	update_a 3 2
	create 
	put_a 4
.o 4 0 
ea18
	push_array 0
	put_a 1
.o 4 0 
s18
	push_a2 0 2
	build e_iTasks.Extensions.CSVFile_d_f0.237 2 e_iTasks.Extensions.CSVFile_n_f0.237
	buildh e_iTasks.Extensions.CSVFile_d\;77;21;27.25 1
	create 
	push2_a 3
	buildh0_dup3_a _Nil 5
.d 3 0 
	pop_a_jsr 1 s8
.o 1 0 
	buildh e_iTasks.Extensions.CSVFile_dJSONEncode_s;564.29 0
	buildh e__SystemDynamic_dTC_Char 0
	buildhr e__SystemDynamic_kTypeCons 1 0
	buildh e__SystemDynamic_dTC__UnboxedArray 0
	buildhr e__SystemDynamic_kTypeCons 1 0
	buildhr e__SystemDynamic_kTypeApp 2 0
	buildh e__SystemDynamic_dTC__List 0
	buildhr e__SystemDynamic_kTypeCons 1 0
	buildhr e__SystemDynamic_kTypeApp 2 0
	buildh e__SystemDynamic_dTC__List 0
	buildhr e__SystemDynamic_kTypeCons 1 0
	buildhr e__SystemDynamic_kTypeApp 2 0
	update_a 3 6
	update3pop_a 0 3
.d 5 0 
	jmp e_iTasks.WF.Combinators.Common_s>>-
.export e_iTasks.Extensions.CSVFile_d_f0.237
.export e_iTasks.Extensions.CSVFile_n_f0.237
.descn e_iTasks.Extensions.CSVFile_d_f0.237 e_iTasks.Extensions.CSVFile_n_f0.237 2 0 "_f0.237"
.n 2 e_iTasks.Extensions.CSVFile_d_f0.237 ea237
.o 1 0 
e_iTasks.Extensions.CSVFile_n_f0.237
	push_node _cycle_in_spine 2
.o 3 0 
ea237
.o 3 0 
s237
	jsr_eval 0
	push_a 0
	push_array 0
	updatepop_a 0 2
.d 2 0 
	jsr e_System.FilePath_s</>
.o 1 0 
	pushB FALSE
.d 2 1 b
	jmp e_iTasks.Extensions.Document_simportDocument
.export e_iTasks.Extensions.CSVFile_dJSONEncode_s;564.29
.desc e_iTasks.Extensions.CSVFile_dJSONEncode_s;564.29 _hnf l29 2 0 "JSONEncode_s;564.29"
.o 3 1 b
i29
.d 2 1 b
	pop_a_jmp 1 s29
.ai 2 ea29 i29
.o 2 0 
l29
	push_args 0 1 1
	update_a 2 1
	create 
	put_a 3
.o 3 0 
ea29
	jsr_eval 1
	jsr_eval 0
	pushB0_pop_a1 
.o 2 1 b
s29
	buildh e_iTasks.Extensions.CSVFile_dJSONEncode_s;563.28 0
.d 3 1 b
	jmp e_Text.GenJSON_sJSONEncode__List;17
.export e_iTasks.Extensions.CSVFile_dJSONEncode_s;563.28
.desc e_iTasks.Extensions.CSVFile_dJSONEncode_s;563.28 _hnf l28 2 0 "JSONEncode_s;563.28"
.o 3 1 b
i28
.d 2 1 b
	pop_a_jmp 1 s28
.ai 2 ea28 i28
.o 2 0 
l28
	push_args 0 1 1
	update_a 2 1
	create 
	put_a 3
.o 3 0 
ea28
	jsr_eval 1
	jsr_eval 0
	pushB0_pop_a1 
.o 2 1 b
s28
	buildh e_Text.GenJSON_dJSONEncode__String;16 0
.d 3 1 b
	jmp e_Text.GenJSON_sJSONEncode__List;17
.export e_iTasks.Extensions.CSVFile_sexportCSVFile
.export e_iTasks.Extensions.CSVFile_eaexportCSVFile
.descexp e_iTasks.Extensions.CSVFile_dexportCSVFile e_iTasks.Extensions.CSVFile_nexportCSVFile e_iTasks.Extensions.CSVFile_lexportCSVFile 2 0 "exportCSVFile"
.a 2 e_iTasks.Extensions.CSVFile_eaexportCSVFile
.o 2 0 
e_iTasks.Extensions.CSVFile_lexportCSVFile
	push_args 0 1 1
	update_a 2 1
	create 
.d 3 0 
	put_a_jmp 3 e_iTasks.Extensions.CSVFile_eaexportCSVFile
.n 2 e_iTasks.Extensions.CSVFile_dexportCSVFile e_iTasks.Extensions.CSVFile_eaexportCSVFile
.o 1 0 
e_iTasks.Extensions.CSVFile_nexportCSVFile
	push_node _cycle_in_spine 2
.o 3 0 
e_iTasks.Extensions.CSVFile_eaexportCSVFile
	jsr_eval 1
	jsr_eval 0
	push_array 0
	put_a 1
.o 3 0 
e_iTasks.Extensions.CSVFile_sexportCSVFile
.o 3 0 
s8
	push2_a 1
	buildh ARRAY 1
	buildh e_iTasks.Extensions.CSVFile_deval;25.23 2
	updatepop_a 0 2
.d 2 0 
	jmp e_iTasks.Internal.Task_smkInstantTask
.export e_iTasks.Extensions.CSVFile_deval;25.23
.desc e_iTasks.Extensions.CSVFile_deval;25.23 _hnf l23 4 0 "eval;25.23"
.a 0 a23
.o 2 0 
l23
	repl_args 3 3
.o 4 0 
a23
.d 4 0 
	jsr ea23
.o 2 0 
	buildh _Tuple 2
.d 1 0 
	rtn 
.o 4 0 
ea23
	jsr_eval 3
	push_array 0
	put_a 1
.o 4 0 
s23
	buildh e_Text.CSV_dwriteCSVFile 0
	swap_a 3
s10
	push_r_args_u 4 26 1
	update_a 23 25
	updatepop_a 2 24
	pop_b 1
	repl_r_args 2 3
	updates2pop_a 4 2 3
	pop_b 3
	pushI 4
.d 2 1 i
	jsr e_StdFile_sfopen;32
.o 1 3 bf
	push_b 0
	jmp_true else.3
	push_a 0
	fill2_r e_iTasks.Internal.IWorld_rIWorld 26 1 5 0000000000000000000000001000
	push_a2 4 1
	buildh ARRAY 1
	build e_iTasks.Extensions.CSVFile_dopenException.12 1 e_iTasks.Extensions.CSVFile_nopenException.12
	update2pop_a 0 5
.d 2 0 
	pop_b_rtn 3
else.3
	buildF_b 1
	push_a2 3 4
	pop_b 3
	buildh0_put_a _Nil 7
	jsr_ap 2
	pushF_a 0
.d 1 2 f
	pop_a_jsr 1 e_StdFile_sfclose;31
.o 1 1 b
	push_b 0
	jmp_true else.4
	push_a 0
	fill2_r e_iTasks.Internal.IWorld_rIWorld 26 1 5 0000000000000000000000001000
	push_a2 4 1
	buildh ARRAY 1
	build e_iTasks.Extensions.CSVFile_dcloseException.13 1 e_iTasks.Extensions.CSVFile_ncloseException.13
	update2pop_a 0 5
.d 2 0 
	pop_b_rtn 1
else.4
	push_a 0
	fill2_r e_iTasks.Internal.IWorld_rIWorld 26 1 5 0000000000000000000000001000
	push_a2 4 2
	buildh e_Data.Error_dOk 1
	update2pop_a 0 5
.d 2 0 
	pop_b_rtn 1
.export e_iTasks.Extensions.CSVFile_d\;77;21;27.25
.desc e_iTasks.Extensions.CSVFile_d\;77;21;27.25 _hnf l25 2 0 "\;77;21;27.25"
.a 0 ea25
.o 2 0 
l25
	repl_args 1 1
.o 2 0 
ea25
	jsr_eval 0
.o 2 0 
s25
	put_a 1
.d 1 0 
	rtn 
.export e_iTasks.Extensions.CSVFile_simportCSVDocumentWith
.export e_iTasks.Extensions.CSVFile_eaimportCSVDocumentWith
.descexp e_iTasks.Extensions.CSVFile_dimportCSVDocumentWith e_iTasks.Extensions.CSVFile_nimportCSVDocumentWith e_iTasks.Extensions.CSVFile_limportCSVDocumentWith 4 0 "importCSVDocumentWith"
.a 4 e_iTasks.Extensions.CSVFile_eaimportCSVDocumentWith
.o 2 0 
e_iTasks.Extensions.CSVFile_limportCSVDocumentWith
	push_args 0 3 3
	update_a 4 3
	create 
.d 5 0 
	put_a_jmp 5 e_iTasks.Extensions.CSVFile_eaimportCSVDocumentWith
.n 4 e_iTasks.Extensions.CSVFile_dimportCSVDocumentWith e_iTasks.Extensions.CSVFile_eaimportCSVDocumentWith
.o 1 0 
e_iTasks.Extensions.CSVFile_nimportCSVDocumentWith
	push_node _cycle_in_spine 4
.o 5 0 
e_iTasks.Extensions.CSVFile_eaimportCSVDocumentWith
	jsr_eval 3
	jsr_eval 2
	jsr_eval 1
	jsr_eval 0
	push_r_args 3 4 1
	pushC_a 6
	pushC_a 5
	pushC_a 4
	update_a 3 7
	update3pop_a 0 4
.o 5 4 ccci
e_iTasks.Extensions.CSVFile_simportCSVDocumentWith
.o 5 4 ccci
s4
	push_a 0
	buildh ARRAY 1
	buildC_b 2
	buildC_b 1
	buildC_b 0
	buildh e_iTasks.Extensions.CSVFile_deval;19.17 4
	updatepop_a 0 4
.d 2 0 
	pop_b_jmp 4 e_iTasks.Internal.Task_smkInstantTask
.export e_iTasks.Extensions.CSVFile_deval;19.17
.desc e_iTasks.Extensions.CSVFile_deval;19.17 _hnf l17 6 0 "eval;19.17"
.a 0 a17
.o 2 0 
l17
	repl_args 5 5
.o 6 0 
a17
.d 6 0 
	jsr ea17
.o 2 0 
	buildh _Tuple 2
.d 1 0 
	rtn 
.o 6 0 
ea17
	jsr_eval 5
	push_array 3
	put_a 4
.o 6 0 
s17
	push_a2 5 3
	buildh0_dup_a _Nil 8
	put_a 6
.d 2 0 
	jsr e_iTasks.Internal.TaskState_sdocumentLocation
.o 2 0 
	push3_a 4
	buildh e_Text.CSV_dreadCSVFileWith 3
	update_a 2 8
	update_a 1 6
	updates2_a 0 7 5
.d 4 0 
	pop_a_jmp 5 s11
.export e_iTasks.Extensions.CSVFile_simportCSVFileWith
.export e_iTasks.Extensions.CSVFile_eaimportCSVFileWith
.descexp e_iTasks.Extensions.CSVFile_dimportCSVFileWith e_iTasks.Extensions.CSVFile_nimportCSVFileWith e_iTasks.Extensions.CSVFile_limportCSVFileWith 4 0 "importCSVFileWith"
.a 4 e_iTasks.Extensions.CSVFile_eaimportCSVFileWith
.o 2 0 
e_iTasks.Extensions.CSVFile_limportCSVFileWith
	push_args 0 3 3
	update_a 4 3
	create 
.d 5 0 
	put_a_jmp 5 e_iTasks.Extensions.CSVFile_eaimportCSVFileWith
.n 4 e_iTasks.Extensions.CSVFile_dimportCSVFileWith e_iTasks.Extensions.CSVFile_eaimportCSVFileWith
.o 1 0 
e_iTasks.Extensions.CSVFile_nimportCSVFileWith
	push_node _cycle_in_spine 4
.o 5 0 
e_iTasks.Extensions.CSVFile_eaimportCSVFileWith
	jsr_eval 3
	jsr_eval 2
	jsr_eval 1
	jsr_eval 0
	push_array 3
	pushC_a 3
	pushC_a 2
	pushC_a 1
	updatepop_a 0 4
.o 2 3 ccc
e_iTasks.Extensions.CSVFile_simportCSVFileWith
.o 2 3 ccc
s3
	buildC_b 2
	buildC_b 1
	buildC_b 0
	push_a 3
	buildh ARRAY 1
	buildh e_iTasks.Extensions.CSVFile_deval;18.16 4
	put_a 1
.d 2 0 
	pop_b_jmp 3 e_iTasks.Internal.Task_smkInstantTask
.export e_iTasks.Extensions.CSVFile_deval;18.16
.desc e_iTasks.Extensions.CSVFile_deval;18.16 _hnf l16 6 0 "eval;18.16"
.a 0 a16
.o 2 0 
l16
	repl_args 5 5
.o 6 0 
a16
.d 6 0 
	jsr ea16
.o 2 0 
	buildh _Tuple 2
.d 1 0 
	rtn 
.o 6 0 
ea16
	jsr_eval 5
	push_array 0
	put_a 1
.o 6 0 
s16
	push3_a 3
	buildh e_Text.CSV_dreadCSVFileWith 3
	update_a 1 4
	updates2_a 0 5 3
.d 4 0 
	pop_a_jmp 3 s11
.export e_iTasks.Extensions.CSVFile_simportCSVDocument
.export e_iTasks.Extensions.CSVFile_eaimportCSVDocument
.descexp e_iTasks.Extensions.CSVFile_dimportCSVDocument e_iTasks.Extensions.CSVFile_nimportCSVDocument e_iTasks.Extensions.CSVFile_limportCSVDocument 1 0 "importCSVDocument"
.o 2 0 
e_iTasks.Extensions.CSVFile_limportCSVDocument
	update_a 1 0
	create 
.d 2 0 
	put_a_jmp 2 e_iTasks.Extensions.CSVFile_eaimportCSVDocument
.n 1 e_iTasks.Extensions.CSVFile_dimportCSVDocument e_iTasks.Extensions.CSVFile_eaimportCSVDocument
.o 1 0 
e_iTasks.Extensions.CSVFile_nimportCSVDocument
	push_node _cycle_in_spine 1
.o 2 0 
e_iTasks.Extensions.CSVFile_eaimportCSVDocument
	jsr_eval 0
	repl_r_args 4 1
.o 5 1 i
e_iTasks.Extensions.CSVFile_simportCSVDocument
.o 5 1 i
s2
	push_a 0
	buildh ARRAY 1
	buildh e_iTasks.Extensions.CSVFile_deval;17.15 1
	updatepop_a 0 4
.d 2 0 
	pop_b_jmp 1 e_iTasks.Internal.Task_smkInstantTask
.export e_iTasks.Extensions.CSVFile_deval;17.15
.desc e_iTasks.Extensions.CSVFile_deval;17.15 _hnf l15 3 0 "eval;17.15"
.a 0 a15
.o 2 0 
l15
	repl_args 2 2
.o 3 0 
a15
.d 3 0 
	jsr ea15
.o 2 0 
	buildh _Tuple 2
.d 1 0 
	rtn 
.o 3 0 
ea15
	jsr_eval 2
	push_array 0
	put_a 1
.o 3 0 
s15
	exchange_a 2 1
.d 2 0 
	jsr e_iTasks.Internal.TaskState_sdocumentLocation
.o 2 0 
	buildh e_Text.CSV_dreadCSVFile 0
	push_a 3
	updates3pop_a 0 1 3 4
.d 4 0 
	jmp s11
.export e_iTasks.Extensions.CSVFile_simportCSVFile
.export e_iTasks.Extensions.CSVFile_eaimportCSVFile
.descexp e_iTasks.Extensions.CSVFile_dimportCSVFile e_iTasks.Extensions.CSVFile_nimportCSVFile e_iTasks.Extensions.CSVFile_limportCSVFile 1 0 "importCSVFile"
.o 2 0 
e_iTasks.Extensions.CSVFile_limportCSVFile
	update_a 1 0
	create 
.d 2 0 
	put_a_jmp 2 e_iTasks.Extensions.CSVFile_eaimportCSVFile
.n 1 e_iTasks.Extensions.CSVFile_dimportCSVFile e_iTasks.Extensions.CSVFile_eaimportCSVFile
.o 1 0 
e_iTasks.Extensions.CSVFile_nimportCSVFile
	push_node _cycle_in_spine 1
.o 2 0 
e_iTasks.Extensions.CSVFile_eaimportCSVFile
	jsr_eval 0
	push_array 0
	put_a 1
.o 2 0 
e_iTasks.Extensions.CSVFile_simportCSVFile
.o 2 0 
s1
	push_a 0
	buildh ARRAY 1
	buildh e_iTasks.Extensions.CSVFile_deval;16.14 1
.d 2 0 
	put_a_jmp 1 e_iTasks.Internal.Task_smkInstantTask
.export e_iTasks.Extensions.CSVFile_deval;16.14
.desc e_iTasks.Extensions.CSVFile_deval;16.14 _hnf l14 3 0 "eval;16.14"
.a 0 a14
.o 2 0 
l14
	repl_args 2 2
.o 3 0 
a14
.d 3 0 
	jsr ea14
.o 2 0 
	buildh _Tuple 2
.d 1 0 
	rtn 
.o 3 0 
ea14
	jsr_eval 2
	push_array 0
	put_a 1
.o 3 0 
s14
	buildh e_Text.CSV_dreadCSVFile 0
	swap_a 2
s11
	push_r_args_u 3 26 1
	update_a 23 25
	updatepop_a 2 24
	pop_b 1
	repl_r_args 2 3
	updates2pop_a 4 2 3
	pop_b 3
	pushI 3
.d 2 1 i
	jsr e_StdFile_sfopen;32
.o 1 3 bf
	push_b 0
	jmp_true else.5
	push_a 0
	fill2_r e_iTasks.Internal.IWorld_rIWorld 26 1 4 0000000000000000000000001000
	push_a2 3 1
	buildh ARRAY 1
	build e_iTasks.Extensions.CSVFile_dopenException.12 1 e_iTasks.Extensions.CSVFile_nopenException.12
	update2pop_a 0 4
.d 2 0 
	pop_b_rtn 3
else.5
	push_jsr_eval 2
	buildF_b 1
	swap_a1 
	pop_b 3
	buildh0_put_a _Nil 5
	jsr_ap 1
	push_arg 0 2 2
	jsr_eval 0
	pushF_a 0
	updates2_a 1 3 4
.d 1 2 f
	pop_a_jsr 2 e_StdFile_sfclose;31
.o 1 1 b
	push_b 0
	jmp_true else.6
	push_a 0
	fill2_r e_iTasks.Internal.IWorld_rIWorld 26 1 4 0000000000000000000000001000
	push2_a 3
	buildh ARRAY 1
	build e_iTasks.Extensions.CSVFile_dcloseException.13 1 e_iTasks.Extensions.CSVFile_ncloseException.13
	update2pop_a 0 4
.d 2 0 
	pop_b_rtn 1
else.6
	push_a 0
	fill2_r e_iTasks.Internal.IWorld_rIWorld 26 1 4 0000000000000000000000001000
	push_a 3
	push_arg 2 2 1
	buildh e_Data.Error_dOk 1
	update2pop_a 0 4
.d 2 0 
	pop_b_rtn 1
.export e_iTasks.Extensions.CSVFile_dopenException.12
.export e_iTasks.Extensions.CSVFile_nopenException.12
.descn e_iTasks.Extensions.CSVFile_dopenException.12 e_iTasks.Extensions.CSVFile_nopenException.12 1 0 "openException.12"
.n 1 e_iTasks.Extensions.CSVFile_dopenException.12 ea12
.o 1 0 
e_iTasks.Extensions.CSVFile_nopenException.12
	push_node _cycle_in_spine 1
.o 2 0 
ea12
.o 2 0 
s12
	buildh e_System.File_dCannotOpen 0
	push_a 1
	build e_iTasks.Extensions.Document_dFileException 2 e_iTasks.Extensions.Document_nFileException
	buildo1 e_iTasks.Extensions.Document_ntoString;5 0
	buildh e_iTasks.Extensions.Document_dTD;FileException 0
	buildhr e__SystemDynamic_kTypeCons 1 0
	push_a 2
	buildhr e__SystemDynamic_rDynamicTemp 2 0
	buildh _Tuple 2
	fillh e_Data.Error_dError 1 3
.d 1 0 
	pop_a_rtn 2
.export e_iTasks.Extensions.CSVFile_dcloseException.13
.export e_iTasks.Extensions.CSVFile_ncloseException.13
.descn e_iTasks.Extensions.CSVFile_dcloseException.13 e_iTasks.Extensions.CSVFile_ncloseException.13 1 0 "closeException.13"
.n 1 e_iTasks.Extensions.CSVFile_dcloseException.13 ea13
.o 1 0 
e_iTasks.Extensions.CSVFile_ncloseException.13
	push_node _cycle_in_spine 1
.o 2 0 
ea13
.o 2 0 
s13
	buildh e_System.File_dCannotClose 0
	push_a 1
	build e_iTasks.Extensions.Document_dFileException 2 e_iTasks.Extensions.Document_nFileException
	buildo1 e_iTasks.Extensions.Document_ntoString;5 0
	buildh e_iTasks.Extensions.Document_dTD;FileException 0
	buildhr e__SystemDynamic_kTypeCons 1 0
	push_a 2
	buildhr e__SystemDynamic_rDynamicTemp 2 0
	buildh _Tuple 2
	fillh e_Data.Error_dError 1 3
.d 1 0 
	pop_a_rtn 2
