.comp 920 000011110011000
.start _nostart_
.depend "Text" "20210613143555"
.depend "Data.Func" "20210613143554"
.depend "_SystemArray" "20210613143554"
.depend "StdArray" "20210613143554"
.depend "iTasks.Internal.SDSService" "20210613143555"
.depend "iTasks.Internal.Serialization" "20210613143555"
.depend "_SystemEnum" "20210613143554"
.depend "StdEnum" "20210613143554"
.depend "StdTuple" "20210613143554"
.depend "StdOrdList" "20210613143554"
.depend "Control.Monad.Trans" "20210613143554"
.depend "StdMaybe" "20210613143554"
.depend "Data.Maybe" "20210613143554"
.depend "iTasks.Extensions.Admin.WorkflowAdmin" "20210613143555"
.depend "iTasks.Extensions.User" "20210613143555"
.depend "iTasks.Extensions.Admin.UserAdmin" "20210613143555"
.depend "iTasks.UI.Layout.Common" "20210613143555"
.depend "iTasks.UI.Editor.Modifiers" "20210613143555"
.depend "iTasks.UI.Editor.Containers" "20210613143555"
.depend "iTasks.UI.Tune" "20210613143555"
.depend "iTasks.Internal.Distributed.Domain" "20210613143555"
.depend "iTasks.WF.Combinators.Common" "20210613143555"
.depend "iTasks.WF.Combinators.SDS" "20210613143555"
.depend "iTasks.UI.Editor.Controls" "20210613143555"
.depend "iTasks.WF.Tasks.Interaction" "20210613143555"
.depend "iTasks.WF.Tasks.System" "20210613143555"
.depend "iTasks.WF.Tasks.SDS" "20210613143555"
.depend "iTasks.WF.Tasks.Core" "20210613143555"
.depend "System.Time.GenJSON" "20210613143555"
.depend "Text.HTML.GenJSON" "20210613143555"
.depend "Data.Map.GenJSON" "20210613143554"
.depend "Data.Error.GenJSON" "20210613143554"
.depend "Data.Either.GenJSON" "20210613143554"
.depend "iTasks.WF.Derives" "20210613143555"
.depend "iTasks.SDS.Combinators.Common" "20210613143555"
.depend "iTasks.SDS.Combinators.Core" "20210613143555"
.depend "iTasks.SDS.Sources.System" "20210613143555"
.depend "iTasks.SDS.Sources.Store" "20210613143555"
.depend "iTasks.SDS.Sources.Core" "20210613143555"
.depend "iTasks.Internal.TaskIO" "20210613143555"
.depend "System._Signal" "20210613143555"
.depend "System.Signal" "20210613143555"
.depend "_SystemStrictMaybes" "20210613143554"
.depend "Text.GenPrint" "20210613143555"
.depend "iTasks.Extensions.DateTime" "20210613143555"
.depend "iTasks.Internal.TaskServer" "20210613143555"
.depend "AsyncIO" "20210613143555"
.depend "System._Process" "20210613143555"
.depend "System.Process" "20210613143555"
.depend "System.OS" "20210613143555"
.depend "TCPStringChannelsInternal" "20210613143555"
.depend "TCPStringChannels" "20210613143555"
.depend "TCPEvent" "20210613143555"
.depend "tcp_bytestreams" "20210613143555"
.depend "TCPDef" "20210613143555"
.depend "TCPChannels" "20210613143555"
.depend "TCPIP" "20210613143555"
.depend "iTasks.WF.Tasks.IO" "20210613143555"
.depend "Data.IntMap.Base" "20210613143554"
.depend "Data.IntMap.Strict" "20210613143554"
.depend "Data.CircularStack" "20210613143554"
.depend "iTasks.Extensions.Document" "20210613143555"
.depend "System.File" "20210613143555"
.depend "iTasks.Util.DeferredJSON" "20210613143555"
.depend "iTasks.UI.Layout" "20210613143555"
.depend "iTasks.Internal.TaskState" "20210613143555"
.depend "iTasks.Internal.SDS" "20210613143555"
.depend "Data.GenHash" "20210613143554"
.depend "Data.Maybe.Ord" "20210613143554"
.depend "Control.GenBimap" "20210613143554"
.depend "ABC.Interpreter.JavaScript" "20210613143554"
.depend "ABC.Interpreter" "20210613143554"
.depend "iTasks.UI.Editor" "20210613143555"
.depend "iTasks.UI.Editor.Generic" "20210613143555"
.depend "iTasks.Internal.Generic.Defaults" "20210613143555"
.depend "Data.GenDefault" "20210613143554"
.depend "Data.Integer" "20210613143554"
.depend "Text.HTML" "20210613143555"
.depend "iTasks.Internal.Generic.Visualization" "20210613143555"
.depend "iTasks.SDS.Definition" "20210613143555"
.depend "iTasks.WF.Combinators.Core" "20210613143555"
.depend "iTasks.Internal.TaskEval" "20210613143555"
.depend "iTasks.WF.Definition" "20210613143555"
.depend "iTasks.Internal.Task" "20210613143555"
.depend "iTasks.UI.Definition" "20210613143555"
.depend "Text.GenJSON" "20210613143555"
.depend "Data.Bifunctor" "20210613143554"
.depend "Data.Either" "20210613143554"
.depend "Data.Queue" "20210613143554"
.depend "StdFile" "20210613143554"
.depend "symbols_in_program" "20210613143555"
.depend "iTasks.Internal.IWorld" "20210613143555"
.depend "iTasks.Internal.WebService" "20210613143555"
.depend "tcp" "20210613143555"
.depend "TCPChannelClass" "20210613143555"
.depend "System._Time" "20210613143555"
.depend "System.Time" "20210613143555"
.depend "System.GetOpt" "20210613143555"
.depend "System.OSError" "20210613143555"
.depend "System.FilePath" "20210613143555"
.depend "StdString" "20210613143554"
.depend "Internet.HTTP" "20210613143555"
.depend "Control.Monad.Fail" "20210613143554"
.depend "Data.Traversable" "20210613143554"
.depend "StdMisc" "20210613143554"
.depend "StdOverloadedList" "20210613143554"
.depend "Data.List" "20210613143554"
.depend "Data.Foldable" "20210613143554"
.depend "Data.Set" "20210613143554"
.depend "Data.GenLexOrd" "20210613143554"
.depend "StdFunctions" "20210613143554"
.depend "StdFunc" "20210613143554"
.depend "Data.Map" "20210613143554"
.depend "_SystemEnumStrict" "20210613143554"
.depend "_SystemStrictLists" "20210613143554"
.depend "StdStrictLists" "20210613143554"
.depend "StdGeneric" "20210613143554"
.depend "Data.GenEq" "20210613143554"
.depend "StdReal" "20210613143554"
.depend "StdChar" "20210613143554"
.depend "StdInt" "20210613143554"
.depend "StdBool" "20210613143554"
.depend "StdClass" "20210613143554"
.depend "StdList" "20210613143554"
.depend "Data.Monoid" "20210613143554"
.depend "Control.Applicative" "20210613143554"
.depend "Control.Monad" "20210613143554"
.depend "Data.Functor" "20210613143554"
.depend "Data.Error" "20210613143554"
.depend "iTasks.Engine" "20210613143555"
.depend "iTasks" "20210613143555"
.depend "StdOverloaded" "20210613143554"
.depend "_SystemDynamic" "20210613143554"
.depend "iTasks.Extensions.TextFile" "20210613143555"
.module m_iTasks.Extensions.TextFile "iTasks.Extensions.TextFile" "20210613143555"
.endinfo
.impmod _system
.implab _cycle_in_spine
.implab _type_error
.implab _hnf
.impdesc e_system_dind
.implab e_system_nind e_system_eaind
.impdesc e_system_dif
.implab e_system_nif e_system_eaif
.implab e_system_sif
.impdesc e_system_dAP
.implab e_system_nAP e_system_eaAP
.implab e_system_sAP
.impdesc ARRAY
.impdesc _Nil
.impdesc _Cons
.impdesc _Conss
.implab n_Conss ea_Conss
.impdesc _Consts
.implab n_Consts ea_Consts
.impdesc _Conssts
.implab n_Conssts ea_Conssts
.impdesc _Tuple
.impdesc d_S.1
.implab n_S.1 ea_S.1
.impdesc d_S.2
.implab n_S.2 ea_S.2
.impdesc d_S.3
.implab n_S.3 ea_S.3
.impdesc d_S.4
.implab n_S.4 ea_S.4
.impdesc d_S.5
.implab n_S.5 ea_S.5
.impdesc d_S.6
.implab n_S.6 ea_S.6
.implab _driver
.impmod Text
.implab e_Text_sconcat;4
.impmod _SystemArray
.impmod iTasks.Extensions.Document
.impdesc e_iTasks.Extensions.Document_dtoString;5
.implab e_iTasks.Extensions.Document_ntoString;5
.impdesc e_iTasks.Extensions.Document_dTD;FileException
.impmod iTasks.Internal.TaskState
.implab e_iTasks.Internal.TaskState_sdocumentLocation
.impmod iTasks.Internal.Task
.implab e_iTasks.Internal.Task_smkInstantTask
.impmod StdFile
.implab e_StdFile_sfreads
.implab e_StdFile_sfwrites
.implab e_StdFile_sfclose;31
.implab e_StdFile_sfopen;32
.impmod StdInt
.implab e_StdInt_s<;17
.impmod StdBool
.implab e_StdBool_snot
.impmod StdList
.implab e_StdList_sreverse
.impmod iTasks.Extensions.Document
.impdesc e_iTasks.Extensions.Document_kFileException
.impdesc e_iTasks.Extensions.Document_dFileException
.implab e_iTasks.Extensions.Document_nFileException e_iTasks.Extensions.Document_eaFileException
.impmod System.File
.impdesc e_System.File_dCannotOpen
.impdesc e_System.File_dCannotClose
.impmod iTasks.Internal.IWorld
.impdesc e_iTasks.Internal.IWorld_rIWorld
.impdesc e_iTasks.Internal.IWorld_tIWorld
.implab e_iTasks.Internal.IWorld_cIWorld
.impmod Data.Error
.impdesc e_Data.Error_dError
.impdesc e_Data.Error_dOk
.impmod _SystemDynamic
.impdesc e__SystemDynamic_rDynamicTemp
.impdesc e__SystemDynamic_kTypeCons
.impdesc e__SystemDynamic_rTypeCodeConstructor
.export e_iTasks.Extensions.TextFile_sexportTextFile
.export e_iTasks.Extensions.TextFile_eaexportTextFile
.descexp e_iTasks.Extensions.TextFile_dexportTextFile e_iTasks.Extensions.TextFile_nexportTextFile e_iTasks.Extensions.TextFile_lexportTextFile 2 0 "exportTextFile"
.a 2 e_iTasks.Extensions.TextFile_eaexportTextFile
.o 2 0
e_iTasks.Extensions.TextFile_lexportTextFile
	push_args 0 1 1
	update_a 2 1
	create
	update_a 0 3
	pop_a 1
.d 3 0
	jmp e_iTasks.Extensions.TextFile_eaexportTextFile
.n 2 e_iTasks.Extensions.TextFile_dexportTextFile e_iTasks.Extensions.TextFile_eaexportTextFile
.o 1 0
e_iTasks.Extensions.TextFile_nexportTextFile
	push_node _cycle_in_spine 2
.o 3 0
e_iTasks.Extensions.TextFile_eaexportTextFile
	jsr_eval 1
	jsr_eval 0
	push_array 1
	push_array 1
	update_a 1 3
	update_a 0 2
	pop_a 2
.o 3 0
e_iTasks.Extensions.TextFile_sexportTextFile
.o 3 0
s3
	push_a 1
	buildh ARRAY 1
	push_a 1
	buildh ARRAY 1
	buildh e_iTasks.Extensions.TextFile_deval;13.12 2
	updatepop_a 0 2
.d 2 0
	jmp e_iTasks.Internal.Task_smkInstantTask
.export e_iTasks.Extensions.TextFile_deval;13.12
.desc e_iTasks.Extensions.TextFile_deval;13.12 _hnf l12 4 0 "eval;13.12"
.a 0 a12
.o 2 0
l12
	repl_args 3 3
.o 4 0
a12
.d 4 0
	jsr ea12
.o 2 0
	push_a 1
	push_a 1
	buildh _Tuple 2
	updatepop_a 0 2
.d 1 0
	rtn
.o 4 0
ea12
	jsr_eval 3
	push_array 0
	update_a 0 1
	pop_a 1
.o 4 0
s12
	buildh e_iTasks.Extensions.TextFile_dwriteAll.7 0
	push_a 4
	push_a 3
	push_a 3
	push_a 6
	push_a 4
	update_a 4 5
	update_a 0 4
	pop_a 1
	update_a 4 8
	update_a 3 7
	update_a 2 6
	update_a 1 5
	updatepop_a 0 4
.d 5 0
	jmp s4
.export e_iTasks.Extensions.TextFile_dwriteAll.7
.desc e_iTasks.Extensions.TextFile_dwriteAll.7 _hnf l7 2 0 "writeAll.7"
.a 0 a7
.o 2 0
l7
	repl_args 1 1
.o 2 0
a7
.d 2 0
	jsr ea7
.o 0 2 f
	buildF_b 0
	pop_b 2
.d 1 0
	rtn
.o 2 0
ea7
	jsr_eval 1
	jsr_eval 0
	pushF_a 1
	push_array 0
	update_a 0 2
	pop_a 2
.o 1 2 f
s7
	push_b 1
	push_b 1
	push_a 0
	updatepop_a 0 1
	update_b 1 3
	updatepop_b 0 2
.d 1 2 f
	jsr writeFS
.o 0 2 f
.d 0 2 f
	rtn
.o 5 0
s4
	push_r_args_u 4 26 1
	update_a 23 25
	update_a 2 24
	pop_a 24
	pop_b 1
	repl_r_args 2 3
	pop_a 2
	pop_b 3
	push_a 0
	pushI 4
	push_a 3
	update_a 1 3
	updatepop_a 0 2
.d 2 1 i
	jsr e_StdFile_sfopen;32
.o 1 3 bf
	push_b 0
	notB
	jmp_false else.1
	push_a 0
	fill2_r e_iTasks.Internal.IWorld_rIWorld 26 1 5 0000000000000000000000001000
	push_a 4
	push_a 2
	buildh ARRAY 1
	build e_iTasks.Extensions.TextFile_dopenException.8 1 e_iTasks.Extensions.TextFile_nopenException.8
	update_a 1 6
	updatepop_a 0 5
	pop_b 3
.d 2 0
	rtn
else.1
	buildF_b 1
	push_a 3
	push_a 5
	pop_b 3
	buildh _Nil 0
	update_a 0 7
	pop_a 1
	jsr_ap 2
	pushF_a 0
	pop_a 1
	push_a 0
	updatepop_a 0 1
.d 1 2 f
	jsr e_StdFile_sfclose;31
.o 1 1 b
	push_b 0
	notB
	jmp_false else.2
	push_a 0
	fill2_r e_iTasks.Internal.IWorld_rIWorld 26 1 5 0000000000000000000000001000
	push_a 4
	push_a 2
	buildh ARRAY 1
	build e_iTasks.Extensions.TextFile_dcloseException.9 1 e_iTasks.Extensions.TextFile_ncloseException.9
	update_a 1 6
	updatepop_a 0 5
	pop_b 1
.d 2 0
	rtn
else.2
	push_a 0
	fill2_r e_iTasks.Internal.IWorld_rIWorld 26 1 5 0000000000000000000000001000
	push_a 4
	push_a 3
	buildh e_Data.Error_dOk 1
	update_a 1 6
	updatepop_a 0 5
	pop_b 1
.d 2 0
	rtn
.export e_iTasks.Extensions.TextFile_simportTextDocument
.export e_iTasks.Extensions.TextFile_eaimportTextDocument
.descexp e_iTasks.Extensions.TextFile_dimportTextDocument e_iTasks.Extensions.TextFile_nimportTextDocument e_iTasks.Extensions.TextFile_limportTextDocument 1 0 "importTextDocument"
.o 2 0
e_iTasks.Extensions.TextFile_limportTextDocument
	update_a 1 0
	create
	update_a 0 2
	pop_a 1
.d 2 0
	jmp e_iTasks.Extensions.TextFile_eaimportTextDocument
.n 1 e_iTasks.Extensions.TextFile_dimportTextDocument e_iTasks.Extensions.TextFile_eaimportTextDocument
.o 1 0
e_iTasks.Extensions.TextFile_nimportTextDocument
	push_node _cycle_in_spine 1
.o 2 0
e_iTasks.Extensions.TextFile_eaimportTextDocument
	jsr_eval 0
	repl_r_args 4 1
.o 5 1 i
e_iTasks.Extensions.TextFile_simportTextDocument
.o 5 1 i
s2
	push_a 0
	buildh ARRAY 1
	buildh e_iTasks.Extensions.TextFile_deval;12.11 1
	updatepop_a 0 4
	pop_b 1
.d 2 0
	jmp e_iTasks.Internal.Task_smkInstantTask
.export e_iTasks.Extensions.TextFile_deval;12.11
.desc e_iTasks.Extensions.TextFile_deval;12.11 _hnf l11 3 0 "eval;12.11"
.a 0 a11
.o 2 0
l11
	repl_args 2 2
.o 3 0
a11
.d 3 0
	jsr ea11
.o 2 0
	push_a 1
	push_a 1
	buildh _Tuple 2
	updatepop_a 0 2
.d 1 0
	rtn
.o 3 0
ea11
	jsr_eval 2
	push_array 0
	update_a 0 1
	pop_a 1
.o 3 0
s11
	push_a 2
	push_a 1
	update_a 3 4
	update_a 1 3
	updatepop_a 0 2
.d 2 0
	jsr e_iTasks.Internal.TaskState_sdocumentLocation
.o 2 0
	buildh e_iTasks.Extensions.TextFile_dreadAll.6 0
	push_a 2
	push_a 2
	push_a 5
	push_a 3
	update_a 3 4
	update_a 0 3
	pop_a 1
	update_a 3 6
	update_a 2 5
	update_a 1 4
	updatepop_a 0 3
.d 4 0
	jmp s5
.export e_iTasks.Extensions.TextFile_simportTextFile
.export e_iTasks.Extensions.TextFile_eaimportTextFile
.descexp e_iTasks.Extensions.TextFile_dimportTextFile e_iTasks.Extensions.TextFile_nimportTextFile e_iTasks.Extensions.TextFile_limportTextFile 1 0 "importTextFile"
.o 2 0
e_iTasks.Extensions.TextFile_limportTextFile
	update_a 1 0
	create
	update_a 0 2
	pop_a 1
.d 2 0
	jmp e_iTasks.Extensions.TextFile_eaimportTextFile
.n 1 e_iTasks.Extensions.TextFile_dimportTextFile e_iTasks.Extensions.TextFile_eaimportTextFile
.o 1 0
e_iTasks.Extensions.TextFile_nimportTextFile
	push_node _cycle_in_spine 1
.o 2 0
e_iTasks.Extensions.TextFile_eaimportTextFile
	jsr_eval 0
	push_array 0
	update_a 0 1
	pop_a 1
.o 2 0
e_iTasks.Extensions.TextFile_simportTextFile
.o 2 0
s1
	push_a 0
	buildh ARRAY 1
	buildh e_iTasks.Extensions.TextFile_deval;11.10 1
	updatepop_a 0 1
.d 2 0
	jmp e_iTasks.Internal.Task_smkInstantTask
.export e_iTasks.Extensions.TextFile_deval;11.10
.desc e_iTasks.Extensions.TextFile_deval;11.10 _hnf l10 3 0 "eval;11.10"
.a 0 a10
.o 2 0
l10
	repl_args 2 2
.o 3 0
a10
.d 3 0
	jsr ea10
.o 2 0
	push_a 1
	push_a 1
	buildh _Tuple 2
	updatepop_a 0 2
.d 1 0
	rtn
.o 3 0
ea10
	jsr_eval 2
	push_array 0
	update_a 0 1
	pop_a 1
.o 3 0
s10
	buildh e_iTasks.Extensions.TextFile_dreadAll.6 0
	push_a 3
	push_a 2
	push_a 4
	push_a 3
	update_a 3 4
	update_a 0 3
	pop_a 1
	update_a 3 6
	update_a 2 5
	update_a 1 4
	updatepop_a 0 3
.d 4 0
	jmp s5
.export e_iTasks.Extensions.TextFile_dreadAll.6
.desc e_iTasks.Extensions.TextFile_dreadAll.6 _hnf l6 1 0 "readAll.6"
.o 2 0
l6
	pop_a 1
.d 1 0
	jsr ea6
.o 1 2 f
	buildF_b 0
	push_a 1
	buildh ARRAY 1
	buildh _Tuple 2
	updatepop_a 0 1
	pop_b 2
.d 1 0
	rtn
.o 1 0
ea6
	jsr_eval 0
	pushF_a 0
	pop_a 1
.o 0 2 f
s6
	buildh _Nil 0
	push_b 1
	push_b 1
	update_b 1 3
	updatepop_b 0 2
.d 1 2 f
	jmp s13
.o 1 2 f
s13
	pushI 1048576
	push_b 2
	push_b 2
	update_b 2 4
	update_b 1 3
	updatepop_b 0 2
.d 0 3 f i
	jsr readFS
.o 1 2 f
	push_a 0
	push_arraysize CHAR 0 1
	pushI 1048576
	push_b 1
	update_b 1 2
	update_b 0 1
	pop_b 1
	ltI
	jmp_false else.3
	push_a 1
	push_a 1
	buildh ARRAY 1
	buildh _Cons 2
	create
	push_a 1
	update_a 1 2
	update_a 0 1
	pop_a 1
	update_a 1 3
	updatepop_a 0 2
.d 2 0
	jsr e_StdList_sreverse
.o 1 0
.d 1 0
	jsr e_Text_sconcat;4
.o 1 0
	push_b 1
	push_b 1
	update_b 1 3
	updatepop_b 0 2
.d 1 2 f
	rtn
else.3
	push_a 1
	push_a 1
	buildh ARRAY 1
	buildh _Cons 2
	push_b 1
	push_b 1
	updatepop_a 0 2
	update_b 1 3
	updatepop_b 0 2
.d 1 2 f
	jmp s13
.o 4 0
s5
	push_r_args_u 3 26 1
	update_a 23 25
	update_a 2 24
	pop_a 24
	pop_b 1
	repl_r_args 2 3
	pop_a 2
	pop_b 3
	push_a 0
	pushI 3
	push_a 3
	update_a 1 3
	updatepop_a 0 2
.d 2 1 i
	jsr e_StdFile_sfopen;32
.o 1 3 bf
	push_b 0
	notB
	jmp_false else.4
	push_a 0
	fill2_r e_iTasks.Internal.IWorld_rIWorld 26 1 4 0000000000000000000000001000
	push_a 3
	push_a 2
	buildh ARRAY 1
	build e_iTasks.Extensions.TextFile_dopenException.8 1 e_iTasks.Extensions.TextFile_nopenException.8
	update_a 1 5
	updatepop_a 0 4
	pop_b 3
.d 2 0
	rtn
else.4
	buildF_b 1
	push_a 3
	pop_b 3
	buildh _Nil 0
	update_a 0 5
	pop_a 1
	jsr_ap 1
	push_arg 0 2 2
	jsr_eval 0
	pushF_a 0
	pop_a 1
	push_a 1
	update_a 3 4
	update_a 1 3
	updatepop_a 0 2
.d 1 2 f
	jsr e_StdFile_sfclose;31
.o 1 1 b
	push_b 0
	notB
	jmp_false else.5
	push_a 0
	fill2_r e_iTasks.Internal.IWorld_rIWorld 26 1 4 0000000000000000000000001000
	push_a 3
	push_a 3
	buildh ARRAY 1
	build e_iTasks.Extensions.TextFile_dcloseException.9 1 e_iTasks.Extensions.TextFile_ncloseException.9
	update_a 1 5
	updatepop_a 0 4
	pop_b 1
.d 2 0
	rtn
else.5
	push_a 0
	fill2_r e_iTasks.Internal.IWorld_rIWorld 26 1 4 0000000000000000000000001000
	push_a 3
	push_arg 2 2 1
	buildh e_Data.Error_dOk 1
	update_a 1 5
	updatepop_a 0 4
	pop_b 1
.d 2 0
	rtn
.export e_iTasks.Extensions.TextFile_dopenException.8
.export e_iTasks.Extensions.TextFile_nopenException.8
.descn e_iTasks.Extensions.TextFile_dopenException.8 e_iTasks.Extensions.TextFile_nopenException.8 1 0 "openException.8"
.n 1 e_iTasks.Extensions.TextFile_dopenException.8 ea8
.o 1 0
e_iTasks.Extensions.TextFile_nopenException.8
	push_node _cycle_in_spine 1
.o 2 0
ea8
.o 2 0
s8
	buildh e_System.File_dCannotOpen 0
	push_a 1
	build e_iTasks.Extensions.Document_dFileException 2 e_iTasks.Extensions.Document_nFileException
	push_a 0
	build e_iTasks.Extensions.Document_dtoString;5 1 e_iTasks.Extensions.Document_ntoString;5
	buildh e_iTasks.Extensions.Document_dTD;FileException 0
	buildhr e__SystemDynamic_kTypeCons 1 0
	push_a 2
	buildhr e__SystemDynamic_rDynamicTemp 2 0
	buildh _Tuple 2
	fillh e_Data.Error_dError 1 3
	pop_a 2
.d 1 0
	rtn
.export e_iTasks.Extensions.TextFile_dcloseException.9
.export e_iTasks.Extensions.TextFile_ncloseException.9
.descn e_iTasks.Extensions.TextFile_dcloseException.9 e_iTasks.Extensions.TextFile_ncloseException.9 1 0 "closeException.9"
.n 1 e_iTasks.Extensions.TextFile_dcloseException.9 ea9
.o 1 0
e_iTasks.Extensions.TextFile_ncloseException.9
	push_node _cycle_in_spine 1
.o 2 0
ea9
.o 2 0
s9
	buildh e_System.File_dCannotClose 0
	push_a 1
	build e_iTasks.Extensions.Document_dFileException 2 e_iTasks.Extensions.Document_nFileException
	push_a 0
	build e_iTasks.Extensions.Document_dtoString;5 1 e_iTasks.Extensions.Document_ntoString;5
	buildh e_iTasks.Extensions.Document_dTD;FileException 0
	buildhr e__SystemDynamic_kTypeCons 1 0
	push_a 2
	buildhr e__SystemDynamic_rDynamicTemp 2 0
	buildh _Tuple 2
	fillh e_Data.Error_dError 1 3
	pop_a 2
.d 1 0
	rtn
