.comp 920 000011110011000
.start _nostart_
.depend "Data.Func" "20210430140248"
.depend "_SystemArray" "20210430140248"
.depend "StdArray" "20210430140248"
.depend "Control.Monad.Trans" "20210430140248"
.depend "StdMaybe" "20210430140248"
.depend "Data.Maybe" "20210430140248"
.depend "iTasks.UI.Layout.Common" "20210430140248"
.depend "iTasks.UI.Tune" "20210430140248"
.depend "System._Signal" "20210430140248"
.depend "System.Signal" "20210430140248"
.depend "_SystemStrictMaybes" "20210430140248"
.depend "Text.GenPrint" "20210430140248"
.depend "iTasks.Extensions.DateTime" "20210430140248"
.depend "iTasks.Internal.TaskServer" "20210430140248"
.depend "iTasks.Extensions.Document" "20210430140248"
.depend "System.File" "20210430140248"
.depend "iTasks.Util.DeferredJSON" "20210430140248"
.depend "iTasks.Internal.SDS" "20210430140248"
.depend "iTasks.Internal.TaskEval" "20210430140248"
.depend "iTasks.UI.Layout" "20210430140248"
.depend "iTasks.Internal.TaskState" "20210430140248"
.depend "iTasks.WF.Combinators.Core" "20210430140248"
.depend "Data.IntMap.Base" "20210430140248"
.depend "Data.IntMap.Strict" "20210430140248"
.depend "Data.CircularStack" "20210430140248"
.depend "System._Process" "20210430140248"
.depend "System.Process" "20210430140248"
.depend "System.OS" "20210430140248"
.depend "Data.GenHash" "20210430140248"
.depend "Data.Maybe.Ord" "20210430140248"
.depend "Control.GenBimap" "20210430140248"
.depend "ABC.Interpreter.JavaScript" "20210430140248"
.depend "ABC.Interpreter" "20210430140248"
.depend "iTasks.UI.Editor" "20210430140248"
.depend "iTasks.UI.Editor.Generic" "20210430140248"
.depend "iTasks.Internal.Generic.Defaults" "20210430140248"
.depend "Data.GenDefault" "20210430140248"
.depend "Data.Integer" "20210430140248"
.depend "Text.HTML" "20210430140248"
.depend "iTasks.Internal.Generic.Visualization" "20210430140248"
.depend "iTasks.SDS.Definition" "20210430140248"
.depend "TCPStringChannelsInternal" "20210430140248"
.depend "TCPStringChannels" "20210430140248"
.depend "TCPEvent" "20210430140248"
.depend "tcp_bytestreams" "20210430140248"
.depend "TCPDef" "20210430140248"
.depend "TCPChannels" "20210430140248"
.depend "TCPIP" "20210430140248"
.depend "iTasks.WF.Tasks.IO" "20210430140248"
.depend "iTasks.Internal.Task" "20210430140248"
.depend "iTasks.UI.Definition" "20210430140248"
.depend "Text.GenJSON" "20210430140248"
.depend "Data.Bifunctor" "20210430140248"
.depend "Data.Either" "20210430140248"
.depend "Data.Queue" "20210430140248"
.depend "StdFile" "20210430140248"
.depend "symbols_in_program" "20210430140248"
.depend "iTasks.Internal.IWorld" "20210430140248"
.depend "iTasks.WF.Definition" "20210430140248"
.depend "tcp" "20210430140248"
.depend "TCPChannelClass" "20210430140248"
.depend "System._Time" "20210430140248"
.depend "System.Time" "20210430140248"
.depend "System.GetOpt" "20210430140248"
.depend "System.OSError" "20210430140248"
.depend "System.FilePath" "20210430140248"
.depend "StdString" "20210430140248"
.depend "Internet.HTTP" "20210430140248"
.depend "Control.Monad.Fail" "20210430140248"
.depend "Data.Traversable" "20210430140248"
.depend "StdMisc" "20210430140248"
.depend "StdOverloadedList" "20210430140248"
.depend "Data.List" "20210430140248"
.depend "Data.Foldable" "20210430140248"
.depend "Data.Set" "20210430140248"
.depend "Data.GenLexOrd" "20210430140248"
.depend "StdFunctions" "20210430140248"
.depend "StdFunc" "20210430140248"
.depend "Data.Map" "20210430140248"
.depend "_SystemEnumStrict" "20210430140248"
.depend "_SystemStrictLists" "20210430140248"
.depend "StdStrictLists" "20210430140248"
.depend "StdGeneric" "20210430140248"
.depend "Data.GenEq" "20210430140248"
.depend "StdReal" "20210430140248"
.depend "StdChar" "20210430140248"
.depend "StdInt" "20210430140248"
.depend "StdBool" "20210430140248"
.depend "StdClass" "20210430140248"
.depend "StdList" "20210430140248"
.depend "Data.Monoid" "20210430140248"
.depend "Control.Applicative" "20210430140248"
.depend "Control.Monad" "20210430140248"
.depend "Data.Functor" "20210430140248"
.depend "Data.Error" "20210430140248"
.depend "iTasks.Engine" "20210430140248"
.depend "StdOverloaded" "20210430140248"
.depend "_SystemDynamic" "20210430140248"
.depend "iTasks.UI.Layout.StandardForms" "20210430140248"
.module m_iTasks.UI.Layout.StandardForms "iTasks.UI.Layout.StandardForms" "20210430140248"
.endinfo
.impmod _system
.implab _cycle_in_spine
.implab _type_error
.implab _hnf
.impdesc e_system_dind
.implab e_system_nind e_system_eaind
.impdesc e_system_dif
.implab e_system_nif e_system_eaif
.implab e_system_sif
.impdesc e_system_dAP
.implab e_system_nAP e_system_eaAP
.implab e_system_sAP
.impdesc ARRAY
.impdesc _Nil
.impdesc _Cons
.impdesc _Conss
.implab n_Conss ea_Conss
.impdesc _Consts
.implab n_Consts ea_Consts
.impdesc _Conssts
.implab n_Conssts ea_Conssts
.impdesc _Tuple
.impdesc d_S.1
.implab n_S.1 ea_S.1
.impdesc d_S.2
.implab n_S.2 ea_S.2
.impdesc d_S.3
.implab n_S.3 ea_S.3
.impdesc d_S.4
.implab n_S.4 ea_S.4
.impdesc d_S.5
.implab n_S.5 ea_S.5
.impdesc d_S.6
.implab n_S.6 ea_S.6
.implab _driver
.impmod Data.Maybe
.implab e_Data.Maybe_smaybe;63
.impmod iTasks.UI.Layout.Common
.impdesc e_iTasks.UI.Layout.Common_dtoFormItem
.implab e_iTasks.UI.Layout.Common_ntoFormItem e_iTasks.UI.Layout.Common_eatoFormItem
.impmod iTasks.UI.Layout
.impdesc e_iTasks.UI.Layout_dsetUIType
.implab e_iTasks.UI.Layout_nsetUIType e_iTasks.UI.Layout_easetUIType
.impdesc e_iTasks.UI.Layout_dsetUIAttributes
.implab e_iTasks.UI.Layout_nsetUIAttributes e_iTasks.UI.Layout_easetUIAttributes
.impdesc e_iTasks.UI.Layout_ddelUIAttributes
.implab e_iTasks.UI.Layout_ndelUIAttributes e_iTasks.UI.Layout_eadelUIAttributes
.impdesc e_iTasks.UI.Layout_dmodifyUIAttributes
.implab e_iTasks.UI.Layout_nmodifyUIAttributes e_iTasks.UI.Layout_eamodifyUIAttributes
.impdesc e_iTasks.UI.Layout_dcopySubUIAttributes
.implab e_iTasks.UI.Layout_ncopySubUIAttributes e_iTasks.UI.Layout_eacopySubUIAttributes
.impdesc e_iTasks.UI.Layout_dwrapUI
.implab e_iTasks.UI.Layout_nwrapUI e_iTasks.UI.Layout_eawrapUI
.impdesc e_iTasks.UI.Layout_dhideUI
.implab e_iTasks.UI.Layout_nhideUI e_iTasks.UI.Layout_eahideUI
.impdesc e_iTasks.UI.Layout_dinsertChildUI
.implab e_iTasks.UI.Layout_ninsertChildUI e_iTasks.UI.Layout_eainsertChildUI
.impdesc e_iTasks.UI.Layout_dmoveSubUIs
.implab e_iTasks.UI.Layout_nmoveSubUIs e_iTasks.UI.Layout_eamoveSubUIs
.impdesc e_iTasks.UI.Layout_dlayoutSubUIs
.implab e_iTasks.UI.Layout_nlayoutSubUIs e_iTasks.UI.Layout_ealayoutSubUIs
.impdesc e_iTasks.UI.Layout_dsequenceLayouts
.implab e_iTasks.UI.Layout_ssequenceLayouts
.implab e_iTasks.UI.Layout_nsequenceLayouts e_iTasks.UI.Layout_easequenceLayouts
.impmod Text.HTML
.implab e_Text.HTML_sescapeForAttribute
.impmod iTasks.UI.Definition
.impdesc e_iTasks.UI.Definition_dui
.implab e_iTasks.UI.Definition_nui e_iTasks.UI.Definition_eaui
.impdesc e_iTasks.UI.Definition_dsizeAttr
.implab e_iTasks.UI.Definition_nsizeAttr e_iTasks.UI.Definition_easizeAttr
.impdesc e_iTasks.UI.Definition_dwidthAttr
.implab e_iTasks.UI.Definition_nwidthAttr e_iTasks.UI.Definition_eawidthAttr
.impdesc e_iTasks.UI.Definition_dheightAttr
.implab e_iTasks.UI.Definition_nheightAttr e_iTasks.UI.Definition_eaheightAttr
.impdesc e_iTasks.UI.Definition_dvalueAttr
.implab e_iTasks.UI.Definition_nvalueAttr e_iTasks.UI.Definition_eavalueAttr
.impdesc e_iTasks.UI.Definition_dtextAttr
.implab e_iTasks.UI.Definition_ntextAttr e_iTasks.UI.Definition_eatextAttr
.impdesc e_iTasks.UI.Definition_dclassAttr
.implab e_iTasks.UI.Definition_nclassAttr e_iTasks.UI.Definition_eaclassAttr
.implab e_iTasks.UI.Definition_sremoveClassAttr
.impmod Text.GenJSON
.impdesc e_Text.GenJSON_d==;10
.impmod StdString
.implab e_StdString_s<;3
.impmod Data.Map
.implab e_Data.Map_ssingleton
.implab e_Data.Map_sunions;70
.impmod iTasks.UI.Layout
.impdesc e_iTasks.UI.Layout_kSelectByPath
.impdesc e_iTasks.UI.Layout_kSelectByDepth
.impdesc e_iTasks.UI.Layout_dSelectDescendents
.impdesc e_iTasks.UI.Layout_kSelectByType
.impdesc e_iTasks.UI.Layout_kSelectByAttribute
.impdesc e_iTasks.UI.Layout_kSelectByHasAttribute
.impdesc e_iTasks.UI.Layout_kSelectByClass
.impdesc e_iTasks.UI.Layout_kSelectByContains
.impdesc e_iTasks.UI.Layout_kSelectAND
.impdesc e_iTasks.UI.Layout_kSelectOR
.impdesc e_iTasks.UI.Layout_dSelectAll
.impdesc e_iTasks.UI.Layout_kSelectKeys
.impmod iTasks.UI.Definition
.impdesc e_iTasks.UI.Definition_kUI
.impdesc e_iTasks.UI.Definition_dUI
.implab e_iTasks.UI.Definition_nUI e_iTasks.UI.Definition_eaUI
.impdesc e_iTasks.UI.Definition_dUIEmpty
.impdesc e_iTasks.UI.Definition_dUIAction
.impdesc e_iTasks.UI.Definition_dUIContainer
.impdesc e_iTasks.UI.Definition_dUIPanel
.impdesc e_iTasks.UI.Definition_dUIToolBar
.impdesc e_iTasks.UI.Definition_dUIButtonBar
.impdesc e_iTasks.UI.Definition_dUIList
.impdesc e_iTasks.UI.Definition_dUITextView
.impdesc e_iTasks.UI.Definition_dUIButton
.impdesc e_iTasks.UI.Definition_dWrapSize
.impdesc e_iTasks.UI.Definition_dFlexSize
.impmod Text.GenJSON
.impdesc e_Text.GenJSON_kJSONBool
.impdesc e_Text.GenJSON_kJSONString
.impmod Data.Map
.impdesc e_Data.Map_kBin
.impdesc e_Data.Map_dTip
.export e_iTasks.UI.Layout.StandardForms_sstandardFormsSessionLayout
.export e_iTasks.UI.Layout.StandardForms_eastandardFormsSessionLayout
.descexp e_iTasks.UI.Layout.StandardForms_dstandardFormsSessionLayout e_iTasks.UI.Layout.StandardForms_nstandardFormsSessionLayout e_iTasks.UI.Layout.StandardForms_lstandardFormsSessionLayout 0 0 "standardFormsSessionLayout"
.o 1 0 
e_iTasks.UI.Layout.StandardForms_lstandardFormsSessionLayout
	halt
.n 0 e_iTasks.UI.Layout.StandardForms_dstandardFormsSessionLayout e_iTasks.UI.Layout.StandardForms_eastandardFormsSessionLayout
.o 1 0 
e_iTasks.UI.Layout.StandardForms_nstandardFormsSessionLayout
	push_node _cycle_in_spine 0
.o 1 0 
e_iTasks.UI.Layout.StandardForms_eastandardFormsSessionLayout
.o 1 0 
e_iTasks.UI.Layout.StandardForms_sstandardFormsSessionLayout
.o 1 0 
s1
	buildh _Nil 0
	build e_iTasks.UI.Layout_dhideUI 0 e_iTasks.UI.Layout_nhideUI
	buildh e_iTasks.UI.Definition_dUIEmpty 0
	buildhr e_iTasks.UI.Layout_kSelectByType 1 0
	build e_iTasks.UI.Layout_dlayoutSubUIs 2 e_iTasks.UI.Layout_nlayoutSubUIs
	buildh _Cons 2
	buildh e_iTasks.UI.Definition_dFlexSize 0
	buildh e_iTasks.UI.Definition_dFlexSize 0
	build e_iTasks.UI.Definition_dsizeAttr 2 e_iTasks.UI.Definition_nsizeAttr
	build e_iTasks.UI.Layout_dsetUIAttributes 1 e_iTasks.UI.Layout_nsetUIAttributes
	buildh _Cons 2
	build e_iTasks.UI.Layout.StandardForms_dlayoutCombinatorContainers.2 0 e_iTasks.UI.Layout.StandardForms_nlayoutCombinatorContainers.2
	buildh _Cons 2
.d 2 0 
	jmp e_iTasks.UI.Layout_ssequenceLayouts
.export e_iTasks.UI.Layout.StandardForms_dlayoutCombinatorContainers.2
.export e_iTasks.UI.Layout.StandardForms_nlayoutCombinatorContainers.2
.descn e_iTasks.UI.Layout.StandardForms_dlayoutCombinatorContainers.2 e_iTasks.UI.Layout.StandardForms_nlayoutCombinatorContainers.2 0 0 "layoutCombinatorContainers.2"
.n 0 e_iTasks.UI.Layout.StandardForms_dlayoutCombinatorContainers.2 ea2
.o 1 0 
e_iTasks.UI.Layout.StandardForms_nlayoutCombinatorContainers.2
	push_node _cycle_in_spine 0
.o 1 0 
ea2
.o 1 0 
s2
	buildh _Nil 0
	build e_iTasks.UI.Layout.StandardForms_dlayoutAsButton.9 0 e_iTasks.UI.Layout.StandardForms_nlayoutAsButton.9
	buildh e_iTasks.UI.Definition_dUIAction 0
	buildhr e_iTasks.UI.Layout_kSelectByType 1 0
	build e_iTasks.UI.Layout_dlayoutSubUIs 2 e_iTasks.UI.Layout_nlayoutSubUIs
	buildh _Cons 2
	build e_iTasks.UI.Layout.StandardForms_dlayoutParallelWithActions.4 0 e_iTasks.UI.Layout.StandardForms_nlayoutParallelWithActions.4
	buildAC "parallel-actions"
	buildhr e_iTasks.UI.Layout_kSelectByClass 1 0
	build e_iTasks.UI.Layout_dlayoutSubUIs 2 e_iTasks.UI.Layout_nlayoutSubUIs
	buildh _Cons 2
	build e_iTasks.UI.Layout.StandardForms_dlayoutStepWithActions.3 0 e_iTasks.UI.Layout.StandardForms_nlayoutStepWithActions.3
	buildAC "step-actions"
	buildhr e_iTasks.UI.Layout_kSelectByClass 1 0
	build e_iTasks.UI.Layout_dlayoutSubUIs 2 e_iTasks.UI.Layout_nlayoutSubUIs
	buildh _Cons 2
	build e_iTasks.UI.Layout.StandardForms_dlayoutInteract.5 0 e_iTasks.UI.Layout.StandardForms_nlayoutInteract.5
	buildAC "interact"
	buildhr e_iTasks.UI.Layout_kSelectByClass 1 0
	build e_iTasks.UI.Layout_dlayoutSubUIs 2 e_iTasks.UI.Layout_nlayoutSubUIs
	buildh _Cons 2
.d 2 0 
	jmp e_iTasks.UI.Layout_ssequenceLayouts
.export e_iTasks.UI.Layout.StandardForms_dlayoutInteract.5
.export e_iTasks.UI.Layout.StandardForms_nlayoutInteract.5
.descn e_iTasks.UI.Layout.StandardForms_dlayoutInteract.5 e_iTasks.UI.Layout.StandardForms_nlayoutInteract.5 0 0 "layoutInteract.5"
.n 0 e_iTasks.UI.Layout.StandardForms_dlayoutInteract.5 ea5
.o 1 0 
e_iTasks.UI.Layout.StandardForms_nlayoutInteract.5
	push_node _cycle_in_spine 0
.o 1 0 
ea5
.o 1 0 
s5
	create 1
	buildAC "tooltip-type"
	buildhr e_iTasks.UI.Layout_kSelectByHasAttribute 1 0
	buildAC "label"
	buildhr e_iTasks.UI.Layout_kSelectByHasAttribute 1 0
	buildhr e_iTasks.UI.Layout_kSelectOR 2 0
	buildh _Nil 0
	buildh e_iTasks.UI.Layout_dSelectDescendents 0
	push_update_a 0 2
	buildhr e_iTasks.UI.Layout_kSelectAND 2 0
	push_update_a 0 3
	build e_iTasks.UI.Layout_dlayoutSubUIs 2 e_iTasks.UI.Layout_nlayoutSubUIs
	buildh e_iTasks.UI.Layout_dSelectDescendents 0
	build e_iTasks.UI.Layout_dlayoutSubUIs 2 e_iTasks.UI.Layout_nlayoutSubUIs
	buildh _Cons 2
	build e_iTasks.UI.Layout.Common_dtoFormItem 0 e_iTasks.UI.Layout.Common_ntoFormItem
	buildh _Cons 2
	fill e_iTasks.UI.Layout_dsequenceLayouts 1 e_iTasks.UI.Layout_nsequenceLayouts 2
	buildAC "title"
	buildhr e_iTasks.UI.Layout_kSelectByHasAttribute 1 0
	buildh _Nil 0
	buildhr e_iTasks.UI.Layout_kSelectByPath 1 0
	buildhr e_iTasks.UI.Layout_kSelectAND 2 0
	buildAC "hint"
	buildhr e_iTasks.UI.Layout_kSelectByHasAttribute 1 0
	buildh _Nil 0
	buildhr e_iTasks.UI.Layout_kSelectByPath 1 0
	buildhr e_iTasks.UI.Layout_kSelectAND 2 0
	buildh _Nil 0
	buildh _Nil 0
	buildh _Nil 0
	buildh _Nil 0
	buildh e_iTasks.UI.Layout.StandardForms_dpromptToValue;12.13 0
	buildh _Nil 0
	buildAC "hint"
	buildh ARRAY 1
	buildh _Cons 2
	buildhr e_iTasks.UI.Layout_kSelectKeys 1 0
	build e_iTasks.UI.Layout_dmodifyUIAttributes 2 e_iTasks.UI.Layout_nmodifyUIAttributes
	buildh _Nil 0
	buildI 0
	buildh _Cons 2
	buildI 0
	buildh _Cons 2
	buildhr e_iTasks.UI.Layout_kSelectByPath 1 0
	build e_iTasks.UI.Layout_dlayoutSubUIs 2 e_iTasks.UI.Layout_nlayoutSubUIs
	buildh _Cons 2
	buildh _Nil 0
	buildI 0
	buildh _Cons 2
	buildI 0
	buildh _Cons 2
	buildh _Nil 0
	buildh _Nil 0
	buildAC "hint"
	buildh ARRAY 1
	buildh _Cons 2
	buildhr e_iTasks.UI.Layout_kSelectKeys 1 0
	build e_iTasks.UI.Layout_dcopySubUIAttributes 3 e_iTasks.UI.Layout_ncopySubUIAttributes
	buildh _Cons 2
	build e_iTasks.UI.Layout_dsequenceLayouts 1 e_iTasks.UI.Layout_nsequenceLayouts
	buildh _Cons 2
	buildh _Nil 0
	buildh e_iTasks.UI.Definition_dUITextView 0
	build e_iTasks.UI.Definition_dui 1 e_iTasks.UI.Definition_nui
	buildh _Cons 2
	buildh _Nil 0
	buildAC "itasks-wrap-height"
	buildh ARRAY 1
	buildh _Cons 2
	buildAC "itasks-flex-width"
	buildh ARRAY 1
	buildh _Cons 2
	buildAC "itasks-prompt"
	buildh ARRAY 1
	buildh _Cons 2
	build e_iTasks.UI.Definition_dclassAttr 1 e_iTasks.UI.Definition_nclassAttr
	buildh e_iTasks.UI.Definition_dUIContainer 0
	build e_iTasks.UI.Definition_dUI 3 e_iTasks.UI.Definition_nUI
	buildI 0
	build e_iTasks.UI.Layout_dinsertChildUI 2 e_iTasks.UI.Layout_ninsertChildUI
	buildh _Cons 2
	build e_iTasks.UI.Layout_dsequenceLayouts 1 e_iTasks.UI.Layout_nsequenceLayouts
	push_a 3
	build e_iTasks.UI.Layout_dlayoutSubUIs 2 e_iTasks.UI.Layout_nlayoutSubUIs
	buildh _Cons 2
	buildh e_iTasks.UI.Definition_dUIPanel 0
	build e_iTasks.UI.Layout_dsetUIType 1 e_iTasks.UI.Layout_nsetUIType
	push_a 4
	build e_iTasks.UI.Layout_dlayoutSubUIs 2 e_iTasks.UI.Layout_nlayoutSubUIs
	buildh _Cons 2
	buildh e_iTasks.UI.Layout.StandardForms_d_f3.229 0
	buildh _Nil 0
	buildAC "class"
	buildh ARRAY 1
	buildh _Cons 2
	buildhr e_iTasks.UI.Layout_kSelectKeys 1 0
	build e_iTasks.UI.Layout_dmodifyUIAttributes 2 e_iTasks.UI.Layout_nmodifyUIAttributes
	buildh _Cons 2
	buildh _Nil 0
	buildAC "editorId"
	buildh ARRAY 1
	buildh _Cons 2
	buildAC "taskId"
	buildh ARRAY 1
	buildh _Cons 2
	buildAC "initUI"
	buildh ARRAY 1
	buildh _Cons 2
	buildhr e_iTasks.UI.Layout_kSelectKeys 1 0
	build e_iTasks.UI.Layout_ddelUIAttributes 1 e_iTasks.UI.Layout_ndelUIAttributes
	buildh _Cons 2
	buildh _Nil 0
	buildh _Nil 0
	buildI 0
	buildh _Cons 2
	buildh e_iTasks.UI.Layout_dSelectAll 0
	build e_iTasks.UI.Layout_dcopySubUIAttributes 3 e_iTasks.UI.Layout_ncopySubUIAttributes
	buildh _Cons 2
	buildh e_iTasks.UI.Definition_dUIContainer 0
	build e_iTasks.UI.Layout_dwrapUI 1 e_iTasks.UI.Layout_nwrapUI
	buildh _Cons 2
	build e_iTasks.UI.Layout_dsequenceLayouts 1 e_iTasks.UI.Layout_nsequenceLayouts
	push_a2 2 3
	buildhr e_iTasks.UI.Layout_kSelectOR 2 0
	build e_iTasks.UI.Layout_dlayoutSubUIs 2 e_iTasks.UI.Layout_nlayoutSubUIs
	buildh _Cons 2
	buildh _Nil 0
	build e_iTasks.UI.Layout.StandardForms_dlayoutList.8 0 e_iTasks.UI.Layout.StandardForms_nlayoutList.8
	buildh e_iTasks.UI.Definition_dUIList 0
	buildhr e_iTasks.UI.Layout_kSelectByType 1 0
	build e_iTasks.UI.Layout_dlayoutSubUIs 2 e_iTasks.UI.Layout_nlayoutSubUIs
	buildh _Cons 2
	build e_iTasks.UI.Layout.StandardForms_dlayoutVarCons.7 0 e_iTasks.UI.Layout.StandardForms_nlayoutVarCons.7
	buildAC "var-cons"
	buildhr e_iTasks.UI.Layout_kSelectByClass 1 0
	build e_iTasks.UI.Layout_dlayoutSubUIs 2 e_iTasks.UI.Layout_nlayoutSubUIs
	buildh _Cons 2
	build e_iTasks.UI.Layout.StandardForms_dlayoutRecord.6 0 e_iTasks.UI.Layout.StandardForms_nlayoutRecord.6
	buildAC "record"
	buildhr e_iTasks.UI.Layout_kSelectByClass 1 0
	build e_iTasks.UI.Layout_dlayoutSubUIs 2 e_iTasks.UI.Layout_nlayoutSubUIs
	buildh _Cons 2
	push2_a 5
	build e_iTasks.UI.Layout_dlayoutSubUIs 2 e_iTasks.UI.Layout_nlayoutSubUIs
	buildh _Cons 2
	build e_iTasks.UI.Layout_dsequenceLayouts 1 e_iTasks.UI.Layout_nsequenceLayouts
	buildh _Cons 2
	buildh e_iTasks.UI.Layout.StandardForms_d_f2.228 0
	buildh _Nil 0
	buildAC "class"
	buildh ARRAY 1
	buildh _Cons 2
	buildhr e_iTasks.UI.Layout_kSelectKeys 1 0
	build e_iTasks.UI.Layout_dmodifyUIAttributes 2 e_iTasks.UI.Layout_nmodifyUIAttributes
	buildh _Cons 2
	updatepop_a 0 4
.d 2 0 
	jmp e_iTasks.UI.Layout_ssequenceLayouts
.export e_iTasks.UI.Layout.StandardForms_d_f3.229
.desc e_iTasks.UI.Layout.StandardForms_d_f3.229 _hnf l229 1 0 "_f3.229"
.o 2 0 
l229
	update_a 1 0
	create 
	put_a 2
.o 2 0 
ea229
.o 2 0 
s229
	jsr_eval 0
	push_a 0
	buildAC "itasks-form-item"
	update2pop_a 0 1
.d 3 0 
	jmp e_iTasks.UI.Definition_sremoveClassAttr
.export e_iTasks.UI.Layout.StandardForms_d_f2.228
.desc e_iTasks.UI.Layout.StandardForms_d_f2.228 _hnf l228 1 0 "_f2.228"
.o 2 0 
l228
	update_a 1 0
	create 
	put_a 2
.o 2 0 
ea228
.o 2 0 
s228
	jsr_eval 0
	push_a 0
	buildAC "interact"
	update2pop_a 0 1
.d 3 0 
	jmp e_iTasks.UI.Definition_sremoveClassAttr
.export e_iTasks.UI.Layout.StandardForms_dpromptToValue;12.13
.desc e_iTasks.UI.Layout.StandardForms_dpromptToValue;12.13 _hnf l13 1 0 "promptToValue;12.13"
.o 2 0 
l13
	update_a 1 0
	create 
	put_a 2
.o 2 0 
ea13
.o 2 0 
s13
	push_a 0
	buildAC "hint"
	buildh ARRAY 1
	build e_iTasks.UI.Layout.StandardForms_dget`;511.19 2 e_iTasks.UI.Layout.StandardForms_nget`;511.19
	buildh e_iTasks.UI.Layout.StandardForms_d\;100;27;11.12 0
	buildAC ""
	buildh ARRAY 1
	update3pop_a 0 1
.d 3 0 
	jsr e_Data.Maybe_smaybe;63
.o 1 0 
	push_array 0
	put_a 1
	buildhr e_Text.GenJSON_kJSONString 1 0
	buildAC "value"
	buildh ARRAY 1
.d 3 0 
	jmp e_Data.Map_ssingleton
.export e_iTasks.UI.Layout.StandardForms_dget`;511.19
.export e_iTasks.UI.Layout.StandardForms_nget`;511.19
.descn e_iTasks.UI.Layout.StandardForms_dget`;511.19 e_iTasks.UI.Layout.StandardForms_nget`;511.19 2 0 "get`;511.19"
.n 2 e_iTasks.UI.Layout.StandardForms_dget`;511.19 ea19
.o 1 0 
e_iTasks.UI.Layout.StandardForms_nget`;511.19
	push_node _cycle_in_spine 2
.o 3 0 
ea19
	jsr_eval 1
.o 3 0 
s19
	jmp_ne_desc e_Data.Map_kBin 0 1 case.2
	push_r_args 1 4 1
	buildh _Nil 0
	updates2_a 5 0 6
	pop_b 1
	jsr_eval 0
	push_array 0
	put_a 1
	push_array 1
	swap_a1 
.d 2 0 
	jsr cmpAC
.o 0 1 i
	pushI 0
	gtI
	jmp_false else.3
	update_a 2 5
.d 3 0 
	pop_a_jmp 4 s19
else.3
	push_array 4
	push_array 1
	update_a 3 4
	update2pop_a 0 2
.d 2 0 
	jsr cmpAC
.o 0 1 i
	pushI 0
	gtI
	jmp_false else.4
	update_a 1 3
.d 3 0 
	pop_a_jmp 2 s19
else.4
	push_a 0
	fillh _Just 1 5
.d 1 0 
	pop_a_rtn 4
case.2
	fillh _None 0 2
.d 1 0 
	pop_a_rtn 2
.export e_iTasks.UI.Layout.StandardForms_d\;100;27;11.12
.desc e_iTasks.UI.Layout.StandardForms_d\;100;27;11.12 _hnf l12 1 0 "\;100;27;11.12"
.o 2 0 
l12
.d 1 0 
	pop_a_jsr 1 ea12
.o 1 0 
	buildh ARRAY 1
.d 1 0 
	rtn 
.o 1 0 
ea12
	jsr_eval 0
.o 1 0 
s12
	jmp_ne_desc e_Text.GenJSON_kJSONString 0 0 s12.1
	repl_args 1 1
.d 1 0 
	jmp e_Text.HTML_sescapeForAttribute
s12.1
	pushD m_iTasks.UI.Layout.StandardForms
	pushD e_iTasks.UI.Layout.StandardForms_d\;100;27;11.12
.d 0 2 ii
	pop_a_jmp 1 _match_error
.export e_iTasks.UI.Layout.StandardForms_dlayoutRecord.6
.export e_iTasks.UI.Layout.StandardForms_nlayoutRecord.6
.descn e_iTasks.UI.Layout.StandardForms_dlayoutRecord.6 e_iTasks.UI.Layout.StandardForms_nlayoutRecord.6 0 0 "layoutRecord.6"
.n 0 e_iTasks.UI.Layout.StandardForms_dlayoutRecord.6 ea6
.o 1 0 
e_iTasks.UI.Layout.StandardForms_nlayoutRecord.6
	push_node _cycle_in_spine 0
.o 1 0 
ea6
.o 1 0 
s6
	buildh _Nil 0
	build e_iTasks.UI.Layout.StandardForms_dlayoutRecord.6 0 e_iTasks.UI.Layout.StandardForms_nlayoutRecord.6
	buildAC "record"
	buildhr e_iTasks.UI.Layout_kSelectByClass 1 0
	buildh e_iTasks.UI.Layout_dSelectDescendents 0
	buildhr e_iTasks.UI.Layout_kSelectAND 2 0
	build e_iTasks.UI.Layout_dlayoutSubUIs 2 e_iTasks.UI.Layout_nlayoutSubUIs
	buildh _Cons 2
	buildh e_iTasks.UI.Definition_dWrapSize 0
	build e_iTasks.UI.Definition_dheightAttr 1 e_iTasks.UI.Definition_nheightAttr
	build e_iTasks.UI.Layout_dsetUIAttributes 1 e_iTasks.UI.Layout_nsetUIAttributes
	buildh _Cons 2
.d 2 0 
	jmp e_iTasks.UI.Layout_ssequenceLayouts
.export e_iTasks.UI.Layout.StandardForms_dlayoutVarCons.7
.export e_iTasks.UI.Layout.StandardForms_nlayoutVarCons.7
.descn e_iTasks.UI.Layout.StandardForms_dlayoutVarCons.7 e_iTasks.UI.Layout.StandardForms_nlayoutVarCons.7 0 0 "layoutVarCons.7"
.n 0 e_iTasks.UI.Layout.StandardForms_dlayoutVarCons.7 ea7
.o 1 0 
e_iTasks.UI.Layout.StandardForms_nlayoutVarCons.7
	push_node _cycle_in_spine 0
.o 1 0 
ea7
.o 1 0 
s7
	buildh _Nil 0
	build e_iTasks.UI.Layout.StandardForms_dlayoutVarCons.7 0 e_iTasks.UI.Layout.StandardForms_nlayoutVarCons.7
	buildAC "var-cons"
	buildhr e_iTasks.UI.Layout_kSelectByClass 1 0
	buildh e_iTasks.UI.Layout_dSelectDescendents 0
	buildhr e_iTasks.UI.Layout_kSelectAND 2 0
	build e_iTasks.UI.Layout_dlayoutSubUIs 2 e_iTasks.UI.Layout_nlayoutSubUIs
	buildh _Cons 2
	buildh e_iTasks.UI.Definition_dWrapSize 0
	build e_iTasks.UI.Definition_dwidthAttr 1 e_iTasks.UI.Definition_nwidthAttr
	build e_iTasks.UI.Layout_dsetUIAttributes 1 e_iTasks.UI.Layout_nsetUIAttributes
	buildh _Nil 0
	buildI 0
	buildh _Cons 2
	buildhr e_iTasks.UI.Layout_kSelectByPath 1 0
	build e_iTasks.UI.Layout_dlayoutSubUIs 2 e_iTasks.UI.Layout_nlayoutSubUIs
	buildh _Cons 2
.d 2 0 
	jmp e_iTasks.UI.Layout_ssequenceLayouts
.export e_iTasks.UI.Layout.StandardForms_dlayoutList.8
.export e_iTasks.UI.Layout.StandardForms_nlayoutList.8
.descn e_iTasks.UI.Layout.StandardForms_dlayoutList.8 e_iTasks.UI.Layout.StandardForms_nlayoutList.8 0 0 "layoutList.8"
.n 0 e_iTasks.UI.Layout.StandardForms_dlayoutList.8 ea8
.o 1 0 
e_iTasks.UI.Layout.StandardForms_nlayoutList.8
	push_node _cycle_in_spine 0
.o 1 0 
ea8
.o 1 0 
s8
	buildh _Nil 0
	build e_iTasks.UI.Layout.StandardForms_dlayoutList.8 0 e_iTasks.UI.Layout.StandardForms_nlayoutList.8
	buildh e_iTasks.UI.Definition_dUIList 0
	buildhr e_iTasks.UI.Layout_kSelectByType 1 0
	buildh e_iTasks.UI.Layout_dSelectDescendents 0
	buildhr e_iTasks.UI.Layout_kSelectAND 2 0
	build e_iTasks.UI.Layout_dlayoutSubUIs 2 e_iTasks.UI.Layout_nlayoutSubUIs
	buildh _Cons 2
	buildh e_iTasks.UI.Definition_dWrapSize 0
	build e_iTasks.UI.Definition_dheightAttr 1 e_iTasks.UI.Definition_nheightAttr
	build e_iTasks.UI.Layout_dsetUIAttributes 1 e_iTasks.UI.Layout_nsetUIAttributes
	buildh _Cons 2
	buildh e_iTasks.UI.Definition_dWrapSize 0
	build e_iTasks.UI.Definition_dheightAttr 1 e_iTasks.UI.Definition_nheightAttr
	build e_iTasks.UI.Layout_dsetUIAttributes 1 e_iTasks.UI.Layout_nsetUIAttributes
	pushI 1
	buildhr e_iTasks.UI.Layout_kSelectByDepth 0 1
	build e_iTasks.UI.Layout_dlayoutSubUIs 2 e_iTasks.UI.Layout_nlayoutSubUIs
	buildh _Cons 2
.d 2 0 
	jmp e_iTasks.UI.Layout_ssequenceLayouts
.export e_iTasks.UI.Layout.StandardForms_dlayoutStepWithActions.3
.export e_iTasks.UI.Layout.StandardForms_nlayoutStepWithActions.3
.descn e_iTasks.UI.Layout.StandardForms_dlayoutStepWithActions.3 e_iTasks.UI.Layout.StandardForms_nlayoutStepWithActions.3 0 0 "layoutStepWithActions.3"
.n 0 e_iTasks.UI.Layout.StandardForms_dlayoutStepWithActions.3 ea3
.o 1 0 
e_iTasks.UI.Layout.StandardForms_nlayoutStepWithActions.3
	push_node _cycle_in_spine 0
.o 1 0 
ea3
.o 1 0 
s3
	buildh _Nil 0
	buildh e_iTasks.UI.Layout.StandardForms_d_f1.227 0
	buildh _Nil 0
	buildAC "class"
	buildh ARRAY 1
	buildh _Cons 2
	buildhr e_iTasks.UI.Layout_kSelectKeys 1 0
	build e_iTasks.UI.Layout_dmodifyUIAttributes 2 e_iTasks.UI.Layout_nmodifyUIAttributes
	buildh _Cons 2
	build e_iTasks.UI.Layout.StandardForms_daddButtonBar.11 0 e_iTasks.UI.Layout.StandardForms_naddButtonBar.11
	buildh _Cons 2
	buildh e_iTasks.UI.Definition_dUIPanel 0
	build e_iTasks.UI.Layout_dsetUIType 1 e_iTasks.UI.Layout_nsetUIType
	buildh e_iTasks.UI.Definition_dUIContainer 0
	buildhr e_iTasks.UI.Layout_kSelectByType 1 0
	buildh _Nil 0
	buildhr e_iTasks.UI.Layout_kSelectByPath 1 0
	buildhr e_iTasks.UI.Layout_kSelectAND 2 0
	build e_iTasks.UI.Layout_dlayoutSubUIs 2 e_iTasks.UI.Layout_nlayoutSubUIs
	buildh _Cons 2
	build e_iTasks.UI.Layout_dhideUI 0 e_iTasks.UI.Layout_nhideUI
	pushB FALSE
	buildhr e_Text.GenJSON_kJSONBool 0 1
	buildh e_Text.GenJSON_d==;10 1
	buildAC "enabled"
	buildhr e_iTasks.UI.Layout_kSelectByAttribute 2 0
	buildh e_iTasks.UI.Definition_dUIAction 0
	buildhr e_iTasks.UI.Layout_kSelectByType 1 0
	buildhr e_iTasks.UI.Layout_kSelectAND 2 0
	pushI 1
	buildhr e_iTasks.UI.Layout_kSelectByDepth 0 1
	buildhr e_iTasks.UI.Layout_kSelectAND 2 0
	build e_iTasks.UI.Layout_dlayoutSubUIs 2 e_iTasks.UI.Layout_nlayoutSubUIs
	buildh e_iTasks.UI.Layout_dSelectDescendents 0
	buildAC "step-actions"
	buildhr e_iTasks.UI.Layout_kSelectByClass 1 0
	buildhr e_iTasks.UI.Layout_kSelectAND 2 0
	buildhr e_iTasks.UI.Layout_kSelectByContains 1 0
	buildAC "step-actions"
	buildhr e_iTasks.UI.Layout_kSelectByClass 1 0
	buildhr e_iTasks.UI.Layout_kSelectAND 2 0
	build e_iTasks.UI.Layout_dlayoutSubUIs 2 e_iTasks.UI.Layout_nlayoutSubUIs
	buildh _Cons 2
	build e_iTasks.UI.Layout.StandardForms_dlayoutStepWithActions.3 0 e_iTasks.UI.Layout.StandardForms_nlayoutStepWithActions.3
	buildAC "step-actions"
	buildhr e_iTasks.UI.Layout_kSelectByClass 1 0
	buildh e_iTasks.UI.Layout_dSelectDescendents 0
	buildhr e_iTasks.UI.Layout_kSelectAND 2 0
	build e_iTasks.UI.Layout_dlayoutSubUIs 2 e_iTasks.UI.Layout_nlayoutSubUIs
	buildh _Cons 2
.d 2 0 
	jmp e_iTasks.UI.Layout_ssequenceLayouts
.export e_iTasks.UI.Layout.StandardForms_d_f1.227
.desc e_iTasks.UI.Layout.StandardForms_d_f1.227 _hnf l227 1 0 "_f1.227"
.o 2 0 
l227
	update_a 1 0
	create 
	put_a 2
.o 2 0 
ea227
.o 2 0 
s227
	jsr_eval 0
	push_a 0
	buildAC "step-actions"
	update2pop_a 0 1
.d 3 0 
	jmp e_iTasks.UI.Definition_sremoveClassAttr
.export e_iTasks.UI.Layout.StandardForms_daddButtonBar.11
.export e_iTasks.UI.Layout.StandardForms_naddButtonBar.11
.descn e_iTasks.UI.Layout.StandardForms_daddButtonBar.11 e_iTasks.UI.Layout.StandardForms_naddButtonBar.11 0 0 "addButtonBar.11"
.n 0 e_iTasks.UI.Layout.StandardForms_daddButtonBar.11 ea11
.o 1 0 
e_iTasks.UI.Layout.StandardForms_naddButtonBar.11
	push_node _cycle_in_spine 0
.o 1 0 
ea11
.o 1 0 
s11
	buildh _Nil 0
	build e_iTasks.UI.Layout.StandardForms_dlayoutAsButton.9 0 e_iTasks.UI.Layout.StandardForms_nlayoutAsButton.9
	pushI 1
	buildhr e_iTasks.UI.Layout_kSelectByDepth 0 1
	build e_iTasks.UI.Layout_dlayoutSubUIs 2 e_iTasks.UI.Layout_nlayoutSubUIs
	buildh _Nil 0
	buildI 1
	buildh _Cons 2
	buildhr e_iTasks.UI.Layout_kSelectByPath 1 0
	build e_iTasks.UI.Layout_dlayoutSubUIs 2 e_iTasks.UI.Layout_nlayoutSubUIs
	buildh _Cons 2
	buildh _Nil 0
	buildI 1
	buildh _Cons 2
	buildh e_iTasks.UI.Definition_dUIAction 0
	buildhr e_iTasks.UI.Layout_kSelectByType 1 0
	pushI 1
	buildhr e_iTasks.UI.Layout_kSelectByDepth 0 1
	buildhr e_iTasks.UI.Layout_kSelectAND 2 0
	buildI 0
	push_a 1
	updates3pop_a 0 1 3 2
	build e_iTasks.UI.Layout_dmoveSubUIs 3 e_iTasks.UI.Layout_nmoveSubUIs
	buildh _Cons 2
	buildh e_iTasks.UI.Definition_dUIButtonBar 0
	build e_iTasks.UI.Definition_dui 1 e_iTasks.UI.Definition_nui
	buildI 1
	build e_iTasks.UI.Layout_dinsertChildUI 2 e_iTasks.UI.Layout_ninsertChildUI
	buildh _Cons 2
.d 2 0 
	jmp e_iTasks.UI.Layout_ssequenceLayouts
.export e_iTasks.UI.Layout.StandardForms_dlayoutParallelWithActions.4
.export e_iTasks.UI.Layout.StandardForms_nlayoutParallelWithActions.4
.descn e_iTasks.UI.Layout.StandardForms_dlayoutParallelWithActions.4 e_iTasks.UI.Layout.StandardForms_nlayoutParallelWithActions.4 0 0 "layoutParallelWithActions.4"
.n 0 e_iTasks.UI.Layout.StandardForms_dlayoutParallelWithActions.4 ea4
.o 1 0 
e_iTasks.UI.Layout.StandardForms_nlayoutParallelWithActions.4
	push_node _cycle_in_spine 0
.o 1 0 
ea4
.o 1 0 
s4
	buildh _Nil 0
	buildh e_iTasks.UI.Layout.StandardForms_d_f0.226 0
	buildh _Nil 0
	buildAC "class"
	buildh ARRAY 1
	buildh _Cons 2
	buildhr e_iTasks.UI.Layout_kSelectKeys 1 0
	build e_iTasks.UI.Layout_dmodifyUIAttributes 2 e_iTasks.UI.Layout_nmodifyUIAttributes
	buildh _Cons 2
	build e_iTasks.UI.Layout.StandardForms_daddToolBar.10 0 e_iTasks.UI.Layout.StandardForms_naddToolBar.10
	buildh _Cons 2
	buildh e_iTasks.UI.Definition_dUIPanel 0
	build e_iTasks.UI.Layout_dsetUIType 1 e_iTasks.UI.Layout_nsetUIType
	buildh e_iTasks.UI.Definition_dUIContainer 0
	buildhr e_iTasks.UI.Layout_kSelectByType 1 0
	buildh _Nil 0
	buildhr e_iTasks.UI.Layout_kSelectByPath 1 0
	buildhr e_iTasks.UI.Layout_kSelectAND 2 0
	build e_iTasks.UI.Layout_dlayoutSubUIs 2 e_iTasks.UI.Layout_nlayoutSubUIs
	buildh _Cons 2
.d 2 0 
	jmp e_iTasks.UI.Layout_ssequenceLayouts
.export e_iTasks.UI.Layout.StandardForms_d_f0.226
.desc e_iTasks.UI.Layout.StandardForms_d_f0.226 _hnf l226 1 0 "_f0.226"
.o 2 0 
l226
	update_a 1 0
	create 
	put_a 2
.o 2 0 
ea226
.o 2 0 
s226
	jsr_eval 0
	push_a 0
	buildAC "parallel-actions"
	update2pop_a 0 1
.d 3 0 
	jmp e_iTasks.UI.Definition_sremoveClassAttr
.export e_iTasks.UI.Layout.StandardForms_daddToolBar.10
.export e_iTasks.UI.Layout.StandardForms_naddToolBar.10
.descn e_iTasks.UI.Layout.StandardForms_daddToolBar.10 e_iTasks.UI.Layout.StandardForms_naddToolBar.10 0 0 "addToolBar.10"
.n 0 e_iTasks.UI.Layout.StandardForms_daddToolBar.10 ea10
.o 1 0 
e_iTasks.UI.Layout.StandardForms_naddToolBar.10
	push_node _cycle_in_spine 0
.o 1 0 
ea10
.o 1 0 
s10
	buildh _Nil 0
	build e_iTasks.UI.Layout.StandardForms_dlayoutAsButton.9 0 e_iTasks.UI.Layout.StandardForms_nlayoutAsButton.9
	pushI 1
	buildhr e_iTasks.UI.Layout_kSelectByDepth 0 1
	build e_iTasks.UI.Layout_dlayoutSubUIs 2 e_iTasks.UI.Layout_nlayoutSubUIs
	buildh _Nil 0
	buildI 0
	buildh _Cons 2
	buildhr e_iTasks.UI.Layout_kSelectByPath 1 0
	build e_iTasks.UI.Layout_dlayoutSubUIs 2 e_iTasks.UI.Layout_nlayoutSubUIs
	buildh _Cons 2
	buildh _Nil 0
	buildI 0
	buildh _Cons 2
	buildh e_iTasks.UI.Definition_dUIAction 0
	buildhr e_iTasks.UI.Layout_kSelectByType 1 0
	pushI 1
	buildhr e_iTasks.UI.Layout_kSelectByDepth 0 1
	buildhr e_iTasks.UI.Layout_kSelectAND 2 0
	buildI 0
	push_a 1
	updates3pop_a 0 1 3 2
	build e_iTasks.UI.Layout_dmoveSubUIs 3 e_iTasks.UI.Layout_nmoveSubUIs
	buildh _Cons 2
	buildh e_iTasks.UI.Definition_dUIToolBar 0
	build e_iTasks.UI.Definition_dui 1 e_iTasks.UI.Definition_nui
	buildI 0
	build e_iTasks.UI.Layout_dinsertChildUI 2 e_iTasks.UI.Layout_ninsertChildUI
	buildh _Cons 2
.d 2 0 
	jmp e_iTasks.UI.Layout_ssequenceLayouts
.export e_iTasks.UI.Layout.StandardForms_dlayoutAsButton.9
.export e_iTasks.UI.Layout.StandardForms_nlayoutAsButton.9
.descn e_iTasks.UI.Layout.StandardForms_dlayoutAsButton.9 e_iTasks.UI.Layout.StandardForms_nlayoutAsButton.9 0 0 "layoutAsButton.9"
.n 0 e_iTasks.UI.Layout.StandardForms_dlayoutAsButton.9 ea9
.o 1 0 
e_iTasks.UI.Layout.StandardForms_nlayoutAsButton.9
	push_node _cycle_in_spine 0
.o 1 0 
ea9
.o 1 0 
s9
	buildh _Nil 0
	buildh e_iTasks.UI.Layout.StandardForms_dtoButtonAttributes;14.15 0
	buildh _Nil 0
	buildAC "actionId"
	buildh ARRAY 1
	buildh _Cons 2
	buildhr e_iTasks.UI.Layout_kSelectKeys 1 0
	build e_iTasks.UI.Layout_dmodifyUIAttributes 2 e_iTasks.UI.Layout_nmodifyUIAttributes
	buildh _Cons 2
	buildh e_iTasks.UI.Definition_dUIButton 0
	build e_iTasks.UI.Layout_dsetUIType 1 e_iTasks.UI.Layout_nsetUIType
	buildh _Cons 2
.d 2 0 
	jmp e_iTasks.UI.Layout_ssequenceLayouts
.export e_iTasks.UI.Layout.StandardForms_dtoButtonAttributes;14.15
.desc e_iTasks.UI.Layout.StandardForms_dtoButtonAttributes;14.15 _hnf l15 1 0 "toButtonAttributes;14.15"
.o 2 0 
l15
	update_a 1 0
	create 
	put_a 2
.o 2 0 
ea15
.o 2 0 
s15
	push_a 0
	buildAC "actionId"
	buildh ARRAY 1
	build e_iTasks.UI.Layout.StandardForms_dget`;510.18 2 e_iTasks.UI.Layout.StandardForms_nget`;510.18
	buildh e_iTasks.UI.Layout.StandardForms_d\;128;23;13.14 0
	push_a 2
	update3pop_a 0 1
.d 3 0 
	jsr e_Data.Maybe_smaybe;63
.o 1 0 
.d 1 0 
	fill_a01_pop_rtn 
.export e_iTasks.UI.Layout.StandardForms_dget`;510.18
.export e_iTasks.UI.Layout.StandardForms_nget`;510.18
.descn e_iTasks.UI.Layout.StandardForms_dget`;510.18 e_iTasks.UI.Layout.StandardForms_nget`;510.18 2 0 "get`;510.18"
.n 2 e_iTasks.UI.Layout.StandardForms_dget`;510.18 ea18
.o 1 0 
e_iTasks.UI.Layout.StandardForms_nget`;510.18
	push_node _cycle_in_spine 2
.o 3 0 
ea18
	jsr_eval 1
.o 3 0 
s18
	jmp_ne_desc e_Data.Map_kBin 0 1 case.7
	push_r_args 1 4 1
	buildh _Nil 0
	updates2_a 5 0 6
	pop_b 1
	jsr_eval 0
	push_array 0
	put_a 1
	push_array 1
	swap_a1 
.d 2 0 
	jsr cmpAC
.o 0 1 i
	pushI 0
	gtI
	jmp_false else.8
	update_a 2 5
.d 3 0 
	pop_a_jmp 4 s18
else.8
	push_array 4
	push_array 1
	update_a 3 4
	update2pop_a 0 2
.d 2 0 
	jsr cmpAC
.o 0 1 i
	pushI 0
	gtI
	jmp_false else.9
	update_a 1 3
.d 3 0 
	pop_a_jmp 2 s18
else.9
	push_a 0
	fillh _Just 1 5
.d 1 0 
	pop_a_rtn 4
case.7
	fillh _None 0 2
.d 1 0 
	pop_a_rtn 2
.export e_iTasks.UI.Layout.StandardForms_d\;128;23;13.14
.desc e_iTasks.UI.Layout.StandardForms_d\;128;23;13.14 _hnf l14 1 0 "\;128;23;13.14"
.o 2 0 
l14
	update_a 1 0
	create 
	put_a 2
.o 2 0 
ea14
	jsr_eval 0
.o 2 0 
s14
	jmp_ne_desc e_Text.GenJSON_kJSONString 0 0 s14.1
	repl_args 1 1
	buildh _Nil 0
	push_a 1
	buildh ARRAY 1
	build e_iTasks.UI.Definition_dtextAttr 1 e_iTasks.UI.Definition_ntextAttr
	buildh _Cons 2
	push_a 1
	buildhr e_Text.GenJSON_kJSONString 1 0
	build e_iTasks.UI.Definition_dvalueAttr 1 e_iTasks.UI.Definition_nvalueAttr
	buildh _Cons 2
.d 2 0 
	put_a_jmp 1 e_Data.Map_sunions;70
s14.1
	pushD m_iTasks.UI.Layout.StandardForms
	pushD e_iTasks.UI.Layout.StandardForms_d\;128;23;13.14
.d 0 2 ii
	pop_a_jmp 2 _match_error
.impmod _system
.implab _match_error
