.comp 920 100011110011000
.start __BasicAPIExamples_Start
.depend "BasicAPIExamples.SequentialExamples.Palindrome" "20210613144730"
.depend "BasicAPIExamples.SequentialExamples.EditPerson1by1" "20210613144730"
.depend "BasicAPIExamples.SequentialExamples.CoffeeMachine" "20210613144730"
.depend "BasicAPIExamples.SequentialExamples.Calculator" "20210613144730"
.depend "BasicAPIExamples.SequentialExamples.CalculateSumStepwiseAndBack" "20210613144730"
.depend "BasicAPIExamples.SequentialExamples.CalculateSumStepwise" "20210613144730"
.depend "BasicAPIExamples.SequentialExamples.CalculateSumInShare" "20210613144730"
.depend "BasicAPIExamples.ParallelExamples.TinyTextEditor" "20210613144730"
.depend "BasicAPIExamples.MultiUserExamples.OptionsChat" "20210613144730"
.depend "BasicAPIExamples.MultiUserExamples.MeetingDate" "20210613144730"
.depend "BasicAPIExamples.MultiUserExamples.Chat" "20210613144730"
.depend "BasicAPIExamples.InteractionWithTheSystem.RunProcess" "20210613144730"
.depend "BasicAPIExamples.InteractionUsingShares.UpdateSharedPersonsAndView" "20210613144730"
.depend "BasicAPIExamples.InteractionUsingShares.SharedNotes" "20210613144730"
.depend "BasicAPIExamples.InteractionUsingShares.SharedNoteAsList" "20210613144730"
.depend "BasicAPIExamples.InteractionUsingShares.CurrentDateAndTime" "20210613144730"
.depend "BasicAPIExamples.InteractionUsingShares.BrowseAndViewLeafletMap" "20210613144730"
.depend "BasicAPIExamples.Extensions.Select2" "20210613144730"
.depend "BasicAPIExamples.EditorsOnCustomTypes.SelectionComponents" "20210613144730"
.depend "BasicAPIExamples.EditorsOnCustomTypes.EnterPerson" "20210613144730"
.depend "BasicAPIExamples.EditorsOnCustomTypes.EnterFamilyTree" "20210613144730"
.depend "BasicAPIExamples.EditorsOnBasicAndPredefinedTypes.Leaflet" "20210613144730"
.depend "BasicAPIExamples.EditorsOnBasicAndPredefinedTypes.HelloWorld" "20210613144730"
.depend "BasicAPIExamples.EditorsOnBasicAndPredefinedTypes.EnterText" "20210613144730"
.depend "BasicAPIExamples.EditorsOnBasicAndPredefinedTypes.EnterListOfInt" "20210613144730"
.depend "BasicAPIExamples.EditorsOnBasicAndPredefinedTypes.EnterInteger" "20210613144730"
.depend "BasicAPIExamples.EditorsOnBasicAndPredefinedTypes.EnterDateAndTime" "20210613144730"
.depend "iTasks.Internal.SDSService" "20210613144730"
.depend "iTasks.Internal.Serialization" "20210613144730"
.depend "_SystemEnum" "20210613144732"
.depend "StdEnum" "20210613144732"
.depend "StdTuple" "20210613144732"
.depend "StdOrdList" "20210613144732"
.depend "Control.Monad.Trans" "20210613144732"
.depend "StdMaybe" "20210613144732"
.depend "Data.Maybe" "20210613144732"
.depend "iTasks.Extensions.Admin.WorkflowAdmin" "20210613144730"
.depend "iTasks.Extensions.User" "20210613144730"
.depend "iTasks.Extensions.Admin.UserAdmin" "20210613144730"
.depend "iTasks.UI.Layout.Common" "20210613144730"
.depend "iTasks.UI.Editor.Modifiers" "20210613144730"
.depend "iTasks.UI.Editor.Containers" "20210613144730"
.depend "iTasks.UI.Tune" "20210613144730"
.depend "iTasks.Internal.Distributed.Domain" "20210613144730"
.depend "iTasks.WF.Combinators.Common" "20210613144730"
.depend "iTasks.WF.Combinators.SDS" "20210613144730"
.depend "iTasks.UI.Editor.Controls" "20210613144730"
.depend "iTasks.WF.Tasks.Interaction" "20210613144730"
.depend "iTasks.WF.Tasks.System" "20210613144730"
.depend "iTasks.WF.Tasks.SDS" "20210613144730"
.depend "iTasks.WF.Tasks.Core" "20210613144730"
.depend "System.Time.GenJSON" "20210613144732"
.depend "Text.HTML.GenJSON" "20210613144732"
.depend "Data.Map.GenJSON" "20210613144732"
.depend "Data.Error.GenJSON" "20210613144732"
.depend "Data.Either.GenJSON" "20210613144732"
.depend "iTasks.WF.Derives" "20210613144730"
.depend "iTasks.SDS.Combinators.Common" "20210613144730"
.depend "iTasks.SDS.Combinators.Core" "20210613144730"
.depend "iTasks.SDS.Sources.System" "20210613144730"
.depend "iTasks.SDS.Sources.Store" "20210613144730"
.depend "iTasks.SDS.Sources.Core" "20210613144730"
.depend "iTasks.Internal.TaskIO" "20210613144730"
.depend "System._Signal" "20210613144732"
.depend "System.Signal" "20210613144732"
.depend "_SystemStrictMaybes" "20210613144732"
.depend "Text.GenPrint" "20210613144732"
.depend "iTasks.Extensions.DateTime" "20210613144730"
.depend "iTasks.Internal.TaskServer" "20210613144730"
.depend "AsyncIO" "20210613144730"
.depend "System._Process" "20210613144732"
.depend "System.Process" "20210613144732"
.depend "System.OS" "20210613144732"
.depend "TCPStringChannelsInternal" "20210613144732"
.depend "TCPStringChannels" "20210613144732"
.depend "TCPEvent" "20210613144732"
.depend "tcp_bytestreams" "20210613144732"
.depend "TCPDef" "20210613144732"
.depend "TCPChannels" "20210613144732"
.depend "TCPIP" "20210613144732"
.depend "iTasks.WF.Tasks.IO" "20210613144730"
.depend "Data.IntMap.Base" "20210613144732"
.depend "Data.IntMap.Strict" "20210613144732"
.depend "Data.CircularStack" "20210613144732"
.depend "iTasks.Extensions.Document" "20210613144730"
.depend "System.File" "20210613144732"
.depend "iTasks.Util.DeferredJSON" "20210613144730"
.depend "iTasks.UI.Layout" "20210613144730"
.depend "iTasks.Internal.TaskState" "20210613144730"
.depend "iTasks.Internal.SDS" "20210613144730"
.depend "Data.GenHash" "20210613144732"
.depend "Data.Maybe.Ord" "20210613144732"
.depend "Control.GenBimap" "20210613144732"
.depend "ABC.Interpreter.JavaScript" "20210613144730"
.depend "ABC.Interpreter" "20210613144730"
.depend "iTasks.UI.Editor" "20210613144730"
.depend "iTasks.UI.Editor.Generic" "20210613144730"
.depend "iTasks.Internal.Generic.Defaults" "20210613144730"
.depend "Data.GenDefault" "20210613144732"
.depend "Data.Integer" "20210613144732"
.depend "Text.HTML" "20210613144732"
.depend "iTasks.Internal.Generic.Visualization" "20210613144730"
.depend "iTasks.SDS.Definition" "20210613144730"
.depend "iTasks.WF.Combinators.Core" "20210613144730"
.depend "iTasks.Internal.TaskEval" "20210613144730"
.depend "iTasks.WF.Definition" "20210613144730"
.depend "iTasks.Internal.Task" "20210613144730"
.depend "iTasks.UI.Definition" "20210613144730"
.depend "Text.GenJSON" "20210613144732"
.depend "Data.Bifunctor" "20210613144732"
.depend "Data.Either" "20210613144732"
.depend "Data.Queue" "20210613144732"
.depend "StdFile" "20210613144732"
.depend "symbols_in_program" "20210613144730"
.depend "iTasks.Internal.IWorld" "20210613144730"
.depend "iTasks.Internal.WebService" "20210613144730"
.depend "tcp" "20210613144732"
.depend "TCPChannelClass" "20210613144732"
.depend "System._Time" "20210613144732"
.depend "System.Time" "20210613144732"
.depend "System.GetOpt" "20210613144732"
.depend "System.OSError" "20210613144732"
.depend "System.FilePath" "20210613144732"
.depend "StdString" "20210613144732"
.depend "Internet.HTTP" "20210613144732"
.depend "Control.Monad.Fail" "20210613144732"
.depend "Data.Traversable" "20210613144732"
.depend "StdMisc" "20210613144732"
.depend "StdOverloadedList" "20210613144732"
.depend "Data.List" "20210613144732"
.depend "Data.Foldable" "20210613144732"
.depend "Data.Set" "20210613144732"
.depend "Data.GenLexOrd" "20210613144732"
.depend "StdFunctions" "20210613144732"
.depend "StdFunc" "20210613144732"
.depend "Data.Map" "20210613144732"
.depend "_SystemEnumStrict" "20210613144732"
.depend "_SystemStrictLists" "20210613144732"
.depend "StdStrictLists" "20210613144732"
.depend "StdGeneric" "20210613144732"
.depend "Data.GenEq" "20210613144732"
.depend "StdReal" "20210613144732"
.depend "StdChar" "20210613144732"
.depend "StdInt" "20210613144732"
.depend "StdBool" "20210613144732"
.depend "StdClass" "20210613144732"
.depend "StdList" "20210613144732"
.depend "Data.Monoid" "20210613144732"
.depend "Control.Applicative" "20210613144732"
.depend "Control.Monad" "20210613144732"
.depend "Data.Functor" "20210613144732"
.depend "Data.Error" "20210613144732"
.depend "iTasks.Engine" "20210613144730"
.depend "iTasks" "20210613144730"
.depend "StdOverloaded" "20210613144732"
.depend "_SystemDynamic" "20210613144732"
.module m_BasicAPIExamples "BasicAPIExamples" "20210613152412"
.endinfo
.impmod _system
.implab _cycle_in_spine
.implab _type_error
.implab _hnf
.impdesc e_system_dind
.implab e_system_nind e_system_eaind
.impdesc e_system_dif
.implab e_system_nif e_system_eaif
.implab e_system_sif
.impdesc e_system_dAP
.implab e_system_nAP e_system_eaAP
.implab e_system_sAP
.impdesc ARRAY
.impdesc _Nil
.impdesc _Cons
.impdesc _Conss
.implab n_Conss ea_Conss
.impdesc _Consts
.implab n_Consts ea_Consts
.impdesc _Conssts
.implab n_Conssts ea_Conssts
.impdesc _Tuple
.impdesc d_S.1
.implab n_S.1 ea_S.1
.impdesc d_S.2
.implab n_S.2 ea_S.2
.impdesc d_S.3
.implab n_S.3 ea_S.3
.impdesc d_S.4
.implab n_S.4 ea_S.4
.impdesc d_S.5
.implab n_S.5 ea_S.5
.impdesc d_S.6
.implab n_S.6 ea_S.6
.implab _driver
.impmod BasicAPIExamples.SequentialExamples.Palindrome
.impdesc e_BasicAPIExamples.SequentialExamples.Palindrome_dwf
.implab e_BasicAPIExamples.SequentialExamples.Palindrome_nwf
.impmod BasicAPIExamples.SequentialExamples.EditPerson1by1
.impdesc e_BasicAPIExamples.SequentialExamples.EditPerson1by1_dwf
.implab e_BasicAPIExamples.SequentialExamples.EditPerson1by1_nwf
.impmod BasicAPIExamples.SequentialExamples.CoffeeMachine
.impdesc e_BasicAPIExamples.SequentialExamples.CoffeeMachine_dwf
.implab e_BasicAPIExamples.SequentialExamples.CoffeeMachine_nwf
.impmod BasicAPIExamples.SequentialExamples.Calculator
.impdesc e_BasicAPIExamples.SequentialExamples.Calculator_dwf
.implab e_BasicAPIExamples.SequentialExamples.Calculator_nwf
.impmod BasicAPIExamples.SequentialExamples.CalculateSumStepwiseAndBack
.impdesc e_BasicAPIExamples.SequentialExamples.CalculateSumStepwiseAndBack_dwf
.implab e_BasicAPIExamples.SequentialExamples.CalculateSumStepwiseAndBack_nwf
.impmod BasicAPIExamples.SequentialExamples.CalculateSumStepwise
.impdesc e_BasicAPIExamples.SequentialExamples.CalculateSumStepwise_dwf
.implab e_BasicAPIExamples.SequentialExamples.CalculateSumStepwise_nwf
.impmod BasicAPIExamples.SequentialExamples.CalculateSumInShare
.impdesc e_BasicAPIExamples.SequentialExamples.CalculateSumInShare_dwf
.implab e_BasicAPIExamples.SequentialExamples.CalculateSumInShare_nwf
.impmod BasicAPIExamples.ParallelExamples.TinyTextEditor
.impdesc e_BasicAPIExamples.ParallelExamples.TinyTextEditor_dwf
.implab e_BasicAPIExamples.ParallelExamples.TinyTextEditor_nwf
.impmod BasicAPIExamples.MultiUserExamples.OptionsChat
.impdesc e_BasicAPIExamples.MultiUserExamples.OptionsChat_dwf
.implab e_BasicAPIExamples.MultiUserExamples.OptionsChat_nwf
.impmod BasicAPIExamples.MultiUserExamples.MeetingDate
.impdesc e_BasicAPIExamples.MultiUserExamples.MeetingDate_dwf
.implab e_BasicAPIExamples.MultiUserExamples.MeetingDate_nwf
.impmod BasicAPIExamples.MultiUserExamples.Chat
.impdesc e_BasicAPIExamples.MultiUserExamples.Chat_dwf
.implab e_BasicAPIExamples.MultiUserExamples.Chat_nwf
.impmod BasicAPIExamples.InteractionWithTheSystem.RunProcess
.impdesc e_BasicAPIExamples.InteractionWithTheSystem.RunProcess_dwf
.implab e_BasicAPIExamples.InteractionWithTheSystem.RunProcess_nwf
.impmod BasicAPIExamples.InteractionUsingShares.UpdateSharedPersonsAndView
.impdesc e_BasicAPIExamples.InteractionUsingShares.UpdateSharedPersonsAndView_dwf
.implab e_BasicAPIExamples.InteractionUsingShares.UpdateSharedPersonsAndView_nwf
.impmod BasicAPIExamples.InteractionUsingShares.SharedNotes
.impdesc e_BasicAPIExamples.InteractionUsingShares.SharedNotes_dwf
.implab e_BasicAPIExamples.InteractionUsingShares.SharedNotes_nwf
.impmod BasicAPIExamples.InteractionUsingShares.SharedNoteAsList
.impdesc e_BasicAPIExamples.InteractionUsingShares.SharedNoteAsList_dwf
.implab e_BasicAPIExamples.InteractionUsingShares.SharedNoteAsList_nwf
.impmod BasicAPIExamples.InteractionUsingShares.CurrentDateAndTime
.impdesc e_BasicAPIExamples.InteractionUsingShares.CurrentDateAndTime_dwf
.implab e_BasicAPIExamples.InteractionUsingShares.CurrentDateAndTime_nwf
.impmod BasicAPIExamples.InteractionUsingShares.BrowseAndViewLeafletMap
.impdesc e_BasicAPIExamples.InteractionUsingShares.BrowseAndViewLeafletMap_dwf
.implab e_BasicAPIExamples.InteractionUsingShares.BrowseAndViewLeafletMap_nwf
.impmod BasicAPIExamples.Extensions.Select2
.impdesc e_BasicAPIExamples.Extensions.Select2_dwf
.implab e_BasicAPIExamples.Extensions.Select2_nwf
.impmod BasicAPIExamples.EditorsOnCustomTypes.SelectionComponents
.impdesc e_BasicAPIExamples.EditorsOnCustomTypes.SelectionComponents_dwf
.implab e_BasicAPIExamples.EditorsOnCustomTypes.SelectionComponents_nwf
.impmod BasicAPIExamples.EditorsOnCustomTypes.EnterPerson
.impdesc e_BasicAPIExamples.EditorsOnCustomTypes.EnterPerson_dwf
.implab e_BasicAPIExamples.EditorsOnCustomTypes.EnterPerson_nwf
.impmod BasicAPIExamples.EditorsOnCustomTypes.EnterFamilyTree
.impdesc e_BasicAPIExamples.EditorsOnCustomTypes.EnterFamilyTree_dwf
.implab e_BasicAPIExamples.EditorsOnCustomTypes.EnterFamilyTree_nwf
.impmod BasicAPIExamples.EditorsOnBasicAndPredefinedTypes.Leaflet
.impdesc e_BasicAPIExamples.EditorsOnBasicAndPredefinedTypes.Leaflet_dwf
.implab e_BasicAPIExamples.EditorsOnBasicAndPredefinedTypes.Leaflet_nwf
.impmod BasicAPIExamples.EditorsOnBasicAndPredefinedTypes.HelloWorld
.impdesc e_BasicAPIExamples.EditorsOnBasicAndPredefinedTypes.HelloWorld_dwf
.implab e_BasicAPIExamples.EditorsOnBasicAndPredefinedTypes.HelloWorld_nwf
.impmod BasicAPIExamples.EditorsOnBasicAndPredefinedTypes.EnterText
.impdesc e_BasicAPIExamples.EditorsOnBasicAndPredefinedTypes.EnterText_dwf
.implab e_BasicAPIExamples.EditorsOnBasicAndPredefinedTypes.EnterText_nwf
.impmod BasicAPIExamples.EditorsOnBasicAndPredefinedTypes.EnterListOfInt
.impdesc e_BasicAPIExamples.EditorsOnBasicAndPredefinedTypes.EnterListOfInt_dwf
.implab e_BasicAPIExamples.EditorsOnBasicAndPredefinedTypes.EnterListOfInt_nwf
.impmod BasicAPIExamples.EditorsOnBasicAndPredefinedTypes.EnterInteger
.impdesc e_BasicAPIExamples.EditorsOnBasicAndPredefinedTypes.EnterInteger_dwf
.implab e_BasicAPIExamples.EditorsOnBasicAndPredefinedTypes.EnterInteger_nwf
.impmod BasicAPIExamples.EditorsOnBasicAndPredefinedTypes.EnterDateAndTime
.impdesc e_BasicAPIExamples.EditorsOnBasicAndPredefinedTypes.EnterDateAndTime_dwf
.implab e_BasicAPIExamples.EditorsOnBasicAndPredefinedTypes.EnterDateAndTime_nwf
.impmod iTasks.Extensions.Admin.WorkflowAdmin
.implab e_iTasks.Extensions.Admin.WorkflowAdmin_srestrictedTransientWorkflow
.impdesc e_iTasks.Extensions.Admin.WorkflowAdmin_dtoStartable;12
.impdesc e_iTasks.Extensions.Admin.WorkflowAdmin_dtoWorkflow;13
.impmod iTasks.Extensions.Admin.UserAdmin
.impdesc e_iTasks.Extensions.Admin.UserAdmin_dmanageUsers
.implab e_iTasks.Extensions.Admin.UserAdmin_nmanageUsers e_iTasks.Extensions.Admin.UserAdmin_eamanageUsers
.impmod iTasks.UI.Editor.Generic
.impdesc e_iTasks.UI.Editor.Generic_dgEditor__Unit;13
.impmod iTasks.Internal.Generic.Visualization
.impdesc e_iTasks.Internal.Generic.Visualization_dgText__Unit;18
.impmod Text.GenJSON
.impdesc e_Text.GenJSON_dJSONEncode__Unit;23
.impdesc e_Text.GenJSON_dJSONDecode__Unit;53
.impmod Data.GenEq
.impdesc e_Data.GenEq_dgEq__Unit;20
.impmod iTasks.Engine
.implab e_iTasks.Engine_sdoTasks`
.impmod iTasks.Extensions.Admin.WorkflowAdmin
.impdesc e_iTasks.Extensions.Admin.WorkflowAdmin_rWorkflowCollection
.impdesc e_iTasks.Extensions.Admin.WorkflowAdmin_tWorkflowCollection
.implab e_iTasks.Extensions.Admin.WorkflowAdmin_cWorkflowCollection
.impdesc e_iTasks.Extensions.Admin.WorkflowAdmin_rtoWorkflow;
.impmod Text.HTML
.impdesc e_Text.HTML_kText
.impdesc e_Text.HTML_kBrTag
.impdesc e_Text.HTML_kDivTag
.impdesc e_Text.HTML_kH1Tag
.impdesc e_Text.HTML_kLiTag
.impdesc e_Text.HTML_kPTag
.impdesc e_Text.HTML_kUlTag
.impmod iTasks.WF.Definition
.impdesc e_iTasks.WF.Definition_riTask;
.impmod iTasks.Engine
.impdesc e_iTasks.Engine_rStartable;
.impmod _SystemDynamic
.impdesc e__SystemDynamic_kTypeCons
.impdesc e__SystemDynamic_rTypeCodeConstructor
.impdesc e__SystemDynamic_dTC__Unit
.export e_BasicAPIExamples_rgEditor_s;
.record e_BasicAPIExamples_rgEditor_s; a 1 0 "gEditor_s;"
.export e_BasicAPIExamples_tgEditor_s;
.export e_BasicAPIExamples_cgEditor_s;
.descn e_BasicAPIExamples_tgEditor_s; e_BasicAPIExamples_cgEditor_s; 1 1 "gEditor_s;"
.n 1 e_BasicAPIExamples_tgEditor_s;
.o 1 0 
e_BasicAPIExamples_cgEditor_s;
	push_node _cycle_in_spine 1
	jsr_eval 0
.impmod BasicAPIExamples
.impdesc e_BasicAPIExamples_rgEditor_s;
	fill_r e_BasicAPIExamples_rgEditor_s; 1 0 1 0 0
.d 1 0 
	pop_a_rtn 1
.export e_BasicAPIExamples_rgText_s;
.record e_BasicAPIExamples_rgText_s; a 1 0 "gText_s;"
.export e_BasicAPIExamples_tgText_s;
.export e_BasicAPIExamples_cgText_s;
.descn e_BasicAPIExamples_tgText_s; e_BasicAPIExamples_cgText_s; 1 1 "gText_s;"
.n 1 e_BasicAPIExamples_tgText_s;
.o 1 0 
e_BasicAPIExamples_cgText_s;
	push_node _cycle_in_spine 1
	jsr_eval 0
.impdesc e_BasicAPIExamples_rgText_s;
	fill_r e_BasicAPIExamples_rgText_s; 1 0 1 0 0
.d 1 0 
	pop_a_rtn 1
.export e_BasicAPIExamples_rJSONEncode_s;
.record e_BasicAPIExamples_rJSONEncode_s; a 1 0 "JSONEncode_s;"
.export e_BasicAPIExamples_tJSONEncode_s;
.export e_BasicAPIExamples_cJSONEncode_s;
.descn e_BasicAPIExamples_tJSONEncode_s; e_BasicAPIExamples_cJSONEncode_s; 1 1 "JSONEncode_s;"
.n 1 e_BasicAPIExamples_tJSONEncode_s;
.o 1 0 
e_BasicAPIExamples_cJSONEncode_s;
	push_node _cycle_in_spine 1
	jsr_eval 0
.impdesc e_BasicAPIExamples_rJSONEncode_s;
	fill_r e_BasicAPIExamples_rJSONEncode_s; 1 0 1 0 0
.d 1 0 
	pop_a_rtn 1
.export e_BasicAPIExamples_rJSONDecode_s;
.record e_BasicAPIExamples_rJSONDecode_s; a 1 0 "JSONDecode_s;"
.export e_BasicAPIExamples_tJSONDecode_s;
.export e_BasicAPIExamples_cJSONDecode_s;
.descn e_BasicAPIExamples_tJSONDecode_s; e_BasicAPIExamples_cJSONDecode_s; 1 1 "JSONDecode_s;"
.n 1 e_BasicAPIExamples_tJSONDecode_s;
.o 1 0 
e_BasicAPIExamples_cJSONDecode_s;
	push_node _cycle_in_spine 1
	jsr_eval 0
.impdesc e_BasicAPIExamples_rJSONDecode_s;
	fill_r e_BasicAPIExamples_rJSONDecode_s; 1 0 1 0 0
.d 1 0 
	pop_a_rtn 1
.export e_BasicAPIExamples_rgEq_s;
.record e_BasicAPIExamples_rgEq_s; a 1 0 "gEq_s;"
.export e_BasicAPIExamples_tgEq_s;
.export e_BasicAPIExamples_cgEq_s;
.descn e_BasicAPIExamples_tgEq_s; e_BasicAPIExamples_cgEq_s; 1 1 "gEq_s;"
.n 1 e_BasicAPIExamples_tgEq_s;
.o 1 0 
e_BasicAPIExamples_cgEq_s;
	push_node _cycle_in_spine 1
	jsr_eval 0
.impdesc e_BasicAPIExamples_rgEq_s;
	fill_r e_BasicAPIExamples_rgEq_s; 1 0 1 0 0
.d 1 0 
	pop_a_rtn 1
.export __BasicAPIExamples_Start
.o 0 0 
__BasicAPIExamples_Start
	buildI 65536
	build _ 1 e_BasicAPIExamples_nStart.1
.d 1 0 
	jmp _driver
.export e_BasicAPIExamples_dStart.1
.export e_BasicAPIExamples_nStart.1
.descn e_BasicAPIExamples_dStart.1 e_BasicAPIExamples_nStart.1 1 0 "Start.1"
.n 1 e_BasicAPIExamples_dStart.1 eaStart.1
.o 1 0 
e_BasicAPIExamples_nStart.1
	push_node _cycle_in_spine 1
.o 2 0 
eaStart.1
	jsr_eval 0
.o 2 0 
sStart.1
	build e_BasicAPIExamples_dbasicAPIExamples.2 0 e_BasicAPIExamples_nbasicAPIExamples.2
	buildh _Nil 0
	buildh _Nil 0
	buildh _Nil 0
	buildhr e_Text.HTML_kBrTag 1 0
	buildh _Cons 2
	buildAC "These tasks range from simple TODO items, to complex multi-user workflows."
	buildhr e_Text.HTML_kText 1 0
	buildh _Cons 2
	buildh _Nil 0
	buildhr e_Text.HTML_kBrTag 1 0
	buildh _Cons 2
	buildAC "Additionally you can add tasks to this list with the 'New' button. This will open a window with a collection of predefined tasks."
	buildhr e_Text.HTML_kText 1 0
	buildh _Cons 2
	buildh _Nil 0
	buildhr e_Text.HTML_kBrTag 1 0
	buildh _Cons 2
	buildAC "In the list above you can see the set of ongoing tasks that you can choose to work on."
	buildhr e_Text.HTML_kText 1 0
	buildh _Cons 2
	buildh _Nil 0
	buildhr e_Text.HTML_kBrTag 1 0
	buildh _Cons 2
	buildAC "In this generic application you can work on multiple tasks concurrently."
	buildhr e_Text.HTML_kText 1 0
	buildh _Cons 2
	buildh _Nil 0
	buildhr e_Text.HTML_kPTag 2 0
	buildh _Cons 2
	buildh _Nil 0
	buildAC "Welcome"
	buildhr e_Text.HTML_kText 1 0
	buildh _Cons 2
	buildh _Nil 0
	buildhr e_Text.HTML_kH1Tag 2 0
	buildh _Cons 2
	buildh _Nil 0
	buildhr e_Text.HTML_kDivTag 2 0
	buildh _Just 1
	buildh _Nil 0
	buildh _Nil 0
	buildh _Nil 0
	buildAC "An administrator with full access (username: root, password: root)"
	buildhr e_Text.HTML_kText 1 0
	buildh _Cons 2
	buildh _Nil 0
	buildhr e_Text.HTML_kLiTag 2 0
	buildh _Cons 2
	buildh _Nil 0
	buildAC "Carol (username: carol, password: carol)"
	buildhr e_Text.HTML_kText 1 0
	buildh _Cons 2
	buildh _Nil 0
	buildhr e_Text.HTML_kLiTag 2 0
	buildh _Cons 2
	buildh _Nil 0
	buildAC "Bob (username: bob, password: bob)"
	buildhr e_Text.HTML_kText 1 0
	buildh _Cons 2
	buildh _Nil 0
	buildhr e_Text.HTML_kLiTag 2 0
	buildh _Cons 2
	buildh _Nil 0
	buildAC "Alice (username: alice, password: alice)"
	buildhr e_Text.HTML_kText 1 0
	buildh _Cons 2
	buildh _Nil 0
	buildhr e_Text.HTML_kLiTag 2 0
	buildh _Cons 2
	buildh _Nil 0
	buildhr e_Text.HTML_kUlTag 2 0
	buildh _Cons 2
	buildh _Nil 0
	buildhr e_Text.HTML_kBrTag 1 0
	buildh _Cons 2
	buildAC "You can log in with a demonstration user account:"
	buildhr e_Text.HTML_kText 1 0
	buildh _Cons 2
	buildh _Nil 0
	buildhr e_Text.HTML_kBrTag 1 0
	buildh _Cons 2
	buildh _Nil 0
	buildhr e_Text.HTML_kBrTag 1 0
	buildh _Cons 2
	buildAC "Therefore this example application is a multi-user demonstration of tasks expressed in iTasks."
	buildhr e_Text.HTML_kText 1 0
	buildh _Cons 2
	buildAC "requires multiple people to work together to accomplish it."
	buildhr e_Text.HTML_kText 1 0
	buildh _Cons 2
	buildAC "Although useful for support of individual tasks, information systems add even more value when a task "
	buildhr e_Text.HTML_kText 1 0
	buildh _Cons 2
	buildh _Nil 0
	buildhr e_Text.HTML_kBrTag 1 0
	buildh _Cons 2
	buildAC "iTasks is a framework to create information systems from task specifications."
	buildhr e_Text.HTML_kText 1 0
	buildh _Cons 2
	buildh _Nil 0
	buildhr e_Text.HTML_kDivTag 2 0
	buildh _Just 1
	buildB FALSE
	buildAC "iTasks Example Collection"
	buildh ARRAY 1
	push_update_a 2 3
	updates2_a_pop_a 0 2 4 1
	build e_iTasks.Extensions.Admin.WorkflowAdmin_tWorkflowCollection 5 e_iTasks.Extensions.Admin.WorkflowAdmin_cWorkflowCollection
	buildh e_iTasks.Extensions.Admin.WorkflowAdmin_dtoStartable;12 0
.d 4 0 
	jmp e_iTasks.Engine_sdoTasks`
.export e_BasicAPIExamples_dbasicAPIExamples.2
.export e_BasicAPIExamples_nbasicAPIExamples.2
.descn e_BasicAPIExamples_dbasicAPIExamples.2 e_BasicAPIExamples_nbasicAPIExamples.2 0 0 "basicAPIExamples.2"
.n 0 e_BasicAPIExamples_dbasicAPIExamples.2 eabasicAPIExamples.2
.o 1 0 
e_BasicAPIExamples_nbasicAPIExamples.2
	push_node _cycle_in_spine 0
.o 1 0 
eabasicAPIExamples.2
.o 1 0 
sbasicAPIExamples.2
	buildh _Nil 0
	buildAC " Basic API Examples/Sequential Examples/Palindrome"
	buildh ARRAY 1
	build e_BasicAPIExamples.SequentialExamples.Palindrome_dwf 1 e_BasicAPIExamples.SequentialExamples.Palindrome_nwf
	buildh _Cons 2
	buildAC " Basic API Examples/Sequential Examples/Edit Person1by1"
	buildh ARRAY 1
	build e_BasicAPIExamples.SequentialExamples.EditPerson1by1_dwf 1 e_BasicAPIExamples.SequentialExamples.EditPerson1by1_nwf
	buildh _Cons 2
	buildAC " Basic API Examples/Sequential Examples/Coffee Machine"
	buildh ARRAY 1
	build e_BasicAPIExamples.SequentialExamples.CoffeeMachine_dwf 1 e_BasicAPIExamples.SequentialExamples.CoffeeMachine_nwf
	buildh _Cons 2
	buildAC " Basic API Examples/Sequential Examples/Calculator"
	buildh ARRAY 1
	build e_BasicAPIExamples.SequentialExamples.Calculator_dwf 1 e_BasicAPIExamples.SequentialExamples.Calculator_nwf
	buildh _Cons 2
	buildAC " Basic API Examples/Sequential Examples/Calculate Sum Stepwise And Back"
	buildh ARRAY 1
	build e_BasicAPIExamples.SequentialExamples.CalculateSumStepwiseAndBack_dwf 1 e_BasicAPIExamples.SequentialExamples.CalculateSumStepwiseAndBack_nwf
	buildh _Cons 2
	buildAC " Basic API Examples/Sequential Examples/Calculate Sum Stepwise"
	buildh ARRAY 1
	build e_BasicAPIExamples.SequentialExamples.CalculateSumStepwise_dwf 1 e_BasicAPIExamples.SequentialExamples.CalculateSumStepwise_nwf
	buildh _Cons 2
	buildAC " Basic API Examples/Sequential Examples/Calculate Sum In Share"
	buildh ARRAY 1
	build e_BasicAPIExamples.SequentialExamples.CalculateSumInShare_dwf 1 e_BasicAPIExamples.SequentialExamples.CalculateSumInShare_nwf
	buildh _Cons 2
	buildAC " Basic API Examples/Parallel Examples/Tiny Text Editor"
	buildh ARRAY 1
	build e_BasicAPIExamples.ParallelExamples.TinyTextEditor_dwf 1 e_BasicAPIExamples.ParallelExamples.TinyTextEditor_nwf
	buildh _Cons 2
	buildAC " Basic API Examples/Multi User Examples/Options Chat"
	buildh ARRAY 1
	build e_BasicAPIExamples.MultiUserExamples.OptionsChat_dwf 1 e_BasicAPIExamples.MultiUserExamples.OptionsChat_nwf
	buildh _Cons 2
	buildAC " Basic API Examples/Multi User Examples/Meeting Date"
	buildh ARRAY 1
	build e_BasicAPIExamples.MultiUserExamples.MeetingDate_dwf 1 e_BasicAPIExamples.MultiUserExamples.MeetingDate_nwf
	buildh _Cons 2
	buildAC " Basic API Examples/Multi User Examples/Chat"
	buildh ARRAY 1
	build e_BasicAPIExamples.MultiUserExamples.Chat_dwf 1 e_BasicAPIExamples.MultiUserExamples.Chat_nwf
	buildh _Cons 2
	buildAC " Basic API Examples/Interaction With The System/Run Process"
	buildh ARRAY 1
	build e_BasicAPIExamples.InteractionWithTheSystem.RunProcess_dwf 1 e_BasicAPIExamples.InteractionWithTheSystem.RunProcess_nwf
	buildh _Cons 2
	buildAC " Basic API Examples/Interaction Using Shares/Update Shared Persons And View"
	buildh ARRAY 1
	build e_BasicAPIExamples.InteractionUsingShares.UpdateSharedPersonsAndView_dwf 1 e_BasicAPIExamples.InteractionUsingShares.UpdateSharedPersonsAndView_nwf
	buildh _Cons 2
	buildAC " Basic API Examples/Interaction Using Shares/Shared Notes"
	buildh ARRAY 1
	build e_BasicAPIExamples.InteractionUsingShares.SharedNotes_dwf 1 e_BasicAPIExamples.InteractionUsingShares.SharedNotes_nwf
	buildh _Cons 2
	buildAC " Basic API Examples/Interaction Using Shares/Shared Note As List"
	buildh ARRAY 1
	build e_BasicAPIExamples.InteractionUsingShares.SharedNoteAsList_dwf 1 e_BasicAPIExamples.InteractionUsingShares.SharedNoteAsList_nwf
	buildh _Cons 2
	buildAC " Basic API Examples/Interaction Using Shares/Current Date And Time"
	buildh ARRAY 1
	build e_BasicAPIExamples.InteractionUsingShares.CurrentDateAndTime_dwf 1 e_BasicAPIExamples.InteractionUsingShares.CurrentDateAndTime_nwf
	buildh _Cons 2
	buildAC " Basic API Examples/Interaction Using Shares/Browse And View Leaflet Map"
	buildh ARRAY 1
	build e_BasicAPIExamples.InteractionUsingShares.BrowseAndViewLeafletMap_dwf 1 e_BasicAPIExamples.InteractionUsingShares.BrowseAndViewLeafletMap_nwf
	buildh _Cons 2
	buildAC " Basic API Examples/Extensions/Select2"
	buildh ARRAY 1
	build e_BasicAPIExamples.Extensions.Select2_dwf 1 e_BasicAPIExamples.Extensions.Select2_nwf
	buildh _Cons 2
	buildAC " Basic API Examples/Editors On Custom Types/Selection Components"
	buildh ARRAY 1
	build e_BasicAPIExamples.EditorsOnCustomTypes.SelectionComponents_dwf 1 e_BasicAPIExamples.EditorsOnCustomTypes.SelectionComponents_nwf
	buildh _Cons 2
	buildAC " Basic API Examples/Editors On Custom Types/Enter Person"
	buildh ARRAY 1
	build e_BasicAPIExamples.EditorsOnCustomTypes.EnterPerson_dwf 1 e_BasicAPIExamples.EditorsOnCustomTypes.EnterPerson_nwf
	buildh _Cons 2
	buildAC " Basic API Examples/Editors On Custom Types/Enter Family Tree"
	buildh ARRAY 1
	build e_BasicAPIExamples.EditorsOnCustomTypes.EnterFamilyTree_dwf 1 e_BasicAPIExamples.EditorsOnCustomTypes.EnterFamilyTree_nwf
	buildh _Cons 2
	buildAC " Basic API Examples/Editors On Basic And Predefined Types/Leaflet"
	buildh ARRAY 1
	build e_BasicAPIExamples.EditorsOnBasicAndPredefinedTypes.Leaflet_dwf 1 e_BasicAPIExamples.EditorsOnBasicAndPredefinedTypes.Leaflet_nwf
	buildh _Cons 2
	buildAC " Basic API Examples/Editors On Basic And Predefined Types/Hello World"
	buildh ARRAY 1
	build e_BasicAPIExamples.EditorsOnBasicAndPredefinedTypes.HelloWorld_dwf 1 e_BasicAPIExamples.EditorsOnBasicAndPredefinedTypes.HelloWorld_nwf
	buildh _Cons 2
	buildAC " Basic API Examples/Editors On Basic And Predefined Types/Enter Text"
	buildh ARRAY 1
	build e_BasicAPIExamples.EditorsOnBasicAndPredefinedTypes.EnterText_dwf 1 e_BasicAPIExamples.EditorsOnBasicAndPredefinedTypes.EnterText_nwf
	buildh _Cons 2
	buildAC " Basic API Examples/Editors On Basic And Predefined Types/Enter List Of Int"
	buildh ARRAY 1
	build e_BasicAPIExamples.EditorsOnBasicAndPredefinedTypes.EnterListOfInt_dwf 1 e_BasicAPIExamples.EditorsOnBasicAndPredefinedTypes.EnterListOfInt_nwf
	buildh _Cons 2
	buildAC " Basic API Examples/Editors On Basic And Predefined Types/Enter Integer"
	buildh ARRAY 1
	build e_BasicAPIExamples.EditorsOnBasicAndPredefinedTypes.EnterInteger_dwf 1 e_BasicAPIExamples.EditorsOnBasicAndPredefinedTypes.EnterInteger_nwf
	buildh _Cons 2
	buildAC " Basic API Examples/Editors On Basic And Predefined Types/Enter Date And Time"
	buildh ARRAY 1
	build e_BasicAPIExamples.EditorsOnBasicAndPredefinedTypes.EnterDateAndTime_dwf 1 e_BasicAPIExamples.EditorsOnBasicAndPredefinedTypes.EnterDateAndTime_nwf
	buildh _Cons 2
	build e_iTasks.Extensions.Admin.UserAdmin_dmanageUsers 0 e_iTasks.Extensions.Admin.UserAdmin_nmanageUsers
	buildh _Nil 0
	buildAC "admin"
	buildh ARRAY 1
	buildh _Cons 2
	buildh e__SystemDynamic_dTC__Unit 0
	buildhr e__SystemDynamic_kTypeCons 1 0
	buildh e_Data.GenEq_dgEq__Unit;20 0
	buildh e_Text.GenJSON_dJSONDecode__Unit;53 0
	buildh e_Text.GenJSON_dJSONEncode__Unit;23 0
	buildh e_iTasks.Internal.Generic.Visualization_dgText__Unit;18 0
	buildh e_iTasks.UI.Editor.Generic_dgEditor__Unit;13 0
	buildhr e_iTasks.WF.Definition_riTask; 6 0
	buildh e_iTasks.Extensions.Admin.WorkflowAdmin_dtoWorkflow;13 1
	build e_BasicAPIExamples_d_f0.209 3 e_BasicAPIExamples_n_f0.209
	fillh _Cons 2 2
.d 1 0 
	rtn 
.export e_BasicAPIExamples_d_f0.209
.export e_BasicAPIExamples_n_f0.209
.descn e_BasicAPIExamples_d_f0.209 e_BasicAPIExamples_n_f0.209 3 0 "_f0.209"
.n 3 e_BasicAPIExamples_d_f0.209 ea_f0.209
.o 1 0 
e_BasicAPIExamples_n_f0.209
	push_node _cycle_in_spine 3
.o 4 0 
ea_f0.209
.o 4 0 
s_f0.209
	push_a 0
	push2_a 3
	buildAC "User management"
	buildh ARRAY 1
	buildAC "Users"
	buildh ARRAY 1
	update3_a 1 5
	updates2_a 0 4 3
.d 5 0 
	pop_a_jsr 3 e_iTasks.Extensions.Admin.WorkflowAdmin_srestrictedTransientWorkflow
.o 6 0 
.impmod iTasks.Extensions.Admin.WorkflowAdmin
.impdesc e_iTasks.Extensions.Admin.WorkflowAdmin_rWorkflow
	fill_r e_iTasks.Extensions.Admin.WorkflowAdmin_rWorkflow 6 0 6 0 0
.d 1 0 
	pop_a_rtn 6
