.comp 920 000011110011000
.start _nostart_
.depend "StdReal" "20210613122638"
.depend "StdChar" "20210613122638"
.depend "StdInt" "20210613122638"
.depend "StdBool" "20210613122638"
.depend "StdClass" "20210613122638"
.depend "StdList" "20210613122638"
.depend "Data.Monoid" "20210613122637"
.depend "Control.Applicative" "20210613122637"
.depend "Control.Monad" "20210613122637"
.depend "Data.Functor" "20210613122637"
.depend "StdOverloaded" "20210613122638"
.depend "_SystemDynamic" "20210613122638"
.depend "Control.Monad.Fail" "20210613122637"
.module m_Control.Monad.Fail "Control.Monad.Fail" "20210613122637"
.endinfo
.impmod _system
.implab _cycle_in_spine
.implab _type_error
.implab _hnf
.impdesc e_system_dind
.implab e_system_nind e_system_eaind
.impdesc e_system_dif
.implab e_system_nif e_system_eaif
.implab e_system_sif
.impdesc e_system_dAP
.implab e_system_nAP e_system_eaAP
.implab e_system_sAP
.impdesc ARRAY
.impdesc _Nil
.impdesc _Cons
.impdesc _Conss
.implab n_Conss ea_Conss
.impdesc _Consts
.implab n_Consts ea_Consts
.impdesc _Conssts
.implab n_Conssts ea_Conssts
.impdesc _Tuple
.impdesc d_S.1
.implab n_S.1 ea_S.1
.impdesc d_S.2
.implab n_S.2 ea_S.2
.impdesc d_S.3
.implab n_S.3 ea_S.3
.impdesc d_S.4
.implab n_S.4 ea_S.4
.impdesc d_S.5
.implab n_S.5 ea_S.5
.impdesc d_S.6
.implab n_S.6 ea_S.6
.implab _driver
.export e_Control.Monad.Fail_rMonadFail;
.record e_Control.Monad.Fail_rMonadFail; aa 2 0 "MonadFail;"
.descexp e_Control.Monad.Fail_tMonadFail; e_Control.Monad.Fail_cMonadFail; _hnf 2 1 "MonadFail;"
.n 2 e_Control.Monad.Fail_tMonadFail;
.o 1 0 
e_Control.Monad.Fail_cMonadFail;
	push_node _cycle_in_spine 2
	jsr_eval 1
	jsr_eval 0
.impmod Control.Monad.Fail
.impdesc e_Control.Monad.Fail_rMonadFail;
	fill_r e_Control.Monad.Fail_rMonadFail; 2 0 2 0 0
.d 1 0 
	pop_a_rtn 2
.export e_Control.Monad.Fail_dMonadFail;.fail
.export e_Control.Monad.Fail_nMonadFail;.fail
.export e_Control.Monad.Fail_eaMonadFail;.fail
.descs e_Control.Monad.Fail_dMonadFail;.fail e_Control.Monad.Fail_nMonadFail;.fail _ 1 0 "MonadFail;.fail"
.n -4 e_Control.Monad.Fail_dMonadFail;.fail e_Control.Monad.Fail_eaMonadFail;.fail
.o 1 0 
e_Control.Monad.Fail_nMonadFail;.fail
	push_node _cycle_in_spine 1
.o 2 0 
e_Control.Monad.Fail_eaMonadFail;.fail
	jsr_eval 0
	repl_r_args_a 2 0 1 1
.d 1 0 
	fill_a01_pop_rtn 
.export e_Control.Monad.Fail_dMonadFail;.Monad
.export e_Control.Monad.Fail_nMonadFail;.Monad
.descs e_Control.Monad.Fail_dMonadFail;.Monad e_Control.Monad.Fail_nMonadFail;.Monad _ 2 0 "MonadFail;.Monad"
.n -4 e_Control.Monad.Fail_dMonadFail;.Monad
.o 1 0 
e_Control.Monad.Fail_nMonadFail;.Monad
	push_node _cycle_in_spine 1
	jsr_eval 0
	repl_r_args_a 2 0 2 1
.d 1 0 
	fill_a01_pop_rtn 
.export e_Control.Monad.Fail_sTD;MonadFail;
.export e_Control.Monad.Fail_eaTD;MonadFail;
.descexp e_Control.Monad.Fail_dTD;MonadFail; e_Control.Monad.Fail_nTD;MonadFail; e_Control.Monad.Fail_lTD;MonadFail; 1 0 "TD;MonadFail;"
.o 2 0 
e_Control.Monad.Fail_lTD;MonadFail;
	update_a 1 0
	create 
.d 2 0 
	put_a_jmp 2 e_Control.Monad.Fail_eaTD;MonadFail;
.n 1 e_Control.Monad.Fail_dTD;MonadFail; e_Control.Monad.Fail_eaTD;MonadFail;
.o 1 0 
e_Control.Monad.Fail_nTD;MonadFail;
	push_node _cycle_in_spine 1
.o 2 0 
e_Control.Monad.Fail_eaTD;MonadFail;
.o 2 0 
e_Control.Monad.Fail_sTD;MonadFail;
.o 2 0 
s1
	fillh _Nil 0 1
.d 1 0 
	pop_a_rtn 1
