.comp 920 000011110011000
.start _nostart_
.depend "System._Pointer" "20210609153506"
.depend "System._WinBase" "20210609153506"
.depend "System._WinDef" "20210609153506"
.depend "System._Windows" "20210609153506"
.depend "_SystemArray" "20210609153507"
.depend "StdArray" "20210609153507"
.depend "System.File" "20210609153506"
.depend "StdFile" "20210609153507"
.depend "StdString" "20210609153507"
.depend "System._Time" "20210609153506"
.depend "System.Time" "20210609153506"
.depend "System.OSError" "20210609153506"
.depend "System.FilePath" "20210609153506"
.depend "_SystemEnumStrict" "20210609153507"
.depend "_SystemStrictLists" "20210609153507"
.depend "StdStrictLists" "20210609153507"
.depend "StdGeneric" "20210609153507"
.depend "Data.GenEq" "20210609153506"
.depend "StdReal" "20210609153507"
.depend "StdChar" "20210609153507"
.depend "StdInt" "20210609153507"
.depend "StdBool" "20210609153507"
.depend "StdClass" "20210609153507"
.depend "StdList" "20210609153507"
.depend "Data.Monoid" "20210609153506"
.depend "Control.Applicative" "20210609153506"
.depend "Control.Monad" "20210609153506"
.depend "Data.Functor" "20210609153506"
.depend "Data.Error" "20210609153506"
.depend "StdOverloaded" "20210609153507"
.depend "_SystemDynamic" "20210609153507"
.depend "System._Directory" "20210609153506"
.module m_System._Directory "System._Directory" "20210609153506"
.endinfo
.impmod _system
.implab _cycle_in_spine
.implab _type_error
.implab _hnf
.impdesc e_system_dind
.implab e_system_nind e_system_eaind
.impdesc e_system_dif
.implab e_system_nif e_system_eaif
.implab e_system_sif
.impdesc e_system_dAP
.implab e_system_nAP e_system_eaAP
.implab e_system_sAP
.impdesc ARRAY
.impdesc _Nil
.impdesc _Cons
.impdesc _Conss
.implab n_Conss ea_Conss
.impdesc _Consts
.implab n_Consts ea_Consts
.impdesc _Conssts
.implab n_Conssts ea_Conssts
.impdesc _Tuple
.impdesc d_S.1
.implab n_S.1 ea_S.1
.impdesc d_S.2
.implab n_S.2 ea_S.2
.impdesc d_S.3
.implab n_S.3 ea_S.3
.impdesc d_S.4
.implab n_S.4 ea_S.4
.impdesc d_S.5
.implab n_S.5 ea_S.5
.impdesc d_S.6
.implab n_S.6 ea_S.6
.implab _driver
.impmod System._Pointer
.implab e_System._Pointer_spackString
.impdesc e_System._Pointer_dunpackString
.implab e_System._Pointer_sunpackString
.implab e_System._Pointer_nunpackString
.impmod System._WinBase
.implab e_System._WinBase_screateDirectoryA
.implab e_System._WinBase_sfindClose
.implab e_System._WinBase_sfindFirstFileA
.implab e_System._WinBase_sfindNextFileA
.implab e_System._WinBase_sgetCurrentDirectoryA
.implab e_System._WinBase_sremoveDirectoryA
.implab e_System._WinBase_ssetCurrentDirectoryA
.impmod _SystemArray
.impmod StdString
.implab e_StdString_s%;10
.impmod System.OSError
.implab e_System.OSError_sgetLastOSError
.impmod System.FilePath
.implab e_System.FilePath_s</>
.impmod StdInt
.implab e_StdInt_s+;6
.implab e_StdInt_s-;7
.implab e_StdInt_s==;16
.impmod StdBool
.implab e_StdBool_snot
.impmod Data.Error
.impdesc e_Data.Error_dOk
.export e_System._Directory_ssetCurrentDirectory
.descexp e_System._Directory_dsetCurrentDirectory e_System._Directory_nsetCurrentDirectory e_System._Directory_lsetCurrentDirectory 2 0 "setCurrentDirectory"
.a 0 a5
.o 2 0
e_System._Directory_lsetCurrentDirectory
	repl_args 1 1
.o 2 0
a5
.d 2 0
	jsr ea5
.o 2 0
	push_a 1
	push_a 1
	buildh _Tuple 2
	updatepop_a 0 2
.d 1 0
	rtn
.n 2 e_System._Directory_dsetCurrentDirectory
.o 1 0
e_System._Directory_nsetCurrentDirectory
	push_node _cycle_in_spine 2
.d 2 0
	jsr ea5
.o 2 0
	push_a 1
	push_a 1
	fillh _Tuple 2 4
	pop_a 2
.d 1 0
	rtn
.o 2 0
ea5
	jsr_eval 1
	jsr_eval 0
	push_array 0
	update_a 0 1
	pop_a 1
.o 2 0
e_System._Directory_ssetCurrentDirectory
.o 2 0
s5
	push_a 0
	updatepop_a 0 1
.d 1 0
	jsr e_System._Pointer_spackString
.o 1 0
	push_a 1
	push_a 1
	update_a 1 2
	update_a 0 1
	pop_a 1
	update_a 1 2
	updatepop_a 0 1
.d 2 0
	jsr e_System._WinBase_ssetCurrentDirectoryA
.o 1 1 b
	push_b 0
	jmp_false else.1
	buildh e__predef_d_Unit 0
	buildh e_Data.Error_dOk 1
	push_a 1
	push_a 1
	update_a 1 2
	update_a 0 1
	pop_a 1
	update_a 1 2
	updatepop_a 0 1
	pop_b 1
.d 2 0
	rtn
else.1
	push_a 0
	updatepop_a 0 1
	pop_b 1
.d 1 0
	jmp e_System.OSError_sgetLastOSError
.export e_System._Directory_sgetCurrentDirectory
.descexp e_System._Directory_dgetCurrentDirectory e_System._Directory_ngetCurrentDirectory e_System._Directory_lgetCurrentDirectory 1 0 "getCurrentDirectory"
.o 2 0
e_System._Directory_lgetCurrentDirectory
	pop_a 1
.d 1 0
	jsr ea4
.o 2 0
	push_a 1
	push_a 1
	buildh _Tuple 2
	updatepop_a 0 2
.d 1 0
	rtn
.n 1 e_System._Directory_dgetCurrentDirectory
.o 1 0
e_System._Directory_ngetCurrentDirectory
	push_node _cycle_in_spine 1
.d 1 0
	jsr ea4
.o 2 0
	push_a 1
	push_a 1
	fillh _Tuple 2 4
	pop_a 2
.d 1 0
	rtn
.o 1 0
ea4
	jsr_eval 0
.o 1 0
e_System._Directory_sgetCurrentDirectory
.o 1 0
s4
	pushC '\000'
	pushI 260
	create_array CHAR 0 1
	push_a 1
	push_a 1
	pushI 260
	update_a 2 3
	update_a 1 2
	updatepop_a 0 1
.d 2 1 i
	jsr e_System._WinBase_sgetCurrentDirectoryA
.o 1 1 i
	pushI 0
	push_b 1
	eqI
	jmp_false else.2
	push_a 0
	jsr_eval 0
	updatepop_a 0 2
	pop_b 1
.d 1 0
	jmp e_System.OSError_sgetLastOSError
else.2
	push_a 0
	jsr_eval 0
	push_a 2
	buildh ARRAY 1
	build e_System._Pointer_dunpackString 1 e_System._Pointer_nunpackString
	buildh e_Data.Error_dOk 1
	update_a 1 3
	updatepop_a 0 2
	pop_b 1
.d 2 0
	rtn
.export e_System._Directory_sreadDirectory
.descexp e_System._Directory_dreadDirectory e_System._Directory_nreadDirectory e_System._Directory_lreadDirectory 2 0 "readDirectory"
.a 0 a3
.o 2 0
e_System._Directory_lreadDirectory
	repl_args 1 1
.o 2 0
a3
.d 2 0
	jsr ea3
.o 2 0
	push_a 1
	push_a 1
	buildh _Tuple 2
	updatepop_a 0 2
.d 1 0
	rtn
.n 2 e_System._Directory_dreadDirectory
.o 1 0
e_System._Directory_nreadDirectory
	push_node _cycle_in_spine 2
.d 2 0
	jsr ea3
.o 2 0
	push_a 1
	push_a 1
	fillh _Tuple 2 4
	pop_a 2
.d 1 0
	rtn
.o 2 0
ea3
	jsr_eval 1
	jsr_eval 0
	push_array 0
	update_a 0 1
	pop_a 1
.o 2 0
e_System._Directory_sreadDirectory
.o 2 0
s3
	pushC '\000'
	pushI 320
	create_array CHAR 0 1
	buildAC "*.*"
	push_a 2
	update_a 2 3
	update_a 1 2
	updatepop_a 0 1
.d 2 0
	jsr e_System.FilePath_s</>
.o 1 0
.d 1 0
	jsr e_System._Pointer_spackString
.o 1 0
	push_a 2
	push_a 2
	push_a 2
	update_a 2 3
	update_a 1 2
	update_a 0 1
	pop_a 1
	update_a 3 4
	update_a 2 3
	update_a 1 2
	updatepop_a 0 1
.d 3 0
	jsr e_System._WinBase_sfindFirstFileA
.o 1 1 i
	pushI -1
	push_b 1
	eqI
	jmp_false else.3
	push_a 0
	updatepop_a 0 2
	pop_b 1
.d 1 0
	jmp e_System.OSError_sgetLastOSError
else.3
	push_a 0
	push_a 2
	update_a 1 2
	updatepop_a 0 1
.d 2 0
	jsr s7
.o 2 0
	push_a 1
	push_a 3
	push_b 0
	update_a 2 4
	update_a 1 3
	updatepop_a 0 2
.d 2 1 i
	jsr s6
.o 2 0
	push_a 1
	push_b 0
	update_a 1 2
	updatepop_a 0 1
.d 1 1 i
	jsr e_System._WinBase_sfindClose
.o 1 1 b
	push_b 0
	notB
	jmp_false else.4
	push_a 0
	updatepop_a 0 3
	pop_b 2
.d 1 0
	jmp e_System.OSError_sgetLastOSError
else.4
	push_a 1
	push_a 3
	buildh ARRAY 1
	buildh _Cons 2
	buildh e_Data.Error_dOk 1
	push_a 1
	push_a 1
	update_a 1 2
	update_a 0 1
	pop_a 1
	update_a 1 4
	updatepop_a 0 3
	pop_b 2
.d 2 0
	rtn
.o 2 1 i
s6
	push_a 1
	push_a 1
	push_b 0
	update_a 2 3
	update_a 1 2
	updatepop_a 0 1
.d 2 1 i
	jsr e_System._WinBase_sfindNextFileA
.o 1 1 b
	push_b 0
	notB
	jmp_false else.5
	buildh _Nil 0
	push_a 1
	push_a 1
	update_a 1 2
	update_a 0 1
	pop_a 1
	update_a 1 3
	updatepop_a 0 2
	pop_b 2
.d 2 0
	rtn
else.5
	push_a 0
	push_a 2
	pop_b 1
	update_a 1 2
	updatepop_a 0 1
.d 2 0
	jsr s7
.o 2 0
	push_a 1
	push_a 3
	push_b 0
	updatepop_b 0 1
	update_a 2 4
	update_a 1 3
	updatepop_a 0 2
.d 2 1 i
	jsr s6
.o 2 0
	push_a 0
	push_a 3
	buildh ARRAY 1
	buildh _Cons 2
	push_a 2
	push_a 1
	update_a 1 2
	update_a 0 1
	pop_a 1
	update_a 1 4
	updatepop_a 0 3
.d 2 0
	rtn
.o 2 0
s7
	pushI 260
	pushI 44
	addI
	pushI 1
	push_b 1
	update_b 1 2
	update_b 0 1
	pop_b 1
	subI
	pushI 44
	push_a 0
	updatepop_a 0 1
.d 1 2 ii
	jsr sliceAC
.o 1 0
.d 1 0
	jsr e_System._Pointer_sunpackString
.o 1 0
	push_a 1
	push_a 1
	update_a 1 2
	update_a 0 1
	pop_a 1
	update_a 1 2
	updatepop_a 0 1
.d 2 0
	rtn
.export e_System._Directory_sremoveDirectory
.descexp e_System._Directory_dremoveDirectory e_System._Directory_nremoveDirectory e_System._Directory_lremoveDirectory 2 0 "removeDirectory"
.a 0 a2
.o 2 0
e_System._Directory_lremoveDirectory
	repl_args 1 1
.o 2 0
a2
.d 2 0
	jsr ea2
.o 2 0
	push_a 1
	push_a 1
	buildh _Tuple 2
	updatepop_a 0 2
.d 1 0
	rtn
.n 2 e_System._Directory_dremoveDirectory
.o 1 0
e_System._Directory_nremoveDirectory
	push_node _cycle_in_spine 2
.d 2 0
	jsr ea2
.o 2 0
	push_a 1
	push_a 1
	fillh _Tuple 2 4
	pop_a 2
.d 1 0
	rtn
.o 2 0
ea2
	jsr_eval 1
	jsr_eval 0
	push_array 0
	update_a 0 1
	pop_a 1
.o 2 0
e_System._Directory_sremoveDirectory
.o 2 0
s2
	push_a 0
	updatepop_a 0 1
.d 1 0
	jsr e_System._Pointer_spackString
.o 1 0
	push_a 1
	push_a 1
	update_a 1 2
	update_a 0 1
	pop_a 1
	update_a 1 2
	updatepop_a 0 1
.d 2 0
	jsr e_System._WinBase_sremoveDirectoryA
.o 1 1 b
	push_b 0
	jmp_false else.6
	buildh e__predef_d_Unit 0
	buildh e_Data.Error_dOk 1
	push_a 1
	push_a 1
	update_a 1 2
	update_a 0 1
	pop_a 1
	update_a 1 2
	updatepop_a 0 1
	pop_b 1
.d 2 0
	rtn
else.6
	push_a 0
	updatepop_a 0 1
	pop_b 1
.d 1 0
	jmp e_System.OSError_sgetLastOSError
.export e_System._Directory_screateDirectory
.descexp e_System._Directory_dcreateDirectory e_System._Directory_ncreateDirectory e_System._Directory_lcreateDirectory 2 0 "createDirectory"
.a 0 a1
.o 2 0
e_System._Directory_lcreateDirectory
	repl_args 1 1
.o 2 0
a1
.d 2 0
	jsr ea1
.o 2 0
	push_a 1
	push_a 1
	buildh _Tuple 2
	updatepop_a 0 2
.d 1 0
	rtn
.n 2 e_System._Directory_dcreateDirectory
.o 1 0
e_System._Directory_ncreateDirectory
	push_node _cycle_in_spine 2
.d 2 0
	jsr ea1
.o 2 0
	push_a 1
	push_a 1
	fillh _Tuple 2 4
	pop_a 2
.d 1 0
	rtn
.o 2 0
ea1
	jsr_eval 1
	jsr_eval 0
	push_array 0
	update_a 0 1
	pop_a 1
.o 2 0
e_System._Directory_screateDirectory
.o 2 0
s1
	push_a 0
	updatepop_a 0 1
.d 1 0
	jsr e_System._Pointer_spackString
.o 1 0
	push_a 1
	pushI 0
	push_a 1
	update_a 1 2
	update_a 0 1
	pop_a 1
	update_a 1 2
	updatepop_a 0 1
.d 2 1 i
	jsr e_System._WinBase_screateDirectoryA
.o 1 1 b
	push_b 0
	jmp_false else.7
	buildh e__predef_d_Unit 0
	buildh e_Data.Error_dOk 1
	push_a 1
	push_a 1
	update_a 1 2
	update_a 0 1
	pop_a 1
	update_a 1 2
	updatepop_a 0 1
	pop_b 1
.d 2 0
	rtn
else.7
	push_a 0
	updatepop_a 0 1
	pop_b 1
.d 1 0
	jmp e_System.OSError_sgetLastOSError
