.comp 920 000011110011000
.start _nostart_
.depend "StdOverloaded" "20210609153507"
.depend "_SystemDynamic" "20210609153507"
.depend "System._WinDef" "20210609153506"
.module m_System._WinDef "System._WinDef" "20210609153506"
.endinfo
.impmod _system
.implab _cycle_in_spine
.implab _type_error
.implab _hnf
.impdesc e_system_dind
.implab e_system_nind e_system_eaind
.impdesc e_system_dif
.implab e_system_nif e_system_eaif
.implab e_system_sif
.impdesc e_system_dAP
.implab e_system_nAP e_system_eaAP
.implab e_system_sAP
.impdesc ARRAY
.impdesc _Nil
.impdesc _Cons
.impdesc _Conss
.implab n_Conss ea_Conss
.impdesc _Consts
.implab n_Consts ea_Consts
.impdesc _Conssts
.implab n_Conssts ea_Conssts
.impdesc _Tuple
.impdesc d_S.1
.implab n_S.1 ea_S.1
.impdesc d_S.2
.implab n_S.2 ea_S.2
.impdesc d_S.3
.implab n_S.3 ea_S.3
.impdesc d_S.4
.implab n_S.4 ea_S.4
.impdesc d_S.5
.implab n_S.5 ea_S.5
.impdesc d_S.6
.implab n_S.6 ea_S.6
.implab _driver
.export e_System._WinDef_sTD;HLOCAL
.export e_System._WinDef_eaTD;HLOCAL
.descexp e_System._WinDef_dTD;HLOCAL e_System._WinDef_nTD;HLOCAL e_System._WinDef_lTD;HLOCAL 1 0 "TD;HLOCAL"
.o 2 0
e_System._WinDef_lTD;HLOCAL
	update_a 1 0
	create
	update_a 0 2
	pop_a 1
.d 2 0
	jmp e_System._WinDef_eaTD;HLOCAL
.n 1 e_System._WinDef_dTD;HLOCAL e_System._WinDef_eaTD;HLOCAL
.o 1 0
e_System._WinDef_nTD;HLOCAL
	push_node _cycle_in_spine 1
.o 2 0
e_System._WinDef_eaTD;HLOCAL
.o 2 0
e_System._WinDef_sTD;HLOCAL
.o 2 0
s10
	fillh _Nil 0 1
	pop_a 1
.d 1 0
	rtn
.export e_System._WinDef_sTD;SIZE_T
.export e_System._WinDef_eaTD;SIZE_T
.descexp e_System._WinDef_dTD;SIZE_T e_System._WinDef_nTD;SIZE_T e_System._WinDef_lTD;SIZE_T 1 0 "TD;SIZE_T"
.o 2 0
e_System._WinDef_lTD;SIZE_T
	update_a 1 0
	create
	update_a 0 2
	pop_a 1
.d 2 0
	jmp e_System._WinDef_eaTD;SIZE_T
.n 1 e_System._WinDef_dTD;SIZE_T e_System._WinDef_eaTD;SIZE_T
.o 1 0
e_System._WinDef_nTD;SIZE_T
	push_node _cycle_in_spine 1
.o 2 0
e_System._WinDef_eaTD;SIZE_T
.o 2 0
e_System._WinDef_sTD;SIZE_T
.o 2 0
s9
	fillh _Nil 0 1
	pop_a 1
.d 1 0
	rtn
.export e_System._WinDef_sTD;LPCVOID
.export e_System._WinDef_eaTD;LPCVOID
.descexp e_System._WinDef_dTD;LPCVOID e_System._WinDef_nTD;LPCVOID e_System._WinDef_lTD;LPCVOID 1 0 "TD;LPCVOID"
.o 2 0
e_System._WinDef_lTD;LPCVOID
	update_a 1 0
	create
	update_a 0 2
	pop_a 1
.d 2 0
	jmp e_System._WinDef_eaTD;LPCVOID
.n 1 e_System._WinDef_dTD;LPCVOID e_System._WinDef_eaTD;LPCVOID
.o 1 0
e_System._WinDef_nTD;LPCVOID
	push_node _cycle_in_spine 1
.o 2 0
e_System._WinDef_eaTD;LPCVOID
.o 2 0
e_System._WinDef_sTD;LPCVOID
.o 2 0
s8
	fillh _Nil 0 1
	pop_a 1
.d 1 0
	rtn
.export e_System._WinDef_sTD;LPVOID
.export e_System._WinDef_eaTD;LPVOID
.descexp e_System._WinDef_dTD;LPVOID e_System._WinDef_nTD;LPVOID e_System._WinDef_lTD;LPVOID 1 0 "TD;LPVOID"
.o 2 0
e_System._WinDef_lTD;LPVOID
	update_a 1 0
	create
	update_a 0 2
	pop_a 1
.d 2 0
	jmp e_System._WinDef_eaTD;LPVOID
.n 1 e_System._WinDef_dTD;LPVOID e_System._WinDef_eaTD;LPVOID
.o 1 0
e_System._WinDef_nTD;LPVOID
	push_node _cycle_in_spine 1
.o 2 0
e_System._WinDef_eaTD;LPVOID
.o 2 0
e_System._WinDef_sTD;LPVOID
.o 2 0
s7
	fillh _Nil 0 1
	pop_a 1
.d 1 0
	rtn
.export e_System._WinDef_sTD;LPTSTR
.export e_System._WinDef_eaTD;LPTSTR
.descexp e_System._WinDef_dTD;LPTSTR e_System._WinDef_nTD;LPTSTR e_System._WinDef_lTD;LPTSTR 1 0 "TD;LPTSTR"
.o 2 0
e_System._WinDef_lTD;LPTSTR
	update_a 1 0
	create
	update_a 0 2
	pop_a 1
.d 2 0
	jmp e_System._WinDef_eaTD;LPTSTR
.n 1 e_System._WinDef_dTD;LPTSTR e_System._WinDef_eaTD;LPTSTR
.o 1 0
e_System._WinDef_nTD;LPTSTR
	push_node _cycle_in_spine 1
.o 2 0
e_System._WinDef_eaTD;LPTSTR
.o 2 0
e_System._WinDef_sTD;LPTSTR
.o 2 0
s6
	fillh _Nil 0 1
	pop_a 1
.d 1 0
	rtn
.export e_System._WinDef_sTD;LPCTSTR
.export e_System._WinDef_eaTD;LPCTSTR
.descexp e_System._WinDef_dTD;LPCTSTR e_System._WinDef_nTD;LPCTSTR e_System._WinDef_lTD;LPCTSTR 1 0 "TD;LPCTSTR"
.o 2 0
e_System._WinDef_lTD;LPCTSTR
	update_a 1 0
	create
	update_a 0 2
	pop_a 1
.d 2 0
	jmp e_System._WinDef_eaTD;LPCTSTR
.n 1 e_System._WinDef_dTD;LPCTSTR e_System._WinDef_eaTD;LPCTSTR
.o 1 0
e_System._WinDef_nTD;LPCTSTR
	push_node _cycle_in_spine 1
.o 2 0
e_System._WinDef_eaTD;LPCTSTR
.o 2 0
e_System._WinDef_sTD;LPCTSTR
.o 2 0
s5
	fillh _Nil 0 1
	pop_a 1
.d 1 0
	rtn
.export e_System._WinDef_sTD;LPDWORD
.export e_System._WinDef_eaTD;LPDWORD
.descexp e_System._WinDef_dTD;LPDWORD e_System._WinDef_nTD;LPDWORD e_System._WinDef_lTD;LPDWORD 1 0 "TD;LPDWORD"
.o 2 0
e_System._WinDef_lTD;LPDWORD
	update_a 1 0
	create
	update_a 0 2
	pop_a 1
.d 2 0
	jmp e_System._WinDef_eaTD;LPDWORD
.n 1 e_System._WinDef_dTD;LPDWORD e_System._WinDef_eaTD;LPDWORD
.o 1 0
e_System._WinDef_nTD;LPDWORD
	push_node _cycle_in_spine 1
.o 2 0
e_System._WinDef_eaTD;LPDWORD
.o 2 0
e_System._WinDef_sTD;LPDWORD
.o 2 0
s4
	fillh _Nil 0 1
	pop_a 1
.d 1 0
	rtn
.export e_System._WinDef_sTD;DWORD
.export e_System._WinDef_eaTD;DWORD
.descexp e_System._WinDef_dTD;DWORD e_System._WinDef_nTD;DWORD e_System._WinDef_lTD;DWORD 1 0 "TD;DWORD"
.o 2 0
e_System._WinDef_lTD;DWORD
	update_a 1 0
	create
	update_a 0 2
	pop_a 1
.d 2 0
	jmp e_System._WinDef_eaTD;DWORD
.n 1 e_System._WinDef_dTD;DWORD e_System._WinDef_eaTD;DWORD
.o 1 0
e_System._WinDef_nTD;DWORD
	push_node _cycle_in_spine 1
.o 2 0
e_System._WinDef_eaTD;DWORD
.o 2 0
e_System._WinDef_sTD;DWORD
.o 2 0
s3
	fillh _Nil 0 1
	pop_a 1
.d 1 0
	rtn
.export e_System._WinDef_sTD;PHANDLE
.export e_System._WinDef_eaTD;PHANDLE
.descexp e_System._WinDef_dTD;PHANDLE e_System._WinDef_nTD;PHANDLE e_System._WinDef_lTD;PHANDLE 1 0 "TD;PHANDLE"
.o 2 0
e_System._WinDef_lTD;PHANDLE
	update_a 1 0
	create
	update_a 0 2
	pop_a 1
.d 2 0
	jmp e_System._WinDef_eaTD;PHANDLE
.n 1 e_System._WinDef_dTD;PHANDLE e_System._WinDef_eaTD;PHANDLE
.o 1 0
e_System._WinDef_nTD;PHANDLE
	push_node _cycle_in_spine 1
.o 2 0
e_System._WinDef_eaTD;PHANDLE
.o 2 0
e_System._WinDef_sTD;PHANDLE
.o 2 0
s2
	fillh _Nil 0 1
	pop_a 1
.d 1 0
	rtn
.export e_System._WinDef_sTD;HANDLE
.export e_System._WinDef_eaTD;HANDLE
.descexp e_System._WinDef_dTD;HANDLE e_System._WinDef_nTD;HANDLE e_System._WinDef_lTD;HANDLE 1 0 "TD;HANDLE"
.o 2 0
e_System._WinDef_lTD;HANDLE
	update_a 1 0
	create
	update_a 0 2
	pop_a 1
.d 2 0
	jmp e_System._WinDef_eaTD;HANDLE
.n 1 e_System._WinDef_dTD;HANDLE e_System._WinDef_eaTD;HANDLE
.o 1 0
e_System._WinDef_nTD;HANDLE
	push_node _cycle_in_spine 1
.o 2 0
e_System._WinDef_eaTD;HANDLE
.o 2 0
e_System._WinDef_sTD;HANDLE
.o 2 0
s1
	fillh _Nil 0 1
	pop_a 1
.d 1 0
	rtn
