.comp 920 000011110011000
.start _nostart_
.depend "Data.Func" "20210609153506"
.depend "StdCharList" "20210609153507"
.depend "_SystemArray" "20210609153507"
.depend "StdArray" "20210609153507"
.depend "StdEnv" "20210609153507"
.depend "_SystemEnum" "20210609153507"
.depend "StdEnum" "20210609153507"
.depend "StdTuple" "20210609153507"
.depend "StdOrdList" "20210609153507"
.depend "Control.Monad.Trans" "20210609153506"
.depend "StdMaybe" "20210609153507"
.depend "_SystemStrictMaybes" "20210609153507"
.depend "Data.Maybe" "20210609153506"
.depend "System._Process" "20210609153506"
.depend "System.OS" "20210609153506"
.depend "Text.GenJSON" "20210609153506"
.depend "Data.Bifunctor" "20210609153506"
.depend "Data.Either" "20210609153506"
.depend "StdFile" "20210609153507"
.depend "Control.Monad.Fail" "20210609153506"
.depend "Data.Traversable" "20210609153506"
.depend "StdMisc" "20210609153507"
.depend "StdOverloadedList" "20210609153507"
.depend "Data.List" "20210609153506"
.depend "Data.Foldable" "20210609153506"
.depend "StdFunctions" "20210609153507"
.depend "StdFunc" "20210609153507"
.depend "StdString" "20210609153507"
.depend "System.OSError" "20210609153506"
.depend "System.FilePath" "20210609153506"
.depend "_SystemEnumStrict" "20210609153507"
.depend "_SystemStrictLists" "20210609153507"
.depend "StdStrictLists" "20210609153507"
.depend "StdGeneric" "20210609153507"
.depend "Data.GenEq" "20210609153506"
.depend "StdReal" "20210609153507"
.depend "StdChar" "20210609153507"
.depend "StdInt" "20210609153507"
.depend "StdBool" "20210609153507"
.depend "StdClass" "20210609153507"
.depend "StdList" "20210609153507"
.depend "Data.Monoid" "20210609153506"
.depend "Control.Applicative" "20210609153506"
.depend "Control.Monad" "20210609153506"
.depend "Data.Functor" "20210609153506"
.depend "Data.Error" "20210609153506"
.depend "StdOverloaded" "20210609153507"
.depend "_SystemDynamic" "20210609153507"
.depend "System.Process" "20210609153506"
.module m_System.Process "System.Process" "20210609153506"
.endinfo
.impmod _system
.implab _cycle_in_spine
.implab _type_error
.implab _hnf
.impdesc e_system_dind
.implab e_system_nind e_system_eaind
.impdesc e_system_dif
.implab e_system_nif e_system_eaif
.implab e_system_sif
.impdesc e_system_dAP
.implab e_system_nAP e_system_eaAP
.implab e_system_sAP
.impdesc ARRAY
.impdesc _Nil
.impdesc _Cons
.impdesc _Conss
.implab n_Conss ea_Conss
.impdesc _Consts
.implab n_Consts ea_Consts
.impdesc _Conssts
.implab n_Conssts ea_Conssts
.impdesc _Tuple
.impdesc d_S.1
.implab n_S.1 ea_S.1
.impdesc d_S.2
.implab n_S.2 ea_S.2
.impdesc d_S.3
.implab n_S.3 ea_S.3
.impdesc d_S.4
.implab n_S.4 ea_S.4
.impdesc d_S.5
.implab n_S.5 ea_S.5
.impdesc d_S.6
.implab n_S.6 ea_S.6
.implab _driver
.impmod Data.Func
.implab e_Data.Func_smapSt
.impmod System._Process
.implab e_System._Process_s_openPipePair
.implab e_System._Process_s_blockPipe
.implab e_System._Process_s_blockAnyPipe
.implab e_System._Process_s_peekPipe
.implab e_System._Process_s_readPipeNonBlocking
.implab e_System._Process_s_writePipe
.implab e_System._Process_s_equalPipe
.implab e_System._Process_s_startProcess
.implab e_System._Process_s_checkProcess
.implab e_System._Process_s_waitForProcess
.implab e_System._Process_s_terminateProcess
.implab e_System._Process_sclosePipe;12
.implab e_System._Process_sclosePipe;13
.impmod StdFile
.implab e_StdFile_sstderr
.implab e_StdFile_sfclose;31
.implab e_StdFile_sstdio;34
.implab e_StdFile_s<<<;39
.impmod StdMisc
.implab e_StdMisc_sabort
.impmod StdInt
.implab e_StdInt_s==;16
.impmod StdList
.implab e_StdList_sfilter
.impdesc e_StdList_dmap
.implab e_StdList_nmap e_StdList_eamap
.impmod Data.Error
.impdesc e_Data.Error_disError
.implab e_Data.Error_sisError
.impdesc e_Data.Error_dfromOk
.implab e_Data.Error_sfromOk
.implab e_Data.Error_nfromOk _
.implab e_Data.Error_sliftError
.implab e_Data.Error_sfmap;13
.impdesc e_Data.Error_dError
.impdesc e_Data.Error_dOk
.export e_System.Process_rProcessIO
.record e_System.Process_rProcessIO iii 0 3 "ProcessIO"
.descexp e_System.Process_tProcessIO e_System.Process_cProcessIO _hnf 3 1 "ProcessIO"
.n 3 e_System.Process_tProcessIO
.o 1 0 
e_System.Process_cProcessIO
	push_node _cycle_in_spine 3
	jsr_eval 2
	jsr_eval 1
	jsr_eval 0
	pushI_a 2
	pushI_a 1
	pushI_a 0
	pop_a 3
.impmod System.Process
.impdesc e_System.Process_rProcessIO
	fill_r e_System.Process_rProcessIO 0 3 0 0 0
.d 1 0 
	pop_b_rtn 3
.export e_System.Process_dProcessIO.stdIn
.export e_System.Process_nProcessIO.stdIn
.descs e_System.Process_dProcessIO.stdIn e_System.Process_nProcessIO.stdIn INT 1 0 "ProcessIO.stdIn"
.n -3 e_System.Process_dProcessIO.stdIn
.o 1 0 
e_System.Process_nProcessIO.stdIn
	push_node _cycle_in_spine 1
	jsr_eval 0
	push_r_args_b 0 0 3 1 1
	pop_a 1
	fillI_b 0 0
.d 1 0 
	pop_b_rtn 1
.export e_System.Process_dProcessIO.stdOut
.export e_System.Process_nProcessIO.stdOut
.descs e_System.Process_dProcessIO.stdOut e_System.Process_nProcessIO.stdOut INT 3 0 "ProcessIO.stdOut"
.n -3 e_System.Process_dProcessIO.stdOut
.o 1 0 
e_System.Process_nProcessIO.stdOut
	push_node _cycle_in_spine 1
	jsr_eval 0
	push_r_args_b 0 0 3 2 1
	pop_a 1
	fillI_b 0 0
.d 1 0 
	pop_b_rtn 1
.export e_System.Process_dProcessIO.stdErr
.export e_System.Process_nProcessIO.stdErr
.descs e_System.Process_dProcessIO.stdErr e_System.Process_nProcessIO.stdErr INT 4 0 "ProcessIO.stdErr"
.n -3 e_System.Process_dProcessIO.stdErr
.o 1 0 
e_System.Process_nProcessIO.stdErr
	push_node _cycle_in_spine 1
	jsr_eval 0
	push_r_args_b 0 0 3 3 1
	pop_a 1
	fillI_b 0 0
.d 1 0 
	pop_b_rtn 1
.export e_System.Process_rProcessPtyOptions
.record e_System.Process_rProcessPtyOptions bbb 0 3 "ProcessPtyOptions"
.descexp e_System.Process_tProcessPtyOptions e_System.Process_cProcessPtyOptions _hnf 3 1 "ProcessPtyOptions"
.n 3 e_System.Process_tProcessPtyOptions
.o 1 0 
e_System.Process_cProcessPtyOptions
	push_node _cycle_in_spine 3
	jsr_eval 2
	jsr_eval 1
	jsr_eval 0
	pushB_a 2
	pushB_a 1
	pushB_a 0
	pop_a 3
.impdesc e_System.Process_rProcessPtyOptions
	fill_r e_System.Process_rProcessPtyOptions 0 3 0 0 0
.d 1 0 
	pop_b_rtn 3
.export e_System.Process_dProcessPtyOptions.childInNewSession
.export e_System.Process_nProcessPtyOptions.childInNewSession
.descs e_System.Process_dProcessPtyOptions.childInNewSession e_System.Process_nProcessPtyOptions.childInNewSession BOOL 1 0 "ProcessPtyOptions.childInNewSession"
.n -3 e_System.Process_dProcessPtyOptions.childInNewSession
.o 1 0 
e_System.Process_nProcessPtyOptions.childInNewSession
	push_node _cycle_in_spine 1
	jsr_eval 0
	push_r_args_b 0 0 3 1 1
	pop_a 1
	fillB_b 0 0
.d 1 0 
	pop_b_rtn 1
.export e_System.Process_dProcessPtyOptions.childControlsTty
.export e_System.Process_nProcessPtyOptions.childControlsTty
.descs e_System.Process_dProcessPtyOptions.childControlsTty e_System.Process_nProcessPtyOptions.childControlsTty BOOL 3 0 "ProcessPtyOptions.childControlsTty"
.n -3 e_System.Process_dProcessPtyOptions.childControlsTty
.o 1 0 
e_System.Process_nProcessPtyOptions.childControlsTty
	push_node _cycle_in_spine 1
	jsr_eval 0
	push_r_args_b 0 0 3 2 1
	pop_a 1
	fillB_b 0 0
.d 1 0 
	pop_b_rtn 1
.export e_System.Process_dProcessPtyOptions.useRawIO
.export e_System.Process_nProcessPtyOptions.useRawIO
.descs e_System.Process_dProcessPtyOptions.useRawIO e_System.Process_nProcessPtyOptions.useRawIO BOOL 4 0 "ProcessPtyOptions.useRawIO"
.n -3 e_System.Process_dProcessPtyOptions.useRawIO
.o 1 0 
e_System.Process_nProcessPtyOptions.useRawIO
	push_node _cycle_in_spine 1
	jsr_eval 0
	push_r_args_b 0 0 3 3 1
	pop_a 1
	fillB_b 0 0
.d 1 0 
	pop_b_rtn 1
.export e_System.Process_rclosePipe;
.record e_System.Process_rclosePipe; a 1 0 "closePipe;"
.descexp e_System.Process_tclosePipe; e_System.Process_cclosePipe; _hnf 1 1 "closePipe;"
.n 1 e_System.Process_tclosePipe;
.o 1 0 
e_System.Process_cclosePipe;
	push_node _cycle_in_spine 1
	jsr_eval 0
.impdesc e_System.Process_rclosePipe;
	fill_r e_System.Process_rclosePipe; 1 0 1 0 0
.d 1 0 
	pop_a_rtn 1
.export e_System.Process_dclosePipe;.closePipe
.export e_System.Process_nclosePipe;.closePipe
.export e_System.Process_eaclosePipe;.closePipe
.descs e_System.Process_dclosePipe;.closePipe e_System.Process_nclosePipe;.closePipe _ 1 0 "closePipe;.closePipe"
.n -4 e_System.Process_dclosePipe;.closePipe e_System.Process_eaclosePipe;.closePipe
.o 1 0 
e_System.Process_nclosePipe;.closePipe
	push_node _cycle_in_spine 1
.o 2 0 
e_System.Process_eaclosePipe;.closePipe
	jsr_eval 0
	repl_r_args_a 1 0 1 1
.d 1 0 
	fill_a01_pop_rtn 
.export e_System.Process_sTD;closePipe;
.export e_System.Process_eaTD;closePipe;
.descexp e_System.Process_dTD;closePipe; e_System.Process_nTD;closePipe; e_System.Process_lTD;closePipe; 1 0 "TD;closePipe;"
.o 2 0 
e_System.Process_lTD;closePipe;
	update_a 1 0
	create 
.d 2 0 
	put_a_jmp 2 e_System.Process_eaTD;closePipe;
.n 1 e_System.Process_dTD;closePipe; e_System.Process_eaTD;closePipe;
.o 1 0 
e_System.Process_nTD;closePipe;
	push_node _cycle_in_spine 1
.o 2 0 
e_System.Process_eaTD;closePipe;
.o 2 0 
e_System.Process_sTD;closePipe;
.o 2 0 
s20
	fillh _Nil 0 1
.d 1 0 
	pop_a_rtn 1
.export e_System.Process_sTD;ProcessPtyOptions
.export e_System.Process_eaTD;ProcessPtyOptions
.descexp e_System.Process_dTD;ProcessPtyOptions e_System.Process_nTD;ProcessPtyOptions e_System.Process_lTD;ProcessPtyOptions 1 0 "TD;ProcessPtyOptions"
.o 2 0 
e_System.Process_lTD;ProcessPtyOptions
	update_a 1 0
	create 
.d 2 0 
	put_a_jmp 2 e_System.Process_eaTD;ProcessPtyOptions
.n 1 e_System.Process_dTD;ProcessPtyOptions e_System.Process_eaTD;ProcessPtyOptions
.o 1 0 
e_System.Process_nTD;ProcessPtyOptions
	push_node _cycle_in_spine 1
.o 2 0 
e_System.Process_eaTD;ProcessPtyOptions
.o 2 0 
e_System.Process_sTD;ProcessPtyOptions
.o 2 0 
s19
	fillh _Nil 0 1
.d 1 0 
	pop_a_rtn 1
.export e_System.Process_sTD;ProcessIO
.export e_System.Process_eaTD;ProcessIO
.descexp e_System.Process_dTD;ProcessIO e_System.Process_nTD;ProcessIO e_System.Process_lTD;ProcessIO 1 0 "TD;ProcessIO"
.o 2 0 
e_System.Process_lTD;ProcessIO
	update_a 1 0
	create 
.d 2 0 
	put_a_jmp 2 e_System.Process_eaTD;ProcessIO
.n 1 e_System.Process_dTD;ProcessIO e_System.Process_eaTD;ProcessIO
.o 1 0 
e_System.Process_nTD;ProcessIO
	push_node _cycle_in_spine 1
.o 2 0 
e_System.Process_eaTD;ProcessIO
.o 2 0 
e_System.Process_sTD;ProcessIO
.o 2 0 
s18
	fillh _Nil 0 1
.d 1 0 
	pop_a_rtn 1
.export e_System.Process_scloseProcessIO
.descexp e_System.Process_dcloseProcessIO e_System.Process_ncloseProcessIO e_System.Process_lcloseProcessIO 2 0 "closeProcessIO"
.a 0 a17
.o 2 0 
e_System.Process_lcloseProcessIO
	repl_args 1 1
.o 2 0 
a17
.d 2 0 
	jsr ea17
.o 2 0 
	buildh _Tuple 2
.d 1 0 
	rtn 
.n 2 e_System.Process_dcloseProcessIO
.o 1 0 
e_System.Process_ncloseProcessIO
	push_node _cycle_in_spine 2
.d 2 0 
	jsr ea17
.o 2 0 
	fillh _Tuple 2 2
.d 1 0 
	rtn 
.o 2 0 
ea17
	jsr_eval 1
	jsr_eval 0
	repl_r_args 0 3
.o 1 3 iii
e_System.Process_scloseProcessIO
.o 1 3 iii
s17
	push2_b 1
.d 0 2 ii
	jsr e_System._Process_s_equalPipe
.o 0 1 b
	jmp_false else.1
	updatepop_b 0 2
.d 1 1 i
	jsr e_System._Process_sclosePipe;12
.o 2 0 
.d 2 0 
	rtn 
else.1
.d 1 1 i
	push_b_jsr 0 e_System._Process_sclosePipe;12
.o 2 0 
.d 1 0 
	push_a_jsr 0 e_Data.Error_sisError
.o 0 1 b
	jmp_false else.2
	push_b 1
	swap_a1 
.d 1 1 i
	jsr e_System._Process_sclosePipe;13
.o 2 0 
	pop_b 2
.d 1 1 i
	pop_a_jsr 1 e_System._Process_sclosePipe;13
.o 2 0 
	exchange_a 2 1
.d 2 0 
	pop_a_rtn 1
else.2
	push_b 1
.d 1 1 i
	pop_a_jsr 1 e_System._Process_sclosePipe;13
.o 2 0 
.d 1 0 
	push_a_jsr 0 e_Data.Error_sisError
.o 0 1 b
	jmp_false else.3
	pop_b 2
	swap_a1 
.d 1 1 i
	jsr e_System._Process_sclosePipe;13
.o 2 0 
	exchange_a 2 1
.d 2 0 
	pop_a_rtn 1
else.3
	pop_b 2
.d 1 1 i
	pop_a_jsr 1 e_System._Process_sclosePipe;13
.o 2 0 
.d 2 0 
	rtn 
.export e_System.Process_sterminateProcess
.descexp e_System.Process_dterminateProcess e_System.Process_nterminateProcess e_System.Process_lterminateProcess 2 0 "terminateProcess"
.a 0 a15
.o 2 0 
e_System.Process_lterminateProcess
	repl_args 1 1
.o 2 0 
a15
.d 2 0 
	jsr ea15
.o 2 0 
	buildh _Tuple 2
.d 1 0 
	rtn 
.n 2 e_System.Process_dterminateProcess
.o 1 0 
e_System.Process_nterminateProcess
	push_node _cycle_in_spine 2
.d 2 0 
	jsr ea15
.o 2 0 
	fillh _Tuple 2 2
.d 1 0 
	rtn 
.o 2 0 
ea15
	jsr_eval 1
	jsr_eval 0
	repl_r_args 0 2
.o 1 2 ii
e_System.Process_sterminateProcess
.o 1 2 ii
s15
	pushI 0
	push_b 1
	updates3pop_b 0 1 3 2
.d 1 3 iii
	jmp s16
.export e_System.Process_sterminateProcessCode
.descexp e_System.Process_dterminateProcessCode e_System.Process_nterminateProcessCode e_System.Process_lterminateProcessCode 3 0 "terminateProcessCode"
.a 0 a16
.o 2 0 
e_System.Process_lterminateProcessCode
	repl_args 2 2
.o 3 0 
a16
.d 3 0 
	jsr ea16
.o 2 0 
	buildh _Tuple 2
.d 1 0 
	rtn 
.n 3 e_System.Process_dterminateProcessCode
.o 1 0 
e_System.Process_nterminateProcessCode
	push_node _cycle_in_spine 3
.d 3 0 
	jsr ea16
.o 2 0 
	fillh _Tuple 2 2
.d 1 0 
	rtn 
.o 3 0 
ea16
	jsr_eval 2
	jsr_eval 1
	jsr_eval 0
	pushI_a 1
	repl_r_args 0 2
	pop_a 1
.o 1 3 iii
e_System.Process_sterminateProcessCode
.o 1 3 iii
s16
.d 1 3 iii
	jmp e_System._Process_s_terminateProcess
.export e_System.Process_swritePipe
.descexp e_System.Process_dwritePipe e_System.Process_nwritePipe e_System.Process_lwritePipe 3 0 "writePipe"
.a 0 a14
.o 2 0 
e_System.Process_lwritePipe
	repl_args 2 2
.o 3 0 
a14
.d 3 0 
	jsr ea14
.o 2 0 
	buildh _Tuple 2
.d 1 0 
	rtn 
.n 3 e_System.Process_dwritePipe
.o 1 0 
e_System.Process_nwritePipe
	push_node _cycle_in_spine 3
.d 3 0 
	jsr ea14
.o 2 0 
	fillh _Tuple 2 2
.d 1 0 
	rtn 
.o 3 0 
ea14
	jsr_eval 2
	jsr_eval 1
	jsr_eval 0
	pushI_a 1
	push_array 0
	updatepop_a 0 2
.o 2 1 i
e_System.Process_swritePipe
.o 2 1 i
s14
.d 2 1 i
	jmp e_System._Process_s_writePipe
.export e_System.Process_sreadPipeBlockingN
.descexp e_System.Process_dreadPipeBlockingN e_System.Process_nreadPipeBlockingN e_System.Process_lreadPipeBlockingN 3 0 "readPipeBlockingN"
.a 0 a12
.o 2 0 
e_System.Process_lreadPipeBlockingN
	repl_args 2 2
.o 3 0 
a12
.d 3 0 
	jsr ea12
.o 2 0 
	buildh _Tuple 2
.d 1 0 
	rtn 
.n 3 e_System.Process_dreadPipeBlockingN
.o 1 0 
e_System.Process_nreadPipeBlockingN
	push_node _cycle_in_spine 3
.d 3 0 
	jsr ea12
.o 2 0 
	fillh _Tuple 2 2
.d 1 0 
	rtn 
.o 3 0 
ea12
	jsr_eval 2
	jsr_eval 1
	jsr_eval 0
	pushI_a 1
	pushI_a 0
	pop_a 2
.o 1 2 ii
e_System.Process_sreadPipeBlockingN
.o 1 2 ii
s12
.d 1 1 i
	push_b_jsr 0 e_System._Process_s_blockPipe
.o 2 0 
.d 1 0 
	push_a_jsr 0 e_Data.Error_sisError
.o 0 1 b
	jmp_false else.4
	create 
	swap_a1 
.d 2 0 
	pop_b_jsr 2 e_Data.Error_sliftError
.o 1 0 
.d 2 0 
	rtn 
else.4
.d 1 2 ii
	pop_a_jmp 1 s10
.export e_System.Process_sreadPipeBlocking
.descexp e_System.Process_dreadPipeBlocking e_System.Process_nreadPipeBlocking e_System.Process_lreadPipeBlocking 2 0 "readPipeBlocking"
.a 0 a11
.o 2 0 
e_System.Process_lreadPipeBlocking
	repl_args 1 1
.o 2 0 
a11
.d 2 0 
	jsr ea11
.o 2 0 
	buildh _Tuple 2
.d 1 0 
	rtn 
.n 2 e_System.Process_dreadPipeBlocking
.o 1 0 
e_System.Process_nreadPipeBlocking
	push_node _cycle_in_spine 2
.d 2 0 
	jsr ea11
.o 2 0 
	fillh _Tuple 2 2
.d 1 0 
	rtn 
.o 2 0 
ea11
	jsr_eval 1
	jsr_eval 0
	pushI0_pop_a1 
.o 1 1 i
e_System.Process_sreadPipeBlocking
.o 1 1 i
s11
.d 1 1 i
	push_b_jsr 0 e_System._Process_s_blockPipe
.o 2 0 
.d 1 0 
	push_a_jsr 0 e_Data.Error_sisError
.o 0 1 b
	jmp_false else.5
	create 
	swap_a1 
.d 2 0 
	pop_b_jsr 1 e_Data.Error_sliftError
.o 1 0 
.d 2 0 
	rtn 
else.5
.d 1 1 i
	pop_a_jmp 1 s9
.export e_System.Process_scallProcessAndPassIO
.descexp e_System.Process_dcallProcessAndPassIO e_System.Process_ncallProcessAndPassIO e_System.Process_lcallProcessAndPassIO 4 0 "callProcessAndPassIO"
.a 0 a8
.o 2 0 
e_System.Process_lcallProcessAndPassIO
	repl_args 3 3
.o 4 0 
a8
.d 4 0 
	jsr ea8
.o 2 0 
	buildh _Tuple 2
.d 1 0 
	rtn 
.n 4 e_System.Process_dcallProcessAndPassIO
.o 1 0 
e_System.Process_ncallProcessAndPassIO
	push_node _cycle_in_spine 4
.d 4 0 
	jsr ea8
.o 2 0 
	fillh _Tuple 2 2
.d 1 0 
	rtn 
.o 4 0 
ea8
	jsr_eval 3
	jsr_eval 2
	jsr_eval 1
	jsr_eval 0
	push_array 0
	put_a 1
.o 4 0 
e_System.Process_scallProcessAndPassIO
.o 4 0 
s8
.d 4 0 
	jsr s2
.o 2 0 
.d 1 0 
	push_a_jsr 0 e_Data.Error_sisError
.o 0 1 b
	jmp_false else.6
	create 
	swap_a1 
.d 2 0 
	jsr e_Data.Error_sliftError
.o 1 0 
.d 2 0 
	rtn 
else.6
.d 1 0 
	jsr e_Data.Error_sfromOk
.o 1 0 
	swap_a1 
.d 1 0 
	jsr e_StdFile_sstdio;34
.o 1 2 f
.d 0 0 
	jsr stderrF
.o 0 2 f
	push_arg 1 2 2
	jsr_eval 0
	repl_r_args 0 3
	push_arg 1 2 1
	jsr_eval 0
	repl_r_args 0 2
	put_a 1
	push_b 7
	updates2_b 0 6 8
	push_b 9
	updates2_b 0 8 10
.d 1 9 iiiiiff
	pop_b_jsr 2 s21
.o 2 0 
.d 2 0 
	rtn 
.o 1 9 iiiiiff
s21
	push2_b 1
.d 1 2 ii
	jsr s5
.o 2 0 
.d 1 0 
	push_a_jsr 0 e_Data.Error_sisError
.o 0 1 b
.d 1 1 b
	push_a_jsr 0 s31
.o 0 1 b
	jmp_false else.7
	buildh _Nil 0
	buildI_b 4
	buildh _Cons 2
	buildI_b 3
	buildh _Cons 2
	exchange_a 2 1
.d 2 0 
	pop_b_jsr 5 s13
.o 2 0 
.d 1 4 ff
	jsr s112
.o 0 4 ff
.d 1 2 f
	jsr e_StdFile_sfclose;31
.o 1 1 b
.d 1 2 f
	pop_b_jsr 1 e_StdFile_sfclose;31
.o 1 1 b
	pop_b 1
	buildh e_System.Process_dfromJust;163.23 0
	create 
	push_update_a 1 0
	update_a 4 1
.d 3 0 
	buildh0_put_a_jsr _Nil 5 e_Data.Error_sfmap;13
.o 1 0 
	update2pop_a 0 1
.d 2 0 
	rtn 
else.7
	buildh _Nil 0
	buildI_b 4
	buildh _Cons 2
	buildI_b 3
	buildh _Cons 2
	put_a 1
.d 2 0 
	jsr s13
.o 2 0 
.d 1 0 
	push_a_jsr 0 e_Data.Error_sisError
.o 0 1 b
	jmp_false else.8
	swap_a1 
.d 1 2 f
	pop_b_jsr 5 e_StdFile_sfclose;31
.o 1 1 b
.d 1 2 f
	pop_b_jsr 1 e_StdFile_sfclose;31
.o 1 1 b
	pop_b 1
	create 
	push_a 2
.d 2 0 
	buildh0_put_a_jsr _Nil 4 e_Data.Error_sliftError
.o 1 0 
	update2pop_a 0 1
.d 2 0 
	rtn 
else.8
.d 1 0 
	jsr e_Data.Error_sfromOk
.o 1 0 
	eq_desc _Cons 2 0
	exit_false selector_m_error
	repl_args 2 2
	jsr_eval 1
	jsr_eval 0
	push_array 0
	updates2_a 2 0 1
	eq_desc _Cons 2 0
	exit_false selector_m_error
	repl_args 2 2
	jsr_eval 0
	push_array 0
	updates2pop_a 0 3 4
	push2_b 8
.d 1 2 f
	jsr writeFS
.o 0 2 f
	push2_b 8
.d 1 2 f
	jsr writeFS
.o 0 2 f
	update3_b 1 10
	update_b 0 9
.d 1 9 iiiiiff
	pop_b_jmp 4 s21
.o 1 1 b
s31
	eqB_b TRUE 0
	jmp_false case.10
	pop_b_pushB 1 TRUE
.d 0 1 b
	pop_a_rtn 1
case.10
.d 1 0 
	pop_b_jsr 1 e_Data.Error_sfromOk
.o 1 0 
	eq_desc _Just 1 0
.d 0 1 b
	pop_a_rtn 1
.export e_System.Process_dfromJust;163.23
.desc e_System.Process_dfromJust;163.23 _hnf l23 1 0 "fromJust;163.23"
.o 2 0 
l23
.d 1 0 
	pop_a_jsr 1 ea23
.o 0 1 i
	buildI_b 0
.d 1 0 
	pop_b_rtn 1
.o 1 0 
ea23
	jsr_eval 0
.o 1 0 
s23
s29
	jmp_ne_desc _Just 1 0 case.12
	repl_args 1 1
	pushI0_pop_a1 
.d 0 1 i
	rtn 
case.12
	buildAC "fromJust: Nothing\n"
	put_a 1
.d 1 0 
	jsr print_string_
.o 0 0 
	halt
	pushI0_pop_a1 
.d 0 1 i
	rtn 
.export e_System.Process_sreadPipeBlockingMulti
.descexp e_System.Process_dreadPipeBlockingMulti e_System.Process_nreadPipeBlockingMulti e_System.Process_lreadPipeBlockingMulti 2 0 "readPipeBlockingMulti"
.a 0 a13
.o 2 0 
e_System.Process_lreadPipeBlockingMulti
	repl_args 1 1
.o 2 0 
a13
.d 2 0 
	jsr ea13
.o 2 0 
	buildh _Tuple 2
.d 1 0 
	rtn 
.n 2 e_System.Process_dreadPipeBlockingMulti
.o 1 0 
e_System.Process_nreadPipeBlockingMulti
	push_node _cycle_in_spine 2
.d 2 0 
	jsr ea13
.o 2 0 
	fillh _Tuple 2 2
.d 1 0 
	rtn 
.o 2 0 
ea13
	jsr_eval 1
	jsr_eval 0
.o 2 0 
e_System.Process_sreadPipeBlockingMulti
.o 2 0 
s13
	push_a2 0 1
	updates2_a 0 2 3
.d 2 0 
	pop_a_jsr 1 e_System._Process_s_blockAnyPipe
.o 2 0 
.d 1 0 
	push_a_jsr 0 e_Data.Error_sisError
.o 0 1 b
	jmp_false else.13
	create 
	updates2_a 0 2 3
.d 2 0 
	pop_a_jsr 1 e_Data.Error_sliftError
.o 1 0 
.d 2 0 
	rtn 
else.13
	buildh0_dup_a e_System.Process_dreadPipeNonBlocking 1
	exchange_a 3 2
.d 3 0 
	pop_a_jsr 1 e_Data.Func_smapSt
.o 2 0 
	push_jsr_eval 1
	buildh e_Data.Error_disError 0
	create 
	push_update_a 1 0
	update_a 4 1
.d 3 0 
	buildh0_put_a_jsr _Nil 6 e_StdList_sfilter
.o 1 0 
	update3pop_a 0 1
.d 3 0 
	jmp s111
.export e_System.Process_sreadPipeNonBlocking
.descexp e_System.Process_dreadPipeNonBlocking e_System.Process_nreadPipeNonBlocking e_System.Process_lreadPipeNonBlocking 2 0 "readPipeNonBlocking"
.a 0 a9
.o 2 0 
e_System.Process_lreadPipeNonBlocking
	repl_args 1 1
.o 2 0 
a9
.d 2 0 
	jsr ea9
.o 2 0 
	buildh _Tuple 2
.d 1 0 
	rtn 
.n 2 e_System.Process_dreadPipeNonBlocking
.o 1 0 
e_System.Process_nreadPipeNonBlocking
	push_node _cycle_in_spine 2
.d 2 0 
	jsr ea9
.o 2 0 
	fillh _Tuple 2 2
.d 1 0 
	rtn 
.o 2 0 
ea9
	jsr_eval 1
	jsr_eval 0
	pushI0_pop_a1 
.o 1 1 i
e_System.Process_sreadPipeNonBlocking
.o 1 1 i
s9
.d 1 1 i
	push_b_jsr 0 e_System._Process_s_peekPipe
.o 2 0 
.d 1 0 
	push_a_jsr 0 e_Data.Error_sisError
.o 0 1 b
	jmp_false else.14
	create 
	swap_a1 
.d 2 0 
	pop_b_jsr 1 e_Data.Error_sliftError
.o 1 0 
.d 2 0 
	rtn 
else.14
.d 1 0 
	push_a_jsr 0 e_Data.Error_sfromOk
.o 1 0 
	pushI0_pop_a1 
	jmp_neIi 0 else.15
	buildAC ""
	buildh ARRAY 1
	buildh e_Data.Error_dOk 1
	put_a 1
.d 2 0 
	pop_b_rtn 1
else.15
.d 1 0 
	jsr e_Data.Error_sfromOk
.o 1 0 
	pushI0_pop_a1 
	swap_b1 
.d 1 2 ii
	jmp s10
.export e_System.Process_sreadPipeNonBlockingN
.descexp e_System.Process_dreadPipeNonBlockingN e_System.Process_nreadPipeNonBlockingN e_System.Process_lreadPipeNonBlockingN 3 0 "readPipeNonBlockingN"
.a 0 a10
.o 2 0 
e_System.Process_lreadPipeNonBlockingN
	repl_args 2 2
.o 3 0 
a10
.d 3 0 
	jsr ea10
.o 2 0 
	buildh _Tuple 2
.d 1 0 
	rtn 
.n 3 e_System.Process_dreadPipeNonBlockingN
.o 1 0 
e_System.Process_nreadPipeNonBlockingN
	push_node _cycle_in_spine 3
.d 3 0 
	jsr ea10
.o 2 0 
	fillh _Tuple 2 2
.d 1 0 
	rtn 
.o 3 0 
ea10
	jsr_eval 2
	jsr_eval 1
	jsr_eval 0
	pushI_a 1
	pushI_a 0
	pop_a 2
.o 1 2 ii
e_System.Process_sreadPipeNonBlockingN
.o 1 2 ii
s10
.d 1 2 ii
	jmp e_System._Process_s_readPipeNonBlocking
.export e_System.Process_scallProcess
.descexp e_System.Process_dcallProcess e_System.Process_ncallProcess e_System.Process_lcallProcess 4 0 "callProcess"
.a 0 a7
.o 2 0 
e_System.Process_lcallProcess
	repl_args 3 3
.o 4 0 
a7
.d 4 0 
	jsr ea7
.o 2 0 
	buildh _Tuple 2
.d 1 0 
	rtn 
.n 4 e_System.Process_dcallProcess
.o 1 0 
e_System.Process_ncallProcess
	push_node _cycle_in_spine 4
.d 4 0 
	jsr ea7
.o 2 0 
	fillh _Tuple 2 2
.d 1 0 
	rtn 
.o 4 0 
ea7
	jsr_eval 3
	jsr_eval 2
	jsr_eval 1
	jsr_eval 0
	push_array 0
	put_a 1
.o 4 0 
e_System.Process_scallProcess
.o 4 0 
s7
.d 4 0 
	jsr s1
.o 2 0 
s26
	jmp_ne_desc e_Data.Error_dOk 1 0 case.17
	repl_args 1 1
	jsr_eval 0
	push_r_args 0 0 2
.d 1 2 ii
	pop_a_jmp 1 s6
case.17
	repl_args 1 1
	push_a 0
	buildh e_Data.Error_dError 1
	put_a 1
.d 2 0 
	rtn 
.export e_System.Process_swaitForProcess
.descexp e_System.Process_dwaitForProcess e_System.Process_nwaitForProcess e_System.Process_lwaitForProcess 2 0 "waitForProcess"
.a 0 a6
.o 2 0 
e_System.Process_lwaitForProcess
	repl_args 1 1
.o 2 0 
a6
.d 2 0 
	jsr ea6
.o 2 0 
	buildh _Tuple 2
.d 1 0 
	rtn 
.n 2 e_System.Process_dwaitForProcess
.o 1 0 
e_System.Process_nwaitForProcess
	push_node _cycle_in_spine 2
.d 2 0 
	jsr ea6
.o 2 0 
	fillh _Tuple 2 2
.d 1 0 
	rtn 
.o 2 0 
ea6
	jsr_eval 1
	jsr_eval 0
	repl_r_args 0 2
.o 1 2 ii
e_System.Process_swaitForProcess
.o 1 2 ii
s6
.d 1 2 ii
	jmp e_System._Process_s_waitForProcess
.export e_System.Process_scheckProcess
.descexp e_System.Process_dcheckProcess e_System.Process_ncheckProcess e_System.Process_lcheckProcess 2 0 "checkProcess"
.a 0 a5
.o 2 0 
e_System.Process_lcheckProcess
	repl_args 1 1
.o 2 0 
a5
.d 2 0 
	jsr ea5
.o 2 0 
	buildh _Tuple 2
.d 1 0 
	rtn 
.n 2 e_System.Process_dcheckProcess
.o 1 0 
e_System.Process_ncheckProcess
	push_node _cycle_in_spine 2
.d 2 0 
	jsr ea5
.o 2 0 
	fillh _Tuple 2 2
.d 1 0 
	rtn 
.o 2 0 
ea5
	jsr_eval 1
	jsr_eval 0
	repl_r_args 0 2
.o 1 2 ii
e_System.Process_scheckProcess
.o 1 2 ii
s5
.d 1 2 ii
	jmp e_System._Process_s_checkProcess
.export e_System.Process_sdefaultPtyOptions
.descexp e_System.Process_ddefaultPtyOptions e_System.Process_ndefaultPtyOptions e_System.Process_ldefaultPtyOptions 0 0 "defaultPtyOptions"
.o 1 0 
e_System.Process_ldefaultPtyOptions
	halt
.n 0 e_System.Process_ddefaultPtyOptions
.o 1 0 
e_System.Process_ndefaultPtyOptions
	push_node _cycle_in_spine 0
.d 0 0 
	jsr ea4
.o 0 3 bbb
	fill_r e_System.Process_rProcessPtyOptions 0 3 0 0 0
.d 1 0 
	pop_b_rtn 3
.o 0 0 
ea4
.o 0 0 
e_System.Process_sdefaultPtyOptions
.o 0 0 
s4
	pushB FALSE
	pushB TRUE
	pushB TRUE
.d 0 3 bbb
	rtn 
.export e_System.Process_srunProcessPty
.descexp e_System.Process_drunProcessPty e_System.Process_nrunProcessPty e_System.Process_lrunProcessPty 5 0 "runProcessPty"
.a 0 a3
.o 2 0 
e_System.Process_lrunProcessPty
	repl_args 4 4
.o 5 0 
a3
.d 5 0 
	jsr ea3
.o 2 0 
	buildh _Tuple 2
.d 1 0 
	rtn 
.n 5 e_System.Process_drunProcessPty
.o 1 0 
e_System.Process_nrunProcessPty
	push_node _cycle_in_spine 5
.d 5 0 
	jsr ea3
.o 2 0 
	fillh _Tuple 2 2
.d 1 0 
	rtn 
.o 5 0 
ea3
	jsr_eval 4
	jsr_eval 3
	jsr_eval 2
	jsr_eval 1
	jsr_eval 0
	push_r_args 3 0 3
	push_array 0
	updates3pop_a 0 2 3 4
.o 4 3 bbb
e_System.Process_srunProcessPty
.o 4 3 bbb
s3
.d 4 0 
	pop_b_jmp 3 s2
.export e_System.Process_srunProcessIO
.descexp e_System.Process_drunProcessIO e_System.Process_nrunProcessIO e_System.Process_lrunProcessIO 4 0 "runProcessIO"
.a 0 a2
.o 2 0 
e_System.Process_lrunProcessIO
	repl_args 3 3
.o 4 0 
a2
.d 4 0 
	jsr ea2
.o 2 0 
	buildh _Tuple 2
.d 1 0 
	rtn 
.n 4 e_System.Process_drunProcessIO
.o 1 0 
e_System.Process_nrunProcessIO
	push_node _cycle_in_spine 4
.d 4 0 
	jsr ea2
.o 2 0 
	fillh _Tuple 2 2
.d 1 0 
	rtn 
.o 4 0 
ea2
	jsr_eval 3
	jsr_eval 2
	jsr_eval 1
	jsr_eval 0
	push_array 0
	put_a 1
.o 4 0 
e_System.Process_srunProcessIO
.o 4 0 
s2
	push_a 3
	pushB TRUE
.d 1 1 b
	buildh0_put_a_jsr _Nil 5 e_System._Process_s_openPipePair
.o 2 0 
.d 1 0 
	push_a_jsr 0 e_Data.Error_sisError
.o 0 1 b
	jmp_false else.18
	create 
	update_a 2 6
	dup_a 5
	updatepop_a 1 4
.d 2 0 
	jsr e_Data.Error_sliftError
.o 1 0 
.d 2 0 
	rtn 
else.18
	swap_a1 
	pushB FALSE
.d 1 1 b
	jsr e_System._Process_s_openPipePair
.o 2 0 
.d 1 0 
	push_a_jsr 0 e_Data.Error_sisError
.o 0 1 b
	jmp_false else.19
	create 
	update_a 2 7
	dup_a 6
	updatepop_a 1 5
.d 2 0 
	jsr e_Data.Error_sliftError
.o 1 0 
.d 2 0 
	rtn 
else.19
	swap_a1 
	pushB FALSE
.d 1 1 b
	jsr e_System._Process_s_openPipePair
.o 2 0 
.d 1 0 
	push_a_jsr 0 e_Data.Error_sisError
.o 0 1 b
	jmp_false else.20
	create 
	update_a 2 8
	dup_a 7
	updatepop_a 1 6
.d 2 0 
	jsr e_Data.Error_sliftError
.o 1 0 
.d 2 0 
	rtn 
else.20
	buildo1 e_Data.Error_nfromOk 0
	buildo1 e_Data.Error_nfromOk 3
	buildo1 e_Data.Error_nfromOk 5
	buildh _Tuple 3
	buildh _Just 1
	update_a 2 8
	updates4_a 0 7 6 5 4
.d 5 0 
	pop_a_jsr 4 e_System._Process_s_startProcess
.o 2 0 
.d 1 0 
	push_a_jsr 0 e_Data.Error_sisError
.o 0 1 b
	jmp_false else.21
	create 
	swap_a1 
.d 2 0 
	jsr e_Data.Error_sliftError
.o 1 0 
.d 2 0 
	rtn 
else.21
.d 1 0 
	jsr e_Data.Error_sfromOk
.o 1 0 
	push_arg 0 2 2
	jsr_eval 0
	jmp_ne_desc _Nothing 0 0 else.22
	buildAC "runProcessIO: _startProcess returned ?None for IO\n"
	updatepop_a 0 3
.d 1 0 
	jsr print_string_
.o 0 0 
	halt
	repl_args 2 2
	jsr_eval 1
	jsr_eval 0
.d 2 0 
	rtn 
else.22
	buildo1 e_System.Process_n_c;28;16;165.25 0
	push_arg 2 2 1
	buildh _Tuple 2
	buildh e_Data.Error_dOk 1
	updatepop_a 0 2
.d 2 0 
	rtn 
.export e_System.Process_d_c;28;16;165.25
.export e_System.Process_n_c;28;16;165.25
.descn e_System.Process_d_c;28;16;165.25 e_System.Process_n_c;28;16;165.25 1 0 "_c;28;16;165.25"
.n 1 e_System.Process_d_c;28;16;165.25
.o 1 0 
e_System.Process_n_c;28;16;165.25
	push_node _cycle_in_spine 1
.d 1 0 
	jsr ea25
.o 0 3 iii
	fill_r e_System.Process_rProcessIO 0 3 0 0 0
.d 1 0 
	pop_b_rtn 3
.o 1 0 
ea25
.o 1 0 
s25
	jmp_ne_desc _Just 1 0 case.24
	repl_args 1 1
	repl_r_args 0 3
.d 0 3 iii
	rtn 
case.24
	buildAC "fromJust: Nothing\n"
	put_a 1
.d 1 0 
	jsr print_string_
.o 0 0 
	halt
	repl_r_args 0 3
.d 0 3 iii
	rtn 
.export e_System.Process_srunProcess
.descexp e_System.Process_drunProcess e_System.Process_nrunProcess e_System.Process_lrunProcess 4 0 "runProcess"
.a 0 a1
.o 2 0 
e_System.Process_lrunProcess
	repl_args 3 3
.o 4 0 
a1
.d 4 0 
	jsr ea1
.o 2 0 
	buildh _Tuple 2
.d 1 0 
	rtn 
.n 4 e_System.Process_drunProcess
.o 1 0 
e_System.Process_nrunProcess
	push_node _cycle_in_spine 4
.d 4 0 
	jsr ea1
.o 2 0 
	fillh _Tuple 2 2
.d 1 0 
	rtn 
.o 4 0 
ea1
	jsr_eval 3
	jsr_eval 2
	jsr_eval 1
	jsr_eval 0
	push_array 0
	put_a 1
.o 4 0 
e_System.Process_srunProcess
.o 4 0 
s1
	buildh _Nothing 0
	push_update_a 1 2
	updates3pop_a 0 1 4 3
.d 5 0 
	jsr e_System._Process_s_startProcess
.o 2 0 
.d 1 0 
	push_a_jsr 0 e_Data.Error_sisError
.o 0 1 b
	jmp_false else.25
	create 
	swap_a1 
.d 2 0 
	jsr e_Data.Error_sliftError
.o 1 0 
.d 2 0 
	rtn 
else.25
	buildo1 e_Data.Error_nfromOk 0
	build d_S.1 -1 n_S.1
	buildh e_Data.Error_dOk 1
	put_a 1
.d 2 0 
	rtn 
.o 3 0 
s111
	jmp_ne_desc _Cons 2 0 case.27
	repl_args 2 2
	put_a 1
	jsr_eval 0
	push_a 0
	create 
	updates2_a 0 3 4
	updatepop_a 1 2
.d 2 0 
	jsr e_Data.Error_sliftError
.o 1 0 
.d 2 0 
	rtn 
case.27
	buildh e_Data.Error_dfromOk 0
	push_update_a 0 3
	build e_StdList_dmap 2 e_StdList_nmap
	buildh e_Data.Error_dOk 1
	updates2pop_a 0 2 3
.d 2 0 
	rtn 
.o 1 4 ff
s112
	jmp_ne_desc e_Data.Error_dOk 1 0 case.29
	repl_args 1 1
	jsr_eval 0
	jmp_ne_desc _Cons 2 0 case.29
	repl_args 2 2
	jsr_eval 1
	jmp_eq_desc _Cons 2 1 case.31
	pop_a_jmp 1 case.29
case.31
	push_args 1 2 2
	buildh0_dup_a _Nil 4
	updatepop_a 1 2
	jsr_eval 0
	push_a 0
	push_array 0
	updates2pop_a 0 3 4
	push2_b 3
.d 1 2 f
	jsr writeFS
.o 0 2 f
	jsr_eval 0
	push_a 0
	push_array 0
	updatepop_a 0 2
	push2_b 3
.d 1 2 f
	jsr writeFS
.o 0 2 f
	update_b 3 7
	update3pop_b 0 4
.d 0 4 ff
	rtn 
case.29
.d 0 4 ff
	pop_a_rtn 1
.impmod _system
.implab selector_m_error
