.comp 920 000011110011000
.start _nostart_
.depend "StdCharList" "20210609153507"
.depend "_SystemArray" "20210609153507"
.depend "StdArray" "20210609153507"
.depend "StdEnv" "20210609153507"
.depend "_SystemEnum" "20210609153507"
.depend "StdEnum" "20210609153507"
.depend "StdTuple" "20210609153507"
.depend "StdOrdList" "20210609153507"
.depend "Data.IntMap.Base" "20210609153506"
.depend "Text.GenJSON" "20210609153506"
.depend "StdFile" "20210609153507"
.depend "Control.Monad.Fail" "20210609153506"
.depend "Data.Traversable" "20210609153506"
.depend "StdMisc" "20210609153507"
.depend "StdOverloadedList" "20210609153507"
.depend "Data.List" "20210609153506"
.depend "Data.Foldable" "20210609153506"
.depend "StdFunctions" "20210609153507"
.depend "StdFunc" "20210609153507"
.depend "StdString" "20210609153507"
.depend "_SystemEnumStrict" "20210609153507"
.depend "_SystemStrictLists" "20210609153507"
.depend "StdStrictLists" "20210609153507"
.depend "StdGeneric" "20210609153507"
.depend "Data.GenEq" "20210609153506"
.depend "StdReal" "20210609153507"
.depend "StdChar" "20210609153507"
.depend "StdInt" "20210609153507"
.depend "StdBool" "20210609153507"
.depend "StdClass" "20210609153507"
.depend "StdList" "20210609153507"
.depend "Data.Monoid" "20210609153506"
.depend "Control.Applicative" "20210609153506"
.depend "Control.Monad" "20210609153506"
.depend "Data.Functor" "20210609153506"
.depend "StdOverloaded" "20210609153507"
.depend "_SystemDynamic" "20210609153507"
.depend "Data.IntMap.Strict" "20210609153506"
.module m_Data.IntMap.Strict "Data.IntMap.Strict" "20210609153506"
.endinfo
.impmod _system
.implab _cycle_in_spine
.implab _type_error
.implab _hnf
.impdesc e_system_dind
.implab e_system_nind e_system_eaind
.impdesc e_system_dif
.implab e_system_nif e_system_eaif
.implab e_system_sif
.impdesc e_system_dAP
.implab e_system_nAP e_system_eaAP
.implab e_system_sAP
.impdesc ARRAY
.impdesc _Nil
.impdesc _Cons
.impdesc _Conss
.implab n_Conss ea_Conss
.impdesc _Consts
.implab n_Consts ea_Consts
.impdesc _Conssts
.implab n_Conssts ea_Conssts
.impdesc _Tuple
.impdesc d_S.1
.implab n_S.1 ea_S.1
.impdesc d_S.2
.implab n_S.2 ea_S.2
.impdesc d_S.3
.implab n_S.3 ea_S.3
.impdesc d_S.4
.implab n_S.4 ea_S.4
.impdesc d_S.5
.implab n_S.5 ea_S.5
.impdesc d_S.6
.implab n_S.6 ea_S.6
.implab _driver
.impmod Data.IntMap.Base
.impdesc e_Data.IntMap.Base_dbin
.implab e_Data.IntMap.Base_sbin
.implab e_Data.IntMap.Base_snomatch
.implab e_Data.IntMap.Base_sempty
.implab e_Data.IntMap.Base_smask
.implab e_Data.IntMap.Base_sshorter
.implab e_Data.IntMap.Base_sbranchMask
.impmod Text.GenJSON
.implab e_Text.GenJSON_sJSONEncode_Int;12
.implab e_Text.GenJSON_sJSONDecode_Int;42
.impmod StdMisc
.implab e_StdMisc_sabort
.impmod StdFunctions
.impdesc e_StdFunctions_did
.impdesc e_StdFunctions_dconst
.impmod StdString
.implab e_StdString_s==;2
.impmod Data.GenEq
.implab e_Data.GenEq_sgEq_Int;7
.impmod StdInt
.implab e_StdInt_sbitand
.implab e_StdInt_s+;6
.implab e_StdInt_s==;16
.implab e_StdInt_s<;17
.impmod Data.IntMap.Base
.impdesc e_Data.IntMap.Base_dNil
.impdesc e_Data.IntMap.Base_kTip
.impdesc e_Data.IntMap.Base_kBin
.impdesc e_Data.IntMap.Base_dBin
.impmod Text.GenJSON
.impdesc e_Text.GenJSON_kJSONString
.impdesc e_Text.GenJSON_dJSONString
.implab e_Text.GenJSON_nJSONString e_Text.GenJSON_eaJSONString
.impdesc e_Text.GenJSON_kJSONArray
.impmod StdGeneric
.impdesc e_StdGeneric_dUNIT
.impdesc e_StdGeneric_dLEFT
.impdesc e_StdGeneric_dRIGHT
.impdesc e_StdGeneric_dPAIR
.impdesc e_StdGeneric_dCONS
.o 4 0 
s133
	push_args 2 2 2
	buildh0_put_a _Nil 5
	push_args 5 2 2
	buildh0_put_a _Nil 8
	jsr_eval 0
	push_a2 0 2
	jsr_eval 0
	update_a 7 9
	update_a 5 8
	update_a 3 7
	dup_a 5
	updates2_a 1 6 4
.d 3 0 
	pop_a_jsr 4 s36
.o 0 1 b
	jmp_false else.1
	push_a2 0 2
	jsr_eval 0
	update_a 1 4
	updatepop_a 0 2
	jsr_ap 2
	pushB0_pop_a1 
.d 0 1 b
	rtn 
else.1
	pushB FALSE
.d 0 1 b
	pop_a_rtn 3
.o 4 0 
s149
	push_args 2 2 2
	buildh0_put_a _Nil 5
	push_args 5 2 2
	buildh0_put_a _Nil 8
	jsr_eval 0
	push_a2 0 2
	jsr_eval 0
	update_a 3 4
	update2pop_a 0 2
.d 2 0 
	jsr s141
.o 0 1 b
	jmp_false else.2
	jsr_eval 0
	push_a2 0 1
	jsr_eval 0
	update2_a 0 6
.d 4 0 
	pop_a_jmp 4 s133
else.2
	pushB FALSE
.d 0 1 b
	pop_a_rtn 6
.o 4 0 
s148
	push_args 2 1 1
	buildh0_put_a _Nil 4
	push_args 4 1 1
	buildh0_put_a _Nil 6
	jsr_eval 0
	push_a2 0 1
	jsr_eval 0
	update2_a 0 6
.d 4 0 
	pop_a_jmp 4 s149
.o 5 0 
s147
	jmp_ne_desc e_StdGeneric_dLEFT 1 3 case.4
	push_args 3 1 1
	buildh0_put_a _Nil 5
	jmp_ne_desc e_StdGeneric_dLEFT 1 5 case.6
	push_args 5 1 1
	buildh0_put_a _Nil 7
	jsr_eval 0
	push_a2 0 1
	jsr_eval 0
	update2_a 0 7
	updatepop_a 4 6
.d 3 0 
	jmp s132
case.6
	push_args 5 1 1
	pushB FALSE
.d 0 1 b
	pop_a_rtn 7
case.4
	push_args 3 1 1
	buildh0_put_a _Nil 5
	jmp_ne_desc e_StdGeneric_dRIGHT 1 5 case.8
	push_args 5 1 1
	buildh0_put_a _Nil 7
	jsr_eval 0
	push_a2 0 1
	jsr_eval 0
	update2_a 0 7
.d 4 0 
	pop_a_jmp 5 s148
case.8
	push_args 5 1 1
	pushB FALSE
.d 0 1 b
	pop_a_rtn 7
.o 5 0 
s146
	jmp_ne_desc e_StdGeneric_dLEFT 1 3 case.10
	push_args 3 1 1
	buildh0_put_a _Nil 5
	jmp_ne_desc e_StdGeneric_dLEFT 1 5 case.12
	push_args 5 1 1
	buildh0_put_a _Nil 7
	jsr_eval 0
	push_a2 0 1
	jsr_eval 0
	update2pop_a 0 7
.d 2 0 
	jmp s130
case.12
	push_args 5 1 1
	pushB FALSE
.d 0 1 b
	pop_a_rtn 7
case.10
	push_args 3 1 1
	buildh0_put_a _Nil 5
	jmp_ne_desc e_StdGeneric_dRIGHT 1 5 case.14
	push_args 5 1 1
	buildh0_put_a _Nil 7
	jsr_eval 0
	push_a2 0 1
	jsr_eval 0
	update2_a 0 7
.d 5 0 
	pop_a_jmp 4 s147
case.14
	push_args 5 1 1
	pushB FALSE
.d 0 1 b
	pop_a_rtn 7
.o 5 0 
s145
.d 5 0 
	jmp s146
.export e_Data.IntMap.Strict_sgEq_IntMap;35
.descexp e_Data.IntMap.Strict_dgEq_IntMap;35 e_Data.IntMap.Strict_ngEq_IntMap;35 e_Data.IntMap.Strict_lgEq_IntMap;35 3 0 "gEq_IntMap;35"
.o 4 0 
e_Data.IntMap.Strict_igEq_IntMap;35
.d 3 0 
	pop_a_jmp 1 s36
.ai 0 a36 e_Data.IntMap.Strict_igEq_IntMap;35
.o 2 0 
e_Data.IntMap.Strict_lgEq_IntMap;35
	repl_args 2 2
.o 3 0 
a36
.d 3 0 
	jsr ea36
.o 0 1 b
	buildB_b 0
.d 1 0 
	pop_b_rtn 1
.n 3 e_Data.IntMap.Strict_dgEq_IntMap;35
.o 1 0 
e_Data.IntMap.Strict_ngEq_IntMap;35
	push_node _cycle_in_spine 3
.d 3 0 
	jsr ea36
.o 0 1 b
	fillB_b 0 0
.d 1 0 
	pop_b_rtn 1
.o 3 0 
ea36
	jsr_eval 2
	jsr_eval 1
.o 3 0 
e_Data.IntMap.Strict_sgEq_IntMap;35
.o 3 0 
s36
	create 
	push_a 3
.d 2 0 
	buildh0_put_a_jsr _Nil 5 s67
.o 1 0 
	create 
	push_a 3
.d 2 0 
	buildh0_put_a_jsr _Nil 5 s67
.o 1 0 
	push_a 2
	buildh e_Data.IntMap.Strict_dgEq_IntMap;35 1
	update2_a 1 4
	update_a 3 2
	updates2_a 0 3 1
.d 5 0 
	pop_a_jmp 1 s145
.o 2 0 
s141
	repl_args 2 2
	push_args 2 2 2
	buildh0_put_a _Nil 5
	jsr_eval 0
	pushI_a 0
	push_jsr_eval 2
	pushI_a 3
	updates2pop_a 2 4 5
.d 0 2 ii
	jsr e_Data.GenEq_sgEq_Int;7
.o 0 1 b
	jmp_false else.15
	jsr_eval 0
	pushI_a 0
	push_jsr_eval 1
	pushI_a 2
.d 0 2 ii
	pop_a_jmp 3 e_Data.GenEq_sgEq_Int;7
else.15
	pushB FALSE
.d 0 1 b
	pop_a_rtn 2
.o 2 0 
s130
	repl_args 1 1
	push_args 1 1 1
	buildh0_put_a _Nil 3
	jsr_eval 0
	push_a2 0 1
	jsr_eval 0
	update2pop_a 0 3
.d 2 0 
	jmp s86
.o 3 0 
s132
	push_args 1 1 1
	buildh0_put_a _Nil 3
	push_args 3 1 1
	buildh0_put_a _Nil 5
	jsr_eval 0
	push_a2 0 1
	jsr_eval 0
	update2_a 0 5
.d 3 0 
	pop_a_jmp 4 s131
.o 3 0 
s131
	push_args 1 2 2
	buildh0_put_a _Nil 4
	push_args 4 2 2
	buildh0_put_a _Nil 7
	jsr_eval 0
	pushI_a 0
	push_jsr_eval 2
	pushI_a 3
	updatepop_a 2 3
.d 0 2 ii
	jsr e_Data.GenEq_sgEq_Int;7
.o 0 1 b
	jmp_false else.16
	push_a2 0 2
	jsr_eval 0
	update_a 1 6
	update_a 3 5
	updatepop_a 0 4
	jsr_ap 2
	pushB0_pop_a1 
.d 0 1 b
	rtn 
else.16
	pushB FALSE
.d 0 1 b
	pop_a_rtn 5
.o 2 0 
s86
	pushB TRUE
.d 0 1 b
	pop_a_rtn 2
.o 3 1 b
s111
	push_update_a 0 2
	pop_b_pushB 1 FALSE
.d 2 1 b
	jsr s35
.o 2 0 
	push_a 2
	update3pop_a 0 1
.d 4 0 
	jmp s79
.o 5 0 
s129
	jmp_ne_desc _Just 1 2 case.18
	push_args 2 1 1
	buildh _Nil 0
	updates2_a 3 0 4
	jsr_eval 0
	updates2_a 1 5 4
	dup_a 3
	pushB FALSE
.d 3 1 b
	pop_a_jsr 2 s111
.o 2 0 
	push_a 2
	update3pop_a 0 1
.d 4 0 
	jmp s80
case.18
	pop_a 4
	buildh _Nothing 0
.d 2 0 
	rtn 
.o 3 1 b
s128
	push_a 2
	pop_b_pushB 1 FALSE
.d 1 1 b
	jsr s119
.o 2 0 
	swap_a 2
	exchange_a 3 1
.d 5 0 
	jmp s129
.o 4 1 b
s127
	jmp_ne_desc _Cons 2 3 case.20
	push_args 3 2 2
	jsr_eval 0
	jmp_eq_desc e_Text.GenJSON_kJSONArray 0 0 case.21
	pop_a_jmp 2 case.20
case.21
	repl_args 1 1
	jmp_eq_desc _Cons 2 0 case.22
	pop_a_jmp 2 case.20
case.22
	repl_args 2 2
	jsr_eval 0
	jmp_eq_desc e_Text.GenJSON_kJSONString 0 0 case.23
	pop_a_jmp 3 case.20
case.23
	repl_args 1 1
	push_jsr_eval 3
	push_array 0
	updates2_a_pop_a 0 2 1 1
	pop_b 1
.d 2 0 
	buildh0_put_a_jsr _Nil 5 eqAC
.o 0 1 b
	jmp_false else.24
	jsr_eval 0
	updates4_a 0 3 1 4 2
	pushB FALSE
.d 3 1 b
	pop_a_jsr 1 s128
.o 2 0 
.d 4 0 
	jmp s275
else.24
	pop_a 5
	buildh _Nothing 0
.d 2 0 
	rtn 
case.20
	pop_a 3
	buildh _Nothing 0
.d 2 0 
	pop_b_rtn 1
.o 6 1 b
s126
	push_update_a 0 1
	update_a 6 2
	pop_b_pushB 1 FALSE
.d 3 1 b
	jsr s110
.o 2 0 
.d 6 0 
	jmp s274
.o 7 1 b
s125
	push_update_a 0 6
	pop_b_pushB 1 FALSE
.d 2 1 b
	jsr s108
.o 2 0 
.d 8 0 
	jmp s273
.o 7 1 b
s124
	push_update_a 0 1
	updates4_a 6 5 4 3 2
	update_a 7 6
	pop_b_pushB 1 FALSE
.d 7 1 b
	jsr s125
.o 2 0 
.d 3 0 
	jmp s272
.export e_Data.IntMap.Strict_sJSONDecode_IntMap;34
.descexp e_Data.IntMap.Strict_dJSONDecode_IntMap;34 e_Data.IntMap.Strict_nJSONDecode_IntMap;34 e_Data.IntMap.Strict_lJSONDecode_IntMap;34 3 0 "JSONDecode_IntMap;34"
.o 3 1 b
e_Data.IntMap.Strict_iJSONDecode_IntMap;34
.d 2 1 b
	pop_a_jmp 1 s35
.ai 0 a35 e_Data.IntMap.Strict_iJSONDecode_IntMap;34
.o 2 0 
e_Data.IntMap.Strict_lJSONDecode_IntMap;34
	repl_args 2 2
.o 3 0 
a35
.d 3 0 
	jsr ea35
.o 2 0 
	buildh _Tuple 2
.d 1 0 
	rtn 
.n 3 e_Data.IntMap.Strict_dJSONDecode_IntMap;34
.o 1 0 
e_Data.IntMap.Strict_nJSONDecode_IntMap;34
	push_node _cycle_in_spine 3
.d 3 0 
	jsr ea35
.o 2 0 
	fillh _Tuple 2 2
.d 1 0 
	rtn 
.o 3 0 
ea35
	jsr_eval 2
	jsr_eval 1
	pushB_a 1
	put_a 1
.o 2 1 b
e_Data.IntMap.Strict_sJSONDecode_IntMap;34
.o 2 1 b
s35
	push_a 0
	buildh e_Data.IntMap.Strict_dJSONDecode_IntMap;34 1
	push2_a 2
	push_b 0
	buildAC "Bin"
	buildh ARRAY 1
	push_a 4
	buildAC "Tip"
	buildh ARRAY 1
	buildAC "Nil"
	buildh ARRAY 1
	update_a 5 8
	updates2_a 4 6 7
	update_a 3 5
	update3pop_a 0 2
	put_b 1
.d 7 1 b
	jsr s124
.o 2 0 
.d 2 0 
	jmp s271
.o 1 1 b
s119
	push_a 0
	pop_b_pushB 1 FALSE
.d 1 1 b
	jsr e_Text.GenJSON_sJSONDecode_Int;42
.o 2 0 
s120
	jmp_ne_desc _Just 1 0 case.26
	repl_args 1 1
	swap_a1 
	pushB FALSE
.d 1 1 b
	jsr e_Text.GenJSON_sJSONDecode_Int;42
.o 2 0 
	push_a 2
	update3pop_a 0 1
.d 4 0 
	jmp s80
case.26
	pop_a 2
	buildh _Nothing 0
.d 2 0 
	rtn 
.o 2 1 b
s108
	jmp_ne_desc _Cons 2 1 case.28
	push_args 1 2 2
	jsr_eval 0
	jmp_eq_desc e_Text.GenJSON_kJSONArray 0 0 case.29
	pop_a_jmp 2 case.28
case.29
	repl_args 1 1
	jmp_eq_desc _Cons 2 0 case.30
	pop_a_jmp 2 case.28
case.30
	repl_args 2 2
	jsr_eval 0
	jmp_eq_desc e_Text.GenJSON_kJSONString 0 0 case.31
	pop_a_jmp 3 case.28
case.31
	repl_args 1 1
	push_jsr_eval 3
	push_array 0
	updates2_a_pop_a 0 2 1 1
	pop_b 1
.d 2 0 
	buildh0_put_a_jsr _Nil 5 eqAC
.o 0 1 b
	jmp_false else.32
	jsr_eval 0
	update2pop_a 0 1
	pushB FALSE
.d 1 1 b
	jsr s77
.o 2 0 
.d 4 0 
	jmp s264
else.32
	pop_a 3
	buildh _Nothing 0
.d 2 0 
	rtn 
case.28
	pop_a 1
	buildh _Nothing 0
.d 2 0 
	pop_b_rtn 1
.o 3 1 b
s110
	jmp_ne_desc _Cons 2 2 case.34
	push_args 2 2 2
	jsr_eval 0
	jmp_eq_desc e_Text.GenJSON_kJSONArray 0 0 case.35
	pop_a_jmp 2 case.34
case.35
	repl_args 1 1
	jmp_eq_desc _Cons 2 0 case.36
	pop_a_jmp 2 case.34
case.36
	repl_args 2 2
	jsr_eval 0
	jmp_eq_desc e_Text.GenJSON_kJSONString 0 0 case.37
	pop_a_jmp 3 case.34
case.37
	repl_args 1 1
	push_jsr_eval 3
	push_array 0
	updates2_a_pop_a 0 2 1 1
	pop_b 1
.d 2 0 
	buildh0_put_a_jsr _Nil 5 eqAC
.o 0 1 b
	jmp_false else.38
	jsr_eval 0
	push_a2 0 3
	jsr_eval 0
	pushB FALSE
	update_a 3 5
	update2pop_a 0 3
.d 2 1 b
	jsr s109
.o 2 0 
.d 4 0 
	jmp s262
else.38
	pop_a 4
	buildh _Nothing 0
.d 2 0 
	rtn 
case.34
	pop_a 2
	buildh _Nothing 0
.d 2 0 
	pop_b_rtn 1
.o 2 1 b
s109
	push_a 1
	pop_b_pushB 1 FALSE
.d 1 1 b
	jsr e_Text.GenJSON_sJSONDecode_Int;42
.o 2 0 
	push_a 2
	update3pop_a 0 1
.d 4 0 
	jmp s79
.o 2 0 
s81
	jmp_ne_desc _Just 1 0 case.40
	repl_args 1 1
	create 
	swap_a1 
.d 2 0 
	jsr s66
.o 1 0 
	fillh _Just 1 1
.d 1 0 
	rtn 
case.40
	fillh _Nothing 0 1
.d 1 0 
	pop_a_rtn 1
.o 2 0 
s66
	jmp_ne_desc e_StdGeneric_dLEFT 1 0 case.42
	repl_args 1 1
	jsr_eval 0
	repl_args 1 1
	jsr_eval 0
	fillh e_Data.IntMap.Base_dNil 0 1
.d 1 0 
	pop_a_rtn 1
case.42
	repl_args 1 1
	jsr_eval 0
	jmp_ne_desc e_StdGeneric_dLEFT 1 0 case.44
	repl_args 1 1
	jsr_eval 0
	repl_args 1 1
	jsr_eval 0
	repl_args 2 2
	jsr_eval 0
	pushI_a 0
	push_a 1
	fill_r e_Data.IntMap.Base_kTip 1 1 3 0 0
.d 1 0 
	pop_ab_rtn 3 1
case.44
	repl_args 1 1
	jsr_eval 0
	repl_args 1 1
	jsr_eval 0
	repl_args 2 2
	jsr_eval 0
	repl_args 2 2
	jsr_eval 2
	push_args 2 2 2
	buildh _Nil 0
	updates2_a 2 0 5
	jsr_eval 0
	push_jsr_eval 1
	push_jsr_eval 5
	pushI_a 6
	update_a 5 0
	jsr_eval 0
	pushI_a 5
	pop_a 1
	fill_r e_Data.IntMap.Base_kBin 2 2 7 0 0
.d 1 0 
	pop_ab_rtn 7 2
.o 1 1 b
s77
	buildh e_StdGeneric_dUNIT 0
	buildh _Just 1
.d 2 0 
	pop_b_rtn 1
.o 4 0 
s79
	jmp_ne_desc _Just 1 1 case.46
	push_args 1 1 1
	buildh _Nil 0
	updates2_a 4 0 3
	buildB FALSE
	update2_a 1 4
	updates2_a_pop_a 0 3 2 2
	jsr_ap 2
	repl_args 2 2
	jsr_eval 1
	jsr_eval 0
	push_a 2
	update3pop_a 0 1
.d 4 0 
	jmp s80
case.46
	pop_a 3
	buildh _Nothing 0
.d 2 0 
	rtn 
.o 4 0 
s80
	jmp_ne_desc _Just 1 1 case.48
	push_args 1 1 1
	buildh _Nil 0
	push_a 2
	updates2_a 2 1 4
	buildh e_StdGeneric_dPAIR 2
	buildh _Just 1
	updates2pop_a 0 4 5
.d 2 0 
	rtn 
case.48
	pop_a 3
	buildh _Nothing 0
.d 2 0 
	rtn 
.o 4 1 b
s91
	push_args 2 2 2
	buildh _Nil 0
	updates2_a 2 0 5
	buildB FALSE
	updates2_a 1 4 6
	dup_a 3
	push_a 5
	updates2pop_a 0 3 6
	pop_b 1
	jsr_ap 2
	push_jsr_eval 1
	create 
	pushB FALSE
	push_a2 4 1
	updates2_a_pop_a 0 2 3 1
	buildh0_dup2_a _Nil 5
.d 3 1 b
	pop_a_jsr 1 s34
.o 1 0 
	update2pop_a 0 2
.d 3 0 
	jmp s73
.export e_Data.IntMap.Strict_dJSONEncode_PAIR;252.107
.export e_Data.IntMap.Strict_nJSONEncode_PAIR;252.107
.descn e_Data.IntMap.Strict_dJSONEncode_PAIR;252.107 e_Data.IntMap.Strict_nJSONEncode_PAIR;252.107 4 0 "JSONEncode_PAIR;252.107"
.n 4 e_Data.IntMap.Strict_dJSONEncode_PAIR;252.107 ea107
.o 1 0 
e_Data.IntMap.Strict_nJSONEncode_PAIR;252.107
	push_node _cycle_in_spine 4
.o 5 0 
ea107
	jsr_eval 3
	jsr_eval 1
	pushB_a 2
	update2pop_a 0 1
.o 4 1 b
s107
	push_args 2 2 2
	buildh _Nil 0
	updates2_a 2 0 5
	jsr_eval 0
	create 
	pushB FALSE
	update_a 2 6
	updates2_a 0 5 3
	updates2_a_pop_a 1 4 2 2
	put_b 1
.d 4 1 b
	jsr s91
.o 1 0 
	push_jsr_eval 1
	create 
	pushB FALSE
	swap_a1 
.d 2 1 b
	buildh0_put_a_jsr _Nil 4 s99
.o 1 0 
	update2pop_a 0 1
.d 3 0 
	jmp s73
.o 5 1 b
s106
	push_args 3 1 1
	buildh0_put_a _Nil 5
	buildh _Nil 0
	push_a 1
	buildB FALSE
	push2_a 6
	build e_Data.IntMap.Strict_dJSONEncode_PAIR;252.107 4 e_Data.IntMap.Strict_nJSONEncode_PAIR;252.107
	buildo1 e_Text.GenJSON_nJSONString 3
	buildh _Cons 2
	buildhr e_Text.GenJSON_kJSONArray 1 0
	fillh _Cons 2 7
.d 1 0 
	pop_ab_rtn 5 1
.o 7 1 b
s105
	jmp_ne_desc e_StdGeneric_dLEFT 1 5 case.50
	push_args 5 1 1
	buildh0_put_a _Nil 7
	jsr_eval 0
	dup_a 6
	update2pop_a 1 4
	pop_b_pushB 1 FALSE
.d 4 1 b
	jmp s90
case.50
	push_args 5 1 1
	buildh0_put_a _Nil 7
	jsr_eval 0
	dup_a 6
	pop_b_pushB 1 FALSE
.d 5 1 b
	pop_a_jmp 3 s106
.o 8 1 b
s104
	jmp_ne_desc e_StdGeneric_dLEFT 1 6 case.52
	push_args 6 1 1
	buildh0_put_a _Nil 8
	jsr_eval 0
	dup_a 7
	updatepop_a 1 6
	pop_b_pushB 1 FALSE
.d 3 1 b
	jmp s88
case.52
	push_args 6 1 1
	buildh0_put_a _Nil 8
	jsr_eval 0
	dup_a 7
	pop_b_pushB 1 FALSE
.d 7 1 b
	pop_a_jmp 2 s105
.o 8 1 b
s103
	pop_b_pushB 1 FALSE
.d 8 1 b
	jmp s104
.export e_Data.IntMap.Strict_sJSONEncode_IntMap;33
.export e_Data.IntMap.Strict_eaJSONEncode_IntMap;33
.descexp e_Data.IntMap.Strict_dJSONEncode_IntMap;33 e_Data.IntMap.Strict_nJSONEncode_IntMap;33 e_Data.IntMap.Strict_lJSONEncode_IntMap;33 3 0 "JSONEncode_IntMap;33"
.o 4 1 b
e_Data.IntMap.Strict_iJSONEncode_IntMap;33
.d 3 1 b
	pop_a_jmp 1 s34
.ai 3 e_Data.IntMap.Strict_eaJSONEncode_IntMap;33 e_Data.IntMap.Strict_iJSONEncode_IntMap;33
.o 2 0 
e_Data.IntMap.Strict_lJSONEncode_IntMap;33
	push_args 0 2 2
	update_a 3 2
	create 
.d 4 0 
	put_a_jmp 4 e_Data.IntMap.Strict_eaJSONEncode_IntMap;33
.n 3 e_Data.IntMap.Strict_dJSONEncode_IntMap;33 e_Data.IntMap.Strict_eaJSONEncode_IntMap;33
.o 1 0 
e_Data.IntMap.Strict_nJSONEncode_IntMap;33
	push_node _cycle_in_spine 3
.o 4 0 
e_Data.IntMap.Strict_eaJSONEncode_IntMap;33
	jsr_eval 2
	jsr_eval 1
	pushB_a 1
	put_a 1
.o 3 1 b
e_Data.IntMap.Strict_sJSONEncode_IntMap;33
.o 3 1 b
s34
	create 
	push_a 2
	update3pop_a 0 1
.d 2 0 
	jsr s67
.o 1 0 
	push_a 1
	buildh e_Data.IntMap.Strict_dJSONEncode_IntMap;33 1
	push_ab 2 0
	buildAC "Bin"
	buildh ARRAY 1
	push_a 4
	buildAC "Tip"
	buildh ARRAY 1
	buildAC "Nil"
	buildh ARRAY 1
	update4_a 3 4
	update3pop_a 0 1
.d 8 1 b
	put_b_jmp 1 s103
.o 2 1 b
s99
	repl_args 2 2
	push_jsr_eval 1
	pushI_a 2
	pop_a 1
	create 
	put_b 1
	pushB FALSE
	update2pop_a 0 1
.d 1 2 bi
	jsr e_Text.GenJSON_sJSONEncode_Int;12
.o 1 0 
	push_jsr_eval 1
	pushI_a 2
	pop_a 1
	create 
	pushB FALSE
.d 1 2 bi
	buildh0_put_a_jsr _Nil 3 e_Text.GenJSON_sJSONEncode_Int;12
.o 1 0 
	update2pop_a 0 1
.d 3 0 
	jmp s73
.o 3 1 b
s88
	push_args 1 1 1
	buildh0_put_a _Nil 3
	buildh _Nil 0
	push_a 1
	buildB FALSE
	build e_Data.IntMap.Strict_dJSONEncode_UNIT;78.71 2 e_Data.IntMap.Strict_nJSONEncode_UNIT;78.71
	buildo1 e_Text.GenJSON_nJSONString 3
	buildh _Cons 2
	buildhr e_Text.GenJSON_kJSONArray 1 0
	fillh _Cons 2 5
.d 1 0 
	pop_ab_rtn 3 1
.o 4 1 b
s90
	push_args 2 1 1
	buildh0_put_a _Nil 4
	buildh _Nil 0
	push_a 1
	buildB FALSE
	push_a 5
	build e_Data.IntMap.Strict_dJSONEncode_PAIR;234.89 3 e_Data.IntMap.Strict_nJSONEncode_PAIR;234.89
	buildo1 e_Text.GenJSON_nJSONString 3
	buildh _Cons 2
	buildhr e_Text.GenJSON_kJSONArray 1 0
	fillh _Cons 2 6
.d 1 0 
	pop_ab_rtn 4 1
.export e_Data.IntMap.Strict_dJSONEncode_PAIR;234.89
.export e_Data.IntMap.Strict_nJSONEncode_PAIR;234.89
.descn e_Data.IntMap.Strict_dJSONEncode_PAIR;234.89 e_Data.IntMap.Strict_nJSONEncode_PAIR;234.89 3 0 "JSONEncode_PAIR;234.89"
.n 3 e_Data.IntMap.Strict_dJSONEncode_PAIR;234.89 ea89
.o 1 0 
e_Data.IntMap.Strict_nJSONEncode_PAIR;234.89
	push_node _cycle_in_spine 3
.o 4 0 
ea89
	jsr_eval 2
	jsr_eval 0
	pushB_a 1
	put_a 1
.o 3 1 b
s89
	push_args 1 2 2
	buildh _Nil 0
	updates2_a 2 0 4
	buildB FALSE
	update_a 2 5
	dup_a 3
	updates2_a_pop_a 1 4 2 2
	pop_b 1
	jsr_ap 2
	push_jsr_eval 1
	pushI_a 2
	pop_a 1
	create 
	pushB FALSE
.d 1 2 bi
	buildh0_put_a_jsr _Nil 3 e_Text.GenJSON_sJSONEncode_Int;12
.o 1 0 
	update2pop_a 0 1
.d 3 0 
	jmp s73
.export e_Data.IntMap.Strict_dJSONEncode_UNIT;78.71
.export e_Data.IntMap.Strict_nJSONEncode_UNIT;78.71
.descn e_Data.IntMap.Strict_dJSONEncode_UNIT;78.71 e_Data.IntMap.Strict_nJSONEncode_UNIT;78.71 2 0 "JSONEncode_UNIT;78.71"
.n 2 e_Data.IntMap.Strict_dJSONEncode_UNIT;78.71 ea71
.o 1 0 
e_Data.IntMap.Strict_nJSONEncode_UNIT;78.71
	push_node _cycle_in_spine 2
.o 3 0 
ea71
	jsr_eval 1
	pushB0_pop_a1 
.o 2 1 b
s71
	fillh _Nil 0 1
.d 1 0 
	pop_ab_rtn 1 1
.export e_Data.IntMap.Strict_d++;80.73
.export e_Data.IntMap.Strict_n++;80.73
.descn e_Data.IntMap.Strict_d++;80.73 e_Data.IntMap.Strict_n++;80.73 2 0 "++;80.73"
.n 2 e_Data.IntMap.Strict_d++;80.73 ea73
.o 1 0 
e_Data.IntMap.Strict_n++;80.73
	push_node _cycle_in_spine 2
.o 3 0 
ea73
	jsr_eval 0
.o 3 0 
s73
	jmp_ne_desc _Cons 2 0 case.54
	repl_args 2 2
	push2_a 2
	build e_Data.IntMap.Strict_d++;80.73 2 e_Data.IntMap.Strict_n++;80.73
	push_a 1
	fillh _Cons 2 5
.d 1 0 
	pop_a_rtn 3
case.54
	fill_a 1 2
.d 1 0 
	pop_a_rtn 2
.o 2 0 
s67
	pushD_a 0
	jmpD ea e_Data.IntMap.Base_kTip 0 case.56 case.57
case.55
	pop_b 1
	buildh e_StdGeneric_dUNIT 0
	buildh e_StdGeneric_dCONS 1
	fillh e_StdGeneric_dLEFT 1 2
.d 1 0 
	pop_a_rtn 1
case.56
	pop_b 1
	repl_r_args 1 1
	push_a 0
	buildI_b 0
	buildh e_StdGeneric_dPAIR 2
	buildh e_StdGeneric_dCONS 1
	buildh e_StdGeneric_dLEFT 1
	fillh e_StdGeneric_dRIGHT 1 2
.d 1 0 
	pop_ab_rtn 1 1
case.57
	pop_b 1
	repl_r_args 2 2
	buildho2 e_StdGeneric_dPAIR 0 1
	buildI_b 1
	buildI_b 0
	buildh e_StdGeneric_dPAIR 2
	buildh e_StdGeneric_dPAIR 2
	buildh e_StdGeneric_dCONS 1
	buildh e_StdGeneric_dRIGHT 1
	fillh e_StdGeneric_dRIGHT 1 3
.d 1 0 
	pop_ab_rtn 2 2
.export e_Data.IntMap.Strict_sfromListWith
.export e_Data.IntMap.Strict_eafromListWith
.descexp e_Data.IntMap.Strict_dfromListWith e_Data.IntMap.Strict_nfromListWith e_Data.IntMap.Strict_lfromListWith 2 0 "fromListWith"
.a 2 e_Data.IntMap.Strict_eafromListWith
.o 2 0 
e_Data.IntMap.Strict_lfromListWith
	push_args 0 1 1
	update_a 2 1
	create 
.d 3 0 
	put_a_jmp 3 e_Data.IntMap.Strict_eafromListWith
.n 2 e_Data.IntMap.Strict_dfromListWith e_Data.IntMap.Strict_eafromListWith
.o 1 0 
e_Data.IntMap.Strict_nfromListWith
	push_node _cycle_in_spine 2
.o 3 0 
e_Data.IntMap.Strict_eafromListWith
	jsr_eval 1
	jsr_eval 0
.o 3 0 
e_Data.IntMap.Strict_sfromListWith
.o 3 0 
s33
	push_a 0
	buildh e_Data.IntMap.Strict_d\;374;38;58.59 1
.d 3 0 
	put_a_jmp 1 s43
.o 3 0 
s43
	create 
.d 1 0 
	jsr e_Data.IntMap.Base_sempty
.o 1 0 
	push_a 1
	buildh e_Data.IntMap.Strict_dins;59.60 1
	update2pop_a 0 1
.d 3 0 
	jsr s23
.o 1 0 
.d 1 0 
	fill_a01_pop_rtn 
.export e_Data.IntMap.Strict_dins;59.60
.desc e_Data.IntMap.Strict_dins;59.60 _hnf l60 3 0 "ins;59.60"
.a 3 ea60
.o 2 0 
l60
	push_args 0 2 2
	update_a 3 2
	create 
	put_a 4
.o 4 0 
ea60
	push_jsr_eval 2
	repl_args 2 2
	jsr_eval 1
	jsr_eval 0
	jsr_eval 3
	pushI_a 0
	update_a 1 4
	pop_a 2
.o 4 1 i
s60
	exchange_a 2 1
.d 4 1 i
	jmp s39
.export e_Data.IntMap.Strict_d\;374;38;58.59
.desc e_Data.IntMap.Strict_d\;374;38;58.59 _hnf l59 4 0 "\;374;38;58.59"
.a 0 ea59
.o 2 0 
l59
	repl_args 3 3
.o 4 0 
ea59
.o 4 0 
s59
	put_a 1
	jmp_ap 2
.export e_Data.IntMap.Strict_sfromList
.export e_Data.IntMap.Strict_eafromList
.descexp e_Data.IntMap.Strict_dfromList e_Data.IntMap.Strict_nfromList e_Data.IntMap.Strict_lfromList 1 0 "fromList"
.o 2 0 
e_Data.IntMap.Strict_lfromList
	update_a 1 0
	create 
.d 2 0 
	put_a_jmp 2 e_Data.IntMap.Strict_eafromList
.n 1 e_Data.IntMap.Strict_dfromList e_Data.IntMap.Strict_eafromList
.o 1 0 
e_Data.IntMap.Strict_nfromList
	push_node _cycle_in_spine 1
.o 2 0 
e_Data.IntMap.Strict_eafromList
	jsr_eval 0
.o 2 0 
e_Data.IntMap.Strict_sfromList
.o 2 0 
s32
	create 
.d 1 0 
	jsr e_Data.IntMap.Base_sempty
.o 1 0 
	buildh e_Data.IntMap.Strict_dins;57.58 0
.d 3 0 
	jsr s23
.o 1 0 
.d 1 0 
	fill_a01_pop_rtn 
.export e_Data.IntMap.Strict_dins;57.58
.desc e_Data.IntMap.Strict_dins;57.58 _hnf l58 2 0 "ins;57.58"
.a 2 ea58
.o 2 0 
l58
	push_args 0 1 1
	update_a 2 1
	create 
	put_a 3
.o 3 0 
ea58
	push_jsr_eval 1
	repl_args 2 2
	jsr_eval 1
	jsr_eval 0
	jsr_eval 2
	pushI_a 0
	update_a 1 3
	pop_a 2
.o 3 1 i
s58
	swap_a1 
.d 3 1 i
	jmp s6
.export e_Data.IntMap.Strict_stoList
.export e_Data.IntMap.Strict_eatoList
.descexp e_Data.IntMap.Strict_dtoList e_Data.IntMap.Strict_ntoList e_Data.IntMap.Strict_ltoList 1 0 "toList"
.o 2 0 
e_Data.IntMap.Strict_ltoList
	update_a 1 0
	create 
.d 2 0 
	put_a_jmp 2 e_Data.IntMap.Strict_eatoList
.n 1 e_Data.IntMap.Strict_dtoList e_Data.IntMap.Strict_eatoList
.o 1 0 
e_Data.IntMap.Strict_ntoList
	push_node _cycle_in_spine 1
.o 2 0 
e_Data.IntMap.Strict_eatoList
	jsr_eval 0
.o 2 0 
e_Data.IntMap.Strict_stoList
.o 2 0 
s30
.d 2 0 
	jmp s31
.export e_Data.IntMap.Strict_stoAscList
.export e_Data.IntMap.Strict_eatoAscList
.descexp e_Data.IntMap.Strict_dtoAscList e_Data.IntMap.Strict_ntoAscList e_Data.IntMap.Strict_ltoAscList 1 0 "toAscList"
.o 2 0 
e_Data.IntMap.Strict_ltoAscList
	update_a 1 0
	create 
.d 2 0 
	put_a_jmp 2 e_Data.IntMap.Strict_eatoAscList
.n 1 e_Data.IntMap.Strict_dtoAscList e_Data.IntMap.Strict_eatoAscList
.o 1 0 
e_Data.IntMap.Strict_ntoAscList
	push_node _cycle_in_spine 1
.o 2 0 
e_Data.IntMap.Strict_eatoAscList
	jsr_eval 0
.o 2 0 
e_Data.IntMap.Strict_stoAscList
.o 2 0 
s31
	buildh _Nil 0
	buildh e_Data.IntMap.Strict_d\;489;29;64.65 0
.d 3 0 
	jsr s24
.o 1 0 
.d 1 0 
	fill_a01_pop_rtn 
.export e_Data.IntMap.Strict_d\;489;29;64.65
.desc e_Data.IntMap.Strict_d\;489;29;64.65 _hnf l65 3 0 "\;489;29;64.65"
.a 3 ea65
.o 2 0 
l65
	push_args 0 2 2
	update_a 3 2
	create 
	put_a 4
.o 4 0 
ea65
.o 4 0 
s65
	buildho2 _Tuple 0 1
	push_update_a 0 3
	fillh _Cons 2 5
.d 1 0 
	pop_a_rtn 3
.export e_Data.IntMap.Strict_smapSt
.descexp e_Data.IntMap.Strict_dmapSt e_Data.IntMap.Strict_nmapSt e_Data.IntMap.Strict_lmapSt 3 0 "mapSt"
.a 0 a29
.o 2 0 
e_Data.IntMap.Strict_lmapSt
	repl_args 2 2
.o 3 0 
a29
.d 3 0 
	jsr ea29
.o 2 0 
	buildh _Tuple 2
.d 1 0 
	rtn 
.n 3 e_Data.IntMap.Strict_dmapSt
.o 1 0 
e_Data.IntMap.Strict_nmapSt
	push_node _cycle_in_spine 3
.d 3 0 
	jsr ea29
.o 2 0 
	fillh _Tuple 2 2
.d 1 0 
	rtn 
.o 3 0 
ea29
	jsr_eval 2
	jsr_eval 1
	jsr_eval 0
.o 3 0 
e_Data.IntMap.Strict_smapSt
.o 3 0 
s29
	pushD_a 1
	jmpD ea e_Data.IntMap.Base_kTip 0 case.59 case.60
case.58
	pop_b 1
	pop_a 2
	buildh e_Data.IntMap.Base_dNil 0
.d 2 0 
	rtn 
case.59
	pop_b 1
	push_r_args 1 1 1
	put_a 2
	jsr_ap 2
	push_arg 0 2 2
	jsr_eval 0
	push_arg 1 2 1
	push_b 0
	buildhr e_Data.IntMap.Base_kTip 1 1
	update2pop_a 0 1
.d 2 0 
	pop_b_rtn 1
case.60
	pop_b 1
	push_r_args 1 2 2
	updates3_a 2 0 1 3
	buildh _Nil 0
	exchange_a 5 3
.d 3 0 
	pop_a_jsr 1 s29
.o 2 0 
	swap_a 3
	exchange_a 2 1
.d 3 0 
	jsr s29
.o 2 0 
	push_a2 0 2
	push2_b 1
	buildhr e_Data.IntMap.Base_kBin 2 2
	updates2pop_a 0 2 3
.d 2 0 
	pop_b_rtn 2
.export e_Data.IntMap.Strict_smapWithKey
.export e_Data.IntMap.Strict_eamapWithKey
.descexp e_Data.IntMap.Strict_dmapWithKey e_Data.IntMap.Strict_nmapWithKey e_Data.IntMap.Strict_lmapWithKey 2 0 "mapWithKey"
.a 2 e_Data.IntMap.Strict_eamapWithKey
.o 2 0 
e_Data.IntMap.Strict_lmapWithKey
	push_args 0 1 1
	update_a 2 1
	create 
.d 3 0 
	put_a_jmp 3 e_Data.IntMap.Strict_eamapWithKey
.n 2 e_Data.IntMap.Strict_dmapWithKey e_Data.IntMap.Strict_eamapWithKey
.o 1 0 
e_Data.IntMap.Strict_nmapWithKey
	push_node _cycle_in_spine 2
.o 3 0 
e_Data.IntMap.Strict_eamapWithKey
	jsr_eval 1
	jsr_eval 0
.o 3 0 
e_Data.IntMap.Strict_smapWithKey
.o 3 0 
s28
	swap_a1 
s165
	pushD_a 0
	jmpD eb e_Data.IntMap.Base_kTip 0 case.62 case.63
case.61
	pop_b 1
	repl_r_args 2 2
	create 
	push2_a 3
	updates3_a 0 2 3 4
.d 3 0 
	pop_a_jsr 1 s28
.o 1 0 
	create 
	push_a2 2 3
	buildh0_dup2_a _Nil 5
.d 3 0 
	pop_a_jsr 1 s28
.o 1 0 
	push2_b 1
	fill_r e_Data.IntMap.Base_kBin 2 2 4 0 0
.d 1 0 
	pop_ab_rtn 4 4
case.62
	pop_b 1
	repl_r_args 1 1
	push_a2 0 1
	push_b 0
	build_u e_Data.IntMap.Strict_d_f2.285 2 1 e_Data.IntMap.Strict_n_f2.285
	push_b 0
	fill_r e_Data.IntMap.Base_kTip 1 1 3 0 0
.d 1 0 
	pop_ab_rtn 3 2
case.63
	pop_b 1
	fillh e_Data.IntMap.Base_dNil 0 2
.d 1 0 
	pop_a_rtn 2
.o 3 0 
s165.2
	pushD_a 0
	jmpD eb e_Data.IntMap.Base_kTip 0 case.65 case.66
case.64
	pop_b 1
	repl_r_args 2 2
	create 
	push2_a 3
	updates3_a 0 2 3 4
.d 3 0 
	pop_a_jsr 1 s28
.o 1 0 
	create 
	push_a2 2 3
	buildh0_dup2_a _Nil 5
.d 3 0 
	pop_a_jsr 1 s28
.o 1 0 
	push2_b 1
	fill_r e_Data.IntMap.Base_kBin 2 2 4 0 0
.d 1 0 
	pop_ab_rtn 4 4
case.65
	pop_b 1
	repl_r_args 1 1
	push_a2 0 1
	push_b 0
	build_u e_Data.IntMap.Strict_d_f2.285 2 1 e_Data.IntMap.Strict_n_f2.285
	push_b 0
	fill_r e_Data.IntMap.Base_kTip 1 1 3 0 0
.d 1 0 
	pop_ab_rtn 3 2
case.66
	pop_b 1
	fillh e_Data.IntMap.Base_dNil 0 2
.d 1 0 
	pop_a_rtn 2
.export e_Data.IntMap.Strict_d_f2.285
.export e_Data.IntMap.Strict_n_f2.285
.descn e_Data.IntMap.Strict_d_f2.285 e_Data.IntMap.Strict_n_f2.285 3 0 "_f2.285"
.nu 2 1 e_Data.IntMap.Strict_d_f2.285 _
.o 1 0 
e_Data.IntMap.Strict_n_f2.285
	push_node_u _cycle_in_spine 2 1
.o 3 1 i
ea285
.o 3 1 i
s285
	push2_a 1
	jsr_eval 0
	buildI_b 0
	update_a 2 4
	dup_a 3
	updatepop_a 1 2
	pop_b 1
	jsr_ap 2
.d 1 0 
	fill_a01_pop_rtn 
.export e_Data.IntMap.Strict_smap
.export e_Data.IntMap.Strict_eamap
.descexp e_Data.IntMap.Strict_dmap e_Data.IntMap.Strict_nmap e_Data.IntMap.Strict_lmap 2 0 "map"
.a 2 e_Data.IntMap.Strict_eamap
.o 2 0 
e_Data.IntMap.Strict_lmap
	push_args 0 1 1
	update_a 2 1
	create 
.d 3 0 
	put_a_jmp 3 e_Data.IntMap.Strict_eamap
.n 2 e_Data.IntMap.Strict_dmap e_Data.IntMap.Strict_eamap
.o 1 0 
e_Data.IntMap.Strict_nmap
	push_node _cycle_in_spine 2
.o 3 0 
e_Data.IntMap.Strict_eamap
	jsr_eval 1
	jsr_eval 0
.o 3 0 
e_Data.IntMap.Strict_smap
.o 3 0 
s27
	swap_a1 
s164
	pushD_a 0
	jmpD eb e_Data.IntMap.Base_kTip 0 case.68 case.69
case.67
	pop_b 1
	repl_r_args 2 2
	create 
	push2_a 3
	updates3_a 0 2 3 4
.d 3 0 
	pop_a_jsr 1 s27
.o 1 0 
	create 
	push_a2 2 3
	buildh0_dup2_a _Nil 5
.d 3 0 
	pop_a_jsr 1 s27
.o 1 0 
	push2_b 1
	fill_r e_Data.IntMap.Base_kBin 2 2 4 0 0
.d 1 0 
	pop_ab_rtn 4 4
case.68
	pop_b 1
	repl_r_args 1 1
	push_a2 0 1
	build e_system_dAP 2 e_system_nAP
	push_b 0
	fill_r e_Data.IntMap.Base_kTip 1 1 3 0 0
.d 1 0 
	pop_ab_rtn 3 2
case.69
	pop_b 1
	fillh e_Data.IntMap.Base_dNil 0 2
.d 1 0 
	pop_a_rtn 2
.o 3 0 
s164.2
	pushD_a 0
	jmpD eb e_Data.IntMap.Base_kTip 0 case.71 case.72
case.70
	pop_b 1
	repl_r_args 2 2
	create 
	push2_a 3
	updates3_a 0 2 3 4
.d 3 0 
	pop_a_jsr 1 s27
.o 1 0 
	create 
	push_a2 2 3
	buildh0_dup2_a _Nil 5
.d 3 0 
	pop_a_jsr 1 s27
.o 1 0 
	push2_b 1
	fill_r e_Data.IntMap.Base_kBin 2 2 4 0 0
.d 1 0 
	pop_ab_rtn 4 4
case.71
	pop_b 1
	repl_r_args 1 1
	push_a2 0 1
	build e_system_dAP 2 e_system_nAP
	push_b 0
	fill_r e_Data.IntMap.Base_kTip 1 1 3 0 0
.d 1 0 
	pop_ab_rtn 3 2
case.72
	pop_b 1
	fillh e_Data.IntMap.Base_dNil 0 2
.d 1 0 
	pop_a_rtn 2
.export e_Data.IntMap.Strict_sunions
.export e_Data.IntMap.Strict_eaunions
.descexp e_Data.IntMap.Strict_dunions e_Data.IntMap.Strict_nunions e_Data.IntMap.Strict_lunions 1 0 "unions"
.o 2 0 
e_Data.IntMap.Strict_lunions
	update_a 1 0
	create 
.d 2 0 
	put_a_jmp 2 e_Data.IntMap.Strict_eaunions
.n 1 e_Data.IntMap.Strict_dunions e_Data.IntMap.Strict_eaunions
.o 1 0 
e_Data.IntMap.Strict_nunions
	push_node _cycle_in_spine 1
.o 2 0 
e_Data.IntMap.Strict_eaunions
	jsr_eval 0
.o 2 0 
e_Data.IntMap.Strict_sunions
.o 2 0 
s26
	create 
.d 1 0 
	jsr e_Data.IntMap.Base_sempty
.o 1 0 
	buildh e_Data.IntMap.Strict_dunion 0
.d 3 0 
	jsr s23
.o 1 0 
.d 1 0 
	fill_a01_pop_rtn 
.export e_Data.IntMap.Strict_sunion
.export e_Data.IntMap.Strict_eaunion
.descexp e_Data.IntMap.Strict_dunion e_Data.IntMap.Strict_nunion e_Data.IntMap.Strict_lunion 2 0 "union"
.a 2 e_Data.IntMap.Strict_eaunion
.o 2 0 
e_Data.IntMap.Strict_lunion
	push_args 0 1 1
	update_a 2 1
	create 
.d 3 0 
	put_a_jmp 3 e_Data.IntMap.Strict_eaunion
.n 2 e_Data.IntMap.Strict_dunion e_Data.IntMap.Strict_eaunion
.o 1 0 
e_Data.IntMap.Strict_nunion
	push_node _cycle_in_spine 2
.o 3 0 
e_Data.IntMap.Strict_eaunion
	jsr_eval 1
	jsr_eval 0
.o 3 0 
e_Data.IntMap.Strict_sunion
.o 3 0 
s25
	buildh e_StdFunctions_did 0
	buildh e_StdFunctions_did 0
	buildh e_StdFunctions_dconst 0
	buildh e_Data.IntMap.Base_dBin 0
.d 7 0 
	jmp s46
.export e_Data.IntMap.Strict_smergeWithKey
.export e_Data.IntMap.Strict_eamergeWithKey
.descexp e_Data.IntMap.Strict_dmergeWithKey e_Data.IntMap.Strict_nmergeWithKey e_Data.IntMap.Strict_lmergeWithKey 5 0 "mergeWithKey"
.a 5 e_Data.IntMap.Strict_eamergeWithKey
.o 2 0 
e_Data.IntMap.Strict_lmergeWithKey
	push_args 0 4 4
	update_a 5 4
	create 
.d 6 0 
	put_a_jmp 6 e_Data.IntMap.Strict_eamergeWithKey
.n 5 e_Data.IntMap.Strict_dmergeWithKey e_Data.IntMap.Strict_eamergeWithKey
.o 1 0 
e_Data.IntMap.Strict_nmergeWithKey
	push_node _cycle_in_spine 5
.o 6 0 
e_Data.IntMap.Strict_eamergeWithKey
	jsr_eval 4
	jsr_eval 3
	jsr_eval 2
	jsr_eval 1
	jsr_eval 0
.o 6 0 
e_Data.IntMap.Strict_smergeWithKey
.o 6 0 
s22
	push_a 0
	buildh e_Data.IntMap.Strict_dcombine;56.57 1
	put_a 1
	buildh e_Data.IntMap.Base_dbin 0
.d 7 0 
	jmp s46
.export e_Data.IntMap.Strict_dcombine;56.57
.desc e_Data.IntMap.Strict_dcombine;56.57 _hnf l57 3 0 "combine;56.57"
.a 3 ea57
.o 2 0 
l57
	push_args 0 2 2
	update_a 3 2
	create 
	put_a 4
.o 4 0 
ea57
	jsr_eval 2
	jsr_eval 1
.o 4 0 
s57
	jmp_ne_desc e_Data.IntMap.Base_kTip 0 1 case.74
	push_r_args 1 1 1
	buildh0_put_a _Nil 3
	jmp_eq_desc e_Data.IntMap.Base_kTip 0 3 case.75
	pop_b 1
	pop_a_jmp 1 case.74
case.75
	push_r_args 3 1 1
	buildh _Nil 0
	push_a 2
	updates2_a 2 1 6
	pop_b 1
	buildI_b 0
	update2_a 1 6
	updates2_a_pop_a 0 5 4 4
	jsr_ap 3
.d 2 1 i
	jmp s163
case.74
	buildAC "error in mergeWithKey\n"
	updatepop_a 0 3
.d 1 0 
	jsr print_string_
.o 0 0 
	halt
.d 1 0 
	fill_a01_pop_rtn 
.o 2 1 i
s163
	jmp_ne_desc _Nothing 0 0 case.77
	fillh e_Data.IntMap.Base_dNil 0 1
.d 1 0 
	pop_ab_rtn 1 1
case.77
	repl_args 1 1
	push_ab 0 0
	fill_r e_Data.IntMap.Base_kTip 1 1 2 0 0
.d 1 0 
	pop_ab_rtn 2 2
.export e_Data.IntMap.Strict_sunionsWith
.export e_Data.IntMap.Strict_eaunionsWith
.descexp e_Data.IntMap.Strict_dunionsWith e_Data.IntMap.Strict_nunionsWith e_Data.IntMap.Strict_lunionsWith 2 0 "unionsWith"
.a 2 e_Data.IntMap.Strict_eaunionsWith
.o 2 0 
e_Data.IntMap.Strict_lunionsWith
	push_args 0 1 1
	update_a 2 1
	create 
.d 3 0 
	put_a_jmp 3 e_Data.IntMap.Strict_eaunionsWith
.n 2 e_Data.IntMap.Strict_dunionsWith e_Data.IntMap.Strict_eaunionsWith
.o 1 0 
e_Data.IntMap.Strict_nunionsWith
	push_node _cycle_in_spine 2
.o 3 0 
e_Data.IntMap.Strict_eaunionsWith
	jsr_eval 1
	jsr_eval 0
.o 3 0 
e_Data.IntMap.Strict_sunionsWith
.o 3 0 
s21
	create 
.d 1 0 
	jsr e_Data.IntMap.Base_sempty
.o 1 0 
	push_a 1
	buildh e_Data.IntMap.Strict_dunionWith 1
	update2pop_a 0 1
.d 3 0 
	jsr s23
.o 1 0 
.d 1 0 
	fill_a01_pop_rtn 
.export e_Data.IntMap.Strict_sfoldlStrict
.descexp e_Data.IntMap.Strict_dfoldlStrict e_Data.IntMap.Strict_nfoldlStrict e_Data.IntMap.Strict_lfoldlStrict 3 0 "foldlStrict"
.a 0 ea23
.o 2 0 
e_Data.IntMap.Strict_lfoldlStrict
	repl_args 2 2
.d 3 0 
	jmp ea23
.n 3 e_Data.IntMap.Strict_dfoldlStrict _
.o 1 0 
e_Data.IntMap.Strict_nfoldlStrict
	push_node _cycle_in_spine 3
.d 3 0 
	jsr ea23
.o 1 0 
.d 1 0 
	fill_a01_pop_rtn 
.o 3 0 
ea23
	jsr_eval 2
	jsr_eval 1
	jsr_eval 0
.o 3 0 
e_Data.IntMap.Strict_sfoldlStrict
.o 3 0 
s23
	jmp_ne_desc _Nil 0 2 case.79
	updatepop_a 1 2
.d 1 0 
	rtn 
case.79
	push_args 2 2 2
	update_a 2 4
	buildh _Nil 0
	exchange_a 3 1
	exchange_a 4 2
	pop_a 1
	jsr_ap 2
	push_jsr_eval 1
	updates3_a 0 3 1 2
.d 3 0 
	pop_a_jmp 1 s23
.export e_Data.IntMap.Strict_sunionWith
.export e_Data.IntMap.Strict_eaunionWith
.descexp e_Data.IntMap.Strict_dunionWith e_Data.IntMap.Strict_nunionWith e_Data.IntMap.Strict_lunionWith 3 0 "unionWith"
.a 3 e_Data.IntMap.Strict_eaunionWith
.o 2 0 
e_Data.IntMap.Strict_lunionWith
	push_args 0 2 2
	update_a 3 2
	create 
.d 4 0 
	put_a_jmp 4 e_Data.IntMap.Strict_eaunionWith
.n 3 e_Data.IntMap.Strict_dunionWith e_Data.IntMap.Strict_eaunionWith
.o 1 0 
e_Data.IntMap.Strict_nunionWith
	push_node _cycle_in_spine 3
.o 4 0 
e_Data.IntMap.Strict_eaunionWith
	jsr_eval 2
	jsr_eval 1
	jsr_eval 0
.o 4 0 
e_Data.IntMap.Strict_sunionWith
.o 4 0 
s20
	push_a 0
	buildh e_Data.IntMap.Strict_d\;281;35;54.55 1
.d 4 0 
	put_a_jmp 1 s42
.o 4 0 
s42
	buildh e_StdFunctions_did 0
	buildh e_StdFunctions_did 0
	push_a 2
	buildh e_Data.IntMap.Strict_dg;55.56 1
	update3_a 0 1
	pop_a 1
	buildh e_Data.IntMap.Base_dBin 0
.d 7 0 
	jmp s46
.o 9 3 iii
s62
	push3_b 2
.d 0 3 iii
	jsr e_Data.IntMap.Base_snomatch
.o 0 1 b
	jmp_false else.80
	update_a 4 7
	update_a 2 6
	updatepop_a 3 4
	jsr_ap 1
	push2_a 2
	buildh0_dup2_a _Nil 4
	pop_a 1
	jsr_ap 1
	update2pop_b 0 1
	update2pop_a 0 2
.d 3 2 ii
	jmp s47
else.80
	push_b 0
	update_b 3 1
.d 0 2 ii
	jsr s44
.o 0 1 b
	jmp_false else.81
	push_a2 7 3
	build e_system_dAP 2 e_system_nAP
	push_a 7
	push3_a 6
	push2_a 6
	build e_Data.IntMap.Strict_dmergeWithKey`.46 6 e_Data.IntMap.Strict_nmergeWithKey`.46
	buildI_b 1
	buildI_b 0
	update4_a 0 8
	updatepop_a 4 7
	pop_b 2
	jsr_ap 4
.d 1 0 
	fill_a01_pop_rtn 
else.81
	push_a 7
	push3_a 5
	push2_a 5
	build e_Data.IntMap.Strict_dmergeWithKey`.46 6 e_Data.IntMap.Strict_nmergeWithKey`.46
	push_a2 7 4
	build e_system_dAP 2 e_system_nAP
	buildI_b 1
	buildI_b 0
	update4_a 0 8
	updatepop_a 4 7
	pop_b 2
	jsr_ap 4
.d 1 0 
	fill_a01_pop_rtn 
.o 9 3 iii
s61
	push2_b 1
.d 0 3 iii
	push_b_jsr 4 e_Data.IntMap.Base_snomatch
.o 0 1 b
	jmp_false else.82
	update_a 2 6
	updates3pop_a 3 4 7 5
	jsr_ap 1
	push2_a 2
	buildh0_dup2_a _Nil 4
	pop_a 1
	jsr_ap 1
	put_b 1
	update2pop_a 0 2
.d 3 2 ii
	jmp s47
else.82
	push_b2 1 2
.d 0 2 ii
	jsr s44
.o 0 1 b
	jmp_false else.83
	push_a2 6 2
	build e_system_dAP 2 e_system_nAP
	push_a2 8 6
	push3_a 6
	push_a 6
	build e_Data.IntMap.Strict_dmergeWithKey`.46 6 e_Data.IntMap.Strict_nmergeWithKey`.46
	buildI_b 1
	buildI_b 0
	update4_a 0 8
	updatepop_a 4 7
	pop_b 3
	jsr_ap 4
.d 1 0 
	fill_a01_pop_rtn 
else.83
	push2_a 7
	push3_a 5
	push_a 5
	build e_Data.IntMap.Strict_dmergeWithKey`.46 6 e_Data.IntMap.Strict_nmergeWithKey`.46
	push_a2 6 3
	build e_system_dAP 2 e_system_nAP
	buildI_b 1
	buildI_b 0
	update4_a 0 8
	updatepop_a 4 7
	pop_b 3
	jsr_ap 4
.d 1 0 
	fill_a01_pop_rtn 
.export e_Data.IntMap.Strict_dmergeWithKey`.46
.export e_Data.IntMap.Strict_nmergeWithKey`.46
.descn e_Data.IntMap.Strict_dmergeWithKey`.46 e_Data.IntMap.Strict_nmergeWithKey`.46 6 0 "mergeWithKey`.46"
.n 6 e_Data.IntMap.Strict_dmergeWithKey`.46 ea46
.o 1 0 
e_Data.IntMap.Strict_nmergeWithKey`.46
	push_node _cycle_in_spine 6
.o 7 0 
ea46
	jsr_eval 5
	jsr_eval 4
	jsr_eval 3
	jsr_eval 2
	jsr_eval 1
	jsr_eval 0
.o 7 0 
s46
	pushD_a 4
	jmpD eb e_Data.IntMap.Base_kTip 0 case.85 case.86
case.84
	pop_b 1
	push_r_args 4 2 2
	pushD_a 7
	jmpD eb e_Data.IntMap.Base_kTip 0 case.88 case.89
case.87
	pop_b 1
	push_r_args 7 2 2
	push_b2 1 3
.d 0 2 ii
	jsr e_Data.IntMap.Base_sshorter
.o 0 1 b
	jmp_false else.90
	updates3_b 0 3 2 1
	pop_b 1
	push_update_a 4 6
	updates3_a 6 4 9 7
	updates3pop_a 0 3 8 6
.d 9 3 iii
	jmp s61
else.90
	push_b2 3 1
.d 0 2 ii
	jsr e_Data.IntMap.Base_sshorter
.o 0 1 b
	jmp_false else.91
	updates4_a 1 9 7 5 3
	updates4_a 0 8 6 4 2
	pop_a 2
	updates3_b 0 2 1 3
.d 9 3 iii
	pop_b_jmp 1 s62
else.91
	push_b2 0 2
	jmp_neI else.92
	push_a2 1 3
	push3_a 9
	push_a 9
	build e_Data.IntMap.Strict_dmergeWithKey`.46 6 e_Data.IntMap.Strict_nmergeWithKey`.46
	push_a2 1 3
	push3_a 10
	push_a 10
	build e_Data.IntMap.Strict_dmergeWithKey`.46 6 e_Data.IntMap.Strict_nmergeWithKey`.46
	buildI_b 3
	buildI_b 2
	update4_a 0 10
	updatepop_a 8 9
	pop_b 4
	jsr_ap 4
.d 1 0 
	fill_a01_pop_rtn 
else.92
	push_update_a 7 9
	updates3pop_a 0 7 9 10
	jsr_ap 1
	push2_a 2
	buildh0_dup2_a _Nil 4
	pop_a 1
	jsr_ap 1
	update_b 0 3
	pop_b 2
	update2pop_a 0 2
.d 3 2 ii
	jmp s47
case.88
	pop_b 1
	push_r_args 7 1 1
	exchange_a 8 7
	pop_a 3
	updatepop_b 0 2
.d 7 1 i
	jmp s63
case.89
	pop_b 3
	updates2pop_a 4 6 7
	jsr_ap 1
.d 1 0 
	fill_a01_pop_rtn 
case.85
	pop_b 1
	push_r_args 4 1 1
.d 7 1 i
	pop_a_jmp 1 s64
case.86
	pop_b 1
	updatepop_a 3 4
	jsr_ap 1
.d 1 0 
	fill_a01_pop_rtn 
.export e_Data.IntMap.Strict_dmerge;63.64
.export e_Data.IntMap.Strict_nmerge;63.64
.descn e_Data.IntMap.Strict_dmerge;63.64 e_Data.IntMap.Strict_nmerge;63.64 7 0 "merge;63.64"
.n 7 e_Data.IntMap.Strict_dmerge;63.64 ea64
.o 1 0 
e_Data.IntMap.Strict_nmerge;63.64
	push_node _cycle_in_spine 7
.o 8 0 
ea64
	jsr_eval 6
	jsr_eval 5
	jsr_eval 4
	jsr_eval 3
	jsr_eval 2
	jsr_eval 1
	jsr_eval 0
	pushI_a 5
	update2_a 3 4
	update3pop_a 0 1
.o 7 1 i
s64
	pushD_a 5
	jmpD eb e_Data.IntMap.Base_kTip 0 case.94 case.95
case.93
	pop_b 1
	push_r_args 5 2 2
	push2_b 1
.d 0 3 iii
	push_b_jsr 4 e_Data.IntMap.Base_snomatch
.o 0 1 b
	jmp_false else.96
	push_update_a 5 7
	updates3pop_a 0 5 7 8
	jsr_ap 1
	push2_a 2
	buildh0_dup2_a _Nil 4
	pop_a 1
	jsr_ap 1
	updates2_b 0 2 1
	pop_b 1
	update2pop_a 0 2
.d 3 2 ii
	jmp s47
else.96
	push_b2 1 2
.d 0 2 ii
	jsr s44
.o 0 1 b
	jmp_false else.97
	push_a2 1 5
	build e_system_dAP 2 e_system_nAP
	push_a 1
	buildI_b 2
	push3_a 9
	push2_a 9
	build e_Data.IntMap.Strict_dmerge;63.64 7 e_Data.IntMap.Strict_nmerge;63.64
	buildI_b 1
	buildI_b 0
	update4_a 0 8
	updatepop_a 6 7
	pop_b 3
	jsr_ap 4
.d 1 0 
	fill_a01_pop_rtn 
else.97
	push_a 1
	buildI_b 2
	push3_a 8
	push2_a 8
	build e_Data.IntMap.Strict_dmerge;63.64 7 e_Data.IntMap.Strict_nmerge;63.64
	push_a2 1 6
	build e_system_dAP 2 e_system_nAP
	buildI_b 1
	buildI_b 0
	update4_a 0 8
	updatepop_a 6 7
	pop_b 3
	jsr_ap 4
.d 1 0 
	fill_a01_pop_rtn 
case.94
	pop_b 1
	push_r_args 5 1 1
	pop_a 1
	push_b2 0 1
	jmp_neI else.98
	updatepop_a 1 3
	pop_b 2
	jsr_ap 2
.d 1 0 
	fill_a01_pop_rtn 
else.98
	push_update_a 3 5
	updates3pop_a 0 3 5 6
	jsr_ap 1
	push2_a 2
	buildh0_dup2_a _Nil 4
	pop_a 1
	jsr_ap 1
	swap_b1 
	update2pop_a 0 2
.d 3 2 ii
	jmp s47
case.95
	pop_b 2
	updates2pop_a 2 4 5
	jsr_ap 1
.d 1 0 
	fill_a01_pop_rtn 
.export e_Data.IntMap.Strict_dmerge;62.63
.export e_Data.IntMap.Strict_nmerge;62.63
.descn e_Data.IntMap.Strict_dmerge;62.63 e_Data.IntMap.Strict_nmerge;62.63 7 0 "merge;62.63"
.n 7 e_Data.IntMap.Strict_dmerge;62.63 ea63
.o 1 0 
e_Data.IntMap.Strict_nmerge;62.63
	push_node _cycle_in_spine 7
.o 8 0 
ea63
	jsr_eval 6
	jsr_eval 5
	jsr_eval 4
	jsr_eval 3
	jsr_eval 2
	jsr_eval 1
	jsr_eval 0
	pushI_a 5
	update2_a 3 4
	update3pop_a 0 1
.o 7 1 i
s63
	pushD_a 5
	jmpD eb e_Data.IntMap.Base_kTip 0 case.100 case.101
case.99
	pop_b 1
	push_r_args 5 2 2
	push2_b 1
.d 0 3 iii
	push_b_jsr 4 e_Data.IntMap.Base_snomatch
.o 0 1 b
	jmp_false else.102
	push_a 5
	updates3pop_a 0 5 7 6
	jsr_ap 1
	push2_a 2
	buildh0_dup2_a _Nil 4
	pop_a 1
	jsr_ap 1
	put_b 1
	update2pop_a 0 2
.d 3 2 ii
	jmp s47
else.102
	push_b2 1 2
.d 0 2 ii
	jsr s44
.o 0 1 b
	jmp_false else.103
	push_a2 1 4
	build e_system_dAP 2 e_system_nAP
	push_a 1
	buildI_b 2
	push3_a 9
	push2_a 9
	build e_Data.IntMap.Strict_dmerge;62.63 7 e_Data.IntMap.Strict_nmerge;62.63
	buildI_b 1
	buildI_b 0
	update4_a 0 8
	updatepop_a 6 7
	pop_b 3
	jsr_ap 4
.d 1 0 
	fill_a01_pop_rtn 
else.103
	push_a 1
	buildI_b 2
	push3_a 8
	push2_a 8
	build e_Data.IntMap.Strict_dmerge;62.63 7 e_Data.IntMap.Strict_nmerge;62.63
	push_a2 1 5
	build e_system_dAP 2 e_system_nAP
	buildI_b 1
	buildI_b 0
	update4_a 0 8
	updatepop_a 6 7
	pop_b 3
	jsr_ap 4
.d 1 0 
	fill_a01_pop_rtn 
case.100
	pop_b 1
	push_r_args 5 1 1
	pop_a 1
	push2_b 1
	jmp_neI else.104
	update_a 1 3
	exchange_a 5 4
	pop_a 3
	pop_b 2
	jsr_ap 2
.d 1 0 
	fill_a01_pop_rtn 
else.104
	push_a 3
	updates3pop_a 0 3 5 4
	jsr_ap 1
	push2_a 2
	buildh0_dup2_a _Nil 4
	pop_a 1
	jsr_ap 1
	update2pop_a 0 2
.d 3 2 ii
	jmp s47
case.101
	pop_b 2
	update2pop_a 3 4
	jsr_ap 1
.d 1 0 
	fill_a01_pop_rtn 
.o 3 2 ii
s47
	jmp_ne_desc e_Data.IntMap.Base_dNil 0 0 case.106
	pop_b 2
	fill_a 1 2
.d 1 0 
	pop_a_rtn 2
case.106
	jmp_ne_desc e_Data.IntMap.Base_dNil 0 1 case.108
	pop_b 2
	fill_a 0 2
.d 1 0 
	pop_a_rtn 2
case.108
.d 3 2 ii
	jmp s45
.export e_Data.IntMap.Strict_dg;55.56
.desc e_Data.IntMap.Strict_dg;55.56 _hnf l56 3 0 "g;55.56"
.a 3 ea56
.o 2 0 
l56
	push_args 0 2 2
	update_a 3 2
	create 
	put_a 4
.o 4 0 
ea56
	jsr_eval 2
	jsr_eval 1
.o 4 0 
s56
	jmp_ne_desc e_Data.IntMap.Base_kTip 0 1 case.110
	push_r_args 1 1 1
	buildh0_put_a _Nil 3
	jmp_eq_desc e_Data.IntMap.Base_kTip 0 3 case.111
	pop_b 1
	pop_a_jmp 1 case.110
case.111
	push_r_args 3 1 1
	buildh _Nil 0
	push_a2 2 3
	updates2_a 3 2 7
	update_b 1 0
	build_u e_Data.IntMap.Strict_d_f1.284 3 1 e_Data.IntMap.Strict_n_f1.284
	push_b 0
	fill_r e_Data.IntMap.Base_kTip 1 1 6 0 0
.d 1 0 
	pop_ab_rtn 6 2
case.110
	buildAC "error in unionWithKey\n"
	updatepop_a 0 3
.d 1 0 
	jsr print_string_
.o 0 0 
	halt
.d 1 0 
	fill_a01_pop_rtn 
.export e_Data.IntMap.Strict_d_f1.284
.export e_Data.IntMap.Strict_n_f1.284
.descn e_Data.IntMap.Strict_d_f1.284 e_Data.IntMap.Strict_n_f1.284 4 0 "_f1.284"
.nu 3 1 e_Data.IntMap.Strict_d_f1.284 _
.o 1 0 
e_Data.IntMap.Strict_n_f1.284
	push_node_u _cycle_in_spine 3 1
.o 4 1 i
ea284
.o 4 1 i
s284
	push3_a 2
	jsr_eval 0
	buildI_b 0
	update2_a 2 5
	dup_a 4
	updatepop_a 1 3
	pop_b 1
	jsr_ap 3
.d 1 0 
	fill_a01_pop_rtn 
.export e_Data.IntMap.Strict_d\;281;35;54.55
.desc e_Data.IntMap.Strict_d\;281;35;54.55 _hnf l55 4 0 "\;281;35;54.55"
.a 0 ea55
.o 2 0 
l55
	repl_args 3 3
.o 4 0 
ea55
.o 4 0 
s55
	put_a 1
	jmp_ap 2
.export e_Data.IntMap.Strict_salter
.export e_Data.IntMap.Strict_eaalter
.descexp e_Data.IntMap.Strict_dalter e_Data.IntMap.Strict_nalter e_Data.IntMap.Strict_lalter 3 0 "alter"
.a 3 e_Data.IntMap.Strict_eaalter
.o 2 0 
e_Data.IntMap.Strict_lalter
	push_args 0 2 2
	update_a 3 2
	create 
.d 4 0 
	put_a_jmp 4 e_Data.IntMap.Strict_eaalter
.n 3 e_Data.IntMap.Strict_dalter e_Data.IntMap.Strict_eaalter
.o 1 0 
e_Data.IntMap.Strict_nalter
	push_node _cycle_in_spine 3
.o 4 0 
e_Data.IntMap.Strict_eaalter
	jsr_eval 2
	jsr_eval 1
	jsr_eval 0
	pushI_a 1
	put_a 1
.o 3 1 i
e_Data.IntMap.Strict_salter
.o 3 1 i
s19
	swap_a1 
s162
	pushD_a 0
	jmpD eb e_Data.IntMap.Base_kTip 0 case.113 case.114
case.112
	pop_b 1
	push_r_args 0 2 2
	push2_b 1
.d 0 3 iii
	push_b_jsr 4 e_Data.IntMap.Base_snomatch
.o 0 1 b
	jmp_false else.115
	updates2_a 2 3 1
	buildh0_dup_a _Nothing 3
	pop_a 2
	jsr_ap 1
	updates2_b 0 2 1
.d 3 2 ii
	pop_b_jmp 1 s158
else.115
	push_b2 1 2
.d 0 2 ii
	jsr s44
.o 0 1 b
	jmp_false else.116
	create 
	dup_a 3
	push_a 4
	updates3pop_a 0 2 3 5
.d 3 1 i
	push_b_jsr 2 s19
.o 1 0 
	update2pop_b 0 1
.d 3 2 ii
	jmp e_Data.IntMap.Base_sbin
else.116
	create 
	dup_a 3
	push_a 4
	updates2pop_a 0 2 5
.d 3 1 i
	push_b_jsr 2 s19
.o 1 0 
	swap_a1 
	update2pop_b 0 1
.d 3 2 ii
	jmp e_Data.IntMap.Base_sbin
case.113
	pop_b 1
	push_r_args 0 1 1
	push_b2 0 1
	jmp_neI else.117
	buildo1 n_Justs 0
	updates2_a_pop_a 0 3 2 2
	jsr_ap 1
.d 2 1 i
	put_b_jmp 1 s159
else.117
	updates2_a 1 2 0
	buildh0_put_a _Nothing 2
	jsr_ap 1
	swap_b1 
.d 3 2 ii
	jmp s160
case.114
	pop_b 1
	update_a 1 0
	buildh0_put_a _Nothing 2
	jsr_ap 1
s161
	jmp_ne_desc _Just 1 0 case.119
	repl_args 1 1
	push_ab 0 0
	fill_r e_Data.IntMap.Base_kTip 1 1 2 0 0
.d 1 0 
	pop_ab_rtn 2 2
case.119
	fillh e_Data.IntMap.Base_dNil 0 1
.d 1 0 
	pop_ab_rtn 1 1
.o 3 2 ii
s160
	jmp_ne_desc _Just 1 0 case.121
	repl_args 1 1
	push_ab 0 0
	buildhr e_Data.IntMap.Base_kTip 1 1
.d 3 2 ii
	put_a_jmp 1 s45
case.121
	pop_b 2
	fill_a 1 2
.d 1 0 
	pop_a_rtn 2
.o 2 1 i
s159
	jmp_ne_desc _Just 1 0 case.123
	repl_args 1 1
	push_ab 0 0
	fill_r e_Data.IntMap.Base_kTip 1 1 2 0 0
.d 1 0 
	pop_ab_rtn 2 2
case.123
	fillh e_Data.IntMap.Base_dNil 0 1
.d 1 0 
	pop_ab_rtn 1 1
.o 3 2 ii
s158
	jmp_ne_desc _Nothing 0 0 case.125
	pop_b 2
	fill_a 1 2
.d 1 0 
	pop_a_rtn 2
case.125
	repl_args 1 1
	push_ab 0 0
	buildhr e_Data.IntMap.Base_kTip 1 1
.d 3 2 ii
	put_a_jmp 1 s45
.export e_Data.IntMap.Strict_sfindWithDefault
.descexp e_Data.IntMap.Strict_dfindWithDefault e_Data.IntMap.Strict_nfindWithDefault e_Data.IntMap.Strict_lfindWithDefault 3 0 "findWithDefault"
.a 0 ea18
.o 2 0 
e_Data.IntMap.Strict_lfindWithDefault
	repl_args 2 2
.d 3 0 
	jmp ea18
.n 3 e_Data.IntMap.Strict_dfindWithDefault _
.o 1 0 
e_Data.IntMap.Strict_nfindWithDefault
	push_node _cycle_in_spine 3
.d 3 0 
	jsr ea18
.o 1 0 
.d 1 0 
	fill_a01_pop_rtn 
.o 3 0 
ea18
	jsr_eval 2
	jsr_eval 1
	pushI_a 1
	put_a 1
.o 2 1 i
e_Data.IntMap.Strict_sfindWithDefault
.o 2 1 i
s18
	pushD_a 1
	jmpD ae e_Data.IntMap.Base_kTip 0 case.126 case.127
	pop_b_jmp 1 case.128
case.126
	pop_b 1
	push_r_args 1 2 2
	buildh0_put_a _Nil 4
	push_b2 0 2
	update_b 3 2
.d 0 3 iii
	jsr e_Data.IntMap.Base_snomatch
.o 0 1 b
	jmp_false else.129
	updatepop_a 2 3
	pop_b 2
	jmp_eval
else.129
.d 0 2 ii
	push_b_jsr 1 s44
.o 0 1 b
	jmp_false else.130
	dup_a 3
.d 2 1 i
	pop_a_jmp 2 s18
else.130
	update_a 1 3
.d 2 1 i
	pop_a_jmp 2 s18
case.127
	pop_b 1
	push_r_args 1 1 1
	buildh0_put_a _Nil 3
	push_b2 0 1
	jmp_neI else.131
	updatepop_a 0 2
	pop_b 2
	jmp_eval
else.131
	updatepop_a 1 2
	pop_b 2
	jmp_eval
case.128
	put_a 1
	pop_b 1
	jmp_eval
.export e_Data.IntMap.Strict_sfind
.descexp e_Data.IntMap.Strict_dfind e_Data.IntMap.Strict_nfind e_Data.IntMap.Strict_lfind 2 0 "find"
.a 0 ea17
.o 2 0 
e_Data.IntMap.Strict_lfind
	repl_args 1 1
.d 2 0 
	jmp ea17
.n 2 e_Data.IntMap.Strict_dfind _
.o 1 0 
e_Data.IntMap.Strict_nfind
	push_node _cycle_in_spine 2
.d 2 0 
	jsr ea17
.o 1 0 
.d 1 0 
	fill_a01_pop_rtn 
.o 2 0 
ea17
	jsr_eval 1
	jsr_eval 0
	pushI0_pop_a1 
.o 1 1 i
e_Data.IntMap.Strict_sfind
.o 1 1 i
s17
	pushD_a 0
	jmpD eb e_Data.IntMap.Base_kTip 0 case.133 case.134
case.132
	pop_b 1
	repl_r_args 2 2
	push_b2 0 2
	update_b 3 2
.d 0 3 iii
	jsr e_Data.IntMap.Base_snomatch
.o 0 1 b
	jmp_false else.135
	buildI_b 1
	updatepop_a 0 2
.d 1 0 
	pop_b_jmp 2 s38
else.135
.d 0 2 ii
	push_b_jsr 1 s44
.o 0 1 b
	jmp_false else.136
.d 1 1 i
	put_a_jmp 1 s17
else.136
.d 1 1 i
	pop_a_jmp 1 s17
case.133
	pop_b 1
	repl_r_args 1 1
	push_b2 0 1
	jmp_neI else.137
	pop_b 2
	jmp_eval
else.137
	buildI_b 1
	put_a 1
.d 1 0 
	pop_b_jmp 2 s38
case.134
	pop_b 1
	buildI_b 0
	put_a 1
.d 1 0 
	pop_b_jmp 1 s38
.o 1 0 
s38
	buildAC "IntMap.!: key is not an element of the map"
	put_a 1
.d 1 0 
	jsr print_string_
.o 0 0 
	halt
.d 1 0 
	rtn 
.export e_Data.IntMap.Strict_smember
.descexp e_Data.IntMap.Strict_dmember e_Data.IntMap.Strict_nmember e_Data.IntMap.Strict_lmember 2 0 "member"
.a 0 a16
.o 2 0 
e_Data.IntMap.Strict_lmember
	repl_args 1 1
.o 2 0 
a16
.d 2 0 
	jsr ea16
.o 0 1 b
	buildB_b 0
.d 1 0 
	pop_b_rtn 1
.n 2 e_Data.IntMap.Strict_dmember
.o 1 0 
e_Data.IntMap.Strict_nmember
	push_node _cycle_in_spine 2
.d 2 0 
	jsr ea16
.o 0 1 b
	fillB_b 0 0
.d 1 0 
	pop_b_rtn 1
.o 2 0 
ea16
	jsr_eval 1
	jsr_eval 0
	pushI0_pop_a1 
.o 1 1 i
e_Data.IntMap.Strict_smember
.o 1 1 i
s16
	pushD_a 0
	jmpD eb e_Data.IntMap.Base_kTip 0 case.139 case.140
case.138
	pop_b 1
	repl_r_args 2 2
	push_b2 0 2
	update_b 3 2
.d 0 3 iii
	jsr e_Data.IntMap.Base_snomatch
.o 0 1 b
	jmp_false else.141
	pop_b_pushB 2 FALSE
.d 0 1 b
	pop_a_rtn 2
else.141
.d 0 2 ii
	push_b_jsr 1 s44
.o 0 1 b
	jmp_false else.142
.d 1 1 i
	put_a_jmp 1 s16
else.142
.d 1 1 i
	pop_a_jmp 1 s16
case.139
	pop_b 1
	repl_r_args 1 1
	eqI
.d 0 1 b
	pop_a_rtn 1
case.140
	pop_b 2
	pushB FALSE
.d 0 1 b
	pop_a_rtn 1
.export e_Data.IntMap.Strict_selems
.export e_Data.IntMap.Strict_eaelems
.descexp e_Data.IntMap.Strict_delems e_Data.IntMap.Strict_nelems e_Data.IntMap.Strict_lelems 1 0 "elems"
.o 2 0 
e_Data.IntMap.Strict_lelems
	update_a 1 0
	create 
.d 2 0 
	put_a_jmp 2 e_Data.IntMap.Strict_eaelems
.n 1 e_Data.IntMap.Strict_delems e_Data.IntMap.Strict_eaelems
.o 1 0 
e_Data.IntMap.Strict_nelems
	push_node _cycle_in_spine 1
.o 2 0 
e_Data.IntMap.Strict_eaelems
	jsr_eval 0
.o 2 0 
e_Data.IntMap.Strict_selems
.o 2 0 
s14
	buildh _Nil 0
	buildh e_Data.IntMap.Strict_d\;148;18;48.49 0
.d 3 0 
	jsr s37
.o 1 0 
.d 1 0 
	fill_a01_pop_rtn 
.o 3 0 
s37
	push_a 2
	update3pop_a 0 1
s157
	jmp_ne_desc e_Data.IntMap.Base_kBin 0 0 case.144
	repl_r_args 2 2
	pop_b 1
	pushI 0
	jmp_o_geI 1 else.145
	push2_a 3
	pop_b 1
.d 3 0 
	buildh0_put_a_jsr _Nil 6 s48
.o 1 0 
	updates3_a 0 2 1 3
.d 3 0 
	pop_a_jmp 1 s48
else.145
	push_a2 2 3
	updates3_a 0 2 4 5
	pop_b 1
.d 3 0 
	pop_a_jsr 1 s48
.o 1 0 
	push_a 2
	update3pop_a 0 1
.d 3 0 
	jmp s48
case.144
	push_a 1
	updates3pop_a 0 1 3 2
s48
	pushD_a 2
	jmpD ea e_Data.IntMap.Base_kTip 0 case.147 case.148
case.146
	pop_b 1
	updatepop_a 1 2
.d 1 0 
	rtn 
case.147
	pop_b 1
	push_r_args 2 1 1
	updates2_a_pop_a 0 2 3 1
	pop_b 1
	jmp_ap 2
case.148
	pop_b 1
	push_r_args 2 2 2
	update_a 2 4
	buildh _Nil 0
	push_update_a 3 2
	updates3pop_a 0 2 5 3
.d 3 0 
	pop_b_jsr 2 s48
.o 1 0 
	push_a 2
	update3pop_a 0 1
.d 3 0 
	jmp s48
.export e_Data.IntMap.Strict_d\;148;18;48.49
.desc e_Data.IntMap.Strict_d\;148;18;48.49 _hnf l49 2 0 "\;148;18;48.49"
.a 2 ea49
.o 2 0 
l49
	push_args 0 1 1
	update_a 2 1
	create 
	put_a 3
.o 3 0 
ea49
.o 3 0 
s49
	fillh _Cons 2 2
.d 1 0 
	rtn 
.export e_Data.IntMap.Strict_skeys
.export e_Data.IntMap.Strict_eakeys
.descexp e_Data.IntMap.Strict_dkeys e_Data.IntMap.Strict_nkeys e_Data.IntMap.Strict_lkeys 1 0 "keys"
.o 2 0 
e_Data.IntMap.Strict_lkeys
	update_a 1 0
	create 
.d 2 0 
	put_a_jmp 2 e_Data.IntMap.Strict_eakeys
.n 1 e_Data.IntMap.Strict_dkeys e_Data.IntMap.Strict_eakeys
.o 1 0 
e_Data.IntMap.Strict_nkeys
	push_node _cycle_in_spine 1
.o 2 0 
e_Data.IntMap.Strict_eakeys
	jsr_eval 0
.o 2 0 
e_Data.IntMap.Strict_skeys
.o 2 0 
s13
	buildh _Nil 0
	buildh e_Data.IntMap.Strict_d\;151;24;49.50 0
.d 3 0 
	jsr s24
.o 1 0 
.d 1 0 
	fill_a01_pop_rtn 
.export e_Data.IntMap.Strict_sfoldrWithKey
.descexp e_Data.IntMap.Strict_dfoldrWithKey e_Data.IntMap.Strict_nfoldrWithKey e_Data.IntMap.Strict_lfoldrWithKey 3 0 "foldrWithKey"
.a 0 ea24
.o 2 0 
e_Data.IntMap.Strict_lfoldrWithKey
	repl_args 2 2
.d 3 0 
	jmp ea24
.n 3 e_Data.IntMap.Strict_dfoldrWithKey _
.o 1 0 
e_Data.IntMap.Strict_nfoldrWithKey
	push_node _cycle_in_spine 3
.d 3 0 
	jsr ea24
.o 1 0 
.d 1 0 
	fill_a01_pop_rtn 
.o 3 0 
ea24
	jsr_eval 2
	jsr_eval 1
	jsr_eval 0
.o 3 0 
e_Data.IntMap.Strict_sfoldrWithKey
.o 3 0 
s24
	push_a 2
	update3pop_a 0 1
s156
	jmp_ne_desc e_Data.IntMap.Base_kBin 0 0 case.150
	repl_r_args 2 2
	pop_b 1
	pushI 0
	jmp_o_geI 1 else.151
	push2_a 3
	pop_b 1
.d 3 0 
	buildh0_put_a_jsr _Nil 6 s51
.o 1 0 
	updates3_a 0 2 1 3
.d 3 0 
	pop_a_jmp 1 s51
else.151
	push_a2 2 3
	updates3_a 0 2 4 5
	pop_b 1
.d 3 0 
	pop_a_jsr 1 s51
.o 1 0 
	push_a 2
	update3pop_a 0 1
.d 3 0 
	jmp s51
case.150
	push_a 1
	updates3pop_a 0 1 3 2
s51
	pushD_a 2
	jmpD ea e_Data.IntMap.Base_kTip 0 case.153 case.154
case.152
	pop_b 1
	updatepop_a 1 2
.d 1 0 
	rtn 
case.153
	pop_b 1
	push_r_args 2 1 1
	buildh _Nil 0
	push_a 1
	updates2_a 4 1 5
	buildI_b 0
	update2_a 1 5
	updates2_a_pop_a 0 4 3 3
	pop_b 1
	jmp_ap 3
case.154
	pop_b 1
	push_r_args 2 2 2
	update_a 2 4
	buildh _Nil 0
	push_update_a 3 2
	updates3pop_a 0 2 5 3
.d 3 0 
	pop_b_jsr 2 s51
.o 1 0 
	push_a 2
	update3pop_a 0 1
.d 3 0 
	jmp s51
.export e_Data.IntMap.Strict_d\;151;24;49.50
.desc e_Data.IntMap.Strict_d\;151;24;49.50 _hnf l50 3 0 "\;151;24;49.50"
.a 3 ea50
.o 2 0 
l50
	push_args 0 2 2
	update_a 3 2
	create 
	put_a 4
.o 4 0 
ea50
.o 4 0 
s50
	push_a2 2 0
	fillh _Cons 2 5
.d 1 0 
	pop_a_rtn 3
.export e_Data.IntMap.Strict_sdel
.export e_Data.IntMap.Strict_eadel
.descexp e_Data.IntMap.Strict_ddel e_Data.IntMap.Strict_ndel e_Data.IntMap.Strict_ldel 2 0 "del"
.a 2 e_Data.IntMap.Strict_eadel
.o 2 0 
e_Data.IntMap.Strict_ldel
	push_args 0 1 1
	update_a 2 1
	create 
.d 3 0 
	put_a_jmp 3 e_Data.IntMap.Strict_eadel
.n 2 e_Data.IntMap.Strict_ddel e_Data.IntMap.Strict_eadel
.o 1 0 
e_Data.IntMap.Strict_ndel
	push_node _cycle_in_spine 2
.o 3 0 
e_Data.IntMap.Strict_eadel
	jsr_eval 1
	jsr_eval 0
	pushI0_pop_a1 
.o 2 1 i
e_Data.IntMap.Strict_sdel
.o 2 1 i
s11
.d 2 1 i
	jmp s12
.export e_Data.IntMap.Strict_sdelete
.export e_Data.IntMap.Strict_eadelete
.descexp e_Data.IntMap.Strict_ddelete e_Data.IntMap.Strict_ndelete e_Data.IntMap.Strict_ldelete 2 0 "delete"
.a 2 e_Data.IntMap.Strict_eadelete
.o 2 0 
e_Data.IntMap.Strict_ldelete
	push_args 0 1 1
	update_a 2 1
	create 
.d 3 0 
	put_a_jmp 3 e_Data.IntMap.Strict_eadelete
.n 2 e_Data.IntMap.Strict_ddelete e_Data.IntMap.Strict_eadelete
.o 1 0 
e_Data.IntMap.Strict_ndelete
	push_node _cycle_in_spine 2
.o 3 0 
e_Data.IntMap.Strict_eadelete
	jsr_eval 1
	jsr_eval 0
	pushI0_pop_a1 
.o 2 1 i
e_Data.IntMap.Strict_sdelete
.o 2 1 i
s12
s155
	pushD_a 0
	jmpD eb e_Data.IntMap.Base_kTip 0 case.156 case.157
case.155
	pop_b 1
	push_r_args 0 2 2
	push2_b 1
.d 0 3 iii
	push_b_jsr 4 e_Data.IntMap.Base_snomatch
.o 0 1 b
	jmp_false else.158
	pop_b 3
	fill_a 2 3
.d 1 0 
	pop_a_rtn 3
else.158
	push_b2 1 2
.d 0 2 ii
	jsr s44
.o 0 1 b
	jmp_false else.159
	create 
	updates2_a_pop_a 0 2 3 1
.d 2 1 i
	push_b_jsr 2 s12
.o 1 0 
	update2pop_b 0 1
.d 3 2 ii
	jmp e_Data.IntMap.Base_sbin
else.159
	create 
	updates3_a 0 2 1 3
	pop_a 1
.d 2 1 i
	push_b_jsr 2 s12
.o 1 0 
	swap_a1 
	update2pop_b 0 1
.d 3 2 ii
	jmp e_Data.IntMap.Base_sbin
case.156
	pop_b 1
	push_r_args 0 1 1
	pop_a 1
	push_b2 0 1
	jmp_neI else.160
	fillh e_Data.IntMap.Base_dNil 0 1
.d 1 0 
	pop_ab_rtn 1 2
else.160
	pop_b 2
.d 1 0 
	fill_a01_pop_rtn 
case.157
	pop_b 1
	fillh e_Data.IntMap.Base_dNil 0 1
.d 1 0 
	pop_ab_rtn 1 1
.export e_Data.IntMap.Strict_sgetU
.descexp e_Data.IntMap.Strict_dgetU e_Data.IntMap.Strict_ngetU e_Data.IntMap.Strict_lgetU 2 0 "getU"
.a 0 a10
.o 2 0 
e_Data.IntMap.Strict_lgetU
	repl_args 1 1
.o 2 0 
a10
.d 2 0 
	jsr ea10
.o 2 0 
	buildh _Tuple 2
.d 1 0 
	rtn 
.n 2 e_Data.IntMap.Strict_dgetU
.o 1 0 
e_Data.IntMap.Strict_ngetU
	push_node _cycle_in_spine 2
.d 2 0 
	jsr ea10
.o 2 0 
	fillh _Tuple 2 2
.d 1 0 
	rtn 
.o 2 0 
ea10
	jsr_eval 1
	jsr_eval 0
	pushI0_pop_a1 
.o 1 1 i
e_Data.IntMap.Strict_sgetU
.o 1 1 i
s10
	pushD_a 0
	jmpD eb e_Data.IntMap.Base_kTip 0 case.162 case.163
case.161
	pop_b 1
	push_r_args_u 0 2 2
	push_b2 0 2
	update_b 3 2
.d 0 3 iii
	jsr e_Data.IntMap.Base_snomatch
.o 0 1 b
	jmp_false else.164
	fill2_r e_Data.IntMap.Base_kBin 2 2 2 00000
	push_a 2
	dup_a 3
	pop_a 3
	buildh _Nothing 0
.d 2 0 
	pop_b_rtn 2
else.164
.d 0 2 ii
	push_b_jsr 1 s44
.o 0 1 b
	jmp_false else.165
	updatepop_a 0 2
.d 1 1 i
	jmp s10
else.165
	updatepop_a 1 2
.d 1 1 i
	jmp s10
case.162
	pop_b 1
	push_r_args_u 0 1 1
	push_b2 0 1
	jmp_neI else.166
	fill1_r e_Data.IntMap.Base_kTip 1 1 1 000
	push2_a 1
	build _Justs 1 n_Justs
	update2pop_a 0 2
.d 2 0 
	pop_b_rtn 2
else.166
	fill1_r e_Data.IntMap.Base_kTip 1 1 1 000
	push_a 1
	dup_a 2
	pop_a 2
	buildh _Nothing 0
.d 2 0 
	pop_b_rtn 2
case.163
	pop_b 2
	buildh0_put_a e_Data.IntMap.Base_dNil 1
	buildh _Nothing 0
.d 2 0 
	rtn 
.export e_Data.IntMap.Strict_sget
.export e_Data.IntMap.Strict_eaget
.descexp e_Data.IntMap.Strict_dget e_Data.IntMap.Strict_nget e_Data.IntMap.Strict_lget 2 0 "get"
.a 2 e_Data.IntMap.Strict_eaget
.o 2 0 
e_Data.IntMap.Strict_lget
	push_args 0 1 1
	update_a 2 1
	create 
.d 3 0 
	put_a_jmp 3 e_Data.IntMap.Strict_eaget
.n 2 e_Data.IntMap.Strict_dget e_Data.IntMap.Strict_eaget
.o 1 0 
e_Data.IntMap.Strict_nget
	push_node _cycle_in_spine 2
.o 3 0 
e_Data.IntMap.Strict_eaget
	jsr_eval 1
	jsr_eval 0
	pushI0_pop_a1 
.o 2 1 i
e_Data.IntMap.Strict_sget
.o 2 1 i
s9
	pushD_a 0
	jmpD eb e_Data.IntMap.Base_kTip 0 case.168 case.169
case.167
	pop_b 1
	repl_r_args 2 2
	push_b2 0 2
	update_b 3 2
.d 0 3 iii
	jsr e_Data.IntMap.Base_snomatch
.o 0 1 b
	jmp_false else.170
	fillh _Nothing 0 2
.d 1 0 
	pop_ab_rtn 2 2
else.170
.d 0 2 ii
	push_b_jsr 1 s44
.o 0 1 b
	jmp_false else.171
.d 2 1 i
	put_a_jmp 1 s9
else.171
.d 2 1 i
	pop_a_jmp 1 s9
case.168
	pop_b 1
	repl_r_args 1 1
	push_b2 0 1
	jmp_neI else.172
	jsr_eval 0
	push_a 0
	fillh _Just 1 2
.d 1 0 
	pop_ab_rtn 1 2
else.172
	fillh _Nothing 0 1
.d 1 0 
	pop_ab_rtn 1 2
case.169
	pop_b 1
	fillh _Nothing 0 1
.d 1 0 
	pop_ab_rtn 1 1
.export e_Data.IntMap.Strict_sadjust
.export e_Data.IntMap.Strict_eaadjust
.descexp e_Data.IntMap.Strict_dadjust e_Data.IntMap.Strict_nadjust e_Data.IntMap.Strict_ladjust 3 0 "adjust"
.a 3 e_Data.IntMap.Strict_eaadjust
.o 2 0 
e_Data.IntMap.Strict_ladjust
	push_args 0 2 2
	update_a 3 2
	create 
.d 4 0 
	put_a_jmp 4 e_Data.IntMap.Strict_eaadjust
.n 3 e_Data.IntMap.Strict_dadjust e_Data.IntMap.Strict_eaadjust
.o 1 0 
e_Data.IntMap.Strict_nadjust
	push_node _cycle_in_spine 3
.o 4 0 
e_Data.IntMap.Strict_eaadjust
	jsr_eval 2
	jsr_eval 1
	jsr_eval 0
	pushI_a 1
	put_a 1
.o 3 1 i
e_Data.IntMap.Strict_sadjust
.o 3 1 i
s8
	push_a 0
	buildh e_Data.IntMap.Strict_d\;215;31;52.53 1
.d 3 1 i
	put_a_jmp 1 s40
.o 3 1 i
s40
	push_a 0
	buildh e_Data.IntMap.Strict_d\;225;38;53.54 1
.d 3 1 i
	put_a_jmp 1 s41
.o 3 1 i
s41
	swap_a1 
s154
	pushD_a 0
	jmpD eb e_Data.IntMap.Base_kTip 0 case.174 case.175
case.173
	pop_b 1
	push_r_args 0 2 2
	push2_b 1
.d 0 3 iii
	push_b_jsr 4 e_Data.IntMap.Base_snomatch
.o 0 1 b
	jmp_false else.176
	pop_b 3
	fill_a 2 4
.d 1 0 
	pop_a_rtn 4
else.176
	push_b2 1 2
.d 0 2 ii
	jsr s44
.o 0 1 b
	jmp_false else.177
	create 
	dup_a 3
	push_a 4
	updates3pop_a 0 2 3 5
.d 3 1 i
	push_b_jsr 2 s41
.o 1 0 
	update2pop_b 0 1
.d 3 2 ii
	jmp e_Data.IntMap.Base_sbin
else.177
	create 
	dup_a 3
	push_a 4
	updates2pop_a 0 2 5
.d 3 1 i
	push_b_jsr 2 s41
.o 1 0 
	swap_a1 
	update2pop_b 0 1
.d 3 2 ii
	jmp e_Data.IntMap.Base_sbin
case.174
	pop_b 1
	push_r_args 0 1 1
	push_b2 0 1
	jmp_neI else.178
	push_a 0
	buildI_b 1
	dup_a 3
	updates2_a_pop_a 1 4 2 2
	jsr_ap 2
.d 2 1 i
	put_b_jmp 1 s153
else.178
	pop_b 2
	fill_a 1 3
.d 1 0 
	pop_a_rtn 3
case.175
	pop_b 1
	fillh e_Data.IntMap.Base_dNil 0 2
.d 1 0 
	pop_ab_rtn 2 1
.o 2 1 i
s153
	jmp_ne_desc _Just 1 0 case.180
	repl_args 1 1
	push_ab 0 0
	fill_r e_Data.IntMap.Base_kTip 1 1 2 0 0
.d 1 0 
	pop_ab_rtn 2 2
case.180
	fillh e_Data.IntMap.Base_dNil 0 1
.d 1 0 
	pop_ab_rtn 1 1
.export e_Data.IntMap.Strict_d\;225;38;53.54
.desc e_Data.IntMap.Strict_d\;225;38;53.54 _hnf l54 3 0 "\;225;38;53.54"
.a 3 ea54
.o 2 0 
l54
	push_args 0 2 2
	update_a 3 2
	create 
	put_a 4
.o 4 0 
ea54
.o 4 0 
s54
	jsr_ap 2
	fillh _Just 1 1
.d 1 0 
	rtn 
.export e_Data.IntMap.Strict_d\;215;31;52.53
.desc e_Data.IntMap.Strict_d\;215;31;52.53 _hnf l53 3 0 "\;215;31;52.53"
.a 0 ea53
.o 2 0 
l53
	repl_args 2 2
.o 3 0 
ea53
.o 3 0 
s53
	put_a 1
	jmp_ap 1
.export e_Data.IntMap.Strict_sinsertWith
.export e_Data.IntMap.Strict_eainsertWith
.descexp e_Data.IntMap.Strict_dinsertWith e_Data.IntMap.Strict_ninsertWith e_Data.IntMap.Strict_linsertWith 4 0 "insertWith"
.a 4 e_Data.IntMap.Strict_eainsertWith
.o 2 0 
e_Data.IntMap.Strict_linsertWith
	push_args 0 3 3
	update_a 4 3
	create 
.d 5 0 
	put_a_jmp 5 e_Data.IntMap.Strict_eainsertWith
.n 4 e_Data.IntMap.Strict_dinsertWith e_Data.IntMap.Strict_eainsertWith
.o 1 0 
e_Data.IntMap.Strict_ninsertWith
	push_node _cycle_in_spine 4
.o 5 0 
e_Data.IntMap.Strict_eainsertWith
	jsr_eval 3
	jsr_eval 2
	jsr_eval 1
	jsr_eval 0
	pushI_a 1
	put_a 1
.o 4 1 i
e_Data.IntMap.Strict_sinsertWith
.o 4 1 i
s7
	push_a 0
	buildh e_Data.IntMap.Strict_d\;181;37;51.52 1
.d 4 1 i
	put_a_jmp 1 s39
.o 4 1 i
s39
	swap_a 2
s152
	pushD_a 0
	jmpD eb e_Data.IntMap.Base_kTip 0 case.182 case.183
case.181
	pop_b 1
	push_r_args 0 2 2
	push2_b 1
.d 0 3 iii
	push_b_jsr 4 e_Data.IntMap.Base_snomatch
.o 0 1 b
	jmp_false else.184
	create 
	updates3_a 0 4 3 5
	pop_a 3
.d 2 1 i
	push_b_jsr 2 s3
.o 1 0 
	updates2_b 0 2 1
.d 3 2 ii
	pop_b_jmp 1 s45
else.184
	push_b2 1 2
.d 0 2 ii
	jsr s44
.o 0 1 b
	jmp_false else.185
	create 
	updates4_a 4 2 5 1 3
	put_a 4
.d 4 1 i
	push_b_jsr 2 s39
.o 1 0 
	push_update_a 0 1
	push2_b 1
	fill_r e_Data.IntMap.Base_kBin 2 2 3 0 0
.d 1 0 
	pop_ab_rtn 3 5
else.185
	create 
	updates3_a 0 4 2 3
	push_a 5
	updates2pop_a 0 2 6
.d 4 1 i
	push_b_jsr 2 s39
.o 1 0 
	push_a 1
	push2_b 1
	fill_r e_Data.IntMap.Base_kBin 2 2 3 0 0
.d 1 0 
	pop_ab_rtn 3 5
case.182
	pop_b 1
	push_r_args 0 1 1
	push_b2 0 1
	jmp_neI else.186
	push_a2 0 2
	push_ab 5 1
	build_u e_Data.IntMap.Strict_d_f0.283 3 1 e_Data.IntMap.Strict_n_f0.283
	push_b 1
	fill_r e_Data.IntMap.Base_kTip 1 1 5 0 0
.d 1 0 
	pop_ab_rtn 5 3
else.186
	create 
	updates3_a 0 3 2 4
	pop_a 2
.d 2 1 i
	push_b_jsr 1 s3
.o 1 0 
	swap_b1 
.d 3 2 ii
	jmp s45
case.183
	pop_b 1
	updatepop_a 1 2
.d 2 1 i
	jmp s3
.o 4 1 i
s152.2
	pushD_a 0
	jmpD eb e_Data.IntMap.Base_kTip 0 case.188 case.189
case.187
	pop_b 1
	push_r_args 0 2 2
	push2_b 1
.d 0 3 iii
	push_b_jsr 4 e_Data.IntMap.Base_snomatch
.o 0 1 b
	jmp_false else.190
	create 
	updates3_a 0 4 3 5
	pop_a 3
.d 2 1 i
	push_b_jsr 2 s3
.o 1 0 
	updates2_b 0 2 1
.d 3 2 ii
	pop_b_jmp 1 s45
else.190
	push_b2 1 2
.d 0 2 ii
	jsr s44
.o 0 1 b
	jmp_false else.191
	create 
	updates4_a 4 2 5 1 3
	put_a 4
.d 4 1 i
	push_b_jsr 2 s39
.o 1 0 
	push_update_a 0 1
	push2_b 1
	fill_r e_Data.IntMap.Base_kBin 2 2 3 0 0
.d 1 0 
	pop_ab_rtn 3 5
else.191
	create 
	updates3_a 0 4 2 3
	push_a 5
	updates2pop_a 0 2 6
.d 4 1 i
	push_b_jsr 2 s39
.o 1 0 
	push_a 1
	push2_b 1
	fill_r e_Data.IntMap.Base_kBin 2 2 3 0 0
.d 1 0 
	pop_ab_rtn 3 5
case.188
	pop_b 1
	push_r_args 0 1 1
	push_b2 0 1
	jmp_neI else.192
	push_a2 0 2
	push_ab 5 1
	build_u e_Data.IntMap.Strict_d_f0.283 3 1 e_Data.IntMap.Strict_n_f0.283
	push_b 1
	fill_r e_Data.IntMap.Base_kTip 1 1 5 0 0
.d 1 0 
	pop_ab_rtn 5 3
else.192
	create 
	updates3_a 0 3 2 4
	pop_a 2
.d 2 1 i
	push_b_jsr 1 s3
.o 1 0 
	swap_b1 
.d 3 2 ii
	jmp s45
case.189
	pop_b 1
	updatepop_a 1 2
.d 2 1 i
	jmp s3
.export e_Data.IntMap.Strict_d_f0.283
.export e_Data.IntMap.Strict_n_f0.283
.descn e_Data.IntMap.Strict_d_f0.283 e_Data.IntMap.Strict_n_f0.283 4 0 "_f0.283"
.nu 3 1 e_Data.IntMap.Strict_d_f0.283 _
.o 1 0 
e_Data.IntMap.Strict_n_f0.283
	push_node_u _cycle_in_spine 3 1
.o 4 1 i
ea283
.o 4 1 i
s283
	push3_a 2
	jsr_eval 0
	buildI_b 0
	update2_a 2 5
	dup_a 4
	updatepop_a 1 3
	pop_b 1
	jsr_ap 3
.d 1 0 
	fill_a01_pop_rtn 
.export e_Data.IntMap.Strict_d\;181;37;51.52
.desc e_Data.IntMap.Strict_d\;181;37;51.52 _hnf l52 4 0 "\;181;37;51.52"
.a 0 ea52
.o 2 0 
l52
	repl_args 3 3
.o 4 0 
ea52
.o 4 0 
s52
	put_a 1
	jmp_ap 2
.export e_Data.IntMap.Strict_sput
.export e_Data.IntMap.Strict_eaput
.descexp e_Data.IntMap.Strict_dput e_Data.IntMap.Strict_nput e_Data.IntMap.Strict_lput 3 0 "put"
.a 3 e_Data.IntMap.Strict_eaput
.o 2 0 
e_Data.IntMap.Strict_lput
	push_args 0 2 2
	update_a 3 2
	create 
.d 4 0 
	put_a_jmp 4 e_Data.IntMap.Strict_eaput
.n 3 e_Data.IntMap.Strict_dput e_Data.IntMap.Strict_eaput
.o 1 0 
e_Data.IntMap.Strict_nput
	push_node _cycle_in_spine 3
.o 4 0 
e_Data.IntMap.Strict_eaput
	jsr_eval 2
	jsr_eval 1
	jsr_eval 0
	pushI0_pop_a1 
.o 3 1 i
e_Data.IntMap.Strict_sput
.o 3 1 i
s5
.d 3 1 i
	jmp s6
.export e_Data.IntMap.Strict_sinsert
.export e_Data.IntMap.Strict_eainsert
.descexp e_Data.IntMap.Strict_dinsert e_Data.IntMap.Strict_ninsert e_Data.IntMap.Strict_linsert 3 0 "insert"
.a 3 e_Data.IntMap.Strict_eainsert
.o 2 0 
e_Data.IntMap.Strict_linsert
	push_args 0 2 2
	update_a 3 2
	create 
.d 4 0 
	put_a_jmp 4 e_Data.IntMap.Strict_eainsert
.n 3 e_Data.IntMap.Strict_dinsert e_Data.IntMap.Strict_eainsert
.o 1 0 
e_Data.IntMap.Strict_ninsert
	push_node _cycle_in_spine 3
.o 4 0 
e_Data.IntMap.Strict_eainsert
	jsr_eval 2
	jsr_eval 1
	jsr_eval 0
	pushI0_pop_a1 
.o 3 1 i
e_Data.IntMap.Strict_sinsert
.o 3 1 i
s6
	swap_a1 
s151
	pushD_a 0
	jmpD eb e_Data.IntMap.Base_kTip 0 case.194 case.195
case.193
	pop_b 1
	push_r_args 0 2 2
	push2_b 1
.d 0 3 iii
	push_b_jsr 4 e_Data.IntMap.Base_snomatch
.o 0 1 b
	jmp_false else.196
	push_ab 3 2
	buildhr e_Data.IntMap.Base_kTip 1 1
	updates2pop_a 0 3 4
	updates2_b 0 2 1
.d 3 2 ii
	pop_b_jmp 1 s45
else.196
	push_b2 1 2
.d 0 2 ii
	jsr s44
.o 0 1 b
	jmp_false else.197
	create 
	dup_a 3
	push_a 4
	updates3pop_a 0 2 3 5
.d 3 1 i
	push_b_jsr 2 s6
.o 1 0 
	push_update_a 0 1
	push2_b 1
	fill_r e_Data.IntMap.Base_kBin 2 2 3 0 0
.d 1 0 
	pop_ab_rtn 3 5
else.197
	create 
	dup_a 3
	push_a 4
	updates2pop_a 0 2 5
.d 3 1 i
	push_b_jsr 2 s6
.o 1 0 
	push_a 1
	push2_b 1
	fill_r e_Data.IntMap.Base_kBin 2 2 3 0 0
.d 1 0 
	pop_ab_rtn 3 5
case.194
	pop_b 1
	push_r_args 0 1 1
	pop_a 1
	push_b2 0 1
	jmp_neI else.198
	push_ab 1 1
	fill_r e_Data.IntMap.Base_kTip 1 1 3 0 0
.d 1 0 
	pop_ab_rtn 3 3
else.198
	push_ab 1 1
	buildhr e_Data.IntMap.Base_kTip 1 1
	update2pop_a 0 1
	swap_b1 
.d 3 2 ii
	jmp s45
case.195
	update_b 1 0
	push_a 1
	fill_r e_Data.IntMap.Base_kTip 1 1 3 0 0
.d 1 0 
	pop_ab_rtn 3 2
.o 3 1 i
s151.2
	pushD_a 0
	jmpD eb e_Data.IntMap.Base_kTip 0 case.200 case.201
case.199
	pop_b 1
	push_r_args 0 2 2
	push2_b 1
.d 0 3 iii
	push_b_jsr 4 e_Data.IntMap.Base_snomatch
.o 0 1 b
	jmp_false else.202
	push_ab 3 2
	buildhr e_Data.IntMap.Base_kTip 1 1
	updates2pop_a 0 3 4
	updates2_b 0 2 1
.d 3 2 ii
	pop_b_jmp 1 s45
else.202
	push_b2 1 2
.d 0 2 ii
	jsr s44
.o 0 1 b
	jmp_false else.203
	create 
	dup_a 3
	push_a 4
	updates3pop_a 0 2 3 5
.d 3 1 i
	push_b_jsr 2 s6
.o 1 0 
	push_update_a 0 1
	push2_b 1
	fill_r e_Data.IntMap.Base_kBin 2 2 3 0 0
.d 1 0 
	pop_ab_rtn 3 5
else.203
	create 
	dup_a 3
	push_a 4
	updates2pop_a 0 2 5
.d 3 1 i
	push_b_jsr 2 s6
.o 1 0 
	push_a 1
	push2_b 1
	fill_r e_Data.IntMap.Base_kBin 2 2 3 0 0
.d 1 0 
	pop_ab_rtn 3 5
case.200
	pop_b 1
	push_r_args 0 1 1
	pop_a 1
	push_b2 0 1
	jmp_neI else.204
	push_ab 1 1
	fill_r e_Data.IntMap.Base_kTip 1 1 3 0 0
.d 1 0 
	pop_ab_rtn 3 3
else.204
	push_ab 1 1
	buildhr e_Data.IntMap.Base_kTip 1 1
	update2pop_a 0 1
	swap_b1 
.d 3 2 ii
	jmp s45
case.201
	update_b 1 0
	push_a 1
	fill_r e_Data.IntMap.Base_kTip 1 1 3 0 0
.d 1 0 
	pop_ab_rtn 3 2
.o 3 2 ii
s45
	push2_b 1
.d 0 2 ii
	jsr e_Data.IntMap.Base_sbranchMask
.o 0 1 i
	push_b2 0 1
.d 0 2 ii
	jsr e_Data.IntMap.Base_smask
.o 0 1 i
	push_b2 1 2
.d 0 2 ii
	jsr s44
.o 0 1 b
	jmp_false else.205
	push2_a 1
	push2_b 1
	fill_r e_Data.IntMap.Base_kBin 2 2 4 0 0
.d 1 0 
	pop_ab_rtn 4 6
else.205
	push_a2 0 1
	push2_b 1
	fill_r e_Data.IntMap.Base_kBin 2 2 4 0 0
.d 1 0 
	pop_ab_rtn 4 6
.o 0 2 ii
s44
	push2_b 1
	and%
	pushI 0
	update_b 0 3
	updatepop_b 1 2
	eqI
.d 0 1 b
	rtn 
.export e_Data.IntMap.Strict_smapSize
.descexp e_Data.IntMap.Strict_dmapSize e_Data.IntMap.Strict_nmapSize e_Data.IntMap.Strict_lmapSize 1 0 "mapSize"
.o 2 0 
e_Data.IntMap.Strict_lmapSize
.d 1 0 
	pop_a_jsr 1 ea4
.o 0 1 i
	buildI_b 0
.d 1 0 
	pop_b_rtn 1
.n 1 e_Data.IntMap.Strict_dmapSize
.o 1 0 
e_Data.IntMap.Strict_nmapSize
	push_node _cycle_in_spine 1
.d 1 0 
	jsr ea4
.o 0 1 i
	fillI_b 0 0
.d 1 0 
	pop_b_rtn 1
.o 1 0 
ea4
	jsr_eval 0
.o 1 0 
e_Data.IntMap.Strict_smapSize
.o 1 0 
s4
.d 1 0 
	jmp s15
.export e_Data.IntMap.Strict_ssize
.descexp e_Data.IntMap.Strict_dsize e_Data.IntMap.Strict_nsize e_Data.IntMap.Strict_lsize 1 0 "size"
.o 2 0 
e_Data.IntMap.Strict_lsize
.d 1 0 
	pop_a_jsr 1 ea15
.o 0 1 i
	buildI_b 0
.d 1 0 
	pop_b_rtn 1
.n 1 e_Data.IntMap.Strict_dsize
.o 1 0 
e_Data.IntMap.Strict_nsize
	push_node _cycle_in_spine 1
.d 1 0 
	jsr ea15
.o 0 1 i
	fillI_b 0 0
.d 1 0 
	pop_b_rtn 1
.o 1 0 
ea15
	jsr_eval 0
.o 1 0 
e_Data.IntMap.Strict_ssize
.o 1 0 
s15
s150
	pushD_a 0
	jmpD eb e_Data.IntMap.Base_kTip 0 case.207 case.208
case.206
	pop_b 1
	repl_r_args 2 2
	pop_b 2
	swap_a1 
.d 1 0 
	jsr s15
.o 0 1 i
.d 1 0 
	jsr s15
.o 0 1 i
	addI
.d 0 1 i
	rtn 
case.207
	pop_b 1
	pushI 1
.d 0 1 i
	pop_a_rtn 1
case.208
	pop_b 1
	pushI 0
.d 0 1 i
	pop_a_rtn 1
.export e_Data.IntMap.Strict_ssingleton
.export e_Data.IntMap.Strict_easingleton
.descexp e_Data.IntMap.Strict_dsingleton e_Data.IntMap.Strict_nsingleton e_Data.IntMap.Strict_lsingleton 2 0 "singleton"
.a 2 e_Data.IntMap.Strict_easingleton
.o 2 0 
e_Data.IntMap.Strict_lsingleton
	push_args 0 1 1
	update_a 2 1
	create 
.d 3 0 
	put_a_jmp 3 e_Data.IntMap.Strict_easingleton
.n 2 e_Data.IntMap.Strict_dsingleton e_Data.IntMap.Strict_easingleton
.o 1 0 
e_Data.IntMap.Strict_nsingleton
	push_node _cycle_in_spine 2
.o 3 0 
e_Data.IntMap.Strict_easingleton
	jsr_eval 1
	jsr_eval 0
	pushI0_pop_a1 
.o 2 1 i
e_Data.IntMap.Strict_ssingleton
.o 2 1 i
s3
	push_ab 0 0
	fill_r e_Data.IntMap.Base_kTip 1 1 2 0 0
.d 1 0 
	pop_ab_rtn 2 2
.export e_Data.IntMap.Strict_snewMap
.export e_Data.IntMap.Strict_eanewMap
.descexp e_Data.IntMap.Strict_dnewMap e_Data.IntMap.Strict_nnewMap e_Data.IntMap.Strict_lnewMap 0 0 "newMap"
.o 1 0 
e_Data.IntMap.Strict_lnewMap
	halt
.n 0 e_Data.IntMap.Strict_dnewMap e_Data.IntMap.Strict_eanewMap
.o 1 0 
e_Data.IntMap.Strict_nnewMap
	push_node _cycle_in_spine 0
.o 1 0 
e_Data.IntMap.Strict_eanewMap
.o 1 0 
e_Data.IntMap.Strict_snewMap
.o 1 0 
s2
	fillh e_Data.IntMap.Base_dNil 0 0
.d 1 0 
	rtn 
.export e_Data.IntMap.Strict_snull
.descexp e_Data.IntMap.Strict_dnull e_Data.IntMap.Strict_nnull e_Data.IntMap.Strict_lnull 1 0 "null"
.o 2 0 
e_Data.IntMap.Strict_lnull
.d 1 0 
	pop_a_jsr 1 ea1
.o 0 1 b
	buildB_b 0
.d 1 0 
	pop_b_rtn 1
.n 1 e_Data.IntMap.Strict_dnull
.o 1 0 
e_Data.IntMap.Strict_nnull
	push_node _cycle_in_spine 1
.d 1 0 
	jsr ea1
.o 0 1 b
	fillB_b 0 0
.d 1 0 
	pop_b_rtn 1
.o 1 0 
ea1
	jsr_eval 0
.o 1 0 
e_Data.IntMap.Strict_snull
.o 1 0 
s1
	eq_desc e_Data.IntMap.Base_dNil 0 0
.d 0 1 b
	pop_a_rtn 1
.o 4 0 
s262
case.209
	jmp_ne_desc _Just 1 0 case.210
	repl_args 1 1
	push_jsr_eval 2
	push_a 1
	buildh e_StdGeneric_dCONS 1
	buildh _Just 1
	update2pop_a 0 4
.d 2 0 
	rtn 
case.210
	pop_a 3
	buildh _Nothing 0
.d 2 0 
	rtn 
.o 4 0 
s264
case.212
	jmp_ne_desc _Just 1 0 case.213
	repl_args 1 1
	push_jsr_eval 2
	push_a 1
	buildh e_StdGeneric_dCONS 1
	buildh _Just 1
	update2pop_a 0 4
.d 2 0 
	rtn 
case.213
	pop_a 3
	buildh _Nothing 0
.d 2 0 
	rtn 
.o 2 0 
s271
	create 
	swap_a1 
.d 2 0 
	jsr s81
.o 1 0 
.d 2 0 
	rtn 
.o 3 0 
s272
case.215
	jmp_ne_desc _Just 1 0 case.216
	repl_args 1 1
	push_a 0
	buildh _Just 1
	updates2pop_a 0 2 3
.d 2 0 
	rtn 
case.216
	pop_a 2
	buildh _Nothing 0
.d 2 0 
	rtn 
.o 8 0 
s273
	jmp_ne_desc _Just 1 0 case.219
	repl_args 1 1
	push_a 0
	buildh e_StdGeneric_dLEFT 1
	buildh _Just 1
	update_a 2 8
	updatepop_a 0 7
.d 2 0 
	rtn 
case.219
	updates4_a 5 4 3 2 1
	updates2_a 7 6 5
	pushB FALSE
.d 6 1 b
	pop_a_jsr 1 s126
.o 2 0 
.d 3 0 
	jmp s277
.o 6 0 
s274
	jmp_ne_desc _Just 1 0 case.221
	repl_args 1 1
	push_a 0
	buildh e_StdGeneric_dLEFT 1
	buildh _Just 1
	update_a 2 6
	updatepop_a 0 5
.d 2 0 
	rtn 
case.221
	updates4_a 5 4 3 2 1
	pushB FALSE
.d 4 1 b
	pop_a_jsr 1 s127
.o 2 0 
.d 3 0 
	jmp s276
.o 4 0 
s275
case.222
	jmp_ne_desc _Just 1 0 case.223
	repl_args 1 1
	push_jsr_eval 2
	push_a 1
	buildh e_StdGeneric_dCONS 1
	buildh _Just 1
	update2pop_a 0 4
.d 2 0 
	rtn 
case.223
	pop_a 3
	buildh _Nothing 0
.d 2 0 
	rtn 
.o 3 0 
s276
	jmp_ne_desc _Just 1 0 case.226
	repl_args 1 1
	push_a 0
	buildh e_StdGeneric_dRIGHT 1
	buildh _Just 1
	updates2pop_a 0 2 3
.d 2 0 
	rtn 
case.226
	pop_a 2
	buildh _Nothing 0
.d 2 0 
	rtn 
.o 3 0 
s277
	jmp_ne_desc _Just 1 0 case.228
	repl_args 1 1
	push_a 0
	buildh e_StdGeneric_dRIGHT 1
	buildh _Just 1
	updates2pop_a 0 2 3
.d 2 0 
	rtn 
case.228
	pop_a 2
	buildh _Nothing 0
.d 2 0 
	rtn 
