.comp 920 000011110011000
.start _nostart_
.depend "Text.Encodings.MIME" "20210609153506"
.depend "Data.Func" "20210609153506"
.depend "StdCharList" "20210609153507"
.depend "_SystemArray" "20210609153507"
.depend "StdArray" "20210609153507"
.depend "StdEnv" "20210609153507"
.depend "_SystemEnum" "20210609153507"
.depend "StdEnum" "20210609153507"
.depend "StdTuple" "20210609153507"
.depend "StdOrdList" "20210609153507"
.depend "Control.Monad.Trans" "20210609153506"
.depend "StdMaybe" "20210609153507"
.depend "_SystemStrictMaybes" "20210609153507"
.depend "Data.Maybe" "20210609153506"
.depend "iTasks.UI.Editor.Modifiers" "20210609153501"
.depend "iTasks.UI.Tune" "20210609153501"
.depend "iTasks.UI.Editor.Controls" "20210609153501"
.depend "System._Signal" "20210609153506"
.depend "System.Signal" "20210609153506"
.depend "Text.GenPrint" "20210609153507"
.depend "iTasks.Extensions.DateTime" "20210609153500"
.depend "iTasks.Internal.TaskServer" "20210609153501"
.depend "System.File" "20210609153506"
.depend "iTasks.Util.DeferredJSON" "20210609153501"
.depend "iTasks.Internal.SDS" "20210609153501"
.depend "iTasks.Internal.TaskEval" "20210609153501"
.depend "iTasks.UI.Layout" "20210609153501"
.depend "iTasks.Internal.TaskState" "20210609153501"
.depend "iTasks.WF.Combinators.Core" "20210609153501"
.depend "Data.IntMap.Base" "20210609153506"
.depend "Data.IntMap.Strict" "20210609153506"
.depend "Data.CircularStack" "20210609153506"
.depend "System._Process" "20210609153506"
.depend "System.Process" "20210609153506"
.depend "System.OS" "20210609153506"
.depend "Data.GenHash" "20210609153506"
.depend "Data.Maybe.Ord" "20210609153506"
.depend "Control.GenBimap" "20210609153506"
.depend "ABC.Interpreter.JavaScript" "20210609153507"
.depend "ABC.Interpreter" "20210609153507"
.depend "iTasks.UI.Editor" "20210609153501"
.depend "iTasks.UI.Editor.Generic" "20210609153501"
.depend "iTasks.Internal.Generic.Defaults" "20210609153501"
.depend "Data.GenDefault" "20210609153506"
.depend "Data.Integer" "20210609153506"
.depend "Text.HTML" "20210609153506"
.depend "iTasks.Internal.Generic.Visualization" "20210609153501"
.depend "iTasks.SDS.Definition" "20210609153501"
.depend "TCPStringChannelsInternal" "20210609153507"
.depend "TCPStringChannels" "20210609153507"
.depend "TCPEvent" "20210609153507"
.depend "tcp_bytestreams" "20210609153507"
.depend "TCPDef" "20210609153507"
.depend "TCPChannels" "20210609153507"
.depend "TCPIP" "20210609153507"
.depend "iTasks.WF.Tasks.IO" "20210609153501"
.depend "iTasks.Internal.Task" "20210609153501"
.depend "iTasks.UI.Definition" "20210609153501"
.depend "Text.GenJSON" "20210609153506"
.depend "Data.Bifunctor" "20210609153506"
.depend "Data.Either" "20210609153506"
.depend "Data.Queue" "20210609153506"
.depend "StdFile" "20210609153507"
.depend "symbols_in_program" "20210609153507"
.depend "iTasks.Internal.IWorld" "20210609153501"
.depend "iTasks.WF.Definition" "20210609153501"
.depend "tcp" "20210609153507"
.depend "TCPChannelClass" "20210609153507"
.depend "Control.Monad.Fail" "20210609153506"
.depend "Data.Traversable" "20210609153506"
.depend "StdMisc" "20210609153507"
.depend "StdOverloadedList" "20210609153507"
.depend "Data.List" "20210609153506"
.depend "Data.Foldable" "20210609153506"
.depend "Data.Set" "20210609153506"
.depend "Data.GenLexOrd" "20210609153506"
.depend "StdFunctions" "20210609153507"
.depend "StdFunc" "20210609153507"
.depend "Data.Map" "20210609153506"
.depend "StdString" "20210609153507"
.depend "Internet.HTTP" "20210609153506"
.depend "System._Time" "20210609153506"
.depend "System.Time" "20210609153506"
.depend "System.OSError" "20210609153506"
.depend "System.FilePath" "20210609153506"
.depend "_SystemEnumStrict" "20210609153507"
.depend "_SystemStrictLists" "20210609153507"
.depend "StdStrictLists" "20210609153507"
.depend "StdGeneric" "20210609153507"
.depend "Data.GenEq" "20210609153506"
.depend "StdReal" "20210609153507"
.depend "StdChar" "20210609153507"
.depend "StdInt" "20210609153507"
.depend "StdBool" "20210609153507"
.depend "StdClass" "20210609153507"
.depend "StdList" "20210609153507"
.depend "Data.Monoid" "20210609153506"
.depend "Control.Applicative" "20210609153506"
.depend "Control.Monad" "20210609153506"
.depend "Data.Functor" "20210609153506"
.depend "Data.Error" "20210609153506"
.depend "iTasks.Engine" "20210609153501"
.depend "StdOverloaded" "20210609153507"
.depend "_SystemDynamic" "20210609153507"
.depend "iTasks.Extensions.Document" "20210609153500"
.module m_iTasks.Extensions.Document "iTasks.Extensions.Document" "20210609153500"
.endinfo
.impmod _system
.implab _cycle_in_spine
.implab _type_error
.implab _hnf
.impdesc e_system_dind
.implab e_system_nind e_system_eaind
.impdesc e_system_dif
.implab e_system_nif e_system_eaif
.implab e_system_sif
.impdesc e_system_dAP
.implab e_system_nAP e_system_eaAP
.implab e_system_sAP
.impdesc ARRAY
.impdesc _Nil
.impdesc _Cons
.impdesc _Conss
.implab n_Conss ea_Conss
.impdesc _Consts
.implab n_Consts ea_Consts
.impdesc _Conssts
.implab n_Conssts ea_Conssts
.impdesc _Tuple
.impdesc d_S.1
.implab n_S.1 ea_S.1
.impdesc d_S.2
.implab n_S.2 ea_S.2
.impdesc d_S.3
.implab n_S.3 ea_S.3
.impdesc d_S.4
.implab n_S.4 ea_S.4
.impdesc d_S.5
.implab n_S.5 ea_S.5
.impdesc d_S.6
.implab n_S.6 ea_S.6
.implab _driver
.impmod Text.Encodings.MIME
.implab e_Text.Encodings.MIME_sextensionToMimeType
.impmod _SystemArray
.impmod Data.Maybe
.implab e_Data.Maybe_sfmap;5
.impmod iTasks.UI.Editor.Modifiers
.implab e_iTasks.UI.Editor.Modifiers_smapEditorRead
.implab e_iTasks.UI.Editor.Modifiers_smapEditorWrite
.impmod iTasks.UI.Editor.Controls
.implab e_iTasks.UI.Editor.Controls_sdocumentField
.implab e_iTasks.UI.Editor.Controls_shtmlView
.impmod System.File
.implab e_System.File_sdeleteFile
.impdesc e_System.File_dtoString;11
.implab e_System.File_ntoString;11
.impdesc e_System.File_dTD;FileError
.impmod iTasks.Internal.TaskState
.implab e_iTasks.Internal.TaskState_screateDocument
.impdesc e_iTasks.Internal.TaskState_ddeleteDocumentShares
.implab e_iTasks.Internal.TaskState_ndeleteDocumentShares
.implab e_iTasks.Internal.TaskState_sloadDocumentContent
.impmod iTasks.UI.Editor
.implab e_iTasks.UI.Editor_sbinumap_Editor;15
.impmod iTasks.UI.Editor.Generic
.impdesc e_iTasks.UI.Editor.Generic_dgEditor_UNIT;0
.impdesc e_iTasks.UI.Editor.Generic_dgEditor_EITHER;1
.implab e_iTasks.UI.Editor.Generic_sgEditor_PAIR;2
.impdesc e_iTasks.UI.Editor.Generic_dgEditor_OBJECT;3
.implab e_iTasks.UI.Editor.Generic_ngEditor_OBJECT;3
.impdesc e_iTasks.UI.Editor.Generic_dgEditor_CONS;4
.impdesc e_iTasks.UI.Editor.Generic_dgEditor__String;11
.impmod iTasks.Internal.Generic.Visualization
.impdesc e_iTasks.Internal.Generic.Visualization_dgText_UNIT;5
.implab e_iTasks.Internal.Generic.Visualization_sgText_PAIR;6
.impdesc e_iTasks.Internal.Generic.Visualization_dgText_EITHER;7
.impdesc e_iTasks.Internal.Generic.Visualization_dgText_CONS;8
.implab e_iTasks.Internal.Generic.Visualization_sgText_OBJECT;9
.impdesc e_iTasks.Internal.Generic.Visualization_dgText__String;16
.impmod iTasks.Internal.Task
.implab e_iTasks.Internal.Task_smkInstantTask
.impmod Text.GenJSON
.implab e_Text.GenJSON_sJSONEncode_Int;12
.implab e_Text.GenJSON_sJSONEncode__String;16
.implab e_Text.GenJSON_sJSONDecode_Int;42
.implab e_Text.GenJSON_sJSONDecode__String;46
.impmod StdFile
.implab e_StdFile_sfreads
.implab e_StdFile_sfwrites
.implab e_StdFile_sfclose;31
.implab e_StdFile_sfopen;32
.impmod StdMisc
.implab e_StdMisc_sabort
.impmod Data.List
.implab e_Data.List_s!?
.impmod StdFunctions
.impdesc e_StdFunctions_dconst
.impmod StdString
.implab e_StdString_s==;2
.impdesc e_StdString_d+++;11
.implab e_StdString_s+++;11
.implab e_StdString_n+++;11
.impmod System.FilePath
.implab e_System.FilePath_stakeExtension
.implab e_System.FilePath_sdropDirectory
.impmod Data.GenEq
.implab e_Data.GenEq_sgEq_Int;7
.implab e_Data.GenEq_sgEq__String;11
.impmod StdInt
.implab e_StdInt_s==;16
.implab e_StdInt_s<;17
.impmod StdBool
.implab e_StdBool_snot
.impmod Data.Error
.implab e_Data.Error_sisError
.impdesc e_Data.Error_dfromOk
.implab e_Data.Error_nfromOk _
.impdesc e_Data.Error_dfromError
.implab e_Data.Error_nfromError _
.impmod System.File
.impdesc e_System.File_dCannotOpen
.impdesc e_System.File_dCannotClose
.impdesc e_System.File_dIOError
.impmod iTasks.UI.Editor.Generic
.impdesc e_iTasks.UI.Editor.Generic_dEditValue
.impdesc e_iTasks.UI.Editor.Generic_dViewValue
.impmod Text.HTML
.impdesc e_Text.HTML_kText
.impdesc e_Text.HTML_kATag
.impdesc e_Text.HTML_kHrefAttr
.impdesc e_Text.HTML_kTargetAttr
.impmod Text.GenJSON
.impdesc e_Text.GenJSON_dJSONNull
.impdesc e_Text.GenJSON_kJSONString
.impdesc e_Text.GenJSON_dJSONString
.implab e_Text.GenJSON_nJSONString e_Text.GenJSON_eaJSONString
.impdesc e_Text.GenJSON_kJSONArray
.impdesc e_Text.GenJSON_kJSONObject
.impdesc e_Text.GenJSON_dJSONObject
.implab e_Text.GenJSON_nJSONObject e_Text.GenJSON_eaJSONObject
.impmod iTasks.Internal.IWorld
.impdesc e_iTasks.Internal.IWorld_rIWorld
.impdesc e_iTasks.Internal.IWorld_tIWorld
.implab e_iTasks.Internal.IWorld_cIWorld
.impdesc e_iTasks.Internal.IWorld_dIWorld.world
.implab e_iTasks.Internal.IWorld_nIWorld.world e_iTasks.Internal.IWorld_eaIWorld.world
.impmod StdGeneric
.impdesc e_StdGeneric_dUNIT
.impdesc e_StdGeneric_dLEFT
.impdesc e_StdGeneric_dRIGHT
.impdesc e_StdGeneric_dPAIR
.impdesc e_StdGeneric_dCONS
.impdesc e_StdGeneric_dRECORD
.impdesc e_StdGeneric_rGenericTypeDefDescriptor
.impdesc e_StdGeneric_rGenericConsDescriptor
.impdesc e_StdGeneric_dGenConsNoPrio
.impdesc e_StdGeneric_dGenTypeCons
.impdesc e_StdGeneric_dGenTypeApp
.impdesc e_StdGeneric_dGenTypeArrow
.impmod Data.Error
.impdesc e_Data.Error_dError
.impdesc e_Data.Error_dOk
.impmod _SystemDynamic
.impdesc e__SystemDynamic_rDynamicTemp
.impdesc e__SystemDynamic_kTypeCons
.impdesc e__SystemDynamic_kTypeApp
.impdesc e__SystemDynamic_rTypeCodeConstructor
.impdesc e__SystemDynamic_dTC_Int
.impdesc e__SystemDynamic_dTC_Char
.impdesc e__SystemDynamic_dTC__Tuple2
.impdesc e__SystemDynamic_dTC__UnboxedArray
.export e_iTasks.Extensions.Document_rDocument
.record e_iTasks.Extensions.Document_rDocument aaaai 4 1 "Document"
.descexp e_iTasks.Extensions.Document_tDocument e_iTasks.Extensions.Document_cDocument _hnf 5 1 "Document"
.n 5 e_iTasks.Extensions.Document_tDocument
.o 1 0 
e_iTasks.Extensions.Document_cDocument
	push_node _cycle_in_spine 5
	jsr_eval 4
	jsr_eval 3
	jsr_eval 2
	jsr_eval 1
	jsr_eval 0
	pushI_a 4
	push_array 3
	push_array 3
	push_array 3
	push_array 3
	update_a 3 8
	update3pop_a 0 5
.impmod iTasks.Extensions.Document
.impdesc e_iTasks.Extensions.Document_rDocument
	fill_r e_iTasks.Extensions.Document_rDocument 4 1 4 0 0
.d 1 0 
	pop_ab_rtn 4 1
.export e_iTasks.Extensions.Document_dDocument.documentId
.export e_iTasks.Extensions.Document_nDocument.documentId
.desc e_iTasks.Extensions.Document_dDocument.documentId e_iTasks.Extensions.Document_nDocument.documentId _hnf 1 0 "Document.documentId"
.n 1 e_iTasks.Extensions.Document_dDocument.documentId
.o 1 0 
e_iTasks.Extensions.Document_nDocument.documentId
	push_node _cycle_in_spine 1
	jsr_eval 0
	repl_r_args_a 4 1 1 1
	fillh ARRAY 1 1
.d 1 0 
	rtn 
.export e_iTasks.Extensions.Document_dDocument.contentUrl
.export e_iTasks.Extensions.Document_nDocument.contentUrl
.desc e_iTasks.Extensions.Document_dDocument.contentUrl e_iTasks.Extensions.Document_nDocument.contentUrl _hnf 1 0 "Document.contentUrl"
.n 1 e_iTasks.Extensions.Document_dDocument.contentUrl
.o 1 0 
e_iTasks.Extensions.Document_nDocument.contentUrl
	push_node _cycle_in_spine 1
	jsr_eval 0
	repl_r_args_a 4 1 2 1
	fillh ARRAY 1 1
.d 1 0 
	rtn 
.export e_iTasks.Extensions.Document_dDocument.name
.export e_iTasks.Extensions.Document_nDocument.name
.desc e_iTasks.Extensions.Document_dDocument.name e_iTasks.Extensions.Document_nDocument.name _hnf 1 0 "Document.name"
.n 1 e_iTasks.Extensions.Document_dDocument.name
.o 1 0 
e_iTasks.Extensions.Document_nDocument.name
	push_node _cycle_in_spine 1
	jsr_eval 0
	repl_r_args_a 4 1 3 1
	fillh ARRAY 1 1
.d 1 0 
	rtn 
.export e_iTasks.Extensions.Document_dDocument.mime
.export e_iTasks.Extensions.Document_nDocument.mime
.desc e_iTasks.Extensions.Document_dDocument.mime e_iTasks.Extensions.Document_nDocument.mime _hnf 1 0 "Document.mime"
.n 1 e_iTasks.Extensions.Document_dDocument.mime
.o 1 0 
e_iTasks.Extensions.Document_nDocument.mime
	push_node _cycle_in_spine 1
	jsr_eval 0
	repl_r_args_a 4 1 4 1
	fillh ARRAY 1 1
.d 1 0 
	rtn 
.export e_iTasks.Extensions.Document_dDocument.size
.export e_iTasks.Extensions.Document_nDocument.size
.descs e_iTasks.Extensions.Document_dDocument.size e_iTasks.Extensions.Document_nDocument.size INT 6 0 "Document.size"
.n -3 e_iTasks.Extensions.Document_dDocument.size
.o 1 0 
e_iTasks.Extensions.Document_nDocument.size
	push_node _cycle_in_spine 1
	jsr_eval 0
	push_r_args_b 0 4 1 1 1
	pop_a 1
	fillI_b 0 0
.d 1 0 
	pop_b_rtn 1
.export e_iTasks.Extensions.Document_eaFileException
.descexp e_iTasks.Extensions.Document_dFileException e_iTasks.Extensions.Document_nFileException e_iTasks.Extensions.Document_lFileException 2 0 "FileException"
.a 2 e_iTasks.Extensions.Document_eaFileException
.o 2 0 
e_iTasks.Extensions.Document_lFileException
	push_args 0 1 1
	update_a 2 1
	create 
.d 3 0 
	put_a_jmp 3 e_iTasks.Extensions.Document_eaFileException
.n 2 e_iTasks.Extensions.Document_dFileException e_iTasks.Extensions.Document_eaFileException
.o 1 0 
e_iTasks.Extensions.Document_nFileException
	push_node _cycle_in_spine 2
.o 3 0 
e_iTasks.Extensions.Document_eaFileException
	jsr_eval 1
	jsr_eval 0
	push_array 0
	put_a 1
	fill_r e_iTasks.Extensions.Document_kFileException 2 0 2 0 0
.d 1 0 
	pop_a_rtn 2
.export e_iTasks.Extensions.Document_kFileException
.record e_iTasks.Extensions.Document_kFileException daa 2 0 "FileException"
.export e_iTasks.Extensions.Document_sTD;FileException
.export e_iTasks.Extensions.Document_eaTD;FileException
.descexp e_iTasks.Extensions.Document_dTD;FileException e_iTasks.Extensions.Document_nTD;FileException e_iTasks.Extensions.Document_lTD;FileException 1 0 "TD;FileException"
.o 2 0 
e_iTasks.Extensions.Document_lTD;FileException
	update_a 1 0
	create 
.d 2 0 
	put_a_jmp 2 e_iTasks.Extensions.Document_eaTD;FileException
.n 1 e_iTasks.Extensions.Document_dTD;FileException e_iTasks.Extensions.Document_eaTD;FileException
.o 1 0 
e_iTasks.Extensions.Document_nTD;FileException
	push_node _cycle_in_spine 1
.o 2 0 
e_iTasks.Extensions.Document_eaTD;FileException
.o 2 0 
e_iTasks.Extensions.Document_sTD;FileException
.o 2 0 
s19
	fillh _Nil 0 1
.d 1 0 
	pop_a_rtn 1
.export e_iTasks.Extensions.Document_sTD;DocumentId
.export e_iTasks.Extensions.Document_eaTD;DocumentId
.descexp e_iTasks.Extensions.Document_dTD;DocumentId e_iTasks.Extensions.Document_nTD;DocumentId e_iTasks.Extensions.Document_lTD;DocumentId 1 0 "TD;DocumentId"
.o 2 0 
e_iTasks.Extensions.Document_lTD;DocumentId
	update_a 1 0
	create 
.d 2 0 
	put_a_jmp 2 e_iTasks.Extensions.Document_eaTD;DocumentId
.n 1 e_iTasks.Extensions.Document_dTD;DocumentId e_iTasks.Extensions.Document_eaTD;DocumentId
.o 1 0 
e_iTasks.Extensions.Document_nTD;DocumentId
	push_node _cycle_in_spine 1
.o 2 0 
e_iTasks.Extensions.Document_eaTD;DocumentId
.o 2 0 
e_iTasks.Extensions.Document_sTD;DocumentId
.o 2 0 
s18
	fillh _Nil 0 1
.d 1 0 
	pop_a_rtn 1
.export e_iTasks.Extensions.Document_sTD;Document
.export e_iTasks.Extensions.Document_eaTD;Document
.descexp e_iTasks.Extensions.Document_dTD;Document e_iTasks.Extensions.Document_nTD;Document e_iTasks.Extensions.Document_lTD;Document 1 0 "TD;Document"
.o 2 0 
e_iTasks.Extensions.Document_lTD;Document
	update_a 1 0
	create 
.d 2 0 
	put_a_jmp 2 e_iTasks.Extensions.Document_eaTD;Document
.n 1 e_iTasks.Extensions.Document_dTD;Document e_iTasks.Extensions.Document_eaTD;Document
.o 1 0 
e_iTasks.Extensions.Document_nTD;Document
	push_node _cycle_in_spine 1
.o 2 0 
e_iTasks.Extensions.Document_eaTD;Document
.o 2 0 
e_iTasks.Extensions.Document_sTD;Document
.o 2 0 
s17
	fillh _Nil 0 1
.d 1 0 
	pop_a_rtn 1
.export e_iTasks.Extensions.Document_sgEq_FileException;15
.descexp e_iTasks.Extensions.Document_dgEq_FileException;15 e_iTasks.Extensions.Document_ngEq_FileException;15 e_iTasks.Extensions.Document_lgEq_FileException;15 2 0 "gEq_FileException;15"
.o 3 0 
e_iTasks.Extensions.Document_igEq_FileException;15
.d 2 0 
	pop_a_jmp 1 s16
.ai 0 a16 e_iTasks.Extensions.Document_igEq_FileException;15
.o 2 0 
e_iTasks.Extensions.Document_lgEq_FileException;15
	repl_args 1 1
.o 2 0 
a16
.d 2 0 
	jsr ea16
.o 0 1 b
	buildB_b 0
.d 1 0 
	pop_b_rtn 1
.n 2 e_iTasks.Extensions.Document_dgEq_FileException;15
.o 1 0 
e_iTasks.Extensions.Document_ngEq_FileException;15
	push_node _cycle_in_spine 2
.d 2 0 
	jsr ea16
.o 0 1 b
	fillB_b 0 0
.d 1 0 
	pop_b_rtn 1
.o 2 0 
ea16
	jsr_eval 1
	jsr_eval 0
.o 2 0 
e_iTasks.Extensions.Document_sgEq_FileException;15
.o 2 0 
s16
	create 
	push_a 2
	update3pop_a 0 1
.d 2 0 
	jsr s45
.o 1 0 
	create 
	push_a 2
.d 2 0 
	buildh0_put_a_jsr _Nil 4 s45
.o 1 0 
	update2pop_a 0 1
s174
s175
	repl_args 1 1
	push_args 1 1 1
	buildh0_put_a _Nil 3
	jsr_eval 0
	push_a2 0 1
	jsr_eval 0
	update2pop_a 0 3
s176
	repl_args 2 2
	push_args 2 2 2
	buildh0_put_a _Nil 5
	jsr_eval 0
	push_a 0
	push_array 0
	updates2_a 4 0 1
	jsr_eval 0
	push_array 0
	updates2_a 4 6 7
	update_a 2 5
	updatepop_a 0 4
.d 2 0 
	jsr e_Data.GenEq_sgEq__String;11
.o 0 1 b
	jmp_false else.1
	jsr_eval 0
	push_a2 0 1
	jsr_eval 0
	update2pop_a 0 2
.d 2 0 
	jmp s36
else.1
	pushB FALSE
.d 0 1 b
	pop_a_rtn 2
.o 2 0 
s36
	create 
	push_a 2
	update3pop_a 0 1
.d 2 0 
	jsr s55
.o 1 0 
	create 
	push_a 2
.d 2 0 
	buildh0_put_a_jsr _Nil 4 s55
.o 1 0 
	update2pop_a 0 1
s169
s170
	jmp_ne_desc e_StdGeneric_dLEFT 1 0 case.3
	repl_args 1 1
	jmp_ne_desc e_StdGeneric_dLEFT 1 1 case.5
	push_args 1 1 1
	buildh0_put_a _Nil 3
	jsr_eval 0
	push_a2 0 1
	jsr_eval 0
	update2pop_a 0 3
.d 2 0 
	jmp s164
case.5
	push_args 1 1 1
	pushB FALSE
.d 0 1 b
	pop_a_rtn 3
case.3
	repl_args 1 1
	jmp_ne_desc e_StdGeneric_dRIGHT 1 1 case.7
	push_args 1 1 1
	buildh0_put_a _Nil 3
	jsr_eval 0
	push_a2 0 1
	jsr_eval 0
	update2pop_a 0 3
.d 2 0 
	jmp s168
case.7
	push_args 1 1 1
	pushB FALSE
.d 0 1 b
	pop_a_rtn 3
.o 2 0 
s168
	jmp_ne_desc e_StdGeneric_dLEFT 1 0 case.9
	repl_args 1 1
	jmp_ne_desc e_StdGeneric_dLEFT 1 1 case.11
	push_args 1 1 1
	buildh0_put_a _Nil 3
	jsr_eval 0
	push_a2 0 1
	jsr_eval 0
	update2pop_a 0 3
.d 2 0 
	jmp s164
case.11
	push_args 1 1 1
	pushB FALSE
.d 0 1 b
	pop_a_rtn 3
case.9
	repl_args 1 1
	jmp_ne_desc e_StdGeneric_dRIGHT 1 1 case.13
	push_args 1 1 1
	buildh0_put_a _Nil 3
	jsr_eval 0
	push_a2 0 1
	jsr_eval 0
	update2pop_a 0 3
.d 2 0 
	jmp s164
case.13
	push_args 1 1 1
	pushB FALSE
.d 0 1 b
	pop_a_rtn 3
.o 2 0 
s164
	repl_args 1 1
	push_args 1 1 1
	buildh0_put_a _Nil 3
	jsr_eval 0
	push_a2 0 1
	jsr_eval 0
	update2pop_a 0 3
s96
	pushB TRUE
.d 0 1 b
	pop_a_rtn 2
.export e_iTasks.Extensions.Document_sJSONDecode_FileException;14
.descexp e_iTasks.Extensions.Document_dJSONDecode_FileException;14 e_iTasks.Extensions.Document_nJSONDecode_FileException;14 e_iTasks.Extensions.Document_lJSONDecode_FileException;14 2 0 "JSONDecode_FileException;14"
.o 2 1 b
e_iTasks.Extensions.Document_iJSONDecode_FileException;14
.d 1 1 b
	pop_a_jmp 1 s15
.ai 0 a15 e_iTasks.Extensions.Document_iJSONDecode_FileException;14
.o 2 0 
e_iTasks.Extensions.Document_lJSONDecode_FileException;14
	repl_args 1 1
.o 2 0 
a15
.d 2 0 
	jsr ea15
.o 2 0 
	buildh _Tuple 2
.d 1 0 
	rtn 
.n 2 e_iTasks.Extensions.Document_dJSONDecode_FileException;14
.o 1 0 
e_iTasks.Extensions.Document_nJSONDecode_FileException;14
	push_node _cycle_in_spine 2
.d 2 0 
	jsr ea15
.o 2 0 
	fillh _Tuple 2 2
.d 1 0 
	rtn 
.o 2 0 
ea15
	jsr_eval 1
	jsr_eval 0
	pushB0_pop_a1 
.o 1 1 b
e_iTasks.Extensions.Document_sJSONDecode_FileException;14
.o 1 1 b
s15
	push_ab 0 0
	buildAC "FileException"
	buildh ARRAY 1
	put_b 1
	update2pop_a 0 1
.d 2 1 b
	jsr s160
.o 2 0 
.d 2 0 
	jmp s445
.o 2 1 b
s160
	push_update_a 0 1
	pop_b_pushB 1 FALSE
.d 2 1 b
	jsr s161
.o 2 0 
.d 3 0 
	jmp s444
.o 2 1 b
s161
	jmp_ne_desc _Cons 2 1 case.15
	push_args 1 2 2
	jsr_eval 0
	jmp_eq_desc e_Text.GenJSON_kJSONArray 0 0 case.16
	pop_a_jmp 2 case.15
case.16
	repl_args 1 1
	jmp_eq_desc _Cons 2 0 case.17
	pop_a_jmp 2 case.15
case.17
	repl_args 2 2
	jsr_eval 0
	jmp_eq_desc e_Text.GenJSON_kJSONString 0 0 case.18
	pop_a_jmp 3 case.15
case.18
	repl_args 1 1
	push_array 3
	swap_a1 
	pop_b 1
.d 2 0 
	buildh0_put_a_jsr _Nil 5 eqAC
.o 0 1 b
	jmp_false else.19
	jsr_eval 0
	update2pop_a 0 1
	pushB FALSE
.d 1 1 b
	jsr s162
.o 2 0 
.d 4 0 
	jmp s443
else.19
	pop_a 3
	buildh _Nothing 0
.d 2 0 
	rtn 
case.15
	pop_a 1
	buildh _Nothing 0
.d 2 0 
	pop_b_rtn 1
.o 1 1 b
s162
	push_a 0
	pop_b_pushB 1 FALSE
.d 1 1 b
	jsr e_Text.GenJSON_sJSONDecode__String;46
.o 2 0 
s163
	jmp_ne_desc _Just 1 0 case.21
	repl_args 1 1
	swap_a1 
	pushB FALSE
.d 1 1 b
	jsr s35
.o 2 0 
	push_a 2
	update3pop_a 0 1
.d 4 0 
	jmp s67
case.21
	pop_a 2
	buildh _Nothing 0
.d 2 0 
	rtn 
.o 1 1 b
s35
	push_ab 0 0
	buildAC "IOError"
	buildh ARRAY 1
	buildAC "CannotClose"
	buildh ARRAY 1
	buildAC "CannotOpen"
	buildh ARRAY 1
	put_b 1
	update_a 3 4
	update3pop_a 0 1
.d 4 1 b
	jsr s155
.o 2 0 
.d 2 0 
	jmp s440
.o 4 1 b
s155
	push_update_a 0 1
	updates2_a 4 3 2
	pop_b_pushB 1 FALSE
.d 4 1 b
	jsr s156
.o 2 0 
.d 3 0 
	jmp s439
.o 4 1 b
s156
	push_update_a 0 3
	pop_b_pushB 1 FALSE
.d 2 1 b
	jsr s151
.o 2 0 
.d 5 0 
	jmp s438
.o 3 1 b
s154
	push_update_a 0 2
	pop_b_pushB 1 FALSE
.d 2 1 b
	jsr s151
.o 2 0 
.d 4 0 
	jmp s437
.o 2 1 b
s151
	jmp_ne_desc _Cons 2 1 case.23
	push_args 1 2 2
	jsr_eval 0
	jmp_eq_desc e_Text.GenJSON_kJSONArray 0 0 case.24
	pop_a_jmp 2 case.23
case.24
	repl_args 1 1
	jmp_eq_desc _Cons 2 0 case.25
	pop_a_jmp 2 case.23
case.25
	repl_args 2 2
	jsr_eval 0
	jmp_eq_desc e_Text.GenJSON_kJSONString 0 0 case.26
	pop_a_jmp 3 case.23
case.26
	repl_args 1 1
	push_jsr_eval 3
	push_array 0
	updates2_a_pop_a 0 2 1 1
	pop_b 1
.d 2 0 
	buildh0_put_a_jsr _Nil 5 eqAC
.o 0 1 b
	jmp_false else.27
	jsr_eval 0
	update2pop_a 0 1
	pushB FALSE
.d 1 1 b
	jsr s92
.o 2 0 
.d 4 0 
	jmp s434
else.27
	pop_a 3
	buildh _Nothing 0
.d 2 0 
	rtn 
case.23
	pop_a 1
	buildh _Nothing 0
.d 2 0 
	pop_b_rtn 1
.o 2 0 
s93
	jmp_ne_desc _Just 1 0 case.29
	repl_args 1 1
	create 
	swap_a1 
.d 2 0 
	jsr s54
.o 1 0 
	fillh _Just 1 1
.d 1 0 
	rtn 
case.29
	fillh _Nothing 0 1
.d 1 0 
	pop_a_rtn 1
.o 1 1 b
s92
	buildh e_StdGeneric_dUNIT 0
	buildh _Just 1
.d 2 0 
	pop_b_rtn 1
.o 2 0 
s82
	jmp_ne_desc _Just 1 0 case.31
	repl_args 1 1
	create 
	swap_a1 
.d 2 0 
	jsr s44
.o 1 0 
	fillh _Just 1 1
.d 1 0 
	rtn 
case.31
	fillh _Nothing 0 1
.d 1 0 
	pop_a_rtn 1
.export e_iTasks.Extensions.Document_sJSONEncode_FileException;13
.export e_iTasks.Extensions.Document_eaJSONEncode_FileException;13
.descexp e_iTasks.Extensions.Document_dJSONEncode_FileException;13 e_iTasks.Extensions.Document_nJSONEncode_FileException;13 e_iTasks.Extensions.Document_lJSONEncode_FileException;13 2 0 "JSONEncode_FileException;13"
.o 3 1 b
e_iTasks.Extensions.Document_iJSONEncode_FileException;13
.d 2 1 b
	pop_a_jmp 1 s14
.ai 2 e_iTasks.Extensions.Document_eaJSONEncode_FileException;13 e_iTasks.Extensions.Document_iJSONEncode_FileException;13
.o 2 0 
e_iTasks.Extensions.Document_lJSONEncode_FileException;13
	push_args 0 1 1
	update_a 2 1
	create 
.d 3 0 
	put_a_jmp 3 e_iTasks.Extensions.Document_eaJSONEncode_FileException;13
.n 2 e_iTasks.Extensions.Document_dJSONEncode_FileException;13 e_iTasks.Extensions.Document_eaJSONEncode_FileException;13
.o 1 0 
e_iTasks.Extensions.Document_nJSONEncode_FileException;13
	push_node _cycle_in_spine 2
.o 3 0 
e_iTasks.Extensions.Document_eaJSONEncode_FileException;13
	jsr_eval 1
	jsr_eval 0
	pushB0_pop_a1 
.o 2 1 b
e_iTasks.Extensions.Document_sJSONEncode_FileException;13
.o 2 1 b
s14
	create 
	swap_a1 
.d 2 0 
	jsr s45
.o 1 0 
	push_b 0
	buildAC "FileException"
	buildh ARRAY 1
.d 3 1 b
	put_b_jmp 1 s148
.o 3 1 b
s148
	pop_b_pushB 1 FALSE
s149
	push_args 1 1 1
	buildh0_put_a _Nil 3
	buildh _Nil 0
	push_a 1
	buildB FALSE
	build e_iTasks.Extensions.Document_dJSONEncode_PAIR;650.150 2 e_iTasks.Extensions.Document_nJSONEncode_PAIR;650.150
	buildo1 e_Text.GenJSON_nJSONString 3
	buildh _Cons 2
	buildhr e_Text.GenJSON_kJSONArray 1 0
	fillh _Cons 2 5
.d 1 0 
	pop_ab_rtn 3 1
.export e_iTasks.Extensions.Document_dJSONEncode_PAIR;650.150
.export e_iTasks.Extensions.Document_nJSONEncode_PAIR;650.150
.descn e_iTasks.Extensions.Document_dJSONEncode_PAIR;650.150 e_iTasks.Extensions.Document_nJSONEncode_PAIR;650.150 2 0 "JSONEncode_PAIR;650.150"
.n 2 e_iTasks.Extensions.Document_dJSONEncode_PAIR;650.150 ea150
.o 1 0 
e_iTasks.Extensions.Document_nJSONEncode_PAIR;650.150
	push_node _cycle_in_spine 2
.o 3 0 
ea150
	jsr_eval 1
	pushB0_pop_a1 
.o 2 1 b
s150
	repl_args 2 2
	push_jsr_eval 1
	create 
	pushB FALSE
	updates2_a_pop_a 0 2 3 1
	put_b 1
.d 2 1 b
	jsr s34
.o 1 0 
	push_jsr_eval 1
	push_array 0
	put_a 1
	create 
	pushB FALSE
	swap_a1 
.d 2 1 b
	buildh0_put_a_jsr _Nil 4 e_Text.GenJSON_sJSONEncode__String;16
.o 1 0 
	update2pop_a 0 1
.d 3 0 
	jmp s60
.o 2 1 b
s34
	create 
	swap_a1 
.d 2 0 
	jsr s55
.o 1 0 
	push_b 0
	buildAC "IOError"
	buildh ARRAY 1
	buildAC "CannotClose"
	buildh ARRAY 1
	buildAC "CannotOpen"
	buildh ARRAY 1
.d 5 1 b
	put_b_jmp 1 s143
.o 5 1 b
s143
	pop_b_pushB 1 FALSE
s144
	jmp_ne_desc e_StdGeneric_dLEFT 1 3 case.33
	push_args 3 1 1
	buildh0_put_a _Nil 5
	jsr_eval 0
	dup_a 4
	updatepop_a 1 3
	pop_b_pushB 1 FALSE
.d 3 1 b
	jmp s139
case.33
	push_args 3 1 1
	buildh0_put_a _Nil 5
	jsr_eval 0
	dup_a 4
	pop_b_pushB 1 FALSE
.d 4 1 b
	pop_a_jmp 2 s142
.o 4 1 b
s142
	jmp_ne_desc e_StdGeneric_dLEFT 1 2 case.35
	push_args 2 1 1
	buildh0_put_a _Nil 4
	jsr_eval 0
	dup_a 3
	updatepop_a 1 2
	pop_b_pushB 1 FALSE
.d 3 1 b
	jmp s139
case.35
	push_args 2 1 1
	buildh0_put_a _Nil 4
	jsr_eval 0
	dup_a 3
	pop_b_pushB 1 FALSE
.d 3 1 b
	pop_a_jmp 2 s139
.o 3 1 b
s139
	push_args 1 1 1
	buildh0_put_a _Nil 3
	buildh _Nil 0
	push_a 1
	buildB FALSE
	build e_iTasks.Extensions.Document_dJSONEncode_UNIT;97.90 2 e_iTasks.Extensions.Document_nJSONEncode_UNIT;97.90
	buildo1 e_Text.GenJSON_nJSONString 3
	buildh _Cons 2
	buildhr e_Text.GenJSON_kJSONArray 1 0
	fillh _Cons 2 5
.d 1 0 
	pop_ab_rtn 3 1
.export e_iTasks.Extensions.Document_dJSONEncode_UNIT;97.90
.export e_iTasks.Extensions.Document_nJSONEncode_UNIT;97.90
.descn e_iTasks.Extensions.Document_dJSONEncode_UNIT;97.90 e_iTasks.Extensions.Document_nJSONEncode_UNIT;97.90 2 0 "JSONEncode_UNIT;97.90"
.n 2 e_iTasks.Extensions.Document_dJSONEncode_UNIT;97.90 ea90
.o 1 0 
e_iTasks.Extensions.Document_nJSONEncode_UNIT;97.90
	push_node _cycle_in_spine 2
.o 3 0 
ea90
	jsr_eval 1
	pushB0_pop_a1 
.o 2 1 b
s90
	fillh _Nil 0 1
.d 1 0 
	pop_ab_rtn 1 1
.export e_iTasks.Extensions.Document_sgText_FileException;12
.export e_iTasks.Extensions.Document_eagText_FileException;12
.descexp e_iTasks.Extensions.Document_dgText_FileException;12 e_iTasks.Extensions.Document_ngText_FileException;12 e_iTasks.Extensions.Document_lgText_FileException;12 2 0 "gText_FileException;12"
.o 4 0 
e_iTasks.Extensions.Document_igText_FileException;12
.d 3 0 
	pop_a_jmp 1 s13
.ai 2 e_iTasks.Extensions.Document_eagText_FileException;12 e_iTasks.Extensions.Document_igText_FileException;12
.o 2 0 
e_iTasks.Extensions.Document_lgText_FileException;12
	push_args 0 1 1
	update_a 2 1
	create 
.d 3 0 
	put_a_jmp 3 e_iTasks.Extensions.Document_eagText_FileException;12
.n 2 e_iTasks.Extensions.Document_dgText_FileException;12 e_iTasks.Extensions.Document_eagText_FileException;12
.o 1 0 
e_iTasks.Extensions.Document_ngText_FileException;12
	push_node _cycle_in_spine 2
.o 3 0 
e_iTasks.Extensions.Document_eagText_FileException;12
	jsr_eval 0
.o 3 0 
e_iTasks.Extensions.Document_sgText_FileException;12
.o 3 0 
s13
	buildo1 e_iTasks.Extensions.Document_nbimapToGeneric;84.77 1
	buildh e_iTasks.Extensions.Document_d_f0.453 0
	build e_iTasks.Extensions.Document_dtdi_FileException;48.41 0 e_iTasks.Extensions.Document_ntdi_FileException;48.41
	buildAC "FileException"
	buildh ARRAY 1
	buildh e_iTasks.Internal.Generic.Visualization_dgText_CONS;8 3
	updates2pop_a 0 1 3
.d 4 0 
	jmp e_iTasks.Internal.Generic.Visualization_sgText_OBJECT;9
.export e_iTasks.Extensions.Document_d_f0.453
.desc e_iTasks.Extensions.Document_d_f0.453 _hnf l453 2 0 "_f0.453"
.a 2 ea453
.o 2 0 
l453
	push_args 0 1 1
	update_a 2 1
	create 
	put_a 3
.o 3 0 
ea453
.o 3 0 
s453
	jsr_eval 0
	push_a 0
	dup_a 1
	buildh0_put_a e_iTasks.Extensions.Document_dgText_FileError;33.33 1
	buildh e_iTasks.Internal.Generic.Visualization_dgText__String;16 0
.d 5 0 
	jmp e_iTasks.Internal.Generic.Visualization_sgText_PAIR;6
.export e_iTasks.Extensions.Document_dgText_FileError;33.33
.desc e_iTasks.Extensions.Document_dgText_FileError;33.33 _hnf l33 2 0 "gText_FileError;33.33"
.o 4 0 
i33
.d 3 0 
	pop_a_jmp 1 s33
.ai 2 ea33 i33
.o 2 0 
l33
	push_args 0 1 1
	update_a 2 1
	create 
	put_a 3
.o 3 0 
ea33
	jsr_eval 0
.o 3 0 
s33
	buildo1 e_iTasks.Extensions.Document_nbimapToGeneric;95.88 1
	buildh e_iTasks.Internal.Generic.Visualization_dgText_UNIT;5 0
	build e_iTasks.Extensions.Document_dtdi_FileError;54.47 0 e_iTasks.Extensions.Document_ntdi_FileError;54.47
	buildAC "IOError"
	buildh ARRAY 1
	buildh e_iTasks.Internal.Generic.Visualization_dgText_CONS;8 3
	buildh e_iTasks.Internal.Generic.Visualization_dgText_UNIT;5 0
	build e_iTasks.Extensions.Document_dtdi_FileError;54.47 0 e_iTasks.Extensions.Document_ntdi_FileError;54.47
	buildAC "CannotClose"
	buildh ARRAY 1
	buildh e_iTasks.Internal.Generic.Visualization_dgText_CONS;8 3
	buildh e_iTasks.Internal.Generic.Visualization_dgText_EITHER;7 2
	buildh e_iTasks.Internal.Generic.Visualization_dgText_UNIT;5 0
	build e_iTasks.Extensions.Document_dtdi_FileError;54.47 0 e_iTasks.Extensions.Document_ntdi_FileError;54.47
	buildAC "CannotOpen"
	buildh ARRAY 1
	buildh e_iTasks.Internal.Generic.Visualization_dgText_CONS;8 3
	buildh e_iTasks.Internal.Generic.Visualization_dgText_EITHER;7 2
	updates2pop_a 0 1 3
.d 4 0 
	jmp e_iTasks.Internal.Generic.Visualization_sgText_OBJECT;9
.export e_iTasks.Extensions.Document_dbimapToGeneric;95.88
.export e_iTasks.Extensions.Document_nbimapToGeneric;95.88
.descn e_iTasks.Extensions.Document_dbimapToGeneric;95.88 e_iTasks.Extensions.Document_nbimapToGeneric;95.88 1 0 "bimapToGeneric;95.88"
.n 1 e_iTasks.Extensions.Document_dbimapToGeneric;95.88 ea88
.o 1 0 
e_iTasks.Extensions.Document_nbimapToGeneric;95.88
	push_node _cycle_in_spine 1
.o 2 0 
ea88
	jsr_eval 0
.o 2 0 
s88
	jmp_ne_desc _Just 1 0 case.37
	repl_args 1 1
	create 
	swap_a1 
.d 2 0 
	jsr s55
.o 1 0 
	fillh _Just 1 1
.d 1 0 
	rtn 
case.37
	fillh _Nothing 0 1
.d 1 0 
	pop_a_rtn 1
.export e_iTasks.Extensions.Document_dbimapToGeneric;84.77
.export e_iTasks.Extensions.Document_nbimapToGeneric;84.77
.descn e_iTasks.Extensions.Document_dbimapToGeneric;84.77 e_iTasks.Extensions.Document_nbimapToGeneric;84.77 1 0 "bimapToGeneric;84.77"
.n 1 e_iTasks.Extensions.Document_dbimapToGeneric;84.77 ea77
.o 1 0 
e_iTasks.Extensions.Document_nbimapToGeneric;84.77
	push_node _cycle_in_spine 1
.o 2 0 
ea77
	jsr_eval 0
.o 2 0 
s77
	jmp_ne_desc _Just 1 0 case.39
	repl_args 1 1
	create 
	swap_a1 
.d 2 0 
	jsr s45
.o 1 0 
	fillh _Just 1 1
.d 1 0 
	rtn 
case.39
	fillh _Nothing 0 1
.d 1 0 
	pop_a_rtn 1
.export e_iTasks.Extensions.Document_sgEditor_FileException;11
.descexp e_iTasks.Extensions.Document_dgEditor_FileException;11 e_iTasks.Extensions.Document_ngEditor_FileException;11 e_iTasks.Extensions.Document_lgEditor_FileException;11 1 0 "gEditor_FileException;11"
.o 2 0 
e_iTasks.Extensions.Document_igEditor_FileException;11
.d 1 0 
	pop_a_jmp 1 s12
.ai 1 _ e_iTasks.Extensions.Document_igEditor_FileException;11
.o 2 0 
e_iTasks.Extensions.Document_lgEditor_FileException;11
.d 1 0 
	pop_a_jsr 1 ea12
.o 4 0 
.impmod iTasks.UI.Editor
.impdesc e_iTasks.UI.Editor_rEditor
	buildhr e_iTasks.UI.Editor_rEditor 4 0
.d 1 0 
	rtn 
.n 1 e_iTasks.Extensions.Document_dgEditor_FileException;11
.o 1 0 
e_iTasks.Extensions.Document_ngEditor_FileException;11
	push_node _cycle_in_spine 1
.d 1 0 
	jsr ea12
.o 4 0 
	fill_r e_iTasks.UI.Editor_rEditor 4 0 4 0 0
.d 1 0 
	pop_a_rtn 4
.o 1 0 
ea12
	jsr_eval 0
.o 1 0 
e_iTasks.Extensions.Document_sgEditor_FileException;11
.o 1 0 
s12
	buildh e_iTasks.Extensions.Document_d_f1.454 0
	buildI 0
	buildI 2
	buildh e_iTasks.UI.Editor.Generic_dgEditor_CONS;4 3
	build e_iTasks.Extensions.Document_dcli_FileException;47.40 0 e_iTasks.Extensions.Document_ncli_FileException;47.40
	push_a 2
	buildI 1
	push_update_a 2 3
	updates2_a_pop_a 0 2 4 1
	build e_iTasks.UI.Editor.Generic_dgEditor_OBJECT;3 4 e_iTasks.UI.Editor.Generic_ngEditor_OBJECT;3
	buildh e_iTasks.Extensions.Document_dbimapToGeneric;83.76 0
	update2_a 0 1
	buildh0_dup_a e_iTasks.Extensions.Document_dbimapFromGeneric;82.75 1
	buildh0_put_a e_iTasks.Extensions.Document_dtoGenericFileException;52.45 1
	buildh e_iTasks.Extensions.Document_dfromGenericFileException;51.44 0
.d 5 0 
	jmp e_iTasks.UI.Editor_sbinumap_Editor;15
.export e_iTasks.Extensions.Document_d_f1.454
.desc e_iTasks.Extensions.Document_d_f1.454 _hnf l454 1 0 "_f1.454"
.o 2 0 
l454
	update_a 1 0
	create 
	put_a 2
.o 2 0 
ea454
.o 2 0 
s454
	jsr_eval 0
	push_a 0
	dup_a 1
	buildh0_put_a e_iTasks.Extensions.Document_dgEditor_FileError;32.32 1
	buildh e_iTasks.UI.Editor.Generic_dgEditor__String;11 0
.d 3 0 
	jsr e_iTasks.UI.Editor.Generic_sgEditor_PAIR;2
.o 4 0 
	fill_r e_iTasks.UI.Editor_rEditor 4 0 4 0 0
.d 1 0 
	pop_a_rtn 4
.export e_iTasks.Extensions.Document_dgEditor_FileError;32.32
.desc e_iTasks.Extensions.Document_dgEditor_FileError;32.32 _hnf l32 1 0 "gEditor_FileError;32.32"
.o 2 0 
i32
.d 1 0 
	pop_a_jmp 1 s32
.ai 1 _ i32
.o 2 0 
l32
.d 1 0 
	pop_a_jsr 1 ea32
.o 4 0 
	buildhr e_iTasks.UI.Editor_rEditor 4 0
.d 1 0 
	rtn 
.o 1 0 
ea32
	jsr_eval 0
.o 1 0 
s32
	buildh e_iTasks.UI.Editor.Generic_dgEditor_UNIT;0 0
	buildI 2
	buildI 0
	buildh e_iTasks.UI.Editor.Generic_dgEditor_CONS;4 3
	buildh e_iTasks.UI.Editor.Generic_dgEditor_UNIT;0 0
	buildI 1
	buildI 0
	buildh e_iTasks.UI.Editor.Generic_dgEditor_CONS;4 3
	buildh e_iTasks.UI.Editor.Generic_dgEditor_EITHER;1 2
	buildh e_iTasks.UI.Editor.Generic_dgEditor_UNIT;0 0
	buildI 0
	buildI 0
	buildh e_iTasks.UI.Editor.Generic_dgEditor_CONS;4 3
	buildh e_iTasks.UI.Editor.Generic_dgEditor_EITHER;1 2
	build e_iTasks.Extensions.Document_dcli_FileError;53.46 0 e_iTasks.Extensions.Document_ncli_FileError;53.46
	push_a 2
	buildI 3
	push_update_a 2 3
	updates2_a_pop_a 0 2 4 1
	build e_iTasks.UI.Editor.Generic_dgEditor_OBJECT;3 4 e_iTasks.UI.Editor.Generic_ngEditor_OBJECT;3
	buildh e_iTasks.Extensions.Document_dbimapToGeneric;94.87 0
	update2_a 0 1
	buildh0_dup_a e_iTasks.Extensions.Document_dbimapFromGeneric;93.86 1
	buildh0_put_a e_iTasks.Extensions.Document_dtoGenericFileError;62.55 1
	buildh e_iTasks.Extensions.Document_dfromGenericFileError;61.54 0
.d 5 0 
	jmp e_iTasks.UI.Editor_sbinumap_Editor;15
.export e_iTasks.Extensions.Document_dbimapFromGeneric;93.86
.desc e_iTasks.Extensions.Document_dbimapFromGeneric;93.86 _hnf l86 1 0 "bimapFromGeneric;93.86"
.o 2 0 
l86
	update_a 1 0
	create 
	put_a 2
.o 2 0 
ea86
	jsr_eval 0
.o 2 0 
s86
	jmp_ne_desc _Just 1 0 case.41
	repl_args 1 1
	create 
	swap_a1 
.d 2 0 
	jsr s54
.o 1 0 
	fillh _Just 1 1
.d 1 0 
	rtn 
case.41
	fillh _Nothing 0 1
.d 1 0 
	pop_a_rtn 1
.export e_iTasks.Extensions.Document_dfromGenericFileError;61.54
.desc e_iTasks.Extensions.Document_dfromGenericFileError;61.54 _hnf l54 1 0 "fromGenericFileError;61.54"
.o 2 0 
l54
	update_a 1 0
	create 
	put_a 2
.o 2 0 
ea54
	jsr_eval 0
.o 2 0 
s54
	jmp_ne_desc e_StdGeneric_dLEFT 1 0 case.43
	repl_args 1 1
	jsr_eval 0
	repl_args 1 1
	jsr_eval 0
	fillh e_System.File_dCannotOpen 0 1
.d 1 0 
	pop_a_rtn 1
case.43
	repl_args 1 1
	jsr_eval 0
	jmp_ne_desc e_StdGeneric_dLEFT 1 0 case.45
	repl_args 1 1
	jsr_eval 0
	repl_args 1 1
	jsr_eval 0
	fillh e_System.File_dCannotClose 0 1
.d 1 0 
	pop_a_rtn 1
case.45
	repl_args 1 1
	jsr_eval 0
	repl_args 1 1
	jsr_eval 0
	fillh e_System.File_dIOError 0 1
.d 1 0 
	pop_a_rtn 1
.export e_iTasks.Extensions.Document_dbimapToGeneric;94.87
.desc e_iTasks.Extensions.Document_dbimapToGeneric;94.87 _hnf l87 1 0 "bimapToGeneric;94.87"
.o 2 0 
l87
	update_a 1 0
	create 
	put_a 2
.o 2 0 
ea87
	jsr_eval 0
.o 2 0 
s87
	jmp_ne_desc _Just 1 0 case.47
	repl_args 1 1
	create 
	swap_a1 
.d 2 0 
	jsr s55
.o 1 0 
	fillh _Just 1 1
.d 1 0 
	rtn 
case.47
	fillh _Nothing 0 1
.d 1 0 
	pop_a_rtn 1
.export e_iTasks.Extensions.Document_dtoGenericFileError;62.55
.desc e_iTasks.Extensions.Document_dtoGenericFileError;62.55 _hnf l55 1 0 "toGenericFileError;62.55"
.o 2 0 
l55
	update_a 1 0
	create 
	put_a 2
.o 2 0 
ea55
	jsr_eval 0
.o 2 0 
s55
	pushD_a 0
	jmpD ea e_System.File_dCannotClose 0 case.49 case.50
case.48
	pop_b 1
	buildh e_StdGeneric_dUNIT 0
	buildh e_StdGeneric_dCONS 1
	fillh e_StdGeneric_dLEFT 1 2
.d 1 0 
	pop_a_rtn 1
case.49
	pop_b 1
	buildh e_StdGeneric_dUNIT 0
	buildh e_StdGeneric_dCONS 1
	buildh e_StdGeneric_dLEFT 1
	fillh e_StdGeneric_dRIGHT 1 2
.d 1 0 
	pop_a_rtn 1
case.50
	pop_b 1
	buildh e_StdGeneric_dUNIT 0
	buildh e_StdGeneric_dCONS 1
	buildh e_StdGeneric_dRIGHT 1
	fillh e_StdGeneric_dRIGHT 1 2
.d 1 0 
	pop_a_rtn 1
.export e_iTasks.Extensions.Document_dcdi_CannotOpen;58.51
.export e_iTasks.Extensions.Document_ncdi_CannotOpen;58.51
.descn e_iTasks.Extensions.Document_dcdi_CannotOpen;58.51 e_iTasks.Extensions.Document_ncdi_CannotOpen;58.51 0 0 "cdi_CannotOpen;58.51"
.n 0 e_iTasks.Extensions.Document_dcdi_CannotOpen;58.51
.o 1 0 
e_iTasks.Extensions.Document_ncdi_CannotOpen;58.51
	push_node _cycle_in_spine 0
.o 0 0 
ea51
	build e_iTasks.Extensions.Document_dgti_CannotOpen;55.48 0 e_iTasks.Extensions.Document_ngti_CannotOpen;55.48
	build e_iTasks.Extensions.Document_dtdi_FileError;54.47 0 e_iTasks.Extensions.Document_ntdi_FileError;54.47
	buildh e_StdGeneric_dGenConsNoPrio 0
	buildI 0
	buildI 0
	buildAC "CannotOpen"
	buildh ARRAY 1
	push_update_a 3 4
	updates3_a 0 3 6 5
	pop_a 1
	fill_r e_StdGeneric_rGenericConsDescriptor 6 0 6 0 0
.d 1 0 
	pop_a_rtn 6
.export e_iTasks.Extensions.Document_dcdi_CannotClose;59.52
.export e_iTasks.Extensions.Document_ncdi_CannotClose;59.52
.descn e_iTasks.Extensions.Document_dcdi_CannotClose;59.52 e_iTasks.Extensions.Document_ncdi_CannotClose;59.52 0 0 "cdi_CannotClose;59.52"
.n 0 e_iTasks.Extensions.Document_dcdi_CannotClose;59.52
.o 1 0 
e_iTasks.Extensions.Document_ncdi_CannotClose;59.52
	push_node _cycle_in_spine 0
.o 0 0 
ea52
	build e_iTasks.Extensions.Document_dgti_CannotClose;56.49 0 e_iTasks.Extensions.Document_ngti_CannotClose;56.49
	build e_iTasks.Extensions.Document_dtdi_FileError;54.47 0 e_iTasks.Extensions.Document_ntdi_FileError;54.47
	buildh e_StdGeneric_dGenConsNoPrio 0
	buildI 1
	buildI 0
	buildAC "CannotClose"
	buildh ARRAY 1
	push_update_a 3 4
	updates3_a 0 3 6 5
	pop_a 1
	fill_r e_StdGeneric_rGenericConsDescriptor 6 0 6 0 0
.d 1 0 
	pop_a_rtn 6
.export e_iTasks.Extensions.Document_dtdi_FileError;54.47
.export e_iTasks.Extensions.Document_ntdi_FileError;54.47
.descn e_iTasks.Extensions.Document_dtdi_FileError;54.47 e_iTasks.Extensions.Document_ntdi_FileError;54.47 0 0 "tdi_FileError;54.47"
.n 0 e_iTasks.Extensions.Document_dtdi_FileError;54.47
.o 1 0 
e_iTasks.Extensions.Document_ntdi_FileError;54.47
	push_node _cycle_in_spine 0
.o 0 0 
ea47
	build e_iTasks.Extensions.Document_dcli_FileError;53.46 0 e_iTasks.Extensions.Document_ncli_FileError;53.46
	buildI 3
	buildI 0
	buildAC "FileError"
	buildh ARRAY 1
	fill_r e_StdGeneric_rGenericTypeDefDescriptor 4 0 4 0 0
.d 1 0 
	pop_a_rtn 4
.export e_iTasks.Extensions.Document_dcdi_IOError;60.53
.export e_iTasks.Extensions.Document_ncdi_IOError;60.53
.descn e_iTasks.Extensions.Document_dcdi_IOError;60.53 e_iTasks.Extensions.Document_ncdi_IOError;60.53 0 0 "cdi_IOError;60.53"
.n 0 e_iTasks.Extensions.Document_dcdi_IOError;60.53
.o 1 0 
e_iTasks.Extensions.Document_ncdi_IOError;60.53
	push_node _cycle_in_spine 0
.o 0 0 
ea53
	build e_iTasks.Extensions.Document_dgti_IOError;57.50 0 e_iTasks.Extensions.Document_ngti_IOError;57.50
	build e_iTasks.Extensions.Document_dtdi_FileError;54.47 0 e_iTasks.Extensions.Document_ntdi_FileError;54.47
	buildh e_StdGeneric_dGenConsNoPrio 0
	buildI 2
	buildI 0
	buildAC "IOError"
	buildh ARRAY 1
	push_update_a 3 4
	updates3_a 0 3 6 5
	pop_a 1
	fill_r e_StdGeneric_rGenericConsDescriptor 6 0 6 0 0
.d 1 0 
	pop_a_rtn 6
.export e_iTasks.Extensions.Document_dcli_FileError;53.46
.export e_iTasks.Extensions.Document_ncli_FileError;53.46
.descn e_iTasks.Extensions.Document_dcli_FileError;53.46 e_iTasks.Extensions.Document_ncli_FileError;53.46 0 0 "cli_FileError;53.46"
.n 0 e_iTasks.Extensions.Document_dcli_FileError;53.46 ea46
.o 1 0 
e_iTasks.Extensions.Document_ncli_FileError;53.46
	push_node _cycle_in_spine 0
.o 1 0 
ea46
.o 1 0 
s46
	buildh _Nil 0
	build e_iTasks.Extensions.Document_dcdi_IOError;60.53 0 e_iTasks.Extensions.Document_ncdi_IOError;60.53
	buildh _Cons 2
	build e_iTasks.Extensions.Document_dcdi_CannotClose;59.52 0 e_iTasks.Extensions.Document_ncdi_CannotClose;59.52
	buildh _Cons 2
	build e_iTasks.Extensions.Document_dcdi_CannotOpen;58.51 0 e_iTasks.Extensions.Document_ncdi_CannotOpen;58.51
	fillh _Cons 2 2
.d 1 0 
	rtn 
.export e_iTasks.Extensions.Document_dgti_CannotOpen;55.48
.export e_iTasks.Extensions.Document_ngti_CannotOpen;55.48
.descn e_iTasks.Extensions.Document_dgti_CannotOpen;55.48 e_iTasks.Extensions.Document_ngti_CannotOpen;55.48 0 0 "gti_CannotOpen;55.48"
.n 0 e_iTasks.Extensions.Document_dgti_CannotOpen;55.48 ea48
.o 1 0 
e_iTasks.Extensions.Document_ngti_CannotOpen;55.48
	push_node _cycle_in_spine 0
.o 1 0 
ea48
.o 1 0 
s48
	buildAC "FileError"
	buildh ARRAY 1
	fillh e_StdGeneric_dGenTypeCons 1 1
.d 1 0 
	rtn 
.export e_iTasks.Extensions.Document_dgti_CannotClose;56.49
.export e_iTasks.Extensions.Document_ngti_CannotClose;56.49
.descn e_iTasks.Extensions.Document_dgti_CannotClose;56.49 e_iTasks.Extensions.Document_ngti_CannotClose;56.49 0 0 "gti_CannotClose;56.49"
.n 0 e_iTasks.Extensions.Document_dgti_CannotClose;56.49 ea49
.o 1 0 
e_iTasks.Extensions.Document_ngti_CannotClose;56.49
	push_node _cycle_in_spine 0
.o 1 0 
ea49
.o 1 0 
s49
	buildAC "FileError"
	buildh ARRAY 1
	fillh e_StdGeneric_dGenTypeCons 1 1
.d 1 0 
	rtn 
.export e_iTasks.Extensions.Document_dgti_IOError;57.50
.export e_iTasks.Extensions.Document_ngti_IOError;57.50
.descn e_iTasks.Extensions.Document_dgti_IOError;57.50 e_iTasks.Extensions.Document_ngti_IOError;57.50 0 0 "gti_IOError;57.50"
.n 0 e_iTasks.Extensions.Document_dgti_IOError;57.50 ea50
.o 1 0 
e_iTasks.Extensions.Document_ngti_IOError;57.50
	push_node _cycle_in_spine 0
.o 1 0 
ea50
.o 1 0 
s50
	buildAC "FileError"
	buildh ARRAY 1
	fillh e_StdGeneric_dGenTypeCons 1 1
.d 1 0 
	rtn 
.export e_iTasks.Extensions.Document_dbimapFromGeneric;82.75
.desc e_iTasks.Extensions.Document_dbimapFromGeneric;82.75 _hnf l75 1 0 "bimapFromGeneric;82.75"
.o 2 0 
l75
	update_a 1 0
	create 
	put_a 2
.o 2 0 
ea75
	jsr_eval 0
.o 2 0 
s75
	jmp_ne_desc _Just 1 0 case.52
	repl_args 1 1
	create 
	swap_a1 
.d 2 0 
	jsr s44
.o 1 0 
	fillh _Just 1 1
.d 1 0 
	rtn 
case.52
	fillh _Nothing 0 1
.d 1 0 
	pop_a_rtn 1
.export e_iTasks.Extensions.Document_dfromGenericFileException;51.44
.desc e_iTasks.Extensions.Document_dfromGenericFileException;51.44 _hnf l44 1 0 "fromGenericFileException;51.44"
.o 2 0 
l44
	update_a 1 0
	create 
	put_a 2
.o 2 0 
ea44
	jsr_eval 0
.o 2 0 
s44
	repl_args 1 1
	jsr_eval 0
	repl_args 2 2
	push_jsr_eval 1
	push_jsr_eval 1
	push_array 0
	put_a 1
	fill_r e_iTasks.Extensions.Document_kFileException 2 0 4 0 0
.d 1 0 
	pop_a_rtn 4
.export e_iTasks.Extensions.Document_dbimapToGeneric;83.76
.desc e_iTasks.Extensions.Document_dbimapToGeneric;83.76 _hnf l76 1 0 "bimapToGeneric;83.76"
.o 2 0 
l76
	update_a 1 0
	create 
	put_a 2
.o 2 0 
ea76
	jsr_eval 0
.o 2 0 
s76
	jmp_ne_desc _Just 1 0 case.54
	repl_args 1 1
	create 
	swap_a1 
.d 2 0 
	jsr s45
.o 1 0 
	fillh _Just 1 1
.d 1 0 
	rtn 
case.54
	fillh _Nothing 0 1
.d 1 0 
	pop_a_rtn 1
.export e_iTasks.Extensions.Document_dtoGenericFileException;52.45
.desc e_iTasks.Extensions.Document_dtoGenericFileException;52.45 _hnf l45 1 0 "toGenericFileException;52.45"
.o 2 0 
l45
	update_a 1 0
	create 
	put_a 2
.o 2 0 
ea45
	jsr_eval 0
.o 2 0 
s45
	repl_args 2 2
	push2_a 1
	buildh ARRAY 1
	buildh e_StdGeneric_dPAIR 2
	fillh e_StdGeneric_dCONS 1 3
.d 1 0 
	pop_a_rtn 2
.export e_iTasks.Extensions.Document_dtdi_FileException;48.41
.export e_iTasks.Extensions.Document_ntdi_FileException;48.41
.descn e_iTasks.Extensions.Document_dtdi_FileException;48.41 e_iTasks.Extensions.Document_ntdi_FileException;48.41 0 0 "tdi_FileException;48.41"
.n 0 e_iTasks.Extensions.Document_dtdi_FileException;48.41
.o 1 0 
e_iTasks.Extensions.Document_ntdi_FileException;48.41
	push_node _cycle_in_spine 0
.o 0 0 
ea41
	build e_iTasks.Extensions.Document_dcli_FileException;47.40 0 e_iTasks.Extensions.Document_ncli_FileException;47.40
	buildI 1
	buildI 0
	buildAC "FileException"
	buildh ARRAY 1
	fill_r e_StdGeneric_rGenericTypeDefDescriptor 4 0 4 0 0
.d 1 0 
	pop_a_rtn 4
.export e_iTasks.Extensions.Document_dcdi_FileException;50.43
.export e_iTasks.Extensions.Document_ncdi_FileException;50.43
.descn e_iTasks.Extensions.Document_dcdi_FileException;50.43 e_iTasks.Extensions.Document_ncdi_FileException;50.43 0 0 "cdi_FileException;50.43"
.n 0 e_iTasks.Extensions.Document_dcdi_FileException;50.43
.o 1 0 
e_iTasks.Extensions.Document_ncdi_FileException;50.43
	push_node _cycle_in_spine 0
.o 0 0 
ea43
	build e_iTasks.Extensions.Document_dgti_FileException;49.42 0 e_iTasks.Extensions.Document_ngti_FileException;49.42
	build e_iTasks.Extensions.Document_dtdi_FileException;48.41 0 e_iTasks.Extensions.Document_ntdi_FileException;48.41
	buildh e_StdGeneric_dGenConsNoPrio 0
	buildI 0
	buildI 2
	buildAC "FileException"
	buildh ARRAY 1
	push_update_a 3 4
	updates3_a 0 3 6 5
	pop_a 1
	fill_r e_StdGeneric_rGenericConsDescriptor 6 0 6 0 0
.d 1 0 
	pop_a_rtn 6
.export e_iTasks.Extensions.Document_dcli_FileException;47.40
.export e_iTasks.Extensions.Document_ncli_FileException;47.40
.descn e_iTasks.Extensions.Document_dcli_FileException;47.40 e_iTasks.Extensions.Document_ncli_FileException;47.40 0 0 "cli_FileException;47.40"
.n 0 e_iTasks.Extensions.Document_dcli_FileException;47.40 ea40
.o 1 0 
e_iTasks.Extensions.Document_ncli_FileException;47.40
	push_node _cycle_in_spine 0
.o 1 0 
ea40
.o 1 0 
s40
	buildh _Nil 0
	build e_iTasks.Extensions.Document_dcdi_FileException;50.43 0 e_iTasks.Extensions.Document_ncdi_FileException;50.43
	fillh _Cons 2 2
.d 1 0 
	rtn 
.export e_iTasks.Extensions.Document_dgti_FileException;49.42
.export e_iTasks.Extensions.Document_ngti_FileException;49.42
.descn e_iTasks.Extensions.Document_dgti_FileException;49.42 e_iTasks.Extensions.Document_ngti_FileException;49.42 0 0 "gti_FileException;49.42"
.n 0 e_iTasks.Extensions.Document_dgti_FileException;49.42 ea42
.o 1 0 
e_iTasks.Extensions.Document_ngti_FileException;49.42
	push_node _cycle_in_spine 0
.o 1 0 
ea42
.o 1 0 
s42
	buildAC "FileException"
	buildh ARRAY 1
	buildh e_StdGeneric_dGenTypeCons 1
	buildAC "FileError"
	buildh ARRAY 1
	buildh e_StdGeneric_dGenTypeCons 1
	buildh e_StdGeneric_dGenTypeArrow 2
	buildAC "Char"
	buildh ARRAY 1
	buildh e_StdGeneric_dGenTypeCons 1
	buildAC "_#Array"
	buildh ARRAY 1
	buildh e_StdGeneric_dGenTypeCons 1
	buildh e_StdGeneric_dGenTypeApp 2
	fillh e_StdGeneric_dGenTypeArrow 2 2
.d 1 0 
	rtn 
.export e_iTasks.Extensions.Document_sgEditor_Document;10
.descexp e_iTasks.Extensions.Document_dgEditor_Document;10 e_iTasks.Extensions.Document_ngEditor_Document;10 e_iTasks.Extensions.Document_lgEditor_Document;10 1 0 "gEditor_Document;10"
.o 2 0 
e_iTasks.Extensions.Document_igEditor_Document;10
.d 1 0 
	pop_a_jmp 1 s11
.ai 1 _ e_iTasks.Extensions.Document_igEditor_Document;10
.o 2 0 
e_iTasks.Extensions.Document_lgEditor_Document;10
.d 1 0 
	pop_a_jsr 1 ea11
.o 4 0 
	buildhr e_iTasks.UI.Editor_rEditor 4 0
.d 1 0 
	rtn 
.n 1 e_iTasks.Extensions.Document_dgEditor_Document;10
.o 1 0 
e_iTasks.Extensions.Document_ngEditor_Document;10
	push_node _cycle_in_spine 1
.d 1 0 
	jsr ea11
.o 4 0 
	fill_r e_iTasks.UI.Editor_rEditor 4 0 4 0 0
.d 1 0 
	pop_a_rtn 4
.o 1 0 
ea11
	jsr_eval 0
.o 1 0 
e_iTasks.Extensions.Document_sgEditor_Document;10
.o 1 0 
s11
	jmp_ne_desc e_iTasks.UI.Editor.Generic_dViewValue 0 0 case.56
.d 0 0 
	pop_a_jsr 1 e_iTasks.UI.Editor.Controls_shtmlView
.o 4 0 
	buildh e_iTasks.Extensions.Document_dtoView;28.29 0
.d 5 0 
	jsr e_iTasks.UI.Editor.Modifiers_smapEditorRead
.o 4 0 
	buildh _Nothing 0
	buildh e_StdFunctions_dconst 1
.d 5 0 
	jmp e_iTasks.UI.Editor.Modifiers_smapEditorWrite
case.56
.d 0 0 
	pop_a_jsr 1 e_iTasks.UI.Editor.Controls_sdocumentField
.o 4 0 
	buildh e_iTasks.Extensions.Document_dtoView;29.30 0
.d 5 0 
	jsr e_iTasks.UI.Editor.Modifiers_smapEditorRead
.o 4 0 
	buildh e_iTasks.Extensions.Document_d_f2.455 0
.d 5 0 
	jmp e_iTasks.UI.Editor.Modifiers_smapEditorWrite
.export e_iTasks.Extensions.Document_d_f2.455
.desc e_iTasks.Extensions.Document_d_f2.455 _hnf l455 1 0 "_f2.455"
.o 2 0 
l455
	update_a 1 0
	create 
	put_a 2
.o 2 0 
ea455
.o 2 0 
s455
	buildh e_iTasks.Extensions.Document_dfromView;30.31 0
.d 3 0 
	jmp e_Data.Maybe_sfmap;5
.export e_iTasks.Extensions.Document_dfromView;30.31
.desc e_iTasks.Extensions.Document_dfromView;30.31 _hnf l31 1 0 "fromView;30.31"
.o 2 0 
l31
	pop_a 1
.o 1 0 
ea31
	jsr_eval 0
	repl_args 5 5
	jsr_eval 4
	jsr_eval 3
	jsr_eval 2
	jsr_eval 1
	jsr_eval 0
	pushI_a 4
	push_array 3
	push_array 3
	push_array 3
	push_array 3
	update_a 3 8
	update3pop_a 0 5
	buildhr e_iTasks.Extensions.Document_rDocument 4 1
.d 1 0 
	rtn 
.export e_iTasks.Extensions.Document_dtoView;29.30
.desc e_iTasks.Extensions.Document_dtoView;29.30 _hnf l30 1 0 "toView;29.30"
.o 2 0 
l30
	pop_a 1
.o 1 0 
ea30
	jsr_eval 0
	repl_r_args 4 1
	buildI_b 0
	push_a 4
	buildh ARRAY 1
	push_a 4
	buildh ARRAY 1
	push_a 4
	buildh ARRAY 1
	push_a 4
	buildh ARRAY 1
	push_a 0
	update4_a 2 6
	push_update_a 2 3
	updates4_a 0 2 6 5 4
	pop_a 1
	pop_b 1
	buildh _Tuple 5
	updatepop_a 0 5
.d 1 0 
	rtn 
.export e_iTasks.Extensions.Document_dtoView;28.29
.desc e_iTasks.Extensions.Document_dtoView;28.29 _hnf l29 1 0 "toView;28.29"
.o 2 0 
l29
	update_a 1 0
	create 
	put_a 2
.o 2 0 
ea29
	jsr_eval 0
	repl_r_args 4 1
.o 5 1 i
s29
	buildh _Nil 0
	push_a 3
	buildhr e_Text.HTML_kText 1 0
	buildh _Cons 2
	buildh _Nil 0
	buildAC "_blank"
	buildhr e_Text.HTML_kTargetAttr 1 0
	buildh _Cons 2
	push_a 3
	buildhr e_Text.HTML_kHrefAttr 1 0
	buildh _Cons 2
	fill_r e_Text.HTML_kATag 2 0 6 0 0
.d 1 0 
	pop_ab_rtn 6 1
.export e_iTasks.Extensions.Document_sgText_Document;9
.export e_iTasks.Extensions.Document_eagText_Document;9
.descexp e_iTasks.Extensions.Document_dgText_Document;9 e_iTasks.Extensions.Document_ngText_Document;9 e_iTasks.Extensions.Document_lgText_Document;9 2 0 "gText_Document;9"
.o 4 0 
e_iTasks.Extensions.Document_igText_Document;9
	pop_a 1
	jsr_eval 1
.d 3 0 
	jmp s10
.ai 2 e_iTasks.Extensions.Document_eagText_Document;9 e_iTasks.Extensions.Document_igText_Document;9
.o 2 0 
e_iTasks.Extensions.Document_lgText_Document;9
	push_args 0 1 1
	update_a 2 1
	create 
.d 3 0 
	put_a_jmp 3 e_iTasks.Extensions.Document_eagText_Document;9
.n 2 e_iTasks.Extensions.Document_dgText_Document;9 e_iTasks.Extensions.Document_eagText_Document;9
.o 1 0 
e_iTasks.Extensions.Document_ngText_Document;9
	push_node _cycle_in_spine 2
.d 3 0 
	jmp e_iTasks.Extensions.Document_eagText_Document;9
.o 3 0 
e_iTasks.Extensions.Document_sgText_Document;9
	jsr_eval 1
.d 3 0 
	jmp s10
.o 3 0 
e_iTasks.Extensions.Document_eagText_Document;9
	jsr_eval 1
	jsr_eval 0
.o 3 0 
s10
	jmp_ne_desc _Just 1 1 case.58
	push_args 1 1 1
	buildh0_put_a _Nil 3
	push_r_args_b 0 4 1 1 1
	jmp_neIi 0 else.59
	buildh _Nil 0
	buildAC "No Document"
	buildh ARRAY 1
	fillh _Cons 2 5
.d 1 0 
	pop_a_rtn 3
else.59
	buildh _Nil 0
	push_r_args_a 1 4 1 3 1
	buildh ARRAY 1
	fillh _Cons 2 5
.d 1 0 
	pop_a_rtn 3
case.58
	buildh _Nil 0
	buildAC ""
	buildh ARRAY 1
	fillh _Cons 2 4
.d 1 0 
	pop_a_rtn 2
.export e_iTasks.Extensions.Document_sgEq_Document;8
.descexp e_iTasks.Extensions.Document_dgEq_Document;8 e_iTasks.Extensions.Document_ngEq_Document;8 e_iTasks.Extensions.Document_lgEq_Document;8 2 0 "gEq_Document;8"
.o 3 0 
e_iTasks.Extensions.Document_igEq_Document;8
	pop_a 1
	push_r_args 1 4 1
	push_r_args 4 4 1
	update4_a 4 6
	update_a 3 5
	update3pop_a 0 2
.d 8 2 ii
	jmp s9
.ai 0 a9 e_iTasks.Extensions.Document_igEq_Document;8
.o 2 0 
e_iTasks.Extensions.Document_lgEq_Document;8
	repl_args 1 1
.o 2 0 
a9
.d 2 0 
	jsr ea9
.o 0 1 b
	buildB_b 0
.d 1 0 
	pop_b_rtn 1
.n 2 e_iTasks.Extensions.Document_dgEq_Document;8
.o 1 0 
e_iTasks.Extensions.Document_ngEq_Document;8
	push_node _cycle_in_spine 2
.d 2 0 
	jsr ea9
.o 0 1 b
	fillB_b 0 0
.d 1 0 
	pop_b_rtn 1
.o 2 0 
ea9
	jsr_eval 1
	jsr_eval 0
	push_r_args 1 4 1
	push_r_args 4 4 1
	update4_a 4 6
	update_a 3 5
	update3pop_a 0 2
.o 8 2 ii
e_iTasks.Extensions.Document_sgEq_Document;8
.o 8 2 ii
s9
	create 
	push_ab 5 1
	updates4_a 8 3 7 2 6
	updates2_a 9 4 8
	updates3pop_a 0 1 5 9
.d 5 1 i
	jsr s39
.o 1 0 
	create 
	put_b 1
	push3_a 5
	push_a 5
	buildh0_dup3_a _Nil 8
	put_a 7
.d 5 1 i
	jsr s39
.o 1 0 
	update2pop_a 0 4
s137
	repl_args 1 1
	push_args 1 1 1
	buildh0_put_a _Nil 3
	jsr_eval 0
	push_a2 0 1
	jsr_eval 0
	update2pop_a 0 3
s138
	repl_args 2 2
	push_args 2 2 2
	buildh0_put_a _Nil 5
	jsr_eval 0
	push_a2 0 2
	jsr_eval 0
	updates2_a 3 5 6
	update2pop_a 0 3
.d 2 0 
	jsr s136
.o 0 1 b
	jmp_false else.60
	jsr_eval 0
	push_a2 0 1
	jsr_eval 0
	update2pop_a 0 2
.d 2 0 
	jmp s133
else.60
	pushB FALSE
.d 0 1 b
	pop_a_rtn 2
.o 2 0 
s136
	repl_args 2 2
	push_args 2 2 2
	buildh0_put_a _Nil 5
	jsr_eval 0
	push_a 0
	push_array 0
	updates2_a 4 0 1
	jsr_eval 0
	push_array 0
	updates2_a 4 6 7
	update_a 2 5
	updatepop_a 0 4
.d 2 0 
	jsr s126
.o 0 1 b
	jmp_false else.61
	jsr_eval 0
	push_a 0
	push_array 0
	updates2_a 3 0 1
	jsr_eval 0
	push_array 0
	update_a 2 4
	updatepop_a 0 3
.d 2 0 
	jmp s126
else.61
	pushB FALSE
.d 0 1 b
	pop_a_rtn 2
.o 2 0 
s133
	repl_args 2 2
	push_args 2 2 2
	buildh0_put_a _Nil 5
	jsr_eval 0
	push_a 0
	push_array 0
	updates2_a 4 0 1
	jsr_eval 0
	push_array 0
	updates2_a 4 6 7
	update_a 2 5
	updatepop_a 0 4
.d 2 0 
	jsr s126
.o 0 1 b
	jmp_false else.62
	jsr_eval 0
	push_a2 0 1
	jsr_eval 0
	update2pop_a 0 2
.d 2 0 
	jmp s132
else.62
	pushB FALSE
.d 0 1 b
	pop_a_rtn 2
.o 2 0 
s132
	repl_args 2 2
	push_args 2 2 2
	buildh0_put_a _Nil 5
	jsr_eval 0
	push_a 0
	push_array 0
	updates2_a 4 0 1
	jsr_eval 0
	push_array 0
	updates2_a 4 6 7
	update_a 2 5
	updatepop_a 0 4
.d 2 0 
	jsr s126
.o 0 1 b
	jmp_false else.63
	jsr_eval 0
	pushI_a 0
	push_jsr_eval 1
	pushI_a 2
.d 0 2 ii
	pop_a_jmp 3 s128
else.63
	pushB FALSE
.d 0 1 b
	pop_a_rtn 2
.o 2 0 
s126
.d 2 0 
	jmp e_Data.GenEq_sgEq__String;11
.o 0 2 ii
s128
.d 0 2 ii
	jmp e_Data.GenEq_sgEq_Int;7
.export e_iTasks.Extensions.Document_sJSONDecode_Document;7
.descexp e_iTasks.Extensions.Document_dJSONDecode_Document;7 e_iTasks.Extensions.Document_nJSONDecode_Document;7 e_iTasks.Extensions.Document_lJSONDecode_Document;7 2 0 "JSONDecode_Document;7"
.o 2 1 b
e_iTasks.Extensions.Document_iJSONDecode_Document;7
.d 1 1 b
	pop_a_jmp 1 s8
.ai 0 a8 e_iTasks.Extensions.Document_iJSONDecode_Document;7
.o 2 0 
e_iTasks.Extensions.Document_lJSONDecode_Document;7
	repl_args 1 1
.o 2 0 
a8
.d 2 0 
	jsr ea8
.o 2 0 
	buildh _Tuple 2
.d 1 0 
	rtn 
.n 2 e_iTasks.Extensions.Document_dJSONDecode_Document;7
.o 1 0 
e_iTasks.Extensions.Document_nJSONDecode_Document;7
	push_node _cycle_in_spine 2
.d 2 0 
	jsr ea8
.o 2 0 
	fillh _Tuple 2 2
.d 1 0 
	rtn 
.o 2 0 
ea8
	jsr_eval 1
	jsr_eval 0
	pushB0_pop_a1 
.o 1 1 b
e_iTasks.Extensions.Document_sJSONDecode_Document;7
.o 1 1 b
s8
	push_ab 0 0
	buildI 4
	buildAC "size"
	buildh ARRAY 1
	buildI 3
	buildAC "mime"
	buildh ARRAY 1
	buildI 2
	buildAC "name"
	buildh ARRAY 1
	buildI 1
	buildAC "contentUrl"
	buildh ARRAY 1
	buildI 0
	buildAC "documentId"
	buildh ARRAY 1
	put_b 1
	update4_a 7 8
	update4_a 3 4
	update3pop_a 0 1
.d 11 1 b
	jsr s123
.o 2 0 
.d 2 0 
	jmp s430
.o 11 1 b
s123
	jmp_ne_desc _Cons 2 10 case.65
	push_args 10 2 2
	jsr_eval 0
	pushD_a_jmp_eqD_b2 0 e_Text.GenJSON_kJSONObject 0 case.66 e_Text.GenJSON_kJSONArray 0 case.67
	pop_b 1
	pop_a_jmp 2 case.65
case.66
	pop_b 1
	push_jsr_eval 1
	buildh _Nil 0
	push_a 2
	buildh _Cons 2
	pushB FALSE
	push3_a 13
	push3_a 13
	push3_a 13
	push_a 13
	put_b 1
	buildh0_dup3_a _Nil 22
	dup3_a 19
	dup3_a 16
	dup3_a 13
.d 11 1 b
	pop_a_jsr 1 s124
.o 2 0 
	update3pop_a 0 12
.d 4 0 
	jmp s63
case.67
	pop_b 1
	push_jsr_eval 1
	buildh _Nil 0
	push_a 2
	buildh _Cons 2
	pushB FALSE
	push3_a 13
	push3_a 13
	push3_a 13
	push_a 13
	put_b 1
	buildh0_dup3_a _Nil 22
	dup3_a 19
	dup3_a 16
	dup3_a 13
.d 11 1 b
	pop_a_jsr 1 s124
.o 2 0 
	update3pop_a 0 12
.d 4 0 
	jmp s64
case.65
	pop_a 10
	buildh _Nothing 0
.d 2 0 
	pop_b_rtn 1
.o 11 1 b
s124
	push_update_a 0 1
	updates3_a 11 4 3 2
	pop_b_pushB 1 FALSE
.d 5 1 b
	jsr s121
.o 2 0 
	push_update_a 2 4
	updates3pop_a 0 1 7 5
	push_update_a 3 5
	updates3_a 0 2 8 6
.d 9 0 
	pop_a_jmp 1 s125
.o 9 0 
s125
	jmp_ne_desc _Just 1 6 case.69
	push_args 6 1 1
	updates2_a 0 8 7
	pushB FALSE
.d 7 1 b
	pop_a_jsr 1 s117
.o 2 0 
	push_a 2
	update3pop_a 0 1
.d 4 0 
	jmp s67
case.69
	pop_a 8
	buildh _Nothing 0
.d 2 0 
	rtn 
.o 5 1 b
s121
	push_update_a 0 1
	update_a 5 2
	pop_b_pushB 1 FALSE
.d 3 1 b
	jsr s110
.o 2 0 
	swap_a 2
	exchange_a 3 1
s122
	jmp_ne_desc _Just 1 2 case.71
	push_args 2 1 1
	updates2_a 0 4 3
	pushB FALSE
.d 3 1 b
	pop_a_jsr 1 s110
.o 2 0 
	push_a 2
	update3pop_a 0 1
.d 4 0 
	jmp s67
case.71
	pop_a 4
	buildh _Nothing 0
.d 2 0 
	rtn 
.o 7 1 b
s117
	push_update_a 0 1
	update_a 7 2
	pop_b_pushB 1 FALSE
.d 3 1 b
	jsr s110
.o 2 0 
	push_a 2
	updates3pop_a 0 1 5 3
	push_update_a 3 5
	updates2_a 0 2 6
.d 7 0 
	pop_a_jmp 1 s118
.o 7 0 
s118
	jmp_ne_desc _Just 1 4 case.73
	push_args 4 1 1
	updates2_a 0 6 5
	pushB FALSE
.d 5 1 b
	pop_a_jsr 1 s115
.o 2 0 
	push_a 2
	update3pop_a 0 1
.d 4 0 
	jmp s67
case.73
	pop_a 6
	buildh _Nothing 0
.d 2 0 
	rtn 
.o 5 1 b
s115
	push_update_a 0 1
	update_a 5 2
	pop_b_pushB 1 FALSE
.d 3 1 b
	jsr s110
.o 2 0 
	swap_a 2
	exchange_a 3 1
s116
	jmp_ne_desc _Just 1 2 case.75
	push_args 2 1 1
	updates2_a 0 4 3
	pushB FALSE
.d 3 1 b
	pop_a_jsr 1 s112
.o 2 0 
	push_a 2
	update3pop_a 0 1
.d 4 0 
	jmp s67
case.75
	pop_a 4
	buildh _Nothing 0
.d 2 0 
	rtn 
.o 3 1 b
s110
	jmp_ne_desc _Cons 2 2 case.77
	push_args 2 2 2
	jsr_eval 0
	pushD_a_jmp_eqD_b2 0 e_Text.GenJSON_kJSONObject 0 case.78 e_Text.GenJSON_kJSONArray 0 case.79
	pop_b 1
	pop_a_jmp 2 case.77
case.78
	pop_b 1
	repl_args 1 1
	jsr_eval 1
	jmp_eq_desc _Nil 0 1 case.80
	pop_a_jmp 2 case.77
case.80
	push_jsr_eval 2
	push_array 0
	put_a 1
	create 
	dup_a 5
	update2pop_a 1 3
.d 3 0 
	pop_b_jsr 1 s69
.o 1 0 
	pushB TRUE
.d 1 1 b
	jsr e_Text.GenJSON_sJSONDecode__String;46
.o 2 0 
.d 3 0 
	jmp s429
case.79
	pop_b 1
	repl_args 1 1
	jsr_eval 1
	jmp_eq_desc _Nil 0 1 case.81
	pop_a_jmp 2 case.77
case.81
	push_jsr_eval 3
	pushI_a 4
	pop_a 1
	create 
	dup_a 4
	updatepop_a 1 3
	put_b 1
.d 2 1 i
	jsr e_Data.List_s!?
.o 1 0 
.d 2 0 
	jmp s428
case.77
	pop_a 2
	buildh _Nothing 0
.d 2 0 
	pop_b_rtn 1
.o 3 1 b
s112
	jmp_ne_desc _Cons 2 2 case.83
	push_args 2 2 2
	jsr_eval 0
	pushD_a_jmp_eqD_b2 0 e_Text.GenJSON_kJSONObject 0 case.84 e_Text.GenJSON_kJSONArray 0 case.85
	pop_b 1
	pop_a_jmp 2 case.83
case.84
	pop_b 1
	repl_args 1 1
	jsr_eval 1
	jmp_eq_desc _Nil 0 1 case.86
	pop_a_jmp 2 case.83
case.86
	create 
	push_a 1
	push_array 4
	pop_b 1
	update3pop_a 0 4
.d 3 0 
	jsr s69
.o 1 0 
	pushB TRUE
.d 1 1 b
	jsr e_Text.GenJSON_sJSONDecode_Int;42
.o 2 0 
.d 3 0 
	jmp s427
case.85
	pop_b 1
	repl_args 1 1
	jsr_eval 1
	jmp_eq_desc _Nil 0 1 case.87
	pop_a_jmp 2 case.83
case.87
	create 
	pushI_a 4
	dup_a 4
	updatepop_a 1 3
	put_b 1
.d 2 1 i
	jsr e_Data.List_s!?
.o 1 0 
.d 2 0 
	jmp s426
case.83
	pop_a 2
	buildh _Nothing 0
.d 2 0 
	pop_b_rtn 1
.o 2 0 
s70
	jmp_ne_desc _Just 1 0 case.89
	repl_args 1 1
.d 1 0 
	jsr s38
.o 4 1 i
	buildhr e_iTasks.Extensions.Document_rDocument 4 1
	fillh _Just 1 1
.d 1 0 
	rtn 
case.89
	fillh _Nothing 0 1
.d 1 0 
	pop_a_rtn 1
.o 1 0 
s38
	repl_args 1 1
	jsr_eval 0
	repl_args 2 2
	jsr_eval 0
	repl_args 2 2
	jsr_eval 2
	push_args 2 2 2
	buildh0_put_a _Nil 5
	jsr_eval 1
	push_args 1 2 2
	buildh _Nil 0
	updates2_a 2 0 4
	jsr_eval 0
	pushI_a 2
	pop_a 1
	jsr_eval 0
	push_a 0
	push_array 0
	updates2_a 4 0 1
	jsr_eval 0
	push_array 0
	updates2_a 8 0 1
	jsr_eval 0
	push_array 0
	updates2_a 8 0 1
	jsr_eval 0
	push_array 0
	update3_a 2 9
	updatepop_a 0 8
.d 4 1 i
	rtn 
.o 4 0 
s64
	jmp_ne_desc _Just 1 0 case.91
	repl_args 1 1
	push_a 0
	buildh e_StdGeneric_dRECORD 1
	buildh _Just 1
	updates2pop_a 0 3 4
.d 2 0 
	rtn 
case.91
	pop_a 3
	buildh _Nothing 0
.d 2 0 
	rtn 
.o 4 0 
s63
	jmp_ne_desc _Just 1 0 case.93
	repl_args 1 1
	push_a 0
	buildh e_StdGeneric_dRECORD 1
	buildh _Just 1
	updates2pop_a 0 3 4
.d 2 0 
	rtn 
case.93
	pop_a 3
	buildh _Nothing 0
.d 2 0 
	rtn 
.o 4 0 
s67
	jmp_ne_desc _Just 1 1 case.95
	push_args 1 1 1
	buildh _Nil 0
	push_a 2
	updates2_a 2 1 4
	buildh e_StdGeneric_dPAIR 2
	buildh _Just 1
	updates2pop_a 0 4 5
.d 2 0 
	rtn 
case.95
	pop_a 3
	buildh _Nothing 0
.d 2 0 
	rtn 
.o 3 0 
s69
	jmp_ne_desc _Cons 2 1 case.97
	push_args 1 2 2
	buildh0_put_a _Nil 4
	jsr_eval 0
	repl_args 2 2
	jsr_eval 0
	push_a 0
	push_array 0
	update_a 5 2
	put_a 1
.d 2 0 
	jsr eqAC
.o 0 1 b
	jmp_false else.98
	buildh _Nil 0
	push_a 1
	fillh _Cons 2 6
.d 1 0 
	pop_a_rtn 4
else.98
	push_jsr_eval 1
	dup_a 4
.d 3 0 
	pop_a_jmp 3 s69
case.97
	fillh _Nil 0 2
.d 1 0 
	pop_a_rtn 2
.export e_iTasks.Extensions.Document_sJSONEncode_Document;6
.export e_iTasks.Extensions.Document_eaJSONEncode_Document;6
.descexp e_iTasks.Extensions.Document_dJSONEncode_Document;6 e_iTasks.Extensions.Document_nJSONEncode_Document;6 e_iTasks.Extensions.Document_lJSONEncode_Document;6 2 0 "JSONEncode_Document;6"
.o 3 1 b
e_iTasks.Extensions.Document_iJSONEncode_Document;6
	pop_a 1
	push_r_args 0 4 1
	update_a 3 4
	update3pop_a 0 1
	swap_b1 
.d 5 2 bi
	jmp s7
.ai 2 e_iTasks.Extensions.Document_eaJSONEncode_Document;6 e_iTasks.Extensions.Document_iJSONEncode_Document;6
.o 2 0 
e_iTasks.Extensions.Document_lJSONEncode_Document;6
	push_args 0 1 1
	update_a 2 1
	create 
.d 3 0 
	put_a_jmp 3 e_iTasks.Extensions.Document_eaJSONEncode_Document;6
.n 2 e_iTasks.Extensions.Document_dJSONEncode_Document;6 e_iTasks.Extensions.Document_eaJSONEncode_Document;6
.o 1 0 
e_iTasks.Extensions.Document_nJSONEncode_Document;6
	push_node _cycle_in_spine 2
.o 3 0 
e_iTasks.Extensions.Document_eaJSONEncode_Document;6
	jsr_eval 1
	jsr_eval 0
	push_r_args 1 4 1
	pushB_a 4
	update_a 3 5
	update3pop_a 0 2
.o 5 2 bi
e_iTasks.Extensions.Document_sJSONEncode_Document;6
.o 5 2 bi
s7
	create 
	push_ab 1 1
	updates2_a 4 3 2
	updates3pop_a 0 1 5 4
.d 5 1 i
	jsr s39
.o 1 0 
	build e_iTasks.Extensions.Document_dfli__Document;38.37 0 e_iTasks.Extensions.Document_nfli__Document;38.37
.d 3 1 b
	put_b_jmp 1 s108
.o 3 1 b
s108
	push_args 1 1 1
	buildh0_put_a _Nil 3
	buildh _Nil 0
	push_a 1
	buildB FALSE
	build e_iTasks.Extensions.Document_dJSONEncode_PAIR;609.109 2 e_iTasks.Extensions.Document_nJSONEncode_PAIR;609.109
	push_update_a 0 3
	build e_iTasks.Extensions.Document_dc;172;49;64.57 2 e_iTasks.Extensions.Document_nc;172;49;64.57
	build e_Text.GenJSON_dJSONObject 1 e_Text.GenJSON_nJSONObject
	fillh _Cons 2 5
.d 1 0 
	pop_ab_rtn 3 1
.export e_iTasks.Extensions.Document_dJSONEncode_PAIR;609.109
.export e_iTasks.Extensions.Document_nJSONEncode_PAIR;609.109
.descn e_iTasks.Extensions.Document_dJSONEncode_PAIR;609.109 e_iTasks.Extensions.Document_nJSONEncode_PAIR;609.109 2 0 "JSONEncode_PAIR;609.109"
.n 2 e_iTasks.Extensions.Document_dJSONEncode_PAIR;609.109 ea109
.o 1 0 
e_iTasks.Extensions.Document_nJSONEncode_PAIR;609.109
	push_node _cycle_in_spine 2
.o 3 0 
ea109
	jsr_eval 1
	pushB0_pop_a1 
.o 2 1 b
s109
	repl_args 2 2
	push_jsr_eval 1
	create 
	pushB FALSE
	updates2_a_pop_a 0 2 3 1
	put_b 1
.d 2 1 b
	jsr s104
.o 1 0 
	push_jsr_eval 1
	create 
	pushB FALSE
	swap_a1 
.d 2 1 b
	buildh0_put_a_jsr _Nil 4 s107
.o 1 0 
	update2pop_a 0 1
.d 3 0 
	jmp s60
.o 2 1 b
s107
	repl_args 2 2
	push_jsr_eval 1
	push_array 0
	put_a 1
	create 
	pushB FALSE
	updates2_a_pop_a 0 2 3 1
	put_b 1
.d 2 1 b
	jsr s97
.o 1 0 
	push_jsr_eval 1
	push_array 0
	put_a 1
	create 
	pushB FALSE
	swap_a1 
.d 2 1 b
	buildh0_put_a_jsr _Nil 4 s97
.o 1 0 
	update2pop_a 0 1
.d 3 0 
	jmp s60
.o 2 1 b
s104
	repl_args 2 2
	push_jsr_eval 1
	create 
	pushB FALSE
	updates2_a_pop_a 0 2 3 1
	put_b 1
.d 2 1 b
	jsr s103
.o 1 0 
	push_jsr_eval 1
	push_array 0
	put_a 1
	create 
	pushB FALSE
	swap_a1 
.d 2 1 b
	buildh0_put_a_jsr _Nil 4 s97
.o 1 0 
	update2pop_a 0 1
.d 3 0 
	jmp s60
.o 2 1 b
s103
	repl_args 2 2
	push_jsr_eval 1
	pushI_a 2
	pop_a 1
	create 
	put_b 1
	pushB FALSE
	update2pop_a 0 1
.d 1 2 bi
	jsr s99
.o 1 0 
	push_jsr_eval 1
	push_array 0
	put_a 1
	create 
	pushB FALSE
	swap_a1 
.d 2 1 b
	buildh0_put_a_jsr _Nil 4 s97
.o 1 0 
	update2pop_a 0 1
.d 3 0 
	jmp s60
.o 2 1 b
s97
	pop_b_pushB 1 TRUE
.d 2 1 b
	jmp e_Text.GenJSON_sJSONEncode__String;16
.o 1 2 bi
s99
	pop_b_pushB 1 TRUE
.d 1 2 bi
	jmp e_Text.GenJSON_sJSONEncode_Int;12
.export e_iTasks.Extensions.Document_dc;172;49;64.57
.export e_iTasks.Extensions.Document_nc;172;49;64.57
.descn e_iTasks.Extensions.Document_dc;172;49;64.57 e_iTasks.Extensions.Document_nc;172;49;64.57 2 0 "c;172;49;64.57"
.n 2 e_iTasks.Extensions.Document_dc;172;49;64.57 ea57
.o 1 0 
e_iTasks.Extensions.Document_nc;172;49;64.57
	push_node _cycle_in_spine 2
.o 3 0 
ea57
	jsr_eval 0
.o 3 0 
s57
s182
	jmp_ne_desc _Cons 2 0 case.100
	repl_args 2 2
	push_jsr_eval 2
	update3pop_a 0 1
.d 4 0 
	jmp s181
case.100
	fillh _Nil 0 2
.d 1 0 
	pop_a_rtn 2
.o 4 0 
s181
	jmp_ne_desc _Cons 2 0 case.102
	repl_args 2 2
	push_jsr_eval 2
.d 1 0 
	jsr s58
.o 0 1 b
	jmp_false else.103
	push_a2 1 3
	build e_iTasks.Extensions.Document_dc;172;49;64.57 2 e_iTasks.Extensions.Document_nc;172;49;64.57
	buildho2 _Tuple 1 3
	fillh _Cons 2 6
.d 1 0 
	pop_a_rtn 4
else.103
	push_jsr_eval 3
	update_a 2 4
	updatepop_a 0 3
.d 3 0 
	jmp s57
case.102
	fillh _Nil 0 3
.d 1 0 
	pop_a_rtn 3
.o 1 0 
s58
	jmp_ne_desc e_Text.GenJSON_dJSONNull 0 0 case.105
	pushB FALSE
.d 0 1 b
	pop_a_rtn 1
case.105
	pushB TRUE
.d 0 1 b
	pop_a_rtn 1
.export e_iTasks.Extensions.Document_dfli__Document;38.37
.export e_iTasks.Extensions.Document_nfli__Document;38.37
.descn e_iTasks.Extensions.Document_dfli__Document;38.37 e_iTasks.Extensions.Document_nfli__Document;38.37 0 0 "fli__Document;38.37"
.n 0 e_iTasks.Extensions.Document_dfli__Document;38.37 ea37
.o 1 0 
e_iTasks.Extensions.Document_nfli__Document;38.37
	push_node _cycle_in_spine 0
.o 1 0 
ea37
.o 1 0 
s37
	buildh _Nil 0
	buildAC "size"
	buildh ARRAY 1
	buildh _Cons 2
	buildAC "mime"
	buildh ARRAY 1
	buildh _Cons 2
	buildAC "name"
	buildh ARRAY 1
	buildh _Cons 2
	buildAC "contentUrl"
	buildh ARRAY 1
	buildh _Cons 2
	buildAC "documentId"
	buildh ARRAY 1
	fillh _Cons 2 2
.d 1 0 
	rtn 
.export e_iTasks.Extensions.Document_d++;67.60
.export e_iTasks.Extensions.Document_n++;67.60
.descn e_iTasks.Extensions.Document_d++;67.60 e_iTasks.Extensions.Document_n++;67.60 2 0 "++;67.60"
.n 2 e_iTasks.Extensions.Document_d++;67.60 ea60
.o 1 0 
e_iTasks.Extensions.Document_n++;67.60
	push_node _cycle_in_spine 2
.o 3 0 
ea60
	jsr_eval 0
.o 3 0 
s60
	jmp_ne_desc _Cons 2 0 case.107
	repl_args 2 2
	push2_a 2
	build e_iTasks.Extensions.Document_d++;67.60 2 e_iTasks.Extensions.Document_n++;67.60
	push_a 1
	fillh _Cons 2 5
.d 1 0 
	pop_a_rtn 3
case.107
	fill_a 1 2
.d 1 0 
	pop_a_rtn 2
.o 5 1 i
s39
	buildI_b 0
	push_a 4
	buildh ARRAY 1
	buildh e_StdGeneric_dPAIR 2
	push_a 3
	buildh ARRAY 1
	buildh e_StdGeneric_dPAIR 2
	push_a 2
	buildh ARRAY 1
	push_a 2
	buildh ARRAY 1
	buildh e_StdGeneric_dPAIR 2
	buildh e_StdGeneric_dPAIR 2
	fillh e_StdGeneric_dRECORD 1 5
.d 1 0 
	pop_ab_rtn 4 1
.export e_iTasks.Extensions.Document_s==;4
.descexp e_iTasks.Extensions.Document_d==;4 e_iTasks.Extensions.Document_n==;4 e_iTasks.Extensions.Document_l==;4 2 0 "==;4"
.o 3 0 
e_iTasks.Extensions.Document_i==;4
	pop_a 1
	push_r_args 1 4 1
	push_r_args 4 4 1
	update4_a 4 6
	update_a 3 5
	update3pop_a 0 2
.d 8 2 ii
	jmp s5
.ai 0 a5 e_iTasks.Extensions.Document_i==;4
.o 2 0 
e_iTasks.Extensions.Document_l==;4
	repl_args 1 1
.o 2 0 
a5
.d 2 0 
	jsr ea5
.o 0 1 b
	buildB_b 0
.d 1 0 
	pop_b_rtn 1
.n 2 e_iTasks.Extensions.Document_d==;4
.o 1 0 
e_iTasks.Extensions.Document_n==;4
	push_node _cycle_in_spine 2
.d 2 0 
	jsr ea5
.o 0 1 b
	fillB_b 0 0
.d 1 0 
	pop_b_rtn 1
.o 2 0 
ea5
	jsr_eval 1
	jsr_eval 0
	push_r_args 1 4 1
	push_r_args 4 4 1
	update4_a 4 6
	update_a 3 5
	update3pop_a 0 2
.o 8 2 ii
e_iTasks.Extensions.Document_s==;4
.o 8 2 ii
s5
	update_a 4 7
	updatepop_a 0 6
.d 2 0 
	pop_b_jsr 2 eqAC
.o 0 1 b
.d 0 1 b
	rtn 
.export e_iTasks.Extensions.Document_stoString;3
.descexp e_iTasks.Extensions.Document_dtoString;3 e_iTasks.Extensions.Document_ntoString;3 e_iTasks.Extensions.Document_ltoString;3 1 0 "toString;3"
.o 2 0 
e_iTasks.Extensions.Document_itoString;3
	pop_a 1
	push_r_args 0 4 1
	update_a 3 4
	update3pop_a 0 1
.d 4 1 i
	jmp s4
.ai 1 _ e_iTasks.Extensions.Document_itoString;3
.o 2 0 
e_iTasks.Extensions.Document_ltoString;3
.d 1 0 
	pop_a_jsr 1 ea4
.o 1 0 
	buildh ARRAY 1
.d 1 0 
	rtn 
.n 1 e_iTasks.Extensions.Document_dtoString;3
.o 1 0 
e_iTasks.Extensions.Document_ntoString;3
	push_node _cycle_in_spine 1
.d 1 0 
	jsr ea4
.o 1 0 
	fillh ARRAY 1 1
.d 1 0 
	rtn 
.o 1 0 
ea4
	jsr_eval 0
	repl_r_args 4 1
.o 4 1 i
e_iTasks.Extensions.Document_stoString;3
.o 4 1 i
s4
	pop_a 4
	pop_b 1
	buildAC ""
.d 1 0 
	rtn 
.export e_iTasks.Extensions.Document_sdeleteDocument
.export e_iTasks.Extensions.Document_eadeleteDocument
.descexp e_iTasks.Extensions.Document_ddeleteDocument e_iTasks.Extensions.Document_ndeleteDocument e_iTasks.Extensions.Document_ldeleteDocument 1 0 "deleteDocument"
.o 2 0 
e_iTasks.Extensions.Document_ldeleteDocument
	update_a 1 0
	create 
.d 2 0 
	put_a_jmp 2 e_iTasks.Extensions.Document_eadeleteDocument
.n 1 e_iTasks.Extensions.Document_ddeleteDocument e_iTasks.Extensions.Document_eadeleteDocument
.o 1 0 
e_iTasks.Extensions.Document_ndeleteDocument
	push_node _cycle_in_spine 1
.o 2 0 
e_iTasks.Extensions.Document_eadeleteDocument
	jsr_eval 0
	repl_r_args 4 1
.o 5 1 i
e_iTasks.Extensions.Document_sdeleteDocument
.o 5 1 i
s3
	build_r e_iTasks.Extensions.Document_rDocument 4 1 0 0
	buildh e_iTasks.Extensions.Document_deval;27.28 1
	updatepop_a 0 4
.d 2 0 
	pop_b_jmp 1 e_iTasks.Internal.Task_smkInstantTask
.export e_iTasks.Extensions.Document_deval;27.28
.desc e_iTasks.Extensions.Document_deval;27.28 _hnf l28 3 0 "eval;27.28"
.a 0 a28
.o 2 0 
l28
	repl_args 2 2
.o 3 0 
a28
.o 3 0 
ea28
	buildo1 e_iTasks.Extensions.Document_nDocument.documentId 0
	push_update_a 0 3
	build e_iTasks.Internal.TaskState_ddeleteDocumentShares 2 e_iTasks.Internal.TaskState_ndeleteDocumentShares
	build d_S.2 -1 n_S.2
	buildh e__predef_d_Unit 0
	buildh e_Data.Error_dOk 1
	update2pop_a 0 3
	buildh _Tuple 2
.d 1 0 
	rtn 
.export e_iTasks.Extensions.Document_sexportDocument
.export e_iTasks.Extensions.Document_eaexportDocument
.descexp e_iTasks.Extensions.Document_dexportDocument e_iTasks.Extensions.Document_nexportDocument e_iTasks.Extensions.Document_lexportDocument 2 0 "exportDocument"
.a 2 e_iTasks.Extensions.Document_eaexportDocument
.o 2 0 
e_iTasks.Extensions.Document_lexportDocument
	push_args 0 1 1
	update_a 2 1
	create 
.d 3 0 
	put_a_jmp 3 e_iTasks.Extensions.Document_eaexportDocument
.n 2 e_iTasks.Extensions.Document_dexportDocument e_iTasks.Extensions.Document_eaexportDocument
.o 1 0 
e_iTasks.Extensions.Document_nexportDocument
	push_node _cycle_in_spine 2
.o 3 0 
e_iTasks.Extensions.Document_eaexportDocument
	jsr_eval 1
	jsr_eval 0
	push_r_args 1 4 1
	push_array 4
	update2_a 3 5
	update3pop_a 0 2
.o 6 1 i
e_iTasks.Extensions.Document_sexportDocument
.o 6 1 i
s2
	build_r e_iTasks.Extensions.Document_rDocument 4 1 1 0
	push_a 1
	buildh ARRAY 1
	buildh e_iTasks.Extensions.Document_deval;26.27 2
	updatepop_a 0 5
.d 2 0 
	pop_b_jmp 1 e_iTasks.Internal.Task_smkInstantTask
.export e_iTasks.Extensions.Document_deval;26.27
.desc e_iTasks.Extensions.Document_deval;26.27 _hnf l27 4 0 "eval;26.27"
.a 0 a27
.o 2 0 
l27
	repl_args 3 3
.o 4 0 
a27
.d 4 0 
	jsr ea27
.o 2 0 
	buildh _Tuple 2
.d 1 0 
	rtn 
.o 4 0 
ea27
	jsr_eval 3
	push_r_args 1 4 1
	updates4_a 2 4 1 3 5
	put_a 2
.o 7 1 i
s27
	push_update_a 5 4
	update2_a 3 4
	update3pop_a 0 1
s20
	push_a 2
	update_a 7 1
.d 2 0 
	buildh0_put_a_jsr _Nil 8 e_iTasks.Internal.TaskState_sloadDocumentContent
.o 2 0 
	jmp_ne_desc _Nothing 0 0 else.108
	push_a 1
	push_r_arg_u 0 18 1 16 1 1 0
	push_a 1
	build e_iTasks.Extensions.Document_d_upd0.456 2 e_iTasks.Extensions.Document_n_upd0.456
	buildo1 e_iTasks.Extensions.Document_nioException.21 4
	update2pop_a 0 9
.d 2 0 
	pop_b_rtn 1
else.108
	push_a 1
	push_r_arg_u 0 18 1 16 1 1 0
	push_jsr_eval 4
	push_array 0
	put_a 1
	pushI 4
.d 2 1 i
	buildh0_put_a_jsr _Nil 5 e_StdFile_sfopen;32
.o 1 3 bf
	push_b 0
	jmp_true else.109
	push_a 0
	fill2_r e_iTasks.Internal.IWorld_rIWorld 18 1 2 00000000000000001000
	push_a2 1 4
	build e_iTasks.Extensions.Document_dopenException.22 1 e_iTasks.Extensions.Document_nopenException.22
	update2pop_a 0 10
.d 2 0 
	pop_b_rtn 4
else.109
	updates3_a 0 2 1 3
	pop_b 1
.d 1 0 
	pop_a_jsr 1 s180
.o 1 0 
.d 1 2 f
	jsr writeFS
.o 0 2 f
.d 1 2 f
	jsr e_StdFile_sfclose;31
.o 1 1 b
	push_b 0
	jmp_true else.110
	push_a 0
	fill2_r e_iTasks.Internal.IWorld_rIWorld 18 1 2 00000000000000001000
	push_a2 1 2
	build e_iTasks.Extensions.Document_dcloseException.23 1 e_iTasks.Extensions.Document_ncloseException.23
	update2pop_a 0 8
.d 2 0 
	pop_b_rtn 2
else.110
	push_a 0
	fill2_r e_iTasks.Internal.IWorld_rIWorld 18 1 2 00000000000000001000
	push_a 1
	build_r e_iTasks.Extensions.Document_rDocument 4 1 4 1
	buildh e_Data.Error_dOk 1
	update2pop_a 0 8
.d 2 0 
	pop_b_rtn 2
.export e_iTasks.Extensions.Document_d_upd0.456
.export e_iTasks.Extensions.Document_n_upd0.456
.descn e_iTasks.Extensions.Document_d_upd0.456 e_iTasks.Extensions.Document_n_upd0.456 2 0 "_upd0.456"
.n 2 e_iTasks.Extensions.Document_d_upd0.456 ea456
.o 1 0 
e_iTasks.Extensions.Document_n_upd0.456
	push_node _cycle_in_spine 2
.o 3 0 
ea456
.o 3 0 
s456
	push_jsr_eval 1
	push_r_args 1 18 1
	update_a 18 15
	fill_r e_iTasks.Internal.IWorld_rIWorld 18 1 21 0 0
.d 1 0 
	pop_ab_rtn 21 1
.o 1 0 
s180
	jmp_ne_desc _Just 1 0 case.112
	repl_args 1 1
	push_array 0
	put_a 1
.d 1 0 
	rtn 
case.112
	buildAC "fromJust: Nothing\n"
	put_a 1
.d 1 0 
	jsr print_string_
.o 0 0 
	halt
	push_array 0
	put_a 1
.d 1 0 
	rtn 
.export e_iTasks.Extensions.Document_dioException.21
.export e_iTasks.Extensions.Document_nioException.21
.descn e_iTasks.Extensions.Document_dioException.21 e_iTasks.Extensions.Document_nioException.21 1 0 "ioException.21"
.n 1 e_iTasks.Extensions.Document_dioException.21 ea21
.o 1 0 
e_iTasks.Extensions.Document_nioException.21
	push_node _cycle_in_spine 1
.o 2 0 
ea21
.o 2 0 
s21
	buildh e_System.File_dIOError 0
	push_a 1
	build e_iTasks.Extensions.Document_dFileException 2 e_iTasks.Extensions.Document_nFileException
	buildo1 e_iTasks.Extensions.Document_ntoString;5 0
	buildh e_iTasks.Extensions.Document_dTD;FileException 0
	buildhr e__SystemDynamic_kTypeCons 1 0
	push_a 2
	buildhr e__SystemDynamic_rDynamicTemp 2 0
	buildh _Tuple 2
	fillh e_Data.Error_dError 1 3
.d 1 0 
	pop_a_rtn 2
.export e_iTasks.Extensions.Document_simportDocument
.export e_iTasks.Extensions.Document_eaimportDocument
.descexp e_iTasks.Extensions.Document_dimportDocument e_iTasks.Extensions.Document_nimportDocument e_iTasks.Extensions.Document_limportDocument 2 0 "importDocument"
.a 2 e_iTasks.Extensions.Document_eaimportDocument
.o 2 0 
e_iTasks.Extensions.Document_limportDocument
	push_args 0 1 1
	update_a 2 1
	create 
.d 3 0 
	put_a_jmp 3 e_iTasks.Extensions.Document_eaimportDocument
.n 2 e_iTasks.Extensions.Document_dimportDocument e_iTasks.Extensions.Document_eaimportDocument
.o 1 0 
e_iTasks.Extensions.Document_nimportDocument
	push_node _cycle_in_spine 2
.o 3 0 
e_iTasks.Extensions.Document_eaimportDocument
	jsr_eval 1
	jsr_eval 0
	push_array 1
	pushB_a 1
	updatepop_a 0 2
.o 2 1 b
e_iTasks.Extensions.Document_simportDocument
.o 2 1 b
s1
	push_a 0
	buildh ARRAY 1
	buildB_b 0
	buildh e_iTasks.Extensions.Document_deval;23.24 2
	put_a 1
.d 2 0 
	pop_b_jmp 1 e_iTasks.Internal.Task_smkInstantTask
.export e_iTasks.Extensions.Document_deval;23.24
.desc e_iTasks.Extensions.Document_deval;23.24 _hnf l24 4 0 "eval;23.24"
.a 0 a24
.o 2 0 
l24
	repl_args 3 3
.o 4 0 
a24
.d 4 0 
	jsr ea24
.o 2 0 
	buildh _Tuple 2
.d 1 0 
	rtn 
.o 4 0 
ea24
	jsr_eval 3
	push_array 1
	put_a 2
.o 4 0 
s24
	exchange_a 2 1
s25
	push_r_args_u 3 18 1
	update_a 15 17
	updatepop_a 3 16
	pop_b 1
	repl_r_args 2 3
	updates3pop_a 5 2 3 4
	pop_b 3
	pushI 3
.d 2 1 i
	jsr e_StdFile_sfopen;32
.o 1 3 bf
	push_b 0
	jmp_true else.113
	push_a 0
	fill2_r e_iTasks.Internal.IWorld_rIWorld 18 1 4 00000000000000001000
	push2_a 3
	buildh ARRAY 1
	build e_iTasks.Extensions.Document_dopenException.22 1 e_iTasks.Extensions.Document_nopenException.22
	update2pop_a 0 4
.d 2 0 
	pop_b_rtn 3
else.113
.d 0 2 f
	pop_b_jsr 1 s423
.o 1 2 f
	swap_a1 
.d 1 2 f
	jsr e_StdFile_sfclose;31
.o 1 1 b
	push_b 0
	jmp_true else.114
	push_a 0
	fill2_r e_iTasks.Internal.IWorld_rIWorld 18 1 5 00000000000000001000
	push2_a 4
	buildh ARRAY 1
	build e_iTasks.Extensions.Document_dcloseException.23 1 e_iTasks.Extensions.Document_ncloseException.23
	update2pop_a 0 5
.d 2 0 
	pop_b_rtn 1
else.114
	push_a 3
.d 1 0 
	pop_b_jsr 1 e_System.FilePath_sdropDirectory
.o 1 0 
	push_a 1
	fill2_r e_iTasks.Internal.IWorld_rIWorld 18 1 6 00000000000000001000
	push_a2 5 2
	jsr_eval 0
	push_array 0
	updates2_a 3 0 1
	buildh0_dup_a _Nil 9
	dup2_a 5
.d 1 0 
	pop_a_jsr 1 e_System.FilePath_stakeExtension
.o 1 0 
.d 1 0 
	jsr e_Text.Encodings.MIME_sextensionToMimeType
.o 1 0 
	update2_a 1 4
	updates2_a 0 3 2
.d 4 0 
	pop_a_jsr 2 e_iTasks.Internal.TaskState_screateDocument
.o 2 0 
.d 1 0 
	push_a_jsr 0 e_Data.Error_sisError
.o 0 1 b
	jmp_false else.115
	buildo1 e_Data.Error_nfromError 0
	buildo1 e_System.File_ntoString;11 0
	buildh e_System.File_dTD;FileError 0
	buildhr e__SystemDynamic_kTypeCons 1 0
	push_a 2
	buildhr e__SystemDynamic_rDynamicTemp 2 0
	buildh _Tuple 2
	buildh e_Data.Error_dError 1
	update_a 3 6
	updatepop_a 0 5
.d 2 0 
	rtn 
else.115
	push_a2 1 2
	jsr_eval 0
	pushB_a 4
	update_a 2 6
	update_a 1 4
	updates2_a 1 5 3
.d 2 1 b
	pop_a_jsr 3 s178
.o 2 0 
.d 1 0 
	push_a_jsr 0 e_Data.Error_sisError
.o 0 1 b
	jmp_false else.116
	buildo1 e_Data.Error_nfromError 0
	push_a 2
	push_r_args 4 18 1
	update_a 18 15
	buildhr e_iTasks.Internal.IWorld_rIWorld 18 1
	updates2_a 2 0 1
	build d_S.2 -1 n_S.2
	buildh e__SystemDynamic_dTC_Char 0
	buildhr e__SystemDynamic_kTypeCons 1 0
	buildh e__SystemDynamic_dTC__UnboxedArray 0
	buildhr e__SystemDynamic_kTypeCons 1 0
	buildhr e__SystemDynamic_kTypeApp 2 0
	buildh e__SystemDynamic_dTC_Int 0
	buildhr e__SystemDynamic_kTypeCons 1 0
	buildh e__SystemDynamic_dTC__Tuple2 0
	buildhr e__SystemDynamic_kTypeCons 1 0
	buildhr e__SystemDynamic_kTypeApp 2 0
	buildhr e__SystemDynamic_kTypeApp 2 0
	push_a 3
	buildhr e__SystemDynamic_rDynamicTemp 2 0
	buildh _Tuple 2
	buildh e_Data.Error_dError 1
	update2pop_a 0 5
.d 2 0 
	rtn 
else.116
	push_a 1
	push_r_args 3 18 1
	update_a 18 15
	buildhr e_iTasks.Internal.IWorld_rIWorld 18 1
	updates2_a 5 0 1
	build e_Data.Error_dfromOk 1 e_Data.Error_nfromOk
	buildh e_Data.Error_dOk 1
	update2pop_a 0 4
.d 2 0 
	rtn 
.o 2 1 b
s178
	eqB_b TRUE 0
	jmp_false case.118
	push_r_args_a 1 18 1 16 1
	put_a 2
.d 2 0 
	pop_b_jmp 1 e_System.File_sdeleteFile
case.118
	push_r_args_a 1 18 1 16 1
	buildh e__predef_d_Unit 0
	buildh e_Data.Error_dOk 1
	update2pop_a 0 2
.d 2 0 
	pop_b_rtn 1
.export e_iTasks.Extensions.Document_dcloseException.23
.export e_iTasks.Extensions.Document_ncloseException.23
.descn e_iTasks.Extensions.Document_dcloseException.23 e_iTasks.Extensions.Document_ncloseException.23 1 0 "closeException.23"
.n 1 e_iTasks.Extensions.Document_dcloseException.23 ea23
.o 1 0 
e_iTasks.Extensions.Document_ncloseException.23
	push_node _cycle_in_spine 1
.o 2 0 
ea23
.o 2 0 
s23
	buildh e_System.File_dCannotClose 0
	push_a 1
	build e_iTasks.Extensions.Document_dFileException 2 e_iTasks.Extensions.Document_nFileException
	buildo1 e_iTasks.Extensions.Document_ntoString;5 0
	buildh e_iTasks.Extensions.Document_dTD;FileException 0
	buildhr e__SystemDynamic_kTypeCons 1 0
	push_a 2
	buildhr e__SystemDynamic_rDynamicTemp 2 0
	buildh _Tuple 2
	fillh e_Data.Error_dError 1 3
.d 1 0 
	pop_a_rtn 2
.export e_iTasks.Extensions.Document_dopenException.22
.export e_iTasks.Extensions.Document_nopenException.22
.descn e_iTasks.Extensions.Document_dopenException.22 e_iTasks.Extensions.Document_nopenException.22 1 0 "openException.22"
.n 1 e_iTasks.Extensions.Document_dopenException.22 ea22
.o 1 0 
e_iTasks.Extensions.Document_nopenException.22
	push_node _cycle_in_spine 1
.o 2 0 
ea22
.o 2 0 
s22
	buildh e_System.File_dCannotOpen 0
	push_a 1
	build e_iTasks.Extensions.Document_dFileException 2 e_iTasks.Extensions.Document_nFileException
	buildo1 e_iTasks.Extensions.Document_ntoString;5 0
	buildh e_iTasks.Extensions.Document_dTD;FileException 0
	buildhr e__SystemDynamic_kTypeCons 1 0
	push_a 2
	buildhr e__SystemDynamic_rDynamicTemp 2 0
	buildh _Tuple 2
	fillh e_Data.Error_dError 1 3
.d 1 0 
	pop_a_rtn 2
.export e_iTasks.Extensions.Document_stoString;5
.descexp e_iTasks.Extensions.Document_dtoString;5 e_iTasks.Extensions.Document_ntoString;5 e_iTasks.Extensions.Document_ltoString;5 1 0 "toString;5"
.o 2 0 
e_iTasks.Extensions.Document_itoString;5
.d 1 0 
	pop_a_jmp 1 s6
.ai 1 _ e_iTasks.Extensions.Document_itoString;5
.o 2 0 
e_iTasks.Extensions.Document_ltoString;5
.d 1 0 
	pop_a_jsr 1 ea6
.o 1 0 
	buildh ARRAY 1
.d 1 0 
	rtn 
.n 1 e_iTasks.Extensions.Document_dtoString;5
.o 1 0 
e_iTasks.Extensions.Document_ntoString;5
	push_node _cycle_in_spine 1
.d 1 0 
	jsr ea6
.o 1 0 
	fillh ARRAY 1 1
.d 1 0 
	rtn 
.o 1 0 
ea6
	jsr_eval 0
.o 1 0 
e_iTasks.Extensions.Document_stoString;5
.o 1 0 
s6
	repl_args 2 2
	swap_a1 
s177
	pushD_a 0
	jmpD ea e_System.File_dCannotClose 0 case.120 case.121
case.119
	pop_b 1
	buildAC "'"
	updates2_a 0 2 1
.d 2 0 
	pop_a_jsr 1 catAC
.o 1 0 
	buildAC "Cannot open file '"
.d 2 0 
	jsr catAC
.o 1 0 
.d 1 0 
	rtn 
case.120
	pop_b 1
	buildAC "'"
	updates2_a 0 2 1
.d 2 0 
	pop_a_jsr 1 catAC
.o 1 0 
	buildAC "Cannot close file '"
.d 2 0 
	jsr catAC
.o 1 0 
.d 1 0 
	rtn 
case.121
	pop_b 1
	buildAC "'"
	updates2_a 0 2 1
.d 2 0 
	pop_a_jsr 1 catAC
.o 1 0 
	buildAC "Error reading/writing file '"
.d 2 0 
	jsr catAC
.o 1 0 
.d 1 0 
	rtn 
.o 0 2 f
s423
	pushI 1048576
	push_b 1
	updates3pop_b 0 1 3 2
.d 0 3 f i
	jsr readFS
.o 1 2 f
	push_arraysize_a CHAR 0 1 0
	pushI 1048576
	swap_b1 
	jmp_geI else.122
	push2_b 1
	push_a 0
	buildh ARRAY 1
	put_a 1
	update2pop_b 0 2
.d 1 2 f
	rtn 
else.122
.d 0 2 f
	jsr s423
.o 1 2 f
	push_a2 0 1
	buildh ARRAY 1
	build e_StdString_d+++;11 2 e_StdString_n+++;11
	updatepop_a 0 2
.d 1 2 f
	rtn 
.o 2 0 
s426
	jmp_ne_desc _Nothing 0 0 case.124
	pop_a 1
	buildh _Nothing 0
.d 2 0 
	rtn 
case.124
	repl_args 1 1
	buildh _Nil 0
	push_a 1
	buildh _Cons 2
	pushB TRUE
	put_a 1
.d 1 1 b
	jsr e_Text.GenJSON_sJSONDecode_Int;42
.o 2 0 
.d 3 0 
	jmp s451
.o 3 0 
s427
	jmp_ne_desc _Just 1 0 case.126
	repl_args 1 1
	push_a 0
	buildh _Just 1
	updatepop_a 0 2
.d 2 0 
	rtn 
case.126
	pop_a 2
	buildh _Nothing 0
.d 2 0 
	rtn 
.o 2 0 
s428
	jmp_ne_desc _Nothing 0 0 case.128
	pop_a 1
	buildh _Nothing 0
.d 2 0 
	rtn 
case.128
	repl_args 1 1
	buildh _Nil 0
	push_a 1
	buildh _Cons 2
	pushB TRUE
	put_a 1
.d 1 1 b
	jsr e_Text.GenJSON_sJSONDecode__String;46
.o 2 0 
.d 3 0 
	jmp s450
.o 3 0 
s429
	jmp_ne_desc _Just 1 0 case.130
	repl_args 1 1
	push_a 0
	buildh _Just 1
	updatepop_a 0 2
.d 2 0 
	rtn 
case.130
	pop_a 2
	buildh _Nothing 0
.d 2 0 
	rtn 
.o 2 0 
s430
	create 
	swap_a1 
.d 2 0 
	jsr s70
.o 1 0 
.d 2 0 
	rtn 
.o 4 0 
s434
case.131
	jmp_ne_desc _Just 1 0 case.132
	repl_args 1 1
	push_jsr_eval 2
	push_a 1
	buildh e_StdGeneric_dCONS 1
	buildh _Just 1
	update2pop_a 0 4
.d 2 0 
	rtn 
case.132
	pop_a 3
	buildh _Nothing 0
.d 2 0 
	rtn 
.o 4 0 
s437
	jmp_ne_desc _Just 1 0 case.135
	repl_args 1 1
	push_a 0
	buildh e_StdGeneric_dLEFT 1
	buildh _Just 1
	update_a 2 4
	updatepop_a 0 3
.d 2 0 
	rtn 
case.135
	updates2_a 3 2 1
	pushB FALSE
.d 2 1 b
	pop_a_jsr 1 s151
.o 2 0 
.d 3 0 
	jmp s447
.o 5 0 
s438
	jmp_ne_desc _Just 1 0 case.137
	repl_args 1 1
	push_a 0
	buildh e_StdGeneric_dLEFT 1
	buildh _Just 1
	update_a 2 5
	updatepop_a 0 4
.d 2 0 
	rtn 
case.137
	updates3_a 4 3 2 1
	pushB FALSE
.d 3 1 b
	pop_a_jsr 1 s154
.o 2 0 
.d 3 0 
	jmp s446
.o 3 0 
s439
case.138
	jmp_ne_desc _Just 1 0 case.139
	repl_args 1 1
	push_a 0
	buildh _Just 1
	updates2pop_a 0 2 3
.d 2 0 
	rtn 
case.139
	pop_a 2
	buildh _Nothing 0
.d 2 0 
	rtn 
.o 2 0 
s440
	create 
	swap_a1 
.d 2 0 
	jsr s93
.o 1 0 
.d 2 0 
	rtn 
.o 4 0 
s443
case.141
	jmp_ne_desc _Just 1 0 case.142
	repl_args 1 1
	push_jsr_eval 2
	push_a 1
	buildh e_StdGeneric_dCONS 1
	buildh _Just 1
	update2pop_a 0 4
.d 2 0 
	rtn 
case.142
	pop_a 3
	buildh _Nothing 0
.d 2 0 
	rtn 
.o 3 0 
s444
case.144
	jmp_ne_desc _Just 1 0 case.145
	repl_args 1 1
	push_a 0
	buildh _Just 1
	updates2pop_a 0 2 3
.d 2 0 
	rtn 
case.145
	pop_a 2
	buildh _Nothing 0
.d 2 0 
	rtn 
.o 2 0 
s445
	create 
	swap_a1 
.d 2 0 
	jsr s82
.o 1 0 
.d 2 0 
	rtn 
.o 3 0 
s446
	jmp_ne_desc _Just 1 0 case.148
	repl_args 1 1
	push_a 0
	buildh e_StdGeneric_dRIGHT 1
	buildh _Just 1
	updates2pop_a 0 2 3
.d 2 0 
	rtn 
case.148
	pop_a 2
	buildh _Nothing 0
.d 2 0 
	rtn 
.o 3 0 
s447
	jmp_ne_desc _Just 1 0 case.150
	repl_args 1 1
	push_a 0
	buildh e_StdGeneric_dRIGHT 1
	buildh _Just 1
	updates2pop_a 0 2 3
.d 2 0 
	rtn 
case.150
	pop_a 2
	buildh _Nothing 0
.d 2 0 
	rtn 
.o 3 0 
s450
	jmp_ne_desc _Just 1 0 case.152
	repl_args 1 1
	push_a 0
	buildh _Just 1
	updatepop_a 0 2
.d 2 0 
	rtn 
case.152
	pop_a 2
	buildh _Nothing 0
.d 2 0 
	rtn 
.o 3 0 
s451
	jmp_ne_desc _Just 1 0 case.154
	repl_args 1 1
	push_a 0
	buildh _Just 1
	updatepop_a 0 2
.d 2 0 
	rtn 
case.154
	pop_a 2
	buildh _Nothing 0
.d 2 0 
	rtn 
