.comp 920 000011110011000
.start _nostart_
.depend "iTasks.Internal.SDSService" "20210613143555"
.depend "iTasks.Internal.Serialization" "20210613143555"
.depend "_SystemEnum" "20210613143554"
.depend "StdEnum" "20210613143554"
.depend "StdTuple" "20210613143554"
.depend "StdOrdList" "20210613143554"
.depend "Control.Monad.Trans" "20210613143554"
.depend "StdMaybe" "20210613143554"
.depend "Data.Maybe" "20210613143554"
.depend "iTasks.Extensions.Admin.WorkflowAdmin" "20210613143555"
.depend "iTasks.Extensions.User" "20210613143555"
.depend "iTasks.Extensions.Admin.UserAdmin" "20210613143555"
.depend "iTasks.UI.Layout.Common" "20210613143555"
.depend "iTasks.UI.Editor.Modifiers" "20210613143555"
.depend "iTasks.UI.Editor.Containers" "20210613143555"
.depend "iTasks.UI.Tune" "20210613143555"
.depend "iTasks.Internal.Distributed.Domain" "20210613143555"
.depend "iTasks.WF.Combinators.Common" "20210613143555"
.depend "iTasks.WF.Combinators.SDS" "20210613143555"
.depend "iTasks.UI.Editor.Controls" "20210613143555"
.depend "iTasks.WF.Tasks.Interaction" "20210613143555"
.depend "iTasks.WF.Tasks.System" "20210613143555"
.depend "iTasks.WF.Tasks.SDS" "20210613143555"
.depend "iTasks.WF.Tasks.Core" "20210613143555"
.depend "System.Time.GenJSON" "20210613143555"
.depend "Text.HTML.GenJSON" "20210613143555"
.depend "Data.Map.GenJSON" "20210613143554"
.depend "Data.Error.GenJSON" "20210613143554"
.depend "Data.Either.GenJSON" "20210613143554"
.depend "iTasks.WF.Derives" "20210613143555"
.depend "iTasks.SDS.Combinators.Common" "20210613143555"
.depend "iTasks.SDS.Combinators.Core" "20210613143555"
.depend "iTasks.SDS.Sources.System" "20210613143555"
.depend "iTasks.SDS.Sources.Store" "20210613143555"
.depend "iTasks.SDS.Sources.Core" "20210613143555"
.depend "iTasks.Internal.TaskIO" "20210613143555"
.depend "System._Signal" "20210613143555"
.depend "System.Signal" "20210613143555"
.depend "_SystemStrictMaybes" "20210613143554"
.depend "Text.GenPrint" "20210613143555"
.depend "iTasks.Extensions.DateTime" "20210613143555"
.depend "iTasks.Internal.TaskServer" "20210613143555"
.depend "AsyncIO" "20210613143555"
.depend "System._Process" "20210613143555"
.depend "System.Process" "20210613143555"
.depend "System.OS" "20210613143555"
.depend "TCPStringChannelsInternal" "20210613143555"
.depend "TCPStringChannels" "20210613143555"
.depend "TCPEvent" "20210613143555"
.depend "tcp_bytestreams" "20210613143555"
.depend "TCPDef" "20210613143555"
.depend "TCPChannels" "20210613143555"
.depend "TCPIP" "20210613143555"
.depend "iTasks.WF.Tasks.IO" "20210613143555"
.depend "Data.IntMap.Base" "20210613143554"
.depend "Data.IntMap.Strict" "20210613143554"
.depend "Data.CircularStack" "20210613143554"
.depend "iTasks.Extensions.Document" "20210613143555"
.depend "System.File" "20210613143555"
.depend "iTasks.Util.DeferredJSON" "20210613143555"
.depend "iTasks.UI.Layout" "20210613143555"
.depend "iTasks.Internal.TaskState" "20210613143555"
.depend "iTasks.Internal.SDS" "20210613143555"
.depend "Data.GenHash" "20210613143554"
.depend "Data.Maybe.Ord" "20210613143554"
.depend "Control.GenBimap" "20210613143554"
.depend "ABC.Interpreter.JavaScript" "20210613143554"
.depend "ABC.Interpreter" "20210613143554"
.depend "iTasks.UI.Editor" "20210613143555"
.depend "iTasks.UI.Editor.Generic" "20210613143555"
.depend "iTasks.Internal.Generic.Defaults" "20210613143555"
.depend "Data.GenDefault" "20210613143554"
.depend "Data.Integer" "20210613143554"
.depend "Text.HTML" "20210613143555"
.depend "iTasks.Internal.Generic.Visualization" "20210613143555"
.depend "iTasks.SDS.Definition" "20210613143555"
.depend "iTasks.WF.Combinators.Core" "20210613143555"
.depend "iTasks.Internal.TaskEval" "20210613143555"
.depend "iTasks.WF.Definition" "20210613143555"
.depend "iTasks.Internal.Task" "20210613143555"
.depend "iTasks.UI.Definition" "20210613143555"
.depend "Text.GenJSON" "20210613143555"
.depend "Data.Bifunctor" "20210613143554"
.depend "Data.Either" "20210613143554"
.depend "Data.Queue" "20210613143554"
.depend "StdFile" "20210613143554"
.depend "symbols_in_program" "20210613143555"
.depend "iTasks.Internal.IWorld" "20210613143555"
.depend "iTasks.Internal.WebService" "20210613143555"
.depend "tcp" "20210613143555"
.depend "TCPChannelClass" "20210613143555"
.depend "System._Time" "20210613143555"
.depend "System.Time" "20210613143555"
.depend "System.GetOpt" "20210613143555"
.depend "System.OSError" "20210613143555"
.depend "System.FilePath" "20210613143555"
.depend "StdString" "20210613143554"
.depend "Internet.HTTP" "20210613143555"
.depend "Control.Monad.Fail" "20210613143554"
.depend "Data.Traversable" "20210613143554"
.depend "StdMisc" "20210613143554"
.depend "StdOverloadedList" "20210613143554"
.depend "Data.List" "20210613143554"
.depend "Data.Foldable" "20210613143554"
.depend "Data.Set" "20210613143554"
.depend "Data.GenLexOrd" "20210613143554"
.depend "StdFunctions" "20210613143554"
.depend "StdFunc" "20210613143554"
.depend "Data.Map" "20210613143554"
.depend "_SystemEnumStrict" "20210613143554"
.depend "_SystemStrictLists" "20210613143554"
.depend "StdStrictLists" "20210613143554"
.depend "StdGeneric" "20210613143554"
.depend "Data.GenEq" "20210613143554"
.depend "StdReal" "20210613143554"
.depend "StdChar" "20210613143554"
.depend "StdInt" "20210613143554"
.depend "StdBool" "20210613143554"
.depend "StdClass" "20210613143554"
.depend "StdList" "20210613143554"
.depend "Data.Monoid" "20210613143554"
.depend "Control.Applicative" "20210613143554"
.depend "Control.Monad" "20210613143554"
.depend "Data.Functor" "20210613143554"
.depend "Data.Error" "20210613143554"
.depend "iTasks.Engine" "20210613143555"
.depend "iTasks" "20210613143555"
.depend "StdOverloaded" "20210613143554"
.depend "_SystemDynamic" "20210613143554"
.depend "BasicAPIExamples.EditorsOnBasicAndPredefinedTypes.HelloWorld" "20210613143556"
.module m_BasicAPIExamples.EditorsOnBasicAndPredefinedTypes.HelloWorld "BasicAPIExamples.EditorsOnBasicAndPredefinedTypes.HelloWorld" "20210613143556"
.endinfo
.impmod _system
.implab _cycle_in_spine
.implab _type_error
.implab _hnf
.impdesc e_system_dind
.implab e_system_nind e_system_eaind
.impdesc e_system_dif
.implab e_system_nif e_system_eaif
.implab e_system_sif
.impdesc e_system_dAP
.implab e_system_nAP e_system_eaAP
.implab e_system_sAP
.impdesc ARRAY
.impdesc _Nil
.impdesc _Cons
.impdesc _Conss
.implab n_Conss ea_Conss
.impdesc _Consts
.implab n_Consts ea_Consts
.impdesc _Conssts
.implab n_Conssts ea_Conssts
.impdesc _Tuple
.impdesc d_S.1
.implab n_S.1 ea_S.1
.impdesc d_S.2
.implab n_S.2 ea_S.2
.impdesc d_S.3
.implab n_S.3 ea_S.3
.impdesc d_S.4
.implab n_S.4 ea_S.4
.impdesc d_S.5
.implab n_S.5 ea_S.5
.impdesc d_S.6
.implab n_S.6 ea_S.6
.implab _driver
.impmod iTasks.Extensions.Admin.WorkflowAdmin
.implab e_iTasks.Extensions.Admin.WorkflowAdmin_sworkflow
.impdesc e_iTasks.Extensions.Admin.WorkflowAdmin_dtoWorkflow;13
.impmod iTasks.UI.Tune
.implab e_iTasks.UI.Tune_s@>>
.impdesc e_iTasks.UI.Tune_dtune;7
.impmod iTasks.WF.Combinators.Common
.implab e_iTasks.WF.Combinators.Common_s@!
.impmod iTasks.WF.Tasks.Interaction
.implab e_iTasks.WF.Tasks.Interaction_sviewInformation
.impmod iTasks.UI.Editor.Generic
.impdesc e_iTasks.UI.Editor.Generic_dgEditor__String;11
.impmod iTasks.Internal.Generic.Visualization
.impdesc e_iTasks.Internal.Generic.Visualization_dgText__String;16
.impmod Text.GenJSON
.impdesc e_Text.GenJSON_dJSONEncode__String;16
.impdesc e_Text.GenJSON_dJSONDecode__String;46
.impmod Data.GenEq
.impdesc e_Data.GenEq_dgEq__String;11
.impmod iTasks.Extensions.Admin.WorkflowAdmin
.impdesc e_iTasks.Extensions.Admin.WorkflowAdmin_rtoWorkflow;
.impmod iTasks.UI.Tune
.impdesc e_iTasks.UI.Tune_rtune;
.impmod iTasks.WF.Definition
.impdesc e_iTasks.WF.Definition_riTask;
.impmod iTasks.UI.Definition
.impdesc e_iTasks.UI.Definition_kHint
.impmod _SystemDynamic
.impdesc e__SystemDynamic_kTypeCons
.impdesc e__SystemDynamic_kTypeApp
.impdesc e__SystemDynamic_rTypeCodeConstructor
.impdesc e__SystemDynamic_dTC_Char
.impdesc e__SystemDynamic_dTC__UnboxedArray
.export e_BasicAPIExamples.EditorsOnBasicAndPredefinedTypes.HelloWorld_rgEditor_s;
.record e_BasicAPIExamples.EditorsOnBasicAndPredefinedTypes.HelloWorld_rgEditor_s; a 1 0 "gEditor_s;"
.export e_BasicAPIExamples.EditorsOnBasicAndPredefinedTypes.HelloWorld_tgEditor_s;
.export e_BasicAPIExamples.EditorsOnBasicAndPredefinedTypes.HelloWorld_cgEditor_s;
.descn e_BasicAPIExamples.EditorsOnBasicAndPredefinedTypes.HelloWorld_tgEditor_s; e_BasicAPIExamples.EditorsOnBasicAndPredefinedTypes.HelloWorld_cgEditor_s; 1 1 "gEditor_s;"
.n 1 e_BasicAPIExamples.EditorsOnBasicAndPredefinedTypes.HelloWorld_tgEditor_s;
.o 1 0 
e_BasicAPIExamples.EditorsOnBasicAndPredefinedTypes.HelloWorld_cgEditor_s;
	push_node _cycle_in_spine 1
	jsr_eval 0
.impmod BasicAPIExamples.EditorsOnBasicAndPredefinedTypes.HelloWorld
.impdesc e_BasicAPIExamples.EditorsOnBasicAndPredefinedTypes.HelloWorld_rgEditor_s;
	fill_r e_BasicAPIExamples.EditorsOnBasicAndPredefinedTypes.HelloWorld_rgEditor_s; 1 0 1 0 0
.d 1 0 
	pop_a_rtn 1
.export e_BasicAPIExamples.EditorsOnBasicAndPredefinedTypes.HelloWorld_rgText_s;
.record e_BasicAPIExamples.EditorsOnBasicAndPredefinedTypes.HelloWorld_rgText_s; a 1 0 "gText_s;"
.export e_BasicAPIExamples.EditorsOnBasicAndPredefinedTypes.HelloWorld_tgText_s;
.export e_BasicAPIExamples.EditorsOnBasicAndPredefinedTypes.HelloWorld_cgText_s;
.descn e_BasicAPIExamples.EditorsOnBasicAndPredefinedTypes.HelloWorld_tgText_s; e_BasicAPIExamples.EditorsOnBasicAndPredefinedTypes.HelloWorld_cgText_s; 1 1 "gText_s;"
.n 1 e_BasicAPIExamples.EditorsOnBasicAndPredefinedTypes.HelloWorld_tgText_s;
.o 1 0 
e_BasicAPIExamples.EditorsOnBasicAndPredefinedTypes.HelloWorld_cgText_s;
	push_node _cycle_in_spine 1
	jsr_eval 0
.impdesc e_BasicAPIExamples.EditorsOnBasicAndPredefinedTypes.HelloWorld_rgText_s;
	fill_r e_BasicAPIExamples.EditorsOnBasicAndPredefinedTypes.HelloWorld_rgText_s; 1 0 1 0 0
.d 1 0 
	pop_a_rtn 1
.export e_BasicAPIExamples.EditorsOnBasicAndPredefinedTypes.HelloWorld_rJSONEncode_s;
.record e_BasicAPIExamples.EditorsOnBasicAndPredefinedTypes.HelloWorld_rJSONEncode_s; a 1 0 "JSONEncode_s;"
.export e_BasicAPIExamples.EditorsOnBasicAndPredefinedTypes.HelloWorld_tJSONEncode_s;
.export e_BasicAPIExamples.EditorsOnBasicAndPredefinedTypes.HelloWorld_cJSONEncode_s;
.descn e_BasicAPIExamples.EditorsOnBasicAndPredefinedTypes.HelloWorld_tJSONEncode_s; e_BasicAPIExamples.EditorsOnBasicAndPredefinedTypes.HelloWorld_cJSONEncode_s; 1 1 "JSONEncode_s;"
.n 1 e_BasicAPIExamples.EditorsOnBasicAndPredefinedTypes.HelloWorld_tJSONEncode_s;
.o 1 0 
e_BasicAPIExamples.EditorsOnBasicAndPredefinedTypes.HelloWorld_cJSONEncode_s;
	push_node _cycle_in_spine 1
	jsr_eval 0
.impdesc e_BasicAPIExamples.EditorsOnBasicAndPredefinedTypes.HelloWorld_rJSONEncode_s;
	fill_r e_BasicAPIExamples.EditorsOnBasicAndPredefinedTypes.HelloWorld_rJSONEncode_s; 1 0 1 0 0
.d 1 0 
	pop_a_rtn 1
.export e_BasicAPIExamples.EditorsOnBasicAndPredefinedTypes.HelloWorld_rJSONDecode_s;
.record e_BasicAPIExamples.EditorsOnBasicAndPredefinedTypes.HelloWorld_rJSONDecode_s; a 1 0 "JSONDecode_s;"
.export e_BasicAPIExamples.EditorsOnBasicAndPredefinedTypes.HelloWorld_tJSONDecode_s;
.export e_BasicAPIExamples.EditorsOnBasicAndPredefinedTypes.HelloWorld_cJSONDecode_s;
.descn e_BasicAPIExamples.EditorsOnBasicAndPredefinedTypes.HelloWorld_tJSONDecode_s; e_BasicAPIExamples.EditorsOnBasicAndPredefinedTypes.HelloWorld_cJSONDecode_s; 1 1 "JSONDecode_s;"
.n 1 e_BasicAPIExamples.EditorsOnBasicAndPredefinedTypes.HelloWorld_tJSONDecode_s;
.o 1 0 
e_BasicAPIExamples.EditorsOnBasicAndPredefinedTypes.HelloWorld_cJSONDecode_s;
	push_node _cycle_in_spine 1
	jsr_eval 0
.impdesc e_BasicAPIExamples.EditorsOnBasicAndPredefinedTypes.HelloWorld_rJSONDecode_s;
	fill_r e_BasicAPIExamples.EditorsOnBasicAndPredefinedTypes.HelloWorld_rJSONDecode_s; 1 0 1 0 0
.d 1 0 
	pop_a_rtn 1
.export e_BasicAPIExamples.EditorsOnBasicAndPredefinedTypes.HelloWorld_rgEq_s;
.record e_BasicAPIExamples.EditorsOnBasicAndPredefinedTypes.HelloWorld_rgEq_s; a 1 0 "gEq_s;"
.export e_BasicAPIExamples.EditorsOnBasicAndPredefinedTypes.HelloWorld_tgEq_s;
.export e_BasicAPIExamples.EditorsOnBasicAndPredefinedTypes.HelloWorld_cgEq_s;
.descn e_BasicAPIExamples.EditorsOnBasicAndPredefinedTypes.HelloWorld_tgEq_s; e_BasicAPIExamples.EditorsOnBasicAndPredefinedTypes.HelloWorld_cgEq_s; 1 1 "gEq_s;"
.n 1 e_BasicAPIExamples.EditorsOnBasicAndPredefinedTypes.HelloWorld_tgEq_s;
.o 1 0 
e_BasicAPIExamples.EditorsOnBasicAndPredefinedTypes.HelloWorld_cgEq_s;
	push_node _cycle_in_spine 1
	jsr_eval 0
.impdesc e_BasicAPIExamples.EditorsOnBasicAndPredefinedTypes.HelloWorld_rgEq_s;
	fill_r e_BasicAPIExamples.EditorsOnBasicAndPredefinedTypes.HelloWorld_rgEq_s; 1 0 1 0 0
.d 1 0 
	pop_a_rtn 1
.export e_BasicAPIExamples.EditorsOnBasicAndPredefinedTypes.HelloWorld_smain
.export e_BasicAPIExamples.EditorsOnBasicAndPredefinedTypes.HelloWorld_eamain
.descexp e_BasicAPIExamples.EditorsOnBasicAndPredefinedTypes.HelloWorld_dmain e_BasicAPIExamples.EditorsOnBasicAndPredefinedTypes.HelloWorld_nmain e_BasicAPIExamples.EditorsOnBasicAndPredefinedTypes.HelloWorld_lmain 0 0 "main"
.o 1 0 
e_BasicAPIExamples.EditorsOnBasicAndPredefinedTypes.HelloWorld_lmain
	halt
.n 0 e_BasicAPIExamples.EditorsOnBasicAndPredefinedTypes.HelloWorld_dmain e_BasicAPIExamples.EditorsOnBasicAndPredefinedTypes.HelloWorld_eamain
.o 1 0 
e_BasicAPIExamples.EditorsOnBasicAndPredefinedTypes.HelloWorld_nmain
	push_node _cycle_in_spine 0
.o 1 0 
e_BasicAPIExamples.EditorsOnBasicAndPredefinedTypes.HelloWorld_eamain
.o 1 0 
e_BasicAPIExamples.EditorsOnBasicAndPredefinedTypes.HelloWorld_smain
.o 1 0 
s2
	buildh e__predef_d_Unit 0
	create 
.d 1 0 
	jsr s3
.o 1 0 
.d 3 0 
	jmp e_iTasks.WF.Combinators.Common_s@!
.export e_BasicAPIExamples.EditorsOnBasicAndPredefinedTypes.HelloWorld_swf
.descexp e_BasicAPIExamples.EditorsOnBasicAndPredefinedTypes.HelloWorld_dwf e_BasicAPIExamples.EditorsOnBasicAndPredefinedTypes.HelloWorld_nwf e_BasicAPIExamples.EditorsOnBasicAndPredefinedTypes.HelloWorld_lwf 1 0 "wf"
.o 2 0 
e_BasicAPIExamples.EditorsOnBasicAndPredefinedTypes.HelloWorld_lwf
.d 1 0 
	pop_a_jsr 1 ea1
.o 6 0 
.impmod iTasks.Extensions.Admin.WorkflowAdmin
.impdesc e_iTasks.Extensions.Admin.WorkflowAdmin_rWorkflow
	buildhr e_iTasks.Extensions.Admin.WorkflowAdmin_rWorkflow 6 0
.d 1 0 
	rtn 
.n 1 e_BasicAPIExamples.EditorsOnBasicAndPredefinedTypes.HelloWorld_dwf
.o 1 0 
e_BasicAPIExamples.EditorsOnBasicAndPredefinedTypes.HelloWorld_nwf
	push_node _cycle_in_spine 1
.d 1 0 
	jsr ea1
.o 6 0 
	fill_r e_iTasks.Extensions.Admin.WorkflowAdmin_rWorkflow 6 0 6 0 0
.d 1 0 
	pop_a_rtn 6
.o 1 0 
ea1
.o 1 0 
e_BasicAPIExamples.EditorsOnBasicAndPredefinedTypes.HelloWorld_swf
.o 1 0 
s1
	build e_BasicAPIExamples.EditorsOnBasicAndPredefinedTypes.HelloWorld_dhelloWorld.3 0 e_BasicAPIExamples.EditorsOnBasicAndPredefinedTypes.HelloWorld_nhelloWorld.3
	buildh e__SystemDynamic_dTC_Char 0
	buildhr e__SystemDynamic_kTypeCons 1 0
	buildh e__SystemDynamic_dTC__UnboxedArray 0
	buildhr e__SystemDynamic_kTypeCons 1 0
	buildhr e__SystemDynamic_kTypeApp 2 0
	buildh e_Data.GenEq_dgEq__String;11 0
	buildh e_Text.GenJSON_dJSONDecode__String;46 0
	buildh e_Text.GenJSON_dJSONEncode__String;16 0
	buildh e_iTasks.Internal.Generic.Visualization_dgText__String;16 0
	buildh e_iTasks.UI.Editor.Generic_dgEditor__String;11 0
	buildhr e_iTasks.WF.Definition_riTask; 6 0
	buildh e_iTasks.Extensions.Admin.WorkflowAdmin_dtoWorkflow;13 1
	buildAC "Hello, World!"
	buildh ARRAY 1
	push_update_a 1 3
	updates3pop_a 0 1 3 4
.d 4 0 
	jmp e_iTasks.Extensions.Admin.WorkflowAdmin_sworkflow
.export e_BasicAPIExamples.EditorsOnBasicAndPredefinedTypes.HelloWorld_dhelloWorld.3
.export e_BasicAPIExamples.EditorsOnBasicAndPredefinedTypes.HelloWorld_nhelloWorld.3
.descn e_BasicAPIExamples.EditorsOnBasicAndPredefinedTypes.HelloWorld_dhelloWorld.3 e_BasicAPIExamples.EditorsOnBasicAndPredefinedTypes.HelloWorld_nhelloWorld.3 0 0 "helloWorld.3"
.n 0 e_BasicAPIExamples.EditorsOnBasicAndPredefinedTypes.HelloWorld_dhelloWorld.3 ea3
.o 1 0 
e_BasicAPIExamples.EditorsOnBasicAndPredefinedTypes.HelloWorld_nhelloWorld.3
	push_node _cycle_in_spine 0
.o 1 0 
ea3
.o 1 0 
s3
	buildh _Nil 0
	buildh e__SystemDynamic_dTC_Char 0
	buildhr e__SystemDynamic_kTypeCons 1 0
	buildh e__SystemDynamic_dTC__UnboxedArray 0
	buildhr e__SystemDynamic_kTypeCons 1 0
	buildhr e__SystemDynamic_kTypeApp 2 0
	buildh e_Data.GenEq_dgEq__String;11 0
	buildh e_Text.GenJSON_dJSONDecode__String;46 0
	buildh e_Text.GenJSON_dJSONEncode__String;16 0
	buildh e_iTasks.Internal.Generic.Visualization_dgText__String;16 0
	buildh e_iTasks.UI.Editor.Generic_dgEditor__String;11 0
	create 
	buildAC "Hello, world!"
	buildh ARRAY 1
	push_update_a 2 4
	updates4_a 4 2 9 7 5
	update_a 6 4
	updates3pop_a 0 1 8 6
.d 9 0 
	jsr e_iTasks.WF.Tasks.Interaction_sviewInformation
.o 1 0 
	buildAC "You have a message from iTasks:"
	buildhr e_iTasks.UI.Definition_kHint 1 0
	buildh e_iTasks.UI.Tune_dtune;7 0
.d 3 0 
	jsr e_iTasks.UI.Tune_s@>>
.o 1 0 
.d 1 0 
	fill_a01_pop_rtn 
