.comp 920 000011110011000
.start _nostart_
.depend "StdCharList" "20210613144732"
.depend "_SystemArray" "20210613144732"
.depend "StdArray" "20210613144732"
.depend "StdEnv" "20210613144732"
.depend "_SystemEnum" "20210613144732"
.depend "StdEnum" "20210613144732"
.depend "StdTuple" "20210613144732"
.depend "StdOrdList" "20210613144732"
.depend "StdFile" "20210613144732"
.depend "System.OSError" "20210613144732"
.depend "StdString" "20210613144732"
.depend "StdMisc" "20210613144732"
.depend "StdFunctions" "20210613144732"
.depend "_SystemEnumStrict" "20210613144732"
.depend "_SystemStrictLists" "20210613144732"
.depend "StdStrictLists" "20210613144732"
.depend "StdGeneric" "20210613144732"
.depend "Data.GenEq" "20210613144732"
.depend "StdReal" "20210613144732"
.depend "StdChar" "20210613144732"
.depend "StdInt" "20210613144732"
.depend "StdBool" "20210613144732"
.depend "StdClass" "20210613144732"
.depend "StdList" "20210613144732"
.depend "Data.Monoid" "20210613144732"
.depend "Control.Applicative" "20210613144732"
.depend "Control.Monad" "20210613144732"
.depend "Data.Functor" "20210613144732"
.depend "Data.Error" "20210613144732"
.depend "StdOverloaded" "20210613144732"
.depend "_SystemDynamic" "20210613144732"
.depend "System._CopyFile" "20210613144732"
.module m_System._CopyFile "System._CopyFile" "20210613144732"
.endinfo
.impmod _system
.implab _cycle_in_spine
.implab _type_error
.implab _hnf
.impdesc e_system_dind
.implab e_system_nind e_system_eaind
.impdesc e_system_dif
.implab e_system_nif e_system_eaif
.implab e_system_sif
.impdesc e_system_dAP
.implab e_system_nAP e_system_eaAP
.implab e_system_sAP
.impdesc ARRAY
.impdesc _Nil
.impdesc _Cons
.impdesc _Conss
.implab n_Conss ea_Conss
.impdesc _Consts
.implab n_Consts ea_Consts
.impdesc _Conssts
.implab n_Conssts ea_Conssts
.impdesc _Tuple
.impdesc d_S.1
.implab n_S.1 ea_S.1
.impdesc d_S.2
.implab n_S.2 ea_S.2
.impdesc d_S.3
.implab n_S.3 ea_S.3
.impdesc d_S.4
.implab n_S.4 ea_S.4
.impdesc d_S.5
.implab n_S.5 ea_S.5
.impdesc d_S.6
.implab n_S.6 ea_S.6
.implab _driver
.impmod StdFile
.implab e_StdFile_sfreads
.implab e_StdFile_sfend
.implab e_StdFile_sfclose;31
.implab e_StdFile_sfopen;32
.implab e_StdFile_s<<<;39
.impmod System.OSError
.implab e_System.OSError_sgetLastOSError
.impmod StdMisc
.implab e_StdMisc_sabort
.impmod StdBool
.implab e_StdBool_snot
.impmod Data.Error
.impdesc e_Data.Error_dError
.impdesc e_Data.Error_dOk
.impmod _predef
.impdesc e__predef_d_Unit
.export e_System._CopyFile_s_copyFile
.descexp e_System._CopyFile_d_copyFile e_System._CopyFile_n_copyFile e_System._CopyFile_l_copyFile 3 0 "_copyFile"
.a 0 a1
.o 2 0
e_System._CopyFile_l_copyFile
	repl_args 2 2
.o 3 0
a1
.d 3 0
	jsr ea1
.o 2 0
	push_a 1
	push_a 1
	buildh _Tuple 2
	updatepop_a 0 2
.d 1 0
	rtn
.n 3 e_System._CopyFile_d_copyFile
.o 1 0
e_System._CopyFile_n_copyFile
	push_node _cycle_in_spine 3
.d 3 0
	jsr ea1
.o 2 0
	push_a 1
	push_a 1
	fillh _Tuple 2 4
	pop_a 2
.d 1 0
	rtn
.o 3 0
ea1
	jsr_eval 2
	jsr_eval 1
	jsr_eval 0
	push_array 1
	push_array 1
	update_a 1 3
	update_a 0 2
	pop_a 2
.o 3 0
e_System._CopyFile_s_copyFile
.o 3 0
s1
	push_a 2
	pushI 3
	push_a 1
	update_a 3 4
	update_a 1 3
	updatepop_a 0 2
.d 2 1 i
	jsr e_StdFile_sfopen;32
.o 1 3 bf
	push_b 0
	notB
	jmp_false else.1
	push_a 0
	updatepop_a 0 2
	pop_b 3
.d 1 0
	jmp e_System.OSError_sgetLastOSError
else.1
	push_a 0
	pushI 4
	push_a 2
	updatepop_b 0 1
	update_a 1 3
	updatepop_a 0 2
.d 2 1 i
	jsr e_StdFile_sfopen;32
.o 1 3 bf
	push_b 0
	notB
	jmp_false else.2
	buildF_b 3
	buildh e_System._CopyFile_d\;15;13;58.6 1
	push_a 1
	push_a 1
	update_a 1 2
	update_a 0 1
	pop_a 1
	update_a 1 2
	updatepop_a 0 1
	pop_b 5
.d 2 0
	jmp s2
else.2
	push_b 2
	push_b 2
	push_b 6
	push_b 6
	update_b 3 8
	update_b 2 7
	update_b 1 6
	updatepop_b 0 5
.d 0 4 ff
	jsr s3
.o 0 4 ff
	push_a 0
	push_b 1
	push_b 1
	update_b 1 3
	updatepop_b 0 2
	updatepop_a 0 1
.d 1 2 f
	jsr e_StdFile_sfclose;31
.o 1 1 b
	push_b 0
	notB
	jmp_false else.3
	buildF_b 1
	buildh e_System._CopyFile_d\;15;13;59.7 1
	push_a 1
	push_a 1
	update_a 1 2
	update_a 0 1
	pop_a 1
	update_a 1 2
	updatepop_a 0 1
	pop_b 3
.d 2 0
	jmp s2
else.3
	push_a 0
	push_b 2
	push_b 2
	update_b 1 4
	updatepop_b 0 3
	updatepop_a 0 1
.d 1 2 f
	jsr e_StdFile_sfclose;31
.o 1 1 b
	push_b 0
	notB
	jmp_false else.4
	push_a 0
	updatepop_a 0 1
	pop_b 1
.d 1 0
	jmp e_System.OSError_sgetLastOSError
else.4
	buildh e__predef_d_Unit 0
	buildh e_Data.Error_dOk 1
	push_a 1
	push_a 1
	update_a 1 2
	update_a 0 1
	pop_a 1
	update_a 1 2
	updatepop_a 0 1
	pop_b 1
.d 2 0
	rtn
.export e_System._CopyFile_d\;15;13;58.6
.desc e_System._CopyFile_d\;15;13;58.6 _hnf l6 2 0 "\;15;13;58.6"
.a 2 ea6
.o 2 0
l6
	push_args 0 1 1
	update_a 2 1
	create
	update_a 0 3
	pop_a 1
.o 3 0
ea6
	jsr_eval 1
	pushF_a 0
	pop_a 1
.o 2 2 f
s6
	push_a 0
	push_b 1
	push_b 1
	update_b 1 3
	updatepop_b 0 2
	updatepop_a 0 1
.d 1 2 f
	jsr e_StdFile_sfclose;31
.o 1 1 b
	buildB_b 0
	pop_b 1
.d 2 0
	jsr s4
.o 1 0
	fill_a 0 1
	pop_a 1
.d 1 0
	rtn
.o 2 0
s4
	pop_a 1
.d 1 0
	rtn
.export e_System._CopyFile_d\;15;13;59.7
.desc e_System._CopyFile_d\;15;13;59.7 _hnf l7 2 0 "\;15;13;59.7"
.a 2 ea7
.o 2 0
l7
	push_args 0 1 1
	update_a 2 1
	create
	update_a 0 3
	pop_a 1
.o 3 0
ea7
	jsr_eval 1
	pushF_a 0
	pop_a 1
.o 2 2 f
s7
	push_a 0
	push_b 1
	push_b 1
	update_b 1 3
	updatepop_b 0 2
	updatepop_a 0 1
.d 1 2 f
	jsr e_StdFile_sfclose;31
.o 1 1 b
	buildB_b 0
	pop_b 1
.d 2 0
	jsr s5
.o 1 0
	fill_a 0 1
	pop_a 1
.d 1 0
	rtn
.o 2 0
s5
	pop_a 1
.d 1 0
	rtn
.o 2 0
s2
	push_a 1
	update_a 1 2
	updatepop_a 0 1
.d 1 0
	jsr e_System.OSError_sgetLastOSError
.o 2 0
	push_a 2
	push_a 2
	update_a 1 3
	update_a 2 1
	update_a 0 2
	pop_a 1
	update_a 2 3
	update_a 1 2
	updatepop_a 0 1
.d 3 0
	jmp s41
.o 0 4 ff
s3
	push_b 1
	push_b 1
	update_b 1 3
	updatepop_b 0 2
.d 0 2 f
	jsr endF
.o 0 3 b f
	push_b 0
	jmp_false else.5
	push_b 4
	push_b 4
	push_b 4
	push_b 4
	update_b 3 8
	update_b 2 7
	update_b 1 6
	updatepop_b 0 5
.d 0 4 ff
	rtn
else.5
	pushI 65536
	push_b 3
	push_b 3
	update_b 2 5
	update_b 1 4
	updatepop_b 0 3
.d 0 3 f i
	jsr readFS
.o 1 2 f
	push_a 0
	push_b 3
	push_b 3
	updatepop_a 0 1
.d 1 2 f
	jsr writeFS
.o 0 2 f
	push_b 3
	push_b 3
	update_b 3 7
	update_b 2 6
	update_b 1 5
	updatepop_b 0 4
.d 0 4 ff
	jmp s3
.o 3 0
s41
	eq_desc e_Data.Error_dError 1 0
	jmp_true case.6
	jmp case.7
case.6
	repl_args 1 1
	push_a 1
	push_a 3
	update_a 2 4
	update_a 1 3
	updatepop_a 0 2
	jsr_ap 1
	push_a 1
	buildh e_Data.Error_dError 1
	update_a 1 2
	updatepop_a 0 1
.d 2 0
	rtn
case.7
	repl_args 1 1
	jsr_eval 0
	buildAC "Shouldn't occur"
	updatepop_a 0 3
.d 1 0
	jsr print_string_
.o 0 0
	halt
	repl_args 2 2
	jsr_eval 1
	jsr_eval 0
.d 2 0
	rtn
