.comp 920 000011110011000
.start _nostart_
.depend "_SystemArray" "20210613144732"
.depend "StdArray" "20210613144732"
.depend "StdString" "20210613144732"
.depend "StdChar" "20210613144732"
.depend "StdInt" "20210613144732"
.depend "StdBool" "20210613144732"
.depend "StdClass" "20210613144732"
.depend "StdOverloaded" "20210613144732"
.depend "_SystemDynamic" "20210613144732"
.depend "System._Pointer" "20210613144732"
.module m_System._Pointer "System._Pointer" "20210613144732"
.endinfo
.impmod _system
.implab _cycle_in_spine
.implab _type_error
.implab _hnf
.impdesc e_system_dind
.implab e_system_nind e_system_eaind
.impdesc e_system_dif
.implab e_system_nif e_system_eaif
.implab e_system_sif
.impdesc e_system_dAP
.implab e_system_nAP e_system_eaAP
.implab e_system_sAP
.impdesc ARRAY
.impdesc _Nil
.impdesc _Cons
.impdesc _Conss
.implab n_Conss ea_Conss
.impdesc _Consts
.implab n_Consts ea_Consts
.impdesc _Conssts
.implab n_Conssts ea_Conssts
.impdesc _Tuple
.impdesc d_S.1
.implab n_S.1 ea_S.1
.impdesc d_S.2
.implab n_S.2 ea_S.2
.impdesc d_S.3
.implab n_S.3 ea_S.3
.impdesc d_S.4
.implab n_S.4 ea_S.4
.impdesc d_S.5
.implab n_S.5 ea_S.5
.impdesc d_S.6
.implab n_S.6 ea_S.6
.implab _driver
.impmod _SystemArray
.impmod StdString
.implab e_StdString_s%;10
.implab e_StdString_s+++;11
.impmod StdChar
.implab e_StdChar_s==;18
.impmod StdInt
.implab e_StdInt_sbitor
.implab e_StdInt_s<<
.implab e_StdInt_s>>
.implab e_StdInt_s+;6
.implab e_StdInt_s-;7
.implab e_StdInt_sone;11
.implab e_StdInt_s==;16
.implab e_StdInt_s<;17
.implab e_StdInt_stoInt;20
.impmod StdBool
.implab e_StdBool_snot
.export e_System._Pointer_sTD;Offset
.export e_System._Pointer_eaTD;Offset
.descexp e_System._Pointer_dTD;Offset e_System._Pointer_nTD;Offset e_System._Pointer_lTD;Offset 1 0 "TD;Offset"
.o 2 0
e_System._Pointer_lTD;Offset
	update_a 1 0
	create
	update_a 0 2
	pop_a 1
.d 2 0
	jmp e_System._Pointer_eaTD;Offset
.n 1 e_System._Pointer_dTD;Offset e_System._Pointer_eaTD;Offset
.o 1 0
e_System._Pointer_nTD;Offset
	push_node _cycle_in_spine 1
.o 2 0
e_System._Pointer_eaTD;Offset
.o 2 0
e_System._Pointer_sTD;Offset
.o 2 0
s39
	fillh _Nil 0 1
	pop_a 1
.d 1 0
	rtn
.export e_System._Pointer_sTD;Pointer
.export e_System._Pointer_eaTD;Pointer
.descexp e_System._Pointer_dTD;Pointer e_System._Pointer_nTD;Pointer e_System._Pointer_lTD;Pointer 1 0 "TD;Pointer"
.o 2 0
e_System._Pointer_lTD;Pointer
	update_a 1 0
	create
	update_a 0 2
	pop_a 1
.d 2 0
	jmp e_System._Pointer_eaTD;Pointer
.n 1 e_System._Pointer_dTD;Pointer e_System._Pointer_eaTD;Pointer
.o 1 0
e_System._Pointer_nTD;Pointer
	push_node _cycle_in_spine 1
.o 2 0
e_System._Pointer_eaTD;Pointer
.o 2 0
e_System._Pointer_sTD;Pointer
.o 2 0
s38
	fillh _Nil 0 1
	pop_a 1
.d 1 0
	rtn
.export e_System._Pointer_sreadP
.descexp e_System._Pointer_dreadP e_System._Pointer_nreadP e_System._Pointer_lreadP 2 0 "readP"
.a 0 a37
.o 2 0
e_System._Pointer_lreadP
	repl_args 1 1
.o 2 0
a37
.d 2 0
	jsr ea37
.o 1 1 i
	buildI_b 0
	push_a 1
	buildh _Tuple 2
	updatepop_a 0 1
	pop_b 1
.d 1 0
	rtn
.n 2 e_System._Pointer_dreadP
.o 1 0
e_System._Pointer_nreadP
	push_node _cycle_in_spine 2
.d 2 0
	jsr ea37
.o 1 1 i
	buildI_b 0
	push_a 1
	fillh _Tuple 2 3
	pop_a 1
	pop_b 1
.d 1 0
	rtn
.o 2 0
ea37
	jsr_eval 1
	jsr_eval 0
	pushI_a 1
	update_a 0 1
	pop_a 1
.o 1 1 i
e_System._Pointer_sreadP
.o 1 1 i
s37
	buildI_b 0
	push_a 1
	update_a 1 2
	updatepop_a 0 1
	jsr_ap 1
	push_b 0
	updatepop_b 0 1
.d 1 1 i
	rtn
.export e_System._Pointer_sforceEvalPointer
.descexp e_System._Pointer_dforceEvalPointer e_System._Pointer_nforceEvalPointer e_System._Pointer_lforceEvalPointer 2 0 "forceEvalPointer"
.a 0 ea36
.o 2 0
e_System._Pointer_lforceEvalPointer
	repl_args 1 1
.d 2 0
	jmp ea36
.n 2 e_System._Pointer_dforceEvalPointer _
.o 1 0
e_System._Pointer_nforceEvalPointer
	push_node _cycle_in_spine 2
.d 2 0
	jsr ea36
.o 1 0
	fill_a 0 1
	pop_a 1
.d 1 0
	rtn
.o 2 0
ea36
	jsr_eval 1
	jsr_eval 0
	pushI_a 0
	pop_a 1
.o 1 1 i
e_System._Pointer_sforceEvalPointer
.o 1 1 i
s36
	pop_b 1
.d 1 0
	rtn
.export e_System._Pointer_sforceEval
.descexp e_System._Pointer_dforceEval e_System._Pointer_nforceEval e_System._Pointer_lforceEval 2 0 "forceEval"
.a 0 ea35
.o 2 0
e_System._Pointer_lforceEval
	repl_args 1 1
.d 2 0
	jmp ea35
.n 2 e_System._Pointer_dforceEval _
.o 1 0
e_System._Pointer_nforceEval
	push_node _cycle_in_spine 2
.d 2 0
	jsr ea35
.o 1 0
	fill_a 0 1
	pop_a 1
.d 1 0
	rtn
.o 2 0
ea35
	jsr_eval 1
	jsr_eval 0
.o 2 0
e_System._Pointer_sforceEval
.o 2 0
s35
	pop_a 1
.d 1 0
	rtn
.export e_System._Pointer_sunpackBool
.descexp e_System._Pointer_dunpackBool e_System._Pointer_nunpackBool e_System._Pointer_lunpackBool 2 0 "unpackBool"
.a 0 a34
.o 2 0
e_System._Pointer_lunpackBool
	repl_args 1 1
.o 2 0
a34
.d 2 0
	jsr ea34
.o 0 1 b
	buildB_b 0
	pop_b 1
.d 1 0
	rtn
.n 2 e_System._Pointer_dunpackBool
.o 1 0
e_System._Pointer_nunpackBool
	push_node _cycle_in_spine 2
.d 2 0
	jsr ea34
.o 0 1 b
	fillB_b 0 0
	pop_b 1
.d 1 0
	rtn
.o 2 0
ea34
	jsr_eval 1
	jsr_eval 0
	pushI_a 1
	push_array 0
	update_a 0 2
	pop_a 2
.o 1 1 i
e_System._Pointer_sunpackBool
.o 1 1 i
s34
	push_b 0
	push_a 0
	updatepop_b 0 1
	updatepop_a 0 1
.d 1 1 i
	jsr s31
.o 0 1 i
	pushI 0
	push_b 1
	update_b 1 2
	update_b 0 1
	pop_b 1
	eqI
	notB
.d 0 1 b
	rtn
.export e_System._Pointer_sunpackInt8
.descexp e_System._Pointer_dunpackInt8 e_System._Pointer_nunpackInt8 e_System._Pointer_lunpackInt8 2 0 "unpackInt8"
.a 0 a33
.o 2 0
e_System._Pointer_lunpackInt8
	repl_args 1 1
.o 2 0
a33
.d 2 0
	jsr ea33
.o 0 1 i
	buildI_b 0
	pop_b 1
.d 1 0
	rtn
.n 2 e_System._Pointer_dunpackInt8
.o 1 0
e_System._Pointer_nunpackInt8
	push_node _cycle_in_spine 2
.d 2 0
	jsr ea33
.o 0 1 i
	fillI_b 0 0
	pop_b 1
.d 1 0
	rtn
.o 2 0
ea33
	jsr_eval 1
	jsr_eval 0
	pushI_a 1
	push_array 0
	update_a 0 2
	pop_a 2
.o 1 1 i
e_System._Pointer_sunpackInt8
.o 1 1 i
s33
	pushI 7
	push_b 1
	addI
	push_a 0
	select CHAR 0 1
	CtoI
	pushI 56
	push_b 1
	update_b 1 2
	update_b 0 1
	pop_b 1
	shiftl%
	pushI 6
	push_b 2
	addI
	push_a 0
	select CHAR 0 1
	CtoI
	pushI 48
	push_b 1
	update_b 1 2
	update_b 0 1
	pop_b 1
	shiftl%
	pushI 5
	push_b 3
	addI
	push_a 0
	select CHAR 0 1
	CtoI
	pushI 40
	push_b 1
	update_b 1 2
	update_b 0 1
	pop_b 1
	shiftl%
	pushI 4
	push_b 4
	addI
	push_a 0
	select CHAR 0 1
	CtoI
	pushI 32
	push_b 1
	update_b 1 2
	update_b 0 1
	pop_b 1
	shiftl%
	pushI 3
	push_b 5
	addI
	push_a 0
	select CHAR 0 1
	CtoI
	pushI 24
	push_b 1
	update_b 1 2
	update_b 0 1
	pop_b 1
	shiftl%
	pushI 2
	push_b 6
	addI
	push_a 0
	select CHAR 0 1
	CtoI
	pushI 16
	push_b 1
	update_b 1 2
	update_b 0 1
	pop_b 1
	shiftl%
	pushI 1
	push_b 7
	addI
	push_a 0
	select CHAR 0 1
	CtoI
	pushI 8
	push_b 1
	update_b 1 2
	update_b 0 1
	pop_b 1
	shiftl%
	push_b 7
	push_a 0
	updatepop_a 0 1
	select CHAR 0 1
	CtoI
	or%
	or%
	or%
	or%
	or%
	or%
	update_b 1 2
	updatepop_b 0 1
	or%
.d 0 1 i
	rtn
.export e_System._Pointer_sunpackInt4S
.descexp e_System._Pointer_dunpackInt4S e_System._Pointer_nunpackInt4S e_System._Pointer_lunpackInt4S 2 0 "unpackInt4S"
.a 0 a32
.o 2 0
e_System._Pointer_lunpackInt4S
	repl_args 1 1
.o 2 0
a32
.d 2 0
	jsr ea32
.o 0 1 i
	buildI_b 0
	pop_b 1
.d 1 0
	rtn
.n 2 e_System._Pointer_dunpackInt4S
.o 1 0
e_System._Pointer_nunpackInt4S
	push_node _cycle_in_spine 2
.d 2 0
	jsr ea32
.o 0 1 i
	fillI_b 0 0
	pop_b 1
.d 1 0
	rtn
.o 2 0
ea32
	jsr_eval 1
	jsr_eval 0
	pushI_a 1
	push_array 0
	update_a 0 2
	pop_a 2
.o 1 1 i
e_System._Pointer_sunpackInt4S
.o 1 1 i
s32
	push_b 0
	push_a 0
	updatepop_b 0 1
	updatepop_a 0 1
.d 1 1 i
	jsr s31
.o 0 1 i
	pushI 32
	push_b 1
	update_b 1 2
	update_b 0 1
	pop_b 1
	shiftl%
	pushI 32
	push_b 1
	update_b 1 2
	update_b 0 1
	pop_b 1
	shiftr%
.d 0 1 i
	rtn
.export e_System._Pointer_sunpackInt4Z
.descexp e_System._Pointer_dunpackInt4Z e_System._Pointer_nunpackInt4Z e_System._Pointer_lunpackInt4Z 2 0 "unpackInt4Z"
.a 0 a31
.o 2 0
e_System._Pointer_lunpackInt4Z
	repl_args 1 1
.o 2 0
a31
.d 2 0
	jsr ea31
.o 0 1 i
	buildI_b 0
	pop_b 1
.d 1 0
	rtn
.n 2 e_System._Pointer_dunpackInt4Z
.o 1 0
e_System._Pointer_nunpackInt4Z
	push_node _cycle_in_spine 2
.d 2 0
	jsr ea31
.o 0 1 i
	fillI_b 0 0
	pop_b 1
.d 1 0
	rtn
.o 2 0
ea31
	jsr_eval 1
	jsr_eval 0
	pushI_a 1
	push_array 0
	update_a 0 2
	pop_a 2
.o 1 1 i
e_System._Pointer_sunpackInt4Z
.o 1 1 i
s31
	pushI 3
	push_b 1
	addI
	push_a 0
	select CHAR 0 1
	CtoI
	pushI 24
	push_b 1
	update_b 1 2
	update_b 0 1
	pop_b 1
	shiftl%
	pushI 2
	push_b 2
	addI
	push_a 0
	select CHAR 0 1
	CtoI
	pushI 16
	push_b 1
	update_b 1 2
	update_b 0 1
	pop_b 1
	shiftl%
	pushI 1
	push_b 3
	addI
	push_a 0
	select CHAR 0 1
	CtoI
	pushI 8
	push_b 1
	update_b 1 2
	update_b 0 1
	pop_b 1
	shiftl%
	push_b 3
	push_a 0
	updatepop_a 0 1
	select CHAR 0 1
	CtoI
	or%
	or%
	update_b 1 2
	updatepop_b 0 1
	or%
.d 0 1 i
	rtn
.export e_System._Pointer_sunpackInt2S
.descexp e_System._Pointer_dunpackInt2S e_System._Pointer_nunpackInt2S e_System._Pointer_lunpackInt2S 2 0 "unpackInt2S"
.a 0 a30
.o 2 0
e_System._Pointer_lunpackInt2S
	repl_args 1 1
.o 2 0
a30
.d 2 0
	jsr ea30
.o 0 1 i
	buildI_b 0
	pop_b 1
.d 1 0
	rtn
.n 2 e_System._Pointer_dunpackInt2S
.o 1 0
e_System._Pointer_nunpackInt2S
	push_node _cycle_in_spine 2
.d 2 0
	jsr ea30
.o 0 1 i
	fillI_b 0 0
	pop_b 1
.d 1 0
	rtn
.o 2 0
ea30
	jsr_eval 1
	jsr_eval 0
	pushI_a 1
	push_array 0
	update_a 0 2
	pop_a 2
.o 1 1 i
e_System._Pointer_sunpackInt2S
.o 1 1 i
s30
	push_b 0
	push_a 0
	updatepop_b 0 1
	updatepop_a 0 1
.d 1 1 i
	jsr s29
.o 0 1 i
	pushI 48
	push_b 1
	update_b 1 2
	update_b 0 1
	pop_b 1
	shiftl%
	pushI 48
	push_b 1
	update_b 1 2
	update_b 0 1
	pop_b 1
	shiftr%
.d 0 1 i
	rtn
.export e_System._Pointer_sunpackInt2Z
.descexp e_System._Pointer_dunpackInt2Z e_System._Pointer_nunpackInt2Z e_System._Pointer_lunpackInt2Z 2 0 "unpackInt2Z"
.a 0 a29
.o 2 0
e_System._Pointer_lunpackInt2Z
	repl_args 1 1
.o 2 0
a29
.d 2 0
	jsr ea29
.o 0 1 i
	buildI_b 0
	pop_b 1
.d 1 0
	rtn
.n 2 e_System._Pointer_dunpackInt2Z
.o 1 0
e_System._Pointer_nunpackInt2Z
	push_node _cycle_in_spine 2
.d 2 0
	jsr ea29
.o 0 1 i
	fillI_b 0 0
	pop_b 1
.d 1 0
	rtn
.o 2 0
ea29
	jsr_eval 1
	jsr_eval 0
	pushI_a 1
	push_array 0
	update_a 0 2
	pop_a 2
.o 1 1 i
e_System._Pointer_sunpackInt2Z
.o 1 1 i
s29
	pushI 1
	push_b 1
	addI
	push_a 0
	select CHAR 0 1
	CtoI
	pushI 8
	push_b 1
	update_b 1 2
	update_b 0 1
	pop_b 1
	shiftl%
	push_b 1
	push_a 0
	updatepop_a 0 1
	select CHAR 0 1
	CtoI
	update_b 1 2
	updatepop_b 0 1
	or%
.d 0 1 i
	rtn
.export e_System._Pointer_sunpackString
.descexp e_System._Pointer_dunpackString e_System._Pointer_nunpackString e_System._Pointer_lunpackString 1 0 "unpackString"
.o 2 0
e_System._Pointer_lunpackString
	pop_a 1
.d 1 0
	jsr ea28
.o 1 0
	buildh ARRAY 1
.d 1 0
	rtn
.n 1 e_System._Pointer_dunpackString
.o 1 0
e_System._Pointer_nunpackString
	push_node _cycle_in_spine 1
.d 1 0
	jsr ea28
.o 1 0
	fillh ARRAY 1 1
.d 1 0
	rtn
.o 1 0
ea28
	jsr_eval 0
	push_array 0
	update_a 0 1
	pop_a 1
.o 1 0
e_System._Pointer_sunpackString
.o 1 0
s28
	pushI 0
	push_a 0
	updatepop_a 0 1
.d 1 1 i
	jmp s61
.o 1 1 i
s61
	push_b 0
	push_a 0
	select CHAR 0 1
	pushC '\000'
	push_b 1
	update_b 1 2
	update_b 0 1
	pop_b 1
	eqC
	jmp_false else.1
	pushI 1
	push_b 1
	subI
	pushI 0
	push_a 0
	updatepop_a 0 1
	update_b 1 2
	updatepop_b 0 1
.d 1 2 ii
	jsr sliceAC
.o 1 0
.d 1 0
	rtn
else.1
	pushI 1
	push_b 1
	addI
	push_a 0
	updatepop_a 0 1
	updatepop_b 0 1
.d 1 1 i
	jmp s61
.export e_System._Pointer_spackString
.descexp e_System._Pointer_dpackString e_System._Pointer_npackString e_System._Pointer_lpackString 1 0 "packString"
.o 2 0
e_System._Pointer_lpackString
	pop_a 1
.d 1 0
	jsr ea27
.o 1 0
	buildh ARRAY 1
.d 1 0
	rtn
.n 1 e_System._Pointer_dpackString
.o 1 0
e_System._Pointer_npackString
	push_node _cycle_in_spine 1
.d 1 0
	jsr ea27
.o 1 0
	fillh ARRAY 1 1
.d 1 0
	rtn
.o 1 0
ea27
	jsr_eval 0
	push_array 0
	update_a 0 1
	pop_a 1
.o 1 0
e_System._Pointer_spackString
.o 1 0
s27
	buildAC "\000"
	push_a 1
	update_a 1 2
	updatepop_a 0 1
.d 2 0
	jsr catAC
.o 1 0
.d 1 0
	rtn
.export e_System._Pointer_spackInt
.descexp e_System._Pointer_dpackInt e_System._Pointer_npackInt e_System._Pointer_lpackInt 1 0 "packInt"
.o 2 0
e_System._Pointer_lpackInt
	pop_a 1
.d 1 0
	jsr ea26
.o 1 0
	buildh ARRAY 1
.d 1 0
	rtn
.n 1 e_System._Pointer_dpackInt
.o 1 0
e_System._Pointer_npackInt
	push_node _cycle_in_spine 1
.d 1 0
	jsr ea26
.o 1 0
	fillh ARRAY 1 1
.d 1 0
	rtn
.o 1 0
ea26
	jsr_eval 0
	pushI_a 0
	pop_a 1
.o 0 1 i
e_System._Pointer_spackInt
.o 0 1 i
s26
	pushI 1
	create_array_ INT 0 1
	push_b 0
	pushI 0
	update_b 1 2
	updatepop_b 0 1
	update INT 0 1
.d 1 0
	rtn
.export e_System._Pointer_swriteCharArray
.descexp e_System._Pointer_dwriteCharArray e_System._Pointer_nwriteCharArray e_System._Pointer_lwriteCharArray 2 0 "writeCharArray"
.a 0 a25
.o 2 0
e_System._Pointer_lwriteCharArray
	repl_args 1 1
.o 2 0
a25
.d 2 0
	jsr ea25
.o 0 1 i
	buildI_b 0
	pop_b 1
.d 1 0
	rtn
.n 2 e_System._Pointer_dwriteCharArray
.o 1 0
e_System._Pointer_nwriteCharArray
	push_node _cycle_in_spine 2
.d 2 0
	jsr ea25
.o 0 1 i
	fillI_b 0 0
	pop_b 1
.d 1 0
	rtn
.o 2 0
ea25
	jsr_eval 1
	jsr_eval 0
	push_array 1
	pushI_a 1
	update_a 0 2
	pop_a 2
.o 1 1 i
e_System._Pointer_swriteCharArray
.o 1 1 i
s25
	push_a 0
	push_arraysize CHAR 0 1
	pushI 0
	push_b 2
	push_a 0
	push_b 2
	update_b 2 3
	update_b 1 2
	update_b 0 1
	pop_b 1
	updatepop_a 0 1
	update_b 2 3
	update_b 1 2
	updatepop_b 0 1
.d 1 3 iii
	jmp s62
.o 1 3 iii
s62
	push_b 0
	push_b 3
	ltI
	jmp_false else.2
	pushI 1
	push_b 3
	addI
	push_b 3
	push_a 0
	select CHAR 0 1
	push_b 4
	push_b 4
.d 0 3 iic
	jsr s19
.o 0 1 i
	push_b 2
	push_a 0
	updatepop_a 0 1
	update_b 2 5
	update_b 1 4
	updatepop_b 0 3
.d 1 3 iii
	jmp s62
else.2
	update_b 1 2
	pop_a 1
	pop_b 2
.d 0 1 i
	rtn
.export e_System._Pointer_sderefCharArray
.descexp e_System._Pointer_dderefCharArray e_System._Pointer_nderefCharArray e_System._Pointer_lderefCharArray 2 0 "derefCharArray"
.a 0 a24
.o 2 0
e_System._Pointer_lderefCharArray
	repl_args 1 1
.o 2 0
a24
.d 2 0
	jsr ea24
.o 1 0
	buildh ARRAY 1
.d 1 0
	rtn
.n 2 e_System._Pointer_dderefCharArray
.o 1 0
e_System._Pointer_nderefCharArray
	push_node _cycle_in_spine 2
.d 2 0
	jsr ea24
.o 1 0
	fillh ARRAY 1 1
.d 1 0
	rtn
.o 2 0
ea24
	jsr_eval 1
	jsr_eval 0
	pushI_a 1
	pushI_a 0
	pop_a 2
.o 0 2 ii
e_System._Pointer_sderefCharArray
.o 0 2 ii
s24
	pushC '\000'
	push_b 2
	create_array CHAR 0 1
	pushI 0
	push_b 1
	push_b 3
	update_b 2 4
	update_b 1 3
	updatepop_b 0 2
.d 1 3 iii
	jmp s60
.o 1 3 iii
s60
	push_b 0
	push_b 3
	ltI
	jmp_false else.3
	push_b 2
	push_b 2
	addI
	load_ui8 0
	push_b 3
	push_a 0
	updatepop_a 0 1
	update CHAR 0 1
	pushI 1
	push_b 3
	addI
	push_b 2
	push_b 2
	update_b 2 5
	update_b 1 4
	updatepop_b 0 3
.d 1 3 iii
	jmp s60
else.3
	pop_b 3
.d 1 0
	rtn
.export e_System._Pointer_sderefString
.descexp e_System._Pointer_dderefString e_System._Pointer_nderefString e_System._Pointer_lderefString 1 0 "derefString"
.o 2 0
e_System._Pointer_lderefString
	pop_a 1
.d 1 0
	jsr ea23
.o 1 0
	buildh ARRAY 1
.d 1 0
	rtn
.n 1 e_System._Pointer_dderefString
.o 1 0
e_System._Pointer_nderefString
	push_node _cycle_in_spine 1
.d 1 0
	jsr ea23
.o 1 0
	fillh ARRAY 1 1
.d 1 0
	rtn
.o 1 0
ea23
	jsr_eval 0
	pushI_a 0
	pop_a 1
.o 0 1 i
e_System._Pointer_sderefString
.o 0 1 i
s23
	push_b 0
.d 0 1 i
	jsr s58
.o 0 1 i
	push_b 1
	push_b 1
	update_b 1 2
	update_b 0 1
	pop_b 1
	subI
	pushC '\000'
	push_b 1
	update_b 1 2
	update_b 0 1
	pop_b 1
	create_array CHAR 0 1
	pushI 0
	push_b 1
	update_b 1 2
	updatepop_b 0 1
.d 1 2 ii
	jmp s59
.o 1 2 ii
s59
	push_b 1
	push_b 1
	addI
	load_ui8 0
	pushC '\000'
	push_b 1
	eqC
	notB
	jmp_false else.4
	push_b 0
	push_b 3
	push_a 0
	update_b 1 2
	updatepop_b 0 1
	updatepop_a 0 1
	update CHAR 0 1
	pushI 1
	push_b 2
	addI
	push_b 1
	update_b 1 3
	updatepop_b 0 2
.d 1 2 ii
	jmp s59
else.4
	pop_b 3
.d 1 0
	rtn
.o 0 1 i
s58
	push_b 0
	load_ui8 0
	pushC '\000'
	push_b 1
	update_b 1 2
	update_b 0 1
	pop_b 1
	eqC
	notB
	jmp_false else.5
	pushI 1
	push_b 1
	addI
	updatepop_b 0 1
.d 0 1 i
	jmp s58
else.5
.d 0 1 i
	rtn
.o 0 1 i
s57
.inline load_char
	load_ui8 0
.end
.d 0 1 c
	rtn
.export e_System._Pointer_sderefInt
.descexp e_System._Pointer_dderefInt e_System._Pointer_nderefInt e_System._Pointer_lderefInt 1 0 "derefInt"
.o 2 0
e_System._Pointer_lderefInt
	pop_a 1
.d 1 0
	jsr ea22
.o 0 1 i
	buildI_b 0
	pop_b 1
.d 1 0
	rtn
.n 1 e_System._Pointer_dderefInt
.o 1 0
e_System._Pointer_nderefInt
	push_node _cycle_in_spine 1
.d 1 0
	jsr ea22
.o 0 1 i
	fillI_b 0 0
	pop_b 1
.d 1 0
	rtn
.o 1 0
ea22
	jsr_eval 0
	pushI_a 0
	pop_a 1
.o 0 1 i
e_System._Pointer_sderefInt
.o 0 1 i
s22
	load_i 0
.d 0 1 i
	rtn
.export e_System._Pointer_swriteReal4
.descexp e_System._Pointer_dwriteReal4 e_System._Pointer_nwriteReal4 e_System._Pointer_lwriteReal4 3 0 "writeReal4"
.a 0 a21
.o 2 0
e_System._Pointer_lwriteReal4
	repl_args 2 2
.o 3 0
a21
.d 3 0
	jsr ea21
.o 0 1 i
	buildI_b 0
	pop_b 1
.d 1 0
	rtn
.n 3 e_System._Pointer_dwriteReal4
.o 1 0
e_System._Pointer_nwriteReal4
	push_node _cycle_in_spine 3
.d 3 0
	jsr ea21
.o 0 1 i
	fillI_b 0 0
	pop_b 1
.d 1 0
	rtn
.o 3 0
ea21
	jsr_eval 2
	jsr_eval 1
	jsr_eval 0
	pushR_a 2
	pushI_a 1
	pushI_a 0
	pop_a 3
.o 0 3 iir
e_System._Pointer_swriteReal4
.o 0 3 iir
s21
	push_b 2
	push_b 2
	push_b 2
	update_b 2 5
	update_b 1 4
	updatepop_b 0 3
.d 0 3 iir
	jmp s56
.o 0 3 iir
s56
	updatepop_b 0 2
	|		cvtsd2ss xmm0,xmm0
	instruction 242
	instruction 15
	instruction 90
	instruction 192
	|		movss dword ptr [rbx+rax],xmm0
	instruction 243
	instruction 15
	instruction 17
	instruction 4
	instruction 3
.d 0 1 i
	rtn
.export e_System._Pointer_swriteReal8
.descexp e_System._Pointer_dwriteReal8 e_System._Pointer_nwriteReal8 e_System._Pointer_lwriteReal8 3 0 "writeReal8"
.a 0 a20
.o 2 0
e_System._Pointer_lwriteReal8
	repl_args 2 2
.o 3 0
a20
.d 3 0
	jsr ea20
.o 0 1 i
	buildI_b 0
	pop_b 1
.d 1 0
	rtn
.n 3 e_System._Pointer_dwriteReal8
.o 1 0
e_System._Pointer_nwriteReal8
	push_node _cycle_in_spine 3
.d 3 0
	jsr ea20
.o 0 1 i
	fillI_b 0 0
	pop_b 1
.d 1 0
	rtn
.o 3 0
ea20
	jsr_eval 2
	jsr_eval 1
	jsr_eval 0
	pushR_a 2
	pushI_a 1
	pushI_a 0
	pop_a 3
.o 0 3 iir
e_System._Pointer_swriteReal8
.o 0 3 iir
s20
	push_b 2
	push_b 2
	push_b 2
	update_b 2 5
	update_b 1 4
	updatepop_b 0 3
.d 0 3 iir
	jmp s55
.o 0 3 iir
s55
	updatepop_b 0 2
	|		movsd mmword ptr [rbx+rax],xmm0
	instruction 242
	instruction 15
	instruction 17
	instruction 4
	instruction 3
.d 0 1 i
	rtn
.export e_System._Pointer_swriteChar
.descexp e_System._Pointer_dwriteChar e_System._Pointer_nwriteChar e_System._Pointer_lwriteChar 3 0 "writeChar"
.a 0 a19
.o 2 0
e_System._Pointer_lwriteChar
	repl_args 2 2
.o 3 0
a19
.d 3 0
	jsr ea19
.o 0 1 i
	buildI_b 0
	pop_b 1
.d 1 0
	rtn
.n 3 e_System._Pointer_dwriteChar
.o 1 0
e_System._Pointer_nwriteChar
	push_node _cycle_in_spine 3
.d 3 0
	jsr ea19
.o 0 1 i
	fillI_b 0 0
	pop_b 1
.d 1 0
	rtn
.o 3 0
ea19
	jsr_eval 2
	jsr_eval 1
	jsr_eval 0
	pushC_a 2
	pushI_a 1
	pushI_a 0
	pop_a 3
.o 0 3 iic
e_System._Pointer_swriteChar
.o 0 3 iic
s19
	push_b 2
	push_b 2
	push_b 2
	update_b 2 5
	update_b 1 4
	updatepop_b 0 3
.d 0 3 iic
	jmp s54
.o 0 3 iic
s54
	updatepop_b 0 2
	|		mov byte ptr [rbx+r10],al
	instruction 66
	instruction 136
	instruction 4
	instruction 19
.d 0 1 i
	rtn
.export e_System._Pointer_swriteInt1
.descexp e_System._Pointer_dwriteInt1 e_System._Pointer_nwriteInt1 e_System._Pointer_lwriteInt1 3 0 "writeInt1"
.a 0 a18
.o 2 0
e_System._Pointer_lwriteInt1
	repl_args 2 2
.o 3 0
a18
.d 3 0
	jsr ea18
.o 0 1 i
	buildI_b 0
	pop_b 1
.d 1 0
	rtn
.n 3 e_System._Pointer_dwriteInt1
.o 1 0
e_System._Pointer_nwriteInt1
	push_node _cycle_in_spine 3
.d 3 0
	jsr ea18
.o 0 1 i
	fillI_b 0 0
	pop_b 1
.d 1 0
	rtn
.o 3 0
ea18
	jsr_eval 2
	jsr_eval 1
	jsr_eval 0
	pushI_a 2
	pushI_a 1
	pushI_a 0
	pop_a 3
.o 0 3 iii
e_System._Pointer_swriteInt1
.o 0 3 iii
s18
	push_b 2
	push_b 2
	push_b 2
	update_b 2 5
	update_b 1 4
	updatepop_b 0 3
.d 0 3 iii
	jmp s53
.o 0 3 iii
s53
	updatepop_b 0 2
	|		mov byte ptr [rbx+r10],al
	instruction 66
	instruction 136
	instruction 4
	instruction 19
.d 0 1 i
	rtn
.export e_System._Pointer_swriteInt2
.descexp e_System._Pointer_dwriteInt2 e_System._Pointer_nwriteInt2 e_System._Pointer_lwriteInt2 3 0 "writeInt2"
.a 0 a17
.o 2 0
e_System._Pointer_lwriteInt2
	repl_args 2 2
.o 3 0
a17
.d 3 0
	jsr ea17
.o 0 1 i
	buildI_b 0
	pop_b 1
.d 1 0
	rtn
.n 3 e_System._Pointer_dwriteInt2
.o 1 0
e_System._Pointer_nwriteInt2
	push_node _cycle_in_spine 3
.d 3 0
	jsr ea17
.o 0 1 i
	fillI_b 0 0
	pop_b 1
.d 1 0
	rtn
.o 3 0
ea17
	jsr_eval 2
	jsr_eval 1
	jsr_eval 0
	pushI_a 2
	pushI_a 1
	pushI_a 0
	pop_a 3
.o 0 3 iii
e_System._Pointer_swriteInt2
.o 0 3 iii
s17
	push_b 2
	push_b 2
	push_b 2
	update_b 2 5
	update_b 1 4
	updatepop_b 0 3
.d 0 3 iii
	jmp s52
.o 0 3 iii
s52
	updatepop_b 0 2
	|		mov word ptr [rbx+r10],ax
	instruction 102
	instruction 66
	instruction 137
	instruction 4
	instruction 19
.d 0 1 i
	rtn
.export e_System._Pointer_swriteInt4
.descexp e_System._Pointer_dwriteInt4 e_System._Pointer_nwriteInt4 e_System._Pointer_lwriteInt4 3 0 "writeInt4"
.a 0 a16
.o 2 0
e_System._Pointer_lwriteInt4
	repl_args 2 2
.o 3 0
a16
.d 3 0
	jsr ea16
.o 0 1 i
	buildI_b 0
	pop_b 1
.d 1 0
	rtn
.n 3 e_System._Pointer_dwriteInt4
.o 1 0
e_System._Pointer_nwriteInt4
	push_node _cycle_in_spine 3
.d 3 0
	jsr ea16
.o 0 1 i
	fillI_b 0 0
	pop_b 1
.d 1 0
	rtn
.o 3 0
ea16
	jsr_eval 2
	jsr_eval 1
	jsr_eval 0
	pushI_a 2
	pushI_a 1
	pushI_a 0
	pop_a 3
.o 0 3 iii
e_System._Pointer_swriteInt4
.o 0 3 iii
s16
	push_b 2
	push_b 2
	push_b 2
	update_b 2 5
	update_b 1 4
	updatepop_b 0 3
.d 0 3 iii
	jmp s51
.o 0 3 iii
s51
	updatepop_b 0 2
	|		mov dword ptr [rbx+r10],eax
	instruction 66
	instruction 137
	instruction 4
	instruction 19
.d 0 1 i
	rtn
.export e_System._Pointer_swriteIntElemOffset
.descexp e_System._Pointer_dwriteIntElemOffset e_System._Pointer_nwriteIntElemOffset e_System._Pointer_lwriteIntElemOffset 3 0 "writeIntElemOffset"
.a 0 a15
.o 2 0
e_System._Pointer_lwriteIntElemOffset
	repl_args 2 2
.o 3 0
a15
.d 3 0
	jsr ea15
.o 0 1 i
	buildI_b 0
	pop_b 1
.d 1 0
	rtn
.n 3 e_System._Pointer_dwriteIntElemOffset
.o 1 0
e_System._Pointer_nwriteIntElemOffset
	push_node _cycle_in_spine 3
.d 3 0
	jsr ea15
.o 0 1 i
	fillI_b 0 0
	pop_b 1
.d 1 0
	rtn
.o 3 0
ea15
	jsr_eval 2
	jsr_eval 1
	jsr_eval 0
	pushI_a 2
	pushI_a 1
	pushI_a 0
	pop_a 3
.o 0 3 iii
e_System._Pointer_swriteIntElemOffset
.o 0 3 iii
s15
	push_b 2
	push_b 2
	push_b 2
	update_b 2 5
	update_b 1 4
	updatepop_b 0 3
.d 0 3 iii
	jmp s50
.o 0 3 iii
s50
	updatepop_b 0 2
	|		mov qword ptr [r10+rbx*8],rax
	instruction 73
	instruction 137
	instruction 4
	instruction 218
.d 0 1 i
	rtn
.export e_System._Pointer_swriteInt
.descexp e_System._Pointer_dwriteInt e_System._Pointer_nwriteInt e_System._Pointer_lwriteInt 3 0 "writeInt"
.a 0 a14
.o 2 0
e_System._Pointer_lwriteInt
	repl_args 2 2
.o 3 0
a14
.d 3 0
	jsr ea14
.o 0 1 i
	buildI_b 0
	pop_b 1
.d 1 0
	rtn
.n 3 e_System._Pointer_dwriteInt
.o 1 0
e_System._Pointer_nwriteInt
	push_node _cycle_in_spine 3
.d 3 0
	jsr ea14
.o 0 1 i
	fillI_b 0 0
	pop_b 1
.d 1 0
	rtn
.o 3 0
ea14
	jsr_eval 2
	jsr_eval 1
	jsr_eval 0
	pushI_a 2
	pushI_a 1
	pushI_a 0
	pop_a 3
.o 0 3 iii
e_System._Pointer_swriteInt
.o 0 3 iii
s14
	push_b 2
	push_b 2
	push_b 2
	update_b 2 5
	update_b 1 4
	updatepop_b 0 3
.d 0 3 iii
	jmp s49
.o 0 3 iii
s49
	updatepop_b 0 2
	|		mov qword ptr [rbx+r10],rax
	instruction 74
	instruction 137
	instruction 4
	instruction 19
.d 0 1 i
	rtn
.export e_System._Pointer_sreadReal4
.descexp e_System._Pointer_dreadReal4 e_System._Pointer_nreadReal4 e_System._Pointer_lreadReal4 2 0 "readReal4"
.a 0 a13
.o 2 0
e_System._Pointer_lreadReal4
	repl_args 1 1
.o 2 0
a13
.d 2 0
	jsr ea13
.o 0 1 r
	buildR_b 0
	pop_b 1
.d 1 0
	rtn
.n 2 e_System._Pointer_dreadReal4
.o 1 0
e_System._Pointer_nreadReal4
	push_node _cycle_in_spine 2
.d 2 0
	jsr ea13
.o 0 1 r
	fillR_b 0 0
	pop_b 1
.d 1 0
	rtn
.o 2 0
ea13
	jsr_eval 1
	jsr_eval 0
	pushI_a 1
	pushI_a 0
	pop_a 2
.o 0 2 ii
e_System._Pointer_sreadReal4
.o 0 2 ii
s13
	push_b 1
	push_b 1
	update_b 1 3
	updatepop_b 0 2
.d 0 2 ii
	jmp s48
.o 0 2 ii
s48
	pushR 0.0
	updatepop_b 0 2
	jmp read_f4_p_64
read_f4_p_64
	|		cvtss2sd    xmm0,dword ptr [rbx+rax]
	instruction 243
	instruction 15
	instruction 90
	instruction 4
	instruction 3
.d 0 1 r
	rtn
.export e_System._Pointer_sreadReal8
.descexp e_System._Pointer_dreadReal8 e_System._Pointer_nreadReal8 e_System._Pointer_lreadReal8 2 0 "readReal8"
.a 0 a12
.o 2 0
e_System._Pointer_lreadReal8
	repl_args 1 1
.o 2 0
a12
.d 2 0
	jsr ea12
.o 0 1 r
	buildR_b 0
	pop_b 1
.d 1 0
	rtn
.n 2 e_System._Pointer_dreadReal8
.o 1 0
e_System._Pointer_nreadReal8
	push_node _cycle_in_spine 2
.d 2 0
	jsr ea12
.o 0 1 r
	fillR_b 0 0
	pop_b 1
.d 1 0
	rtn
.o 2 0
ea12
	jsr_eval 1
	jsr_eval 0
	pushI_a 1
	pushI_a 0
	pop_a 2
.o 0 2 ii
e_System._Pointer_sreadReal8
.o 0 2 ii
s12
	push_b 1
	push_b 1
	update_b 1 3
	updatepop_b 0 2
.d 0 2 ii
	jmp s47
.o 0 2 ii
s47
	pushR 0.0
	updatepop_b 0 2
	jmp read_f8_p_64
read_f8_p_64
	|		movsd xmm0,mmword ptr [rbx+rax]
	instruction 242
	instruction 15
	instruction 16
	instruction 4
	instruction 3
.d 0 1 r
	rtn
.export e_System._Pointer_sreadChar
.descexp e_System._Pointer_dreadChar e_System._Pointer_nreadChar e_System._Pointer_lreadChar 2 0 "readChar"
.a 0 a11
.o 2 0
e_System._Pointer_lreadChar
	repl_args 1 1
.o 2 0
a11
.d 2 0
	jsr ea11
.o 0 1 c
	buildC_b 0
	pop_b 1
.d 1 0
	rtn
.n 2 e_System._Pointer_dreadChar
.o 1 0
e_System._Pointer_nreadChar
	push_node _cycle_in_spine 2
.d 2 0
	jsr ea11
.o 0 1 c
	fillC_b 0 0
	pop_b 1
.d 1 0
	rtn
.o 2 0
ea11
	jsr_eval 1
	jsr_eval 0
	pushI_a 1
	pushI_a 0
	pop_a 2
.o 0 2 ii
e_System._Pointer_sreadChar
.o 0 2 ii
s11
	pop_b 1
	|		movzbl (%eax,%ebx,1),%eax
	instruction 15
	instruction 182
	instruction 4
	instruction 24
.d 0 1 c
	rtn
.export e_System._Pointer_sreadInt1S
.descexp e_System._Pointer_dreadInt1S e_System._Pointer_nreadInt1S e_System._Pointer_lreadInt1S 2 0 "readInt1S"
.a 0 a10
.o 2 0
e_System._Pointer_lreadInt1S
	repl_args 1 1
.o 2 0
a10
.d 2 0
	jsr ea10
.o 0 1 i
	buildI_b 0
	pop_b 1
.d 1 0
	rtn
.n 2 e_System._Pointer_dreadInt1S
.o 1 0
e_System._Pointer_nreadInt1S
	push_node _cycle_in_spine 2
.d 2 0
	jsr ea10
.o 0 1 i
	fillI_b 0 0
	pop_b 1
.d 1 0
	rtn
.o 2 0
ea10
	jsr_eval 1
	jsr_eval 0
	pushI_a 1
	pushI_a 0
	pop_a 2
.o 0 2 ii
e_System._Pointer_sreadInt1S
.o 0 2 ii
s10
	push_b 1
	push_b 1
	update_b 1 3
	updatepop_b 0 2
.d 0 2 ii
	jmp s46
.o 0 2 ii
s46
	pop_b 1
	|		movsbl (%rax,%rbx,1),%rax
	instruction 72
	instruction 15
	instruction 190
	instruction 4
	instruction 24
.d 0 1 i
	rtn
.export e_System._Pointer_sreadInt1Z
.descexp e_System._Pointer_dreadInt1Z e_System._Pointer_nreadInt1Z e_System._Pointer_lreadInt1Z 2 0 "readInt1Z"
.a 0 a9
.o 2 0
e_System._Pointer_lreadInt1Z
	repl_args 1 1
.o 2 0
a9
.d 2 0
	jsr ea9
.o 0 1 i
	buildI_b 0
	pop_b 1
.d 1 0
	rtn
.n 2 e_System._Pointer_dreadInt1Z
.o 1 0
e_System._Pointer_nreadInt1Z
	push_node _cycle_in_spine 2
.d 2 0
	jsr ea9
.o 0 1 i
	fillI_b 0 0
	pop_b 1
.d 1 0
	rtn
.o 2 0
ea9
	jsr_eval 1
	jsr_eval 0
	pushI_a 1
	pushI_a 0
	pop_a 2
.o 0 2 ii
e_System._Pointer_sreadInt1Z
.o 0 2 ii
s9
	pop_b 1
	|		movzbl (%eax,%ebx,1),%eax
	instruction 15
	instruction 182
	instruction 4
	instruction 24
.d 0 1 i
	rtn
.export e_System._Pointer_sreadInt2S
.descexp e_System._Pointer_dreadInt2S e_System._Pointer_nreadInt2S e_System._Pointer_lreadInt2S 2 0 "readInt2S"
.a 0 a8
.o 2 0
e_System._Pointer_lreadInt2S
	repl_args 1 1
.o 2 0
a8
.d 2 0
	jsr ea8
.o 0 1 i
	buildI_b 0
	pop_b 1
.d 1 0
	rtn
.n 2 e_System._Pointer_dreadInt2S
.o 1 0
e_System._Pointer_nreadInt2S
	push_node _cycle_in_spine 2
.d 2 0
	jsr ea8
.o 0 1 i
	fillI_b 0 0
	pop_b 1
.d 1 0
	rtn
.o 2 0
ea8
	jsr_eval 1
	jsr_eval 0
	pushI_a 1
	pushI_a 0
	pop_a 2
.o 0 2 ii
e_System._Pointer_sreadInt2S
.o 0 2 ii
s8
	push_b 1
	push_b 1
	update_b 1 3
	updatepop_b 0 2
.d 0 2 ii
	jmp s45
.o 0 2 ii
s45
	pop_b 1
	|		movswl (%rax,%rbx,1),%rax
	instruction 72
	instruction 15
	instruction 191
	instruction 4
	instruction 24
.d 0 1 i
	rtn
.export e_System._Pointer_sreadInt2Z
.descexp e_System._Pointer_dreadInt2Z e_System._Pointer_nreadInt2Z e_System._Pointer_lreadInt2Z 2 0 "readInt2Z"
.a 0 a7
.o 2 0
e_System._Pointer_lreadInt2Z
	repl_args 1 1
.o 2 0
a7
.d 2 0
	jsr ea7
.o 0 1 i
	buildI_b 0
	pop_b 1
.d 1 0
	rtn
.n 2 e_System._Pointer_dreadInt2Z
.o 1 0
e_System._Pointer_nreadInt2Z
	push_node _cycle_in_spine 2
.d 2 0
	jsr ea7
.o 0 1 i
	fillI_b 0 0
	pop_b 1
.d 1 0
	rtn
.o 2 0
ea7
	jsr_eval 1
	jsr_eval 0
	pushI_a 1
	pushI_a 0
	pop_a 2
.o 0 2 ii
e_System._Pointer_sreadInt2Z
.o 0 2 ii
s7
	pop_b 1
	|		movzwl (%eax,%ebx,1),%eax
	instruction 15
	instruction 183
	instruction 4
	instruction 24
.d 0 1 i
	rtn
.export e_System._Pointer_sreadInt4S
.descexp e_System._Pointer_dreadInt4S e_System._Pointer_nreadInt4S e_System._Pointer_lreadInt4S 2 0 "readInt4S"
.a 0 a6
.o 2 0
e_System._Pointer_lreadInt4S
	repl_args 1 1
.o 2 0
a6
.d 2 0
	jsr ea6
.o 0 1 i
	buildI_b 0
	pop_b 1
.d 1 0
	rtn
.n 2 e_System._Pointer_dreadInt4S
.o 1 0
e_System._Pointer_nreadInt4S
	push_node _cycle_in_spine 2
.d 2 0
	jsr ea6
.o 0 1 i
	fillI_b 0 0
	pop_b 1
.d 1 0
	rtn
.o 2 0
ea6
	jsr_eval 1
	jsr_eval 0
	pushI_a 1
	pushI_a 0
	pop_a 2
.o 0 2 ii
e_System._Pointer_sreadInt4S
.o 0 2 ii
s6
	push_b 1
	push_b 1
	update_b 1 3
	updatepop_b 0 2
.d 0 2 ii
	jmp s44
.o 0 2 ii
s44
	pop_b 1
	|		movsxd rax,dword ptr [rbx+rax]
	instruction 72
	instruction 99
	instruction 4
	instruction 3
.d 0 1 i
	rtn
.export e_System._Pointer_sreadInt4Z
.descexp e_System._Pointer_dreadInt4Z e_System._Pointer_nreadInt4Z e_System._Pointer_lreadInt4Z 2 0 "readInt4Z"
.a 0 a5
.o 2 0
e_System._Pointer_lreadInt4Z
	repl_args 1 1
.o 2 0
a5
.d 2 0
	jsr ea5
.o 0 1 i
	buildI_b 0
	pop_b 1
.d 1 0
	rtn
.n 2 e_System._Pointer_dreadInt4Z
.o 1 0
e_System._Pointer_nreadInt4Z
	push_node _cycle_in_spine 2
.d 2 0
	jsr ea5
.o 0 1 i
	fillI_b 0 0
	pop_b 1
.d 1 0
	rtn
.o 2 0
ea5
	jsr_eval 1
	jsr_eval 0
	pushI_a 1
	pushI_a 0
	pop_a 2
.o 0 2 ii
e_System._Pointer_sreadInt4Z
.o 0 2 ii
s5
	pop_b 1
	|		mov    (%eax,%ebx,1),%eax
	instruction 139
	instruction 4
	instruction 24
.d 0 1 i
	rtn
.export e_System._Pointer_sreadIntElemOffsetP
.descexp e_System._Pointer_dreadIntElemOffsetP e_System._Pointer_nreadIntElemOffsetP e_System._Pointer_lreadIntElemOffsetP 2 0 "readIntElemOffsetP"
.a 0 a4
.o 2 0
e_System._Pointer_lreadIntElemOffsetP
	repl_args 1 1
.o 2 0
a4
.d 2 0
	jsr ea4
.o 0 2 ii
	buildI_b 1
	buildI_b 0
	buildh _Tuple 2
	pop_b 2
.d 1 0
	rtn
.n 2 e_System._Pointer_dreadIntElemOffsetP
.o 1 0
e_System._Pointer_nreadIntElemOffsetP
	push_node _cycle_in_spine 2
.d 2 0
	jsr ea4
.o 0 2 ii
	buildI_b 1
	buildI_b 0
	fillh _Tuple 2 2
	pop_b 2
.d 1 0
	rtn
.o 2 0
ea4
	jsr_eval 1
	jsr_eval 0
	pushI_a 1
	pushI_a 0
	pop_a 2
.o 0 2 ii
e_System._Pointer_sreadIntElemOffsetP
.o 0 2 ii
s4
	push_b 1
	push_b 1
	update_b 1 3
	updatepop_b 0 2
.d 0 2 ii
	jmp s43
.o 0 2 ii
s43
	|		mov    (%rbx,%rax,8),%rcx
	instruction 72
	instruction 139
	instruction 12
	instruction 195
	|		mov    %rbx,%rax
	instruction 72
	instruction 139
	instruction 195
	|		mov    %rcx,%rbx
	instruction 72
	instruction 139
	instruction 217
.d 0 2 ii
	rtn
.export e_System._Pointer_sreadIntElemOffset
.descexp e_System._Pointer_dreadIntElemOffset e_System._Pointer_nreadIntElemOffset e_System._Pointer_lreadIntElemOffset 2 0 "readIntElemOffset"
.a 0 a3
.o 2 0
e_System._Pointer_lreadIntElemOffset
	repl_args 1 1
.o 2 0
a3
.d 2 0
	jsr ea3
.o 0 1 i
	buildI_b 0
	pop_b 1
.d 1 0
	rtn
.n 2 e_System._Pointer_dreadIntElemOffset
.o 1 0
e_System._Pointer_nreadIntElemOffset
	push_node _cycle_in_spine 2
.d 2 0
	jsr ea3
.o 0 1 i
	fillI_b 0 0
	pop_b 1
.d 1 0
	rtn
.o 2 0
ea3
	jsr_eval 1
	jsr_eval 0
	pushI_a 1
	pushI_a 0
	pop_a 2
.o 0 2 ii
e_System._Pointer_sreadIntElemOffset
.o 0 2 ii
s3
	push_b 1
	push_b 1
	update_b 1 3
	updatepop_b 0 2
.d 0 2 ii
	jmp s42
.o 0 2 ii
s42
	pop_b 1
	|		mov    (%rbx,%rax,8),%rax
	instruction 72
	instruction 139
	instruction 4
	instruction 195
.d 0 1 i
	rtn
.export e_System._Pointer_sreadIntP
.descexp e_System._Pointer_dreadIntP e_System._Pointer_nreadIntP e_System._Pointer_lreadIntP 2 0 "readIntP"
.a 0 a2
.o 2 0
e_System._Pointer_lreadIntP
	repl_args 1 1
.o 2 0
a2
.d 2 0
	jsr ea2
.o 0 2 ii
	buildI_b 1
	buildI_b 0
	buildh _Tuple 2
	pop_b 2
.d 1 0
	rtn
.n 2 e_System._Pointer_dreadIntP
.o 1 0
e_System._Pointer_nreadIntP
	push_node _cycle_in_spine 2
.d 2 0
	jsr ea2
.o 0 2 ii
	buildI_b 1
	buildI_b 0
	fillh _Tuple 2 2
	pop_b 2
.d 1 0
	rtn
.o 2 0
ea2
	jsr_eval 1
	jsr_eval 0
	pushI_a 1
	pushI_a 0
	pop_a 2
.o 0 2 ii
e_System._Pointer_sreadIntP
.o 0 2 ii
s2
	push_b 1
	push_b 1
	update_b 1 3
	updatepop_b 0 2
.d 0 2 ii
	jmp s41
.o 0 2 ii
s41
	|		mov    (%rbx,%rax,1),%rcx
	instruction 72
	instruction 139
	instruction 12
	instruction 3
	|		mov    %rbx,%rax
	instruction 72
	instruction 139
	instruction 195
	|		mov    %rcx,%rbx
	instruction 72
	instruction 139
	instruction 217
.d 0 2 ii
	rtn
.export e_System._Pointer_sreadInt
.descexp e_System._Pointer_dreadInt e_System._Pointer_nreadInt e_System._Pointer_lreadInt 2 0 "readInt"
.a 0 a1
.o 2 0
e_System._Pointer_lreadInt
	repl_args 1 1
.o 2 0
a1
.d 2 0
	jsr ea1
.o 0 1 i
	buildI_b 0
	pop_b 1
.d 1 0
	rtn
.n 2 e_System._Pointer_dreadInt
.o 1 0
e_System._Pointer_nreadInt
	push_node _cycle_in_spine 2
.d 2 0
	jsr ea1
.o 0 1 i
	fillI_b 0 0
	pop_b 1
.d 1 0
	rtn
.o 2 0
ea1
	jsr_eval 1
	jsr_eval 0
	pushI_a 1
	pushI_a 0
	pop_a 2
.o 0 2 ii
e_System._Pointer_sreadInt
.o 0 2 ii
s1
	push_b 1
	push_b 1
	update_b 1 3
	updatepop_b 0 2
.d 0 2 ii
	jmp s40
.o 0 2 ii
s40
	pop_b 1
	|		mov    (%rbx,%rax,1),%rax
	instruction 72
	instruction 139
	instruction 4
	instruction 3
.d 0 1 i
	rtn
