.comp 920 000111010010000
.start _nostart_
.depend "System.FilePath" "20210613131543"
.depend "System._Time" "20210613131543"
.depend "System.OSError" "20210613131543"
.depend "System.Time" "20210613131543"
.depend "System.File" "20210613131543"
.depend "StdGeneric" "20210613131542"
.depend "Data.GenEq" "20210613131543"
.depend "Data.Error" "20210613131543"
.depend "Data.Monoid" "20210613131543"
.depend "Data.Functor" "20210613131543"
.depend "Control.Monad" "20210613131543"
.depend "Control.Applicative" "20210613131543"
.depend "_SystemEnumStrict" "20210613131542"
.depend "_SystemStrictLists" "20210613131542"
.depend "StdStrictLists" "20210613131542"
.depend "StdList" "20210613131542"
.depend "StdClass" "20210613131542"
.depend "StdFile" "20210613131542"
.depend "StdChar" "20210613131542"
.depend "StdReal" "20210613131542"
.depend "StdInt" "20210613131542"
.depend "StdOverloaded" "20210613131542"
.depend "StdBool" "20210613131542"
.depend "Clean.Parse.ModuleName" "20210613131543"
.module m_Clean.Parse.ModuleName "Clean.Parse.ModuleName" "20210613131543"
.endinfo
.impmod _system
.implab _cycle_in_spine
.implab _type_error
.implab _hnf
.impdesc e_system_dind
.implab e_system_nind e_system_eaind
.impdesc e_system_dif
.implab e_system_nif e_system_eaif
.implab e_system_sif
.impdesc e_system_dAP
.implab e_system_nAP e_system_eaAP
.implab e_system_sAP
.impdesc ARRAY
.impdesc _Nil
.impdesc _Cons
.impdesc _Conss
.implab n_Conss ea_Conss
.impdesc _Consts
.implab n_Consts ea_Consts
.impdesc _Conssts
.implab n_Conssts ea_Conssts
.impdesc _Tuple
.impdesc d_S.1
.implab n_S.1 ea_S.1
.impdesc d_S.2
.implab n_S.2 ea_S.2
.impdesc d_S.3
.implab n_S.3 ea_S.3
.impdesc d_S.4
.implab n_S.4 ea_S.4
.impdesc d_S.5
.implab n_S.5 ea_S.5
.impdesc d_S.6
.implab n_S.6 ea_S.6
.implab _driver
.impmod System.File
.implab e_System.File_sreadFile
.impmod Data.Error
.implab e_Data.Error_sisError
.implab e_Data.Error_sfromOk
.impdesc e_Data.Error_dfromError
.implab e_Data.Error_nfromError _
.impmod StdList
.implab e_StdList_sdropWhile
.implab e_StdList_sspan
.implab e_StdList_sfromString;78
.implab e_StdList_stoString;79
.impmod StdFile
.impdesc e_StdFile_dfclose;31
.impdesc e_StdFile_dfopen;32
.impdesc e_StdFile_dsfopen;33
.impdesc e_StdFile_dstdio;34
.impmod StdChar
.impdesc e_StdChar_disSpace
.implab e_StdChar_sisSpace
.implab e_StdChar_s==;18
.impmod StdBool
.implab e_StdBool_snot
.impmod Data.Error
.impdesc e_Data.Error_dError
.impdesc e_Data.Error_dOk
.impmod StdFile
.impdesc e_StdFile_rFileSystem;
.export e_Clean.Parse.ModuleName_sguessModuleName
.descexp e_Clean.Parse.ModuleName_dguessModuleName e_Clean.Parse.ModuleName_nguessModuleName e_Clean.Parse.ModuleName_lguessModuleName 2 0 "guessModuleName"
.a 0 a1
.o 2 0
e_Clean.Parse.ModuleName_lguessModuleName
	repl_args 1 1
.o 2 0
a1
.d 2 0
	jsr ea1
.o 2 0
	push_a 1
	push_a 1
	buildh _Tuple 2
	updatepop_a 0 2
.d 1 0
	rtn
.n 2 e_Clean.Parse.ModuleName_dguessModuleName
.o 1 0
e_Clean.Parse.ModuleName_nguessModuleName
	push_node _cycle_in_spine 2
.d 2 0
	jsr ea1
.o 2 0
	push_a 1
	push_a 1
	fillh _Tuple 2 4
	pop_a 2
.d 1 0
	rtn
.o 2 0
ea1
	jsr_eval 1
	jsr_eval 0
	push_array 0
	update_a 0 1
	pop_a 1
.o 2 0
e_Clean.Parse.ModuleName_sguessModuleName
.o 2 0
s1
	buildh e_StdFile_dstdio;34 0
	buildh e_StdFile_dsfopen;33 0
	buildh e_StdFile_dfopen;32 0
	buildh e_StdFile_dfclose;31 0
	push_a 5
	push_a 5
	push_a 5
	update_a 2 6
	update_a 4 2
	update_a 0 4
	update_a 5 0
	update_a 1 5
	update_a 3 1
	update_a 0 3
	pop_a 1
	update_a 5 7
	update_a 4 6
	update_a 3 5
	update_a 2 4
	update_a 1 3
	updatepop_a 0 2
.d 6 0
	jsr e_System.File_sreadFile
.o 2 0
	push_a 0
.d 1 0
	jsr e_Data.Error_sisError
.o 0 1 b
	jmp_false else.1
	push_a 0
	build e_Data.Error_dfromError 1 e_Data.Error_nfromError
	buildh e_Data.Error_dError 1
	push_a 2
	push_a 1
	update_a 1 2
	update_a 0 1
	pop_a 1
	update_a 1 3
	updatepop_a 0 2
.d 2 0
	rtn
else.1
	push_a 0
	build _ 1 n42
	build _ 1 n2
	buildh e_Data.Error_dOk 1
	push_a 2
	push_a 1
	update_a 1 2
	update_a 0 1
	pop_a 1
	update_a 1 3
	updatepop_a 0 2
.d 2 0
	rtn
.n 1 _ ea42
.o 1 0
n42
	push_node _cycle_in_spine 1
.o 2 0
ea42
.o 2 0
s42
	push_a 0
	updatepop_a 0 1
.d 1 0
	jsr e_Data.Error_sfromOk
.o 1 0
	push_array 0
	updatepop_a 0 1
.d 2 0
	jmp e_StdList_sfromString;78
.n 1 _ ea2
.o 1 0
n2
	push_node _cycle_in_spine 1
.o 2 0
ea2
	jsr_eval 0
.o 2 0
s2
	eq_desc _Cons 2 0
	jmp_true case.2
	jmp case.3
case.2
	push_args 0 2 2
	jsr_eval 0
	pushC_a 0
	eqC_b 'd' 0
	jmp_true case.4
	eqC_b 'i' 0
	jmp_true case.5
	eqC_b 's' 0
	jmp_true case.6
	pop_b 1
	jmp case.7
case.4
	pop_b 1
	jsr_eval 1
	eq_desc _Cons 2 1
	jmp_true case.8
	jmp case.7
case.8
	push_args 1 2 2
	jsr_eval 0
	eqC_a 'e' 0
	jmp_true case.9
	pop_a 2
	jmp case.7
case.9
	jsr_eval 1
	eq_desc _Cons 2 1
	jmp_true case.10
	pop_a 2
	jmp case.7
case.10
	push_args 1 2 2
	buildh _Nil 0
	update_a 0 4
	pop_a 1
	jsr_eval 0
	eqC_a 'f' 0
	jmp_true case.11
	pop_a 4
	jmp case.7
case.11
	jsr_eval 1
	eq_desc _Cons 2 1
	jmp_true case.12
	pop_a 4
	jmp case.7
case.12
	push_args 1 2 2
	buildh _Nil 0
	update_a 0 4
	pop_a 1
	jsr_eval 0
	eqC_a 'i' 0
	jmp_true case.13
	pop_a 6
	jmp case.7
case.13
	jsr_eval 1
	eq_desc _Cons 2 1
	jmp_true case.14
	pop_a 6
	jmp case.7
case.14
	push_args 1 2 2
	buildh _Nil 0
	update_a 0 4
	pop_a 1
	jsr_eval 0
	eqC_a 'n' 0
	jmp_true case.15
	pop_a 8
	jmp case.7
case.15
	jsr_eval 1
	eq_desc _Cons 2 1
	jmp_true case.16
	pop_a 8
	jmp case.7
case.16
	push_args 1 2 2
	buildh _Nil 0
	update_a 0 4
	pop_a 1
	jsr_eval 0
	eqC_a 'i' 0
	jmp_true case.17
	pop_a 10
	jmp case.7
case.17
	jsr_eval 1
	eq_desc _Cons 2 1
	jmp_true case.18
	pop_a 10
	jmp case.7
case.18
	push_args 1 2 2
	buildh _Nil 0
	update_a 0 4
	pop_a 1
	jsr_eval 0
	eqC_a 't' 0
	jmp_true case.19
	pop_a 12
	jmp case.7
case.19
	jsr_eval 1
	eq_desc _Cons 2 1
	jmp_true case.20
	pop_a 12
	jmp case.7
case.20
	push_args 1 2 2
	buildh _Nil 0
	update_a 0 4
	pop_a 1
	jsr_eval 0
	eqC_a 'i' 0
	jmp_true case.21
	pop_a 14
	jmp case.7
case.21
	jsr_eval 1
	eq_desc _Cons 2 1
	jmp_true case.22
	pop_a 14
	jmp case.7
case.22
	push_args 1 2 2
	buildh _Nil 0
	update_a 0 4
	pop_a 1
	jsr_eval 0
	eqC_a 'o' 0
	jmp_true case.23
	pop_a 16
	jmp case.7
case.23
	jsr_eval 1
	eq_desc _Cons 2 1
	jmp_true case.24
	pop_a 16
	jmp case.7
case.24
	push_args 1 2 2
	buildh _Nil 0
	update_a 0 4
	pop_a 1
	jsr_eval 0
	eqC_a 'n' 0
	jmp_true case.25
	pop_a 18
	jmp case.7
case.25
	jsr_eval 1
	eq_desc _Cons 2 1
	jmp_true case.26
	pop_a 18
	jmp case.7
case.26
	push_args 1 2 2
	buildh _Nil 0
	update_a 0 4
	pop_a 1
	push_a 0
	jsr_eval 0
	pushC_a 1
	pop_a 1
	pop_a 1
.d 0 1 c
	jsr e_StdChar_sisSpace
.o 0 1 b
	jmp_false else.27
	push_a 0
	jsr_eval 0
	updatepop_a 0 22
.d 2 0
	jmp s3
else.27
	pop_a 19
	jmp case.7
case.5
	pop_b 1
	jsr_eval 1
	eq_desc _Cons 2 1
	jmp_true case.28
	jmp case.7
case.28
	push_args 1 2 2
	jsr_eval 0
	eqC_a 'm' 0
	jmp_true case.29
	pop_a 2
	jmp case.7
case.29
	jsr_eval 1
	eq_desc _Cons 2 1
	jmp_true case.30
	pop_a 2
	jmp case.7
case.30
	push_args 1 2 2
	buildh _Nil 0
	update_a 0 4
	pop_a 1
	jsr_eval 0
	eqC_a 'p' 0
	jmp_true case.31
	pop_a 4
	jmp case.7
case.31
	jsr_eval 1
	eq_desc _Cons 2 1
	jmp_true case.32
	pop_a 4
	jmp case.7
case.32
	push_args 1 2 2
	buildh _Nil 0
	update_a 0 4
	pop_a 1
	jsr_eval 0
	eqC_a 'l' 0
	jmp_true case.33
	pop_a 6
	jmp case.7
case.33
	jsr_eval 1
	eq_desc _Cons 2 1
	jmp_true case.34
	pop_a 6
	jmp case.7
case.34
	push_args 1 2 2
	buildh _Nil 0
	update_a 0 4
	pop_a 1
	jsr_eval 0
	eqC_a 'e' 0
	jmp_true case.35
	pop_a 8
	jmp case.7
case.35
	jsr_eval 1
	eq_desc _Cons 2 1
	jmp_true case.36
	pop_a 8
	jmp case.7
case.36
	push_args 1 2 2
	buildh _Nil 0
	update_a 0 4
	pop_a 1
	jsr_eval 0
	eqC_a 'm' 0
	jmp_true case.37
	pop_a 10
	jmp case.7
case.37
	jsr_eval 1
	eq_desc _Cons 2 1
	jmp_true case.38
	pop_a 10
	jmp case.7
case.38
	push_args 1 2 2
	buildh _Nil 0
	update_a 0 4
	pop_a 1
	jsr_eval 0
	eqC_a 'e' 0
	jmp_true case.39
	pop_a 12
	jmp case.7
case.39
	jsr_eval 1
	eq_desc _Cons 2 1
	jmp_true case.40
	pop_a 12
	jmp case.7
case.40
	push_args 1 2 2
	buildh _Nil 0
	update_a 0 4
	pop_a 1
	jsr_eval 0
	eqC_a 'n' 0
	jmp_true case.41
	pop_a 14
	jmp case.7
case.41
	jsr_eval 1
	eq_desc _Cons 2 1
	jmp_true case.42
	pop_a 14
	jmp case.7
case.42
	push_args 1 2 2
	buildh _Nil 0
	update_a 0 4
	pop_a 1
	jsr_eval 0
	eqC_a 't' 0
	jmp_true case.43
	pop_a 16
	jmp case.7
case.43
	jsr_eval 1
	eq_desc _Cons 2 1
	jmp_true case.44
	pop_a 16
	jmp case.7
case.44
	push_args 1 2 2
	buildh _Nil 0
	update_a 0 4
	pop_a 1
	jsr_eval 0
	eqC_a 'a' 0
	jmp_true case.45
	pop_a 18
	jmp case.7
case.45
	jsr_eval 1
	eq_desc _Cons 2 1
	jmp_true case.46
	pop_a 18
	jmp case.7
case.46
	push_args 1 2 2
	buildh _Nil 0
	update_a 0 4
	pop_a 1
	jsr_eval 0
	eqC_a 't' 0
	jmp_true case.47
	pop_a 20
	jmp case.7
case.47
	jsr_eval 1
	eq_desc _Cons 2 1
	jmp_true case.48
	pop_a 20
	jmp case.7
case.48
	push_args 1 2 2
	buildh _Nil 0
	update_a 0 4
	pop_a 1
	jsr_eval 0
	eqC_a 'i' 0
	jmp_true case.49
	pop_a 22
	jmp case.7
case.49
	jsr_eval 1
	eq_desc _Cons 2 1
	jmp_true case.50
	pop_a 22
	jmp case.7
case.50
	push_args 1 2 2
	buildh _Nil 0
	update_a 0 4
	pop_a 1
	jsr_eval 0
	eqC_a 'o' 0
	jmp_true case.51
	pop_a 24
	jmp case.7
case.51
	jsr_eval 1
	eq_desc _Cons 2 1
	jmp_true case.52
	pop_a 24
	jmp case.7
case.52
	push_args 1 2 2
	buildh _Nil 0
	update_a 0 4
	pop_a 1
	jsr_eval 0
	eqC_a 'n' 0
	jmp_true case.53
	pop_a 26
	jmp case.7
case.53
	jsr_eval 1
	eq_desc _Cons 2 1
	jmp_true case.54
	pop_a 26
	jmp case.7
case.54
	push_args 1 2 2
	buildh _Nil 0
	update_a 0 4
	pop_a 1
	push_a 0
	jsr_eval 0
	pushC_a 1
	pop_a 1
	pop_a 1
.d 0 1 c
	jsr e_StdChar_sisSpace
.o 0 1 b
	jmp_false else.55
	push_a 0
	jsr_eval 0
	updatepop_a 0 30
.d 2 0
	jmp s3
else.55
	pop_a 27
	jmp case.7
case.6
	pop_b 1
	jsr_eval 1
	eq_desc _Cons 2 1
	jmp_true case.56
	jmp case.7
case.56
	push_args 1 2 2
	jsr_eval 0
	eqC_a 'y' 0
	jmp_true case.57
	pop_a 2
	jmp case.7
case.57
	jsr_eval 1
	eq_desc _Cons 2 1
	jmp_true case.58
	pop_a 2
	jmp case.7
case.58
	push_args 1 2 2
	buildh _Nil 0
	update_a 0 4
	pop_a 1
	jsr_eval 0
	eqC_a 's' 0
	jmp_true case.59
	pop_a 4
	jmp case.7
case.59
	jsr_eval 1
	eq_desc _Cons 2 1
	jmp_true case.60
	pop_a 4
	jmp case.7
case.60
	push_args 1 2 2
	buildh _Nil 0
	update_a 0 4
	pop_a 1
	jsr_eval 0
	eqC_a 't' 0
	jmp_true case.61
	pop_a 6
	jmp case.7
case.61
	jsr_eval 1
	eq_desc _Cons 2 1
	jmp_true case.62
	pop_a 6
	jmp case.7
case.62
	push_args 1 2 2
	buildh _Nil 0
	update_a 0 4
	pop_a 1
	jsr_eval 0
	eqC_a 'e' 0
	jmp_true case.63
	pop_a 8
	jmp case.7
case.63
	jsr_eval 1
	eq_desc _Cons 2 1
	jmp_true case.64
	pop_a 8
	jmp case.7
case.64
	push_args 1 2 2
	buildh _Nil 0
	update_a 0 4
	pop_a 1
	jsr_eval 0
	eqC_a 'm' 0
	jmp_true case.65
	pop_a 10
	jmp case.7
case.65
	jsr_eval 1
	eq_desc _Cons 2 1
	jmp_true case.66
	pop_a 10
	jmp case.7
case.66
	push_args 1 2 2
	buildh _Nil 0
	update_a 0 4
	pop_a 1
	push_a 0
	jsr_eval 0
	pushC_a 1
	pop_a 1
	pop_a 1
.d 0 1 c
	jsr e_StdChar_sisSpace
.o 0 1 b
	jmp_false else.67
	push_a 0
	jsr_eval 0
	updatepop_a 0 14
.d 2 0
	jmp s3
else.67
	pop_a 11
	jmp case.7
case.7
	pushC_a 0
.d 0 1 c
	jsr e_StdChar_sisSpace
.o 0 1 b
	jmp_false else.69
	push_a 1
	jsr_eval 0
	updatepop_a 0 3
.d 2 0
	jmp s2
else.69
	jmp fail.68
fail.68
	jsr_eval 0
	eqC_a '/' 0
	jmp_true case.70
	pop_a 2
	jmp case.3
case.70
	jsr_eval 1
	eq_desc _Cons 2 1
	jmp_true case.71
	pop_a 2
	jmp case.3
case.71
	push_args 1 2 2
	buildh _Nil 0
	update_a 0 4
	pop_a 1
	jsr_eval 0
	pushC_a 0
	eqC_b '/' 0
	jmp_true case.72
	eqC_b '*' 0
	jmp_true case.73
	pop_a 4
	pop_b 1
	jmp case.3
case.72
	pop_b 1
	push_a 1
	jsr_eval 0
	buildC '\n'
	buildh d8 1
	create
	push_a 2
	update_a 1 3
	update_a 2 1
	update_a 0 2
	pop_a 1
	update_a 2 7
	update_a 1 6
	updatepop_a 0 5
.d 3 0
	jsr e_StdList_sdropWhile
.o 1 0
.d 2 0
	jmp s2
case.73
	pop_b 1
	push_a 1
	jsr_eval 0
	create
	push_a 1
	update_a 1 2
	update_a 0 1
	pop_a 1
	update_a 1 6
	updatepop_a 0 5
.d 2 0
	jsr s5
.o 1 0
.d 2 0
	jmp s2
case.3
	push_a 0
	updatepop_a 0 1
.d 2 0
	jmp s3
.desc d8 _hnf l8 2 0 "<>;58"
.a 0 a8
.o 2 0
l8
	repl_args 1 1
.o 2 0
a8
.d 2 0
	jsr ea8
.o 0 1 b
	buildB_b 0
	pop_b 1
.d 1 0
	rtn
.o 2 0
ea8
	jsr_eval 1
	pushC_a 1
	pushC_a 0
	pop_a 2
.o 0 2 cc
s8
	push_b 1
	push_b 1
	eqC
	updatepop_b 0 2
	notB
.d 0 1 b
	rtn
.o 2 0
s3
	eq_desc _Cons 2 0
	jmp_true case.74
	jmp case.75
case.74
	repl_args 2 2
	jsr_eval 0
	eqC_a 'm' 0
	jmp_true case.76
	jmp case.77
case.76
	jsr_eval 1
	eq_desc _Cons 2 1
	jmp_true case.78
	jmp case.77
case.78
	push_args 1 2 2
	jsr_eval 0
	eqC_a 'o' 0
	jmp_true case.79
	pop_a 2
	jmp case.77
case.79
	jsr_eval 1
	eq_desc _Cons 2 1
	jmp_true case.80
	pop_a 2
	jmp case.77
case.80
	push_args 1 2 2
	buildh _Nil 0
	update_a 0 4
	pop_a 1
	jsr_eval 0
	eqC_a 'd' 0
	jmp_true case.81
	pop_a 4
	jmp case.77
case.81
	jsr_eval 1
	eq_desc _Cons 2 1
	jmp_true case.82
	pop_a 4
	jmp case.77
case.82
	push_args 1 2 2
	buildh _Nil 0
	update_a 0 4
	pop_a 1
	jsr_eval 0
	eqC_a 'u' 0
	jmp_true case.83
	pop_a 6
	jmp case.77
case.83
	jsr_eval 1
	eq_desc _Cons 2 1
	jmp_true case.84
	pop_a 6
	jmp case.77
case.84
	push_args 1 2 2
	buildh _Nil 0
	update_a 0 4
	pop_a 1
	jsr_eval 0
	eqC_a 'l' 0
	jmp_true case.85
	pop_a 8
	jmp case.77
case.85
	jsr_eval 1
	eq_desc _Cons 2 1
	jmp_true case.86
	pop_a 8
	jmp case.77
case.86
	push_args 1 2 2
	buildh _Nil 0
	update_a 0 4
	pop_a 1
	jsr_eval 0
	eqC_a 'e' 0
	jmp_true case.87
	pop_a 10
	jmp case.77
case.87
	jsr_eval 1
	eq_desc _Cons 2 1
	jmp_true case.88
	pop_a 10
	jmp case.77
case.88
	push_args 1 2 2
	buildh _Nil 0
	update_a 0 4
	pop_a 1
	push_a 0
	jsr_eval 0
	pushC_a 1
	pop_a 1
	pop_a 1
.d 0 1 c
	jsr e_StdChar_sisSpace
.o 0 1 b
	jmp_false else.89
	push_a 0
	jsr_eval 0
	updatepop_a 0 13
.d 2 0
	jmp s4
else.89
	pop_a 11
	jmp case.77
case.77
	pushC_a 0
.d 0 1 c
	jsr e_StdChar_sisSpace
.o 0 1 b
	jmp_false else.91
	push_a 1
	jsr_eval 0
	updatepop_a 0 2
.d 2 0
	jmp s3
else.91
	jmp fail.90
fail.90
	jsr_eval 0
	eqC_a '/' 0
	jmp_true case.92
	pop_a 1
	jmp case.75
case.92
	jsr_eval 1
	eq_desc _Cons 2 1
	jmp_true case.93
	pop_a 1
	jmp case.75
case.93
	push_args 1 2 2
	buildh _Nil 0
	update_a 0 4
	pop_a 1
	jsr_eval 0
	pushC_a 0
	eqC_b '/' 0
	jmp_true case.94
	eqC_b '*' 0
	jmp_true case.95
	pop_a 3
	pop_b 1
	jmp case.75
case.94
	pop_b 1
	push_a 1
	jsr_eval 0
	buildC '\n'
	buildh d7 1
	create
	push_a 2
	update_a 1 3
	update_a 2 1
	update_a 0 2
	pop_a 1
	update_a 2 6
	update_a 1 5
	updatepop_a 0 4
.d 3 0
	jsr e_StdList_sdropWhile
.o 1 0
.d 2 0
	jmp s3
case.95
	pop_b 1
	push_a 1
	jsr_eval 0
	create
	push_a 1
	update_a 1 2
	update_a 0 1
	pop_a 1
	update_a 1 5
	updatepop_a 0 4
.d 2 0
	jsr s5
.o 1 0
.d 2 0
	jmp s3
case.75
	fillh _None 0 1
	pop_a 1
.d 1 0
	rtn
.o 2 0
s4
	buildh e_StdChar_disSpace 0
	push_a 1
	push_a 1
	update_a 1 2
	update_a 0 1
	pop_a 1
	update_a 1 2
	updatepop_a 0 1
.d 2 0
	jsr e_StdList_sspan
.o 2 0
	jsr_eval 1
	pop_a 1
	buildh d6 0
.d 2 0
	jsr e_StdList_sspan
.o 2 0
	jsr_eval 0
	update_a 0 1
	pop_a 1
.d 2 0
	jmp s9
.o 2 0
s9
	eq_desc _Nil 0 0
	jmp_true case.96
	jmp case.97
case.96
	fillh _None 0 1
	pop_a 1
.d 1 0
	rtn
case.97
	push_a 0
	updatepop_a 0 1
.d 1 0
	jsr e_StdList_stoString;79
.o 1 0
	buildh ARRAY 1
	fillh _Just 1 1
.d 1 0
	rtn
.desc d6 _hnf l6 1 0 "<lambda>[line:41];20;5"
.o 2 0
l6
	pop_a 1
.d 1 0
	jsr ea6
.o 0 1 b
	buildB_b 0
	pop_b 1
.d 1 0
	rtn
.o 1 0
ea6
	jsr_eval 0
	pushC_a 0
	pop_a 1
.o 0 1 c
s6
	pushC '/'
	push_b 1
	eqC
	notB
	jmp_false else.98
	pushC ';'
	push_b 1
	eqC
	notB
	jmp_false else.99
	push_b 0
	updatepop_b 0 1
.d 0 1 c
	jsr e_StdChar_sisSpace
.o 0 1 b
	notB
.d 0 1 b
	rtn
else.99
	pop_b 1
	pushB FALSE
.d 0 1 b
	rtn
else.98
	pop_b 1
	pushB FALSE
.d 0 1 b
	rtn
.desc d7 _hnf l7 2 0 "<>;57"
.a 0 a7
.o 2 0
l7
	repl_args 1 1
.o 2 0
a7
.d 2 0
	jsr ea7
.o 0 1 b
	buildB_b 0
	pop_b 1
.d 1 0
	rtn
.o 2 0
ea7
	jsr_eval 1
	pushC_a 1
	pushC_a 0
	pop_a 2
.o 0 2 cc
s7
	push_b 1
	push_b 1
	eqC
	updatepop_b 0 2
	notB
.d 0 1 b
	rtn
.o 2 0
s5
	eq_desc _Cons 2 0
	jmp_true case.100
	jmp case.101
case.100
	repl_args 2 2
	jsr_eval 0
	pushC_a 0
	eqC_b '*' 0
	jmp_true case.102
	eqC_b '/' 0
	jmp_true case.103
	pop_b 1
	jmp case.104
case.102
	pop_b 1
	jsr_eval 1
	eq_desc _Cons 2 1
	jmp_true case.105
	jmp case.104
case.105
	push_args 1 2 2
	jsr_eval 0
	eqC_a '/' 0
	jmp_true case.106
	pop_a 2
	jmp case.104
case.106
	updatepop_a 1 3
	jmp_eval_upd
case.103
	pop_b 1
	jsr_eval 1
	eq_desc _Cons 2 1
	jmp_true case.107
	jmp case.104
case.107
	push_args 1 2 2
	jsr_eval 0
	eqC_a '*' 0
	jmp_true case.108
	pop_a 2
	jmp case.104
case.108
	push_a 1
	jsr_eval 0
	create
	push_a 1
	update_a 1 2
	update_a 0 1
	pop_a 1
	update_a 1 4
	updatepop_a 0 3
.d 2 0
	jsr s5
.o 1 0
	updatepop_a 0 1
.d 2 0
	jmp s5
case.104
	push_a 1
	jsr_eval 0
	updatepop_a 0 2
.d 2 0
	jmp s5
case.101
	fillh _Nil 0 1
	pop_a 1
.d 1 0
	rtn
