.comp 920 000011110011000
.start _nostart_
.depend "StdCharList" "20210613144732"
.depend "_SystemArray" "20210613144732"
.depend "StdArray" "20210613144732"
.depend "StdEnv" "20210613144732"
.depend "_SystemEnum" "20210613144732"
.depend "StdEnum" "20210613144732"
.depend "StdTuple" "20210613144732"
.depend "StdOrdList" "20210613144732"
.depend "Control.Monad.Trans" "20210613144732"
.depend "StdMaybe" "20210613144732"
.depend "Data.Maybe" "20210613144732"
.depend "_SystemStrictMaybes" "20210613144732"
.depend "StdFile" "20210613144732"
.depend "StdString" "20210613144732"
.depend "Control.Monad.Fail" "20210613144732"
.depend "Data.Traversable" "20210613144732"
.depend "StdMisc" "20210613144732"
.depend "StdOverloadedList" "20210613144732"
.depend "Data.List" "20210613144732"
.depend "Data.Foldable" "20210613144732"
.depend "StdFunctions" "20210613144732"
.depend "StdFunc" "20210613144732"
.depend "_SystemEnumStrict" "20210613144732"
.depend "_SystemStrictLists" "20210613144732"
.depend "StdStrictLists" "20210613144732"
.depend "StdGeneric" "20210613144732"
.depend "Data.GenEq" "20210613144732"
.depend "StdReal" "20210613144732"
.depend "StdChar" "20210613144732"
.depend "StdInt" "20210613144732"
.depend "StdBool" "20210613144732"
.depend "StdClass" "20210613144732"
.depend "StdList" "20210613144732"
.depend "Data.Monoid" "20210613144732"
.depend "Control.Applicative" "20210613144732"
.depend "Control.Monad" "20210613144732"
.depend "Data.Functor" "20210613144732"
.depend "StdOverloaded" "20210613144732"
.depend "_SystemDynamic" "20210613144732"
.depend "Text.PPrint" "20210613144732"
.module m_Text.PPrint "Text.PPrint" "20210613144732"
.endinfo
.impmod _system
.implab _cycle_in_spine
.implab _type_error
.implab _hnf
.impdesc e_system_dind
.implab e_system_nind e_system_eaind
.impdesc e_system_dif
.implab e_system_nif e_system_eaif
.implab e_system_sif
.impdesc e_system_dAP
.implab e_system_nAP e_system_eaAP
.implab e_system_sAP
.impdesc ARRAY
.impdesc _Nil
.impdesc _Cons
.impdesc _Conss
.implab n_Conss ea_Conss
.impdesc _Consts
.implab n_Consts ea_Consts
.impdesc _Conssts
.implab n_Conssts ea_Conssts
.impdesc _Tuple
.impdesc d_S.1
.implab n_S.1 ea_S.1
.impdesc d_S.2
.implab n_S.2 ea_S.2
.impdesc d_S.3
.implab n_S.3 ea_S.3
.impdesc d_S.4
.implab n_S.4 ea_S.4
.impdesc d_S.5
.implab n_S.5 ea_S.5
.impdesc d_S.6
.implab n_S.6 ea_S.6
.implab _driver
.impmod _SystemArray
.impmod StdString
.implab e_StdString_stoString;5
.implab e_StdString_stoString;7
.implab e_StdString_stoString;8
.implab e_StdString_s%;10
.impmod Data.List
.implab e_Data.List_sfoldr1;103
.impmod StdReal
.implab e_StdReal_s*;4
.implab e_StdReal_stoReal;13
.impmod StdChar
.implab e_StdChar_s==;18
.impmod StdInt
.impdesc e_StdInt_d+;6
.implab e_StdInt_s+;6
.implab e_StdInt_n+;6
.impdesc e_StdInt_d-;7
.implab e_StdInt_s-;7
.implab e_StdInt_n-;7
.implab e_StdInt_sone;11
.implab e_StdInt_s==;16
.implab e_StdInt_s<;17
.implab e_StdInt_stoInt;22
.impmod StdBool
.implab e_StdBool_snot
.impmod StdList
.implab e_StdList_smap
.impdesc e_StdList_drepeat
.implab e_StdList_nrepeat e_StdList_earepeat
.implab e_StdList_szip2
.export e_Text.PPrint_dText
.export e_Text.PPrint_nText
.descn e_Text.PPrint_dText e_Text.PPrint_nText 2 0 "Text"
.a 2 ea119
.o 2 0 
l119
	push_args 0 1 1
	update_a 2 1
	create 
.d 3 0 
	put_a_jmp 3 ea119
.n 2 e_Text.PPrint_dText ea119
.o 1 0 
e_Text.PPrint_nText
	push_node _cycle_in_spine 2
.o 3 0 
ea119
	jsr_eval 0
	pushI0_pop_a1 
	fill_r e_Text.PPrint_kText 1 1 1 0 0
.d 1 0 
	pop_ab_rtn 1 1
.export e_Text.PPrint_dLine
.export e_Text.PPrint_nLine
.descn e_Text.PPrint_dLine e_Text.PPrint_nLine 1 0 "Line"
.o 2 0 
l120
	update_a 1 0
	create 
.d 2 0 
	put_a_jmp 2 ea120
.n 1 e_Text.PPrint_dLine ea120
.o 1 0 
e_Text.PPrint_nLine
	push_node _cycle_in_spine 1
.o 2 0 
ea120
	jsr_eval 0
	pushB0_pop_a1 
	fill_r e_Text.PPrint_kLine 0 1 0 0 0
.d 1 0 
	pop_b_rtn 1
.export e_Text.PPrint_dNest
.export e_Text.PPrint_nNest
.descn e_Text.PPrint_dNest e_Text.PPrint_nNest 2 0 "Nest"
.a 2 ea122
.o 2 0 
l122
	push_args 0 1 1
	update_a 2 1
	create 
.d 3 0 
	put_a_jmp 3 ea122
.n 2 e_Text.PPrint_dNest ea122
.o 1 0 
e_Text.PPrint_nNest
	push_node _cycle_in_spine 2
.o 3 0 
ea122
	jsr_eval 0
	pushI0_pop_a1 
	fill_r e_Text.PPrint_kNest 1 1 1 0 0
.d 1 0 
	pop_ab_rtn 1 1
.export e_Text.PPrint_dEmpty
.desc e_Text.PPrint_dEmpty _hnf _hnf 0 0 "Empty"
.export e_Text.PPrint_dChar
.desc e_Text.PPrint_dChar _hnf _add_arg 1 0 "Char"
.export e_Text.PPrint_kText
.record e_Text.PPrint_kText dia 1 1 "Text"
.export e_Text.PPrint_kLine
.record e_Text.PPrint_kLine db 0 1 "Line"
.export e_Text.PPrint_dCat
.desc e_Text.PPrint_dCat _hnf _add_arg 2 0 "Cat"
.export e_Text.PPrint_kNest
.record e_Text.PPrint_kNest dia 1 1 "Nest"
.export e_Text.PPrint_dUnion
.desc e_Text.PPrint_dUnion _hnf _add_arg 2 0 "Union"
.export e_Text.PPrint_dColumn
.desc e_Text.PPrint_dColumn _hnf _add_arg 1 0 "Column"
.export e_Text.PPrint_dNesting
.desc e_Text.PPrint_dNesting _hnf _add_arg 1 0 "Nesting"
.export e_Text.PPrint_dSText
.export e_Text.PPrint_nSText
.descn e_Text.PPrint_dSText e_Text.PPrint_nSText 3 0 "SText"
.a 3 ea129
.o 2 0 
l129
	push_args 0 2 2
	update_a 3 2
	create 
.d 4 0 
	put_a_jmp 4 ea129
.n 3 e_Text.PPrint_dSText ea129
.o 1 0 
e_Text.PPrint_nSText
	push_node _cycle_in_spine 3
.o 4 0 
ea129
	jsr_eval 0
	pushI0_pop_a1 
	fill_r e_Text.PPrint_kSText 2 1 2 0 0
.d 1 0 
	pop_ab_rtn 2 1
.export e_Text.PPrint_dSLine
.export e_Text.PPrint_nSLine
.descn e_Text.PPrint_dSLine e_Text.PPrint_nSLine 2 0 "SLine"
.a 2 ea130
.o 2 0 
l130
	push_args 0 1 1
	update_a 2 1
	create 
.d 3 0 
	put_a_jmp 3 ea130
.n 2 e_Text.PPrint_dSLine ea130
.o 1 0 
e_Text.PPrint_nSLine
	push_node _cycle_in_spine 2
.o 3 0 
ea130
	jsr_eval 0
	pushI0_pop_a1 
	fill_r e_Text.PPrint_kSLine 1 1 1 0 0
.d 1 0 
	pop_ab_rtn 1 1
.export e_Text.PPrint_dSEmpty
.desc e_Text.PPrint_dSEmpty _hnf _hnf 0 0 "SEmpty"
.export e_Text.PPrint_dSChar
.desc e_Text.PPrint_dSChar _hnf _add_arg 2 0 "SChar"
.export e_Text.PPrint_kSText
.record e_Text.PPrint_kSText diaa 2 1 "SText"
.export e_Text.PPrint_kSLine
.record e_Text.PPrint_kSLine dia 1 1 "SLine"
.export e_Text.PPrint_rPretty;
.record e_Text.PPrint_rPretty; a 1 0 "Pretty;"
.descexp e_Text.PPrint_tPretty; e_Text.PPrint_cPretty; _hnf 1 1 "Pretty;"
.n 1 e_Text.PPrint_tPretty;
.o 1 0 
e_Text.PPrint_cPretty;
	push_node _cycle_in_spine 1
	jsr_eval 0
.impmod Text.PPrint
.impdesc e_Text.PPrint_rPretty;
	fill_r e_Text.PPrint_rPretty; 1 0 1 0 0
.d 1 0 
	pop_a_rtn 1
.export e_Text.PPrint_dPretty;.pretty
.export e_Text.PPrint_nPretty;.pretty
.export e_Text.PPrint_eaPretty;.pretty
.descs e_Text.PPrint_dPretty;.pretty e_Text.PPrint_nPretty;.pretty _ 1 0 "Pretty;.pretty"
.n -4 e_Text.PPrint_dPretty;.pretty e_Text.PPrint_eaPretty;.pretty
.o 1 0 
e_Text.PPrint_nPretty;.pretty
	push_node _cycle_in_spine 1
.o 2 0 
e_Text.PPrint_eaPretty;.pretty
	jsr_eval 0
	repl_r_args_a 1 0 1 1
.d 1 0 
	fill_a01_pop_rtn 
.export e_Text.PPrint_dCons
.export e_Text.PPrint_nCons
.descn e_Text.PPrint_dCons e_Text.PPrint_nCons 3 0 "Cons"
.a 3 ea135
.o 2 0 
l135
	push_args 0 2 2
	update_a 3 2
	create 
.d 4 0 
	put_a_jmp 4 ea135
.n 3 e_Text.PPrint_dCons ea135
.o 1 0 
e_Text.PPrint_nCons
	push_node _cycle_in_spine 3
.o 4 0 
ea135
	jsr_eval 0
	pushI0_pop_a1 
	fill_r e_Text.PPrint_kCons 2 1 2 0 0
.d 1 0 
	pop_ab_rtn 2 1
.export e_Text.PPrint_dNil
.desc e_Text.PPrint_dNil _hnf _hnf 0 0 "Nil"
.export e_Text.PPrint_kCons
.record e_Text.PPrint_kCons diaa 2 1 "Cons"
.export e_Text.PPrint_sTD;Docs
.export e_Text.PPrint_eaTD;Docs
.descexp e_Text.PPrint_dTD;Docs e_Text.PPrint_nTD;Docs e_Text.PPrint_lTD;Docs 1 0 "TD;Docs"
.o 2 0 
e_Text.PPrint_lTD;Docs
	update_a 1 0
	create 
.d 2 0 
	put_a_jmp 2 e_Text.PPrint_eaTD;Docs
.n 1 e_Text.PPrint_dTD;Docs e_Text.PPrint_eaTD;Docs
.o 1 0 
e_Text.PPrint_nTD;Docs
	push_node _cycle_in_spine 1
.o 2 0 
e_Text.PPrint_eaTD;Docs
.o 2 0 
e_Text.PPrint_sTD;Docs
.o 2 0 
s97
	fillh _Nil 0 1
.d 1 0 
	pop_a_rtn 1
.export e_Text.PPrint_sTD;Pretty;
.export e_Text.PPrint_eaTD;Pretty;
.descexp e_Text.PPrint_dTD;Pretty; e_Text.PPrint_nTD;Pretty; e_Text.PPrint_lTD;Pretty; 1 0 "TD;Pretty;"
.o 2 0 
e_Text.PPrint_lTD;Pretty;
	update_a 1 0
	create 
.d 2 0 
	put_a_jmp 2 e_Text.PPrint_eaTD;Pretty;
.n 1 e_Text.PPrint_dTD;Pretty; e_Text.PPrint_eaTD;Pretty;
.o 1 0 
e_Text.PPrint_nTD;Pretty;
	push_node _cycle_in_spine 1
.o 2 0 
e_Text.PPrint_eaTD;Pretty;
.o 2 0 
e_Text.PPrint_sTD;Pretty;
.o 2 0 
s80
	fillh _Nil 0 1
.d 1 0 
	pop_a_rtn 1
.export e_Text.PPrint_sTD;SimpleDoc
.export e_Text.PPrint_eaTD;SimpleDoc
.descexp e_Text.PPrint_dTD;SimpleDoc e_Text.PPrint_nTD;SimpleDoc e_Text.PPrint_lTD;SimpleDoc 1 0 "TD;SimpleDoc"
.o 2 0 
e_Text.PPrint_lTD;SimpleDoc
	update_a 1 0
	create 
.d 2 0 
	put_a_jmp 2 e_Text.PPrint_eaTD;SimpleDoc
.n 1 e_Text.PPrint_dTD;SimpleDoc e_Text.PPrint_eaTD;SimpleDoc
.o 1 0 
e_Text.PPrint_nTD;SimpleDoc
	push_node _cycle_in_spine 1
.o 2 0 
e_Text.PPrint_eaTD;SimpleDoc
.o 2 0 
e_Text.PPrint_sTD;SimpleDoc
.o 2 0 
s79
	fillh _Nil 0 1
.d 1 0 
	pop_a_rtn 1
.export e_Text.PPrint_sTD;Doc
.export e_Text.PPrint_eaTD;Doc
.descexp e_Text.PPrint_dTD;Doc e_Text.PPrint_nTD;Doc e_Text.PPrint_lTD;Doc 1 0 "TD;Doc"
.o 2 0 
e_Text.PPrint_lTD;Doc
	update_a 1 0
	create 
.d 2 0 
	put_a_jmp 2 e_Text.PPrint_eaTD;Doc
.n 1 e_Text.PPrint_dTD;Doc e_Text.PPrint_eaTD;Doc
.o 1 0 
e_Text.PPrint_nTD;Doc
	push_node _cycle_in_spine 1
.o 2 0 
e_Text.PPrint_eaTD;Doc
.o 2 0 
e_Text.PPrint_sTD;Doc
.o 2 0 
s78
	fillh _Nil 0 1
.d 1 0 
	pop_a_rtn 1
.export e_Text.PPrint_spretty;76
.export e_Text.PPrint_eapretty;76
.descexp e_Text.PPrint_dpretty;76 e_Text.PPrint_npretty;76 e_Text.PPrint_lpretty;76 2 0 "pretty;76"
.o 3 0 
e_Text.PPrint_ipretty;76
	repl_args 1 1
	jsr_eval 0
	push_r_args 0 1 0
.d 3 0 
	put_a_jmp 1 s77
.ai 2 e_Text.PPrint_eapretty;76 e_Text.PPrint_ipretty;76
.o 2 0 
e_Text.PPrint_lpretty;76
	push_args 0 1 1
	update_a 2 1
	create 
.d 3 0 
	put_a_jmp 3 e_Text.PPrint_eapretty;76
.n 2 e_Text.PPrint_dpretty;76 e_Text.PPrint_eapretty;76
.o 1 0 
e_Text.PPrint_npretty;76
	push_node _cycle_in_spine 2
.o 3 0 
e_Text.PPrint_eapretty;76
	jsr_eval 1
	jsr_eval 0
	repl_r_args 1 0
.o 3 0 
e_Text.PPrint_spretty;76
.o 3 0 
s77
	jmp_ne_desc _None 0 1 case.2
.d 1 0 
	pop_a_jmp 2 s57
case.2
	push_args 1 1 1
	put_a 2
.d 3 0 
	jmp_i 1
.export e_Text.PPrint_spretty;75
.export e_Text.PPrint_eapretty;75
.descexp e_Text.PPrint_dpretty;75 e_Text.PPrint_npretty;75 e_Text.PPrint_lpretty;75 4 0 "pretty;75"
.o 3 0 
e_Text.PPrint_ipretty;75
	repl_args 3 3
	push_args 3 3 3
	jsr_eval 5
	push_r_args 5 1 0
	jsr_eval 5
	push_r_args 5 1 0
	jsr_eval 5
	push_r_args 5 1 0
	update3_a 3 7
	update3pop_a 0 4
.d 7 0 
	jmp s76
.ai 4 e_Text.PPrint_eapretty;75 e_Text.PPrint_ipretty;75
.o 2 0 
e_Text.PPrint_lpretty;75
	push_args 0 3 3
	update_a 4 3
	create 
.d 5 0 
	put_a_jmp 5 e_Text.PPrint_eapretty;75
.n 4 e_Text.PPrint_dpretty;75 e_Text.PPrint_eapretty;75
.o 1 0 
e_Text.PPrint_npretty;75
	push_node _cycle_in_spine 4
.o 5 0 
e_Text.PPrint_eapretty;75
	push_jsr_eval 3
	repl_args 3 3
	jsr_eval 5
	jsr_eval 4
	jsr_eval 3
	push_r_args 5 1 0
	push_r_args 5 1 0
	push_r_args 5 1 0
	update3_a 3 7
	update3pop_a 0 4
.o 7 0 
e_Text.PPrint_spretty;75
.o 7 0 
s76
	buildh _Nil 0
	push_a2 6 3
	build e_system_dAP 2 e_system_nAP
	buildh _Cons 2
	push_a2 5 2
	build e_system_dAP 2 e_system_nAP
	buildh _Cons 2
	push_a2 4 1
	build e_system_dAP 2 e_system_nAP
	buildh _Cons 2
	updatepop_a 0 6
.d 2 0 
	jmp s113
.export e_Text.PPrint_spretty;74
.export e_Text.PPrint_eapretty;74
.descexp e_Text.PPrint_dpretty;74 e_Text.PPrint_npretty;74 e_Text.PPrint_lpretty;74 3 0 "pretty;74"
.o 3 0 
e_Text.PPrint_ipretty;74
	repl_args 2 2
	push_args 2 2 2
	jsr_eval 3
	push_r_args 3 1 0
	jsr_eval 3
	push_r_args 3 1 0
	update_a 3 6
	update3pop_a 0 3
.d 5 0 
	jmp s75
.ai 3 e_Text.PPrint_eapretty;74 e_Text.PPrint_ipretty;74
.o 2 0 
e_Text.PPrint_lpretty;74
	push_args 0 2 2
	update_a 3 2
	create 
.d 4 0 
	put_a_jmp 4 e_Text.PPrint_eapretty;74
.n 3 e_Text.PPrint_dpretty;74 e_Text.PPrint_eapretty;74
.o 1 0 
e_Text.PPrint_npretty;74
	push_node _cycle_in_spine 3
.o 4 0 
e_Text.PPrint_eapretty;74
	push_jsr_eval 2
	repl_args 2 2
	jsr_eval 3
	jsr_eval 2
	push_r_args 3 1 0
	push_r_args 3 1 0
	update_a 3 6
	update3pop_a 0 3
.o 5 0 
e_Text.PPrint_spretty;74
.o 5 0 
s75
	buildh _Nil 0
	push_a2 4 2
	build e_system_dAP 2 e_system_nAP
	buildh _Cons 2
	push_a2 3 1
	build e_system_dAP 2 e_system_nAP
	buildh _Cons 2
	updatepop_a 0 4
.d 2 0 
	jmp s113
.export e_Text.PPrint_spretty;73
.export e_Text.PPrint_eapretty;73
.descexp e_Text.PPrint_dpretty;73 e_Text.PPrint_npretty;73 e_Text.PPrint_lpretty;73 1 0 "pretty;73"
.o 3 0 
e_Text.PPrint_ipretty;73
	pop_a 1
	pushR_a 0
.d 1 1 r
	pop_a_jmp 1 s74
.ai 1 _ e_Text.PPrint_ipretty;73
.o 2 0 
e_Text.PPrint_lpretty;73
	update_a 1 0
	create 
.d 2 0 
	put_a_jmp 2 e_Text.PPrint_eapretty;73
.n 1 e_Text.PPrint_dpretty;73 e_Text.PPrint_eapretty;73
.o 1 0 
e_Text.PPrint_npretty;73
	push_node _cycle_in_spine 1
.o 2 0 
e_Text.PPrint_eapretty;73
	jsr_eval 0
	pushR_a 0
	pop_a 1
.o 1 1 r
e_Text.PPrint_spretty;73
.o 1 1 r
s74
.d 1 1 r
	jmp s50
.export e_Text.PPrint_spretty;72
.export e_Text.PPrint_eapretty;72
.descexp e_Text.PPrint_dpretty;72 e_Text.PPrint_npretty;72 e_Text.PPrint_lpretty;72 1 0 "pretty;72"
.o 3 0 
e_Text.PPrint_ipretty;72
	pop_a 1
	pushI0_pop_a1 
.d 1 1 i
	jmp s73
.ai 1 _ e_Text.PPrint_ipretty;72
.o 2 0 
e_Text.PPrint_lpretty;72
	update_a 1 0
	create 
.d 2 0 
	put_a_jmp 2 e_Text.PPrint_eapretty;72
.n 1 e_Text.PPrint_dpretty;72 e_Text.PPrint_eapretty;72
.o 1 0 
e_Text.PPrint_npretty;72
	push_node _cycle_in_spine 1
.o 2 0 
e_Text.PPrint_eapretty;72
	jsr_eval 0
	pushI0_pop_a1 
.o 1 1 i
e_Text.PPrint_spretty;72
.o 1 1 i
s73
.d 1 1 i
	jmp s49
.export e_Text.PPrint_spretty;71
.export e_Text.PPrint_eapretty;71
.descexp e_Text.PPrint_dpretty;71 e_Text.PPrint_npretty;71 e_Text.PPrint_lpretty;71 1 0 "pretty;71"
.o 3 0 
e_Text.PPrint_ipretty;71
	pop_a 1
	pushC0_pop_a1 
.d 1 1 c
	jmp s72
.ai 1 _ e_Text.PPrint_ipretty;71
.o 2 0 
e_Text.PPrint_lpretty;71
	update_a 1 0
	create 
.d 2 0 
	put_a_jmp 2 e_Text.PPrint_eapretty;71
.n 1 e_Text.PPrint_dpretty;71 e_Text.PPrint_eapretty;71
.o 1 0 
e_Text.PPrint_npretty;71
	push_node _cycle_in_spine 1
.o 2 0 
e_Text.PPrint_eapretty;71
	jsr_eval 0
	pushC0_pop_a1 
.o 1 1 c
e_Text.PPrint_spretty;71
.o 1 1 c
s72
.d 1 1 c
	jmp s58
.export e_Text.PPrint_spretty;70
.export e_Text.PPrint_eapretty;70
.descexp e_Text.PPrint_dpretty;70 e_Text.PPrint_npretty;70 e_Text.PPrint_lpretty;70 1 0 "pretty;70"
.o 3 0 
e_Text.PPrint_ipretty;70
	pop_a 1
	pushB0_pop_a1 
.d 1 1 b
	jmp s71
.ai 1 _ e_Text.PPrint_ipretty;70
.o 2 0 
e_Text.PPrint_lpretty;70
	update_a 1 0
	create 
.d 2 0 
	put_a_jmp 2 e_Text.PPrint_eapretty;70
.n 1 e_Text.PPrint_dpretty;70 e_Text.PPrint_eapretty;70
.o 1 0 
e_Text.PPrint_npretty;70
	push_node _cycle_in_spine 1
.o 2 0 
e_Text.PPrint_eapretty;70
	jsr_eval 0
	pushB0_pop_a1 
.o 1 1 b
e_Text.PPrint_spretty;70
.o 1 1 b
s71
.d 1 1 b
	jmp s48
.export e_Text.PPrint_spretty;69
.export e_Text.PPrint_eapretty;69
.descexp e_Text.PPrint_dpretty;69 e_Text.PPrint_npretty;69 e_Text.PPrint_lpretty;69 1 0 "pretty;69"
.o 3 0 
e_Text.PPrint_ipretty;69
.d 2 0 
	pop_a_jmp 1 s70
.ai 1 _ e_Text.PPrint_ipretty;69
.o 2 0 
e_Text.PPrint_lpretty;69
	update_a 1 0
	create 
.d 2 0 
	put_a_jmp 2 e_Text.PPrint_eapretty;69
.n 1 e_Text.PPrint_dpretty;69 e_Text.PPrint_eapretty;69
.o 1 0 
e_Text.PPrint_npretty;69
	push_node _cycle_in_spine 1
.o 2 0 
e_Text.PPrint_eapretty;69
	jsr_eval 0
.o 2 0 
e_Text.PPrint_spretty;69
.o 2 0 
s70
.d 1 0 
	fill_a01_pop_rtn 
.export e_Text.PPrint_spretty;68
.export e_Text.PPrint_eapretty;68
.descexp e_Text.PPrint_dpretty;68 e_Text.PPrint_npretty;68 e_Text.PPrint_lpretty;68 2 0 "pretty;68"
.o 3 0 
e_Text.PPrint_ipretty;68
	repl_args 1 1
	jsr_eval 0
	push_r_args 0 1 0
.d 3 0 
	put_a_jmp 1 s69
.ai 2 e_Text.PPrint_eapretty;68 e_Text.PPrint_ipretty;68
.o 2 0 
e_Text.PPrint_lpretty;68
	push_args 0 1 1
	update_a 2 1
	create 
.d 3 0 
	put_a_jmp 3 e_Text.PPrint_eapretty;68
.n 2 e_Text.PPrint_dpretty;68 e_Text.PPrint_eapretty;68
.o 1 0 
e_Text.PPrint_npretty;68
	push_node _cycle_in_spine 2
.o 3 0 
e_Text.PPrint_eapretty;68
	jsr_eval 1
	jsr_eval 0
	repl_r_args 1 0
.o 3 0 
e_Text.PPrint_spretty;68
.o 3 0 
s69
	push_a 0
	create 
	updates2_a 0 3 2
.d 3 0 
	pop_a_jsr 1 e_StdList_smap
.o 1 0 
.d 2 0 
	jmp s114
.export e_Text.PPrint_sdisplay
.descexp e_Text.PPrint_ddisplay e_Text.PPrint_ndisplay e_Text.PPrint_ldisplay 1 0 "display"
.o 2 0 
e_Text.PPrint_ldisplay
.d 1 0 
	pop_a_jsr 1 ea68
.o 1 0 
	buildh ARRAY 1
.d 1 0 
	rtn 
.n 1 e_Text.PPrint_ddisplay
.o 1 0 
e_Text.PPrint_ndisplay
	push_node _cycle_in_spine 1
.d 1 0 
	jsr ea68
.o 1 0 
	fillh ARRAY 1 1
.d 1 0 
	rtn 
.o 1 0 
ea68
	jsr_eval 0
.o 1 0 
e_Text.PPrint_sdisplay
.o 1 0 
s68
.d 1 0 
	push_a_jsr 0 s96
.o 0 1 i
	pushC '\000'
	swap_b1 
	create_array CHAR 0 1
	buildI 0
	swap_a 2
.d 3 0 
	jmp s103
.o 1 0 
s96
	pushD_a 0
	jmpD be e_Text.PPrint_dSChar 2 case.3 case.4
	jmp_eqD_b e_Text.PPrint_kSText 0 case.5
	jmp case.6
case.3
	pop_b 1
	pushI 0
.d 0 1 i
	pop_a_rtn 1
case.4
	pop_b 1
	repl_arg 2 2
	jsr_eval 0
.d 1 0 
	jsr s96
.o 0 1 i
	incI
.d 0 1 i
	rtn 
case.5
	pop_b 1
	repl_r_args 2 1
	pop_b 1
	push_jsr_eval 1
	update2pop_a 0 1
.d 1 0 
	jsr s96
.o 0 1 i
	jsr_eval 0
	push_a 0
	push_array 0
	updatepop_a 0 2
	push_arraysize CHAR 0 1
	addI
.d 0 1 i
	rtn 
case.6
	pop_b 1
	repl_r_args 1 1
	jsr_eval 0
.d 1 0 
	jsr s96
.o 0 1 i
	push_b_incI 1
	update2pop_b 0 1
	addI
.d 0 1 i
	rtn 
.o 3 0 
s103
	pushD_a 0
	jmpD be e_Text.PPrint_dSChar 2 case.7 case.8
	jmp_eqD_b e_Text.PPrint_kSText 0 case.9
	jmp case.10
case.7
	pop_b 1
	updatepop_a 1 2
.d 1 0 
	rtn 
case.8
	pop_b 1
	repl_args 2 2
	buildI 1
	push_a 4
	build e_StdInt_d+;6 2 e_StdInt_n+;6
	push_jsr_eval 1
	pushC_a 2
	update_a 5 0
	jsr_eval 0
	pushI_a 5
	update_a 4 0
	buildh0_dup2_a _Nil 5
	put_a 3
	update CHAR 0 1
	push_jsr_eval 3
	update3pop_a 0 4
.d 3 0 
	jmp s103
case.9
	pop_b 1
	repl_r_args 2 1
	pop_b 1
	push_a2 0 3
	build e_Text.PPrint_d_f12.178 2 e_Text.PPrint_n_f12.178
	push_jsr_eval 1
	push_array 0
	put_a 1
	push_arraysize CHAR 0 1
	push_a2 3 1
	push_a 6
	pushI 0
	buildh0_dup2_a _Nil 7
	put_a 5
.d 3 2 ii
	jsr s104
.o 1 0 
	push_jsr_eval 3
	update3pop_a 0 4
.d 3 0 
	jmp s103
case.10
	pop_b 1
	repl_r_args 1 1
	push_ab 2 0
	build_u e_Text.PPrint_d_f14.180 1 1 e_Text.PPrint_n_f14.180
	push_b 0
	build_u e_Text.PPrint_d_f13.179 0 1 e_Text.PPrint_n_f13.179
	incI
	push_a2 0 4
	update_a 5 2
	pushI 0
	buildh0_dup2_a _Nil 6
.d 3 2 ii
	pop_a_jsr 1 s104
.o 1 0 
	push_jsr_eval 2
	update3pop_a 0 3
.d 3 0 
	jmp s103
.export e_Text.PPrint_d_f14.180
.export e_Text.PPrint_n_f14.180
.descn e_Text.PPrint_d_f14.180 e_Text.PPrint_n_f14.180 2 0 "_f14.180"
.nu 1 1 e_Text.PPrint_d_f14.180 _
.o 1 0 
e_Text.PPrint_n_f14.180
	push_node_u _cycle_in_spine 1 1
.o 2 1 i
ea180
.o 2 1 i
s180
	jsr_eval 0
	pushI_a 0
	push_b 0
	update_b 2 1
	addI
	pushI 1
	put_b 2
	pop_a 1
	addI
	fillI_b 0 0
.d 1 0 
	pop_b_rtn 1
.export e_Text.PPrint_d_f13.179
.export e_Text.PPrint_n_f13.179
.descn e_Text.PPrint_d_f13.179 e_Text.PPrint_n_f13.179 1 0 "_f13.179"
.nu 0 1 e_Text.PPrint_d_f13.179 _
.o 1 0 
e_Text.PPrint_n_f13.179
	push_node_u _cycle_in_spine 0 1
.o 1 1 i
ea179
.o 1 1 i
s179
	incI
.d 0 1 i
	jsr s85
.o 1 0 
	pushC '\012'
	pushI 0
	update CHAR 0 1
	fillh ARRAY 1 1
.d 1 0 
	rtn 
.export e_Text.PPrint_d_f12.178
.export e_Text.PPrint_n_f12.178
.descn e_Text.PPrint_d_f12.178 e_Text.PPrint_n_f12.178 2 0 "_f12.178"
.n 2 e_Text.PPrint_d_f12.178 ea178
.o 1 0 
e_Text.PPrint_n_f12.178
	push_node _cycle_in_spine 2
.o 3 0 
ea178
.o 3 0 
s178
	push_jsr_eval 1
	push_array 0
	updates2pop_a 0 2 3
	push_arraysize CHAR 0 1
	jsr_eval 0
	pushI0_pop_a1 
	addI
	fillI_b 0 0
.d 1 0 
	pop_b_rtn 1
.o 3 2 ii
s104
	push2_b 1
	jmp_neI else.11
.d 1 0 
	pop_ab_rtn 2 2
else.11
	push_jsr_eval 1
	push_array 0
	put_a 1
	push_b 0
	select CHAR 0 1
	jsr_eval 0
	pushI_a 0
	push_b 0
	update_b 3 1
	addI
	push_a 2
	buildh0_put_a _Nil 4
	update CHAR 0 1
	incI
.d 3 2 ii
	put_a_jmp 3 s104
.export e_Text.PPrint_srenderCompact
.export e_Text.PPrint_earenderCompact
.descexp e_Text.PPrint_drenderCompact e_Text.PPrint_nrenderCompact e_Text.PPrint_lrenderCompact 1 0 "renderCompact"
.o 2 0 
e_Text.PPrint_lrenderCompact
	update_a 1 0
	create 
.d 2 0 
	put_a_jmp 2 e_Text.PPrint_earenderCompact
.n 1 e_Text.PPrint_drenderCompact e_Text.PPrint_earenderCompact
.o 1 0 
e_Text.PPrint_nrenderCompact
	push_node _cycle_in_spine 1
.o 2 0 
e_Text.PPrint_earenderCompact
	jsr_eval 0
.o 2 0 
e_Text.PPrint_srenderCompact
.o 2 0 
s67
	buildh _Nil 0
	push_a 1
	buildh _Cons 2
	buildI 0
	update2pop_a 0 1
.d 3 0 
	jmp s95
.export e_Text.PPrint_dscan;95.95
.export e_Text.PPrint_nscan;95.95
.descn e_Text.PPrint_dscan;95.95 e_Text.PPrint_nscan;95.95 2 0 "scan;95.95"
.n 2 e_Text.PPrint_dscan;95.95 ea95
.o 1 0 
e_Text.PPrint_nscan;95.95
	push_node _cycle_in_spine 2
.o 3 0 
ea95
	jsr_eval 1
.o 3 0 
s95
	jmp_ne_desc _Nil 0 1 case.13
	fillh e_Text.PPrint_dSEmpty 0 2
.d 1 0 
	pop_a_rtn 2
case.13
	push_args 1 2 2
	buildh0_put_a _Nil 4
	jsr_eval 0
	updates2pop_a 0 1 3
s110
	pushD_a 0
	jmpD be e_Text.PPrint_dChar 1 case.14 case.15
	jmpD be e_Text.PPrint_kLine 0 case.16 case.17
	jmpD be e_Text.PPrint_kNest 0 case.18 case.19
	jmpD be e_Text.PPrint_dColumn 1 case.20 case.21
	jmp case.22
case.14
	pop_b 1
	push_jsr_eval 2
	dup_a 3
.d 3 0 
	pop_a_jmp 2 s95
case.15
	pop_b 1
	repl_args 1 1
	buildI 1
	push_a 2
	build e_StdInt_d+;6 2 e_StdInt_n+;6
	push_update_a 0 3
	build e_Text.PPrint_dscan;95.95 2 e_Text.PPrint_nscan;95.95
	push_a 1
	fillh e_Text.PPrint_dSChar 2 5
.d 1 0 
	pop_a_rtn 3
case.16
	pop_b 1
	repl_r_args 1 1
	buildI_b 0
	push_a 2
	build e_StdInt_d+;6 2 e_StdInt_n+;6
	push_update_a 0 3
	build e_Text.PPrint_dscan;95.95 2 e_Text.PPrint_nscan;95.95
	push_ab 1 0
	fill_r e_Text.PPrint_kSText 2 1 5 0 0
.d 1 0 
	pop_ab_rtn 5 2
case.17
	pop_b 1
	update_a 2 0
	buildI 0
	build e_Text.PPrint_dscan;95.95 2 e_Text.PPrint_nscan;95.95
	pushI 0
	fill_r e_Text.PPrint_kSLine 1 1 3 0 0
.d 1 0 
	pop_ab_rtn 3 1
case.18
	pop_b 1
	repl_args 2 2
	buildho2 _Cons 1 3
	push_a 1
	buildh _Cons 2
	dup_a 4
.d 3 0 
	pop_a_jmp 3 s95
case.19
	pop_b 1
	repl_r_args 1 1
	pop_b 1
	buildho2 _Cons 0 2
	dup_a 3
.d 3 0 
	pop_a_jmp 2 s95
case.20
	pop_b 1
	repl_args 2 2
	push_a 1
	update_a 4 1
	buildh _Cons 2
	dup_a 3
.d 3 0 
	pop_a_jmp 2 s95
case.21
	pop_b 1
	repl_args 1 1
	push3_a 2
	build e_system_dAP 2 e_system_nAP
	buildh _Cons 2
	dup_a 3
.d 3 0 
	pop_a_jmp 2 s95
case.22
	pop_b 1
	repl_args 1 1
	push_a 2
	buildI 0
	push_a 2
	build e_system_dAP 2 e_system_nAP
	buildh _Cons 2
	dup_a 3
.d 3 0 
	pop_a_jmp 2 s95
.export e_Text.PPrint_srenderPretty
.export e_Text.PPrint_earenderPretty
.descexp e_Text.PPrint_drenderPretty e_Text.PPrint_nrenderPretty e_Text.PPrint_lrenderPretty 3 0 "renderPretty"
.a 3 e_Text.PPrint_earenderPretty
.o 2 0 
e_Text.PPrint_lrenderPretty
	push_args 0 2 2
	update_a 3 2
	create 
.d 4 0 
	put_a_jmp 4 e_Text.PPrint_earenderPretty
.n 3 e_Text.PPrint_drenderPretty e_Text.PPrint_earenderPretty
.o 1 0 
e_Text.PPrint_nrenderPretty
	push_node _cycle_in_spine 3
.o 4 0 
e_Text.PPrint_earenderPretty
	jsr_eval 2
.o 4 0 
e_Text.PPrint_srenderPretty
.o 4 0 
s66
	buildI 0
	push_a2 1 2
	build e_Text.PPrint_d_f0.166 2 e_Text.PPrint_n_f0.166
	push_a2 0 3
	build e_Text.PPrint_d_f1.167 2 e_Text.PPrint_n_f1.167
	buildh e_Text.PPrint_dNil 0
	push_a 6
	pushI 0
	buildhr e_Text.PPrint_kCons 2 1
	push_a2 1 3
	build e_Text.PPrint_d_f2.168 2 e_Text.PPrint_n_f2.168
	buildI 0
	buildI 0
	update_a 3 9
	dup_a 7
	update_a 2 6
	updates2_a 1 8 5
.d 6 0 
	pop_a_jmp 5 s93
.export e_Text.PPrint_d_f2.168
.export e_Text.PPrint_n_f2.168
.descn e_Text.PPrint_d_f2.168 e_Text.PPrint_n_f2.168 2 0 "_f2.168"
.n 2 e_Text.PPrint_d_f2.168 ea168
.o 1 0 
e_Text.PPrint_n_f2.168
	push_node _cycle_in_spine 2
.o 3 0 
ea168
.o 3 0 
s168
	push_jsr_eval 1
	pushI_a 2
	pop_a 1
	pushI_a 0
	ltI
	swap_a1 
.d 2 1 b
	jsr s109
.o 0 1 i
	fillI_b 0 0
.d 1 0 
	pop_b_rtn 1
.export e_Text.PPrint_d_f1.167
.export e_Text.PPrint_n_f1.167
.descn e_Text.PPrint_d_f1.167 e_Text.PPrint_n_f1.167 2 0 "_f1.167"
.n 2 e_Text.PPrint_d_f1.167 ea167
.o 1 0 
e_Text.PPrint_n_f1.167
	push_node _cycle_in_spine 2
.o 3 0 
ea167
.o 3 0 
s167
	push_jsr_eval 1
	pushI_a 2
	pop_a 1
	jsr_eval 0
	pushI_a 0
	ltI
.d 2 1 b
	jsr s108
.o 0 1 i
	fillI_b 0 0
.d 1 0 
	pop_b_rtn 1
.export e_Text.PPrint_d_f0.166
.export e_Text.PPrint_n_f0.166
.descn e_Text.PPrint_d_f0.166 e_Text.PPrint_n_f0.166 2 0 "_f0.166"
.n 2 e_Text.PPrint_d_f0.166 ea166
.o 1 0 
e_Text.PPrint_n_f0.166
	push_node _cycle_in_spine 2
.o 3 0 
ea166
.o 3 0 
s166
	push_jsr_eval 1
	pushR_a 2
	pop_a 1
	jsr_eval 0
	pushI_a 0
	ItoR
	mulR
	pop_a 2
	RtoI
	fillI_b 0 0
.d 1 0 
	pop_b_rtn 1
.o 2 1 b
s109
	eqB_b TRUE 0
	jmp_false case.24
	pop_b 1
	jsr_eval 0
	pushI_a 0
.d 0 1 i
	pop_a_rtn 2
case.24
	pop_b 1
	pushI_a 1
.d 0 1 i
	pop_a_rtn 2
.o 2 1 b
s108
	eqB_b TRUE 0
	jmp_false case.26
	pop_b 1
	jsr_eval 0
	pushI_a 0
.d 0 1 i
	pop_a_rtn 2
case.26
	pop_b 1
	pop_a 1
	jsr_eval 0
	pushI0_pop_a1 
.d 0 1 i
	rtn 
.export e_Text.PPrint_dbest;93.93
.export e_Text.PPrint_nbest;93.93
.descn e_Text.PPrint_dbest;93.93 e_Text.PPrint_nbest;93.93 5 0 "best;93.93"
.n 5 e_Text.PPrint_dbest;93.93 ea93
.o 1 0 
e_Text.PPrint_nbest;93.93
	push_node _cycle_in_spine 5
.o 6 0 
ea93
	jsr_eval 4
.o 6 0 
s93
	jmp_ne_desc e_Text.PPrint_dNil 0 4 case.28
	fillh e_Text.PPrint_dSEmpty 0 5
.d 1 0 
	pop_a_rtn 5
case.28
	push_r_args 4 2 1
	buildh0_put_a _Nil 7
	jsr_eval 0
	updates2pop_a 0 1 6
s107
	pushD_a 0
	jmpD be e_Text.PPrint_dChar 1 case.29 case.30
	jmpD be e_Text.PPrint_kLine 0 case.31 case.32
	jmpD be e_Text.PPrint_kNest 0 case.33 case.34
	jmpD be e_Text.PPrint_dColumn 1 case.35 case.36
	jmp case.37
case.29
	pop_b 1
	push_jsr_eval 5
	dup_a 6
	pop_b 1
.d 6 0 
	pop_a_jmp 2 s93
case.30
	pop_b 1
	repl_args 1 1
	buildI 1
	push_a 5
	build e_StdInt_d+;6 2 e_StdInt_n+;6
	push_a 0
	push3_a 5
	update_a 10 4
	build e_Text.PPrint_dbest;93.93 5 e_Text.PPrint_nbest;93.93
	push_a 1
	fillh e_Text.PPrint_dSChar 2 8
.d 1 0 
	pop_ab_rtn 6 1
case.31
	pop_b 1
	repl_r_args 1 1
	buildI_b 0
	push_a 5
	build e_StdInt_d+;6 2 e_StdInt_n+;6
	push_a 0
	push3_a 5
	update_a 10 4
	build e_Text.PPrint_dbest;93.93 5 e_Text.PPrint_nbest;93.93
	push_ab 1 0
	fill_r e_Text.PPrint_kSText 2 1 8 0 0
.d 1 0 
	pop_ab_rtn 8 3
case.32
	pop_b 1
	update_a 5 0
	buildI_b 0
	buildI_b 0
	push2_a 4
	build e_Text.PPrint_dbest;93.93 5 e_Text.PPrint_nbest;93.93
	push_b 0
	fill_r e_Text.PPrint_kSLine 1 1 6 0 0
.d 1 0 
	pop_ab_rtn 6 2
case.33
	pop_b 1
	repl_args 2 2
	push_a2 6 1
	push_b 0
	buildhr e_Text.PPrint_kCons 2 1
	push_ab 1 0
	buildhr e_Text.PPrint_kCons 2 1
	dup_a 7
	pop_b 1
.d 6 0 
	pop_a_jmp 3 s93
case.34
	pop_b 1
	repl_r_args 1 1
	push_b2 0 1
	addI
	push_a2 5 0
	buildhr e_Text.PPrint_kCons 2 1
	dup_a 6
	pop_b 2
.d 6 0 
	pop_a_jmp 2 s93
case.35
	pop_b 1
	repl_args 2 2
	push_a2 6 1
	push_b 0
	buildhr e_Text.PPrint_kCons 2 1
	push3_a 6
	push_a 6
	build e_Text.PPrint_dbest;93.93 5 e_Text.PPrint_nbest;93.93
	push_a2 7 1
	push_b 0
	buildhr e_Text.PPrint_kCons 2 1
	push3_a 7
	push_a 7
	build e_Text.PPrint_dbest;93.93 5 e_Text.PPrint_nbest;93.93
	push_jsr_eval 7
	pushI_a 8
	update_a 7 0
	jsr_eval 0
	pushI_a 7
	update_a 6 0
	jsr_eval 0
	pushI_a 6
	update_a 5 0
	jsr_eval 0
	pushI_a 5
	update2pop_a 1 8
	update_b 3 4
	update3pop_b 0 1
.d 3 4 iiii
	jmp s94
case.36
	pop_b 1
	repl_args 1 1
	push_a2 4 0
	build e_system_dAP 2 e_system_nAP
	push_update_a 0 6
	push_b 0
	buildhr e_Text.PPrint_kCons 2 1
	dup_a 6
	pop_b 1
.d 6 0 
	pop_a_jmp 2 s93
case.37
	pop_b 1
	repl_args 1 1
	buildI_b 0
	push_a 1
	build e_system_dAP 2 e_system_nAP
	push_update_a 0 6
	push_b 0
	buildhr e_Text.PPrint_kCons 2 1
	dup_a 6
	pop_b 1
.d 6 0 
	pop_a_jmp 2 s93
.o 3 4 iiii
s94
	push_b 0
	update_b 4 1
	subI
	push_b2 3 1
	subI
	push_b 0
	update_b 4 1
	addI
	push_b2 0 1
	ltI
	update_b 1 5
	update_b 2 4
	updatepop_b 0 3
.d 0 3 bii
	jsr s106
.o 0 1 i
.d 1 1 i
	push_a_jsr 0 s84
.o 0 1 b
	jmp_false else.38
	put_a 1
	jmp_eval_upd
else.38
	pop_a 1
	jmp_eval_upd
.o 0 3 bii
s106
	eqB_b TRUE 0
	jmp_false case.40
	updatepop_b 1 2
.d 0 1 i
	rtn 
case.40
.d 0 1 i
	pop_b_rtn 2
.o 1 1 i
s84
	pushI 0
	jmp_o_geI 1 else.42
	pop_b_pushB 1 FALSE
.d 0 1 b
	pop_a_rtn 1
else.42
	jmp fail.41
fail.41
	jsr_eval 0
	pushD_a 0
	jmpD be e_Text.PPrint_dSChar 2 case.43 case.44
	jmp_eqD_b e_Text.PPrint_kSText 0 case.45
	jmp case.46
case.43
	pop_b 2
	pushB TRUE
.d 0 1 b
	pop_a_rtn 1
case.44
	pop_b 1
	repl_arg 2 2
	decI
.d 1 1 i
	jmp s84
case.45
	pop_b 1
	repl_r_args 2 1
	pop_a 1
	push_b2 0 1
	subI
	updatepop_b 0 2
.d 1 1 i
	jmp s84
case.46
	pop_b 1
	repl_r_args 1 1
	pop_b_pushB 2 TRUE
.d 0 1 b
	pop_a_rtn 1
.export e_Text.PPrint_sindent
.export e_Text.PPrint_eaindent
.descexp e_Text.PPrint_dindent e_Text.PPrint_nindent e_Text.PPrint_lindent 2 0 "indent"
.a 2 e_Text.PPrint_eaindent
.o 2 0 
e_Text.PPrint_lindent
	push_args 0 1 1
	update_a 2 1
	create 
.d 3 0 
	put_a_jmp 3 e_Text.PPrint_eaindent
.n 2 e_Text.PPrint_dindent e_Text.PPrint_eaindent
.o 1 0 
e_Text.PPrint_nindent
	push_node _cycle_in_spine 2
.o 3 0 
e_Text.PPrint_eaindent
.o 3 0 
e_Text.PPrint_sindent
.o 3 0 
s54
	buildo1 e_Text.PPrint_n_f3.169 0
	push_update_a 0 2
	build e_Text.PPrint_d<-> 2 e_Text.PPrint_n<->
.d 3 0 
	put_a_jmp 2 s55
.export e_Text.PPrint_d_f3.169
.export e_Text.PPrint_n_f3.169
.descn e_Text.PPrint_d_f3.169 e_Text.PPrint_n_f3.169 1 0 "_f3.169"
.n 1 e_Text.PPrint_d_f3.169 ea169
.o 1 0 
e_Text.PPrint_n_f3.169
	push_node _cycle_in_spine 1
.o 2 0 
ea169
.o 2 0 
s169
	jsr_eval 0
	pushI0_pop_a1 
.d 0 1 i
	jsr s85
.o 1 0 
.d 2 0 
	jmp s59
.export e_Text.PPrint_shang
.export e_Text.PPrint_eahang
.descexp e_Text.PPrint_dhang e_Text.PPrint_nhang e_Text.PPrint_lhang 2 0 "hang"
.a 2 e_Text.PPrint_eahang
.o 2 0 
e_Text.PPrint_lhang
	push_args 0 1 1
	update_a 2 1
	create 
.d 3 0 
	put_a_jmp 3 e_Text.PPrint_eahang
.n 2 e_Text.PPrint_dhang e_Text.PPrint_eahang
.o 1 0 
e_Text.PPrint_nhang
	push_node _cycle_in_spine 2
.o 3 0 
e_Text.PPrint_eahang
.o 3 0 
e_Text.PPrint_shang
.o 3 0 
s55
	push2_a 1
	build e_Text.PPrint_dnest 2 e_Text.PPrint_nnest
	updatepop_a 0 2
.d 2 0 
	jmp s56
.export e_Text.PPrint_sfill
.export e_Text.PPrint_eafill
.descexp e_Text.PPrint_dfill e_Text.PPrint_nfill e_Text.PPrint_lfill 2 0 "fill"
.a 2 e_Text.PPrint_eafill
.o 2 0 
e_Text.PPrint_lfill
	push_args 0 1 1
	update_a 2 1
	create 
.d 3 0 
	put_a_jmp 3 e_Text.PPrint_eafill
.n 2 e_Text.PPrint_dfill e_Text.PPrint_eafill
.o 1 0 
e_Text.PPrint_nfill
	push_node _cycle_in_spine 2
.o 3 0 
e_Text.PPrint_eafill
.o 3 0 
e_Text.PPrint_sfill
.o 3 0 
s52
	push_a 0
	buildh e_Text.PPrint_d\;275;28;88.89 1
	updates2_a 0 2 1
.d 3 0 
	pop_a_jmp 1 s53
.export e_Text.PPrint_d\;275;28;88.89
.desc e_Text.PPrint_d\;275;28;88.89 _hnf l89 2 0 "\;275;28;88.89"
.a 2 ea89
.o 2 0 
l89
	push_args 0 1 1
	update_a 2 1
	create 
	put_a 3
.o 3 0 
ea89
	jsr_eval 1
	jsr_eval 0
	pushI_a 1
	pushI_a 0
	pop_a 2
.o 1 2 ii
s89
	push_b2 0 1
	jmp_ltI else.47
.d 1 0 
	pop_b_jmp 2 s57
else.47
	push2_b 1
	subI
	updatepop_b 0 2
.d 0 1 i
	jsr s85
.o 1 0 
.d 2 0 
	jmp s59
.export e_Text.PPrint_sfillBreak
.export e_Text.PPrint_eafillBreak
.descexp e_Text.PPrint_dfillBreak e_Text.PPrint_nfillBreak e_Text.PPrint_lfillBreak 2 0 "fillBreak"
.a 2 e_Text.PPrint_eafillBreak
.o 2 0 
e_Text.PPrint_lfillBreak
	push_args 0 1 1
	update_a 2 1
	create 
.d 3 0 
	put_a_jmp 3 e_Text.PPrint_eafillBreak
.n 2 e_Text.PPrint_dfillBreak e_Text.PPrint_eafillBreak
.o 1 0 
e_Text.PPrint_nfillBreak
	push_node _cycle_in_spine 2
.o 3 0 
e_Text.PPrint_eafillBreak
.o 3 0 
e_Text.PPrint_sfillBreak
.o 3 0 
s51
	push_a 0
	buildh e_Text.PPrint_d\;270;28;87.88 1
	updates2_a 0 2 1
.d 3 0 
	pop_a_jmp 1 s53
.export e_Text.PPrint_d\;270;28;87.88
.desc e_Text.PPrint_d\;270;28;87.88 _hnf l88 2 0 "\;270;28;87.88"
.a 2 ea88
.o 2 0 
l88
	push_args 0 1 1
	update_a 2 1
	create 
	put_a 3
.o 3 0 
ea88
	jsr_eval 1
	jsr_eval 0
	pushI_a 1
	pushI_a 0
	pop_a 2
.o 1 2 ii
s88
	push2_b 1
	jmp_geI else.48
	build e_Text.PPrint_dlinebreak 0 e_Text.PPrint_nlinebreak
.d 2 1 i
	put_b_jmp 1 s63
else.48
	push2_b 1
	subI
	updatepop_b 0 2
.d 0 1 i
	jsr s85
.o 1 0 
.d 2 0 
	jmp s59
.o 0 1 i
s85
	pushC ' '
	swap_b1 
	create_array CHAR 0 1
.d 1 0 
	rtn 
.export e_Text.PPrint_swidth
.export e_Text.PPrint_eawidth
.descexp e_Text.PPrint_dwidth e_Text.PPrint_nwidth e_Text.PPrint_lwidth 2 0 "width"
.a 2 e_Text.PPrint_eawidth
.o 2 0 
e_Text.PPrint_lwidth
	push_args 0 1 1
	update_a 2 1
	create 
.d 3 0 
	put_a_jmp 3 e_Text.PPrint_eawidth
.n 2 e_Text.PPrint_dwidth e_Text.PPrint_eawidth
.o 1 0 
e_Text.PPrint_nwidth
	push_node _cycle_in_spine 2
.o 3 0 
e_Text.PPrint_eawidth
.o 3 0 
e_Text.PPrint_swidth
.o 3 0 
s53
	buildho2 e_Text.PPrint_d\;280;27;90.90 1 0
	updatepop_a 0 2
.d 2 0 
	jmp s64
.export e_Text.PPrint_d\;280;27;90.90
.desc e_Text.PPrint_d\;280;27;90.90 _hnf l90 3 0 "\;280;27;90.90"
.a 3 ea90
.o 2 0 
l90
	push_args 0 2 2
	update_a 3 2
	create 
	put_a 4
.o 4 0 
ea90
.o 4 0 
s90
	buildho2 e_Text.PPrint_d\;280;48;157.102 0 2
	build e_Text.PPrint_dcolumn 1 e_Text.PPrint_ncolumn
	dup_a 3
.d 3 0 
	pop_a_jmp 2 s15
.export e_Text.PPrint_d\;280;48;157.102
.desc e_Text.PPrint_d\;280;48;157.102 _hnf l102 3 0 "\;280;48;157.102"
.a 0 ea102
.o 2 0 
l102
	repl_args 2 2
.o 3 0 
ea102
	jsr_eval 0
.o 3 0 
s102
	push_a2 1 2
	build e_StdInt_d-;7 2 e_StdInt_n-;7
	dup_a 3
	updatepop_a 1 2
	jmp_ap 1
.export e_Text.PPrint_sreal
.export e_Text.PPrint_eareal
.descexp e_Text.PPrint_dreal e_Text.PPrint_nreal e_Text.PPrint_lreal 1 0 "real"
.o 2 0 
e_Text.PPrint_lreal
	update_a 1 0
	create 
.d 2 0 
	put_a_jmp 2 e_Text.PPrint_eareal
.n 1 e_Text.PPrint_dreal e_Text.PPrint_eareal
.o 1 0 
e_Text.PPrint_nreal
	push_node _cycle_in_spine 1
.o 2 0 
e_Text.PPrint_eareal
	jsr_eval 0
	pushR_a 0
	pop_a 1
.o 1 1 r
e_Text.PPrint_sreal
.o 1 1 r
s50
.d 0 1 r
	jsr RtoAC
.o 1 0 
.d 2 0 
	jmp s59
.export e_Text.PPrint_sint
.export e_Text.PPrint_eaint
.descexp e_Text.PPrint_dint e_Text.PPrint_nint e_Text.PPrint_lint 1 0 "int"
.o 2 0 
e_Text.PPrint_lint
	update_a 1 0
	create 
.d 2 0 
	put_a_jmp 2 e_Text.PPrint_eaint
.n 1 e_Text.PPrint_dint e_Text.PPrint_eaint
.o 1 0 
e_Text.PPrint_nint
	push_node _cycle_in_spine 1
.o 2 0 
e_Text.PPrint_eaint
	jsr_eval 0
	pushI0_pop_a1 
.o 1 1 i
e_Text.PPrint_sint
.o 1 1 i
s49
.d 0 1 i
	jsr ItoAC
.o 1 0 
.d 2 0 
	jmp s59
.export e_Text.PPrint_sbool
.export e_Text.PPrint_eabool
.descexp e_Text.PPrint_dbool e_Text.PPrint_nbool e_Text.PPrint_lbool 1 0 "bool"
.o 2 0 
e_Text.PPrint_lbool
	update_a 1 0
	create 
.d 2 0 
	put_a_jmp 2 e_Text.PPrint_eabool
.n 1 e_Text.PPrint_dbool e_Text.PPrint_eabool
.o 1 0 
e_Text.PPrint_nbool
	push_node _cycle_in_spine 1
.o 2 0 
e_Text.PPrint_eabool
	jsr_eval 0
	pushB0_pop_a1 
.o 1 1 b
e_Text.PPrint_sbool
.o 1 1 b
s48
.d 0 1 b
	jsr BtoAC
.o 1 0 
.d 2 0 
	jmp s59
.export e_Text.PPrint_sstring
.export e_Text.PPrint_eastring
.descexp e_Text.PPrint_dstring e_Text.PPrint_nstring e_Text.PPrint_lstring 1 0 "string"
.o 2 0 
e_Text.PPrint_lstring
	update_a 1 0
	create 
.d 2 0 
	put_a_jmp 2 e_Text.PPrint_eastring
.n 1 e_Text.PPrint_dstring e_Text.PPrint_eastring
.o 1 0 
e_Text.PPrint_nstring
	push_node _cycle_in_spine 1
.o 2 0 
e_Text.PPrint_eastring
	jsr_eval 0
	push_array 0
	put_a 1
.o 2 0 
e_Text.PPrint_sstring
.o 2 0 
s47
	build e_Text.PPrint_dempty 0 e_Text.PPrint_nempty
	push_arraysize_a CHAR 0 1 1
	pushI 0
	buildI 0
	push_a 2
	buildh ARRAY 1
	update3pop_a 0 1
s87
	push2_b 1
	jmp_neI else.49
	push_b 0
	push2_a 1
	build_u e_Text.PPrint_d_f10.176 2 1 e_Text.PPrint_n_f10.176
	updates2_a 0 3 2
	pop_b 2
.d 3 0 
	pop_a_jmp 2 s15
else.49
	jsr_eval 0
	push_a 0
	push_array 0
	put_a 1
	push_b 0
	select CHAR 0 1
	jmp_neCc '\012' else.50
	build e_Text.PPrint_dline 0 e_Text.PPrint_nline
	push_b 0
	push2_a 2
	build_u e_Text.PPrint_d_f11.177 2 1 e_Text.PPrint_n_f11.177
	build e_Text.PPrint_d<-> 2 e_Text.PPrint_n<->
	push_a 3
	build e_Text.PPrint_d<-> 2 e_Text.PPrint_n<->
	push_b_incI 0
	buildI 1
	buildI_b 1
	build e_StdInt_d+;6 2 e_StdInt_n+;6
	put_b 1
	update2_a 0 3
.d 4 2 ii
	pop_a_jmp 2 s87
else.50
	incI
.d 4 2 ii
	jmp s87
.export e_Text.PPrint_d_f11.177
.export e_Text.PPrint_n_f11.177
.descn e_Text.PPrint_d_f11.177 e_Text.PPrint_n_f11.177 3 0 "_f11.177"
.nu 2 1 e_Text.PPrint_d_f11.177 _
.o 1 0 
e_Text.PPrint_n_f11.177
	push_node_u _cycle_in_spine 2 1
.o 3 1 i
ea177
.o 3 1 i
s177
	push_b_decI 0
	push_jsr_eval 1
	pushI_a 2
	pop_a 1
	jsr_eval 0
	push_a 0
	push_array 0
	updatepop_a 0 3
	update2pop_b 0 1
.d 1 2 ii
	jsr sliceAC
.o 1 0 
.d 2 0 
	jmp s59
.export e_Text.PPrint_d_f10.176
.export e_Text.PPrint_n_f10.176
.descn e_Text.PPrint_d_f10.176 e_Text.PPrint_n_f10.176 3 0 "_f10.176"
.nu 2 1 e_Text.PPrint_d_f10.176 _
.o 1 0 
e_Text.PPrint_n_f10.176
	push_node_u _cycle_in_spine 2 1
.o 3 1 i
ea176
.o 3 1 i
s176
	push_b_decI 0
	push_jsr_eval 1
	pushI_a 2
	pop_a 1
	jsr_eval 0
	push_a 0
	push_array 0
	updatepop_a 0 3
	update2pop_b 0 1
.d 1 2 ii
	jsr sliceAC
.o 1 0 
.d 2 0 
	jmp s59
.export e_Text.PPrint_stext
.export e_Text.PPrint_eatext
.descexp e_Text.PPrint_dtext e_Text.PPrint_ntext e_Text.PPrint_ltext 1 0 "text"
.o 2 0 
e_Text.PPrint_ltext
	update_a 1 0
	create 
.d 2 0 
	put_a_jmp 2 e_Text.PPrint_eatext
.n 1 e_Text.PPrint_dtext e_Text.PPrint_eatext
.o 1 0 
e_Text.PPrint_ntext
	push_node _cycle_in_spine 1
.o 2 0 
e_Text.PPrint_eatext
	jsr_eval 0
	push_array 0
	put_a 1
.o 2 0 
e_Text.PPrint_stext
.o 2 0 
s59
	push_a 0
	eqAC_a ""
	jmp_false case.52
	fillh e_Text.PPrint_dEmpty 0 1
.d 1 0 
	pop_a_rtn 1
case.52
	push_arraysize_a CHAR 0 1 0
	push_a 0
	buildh ARRAY 1
	fill_r e_Text.PPrint_kText 1 1 2 0 0
.d 1 0 
	pop_ab_rtn 2 1
.export e_Text.PPrint_sequals
.export e_Text.PPrint_eaequals
.descexp e_Text.PPrint_dequals e_Text.PPrint_nequals e_Text.PPrint_lequals 0 0 "equals"
.o 1 0 
e_Text.PPrint_lequals
	halt
.n 0 e_Text.PPrint_dequals e_Text.PPrint_eaequals
.o 1 0 
e_Text.PPrint_nequals
	push_node _cycle_in_spine 0
.o 1 0 
e_Text.PPrint_eaequals
.o 1 0 
e_Text.PPrint_sequals
.o 1 0 
s46
	pushC '='
.d 1 1 c
	jmp s58
.export e_Text.PPrint_sbackslash
.export e_Text.PPrint_eabackslash
.descexp e_Text.PPrint_dbackslash e_Text.PPrint_nbackslash e_Text.PPrint_lbackslash 0 0 "backslash"
.o 1 0 
e_Text.PPrint_lbackslash
	halt
.n 0 e_Text.PPrint_dbackslash e_Text.PPrint_eabackslash
.o 1 0 
e_Text.PPrint_nbackslash
	push_node _cycle_in_spine 0
.o 1 0 
e_Text.PPrint_eabackslash
.o 1 0 
e_Text.PPrint_sbackslash
.o 1 0 
s45
	pushC '\134'
.d 1 1 c
	jmp s58
.export e_Text.PPrint_sdot
.export e_Text.PPrint_eadot
.descexp e_Text.PPrint_ddot e_Text.PPrint_ndot e_Text.PPrint_ldot 0 0 "dot"
.o 1 0 
e_Text.PPrint_ldot
	halt
.n 0 e_Text.PPrint_ddot e_Text.PPrint_eadot
.o 1 0 
e_Text.PPrint_ndot
	push_node _cycle_in_spine 0
.o 1 0 
e_Text.PPrint_eadot
.o 1 0 
e_Text.PPrint_sdot
.o 1 0 
s44
	pushC '.'
.d 1 1 c
	jmp s58
.export e_Text.PPrint_scolon
.export e_Text.PPrint_eacolon
.descexp e_Text.PPrint_dcolon e_Text.PPrint_ncolon e_Text.PPrint_lcolon 0 0 "colon"
.o 1 0 
e_Text.PPrint_lcolon
	halt
.n 0 e_Text.PPrint_dcolon e_Text.PPrint_eacolon
.o 1 0 
e_Text.PPrint_ncolon
	push_node _cycle_in_spine 0
.o 1 0 
e_Text.PPrint_eacolon
.o 1 0 
e_Text.PPrint_scolon
.o 1 0 
s41
	pushC ':'
.d 1 1 c
	jmp s58
.export e_Text.PPrint_sbrackets
.export e_Text.PPrint_eabrackets
.descexp e_Text.PPrint_dbrackets e_Text.PPrint_nbrackets e_Text.PPrint_lbrackets 0 0 "brackets"
.o 1 0 
e_Text.PPrint_lbrackets
	halt
.n 0 e_Text.PPrint_dbrackets e_Text.PPrint_eabrackets
.o 1 0 
e_Text.PPrint_nbrackets
	push_node _cycle_in_spine 0
.o 1 0 
e_Text.PPrint_eabrackets
.o 1 0 
e_Text.PPrint_sbrackets
.o 1 0 
s28
	build e_Text.PPrint_drbracket 0 e_Text.PPrint_nrbracket
	build e_Text.PPrint_dlbracket 0 e_Text.PPrint_nlbracket
	fillh e_Text.PPrint_denclose 2 2
.d 1 0 
	rtn 
.export e_Text.PPrint_sangles
.export e_Text.PPrint_eaangles
.descexp e_Text.PPrint_dangles e_Text.PPrint_nangles e_Text.PPrint_langles 0 0 "angles"
.o 1 0 
e_Text.PPrint_langles
	halt
.n 0 e_Text.PPrint_dangles e_Text.PPrint_eaangles
.o 1 0 
e_Text.PPrint_nangles
	push_node _cycle_in_spine 0
.o 1 0 
e_Text.PPrint_eaangles
.o 1 0 
e_Text.PPrint_sangles
.o 1 0 
s27
	build e_Text.PPrint_drangle 0 e_Text.PPrint_nrangle
	build e_Text.PPrint_dlangle 0 e_Text.PPrint_nlangle
	fillh e_Text.PPrint_denclose 2 2
.d 1 0 
	rtn 
.export e_Text.PPrint_slangle
.export e_Text.PPrint_ealangle
.descexp e_Text.PPrint_dlangle e_Text.PPrint_nlangle e_Text.PPrint_llangle 0 0 "langle"
.o 1 0 
e_Text.PPrint_llangle
	halt
.n 0 e_Text.PPrint_dlangle e_Text.PPrint_ealangle
.o 1 0 
e_Text.PPrint_nlangle
	push_node _cycle_in_spine 0
.o 1 0 
e_Text.PPrint_ealangle
.o 1 0 
e_Text.PPrint_slangle
.o 1 0 
s32
	pushC '<'
.d 1 1 c
	jmp s58
.export e_Text.PPrint_srangle
.export e_Text.PPrint_earangle
.descexp e_Text.PPrint_drangle e_Text.PPrint_nrangle e_Text.PPrint_lrangle 0 0 "rangle"
.o 1 0 
e_Text.PPrint_lrangle
	halt
.n 0 e_Text.PPrint_drangle e_Text.PPrint_earangle
.o 1 0 
e_Text.PPrint_nrangle
	push_node _cycle_in_spine 0
.o 1 0 
e_Text.PPrint_earangle
.o 1 0 
e_Text.PPrint_srangle
.o 1 0 
s33
	pushC '>'
.d 1 1 c
	jmp s58
.export e_Text.PPrint_sparens
.export e_Text.PPrint_eaparens
.descexp e_Text.PPrint_dparens e_Text.PPrint_nparens e_Text.PPrint_lparens 0 0 "parens"
.o 1 0 
e_Text.PPrint_lparens
	halt
.n 0 e_Text.PPrint_dparens e_Text.PPrint_eaparens
.o 1 0 
e_Text.PPrint_nparens
	push_node _cycle_in_spine 0
.o 1 0 
e_Text.PPrint_eaparens
.o 1 0 
e_Text.PPrint_sparens
.o 1 0 
s26
	build e_Text.PPrint_drparen 0 e_Text.PPrint_nrparen
	build e_Text.PPrint_dlparen 0 e_Text.PPrint_nlparen
	fillh e_Text.PPrint_denclose 2 2
.d 1 0 
	rtn 
.export e_Text.PPrint_sbraces
.export e_Text.PPrint_eabraces
.descexp e_Text.PPrint_dbraces e_Text.PPrint_nbraces e_Text.PPrint_lbraces 0 0 "braces"
.o 1 0 
e_Text.PPrint_lbraces
	halt
.n 0 e_Text.PPrint_dbraces e_Text.PPrint_eabraces
.o 1 0 
e_Text.PPrint_nbraces
	push_node _cycle_in_spine 0
.o 1 0 
e_Text.PPrint_eabraces
.o 1 0 
e_Text.PPrint_sbraces
.o 1 0 
s25
	build e_Text.PPrint_drbrace 0 e_Text.PPrint_nrbrace
	build e_Text.PPrint_dlbrace 0 e_Text.PPrint_nlbrace
	fillh e_Text.PPrint_denclose 2 2
.d 1 0 
	rtn 
.export e_Text.PPrint_sdquotes
.export e_Text.PPrint_eadquotes
.descexp e_Text.PPrint_ddquotes e_Text.PPrint_ndquotes e_Text.PPrint_ldquotes 0 0 "dquotes"
.o 1 0 
e_Text.PPrint_ldquotes
	halt
.n 0 e_Text.PPrint_ddquotes e_Text.PPrint_eadquotes
.o 1 0 
e_Text.PPrint_ndquotes
	push_node _cycle_in_spine 0
.o 1 0 
e_Text.PPrint_eadquotes
.o 1 0 
e_Text.PPrint_sdquotes
.o 1 0 
s24
	build e_Text.PPrint_ddquote 0 e_Text.PPrint_ndquote
	build e_Text.PPrint_ddquote 0 e_Text.PPrint_ndquote
	fillh e_Text.PPrint_denclose 2 2
.d 1 0 
	rtn 
.export e_Text.PPrint_sdquote
.export e_Text.PPrint_eadquote
.descexp e_Text.PPrint_ddquote e_Text.PPrint_ndquote e_Text.PPrint_ldquote 0 0 "dquote"
.o 1 0 
e_Text.PPrint_ldquote
	halt
.n 0 e_Text.PPrint_ddquote e_Text.PPrint_eadquote
.o 1 0 
e_Text.PPrint_ndquote
	push_node _cycle_in_spine 0
.o 1 0 
e_Text.PPrint_eadquote
.o 1 0 
e_Text.PPrint_sdquote
.o 1 0 
s39
	pushC '"'
.d 1 1 c
	jmp s58
.export e_Text.PPrint_ssquotes
.export e_Text.PPrint_easquotes
.descexp e_Text.PPrint_dsquotes e_Text.PPrint_nsquotes e_Text.PPrint_lsquotes 0 0 "squotes"
.o 1 0 
e_Text.PPrint_lsquotes
	halt
.n 0 e_Text.PPrint_dsquotes e_Text.PPrint_easquotes
.o 1 0 
e_Text.PPrint_nsquotes
	push_node _cycle_in_spine 0
.o 1 0 
e_Text.PPrint_easquotes
.o 1 0 
e_Text.PPrint_ssquotes
.o 1 0 
s23
	build e_Text.PPrint_dsquote 0 e_Text.PPrint_nsquote
	build e_Text.PPrint_dsquote 0 e_Text.PPrint_nsquote
	fillh e_Text.PPrint_denclose 2 2
.d 1 0 
	rtn 
.export e_Text.PPrint_ssquote
.export e_Text.PPrint_easquote
.descexp e_Text.PPrint_dsquote e_Text.PPrint_nsquote e_Text.PPrint_lsquote 0 0 "squote"
.o 1 0 
e_Text.PPrint_lsquote
	halt
.n 0 e_Text.PPrint_dsquote e_Text.PPrint_easquote
.o 1 0 
e_Text.PPrint_nsquote
	push_node _cycle_in_spine 0
.o 1 0 
e_Text.PPrint_easquote
.o 1 0 
e_Text.PPrint_ssquote
.o 1 0 
s38
	pushC '\047'
.d 1 1 c
	jmp s58
.export e_Text.PPrint_senclose
.export e_Text.PPrint_eaenclose
.descexp e_Text.PPrint_denclose e_Text.PPrint_nenclose e_Text.PPrint_lenclose 3 0 "enclose"
.a 3 e_Text.PPrint_eaenclose
.o 2 0 
e_Text.PPrint_lenclose
	push_args 0 2 2
	update_a 3 2
	create 
.d 4 0 
	put_a_jmp 4 e_Text.PPrint_eaenclose
.n 3 e_Text.PPrint_denclose e_Text.PPrint_eaenclose
.o 1 0 
e_Text.PPrint_nenclose
	push_node _cycle_in_spine 3
.o 4 0 
e_Text.PPrint_eaenclose
.o 4 0 
e_Text.PPrint_senclose
.o 4 0 
s29
	push_a2 1 2
	build e_Text.PPrint_d<-> 2 e_Text.PPrint_n<->
	dup_a 3
	updatepop_a 1 2
.d 3 0 
	jmp s15
.export e_Text.PPrint_shcat
.export e_Text.PPrint_eahcat
.descexp e_Text.PPrint_dhcat e_Text.PPrint_nhcat e_Text.PPrint_lhcat 0 0 "hcat"
.o 1 0 
e_Text.PPrint_lhcat
	halt
.n 0 e_Text.PPrint_dhcat e_Text.PPrint_eahcat
.o 1 0 
e_Text.PPrint_nhcat
	push_node _cycle_in_spine 0
.o 1 0 
e_Text.PPrint_eahcat
.o 1 0 
e_Text.PPrint_shcat
.o 1 0 
s12
	fillh e_Text.PPrint_d_f4.170 0 0
.d 1 0 
	rtn 
.export e_Text.PPrint_d_f4.170
.desc e_Text.PPrint_d_f4.170 _hnf l170 1 0 "_f4.170"
.o 2 0 
l170
	update_a 1 0
	create 
	put_a 2
.o 2 0 
ea170
.o 2 0 
s170
	jsr_eval 0
	push_a 0
	put_a 1
	buildh e_Text.PPrint_d<-> 0
.d 3 0 
	jmp s14
.export e_Text.PPrint_sfillCat
.export e_Text.PPrint_eafillCat
.descexp e_Text.PPrint_dfillCat e_Text.PPrint_nfillCat e_Text.PPrint_lfillCat 0 0 "fillCat"
.o 1 0 
e_Text.PPrint_lfillCat
	halt
.n 0 e_Text.PPrint_dfillCat e_Text.PPrint_eafillCat
.o 1 0 
e_Text.PPrint_nfillCat
	push_node _cycle_in_spine 0
.o 1 0 
e_Text.PPrint_eafillCat
.o 1 0 
e_Text.PPrint_sfillCat
.o 1 0 
s11
	fillh e_Text.PPrint_d_f5.171 0 0
.d 1 0 
	rtn 
.export e_Text.PPrint_d_f5.171
.desc e_Text.PPrint_d_f5.171 _hnf l171 1 0 "_f5.171"
.o 2 0 
l171
	update_a 1 0
	create 
	put_a 2
.o 2 0 
ea171
.o 2 0 
s171
	jsr_eval 0
	push_a 0
	put_a 1
	buildh e_Text.PPrint_d<//> 0
.d 3 0 
	jmp s14
.export e_Text.PPrint_s<//>
.export e_Text.PPrint_ea<//>
.descexp e_Text.PPrint_d<//> e_Text.PPrint_n<//> e_Text.PPrint_l<//> 2 0 "<//>"
.a 2 e_Text.PPrint_ea<//>
.o 2 0 
e_Text.PPrint_l<//>
	push_args 0 1 1
	update_a 2 1
	create 
.d 3 0 
	put_a_jmp 3 e_Text.PPrint_ea<//>
.n 2 e_Text.PPrint_d<//> e_Text.PPrint_ea<//>
.o 1 0 
e_Text.PPrint_n<//>
	push_node _cycle_in_spine 2
.o 3 0 
e_Text.PPrint_ea<//>
.o 3 0 
e_Text.PPrint_s<//>
.o 3 0 
s18
	build e_Text.PPrint_dsoftbreak 0 e_Text.PPrint_nsoftbreak
	push_update_a 0 2
	build e_Text.PPrint_d<-> 2 e_Text.PPrint_n<->
.d 3 0 
	put_a_jmp 2 s15
.export e_Text.PPrint_ssoftbreak
.export e_Text.PPrint_easoftbreak
.descexp e_Text.PPrint_dsoftbreak e_Text.PPrint_nsoftbreak e_Text.PPrint_lsoftbreak 0 0 "softbreak"
.o 1 0 
e_Text.PPrint_lsoftbreak
	halt
.n 0 e_Text.PPrint_dsoftbreak e_Text.PPrint_easoftbreak
.o 1 0 
e_Text.PPrint_nsoftbreak
	push_node _cycle_in_spine 0
.o 1 0 
e_Text.PPrint_easoftbreak
.o 1 0 
e_Text.PPrint_ssoftbreak
.o 1 0 
s22
	build e_Text.PPrint_dlinebreak 0 e_Text.PPrint_nlinebreak
.d 2 0 
	jmp s82
.export e_Text.PPrint_shsep
.export e_Text.PPrint_eahsep
.descexp e_Text.PPrint_dhsep e_Text.PPrint_nhsep e_Text.PPrint_lhsep 0 0 "hsep"
.o 1 0 
e_Text.PPrint_lhsep
	halt
.n 0 e_Text.PPrint_dhsep e_Text.PPrint_eahsep
.o 1 0 
e_Text.PPrint_nhsep
	push_node _cycle_in_spine 0
.o 1 0 
e_Text.PPrint_eahsep
.o 1 0 
e_Text.PPrint_shsep
.o 1 0 
s8
	fillh e_Text.PPrint_d_f6.172 0 0
.d 1 0 
	rtn 
.export e_Text.PPrint_d_f6.172
.desc e_Text.PPrint_d_f6.172 _hnf l172 1 0 "_f6.172"
.o 2 0 
l172
	update_a 1 0
	create 
	put_a 2
.o 2 0 
ea172
.o 2 0 
s172
	jsr_eval 0
	push_a 0
	put_a 1
	buildh e_Text.PPrint_d<+> 0
.d 3 0 
	jmp s14
.export e_Text.PPrint_s<+>
.export e_Text.PPrint_ea<+>
.descexp e_Text.PPrint_d<+> e_Text.PPrint_n<+> e_Text.PPrint_l<+> 2 0 "<+>"
.a 2 e_Text.PPrint_ea<+>
.o 2 0 
e_Text.PPrint_l<+>
	push_args 0 1 1
	update_a 2 1
	create 
.d 3 0 
	put_a_jmp 3 e_Text.PPrint_ea<+>
.n 2 e_Text.PPrint_d<+> e_Text.PPrint_ea<+>
.o 1 0 
e_Text.PPrint_n<+>
	push_node _cycle_in_spine 2
.o 3 0 
e_Text.PPrint_ea<+>
.o 3 0 
e_Text.PPrint_s<+>
.o 3 0 
s16
	build e_Text.PPrint_dspace 0 e_Text.PPrint_nspace
	push_update_a 0 2
	build e_Text.PPrint_d<-> 2 e_Text.PPrint_n<->
.d 3 0 
	put_a_jmp 2 s15
.export e_Text.PPrint_sspace
.export e_Text.PPrint_easpace
.descexp e_Text.PPrint_dspace e_Text.PPrint_nspace e_Text.PPrint_lspace 0 0 "space"
.o 1 0 
e_Text.PPrint_lspace
	halt
.n 0 e_Text.PPrint_dspace e_Text.PPrint_easpace
.o 1 0 
e_Text.PPrint_nspace
	push_node _cycle_in_spine 0
.o 1 0 
e_Text.PPrint_easpace
.o 1 0 
e_Text.PPrint_sspace
.o 1 0 
s43
	pushC ' '
.d 1 1 c
	jmp s58
.export e_Text.PPrint_sfillSep
.export e_Text.PPrint_eafillSep
.descexp e_Text.PPrint_dfillSep e_Text.PPrint_nfillSep e_Text.PPrint_lfillSep 0 0 "fillSep"
.o 1 0 
e_Text.PPrint_lfillSep
	halt
.n 0 e_Text.PPrint_dfillSep e_Text.PPrint_eafillSep
.o 1 0 
e_Text.PPrint_nfillSep
	push_node _cycle_in_spine 0
.o 1 0 
e_Text.PPrint_eafillSep
.o 1 0 
e_Text.PPrint_sfillSep
.o 1 0 
s7
	fillh e_Text.PPrint_d_f7.173 0 0
.d 1 0 
	rtn 
.export e_Text.PPrint_d_f7.173
.desc e_Text.PPrint_d_f7.173 _hnf l173 1 0 "_f7.173"
.o 2 0 
l173
	update_a 1 0
	create 
	put_a 2
.o 2 0 
ea173
.o 2 0 
s173
	jsr_eval 0
	push_a 0
	put_a 1
	buildh e_Text.PPrint_d</> 0
.d 3 0 
	jmp s14
.export e_Text.PPrint_s</>
.export e_Text.PPrint_ea</>
.descexp e_Text.PPrint_d</> e_Text.PPrint_n</> e_Text.PPrint_l</> 2 0 "</>"
.a 2 e_Text.PPrint_ea</>
.o 2 0 
e_Text.PPrint_l</>
	push_args 0 1 1
	update_a 2 1
	create 
.d 3 0 
	put_a_jmp 3 e_Text.PPrint_ea</>
.n 2 e_Text.PPrint_d</> e_Text.PPrint_ea</>
.o 1 0 
e_Text.PPrint_n</>
	push_node _cycle_in_spine 2
.o 3 0 
e_Text.PPrint_ea</>
.o 3 0 
e_Text.PPrint_s</>
.o 3 0 
s17
	build e_Text.PPrint_dsoftline 0 e_Text.PPrint_nsoftline
	push_update_a 0 2
	build e_Text.PPrint_d<-> 2 e_Text.PPrint_n<->
.d 3 0 
	put_a_jmp 2 s15
.export e_Text.PPrint_ssoftline
.export e_Text.PPrint_easoftline
.descexp e_Text.PPrint_dsoftline e_Text.PPrint_nsoftline e_Text.PPrint_lsoftline 0 0 "softline"
.o 1 0 
e_Text.PPrint_lsoftline
	halt
.n 0 e_Text.PPrint_dsoftline e_Text.PPrint_easoftline
.o 1 0 
e_Text.PPrint_nsoftline
	push_node _cycle_in_spine 0
.o 1 0 
e_Text.PPrint_easoftline
.o 1 0 
e_Text.PPrint_ssoftline
.o 1 0 
s21
	build e_Text.PPrint_dline 0 e_Text.PPrint_nline
.d 2 0 
	jmp s82
.export e_Text.PPrint_ssep
.export e_Text.PPrint_easep
.descexp e_Text.PPrint_dsep e_Text.PPrint_nsep e_Text.PPrint_lsep 0 0 "sep"
.o 1 0 
e_Text.PPrint_lsep
	halt
.n 0 e_Text.PPrint_dsep e_Text.PPrint_easep
.o 1 0 
e_Text.PPrint_nsep
	push_node _cycle_in_spine 0
.o 1 0 
e_Text.PPrint_easep
.o 1 0 
e_Text.PPrint_ssep
.o 1 0 
s6
	build e_Text.PPrint_dvsep 0 e_Text.PPrint_nvsep
	fillh e_Text.PPrint_d\;15;13;156.101 1 1
.d 1 0 
	rtn 
.export e_Text.PPrint_svsep
.export e_Text.PPrint_eavsep
.descexp e_Text.PPrint_dvsep e_Text.PPrint_nvsep e_Text.PPrint_lvsep 0 0 "vsep"
.o 1 0 
e_Text.PPrint_lvsep
	halt
.n 0 e_Text.PPrint_dvsep e_Text.PPrint_eavsep
.o 1 0 
e_Text.PPrint_nvsep
	push_node _cycle_in_spine 0
.o 1 0 
e_Text.PPrint_eavsep
.o 1 0 
e_Text.PPrint_svsep
.o 1 0 
s9
	fillh e_Text.PPrint_d_f8.174 0 0
.d 1 0 
	rtn 
.export e_Text.PPrint_d_f8.174
.desc e_Text.PPrint_d_f8.174 _hnf l174 1 0 "_f8.174"
.o 2 0 
l174
	update_a 1 0
	create 
	put_a 2
.o 2 0 
ea174
.o 2 0 
s174
	jsr_eval 0
	push_a 0
	put_a 1
	buildh e_Text.PPrint_d<$> 0
.d 3 0 
	jmp s14
.export e_Text.PPrint_s<$>
.export e_Text.PPrint_ea<$>
.descexp e_Text.PPrint_d<$> e_Text.PPrint_n<$> e_Text.PPrint_l<$> 2 0 "<$>"
.a 2 e_Text.PPrint_ea<$>
.o 2 0 
e_Text.PPrint_l<$>
	push_args 0 1 1
	update_a 2 1
	create 
.d 3 0 
	put_a_jmp 3 e_Text.PPrint_ea<$>
.n 2 e_Text.PPrint_d<$> e_Text.PPrint_ea<$>
.o 1 0 
e_Text.PPrint_n<$>
	push_node _cycle_in_spine 2
.o 3 0 
e_Text.PPrint_ea<$>
.o 3 0 
e_Text.PPrint_s<$>
.o 3 0 
s19
	build e_Text.PPrint_dline 0 e_Text.PPrint_nline
	push_update_a 0 2
	build e_Text.PPrint_d<-> 2 e_Text.PPrint_n<->
.d 3 0 
	put_a_jmp 2 s15
.export e_Text.PPrint_d\;15;13;156.101
.desc e_Text.PPrint_d\;15;13;156.101 _hnf l101 2 0 "\;15;13;156.101"
.a 2 ea101
.o 2 0 
l101
	push_args 0 1 1
	update_a 2 1
	create 
	put_a 3
.o 3 0 
ea101
.o 3 0 
s101
	push2_a 1
	build e_system_dAP 2 e_system_nAP
	updatepop_a 0 2
.d 2 0 
	jmp s82
.export e_Text.PPrint_spunctuate
.export e_Text.PPrint_eapunctuate
.descexp e_Text.PPrint_dpunctuate e_Text.PPrint_npunctuate e_Text.PPrint_lpunctuate 2 0 "punctuate"
.a 2 e_Text.PPrint_eapunctuate
.o 2 0 
e_Text.PPrint_lpunctuate
	push_args 0 1 1
	update_a 2 1
	create 
.d 3 0 
	put_a_jmp 3 e_Text.PPrint_eapunctuate
.n 2 e_Text.PPrint_dpunctuate e_Text.PPrint_eapunctuate
.o 1 0 
e_Text.PPrint_npunctuate
	push_node _cycle_in_spine 2
.o 3 0 
e_Text.PPrint_eapunctuate
	jsr_eval 1
.o 3 0 
e_Text.PPrint_spunctuate
.o 3 0 
s5
	jmp_ne_desc _Nil 0 1 case.54
	fillh _Nil 0 2
.d 1 0 
	pop_a_rtn 2
case.54
	push_args 1 2 2
	buildh0_put_a _Nil 4
	jsr_eval 1
	jmp_ne_desc _Nil 0 1 case.56
	buildh _Nil 0
	push_a 1
	fillh _Cons 2 6
.d 1 0 
	pop_a_rtn 4
case.56
	push_a2 1 2
	build e_Text.PPrint_dpunctuate 2 e_Text.PPrint_npunctuate
	push_a2 3 1
	build e_Text.PPrint_d<-> 2 e_Text.PPrint_n<->
	fillh _Cons 2 6
.d 1 0 
	pop_a_rtn 4
.export e_Text.PPrint_ssemiBraces
.export e_Text.PPrint_easemiBraces
.descexp e_Text.PPrint_dsemiBraces e_Text.PPrint_nsemiBraces e_Text.PPrint_lsemiBraces 0 0 "semiBraces"
.o 1 0 
e_Text.PPrint_lsemiBraces
	halt
.n 0 e_Text.PPrint_dsemiBraces e_Text.PPrint_easemiBraces
.o 1 0 
e_Text.PPrint_nsemiBraces
	push_node _cycle_in_spine 0
.o 1 0 
e_Text.PPrint_easemiBraces
.o 1 0 
e_Text.PPrint_ssemiBraces
.o 1 0 
s3
	build e_Text.PPrint_dsemi 0 e_Text.PPrint_nsemi
	build e_Text.PPrint_drbrace 0 e_Text.PPrint_nrbrace
	build e_Text.PPrint_dlbrace 0 e_Text.PPrint_nlbrace
	fillh e_Text.PPrint_dencloseSep 3 3
.d 1 0 
	rtn 
.export e_Text.PPrint_slbrace
.export e_Text.PPrint_ealbrace
.descexp e_Text.PPrint_dlbrace e_Text.PPrint_nlbrace e_Text.PPrint_llbrace 0 0 "lbrace"
.o 1 0 
e_Text.PPrint_llbrace
	halt
.n 0 e_Text.PPrint_dlbrace e_Text.PPrint_ealbrace
.o 1 0 
e_Text.PPrint_nlbrace
	push_node _cycle_in_spine 0
.o 1 0 
e_Text.PPrint_ealbrace
.o 1 0 
e_Text.PPrint_slbrace
.o 1 0 
s34
	pushC '{'
.d 1 1 c
	jmp s58
.export e_Text.PPrint_srbrace
.export e_Text.PPrint_earbrace
.descexp e_Text.PPrint_drbrace e_Text.PPrint_nrbrace e_Text.PPrint_lrbrace 0 0 "rbrace"
.o 1 0 
e_Text.PPrint_lrbrace
	halt
.n 0 e_Text.PPrint_drbrace e_Text.PPrint_earbrace
.o 1 0 
e_Text.PPrint_nrbrace
	push_node _cycle_in_spine 0
.o 1 0 
e_Text.PPrint_earbrace
.o 1 0 
e_Text.PPrint_srbrace
.o 1 0 
s35
	pushC '}'
.d 1 1 c
	jmp s58
.export e_Text.PPrint_ssemi
.export e_Text.PPrint_easemi
.descexp e_Text.PPrint_dsemi e_Text.PPrint_nsemi e_Text.PPrint_lsemi 0 0 "semi"
.o 1 0 
e_Text.PPrint_lsemi
	halt
.n 0 e_Text.PPrint_dsemi e_Text.PPrint_easemi
.o 1 0 
e_Text.PPrint_nsemi
	push_node _cycle_in_spine 0
.o 1 0 
e_Text.PPrint_easemi
.o 1 0 
e_Text.PPrint_ssemi
.o 1 0 
s40
	pushC ';'
.d 1 1 c
	jmp s58
.export e_Text.PPrint_stupled
.export e_Text.PPrint_eatupled
.descexp e_Text.PPrint_dtupled e_Text.PPrint_ntupled e_Text.PPrint_ltupled 0 0 "tupled"
.o 1 0 
e_Text.PPrint_ltupled
	halt
.n 0 e_Text.PPrint_dtupled e_Text.PPrint_eatupled
.o 1 0 
e_Text.PPrint_ntupled
	push_node _cycle_in_spine 0
.o 1 0 
e_Text.PPrint_eatupled
.o 1 0 
e_Text.PPrint_stupled
.o 1 0 
s2
	build e_Text.PPrint_dcomma 0 e_Text.PPrint_ncomma
	build e_Text.PPrint_drparen 0 e_Text.PPrint_nrparen
	build e_Text.PPrint_dlparen 0 e_Text.PPrint_nlparen
	fillh e_Text.PPrint_dencloseSep 3 3
.d 1 0 
	rtn 
.export e_Text.PPrint_slparen
.export e_Text.PPrint_ealparen
.descexp e_Text.PPrint_dlparen e_Text.PPrint_nlparen e_Text.PPrint_llparen 0 0 "lparen"
.o 1 0 
e_Text.PPrint_llparen
	halt
.n 0 e_Text.PPrint_dlparen e_Text.PPrint_ealparen
.o 1 0 
e_Text.PPrint_nlparen
	push_node _cycle_in_spine 0
.o 1 0 
e_Text.PPrint_ealparen
.o 1 0 
e_Text.PPrint_slparen
.o 1 0 
s30
	pushC '('
.d 1 1 c
	jmp s58
.export e_Text.PPrint_srparen
.export e_Text.PPrint_earparen
.descexp e_Text.PPrint_drparen e_Text.PPrint_nrparen e_Text.PPrint_lrparen 0 0 "rparen"
.o 1 0 
e_Text.PPrint_lrparen
	halt
.n 0 e_Text.PPrint_drparen e_Text.PPrint_earparen
.o 1 0 
e_Text.PPrint_nrparen
	push_node _cycle_in_spine 0
.o 1 0 
e_Text.PPrint_earparen
.o 1 0 
e_Text.PPrint_srparen
.o 1 0 
s31
	pushC ')'
.d 1 1 c
	jmp s58
.export e_Text.PPrint_slist
.export e_Text.PPrint_ealist
.descexp e_Text.PPrint_dlist e_Text.PPrint_nlist e_Text.PPrint_llist 0 0 "list"
.o 1 0 
e_Text.PPrint_llist
	halt
.n 0 e_Text.PPrint_dlist e_Text.PPrint_ealist
.o 1 0 
e_Text.PPrint_nlist
	push_node _cycle_in_spine 0
.o 1 0 
e_Text.PPrint_ealist
.o 1 0 
e_Text.PPrint_slist
.o 1 0 
s1
	build e_Text.PPrint_dcomma 0 e_Text.PPrint_ncomma
	build e_Text.PPrint_drbracket 0 e_Text.PPrint_nrbracket
	build e_Text.PPrint_dlbracket 0 e_Text.PPrint_nlbracket
	fillh e_Text.PPrint_dencloseSep 3 3
.d 1 0 
	rtn 
.export e_Text.PPrint_slbracket
.export e_Text.PPrint_ealbracket
.descexp e_Text.PPrint_dlbracket e_Text.PPrint_nlbracket e_Text.PPrint_llbracket 0 0 "lbracket"
.o 1 0 
e_Text.PPrint_llbracket
	halt
.n 0 e_Text.PPrint_dlbracket e_Text.PPrint_ealbracket
.o 1 0 
e_Text.PPrint_nlbracket
	push_node _cycle_in_spine 0
.o 1 0 
e_Text.PPrint_ealbracket
.o 1 0 
e_Text.PPrint_slbracket
.o 1 0 
s36
	pushC '['
.d 1 1 c
	jmp s58
.export e_Text.PPrint_srbracket
.export e_Text.PPrint_earbracket
.descexp e_Text.PPrint_drbracket e_Text.PPrint_nrbracket e_Text.PPrint_lrbracket 0 0 "rbracket"
.o 1 0 
e_Text.PPrint_lrbracket
	halt
.n 0 e_Text.PPrint_drbracket e_Text.PPrint_earbracket
.o 1 0 
e_Text.PPrint_nrbracket
	push_node _cycle_in_spine 0
.o 1 0 
e_Text.PPrint_earbracket
.o 1 0 
e_Text.PPrint_srbracket
.o 1 0 
s37
	pushC ']'
.d 1 1 c
	jmp s58
.export e_Text.PPrint_scomma
.export e_Text.PPrint_eacomma
.descexp e_Text.PPrint_dcomma e_Text.PPrint_ncomma e_Text.PPrint_lcomma 0 0 "comma"
.o 1 0 
e_Text.PPrint_lcomma
	halt
.n 0 e_Text.PPrint_dcomma e_Text.PPrint_eacomma
.o 1 0 
e_Text.PPrint_ncomma
	push_node _cycle_in_spine 0
.o 1 0 
e_Text.PPrint_eacomma
.o 1 0 
e_Text.PPrint_scomma
.o 1 0 
s42
	pushC ','
.d 1 1 c
	jmp s58
.export e_Text.PPrint_schar
.export e_Text.PPrint_eachar
.descexp e_Text.PPrint_dchar e_Text.PPrint_nchar e_Text.PPrint_lchar 1 0 "char"
.o 2 0 
e_Text.PPrint_lchar
	update_a 1 0
	create 
.d 2 0 
	put_a_jmp 2 e_Text.PPrint_eachar
.n 1 e_Text.PPrint_dchar e_Text.PPrint_eachar
.o 1 0 
e_Text.PPrint_nchar
	push_node _cycle_in_spine 1
.o 2 0 
e_Text.PPrint_eachar
	jsr_eval 0
	pushC0_pop_a1 
.o 1 1 c
e_Text.PPrint_schar
.o 1 1 c
s58
	eqC_b '\n' 0
	jmp_false case.58
.d 1 0 
	pop_b_jmp 1 s60
case.58
	buildC_b 0
	fillh e_Text.PPrint_dChar 1 1
.d 1 0 
	pop_b_rtn 1
.export e_Text.PPrint_sline
.export e_Text.PPrint_ealine
.descexp e_Text.PPrint_dline e_Text.PPrint_nline e_Text.PPrint_lline 0 0 "line"
.o 1 0 
e_Text.PPrint_lline
	halt
.n 0 e_Text.PPrint_dline e_Text.PPrint_ealine
.o 1 0 
e_Text.PPrint_nline
	push_node _cycle_in_spine 0
.o 1 0 
e_Text.PPrint_ealine
.o 1 0 
e_Text.PPrint_sline
.o 1 0 
s60
	pushB FALSE
	fill_r e_Text.PPrint_kLine 0 1 0 0 0
.d 1 0 
	pop_b_rtn 1
.export e_Text.PPrint_sencloseSep
.export e_Text.PPrint_eaencloseSep
.descexp e_Text.PPrint_dencloseSep e_Text.PPrint_nencloseSep e_Text.PPrint_lencloseSep 4 0 "encloseSep"
.a 4 e_Text.PPrint_eaencloseSep
.o 2 0 
e_Text.PPrint_lencloseSep
	push_args 0 3 3
	update_a 4 3
	create 
.d 5 0 
	put_a_jmp 5 e_Text.PPrint_eaencloseSep
.n 4 e_Text.PPrint_dencloseSep e_Text.PPrint_eaencloseSep
.o 1 0 
e_Text.PPrint_nencloseSep
	push_node _cycle_in_spine 4
.o 5 0 
e_Text.PPrint_eaencloseSep
	jsr_eval 3
.o 5 0 
e_Text.PPrint_sencloseSep
.o 5 0 
s4
	push_update_a 3 2
	update3pop_a 0 1
s105
	jmp_ne_desc _Nil 0 0 case.60
	update2pop_a 1 2
.d 3 0 
	jmp s15
case.60
	push_args 0 2 2
	jsr_eval 1
	jmp_eq_desc _Nil 0 1 case.62
	pop_a_jmp 2 case.61
case.62
	push_a2 4 0
	build e_Text.PPrint_d<-> 2 e_Text.PPrint_n<->
	dup_a 6
	updatepop_a 4 5
.d 3 0 
	jmp s15
case.61
	buildo1 e_StdList_nrepeat 3
	push_a 2
	buildh _Cons 2
	buildh e_Text.PPrint_d<-> 0
	push_update_a 0 1
	update_a 3 2
	build e_Text.PPrint_dzipWith.81 3 e_Text.PPrint_nzipWith.81
	build e_Text.PPrint_dcat.115 1 e_Text.PPrint_ncat.115
	push_update_a 0 3
	build e_Text.PPrint_d<-> 2 e_Text.PPrint_n<->
	updatepop_a 0 4
.d 2 0 
	jmp s56
.export e_Text.PPrint_scat
.export e_Text.PPrint_eacat
.descexp e_Text.PPrint_dcat e_Text.PPrint_ncat e_Text.PPrint_lcat 0 0 "cat"
.o 1 0 
e_Text.PPrint_lcat
	halt
.n 0 e_Text.PPrint_dcat e_Text.PPrint_eacat
.o 1 0 
e_Text.PPrint_ncat
	push_node _cycle_in_spine 0
.o 1 0 
e_Text.PPrint_eacat
.o 1 0 
e_Text.PPrint_scat
.o 1 0 
s10
	build e_Text.PPrint_dvcat 0 e_Text.PPrint_nvcat
	fillh e_Text.PPrint_d\;15;13;155.100 1 1
.d 1 0 
	rtn 
.export e_Text.PPrint_svcat
.export e_Text.PPrint_eavcat
.descexp e_Text.PPrint_dvcat e_Text.PPrint_nvcat e_Text.PPrint_lvcat 0 0 "vcat"
.o 1 0 
e_Text.PPrint_lvcat
	halt
.n 0 e_Text.PPrint_dvcat e_Text.PPrint_eavcat
.o 1 0 
e_Text.PPrint_nvcat
	push_node _cycle_in_spine 0
.o 1 0 
e_Text.PPrint_eavcat
.o 1 0 
e_Text.PPrint_svcat
.o 1 0 
s13
	fillh e_Text.PPrint_d_f9.175 0 0
.d 1 0 
	rtn 
.export e_Text.PPrint_d_f9.175
.desc e_Text.PPrint_d_f9.175 _hnf l175 1 0 "_f9.175"
.o 2 0 
l175
	update_a 1 0
	create 
	put_a 2
.o 2 0 
ea175
.o 2 0 
s175
	jsr_eval 0
	push_a 0
	put_a 1
	buildh e_Text.PPrint_d<$$> 0
.d 3 0 
	jmp s14
.export e_Text.PPrint_s<$$>
.export e_Text.PPrint_ea<$$>
.descexp e_Text.PPrint_d<$$> e_Text.PPrint_n<$$> e_Text.PPrint_l<$$> 2 0 "<$$>"
.a 2 e_Text.PPrint_ea<$$>
.o 2 0 
e_Text.PPrint_l<$$>
	push_args 0 1 1
	update_a 2 1
	create 
.d 3 0 
	put_a_jmp 3 e_Text.PPrint_ea<$$>
.n 2 e_Text.PPrint_d<$$> e_Text.PPrint_ea<$$>
.o 1 0 
e_Text.PPrint_n<$$>
	push_node _cycle_in_spine 2
.o 3 0 
e_Text.PPrint_ea<$$>
.o 3 0 
e_Text.PPrint_s<$$>
.o 3 0 
s20
	build e_Text.PPrint_dlinebreak 0 e_Text.PPrint_nlinebreak
	push_update_a 0 2
	build e_Text.PPrint_d<-> 2 e_Text.PPrint_n<->
.d 3 0 
	put_a_jmp 2 s15
.export e_Text.PPrint_slinebreak
.export e_Text.PPrint_ealinebreak
.descexp e_Text.PPrint_dlinebreak e_Text.PPrint_nlinebreak e_Text.PPrint_llinebreak 0 0 "linebreak"
.o 1 0 
e_Text.PPrint_llinebreak
	halt
.n 0 e_Text.PPrint_dlinebreak e_Text.PPrint_ealinebreak
.o 1 0 
e_Text.PPrint_nlinebreak
	push_node _cycle_in_spine 0
.o 1 0 
e_Text.PPrint_ealinebreak
.o 1 0 
e_Text.PPrint_slinebreak
.o 1 0 
s61
	pushB TRUE
	fill_r e_Text.PPrint_kLine 0 1 0 0 0
.d 1 0 
	pop_b_rtn 1
.export e_Text.PPrint_sfold
.export e_Text.PPrint_eafold
.descexp e_Text.PPrint_dfold e_Text.PPrint_nfold e_Text.PPrint_lfold 2 0 "fold"
.a 2 e_Text.PPrint_eafold
.o 2 0 
e_Text.PPrint_lfold
	push_args 0 1 1
	update_a 2 1
	create 
.d 3 0 
	put_a_jmp 3 e_Text.PPrint_eafold
.n 2 e_Text.PPrint_dfold e_Text.PPrint_eafold
.o 1 0 
e_Text.PPrint_nfold
	push_node _cycle_in_spine 2
.o 3 0 
e_Text.PPrint_eafold
	jsr_eval 1
.o 3 0 
e_Text.PPrint_sfold
.o 3 0 
s14
	jmp_ne_desc _Nil 0 1 case.64
.d 1 0 
	pop_a_jmp 2 s57
case.64
	jsr_eval 0
.d 2 0 
	jsr e_Data.List_sfoldr1;103
.o 1 0 
.d 1 0 
	fill_a01_pop_rtn 
.export e_Text.PPrint_sempty
.export e_Text.PPrint_eaempty
.descexp e_Text.PPrint_dempty e_Text.PPrint_nempty e_Text.PPrint_lempty 0 0 "empty"
.o 1 0 
e_Text.PPrint_lempty
	halt
.n 0 e_Text.PPrint_dempty e_Text.PPrint_eaempty
.o 1 0 
e_Text.PPrint_nempty
	push_node _cycle_in_spine 0
.o 1 0 
e_Text.PPrint_eaempty
.o 1 0 
e_Text.PPrint_sempty
.o 1 0 
s57
	fillh e_Text.PPrint_dEmpty 0 0
.d 1 0 
	rtn 
.export e_Text.PPrint_d\;15;13;155.100
.desc e_Text.PPrint_d\;15;13;155.100 _hnf l100 2 0 "\;15;13;155.100"
.a 2 ea100
.o 2 0 
l100
	push_args 0 1 1
	update_a 2 1
	create 
	put_a 3
.o 3 0 
ea100
.o 3 0 
s100
	push2_a 1
	build e_system_dAP 2 e_system_nAP
	updatepop_a 0 2
s82
	buildo1 e_Text.PPrint_nflattenDoc.83 0
	push_update_a 0 1
	fillh e_Text.PPrint_dUnion 2 3
.d 1 0 
	pop_a_rtn 1
.export e_Text.PPrint_d\;15;13;153.98
.desc e_Text.PPrint_d\;15;13;153.98 _hnf l98 2 0 "\;15;13;153.98"
.a 2 ea98
.o 2 0 
l98
	push_args 0 1 1
	update_a 2 1
	create 
	put_a 3
.o 3 0 
ea98
	jsr_eval 0
.o 3 0 
s98
	jsr_ap 1
.d 2 0 
	jmp s83
.export e_Text.PPrint_d\;15;13;154.99
.desc e_Text.PPrint_d\;15;13;154.99 _hnf l99 2 0 "\;15;13;154.99"
.a 2 ea99
.o 2 0 
l99
	push_args 0 1 1
	update_a 2 1
	create 
	put_a 3
.o 3 0 
ea99
	jsr_eval 0
.o 3 0 
s99
	jsr_ap 1
.d 2 0 
	jmp s83
.export e_Text.PPrint_dflattenDoc.83
.export e_Text.PPrint_nflattenDoc.83
.descn e_Text.PPrint_dflattenDoc.83 e_Text.PPrint_nflattenDoc.83 1 0 "flattenDoc.83"
.n 1 e_Text.PPrint_dflattenDoc.83 ea83
.o 1 0 
e_Text.PPrint_nflattenDoc.83
	push_node _cycle_in_spine 1
.o 2 0 
ea83
	jsr_eval 0
.o 2 0 
s83
	pushD_a_jmp_eqD_b2 0 e_Text.PPrint_dCat 2 case.65 e_Text.PPrint_kNest 0 case.66
	jmp_eqD_b2 e_Text.PPrint_kLine 0 case.67 e_Text.PPrint_dUnion 2 case.68
	jmpD ea e_Text.PPrint_dColumn 1 case.69 case.70
	pop_b_jmp 1 case.71
case.65
	pop_b 1
	repl_args 2 2
	buildo1 e_Text.PPrint_nflattenDoc.83 1
	buildo1 e_Text.PPrint_nflattenDoc.83 1
	fillh e_Text.PPrint_dCat 2 4
.d 1 0 
	pop_a_rtn 2
case.66
	pop_b 1
	repl_r_args 1 1
	buildo1 e_Text.PPrint_nflattenDoc.83 0
	push_b 0
	fill_r e_Text.PPrint_kNest 1 1 2 0 0
.d 1 0 
	pop_ab_rtn 2 2
case.67
	pop_b 1
	repl_r_args 0 1
	jmp_b_false 0 else.72
	fillh e_Text.PPrint_dEmpty 0 0
.d 1 0 
	pop_b_rtn 1
else.72
	buildAC " "
	buildh ARRAY 1
	pushI 1
	fill_r e_Text.PPrint_kText 1 1 1 0 0
.d 1 0 
	pop_ab_rtn 1 2
case.68
	pop_b 1
	repl_args 2 2
	put_a 1
	jsr_eval 0
.d 2 0 
	jmp s83
case.69
	pop_b 1
	repl_args 1 1
	push_a 0
	buildh e_Text.PPrint_d\;15;13;153.98 1
	fillh e_Text.PPrint_dColumn 1 2
.d 1 0 
	pop_a_rtn 1
case.70
	pop_b 1
	repl_args 1 1
	push_a 0
	buildh e_Text.PPrint_d\;15;13;154.99 1
	fillh e_Text.PPrint_dNesting 1 2
.d 1 0 
	pop_a_rtn 1
case.71
.d 1 0 
	fill_a01_pop_rtn 
.export e_Text.PPrint_dzipWith.81
.export e_Text.PPrint_nzipWith.81
.descn e_Text.PPrint_dzipWith.81 e_Text.PPrint_nzipWith.81 3 0 "zipWith.81"
.n 3 e_Text.PPrint_dzipWith.81 ea81
.o 1 0 
e_Text.PPrint_nzipWith.81
	push_node _cycle_in_spine 3
.o 4 0 
ea81
.o 4 0 
s81
	create 
	swap_a 2
	exchange_a 3 1
.d 3 0 
	jsr e_StdList_szip2
.o 1 0 
	push_a 1
	buildh e_Text.PPrint_d\;62;24;85.86 1
	update2pop_a 0 1
.d 3 0 
	jmp e_StdList_smap
.export e_Text.PPrint_d\;62;24;85.86
.desc e_Text.PPrint_d\;62;24;85.86 _hnf l86 2 0 "\;62;24;85.86"
.a 0 ea86
.o 2 0 
l86
	repl_args 1 1
.o 2 0 
ea86
	push_jsr_eval 1
	repl_args 2 2
	jsr_eval 2
	updates3_a 0 2 1 3
	pop_a 1
.o 3 0 
s86
	jmp_ap 2
.export e_Text.PPrint_s<->
.export e_Text.PPrint_ea<->
.descexp e_Text.PPrint_d<-> e_Text.PPrint_n<-> e_Text.PPrint_l<-> 2 0 "<->"
.a 2 e_Text.PPrint_ea<->
.o 2 0 
e_Text.PPrint_l<->
	push_args 0 1 1
	update_a 2 1
	create 
.d 3 0 
	put_a_jmp 3 e_Text.PPrint_ea<->
.n 2 e_Text.PPrint_d<-> e_Text.PPrint_ea<->
.o 1 0 
e_Text.PPrint_n<->
	push_node _cycle_in_spine 2
.o 3 0 
e_Text.PPrint_ea<->
.o 3 0 
e_Text.PPrint_s<->
.o 3 0 
s15
.d 3 0 
	jmp s62
.export e_Text.PPrint_sbeside
.export e_Text.PPrint_eabeside
.descexp e_Text.PPrint_dbeside e_Text.PPrint_nbeside e_Text.PPrint_lbeside 2 0 "beside"
.a 2 e_Text.PPrint_eabeside
.o 2 0 
e_Text.PPrint_lbeside
	push_args 0 1 1
	update_a 2 1
	create 
.d 3 0 
	put_a_jmp 3 e_Text.PPrint_eabeside
.n 2 e_Text.PPrint_dbeside e_Text.PPrint_eabeside
.o 1 0 
e_Text.PPrint_nbeside
	push_node _cycle_in_spine 2
.o 3 0 
e_Text.PPrint_eabeside
.o 3 0 
e_Text.PPrint_sbeside
.o 3 0 
s62
	fillh e_Text.PPrint_dCat 2 2
.d 1 0 
	rtn 
.export e_Text.PPrint_salign
.export e_Text.PPrint_eaalign
.descexp e_Text.PPrint_dalign e_Text.PPrint_nalign e_Text.PPrint_lalign 1 0 "align"
.o 2 0 
e_Text.PPrint_lalign
	update_a 1 0
	create 
.d 2 0 
	put_a_jmp 2 e_Text.PPrint_eaalign
.n 1 e_Text.PPrint_dalign e_Text.PPrint_eaalign
.o 1 0 
e_Text.PPrint_nalign
	push_node _cycle_in_spine 1
.o 2 0 
e_Text.PPrint_eaalign
.o 2 0 
e_Text.PPrint_salign
.o 2 0 
s56
	push_a 0
	buildh e_Text.PPrint_d\;292;27;92.92 1
.d 2 0 
	put_a_jmp 1 s64
.export e_Text.PPrint_d\;292;27;92.92
.desc e_Text.PPrint_d\;292;27;92.92 _hnf l92 2 0 "\;292;27;92.92"
.a 2 ea92
.o 2 0 
l92
	push_args 0 1 1
	update_a 2 1
	create 
	put_a 3
.o 3 0 
ea92
.o 3 0 
s92
	buildh e_Text.PPrint_d\;293;28;91.91 2
.d 2 0 
	jmp s65
.export e_Text.PPrint_d\;293;28;91.91
.desc e_Text.PPrint_d\;293;28;91.91 _hnf l91 3 0 "\;293;28;91.91"
.a 3 ea91
.o 2 0 
l91
	push_args 0 2 2
	update_a 3 2
	create 
	put_a 4
.o 4 0 
ea91
	jsr_eval 2
	jsr_eval 1
	pushI_a 2
	pushI_a 1
	updatepop_a 0 2
.o 2 2 ii
s91
	push2_b 1
	subI
	updatepop_b 0 2
.d 2 1 i
	jmp s63
.export e_Text.PPrint_snest
.export e_Text.PPrint_eanest
.descexp e_Text.PPrint_dnest e_Text.PPrint_nnest e_Text.PPrint_lnest 2 0 "nest"
.a 2 e_Text.PPrint_eanest
.o 2 0 
e_Text.PPrint_lnest
	push_args 0 1 1
	update_a 2 1
	create 
.d 3 0 
	put_a_jmp 3 e_Text.PPrint_eanest
.n 2 e_Text.PPrint_dnest e_Text.PPrint_eanest
.o 1 0 
e_Text.PPrint_nnest
	push_node _cycle_in_spine 2
.o 3 0 
e_Text.PPrint_eanest
	jsr_eval 0
	pushI0_pop_a1 
.o 2 1 i
e_Text.PPrint_snest
.o 2 1 i
s63
	push_ab 0 0
	fill_r e_Text.PPrint_kNest 1 1 2 0 0
.d 1 0 
	pop_ab_rtn 2 2
.export e_Text.PPrint_snesting
.export e_Text.PPrint_eanesting
.descexp e_Text.PPrint_dnesting e_Text.PPrint_nnesting e_Text.PPrint_lnesting 1 0 "nesting"
.o 2 0 
e_Text.PPrint_lnesting
	update_a 1 0
	create 
.d 2 0 
	put_a_jmp 2 e_Text.PPrint_eanesting
.n 1 e_Text.PPrint_dnesting e_Text.PPrint_eanesting
.o 1 0 
e_Text.PPrint_nnesting
	push_node _cycle_in_spine 1
.o 2 0 
e_Text.PPrint_eanesting
.o 2 0 
e_Text.PPrint_snesting
.o 2 0 
s65
	push_a 0
	fillh e_Text.PPrint_dNesting 1 2
.d 1 0 
	pop_a_rtn 1
.export e_Text.PPrint_scolumn
.export e_Text.PPrint_eacolumn
.descexp e_Text.PPrint_dcolumn e_Text.PPrint_ncolumn e_Text.PPrint_lcolumn 1 0 "column"
.o 2 0 
e_Text.PPrint_lcolumn
	update_a 1 0
	create 
.d 2 0 
	put_a_jmp 2 e_Text.PPrint_eacolumn
.n 1 e_Text.PPrint_dcolumn e_Text.PPrint_eacolumn
.o 1 0 
e_Text.PPrint_ncolumn
	push_node _cycle_in_spine 1
.o 2 0 
e_Text.PPrint_eacolumn
.o 2 0 
e_Text.PPrint_scolumn
.o 2 0 
s64
	push_a 0
	fillh e_Text.PPrint_dColumn 1 2
.d 1 0 
	pop_a_rtn 1
.o 2 0 
s113
	build e_Text.PPrint_dcomma 0 e_Text.PPrint_ncomma
	build e_Text.PPrint_drparen 0 e_Text.PPrint_nrparen
	build e_Text.PPrint_dlparen 0 e_Text.PPrint_nlparen
.d 5 0 
	jmp s4
.o 2 0 
s114
	build e_Text.PPrint_dcomma 0 e_Text.PPrint_ncomma
	build e_Text.PPrint_drbracket 0 e_Text.PPrint_nrbracket
	build e_Text.PPrint_dlbracket 0 e_Text.PPrint_nlbracket
.d 5 0 
	jmp s4
.export e_Text.PPrint_dcat.115
.export e_Text.PPrint_ncat.115
.descn e_Text.PPrint_dcat.115 e_Text.PPrint_ncat.115 1 0 "cat.115"
.n 1 e_Text.PPrint_dcat.115 ea115
.o 1 0 
e_Text.PPrint_ncat.115
	push_node _cycle_in_spine 1
.o 2 0 
ea115
.o 2 0 
s115
	build e_Text.PPrint_dvcat 0 e_Text.PPrint_nvcat
.d 3 0 
	jmp s100
