.comp 920 000111010010000
.start _nostart_
.depend "Clean.PrettyPrint.Definition" "20210430140102"
.depend "Clean.PrettyPrint.Common" "20210430140102"
.depend "Clean.PrettyPrint.Util" "20210430140102"
.depend "predef" "20210430140106"
.depend "containers" "20210430140106"
.depend "IndexType" "20210430140106"
.depend "Heap" "20210430140106"
.depend "typeproperties" "20210430140106"
.depend "general" "20210430140106"
.depend "scanner" "20210430140106"
.depend "StdCharList" "20210430140102"
.depend "StdArray" "20210430140102"
.depend "StdEnv" "20210430140102"
.depend "syntax" "20210430140106"
.depend "hashtable" "20210430140106"
.depend "Control.Monad.Fail" "20210430140102"
.depend "Data.Traversable" "20210430140102"
.depend "Data.Foldable" "20210430140102"
.depend "StdOverloadedList" "20210430140102"
.depend "Data.List" "20210430140102"
.depend "_SystemEnumStrict" "20210430140102"
.depend "_SystemStrictLists" "20210430140102"
.depend "StdStrictLists" "20210430140102"
.depend "StdGeneric" "20210430140102"
.depend "Data.GenEq" "20210430140102"
.depend "StdReal" "20210430140102"
.depend "StdList" "20210430140102"
.depend "Data.Monoid" "20210430140102"
.depend "Data.Functor" "20210430140102"
.depend "Control.Monad" "20210430140102"
.depend "Control.Applicative" "20210430140102"
.depend "StdTuple" "20210430140102"
.depend "StdString" "20210430140102"
.depend "StdOrdList" "20210430140102"
.depend "StdMisc" "20210430140102"
.depend "StdFunctions" "20210430140102"
.depend "StdFunc" "20210430140102"
.depend "StdFile" "20210430140102"
.depend "StdChar" "20210430140102"
.depend "StdInt" "20210430140102"
.depend "StdClass" "20210430140102"
.depend "_SystemEnum" "20210430140102"
.depend "StdEnum" "20210430140102"
.depend "StdOverloaded" "20210430140102"
.depend "StdBool" "20210430140102"
.depend "_SystemArray" "20210430140102"
.depend "Clean.PrettyPrint.Expression" "20210430140102"
.module m_Clean.PrettyPrint.Expression "Clean.PrettyPrint.Expression" "20210430140102"
.endinfo
.impmod _system
.implab _cycle_in_spine
.implab _type_error
.implab _hnf
.impdesc e_system_dind
.implab e_system_nind e_system_eaind
.impdesc e_system_dif
.implab e_system_nif e_system_eaif
.implab e_system_sif
.impdesc e_system_dAP
.implab e_system_nAP e_system_eaAP
.implab e_system_sAP
.impdesc ARRAY
.impdesc _Nil
.impdesc _Cons
.impdesc _Conss
.implab n_Conss ea_Conss
.impdesc _Consts
.implab n_Consts ea_Consts
.impdesc _Conssts
.implab n_Conssts ea_Conssts
.impdesc _Tuple
.impdesc d_S.1
.implab n_S.1 ea_S.1
.impdesc d_S.2
.implab n_S.2 ea_S.2
.impdesc d_S.3
.implab n_S.3 ea_S.3
.impdesc d_S.4
.implab n_S.4 ea_S.4
.impdesc d_S.5
.implab n_S.5 ea_S.5
.impdesc d_S.6
.implab n_S.6 ea_S.6
.implab _driver
.impmod Clean.PrettyPrint.Definition
.impdesc e_Clean.PrettyPrint.Definition_dprint;0
.impdesc e_Clean.PrettyPrint.Definition_dprint;2
.impdesc e_Clean.PrettyPrint.Definition_dprint;3
.impdesc e_Clean.PrettyPrint.Definition_dprint;4
.impmod Clean.PrettyPrint.Common
.impdesc e_Clean.PrettyPrint.Common_dprint;0
.implab e_Clean.PrettyPrint.Common_sprint;0
.impmod Clean.PrettyPrint.Util
.impdesc e_Clean.PrettyPrint.Util_dprint;1
.implab e_Clean.PrettyPrint.Util_sprint;1
.implab e_Clean.PrettyPrint.Util_sprint;3
.impdesc e_Clean.PrettyPrint.Util_dprint;4
.impdesc e_Clean.PrettyPrint.Util_dprint;5
.implab e_Clean.PrettyPrint.Util_sprint;5
.implab e_Clean.PrettyPrint.Util_sisNil;6
.implab e_Clean.PrettyPrint.Util_sjoin;7
.impmod Data.List
.implab e_Data.List_sintersperse
.impmod StdList
.implab e_StdList_smap
.implab e_StdList_sisMember
.impmod StdString
.impdesc e_StdString_d==;2
.implab e_StdString_s==;2
.implab e_StdString_stoString;5
.implab e_StdString_stoString;8
.implab e_StdString_s%;10
.implab e_StdString_s+++;11
.impmod StdMisc
.implab e_StdMisc_sabort
.impmod StdChar
.implab e_StdChar_s==;18
.impmod StdInt
.implab e_StdInt_s+;6
.impmod _SystemArray
.impmod Clean.PrettyPrint.Util
.impdesc e_Clean.PrettyPrint.Util_dPrintNil
.impdesc e_Clean.PrettyPrint.Util_k:+:
.impdesc e_Clean.PrettyPrint.Util_rprint;
.impmod general
.impdesc e_general_kYes
.impdesc e_general_dNo
.impmod syntax
.impdesc e_syntax_dLocalParsedDefs
.impdesc e_syntax_kFK_Function
.impdesc e_syntax_dFK_Macro
.impdesc e_syntax_dFK_Caf
.impdesc e_syntax_dFK_NodeDefOrFunction
.impdesc e_syntax_dFK_Unknown
.impdesc e_syntax_kBVI
.impdesc e_syntax_kBVInt
.impdesc e_syntax_kBVC
.impdesc e_syntax_kBVB
.impdesc e_syntax_kBVR
.impdesc e_syntax_kBVS
.impdesc e_syntax_dKindConst
.impdesc e_syntax_kKindArrow
.impdesc e_syntax_kGuardedAlts
.impdesc e_syntax_kUnGuardedExpr
.impdesc e_syntax_dParsedNormalSelector
.impdesc e_syntax_kParsedUniqueSelector
.impdesc e_syntax_kPE_List
.impdesc e_syntax_kPE_Ident
.impdesc e_syntax_kPE_Basic
.impdesc e_syntax_kPE_Bound
.impdesc e_syntax_kPE_Lambda
.impdesc e_syntax_kPE_Tuple
.impdesc e_syntax_kPE_Record
.impdesc e_syntax_kPE_ArrayPattern
.impdesc e_syntax_kPE_UpdateComprehension
.impdesc e_syntax_kPE_ArrayDenot
.impdesc e_syntax_kPE_Selection
.impdesc e_syntax_kPE_Update
.impdesc e_syntax_kPE_Case
.impdesc e_syntax_kPE_If
.impdesc e_syntax_kPE_Let
.impdesc e_syntax_kPE_ListCompr
.impdesc e_syntax_kPE_ArrayCompr
.impdesc e_syntax_dPE_Sequ
.impdesc e_syntax_dPE_WildCard
.impdesc e_syntax_kPE_Matches
.impdesc e_syntax_kPE_QualifiedIdent
.impdesc e_syntax_kPE_ABC_Code
.impdesc e_syntax_kPE_DynamicPattern
.impdesc e_syntax_kPE_Dynamic
.impdesc e_syntax_kPE_Generic
.impdesc e_syntax_dPE_Empty
.impdesc e_syntax_kPS_Record
.impdesc e_syntax_kPS_Array
.impdesc e_syntax_dNoRecordName
.impdesc e_syntax_kRecordNameIdent
.impdesc e_syntax_kRecordNameQualifiedIdent
.impdesc e_syntax_dStrictArray
.impdesc e_syntax_dUnboxedArray
.impdesc e_syntax_dPackedArray
.impdesc e_syntax_dOverloadedArray
.impdesc e_syntax_dIsListGenerator
.impdesc e_syntax_dIsOverloadedListGenerator
.impdesc e_syntax_dIsArrayGenerator
.impdesc e_syntax_rQualifier
.impdesc e_syntax_kSQ_FromThen
.impdesc e_syntax_kSQ_FromThenTo
.impdesc e_syntax_kSQ_From
.impdesc e_syntax_kSQ_FromTo
.impdesc e_syntax_kFieldName
.impdesc e_syntax_kQualifiedFieldName
.impmod StdClass
.impdesc e_StdClass_rEq;
.impmod StdOverloaded
.impdesc e_StdOverloaded_r==;
.o 3 2 ib
s8
	pushD_a 2
	jmpD be e_syntax_kPE_Ident 0 case.1 case.2
	pop_b 1
	jmp case.3
case.1
	pop_b 1
	push_args 2 1 1
	eq_desc _Cons 2 0
	jmp_true case.4
	pop_a 1
	jmp case.3
case.4
	repl_args 2 2
	jsr_eval 0
	eq_desc e_syntax_kPE_Ident 0 0
	jmp_true case.5
	pop_a 2
	jmp case.3
case.5
	repl_args 2 2
	jsr_eval 2
	eq_desc _Cons 2 2
	jmp_true case.6
	pop_a 3
	jmp case.3
case.6
	push_args 2 2 2
	buildh _Nil 0
	update_a 0 5
	pop_a 1
	jsr_eval 1
	eq_desc _Cons 2 1
	jmp_true case.7
	pop_a 5
	jmp case.3
case.7
	push_args 1 2 2
	buildh _Nil 0
	update_a 0 4
	pop_a 1
	jsr_eval 1
	eq_desc _Nil 0 1
	jmp_true case.8
	pop_a 7
	jmp case.3
case.8
	push_a 5
	push_a 5
	buildh _Nil 0
	update_a 0 7
	update_a 0 8
	pop_a 1
.d 2 0
	jsr s6
.o 0 1 b
	jmp_false else.9
	push_a 0
	jsr_eval 0
	push_a 9
	push_b 1
	push_b 1
	push_a 9
	update_a 5 9
	update_a 2 8
	update_a 1 7
	updatepop_a 0 6
.d 3 2 ib
	jsr s8
.o 1 0
	push_a 1
	jsr_eval 0
	push_a 4
	push_b 1
	push_b 1
	buildh _Nil 0
	update_a 0 4
	pop_a 1
.d 2 2 ib
	jsr s2
.o 1 0
	update_a 1 2
	updatepop_a 0 1
.d 2 0
	jsr catAC
.o 1 0
	buildAC ","
	update_a 1 4
	updatepop_a 0 3
	pop_b 2
.d 2 0
	jsr catAC
.o 1 0
.d 1 0
	rtn
else.9
	pop_a 7
	jmp case.3
case.2
	pop_b 1
	push_args 2 2 2
	push_a 1
	push_a 1
	update_a 1 3
	updatepop_a 0 2
.d 2 0
	jsr s7
.o 0 1 b
	jmp_false else.10
	pop_b 2
	jsr_eval 0
	updatepop_a 0 2
	push_array 0
	updatepop_a 0 1
.d 1 0
	rtn
else.10
	jmp case.3
case.3
	push_a 0
	jsr_eval 0
	push_array 0
	updatepop_a 0 1
	push_a 3
	push_a 3
	push_b 1
	push_b 1
	update_b 1 3
	updatepop_b 0 2
	buildh _Nil 0
	update_a 0 5
	update_a 0 6
	update_a 0 4
	pop_a 1
.d 2 2 ib
	jsr s2
.o 1 0
	update_a 1 4
	updatepop_a 0 3
.d 2 0
	jsr catAC
.o 1 0
	buildAC ":"
.d 2 0
	jsr catAC
.o 1 0
.d 1 0
	rtn
.desc d15 _hnf l15 2 0 "print;14"
.o 3 2 ib
i15
	pop_a 1
	push_r_args 1 2 0
	update_a 1 3
	update_a 2 1
	update_a 0 2
	pop_a 1
.d 3 2 ib
	jmp s15
.ai 0 a15 i15
.o 2 0
l15
	repl_args 1 1
.o 2 0
a15
.d 2 0
	jsr ea15
.o 1 0
	buildh ARRAY 1
.d 1 0
	rtn
.o 2 0
ea15
	jsr_eval 1
	jsr_eval 0
	push_r_args 1 2 0
	push_r_args 2 1 2
	update_a 2 4
	update_a 0 2
	update_a 1 3
	pop_a 2
.o 3 2 ib
s15
	eq_desc e_syntax_dPE_Empty 0 1
	jmp_true case.11
	jmp case.12
case.11
	push_a 2
	push_a 1
	push_b 1
	push_b 1
	update_a 1 4
	updatepop_a 0 3
	update_b 1 3
	updatepop_b 0 2
.d 2 2 ib
	jmp s16
case.12
	buildh e_Clean.PrettyPrint.Util_dprint;1 0
	buildh d16 0
	buildAC "="
	buildh ARRAY 1
	push_a 5
	push_a 3
	update_a 2 4
	update_a 0 2
	update_a 3 0
	update_a 1 3
	update_a 0 1
	pop_a 1
	buildhr e_Clean.PrettyPrint.Util_k:+: 4 0
	buildh e_Clean.PrettyPrint.Expression_dprint;1 0
	buildh e_Clean.PrettyPrint.Util_dprint;5 0
	push_a 4
	push_a 3
	update_a 1 4
	update_a 2 1
	update_a 3 2
	update_a 0 3
	pop_a 1
	buildhr e_Clean.PrettyPrint.Util_k:+: 4 0
	push_a 1
	push_b 1
	push_b 1
	update_a 1 4
	updatepop_a 0 3
	update_b 1 3
	updatepop_b 0 2
.d 2 2 ib
	jmp e_Clean.PrettyPrint.Util_sprint;5
.desc d17 _hnf l17 2 0 "print;16"
.o 3 2 ib
i17
	pop_a 1
	push_r_args 1 3 0
	update_a 2 4
	update_a 0 2
	push_a 3
	update_a 2 4
	update_a 0 2
	pop_a 2
.d 4 2 ib
	jmp s17
.ai 0 a17 i17
.o 2 0
l17
	repl_args 1 1
.o 2 0
a17
.d 2 0
	jsr ea17
.o 1 0
	buildh ARRAY 1
.d 1 0
	rtn
.o 2 0
ea17
	jsr_eval 1
	jsr_eval 0
	push_r_args 1 3 0
	push_r_args 3 1 2
	update_a 3 5
	update_a 1 3
	update_a 2 4
	update_a 0 2
	pop_a 2
.o 4 2 ib
s17
	push_a 2
	push_a 2
	buildh e_Clean.PrettyPrint.Util_dprint;1 0
	buildh e_Clean.PrettyPrint.Expression_dprint;1 0
	buildAC " -> "
	buildh ARRAY 1
	push_a 3
	update_a 1 4
	update_a 2 1
	update_a 3 2
	update_a 0 3
	pop_a 1
	buildhr e_Clean.PrettyPrint.Util_k:+: 4 0
	buildh e_Clean.PrettyPrint.Expression_dprint;2 0
	buildh e_Clean.PrettyPrint.Util_dprint;5 0
	buildhr e_Clean.PrettyPrint.Util_k:+: 4 0
	push_a 1
	push_b 1
	push_b 1
	update_a 1 5
	updatepop_a 0 4
	update_b 1 3
	updatepop_b 0 2
.d 2 2 ib
	jmp e_Clean.PrettyPrint.Util_sprint;5
.o 2 2 ib
s12
	pushD_a 1
	jmpD be e_syntax_kSQ_FromThenTo 0 case.13 case.14
	eqD_b e_syntax_kSQ_From 0
	jmp_true case.15
	jmp case.16
case.13
	pop_b 1
	push_r_args 1 2 1
	buildh _Nil 0
	update_a 0 4
	pop_a 1
	pop_b 1
	push_a 1
	jsr_eval 0
	push_a 1
	jsr_eval 0
	buildh e_Clean.PrettyPrint.Expression_dprint;1 0
	buildh e_Clean.PrettyPrint.Util_dprint;1 0
	buildAC "["
	buildh ARRAY 1
	push_a 2
	update_a 1 3
	update_a 2 1
	update_a 0 2
	pop_a 1
	buildhr e_Clean.PrettyPrint.Util_k:+: 4 0
	buildh e_Clean.PrettyPrint.Util_dprint;1 0
	buildh e_Clean.PrettyPrint.Util_dprint;5 0
	buildAC ","
	buildh ARRAY 1
	push_a 3
	update_a 1 4
	update_a 2 1
	update_a 3 2
	update_a 0 3
	pop_a 1
	buildhr e_Clean.PrettyPrint.Util_k:+: 4 0
	buildh e_Clean.PrettyPrint.Expression_dprint;1 0
	buildh e_Clean.PrettyPrint.Util_dprint;5 0
	buildhr e_Clean.PrettyPrint.Util_k:+: 4 0
	buildh e_Clean.PrettyPrint.Util_dprint;1 0
	buildh e_Clean.PrettyPrint.Util_dprint;5 0
	buildAC "..]"
	buildh ARRAY 1
	push_a 3
	update_a 1 4
	update_a 2 1
	update_a 3 2
	update_a 0 3
	pop_a 1
	buildhr e_Clean.PrettyPrint.Util_k:+: 4 0
	push_a 3
	push_b 1
	push_b 1
	update_a 1 5
	updatepop_a 0 4
	update_b 1 3
	updatepop_b 0 2
.d 2 2 ib
	jmp e_Clean.PrettyPrint.Util_sprint;5
case.14
	pop_b 1
	push_r_args 1 3 1
	buildh _Nil 0
	update_a 0 5
	pop_a 1
	pop_b 1
	push_a 2
	jsr_eval 0
	push_a 2
	jsr_eval 0
	push_a 2
	jsr_eval 0
	buildh e_Clean.PrettyPrint.Expression_dprint;1 0
	buildh e_Clean.PrettyPrint.Util_dprint;1 0
	buildAC "["
	buildh ARRAY 1
	push_a 2
	update_a 1 3
	update_a 2 1
	update_a 0 2
	pop_a 1
	buildhr e_Clean.PrettyPrint.Util_k:+: 4 0
	buildh e_Clean.PrettyPrint.Util_dprint;1 0
	buildh e_Clean.PrettyPrint.Util_dprint;5 0
	buildAC ","
	buildh ARRAY 1
	push_a 3
	update_a 1 4
	update_a 2 1
	update_a 3 2
	update_a 0 3
	pop_a 1
	buildhr e_Clean.PrettyPrint.Util_k:+: 4 0
	buildh e_Clean.PrettyPrint.Expression_dprint;1 0
	buildh e_Clean.PrettyPrint.Util_dprint;5 0
	buildhr e_Clean.PrettyPrint.Util_k:+: 4 0
	buildh e_Clean.PrettyPrint.Util_dprint;1 0
	buildh e_Clean.PrettyPrint.Util_dprint;5 0
	buildAC ".."
	buildh ARRAY 1
	push_a 3
	update_a 1 4
	update_a 2 1
	update_a 3 2
	update_a 0 3
	pop_a 1
	buildhr e_Clean.PrettyPrint.Util_k:+: 4 0
	buildh e_Clean.PrettyPrint.Expression_dprint;1 0
	buildh e_Clean.PrettyPrint.Util_dprint;5 0
	buildhr e_Clean.PrettyPrint.Util_k:+: 4 0
	buildh e_Clean.PrettyPrint.Util_dprint;1 0
	buildh e_Clean.PrettyPrint.Util_dprint;5 0
	buildAC "]"
	buildh ARRAY 1
	push_a 3
	update_a 1 4
	update_a 2 1
	update_a 3 2
	update_a 0 3
	pop_a 1
	buildhr e_Clean.PrettyPrint.Util_k:+: 4 0
	push_a 4
	push_b 1
	push_b 1
	update_a 1 6
	updatepop_a 0 5
	update_b 1 3
	updatepop_b 0 2
.d 2 2 ib
	jmp e_Clean.PrettyPrint.Util_sprint;5
case.15
	pop_b 1
	push_r_args 1 1 1
	buildh _Nil 0
	update_a 0 3
	pop_a 1
	pop_b 1
	push_a 0
	jsr_eval 0
	buildh e_Clean.PrettyPrint.Expression_dprint;1 0
	buildh e_Clean.PrettyPrint.Util_dprint;1 0
	buildAC "["
	buildh ARRAY 1
	push_a 2
	update_a 1 3
	update_a 2 1
	update_a 0 2
	pop_a 1
	buildhr e_Clean.PrettyPrint.Util_k:+: 4 0
	buildh e_Clean.PrettyPrint.Util_dprint;1 0
	buildh e_Clean.PrettyPrint.Util_dprint;5 0
	buildAC "..]"
	buildh ARRAY 1
	push_a 3
	update_a 1 4
	update_a 2 1
	update_a 3 2
	update_a 0 3
	pop_a 1
	buildhr e_Clean.PrettyPrint.Util_k:+: 4 0
	push_a 2
	push_b 1
	push_b 1
	update_a 1 4
	updatepop_a 0 3
	update_b 1 3
	updatepop_b 0 2
.d 2 2 ib
	jmp e_Clean.PrettyPrint.Util_sprint;5
case.16
	pop_b 1
	push_r_args 1 2 1
	buildh _Nil 0
	update_a 0 4
	pop_a 1
	pop_b 1
	push_a 1
	jsr_eval 0
	push_a 1
	jsr_eval 0
	buildh e_Clean.PrettyPrint.Expression_dprint;1 0
	buildh e_Clean.PrettyPrint.Util_dprint;1 0
	buildAC "["
	buildh ARRAY 1
	push_a 2
	update_a 1 3
	update_a 2 1
	update_a 0 2
	pop_a 1
	buildhr e_Clean.PrettyPrint.Util_k:+: 4 0
	buildh e_Clean.PrettyPrint.Util_dprint;1 0
	buildh e_Clean.PrettyPrint.Util_dprint;5 0
	buildAC ".."
	buildh ARRAY 1
	push_a 3
	update_a 1 4
	update_a 2 1
	update_a 3 2
	update_a 0 3
	pop_a 1
	buildhr e_Clean.PrettyPrint.Util_k:+: 4 0
	buildh e_Clean.PrettyPrint.Expression_dprint;1 0
	buildh e_Clean.PrettyPrint.Util_dprint;5 0
	buildhr e_Clean.PrettyPrint.Util_k:+: 4 0
	buildh e_Clean.PrettyPrint.Util_dprint;1 0
	buildh e_Clean.PrettyPrint.Util_dprint;5 0
	buildAC "]"
	buildh ARRAY 1
	push_a 3
	update_a 1 4
	update_a 2 1
	update_a 3 2
	update_a 0 3
	pop_a 1
	buildhr e_Clean.PrettyPrint.Util_k:+: 4 0
	push_a 3
	push_b 1
	push_b 1
	update_a 1 5
	updatepop_a 0 4
	update_b 1 3
	updatepop_b 0 2
.d 2 2 ib
	jmp e_Clean.PrettyPrint.Util_sprint;5
.desc d23 _hnf l23 2 0 "print;22"
.o 3 2 ib
i23
	pop_a 1
	push_r_args 1 5 0
	update_a 4 6
	update_a 2 4
	update_a 0 2
	push_a 5
	update_a 4 6
	update_a 2 4
	update_a 0 2
	pop_a 2
.d 6 2 ib
	jmp s23
.ai 0 a23 i23
.o 2 0
l23
	repl_args 1 1
.o 2 0
a23
.d 2 0
	jsr ea23
.o 1 0
	buildh ARRAY 1
.d 1 0
	rtn
.o 2 0
ea23
	jsr_eval 1
	jsr_eval 0
	push_r_args 1 5 0
	push_r_args 5 1 2
	update_a 5 7
	update_a 3 5
	update_a 1 3
	update_a 4 6
	update_a 2 4
	update_a 0 2
	pop_a 2
.o 6 2 ib
s23
	push_a 3
	push_a 1
	push_b 1
	push_b 1
	update_a 2 3
	update_a 1 2
	updatepop_a 0 1
.d 2 2 ib
	jsr s22
.o 1 0
	push_a 3
	buildh _Nil 0
	update_a 0 5
	pop_a 1
.d 1 0
	jsr s1
.o 0 1 b
.d 0 1 b
	jsr s47
.o 1 0
.d 2 0
	jsr catAC
.o 1 0
	push_b 0
	pushI 1
	push_b 1
	update_b 1 2
	update_b 0 1
	pop_b 1
	addI
	push_a 1
	push_b 2
	push_b 2
	update_b 2 0
	update_b 1 2
	updatepop_b 0 1
	push_a 3
	push_a 1
	update_a 1 2
	update_a 0 1
	pop_a 1
	update_b 1 3
	updatepop_b 0 2
	buildh _Nil 0
	update_a 0 5
	update_a 0 4
	pop_a 1
.d 2 2 ib
	jsr s2
.o 1 0
	update_a 1 6
	updatepop_a 0 5
.d 2 0
	jsr catAC
.o 1 0
.d 1 0
	rtn
.desc d21 _hnf l21 2 0 "print;20"
.o 3 2 ib
i21
	pop_a 1
	push_r_args 1 3 1
	update_a 2 4
	update_a 0 2
	push_a 3
	update_a 2 4
	update_a 0 2
	pop_a 2
	push_b 2
	update_b 1 3
	update_b 2 1
	update_b 0 2
	pop_b 1
.d 4 3 ibb
	jmp s21
.ai 0 a21 i21
.o 2 0
l21
	repl_args 1 1
.o 2 0
a21
.d 2 0
	jsr ea21
.o 1 0
	buildh ARRAY 1
.d 1 0
	rtn
.o 2 0
ea21
	jsr_eval 1
	jsr_eval 0
	push_r_args 1 3 1
	push_r_args 3 1 2
	update_a 3 5
	update_a 1 3
	update_a 2 4
	update_a 0 2
	pop_a 2
.o 4 3 ibb
s21
	push_args_u 1 2 2
	push_b 2
.d 0 1 b
	jsr s46
.o 1 0
	buildh ARRAY 1
	buildh e_Clean.PrettyPrint.Expression_dprint;1 0
	buildh e_Clean.PrettyPrint.Util_dprint;1 0
	push_a 4
	push_a 3
	update_a 1 4
	update_a 2 1
	update_a 3 2
	update_a 0 3
	pop_a 1
	buildhr e_Clean.PrettyPrint.Util_k:+: 4 0
	buildh e_Clean.PrettyPrint.Util_dprint;1 0
	buildh e_Clean.PrettyPrint.Util_dprint;5 0
	buildAC " = "
	buildh ARRAY 1
	push_a 3
	update_a 1 4
	update_a 2 1
	update_a 3 2
	update_a 0 3
	pop_a 1
	buildhr e_Clean.PrettyPrint.Util_k:+: 4 0
	buildh e_Clean.PrettyPrint.Expression_dprint;1 0
	buildh e_Clean.PrettyPrint.Util_dprint;5 0
	push_a 3
	push_a 3
	update_a 1 4
	update_a 2 1
	update_a 3 2
	update_a 0 3
	pop_a 1
	buildhr e_Clean.PrettyPrint.Util_k:+: 4 0
	push_a 3
	push_b 1
	push_b 1
	update_a 1 7
	updatepop_a 0 6
	update_b 1 4
	updatepop_b 0 3
.d 2 2 ib
	jmp e_Clean.PrettyPrint.Util_sprint;5
.desc d20 _hnf l20 2 0 "print;19"
.o 3 2 ib
i20
	pop_a 1
	push_r_args 1 4 0
	update_a 3 5
	update_a 1 3
	update_a 4 1
	update_a 2 4
	update_a 0 2
	pop_a 1
.d 5 2 ib
	jmp s20
.ai 0 a20 i20
.o 2 0
l20
	repl_args 1 1
.o 2 0
a20
.d 2 0
	jsr ea20
.o 1 0
	buildh ARRAY 1
.d 1 0
	rtn
.o 2 0
ea20
	jsr_eval 1
	jsr_eval 0
	push_r_args 1 4 0
	push_r_args 4 1 2
	update_a 4 6
	update_a 2 4
	update_a 0 2
	update_a 3 5
	update_a 1 3
	pop_a 2
.o 5 2 ib
s20
	eq_desc _Nil 0 1
	jmp_true case.17
	jmp case.18
case.17
	eq_desc e_syntax_dLocalParsedDefs 1 3
	jmp_true case.19
	jmp case.18
case.19
	push_args 3 1 1
	jsr_eval 0
	eq_desc _Nil 0 0
	jmp_true case.20
	pop_a 1
	jmp case.18
case.20
	push_a 3
	push_a 2
	push_b 1
	push_b 1
	update_a 1 7
	updatepop_a 0 6
	update_b 1 3
	updatepop_b 0 2
.d 2 2 ib
	jmp s2
case.18
	eq_desc e_syntax_dLocalParsedDefs 1 3
	jmp_true case.21
	jmp case.22
case.21
	push_args 3 1 1
	jsr_eval 0
	eq_desc _Nil 0 0
	jmp_true case.23
	pop_a 1
	jmp case.22
case.23
	push_b 0
	pushI 1
	push_b 1
	update_b 1 2
	update_b 0 1
	pop_b 1
	addI
	push_a 1
	push_b 2
	push_b 2
	update_b 2 0
	update_b 1 2
	updatepop_b 0 1
.impmod Clean.PrettyPrint.Util
.impdesc e_Clean.PrettyPrint.Util_rCPPState
	build_r e_Clean.PrettyPrint.Util_rCPPState 1 2 0 0
	buildh e_Clean.PrettyPrint.Util_dprint;4 0
	buildh e_Clean.PrettyPrint.Util_dprint;1 0
	buildAC "\n"
	buildh ARRAY 1
	push_a 2
	update_a 1 3
	update_a 2 1
	update_a 0 2
	pop_a 1
	buildhr e_Clean.PrettyPrint.Util_k:+: 4 0
	push_a 3
	build_r e_Clean.PrettyPrint.Util_rCPPState 1 2 2 0
	buildh e_Clean.PrettyPrint.Util_dprint;5 0
	buildh d21 0
	push_a 8
	push_a 5
	push_a 7
	push_b 1
	push_b 1
	push_a 4
	update_a 3 5
	update_a 1 3
	update_a 4 1
	update_a 2 4
	update_a 0 2
	pop_a 1
.d 5 2 ib
	jsr e_Clean.PrettyPrint.Util_sjoin;7
.o 1 0
	build_r e_Clean.PrettyPrint.Util_rCPPState 1 2 4 0
	buildh d21 0
	push_a 9
	push_a 1
	update_a 1 2
	update_a 0 1
	pop_a 1
	pop_b 2
	buildh _Nil 0
	update_a 0 11
	update_a 0 8
	pop_a 1
.d 2 0
	jsr e_Clean.PrettyPrint.Util_sisNil;6
.o 0 1 b
	push_a 4
	push_a 1
	update_a 1 2
	update_a 0 1
	pop_a 1
	buildh _Nil 0
	update_a 0 6
	pop_a 1
.d 2 1 b
	jsr s44
.o 1 0
.d 2 0
	jsr catAC
.o 1 0
	buildh ARRAY 1
	buildh e_Clean.PrettyPrint.Util_dprint;1 0
	buildh e_Clean.PrettyPrint.Util_dprint;1 0
	buildAC "\n"
	buildh ARRAY 1
	push_a 3
	update_a 1 4
	update_a 2 1
	update_a 3 2
	update_a 0 3
	pop_a 1
	buildhr e_Clean.PrettyPrint.Util_k:+: 4 0
	buildh e_Clean.PrettyPrint.Util_dprint;4 0
	buildh e_Clean.PrettyPrint.Util_dprint;5 0
	buildhr e_Clean.PrettyPrint.Util_k:+: 4 0
	buildh e_Clean.PrettyPrint.Expression_dprint;3 0
	buildh e_Clean.PrettyPrint.Util_dprint;5 0
	buildhr e_Clean.PrettyPrint.Util_k:+: 4 0
	buildh e_Clean.PrettyPrint.Util_dprint;1 0
	buildh e_Clean.PrettyPrint.Util_dprint;5 0
	buildAC " "
	buildh ARRAY 1
	push_a 3
	update_a 1 4
	update_a 2 1
	update_a 3 2
	update_a 0 3
	pop_a 1
	buildhr e_Clean.PrettyPrint.Util_k:+: 4 0
	buildh e_Clean.PrettyPrint.Expression_dprint;1 0
	buildh e_Clean.PrettyPrint.Util_dprint;5 0
	push_a 8
	push_a 3
	update_a 1 4
	update_a 2 1
	update_a 3 2
	update_a 0 3
	pop_a 1
	buildhr e_Clean.PrettyPrint.Util_k:+: 4 0
	push_a 4
	push_b 1
	push_b 1
	update_a 1 9
	updatepop_a 0 8
	update_b 1 3
	updatepop_b 0 2
.d 2 2 ib
	jmp e_Clean.PrettyPrint.Util_sprint;5
case.22
	push_b 0
	pushI 2
	push_b 1
	update_b 1 2
	update_b 0 1
	pop_b 1
	addI
	push_a 0
	push_b 2
	push_b 2
	update_b 2 0
	update_b 1 2
	updatepop_b 0 1
	build_r e_Clean.PrettyPrint.Util_rCPPState 1 2 0 0
	buildh e_Clean.PrettyPrint.Util_dprint;4 0
	buildh e_Clean.PrettyPrint.Util_dprint;1 0
	buildAC "\n"
	buildh ARRAY 1
	push_a 2
	update_a 1 3
	update_a 2 1
	update_a 0 2
	pop_a 1
	buildhr e_Clean.PrettyPrint.Util_k:+: 4 0
	push_a 5
	push_a 1
	push_a 3
	push_b 1
	push_b 1
	buildh _Nil 0
	update_a 0 7
	pop_a 1
.d 3 2 ib
	jsr s27
.o 1 0
	build_r e_Clean.PrettyPrint.Util_rCPPState 1 2 2 0
	push_a 7
	pop_b 2
	buildh _Nil 0
	update_a 0 9
	update_a 0 5
	pop_a 1
.d 1 0
	jsr s18
.o 0 1 b
	push_a 2
	push_a 1
	update_a 1 2
	update_a 0 1
	pop_a 1
	buildh _Nil 0
	update_a 0 4
	pop_a 1
.d 2 1 b
	jsr s45
.o 1 0
	update_a 4 5
	update_a 1 4
	updatepop_a 0 3
.d 2 0
	jsr catAC
.o 1 0
	buildh ARRAY 1
	push_b 0
	pushI 1
	push_b 1
	update_b 1 2
	update_b 0 1
	pop_b 1
	addI
	push_a 1
	push_b 2
	push_b 2
	update_b 2 0
	buildhr e_Clean.PrettyPrint.Util_rCPPState 1 2
	pop_b 1
	buildh e_Clean.PrettyPrint.Util_dprint;1 0
	buildh e_Clean.PrettyPrint.Expression_dprint;1 0
	buildAC "\n"
	buildh ARRAY 1
	push_a 6
	push_a 3
	update_a 2 4
	update_a 0 2
	update_a 3 0
	update_a 1 3
	update_a 0 1
	pop_a 1
	buildhr e_Clean.PrettyPrint.Util_k:+: 4 0
	buildh e_Clean.PrettyPrint.Util_dprint;4 0
	buildh e_Clean.PrettyPrint.Util_dprint;5 0
	buildhr e_Clean.PrettyPrint.Util_k:+: 4 0
	buildh e_Clean.PrettyPrint.Util_dprint;1 0
	buildh e_Clean.PrettyPrint.Util_dprint;5 0
	buildAC "with"
	buildh ARRAY 1
	push_a 3
	update_a 1 4
	update_a 2 1
	update_a 3 2
	update_a 0 3
	pop_a 1
	buildhr e_Clean.PrettyPrint.Util_k:+: 4 0
	buildh e_Clean.PrettyPrint.Util_dprint;1 0
	buildh e_Clean.PrettyPrint.Util_dprint;5 0
	buildhr e_Clean.PrettyPrint.Util_k:+: 4 0
	push_a 1
	push_b 1
	push_b 1
	update_a 1 5
	updatepop_a 0 4
	update_b 1 3
	updatepop_b 0 2
.d 2 2 ib
	jmp e_Clean.PrettyPrint.Util_sprint;5
.desc d22 _hnf l22 2 0 "print;21"
.o 3 2 ib
i22
	pop_a 1
.d 2 2 ib
	jmp s22
.ai 0 a22 i22
.o 2 0
l22
	repl_args 1 1
.o 2 0
a22
.d 2 0
	jsr ea22
.o 1 0
	buildh ARRAY 1
.d 1 0
	rtn
.o 2 0
ea22
	jsr_eval 1
	jsr_eval 0
	repl_r_args 1 2
.o 2 2 ib
s22
	eq_desc e_syntax_kGuardedAlts 0 1
	jmp_true case.24
	jmp case.25
case.24
	push_args 1 2 2
	buildh _Nil 0
	update_a 0 4
	pop_a 1
	eq_desc e_general_kYes 0 1
	jmp_true case.26
	jmp case.27
case.26
	push_args 1 1 1
	buildh _Nil 0
	update_a 0 3
	pop_a 1
	build_r e_Clean.PrettyPrint.Util_rCPPState 1 2 3 0
	buildh e_Clean.PrettyPrint.Util_dprint;4 0
	buildh e_Clean.PrettyPrint.Util_dprint;1 0
	buildAC "\n"
	buildh ARRAY 1
	push_a 2
	update_a 1 3
	update_a 2 1
	update_a 0 2
	pop_a 1
	buildhr e_Clean.PrettyPrint.Util_k:+: 4 0
	build _ 1 n80
	build_r e_Clean.PrettyPrint.Util_rCPPState 1 2 4 0
	buildh e_Clean.PrettyPrint.Util_dprint;5 0
	buildh d23 0
	push_a 5
	push_a 4
	push_a 9
	push_b 1
	push_b 1
	push_a 4
	update_a 3 5
	update_a 1 3
	update_a 4 1
	update_a 2 4
	update_a 0 2
	pop_a 1
.d 5 2 ib
	jsr e_Clean.PrettyPrint.Util_sjoin;7
.o 1 0
	build_r e_Clean.PrettyPrint.Util_rCPPState 1 2 6 0
	buildh d23 0
	push_a 6
	push_a 1
	update_a 1 2
	update_a 0 1
	pop_a 1
	buildh _Nil 0
	update_a 0 8
	pop_a 1
.d 2 0
	jsr e_Clean.PrettyPrint.Util_sisNil;6
.o 0 1 b
	push_a 3
	push_a 1
	update_a 1 2
	update_a 0 1
	pop_a 1
	buildh _Nil 0
	update_a 0 5
	pop_a 1
.d 2 1 b
	jsr s42
.o 1 0
.d 2 0
	jsr catAC
.o 1 0
	buildh ARRAY 1
	buildh e_Clean.PrettyPrint.Util_dprint;1 0
	buildh e_Clean.PrettyPrint.Util_dprint;1 0
	buildAC "\n"
	buildh ARRAY 1
	push_a 3
	update_a 1 4
	update_a 2 1
	update_a 3 2
	update_a 0 3
	pop_a 1
	buildhr e_Clean.PrettyPrint.Util_k:+: 4 0
	buildh e_Clean.PrettyPrint.Util_dprint;4 0
	buildh e_Clean.PrettyPrint.Util_dprint;5 0
	buildhr e_Clean.PrettyPrint.Util_k:+: 4 0
	buildh e_Clean.PrettyPrint.Util_dprint;1 0
	buildh e_Clean.PrettyPrint.Util_dprint;5 0
	buildAC "| otherwise = "
	buildh ARRAY 1
	push_a 3
	update_a 1 4
	update_a 2 1
	update_a 3 2
	update_a 0 3
	pop_a 1
	buildhr e_Clean.PrettyPrint.Util_k:+: 4 0
	buildh d20 0
	buildh e_Clean.PrettyPrint.Util_dprint;5 0
	push_a 4
	push_a 3
	update_a 1 4
	update_a 2 1
	update_a 3 2
	update_a 0 3
	pop_a 1
	buildhr e_Clean.PrettyPrint.Util_k:+: 4 0
	push_a 5
	push_b 1
	push_b 1
	update_a 1 7
	updatepop_a 0 6
	update_b 1 3
	updatepop_b 0 2
.d 2 2 ib
	jmp e_Clean.PrettyPrint.Util_sprint;5
case.27
	build_r e_Clean.PrettyPrint.Util_rCPPState 1 2 2 0
	buildh e_Clean.PrettyPrint.Util_dprint;4 0
	buildh e_Clean.PrettyPrint.Util_dprint;1 0
	buildAC "\n"
	buildh ARRAY 1
	push_a 2
	update_a 1 3
	update_a 2 1
	update_a 0 2
	pop_a 1
	buildhr e_Clean.PrettyPrint.Util_k:+: 4 0
	build _ 1 n81
	buildh e_Clean.PrettyPrint.Util_dprint;5 0
	buildh d23 0
	push_a 3
	push_a 3
	push_a 7
	push_b 1
	push_b 1
	push_a 4
	update_a 3 5
	update_a 1 3
	update_a 4 1
	update_a 2 4
	update_a 0 2
	pop_a 1
.d 5 2 ib
	jsr e_Clean.PrettyPrint.Util_sjoin;7
.o 1 0
	build_r e_Clean.PrettyPrint.Util_rCPPState 1 2 4 0
	buildh d23 0
	push_a 4
	push_a 1
	update_a 1 2
	update_a 0 1
	pop_a 1
	pop_b 2
	buildh _Nil 0
	update_a 0 6
	update_a 0 8
	pop_a 1
.d 2 0
	jsr e_Clean.PrettyPrint.Util_sisNil;6
.o 0 1 b
	push_a 2
	push_a 1
	update_a 1 2
	update_a 0 1
	pop_a 1
	buildh _Nil 0
	update_a 0 4
	pop_a 1
.d 2 1 b
	jsr s43
.o 1 0
	update_a 1 6
	updatepop_a 0 5
.d 2 0
	jsr catAC
.o 1 0
.d 1 0
	rtn
case.25
	push_args 1 4 4
	buildh _Nil 0
	update_a 0 6
	pop_a 1
	push_a 3
	push_a 3
	push_a 3
	push_a 3
	push_a 8
	push_b 1
	push_b 1
	update_a 4 10
	update_a 3 9
	update_a 2 8
	update_a 1 7
	updatepop_a 0 6
	update_b 1 3
	updatepop_b 0 2
.d 5 2 ib
	jmp s20
.n 1 _ ea81
.o 1 0
n81
	push_node _cycle_in_spine 1
.o 2 0
ea81
.o 2 0
s81
	push_a 0
	jsr_eval 0
	buildh e_Clean.PrettyPrint.Util_dprint;1 0
	buildh e_Clean.PrettyPrint.Util_dprint;5 0
	buildAC "| "
	buildh ARRAY 1
	push_a 3
	update_a 1 4
	update_a 2 1
	update_a 3 2
	update_a 0 3
	pop_a 1
	fill_r e_Clean.PrettyPrint.Util_k:+: 4 0 5 0 0
	pop_a 5
.d 1 0
	rtn
.n 1 _ ea80
.o 1 0
n80
	push_node _cycle_in_spine 1
.o 2 0
ea80
.o 2 0
s80
	push_a 0
	jsr_eval 0
	buildh e_Clean.PrettyPrint.Util_dprint;1 0
	buildh e_Clean.PrettyPrint.Util_dprint;5 0
	buildAC "| "
	buildh ARRAY 1
	push_a 3
	update_a 1 4
	update_a 2 1
	update_a 3 2
	update_a 0 3
	pop_a 1
	fill_r e_Clean.PrettyPrint.Util_k:+: 4 0 5 0 0
	pop_a 5
.d 1 0
	rtn
.export e_Clean.PrettyPrint.Expression_sprint;2
.descexp e_Clean.PrettyPrint.Expression_dprint;2 e_Clean.PrettyPrint.Expression_nprint;2 e_Clean.PrettyPrint.Expression_lprint;2 2 0 "print;2"
.o 3 2 ib
e_Clean.PrettyPrint.Expression_iprint;2
	pop_a 1
	push_r_args 1 2 0
	update_a 1 3
	update_a 2 1
	update_a 0 2
	pop_a 1
.d 3 2 ib
	jmp s3
.ai 0 a3 e_Clean.PrettyPrint.Expression_iprint;2
.o 2 0
e_Clean.PrettyPrint.Expression_lprint;2
	repl_args 1 1
.o 2 0
a3
.d 2 0
	jsr ea3
.o 1 0
	buildh ARRAY 1
.d 1 0
	rtn
.n 2 e_Clean.PrettyPrint.Expression_dprint;2
.o 1 0
e_Clean.PrettyPrint.Expression_nprint;2
	push_node _cycle_in_spine 2
.d 2 0
	jsr ea3
.o 1 0
	fillh ARRAY 1 1
.d 1 0
	rtn
.o 2 0
ea3
	jsr_eval 1
	jsr_eval 0
	push_r_args 1 2 0
	push_r_args 2 1 2
	update_a 2 4
	update_a 0 2
	update_a 1 3
	pop_a 2
.o 3 2 ib
e_Clean.PrettyPrint.Expression_sprint;2
.o 3 2 ib
s3
	eq_desc e_syntax_dLocalParsedDefs 1 2
	jmp_true case.28
	jmp case.29
case.28
	push_args 2 1 1
	jsr_eval 0
	eq_desc _Nil 0 0
	jmp_true case.30
	pop_a 1
	jmp case.29
case.30
	push_a 2
	push_a 2
	push_b 1
	push_b 1
	update_a 1 5
	updatepop_a 0 4
	update_b 1 3
	updatepop_b 0 2
.d 2 2 ib
	jmp s22
case.29
	push_b 0
	pushI 1
	push_b 1
	update_b 1 2
	update_b 0 1
	pop_b 1
	addI
	push_a 0
	push_b 2
	push_b 2
	update_b 2 0
	update_b 1 2
	updatepop_b 0 1
	build_r e_Clean.PrettyPrint.Util_rCPPState 1 2 0 0
	buildh e_Clean.PrettyPrint.Util_dprint;4 0
	buildh e_Clean.PrettyPrint.Util_dprint;1 0
	buildAC "\n"
	buildh ARRAY 1
	push_a 2
	update_a 1 3
	update_a 2 1
	update_a 0 2
	pop_a 1
	buildhr e_Clean.PrettyPrint.Util_k:+: 4 0
	push_a 4
	push_a 2
	push_b 1
	push_b 1
	push_a 2
	update_a 2 3
	update_a 0 2
	pop_a 1
	buildh _Nil 0
	update_a 0 7
	pop_a 1
.d 3 2 ib
	jsr s27
.o 1 0
	buildh ARRAY 1
	build_r e_Clean.PrettyPrint.Util_rCPPState 1 2 1 0
	build_r e_Clean.PrettyPrint.Util_rCPPState 1 2 3 2
	buildh e_Clean.PrettyPrint.Util_dprint;1 0
	buildh d22 0
	buildAC "\n"
	buildh ARRAY 1
	push_a 8
	push_a 3
	update_a 2 4
	update_a 0 2
	update_a 3 0
	update_a 1 3
	update_a 0 1
	pop_a 1
	buildhr e_Clean.PrettyPrint.Util_k:+: 4 0
	buildh e_Clean.PrettyPrint.Util_dprint;4 0
	buildh e_Clean.PrettyPrint.Util_dprint;5 0
	buildhr e_Clean.PrettyPrint.Util_k:+: 4 0
	buildh e_Clean.PrettyPrint.Util_dprint;1 0
	buildh e_Clean.PrettyPrint.Util_dprint;5 0
	buildAC "where\n"
	buildh ARRAY 1
	push_a 3
	update_a 1 4
	update_a 2 1
	update_a 3 2
	update_a 0 3
	pop_a 1
	buildhr e_Clean.PrettyPrint.Util_k:+: 4 0
	buildh e_Clean.PrettyPrint.Util_dprint;4 0
	buildh e_Clean.PrettyPrint.Util_dprint;5 0
	buildhr e_Clean.PrettyPrint.Util_k:+: 4 0
	buildh e_Clean.PrettyPrint.Util_dprint;1 0
	buildh e_Clean.PrettyPrint.Util_dprint;5 0
	buildhr e_Clean.PrettyPrint.Util_k:+: 4 0
	push_a 2
	push_b 3
	push_b 3
	update_a 1 5
	updatepop_a 0 4
	update_b 1 5
	updatepop_b 0 4
.d 2 2 ib
	jmp e_Clean.PrettyPrint.Util_sprint;5
.desc d11 _hnf l11 2 0 "print;10"
.o 3 2 ib
i11
	pop_a 1
	push_r_args 1 4 0
	update_a 3 5
	update_a 1 3
	update_a 4 1
	update_a 2 4
	update_a 0 2
	pop_a 1
.d 5 2 ib
	jmp s11
.ai 0 a11 i11
.o 2 0
l11
	repl_args 1 1
.o 2 0
a11
.d 2 0
	jsr ea11
.o 1 0
	buildh ARRAY 1
.d 1 0
	rtn
.o 2 0
ea11
	jsr_eval 1
	jsr_eval 0
	push_r_args 1 4 0
	push_r_args 4 1 2
	update_a 4 6
	update_a 2 4
	update_a 0 2
	update_a 3 5
	update_a 1 3
	pop_a 2
.o 5 2 ib
s11
	push_a 1
	update_a 1 2
	updatepop_a 0 1
.d 1 0
	jsr s41
.o 1 0
	buildh ARRAY 1
	buildh e_Clean.PrettyPrint.Util_dprint;1 0
	buildh e_Clean.PrettyPrint.Expression_dprint;1 0
	push_a 4
	push_a 2
	update_a 1 3
	update_a 2 1
	update_a 0 2
	pop_a 1
	buildhr e_Clean.PrettyPrint.Util_k:+: 4 0
	buildh e_Clean.PrettyPrint.Expression_dprint;1 0
	buildh e_Clean.PrettyPrint.Util_dprint;5 0
	push_a 5
	push_a 3
	update_a 1 4
	update_a 2 1
	update_a 3 2
	update_a 0 3
	pop_a 1
	buildhr e_Clean.PrettyPrint.Util_k:+: 4 0
	push_a 1
	push_b 1
	push_b 1
	update_a 1 5
	updatepop_a 0 4
	update_b 1 3
	updatepop_b 0 2
.d 2 2 ib
	jmp e_Clean.PrettyPrint.Util_sprint;5
.desc d10 _hnf l10 2 0 "print;9"
.o 3 2 ib
i10
	pop_a 1
	push_r_args 1 5 0
	update_a 4 6
	update_a 2 4
	update_a 0 2
	push_a 5
	update_a 4 6
	update_a 2 4
	update_a 0 2
	pop_a 2
.d 6 2 ib
	jmp s10
.ai 0 a10 i10
.o 2 0
l10
	repl_args 1 1
.o 2 0
a10
.d 2 0
	jsr ea10
.o 1 0
	buildh ARRAY 1
.d 1 0
	rtn
.o 2 0
ea10
	jsr_eval 1
	jsr_eval 0
	push_r_args 1 5 0
	push_r_args 5 1 2
	update_a 5 7
	update_a 3 5
	update_a 1 3
	update_a 4 6
	update_a 2 4
	update_a 0 2
	pop_a 2
.o 6 2 ib
s10
	eq_desc e_general_kYes 0 3
	jmp_true case.31
	jmp case.32
case.31
	push_args 3 1 1
	buildh e_general_dNo 0
	push_a 7
	push_a 7
	push_a 7
	push_a 7
	push_a 7
	update_a 5 2
	buildhr e_syntax_rQualifier 5 0
	updatepop_a 0 1
	buildh e_Clean.PrettyPrint.Util_dprint;1 0
	buildh d10 0
	buildAC " | "
	buildh ARRAY 1
	push_a 3
	update_a 1 4
	update_a 2 1
	update_a 3 2
	update_a 0 3
	pop_a 1
	buildhr e_Clean.PrettyPrint.Util_k:+: 4 0
	buildh e_Clean.PrettyPrint.Expression_dprint;1 0
	buildh e_Clean.PrettyPrint.Util_dprint;5 0
	push_a 3
	push_a 3
	update_a 1 4
	update_a 2 1
	update_a 3 2
	update_a 0 3
	pop_a 1
	buildhr e_Clean.PrettyPrint.Util_k:+: 4 0
	push_a 2
	push_b 1
	push_b 1
	update_a 1 8
	updatepop_a 0 7
	update_b 1 3
	updatepop_b 0 2
.d 2 2 ib
	jmp e_Clean.PrettyPrint.Util_sprint;5
case.32
	buildh e_Clean.PrettyPrint.Util_dprint;1 0
	buildh d11 0
	push_a 3
	buildAC " & "
	buildh ARRAY 1
	push_a 4
	push_b 1
	push_b 1
	push_a 4
	update_a 3 5
	update_a 1 3
	update_a 4 1
	update_a 2 4
	update_a 0 2
	pop_a 1
	update_a 4 10
	update_a 3 9
	update_a 2 8
	update_a 1 7
	updatepop_a 0 6
	update_b 1 3
	updatepop_b 0 2
.d 5 2 ib
	jmp e_Clean.PrettyPrint.Util_sjoin;7
.desc d14 _hnf l14 2 0 "print;13"
.o 3 2 ib
i14
	pop_a 1
	push_r_args 1 2 0
	update_a 1 3
	update_a 2 1
	update_a 0 2
	pop_a 1
.d 3 2 ib
	jmp s14
.ai 0 a14 i14
.o 2 0
l14
	repl_args 1 1
.o 2 0
a14
.d 2 0
	jsr ea14
.o 1 0
	buildh ARRAY 1
.d 1 0
	rtn
.o 2 0
ea14
	jsr_eval 1
	jsr_eval 0
	push_r_args 1 2 0
	push_r_args 2 1 2
	update_a 2 4
	update_a 0 2
	update_a 1 3
	pop_a 2
.o 3 2 ib
s14
	push_a 1
	push_a 3
	buildh e_Clean.PrettyPrint.Util_dprint;1 0
	buildh e_Clean.PrettyPrint.Expression_dprint;1 0
	buildAC ","
	buildh ARRAY 1
	push_a 5
	push_b 1
	push_b 1
	push_a 3
	update_a 2 4
	update_a 0 2
	update_a 3 0
	update_a 1 3
	update_a 0 1
	pop_a 1
	buildh _Nil 0
	update_a 0 8
	update_a 0 9
	pop_a 1
.d 5 2 ib
	jsr e_Clean.PrettyPrint.Util_sjoin;7
.o 1 0
	buildh ARRAY 1
	buildh e_Clean.PrettyPrint.Util_dprint;1 0
	buildh e_Clean.PrettyPrint.Util_dprint;1 0
	buildAC "["
	buildh ARRAY 1
	push_a 2
	update_a 1 3
	update_a 2 1
	update_a 0 2
	pop_a 1
	buildhr e_Clean.PrettyPrint.Util_k:+: 4 0
	buildh e_Clean.PrettyPrint.Util_dprint;1 0
	buildh e_Clean.PrettyPrint.Util_dprint;5 0
	buildAC "]="
	buildh ARRAY 1
	push_a 3
	update_a 1 4
	update_a 2 1
	update_a 3 2
	update_a 0 3
	pop_a 1
	buildhr e_Clean.PrettyPrint.Util_k:+: 4 0
	buildh e_Clean.PrettyPrint.Expression_dprint;1 0
	buildh e_Clean.PrettyPrint.Util_dprint;5 0
	buildhr e_Clean.PrettyPrint.Util_k:+: 4 0
	push_a 1
	push_b 1
	push_b 1
	update_a 1 4
	updatepop_a 0 3
	update_b 1 3
	updatepop_b 0 2
.d 2 2 ib
	jmp e_Clean.PrettyPrint.Util_sprint;5
.export e_Clean.PrettyPrint.Expression_sprint;1
.descexp e_Clean.PrettyPrint.Expression_dprint;1 e_Clean.PrettyPrint.Expression_nprint;1 e_Clean.PrettyPrint.Expression_lprint;1 2 0 "print;1"
.o 3 2 ib
e_Clean.PrettyPrint.Expression_iprint;1
	pop_a 1
.d 2 2 ib
	jmp s2
.ai 0 a2 e_Clean.PrettyPrint.Expression_iprint;1
.o 2 0
e_Clean.PrettyPrint.Expression_lprint;1
	repl_args 1 1
.o 2 0
a2
.d 2 0
	jsr ea2
.o 1 0
	buildh ARRAY 1
.d 1 0
	rtn
.n 2 e_Clean.PrettyPrint.Expression_dprint;1
.o 1 0
e_Clean.PrettyPrint.Expression_nprint;1
	push_node _cycle_in_spine 2
.d 2 0
	jsr ea2
.o 1 0
	fillh ARRAY 1 1
.d 1 0
	rtn
.o 2 0
ea2
	jsr_eval 1
	jsr_eval 0
	repl_r_args 1 2
.o 2 2 ib
e_Clean.PrettyPrint.Expression_sprint;1
.o 2 2 ib
s2
	pushD_a 1
	jmpD be e_syntax_kPE_Ident 0 case.33 case.34
	eqD_b e_syntax_kPE_QualifiedIdent 0
	jmp_true case.35
	jmpD be e_syntax_kPE_Bound 0 case.36 case.46
	jmpD eb e_syntax_kPE_Tuple 0 case.37 case.44
	eqD_b e_syntax_kPE_ArrayDenot 0
	jmp_true case.38
	jmpD be e_syntax_kPE_ArrayPattern 0 case.39 case.56
	eqD_b e_syntax_kPE_ListCompr 0
	jmp_true case.40
	eqD_b e_syntax_kPE_If 0
	jmp_true case.41
	eqD_b e_syntax_kPE_Case 0
	jmp_true case.42
	eqD_b e_syntax_dPE_Sequ 1
	jmp_true case.43
	eqD_b e_syntax_kPE_Let 0
	jmp_true case.45
	eqD_b e_syntax_dPE_WildCard 0
	jmp_true case.47
	eqD_b e_syntax_kPE_Update 0
	jmp_true case.48
	jmpD eb e_syntax_kPE_Selection 0 case.49 case.50
	jmpD be e_syntax_kPE_Matches 0 case.51 case.57
	eqD_b e_syntax_kPE_ABC_Code 0
	jmp_true case.52
	eqD_b e_syntax_kPE_DynamicPattern 0
	jmp_true case.53
	eqD_b e_syntax_kPE_Dynamic 0
	jmp_true case.54
	eqD_b e_syntax_kPE_Generic 0
	jmp_true case.55
	pop_b 1
	jmp case.58
case.33
	pop_b 1
	push_args 1 1 1
	buildh _Nil 0
	update_a 0 3
	pop_a 1
	eq_desc _Cons 2 0
	jmp_true case.59
	jmp case.60
case.59
	push_args 0 2 2
	jsr_eval 0
	eq_desc e_syntax_kPE_Ident 0 0
	jmp_true case.61
	pop_a 2
	jmp case.60
case.61
	repl_args 2 2
	update_a 0 1
	pop_a 1
	jsr_eval 1
	eq_desc _Cons 2 1
	jmp_true case.62
	pop_a 2
	jmp case.60
case.62
	push_args 1 2 2
	buildh _Nil 0
	update_a 0 4
	pop_a 1
	jsr_eval 1
	eq_desc _Cons 2 1
	jmp_true case.63
	pop_a 4
	jmp case.60
case.63
	push_args 1 2 2
	buildh _Nil 0
	update_a 0 4
	pop_a 1
	jsr_eval 1
	eq_desc _Nil 0 1
	jmp_true case.64
	pop_a 6
	jmp case.60
case.64
	buildAC "_Cons"
	push_a 5
.d 2 0
	jsr eqAC
.o 0 1 b
	jmp_false else.65
	push_a 0
	jsr_eval 0
	push_a 5
	build _ 1 n30
	push_a 9
	push_b 1
	push_b 1
	push_a 1
	update_a 1 2
	update_a 0 1
	pop_a 1
	update_a 5 8
	update_a 2 7
	update_a 1 6
	updatepop_a 0 5
.d 3 2 ib
	jsr s8
.o 1 0
	push_a 1
	jsr_eval 0
	push_a 4
	push_b 1
	push_b 1
	buildh _Nil 0
	update_a 0 4
	pop_a 1
.d 2 2 ib
	jsr s2
.o 1 0
	update_a 1 2
	updatepop_a 0 1
.d 2 0
	jsr catAC
.o 1 0
	buildAC "["
	update_a 1 4
	updatepop_a 0 3
	pop_b 2
.d 2 0
	jsr catAC
.o 1 0
.d 1 0
	rtn
else.65
	buildAC "_cons"
	push_a 5
.d 2 0
	jsr eqAC
.o 0 1 b
	jmp_false else.66
	push_a 0
	jsr_eval 0
	push_a 5
	build _ 1 n31
	push_a 9
	push_b 1
	push_b 1
	push_a 1
	update_a 1 2
	update_a 0 1
	pop_a 1
	update_a 5 8
	update_a 2 7
	update_a 1 6
	updatepop_a 0 5
.d 3 2 ib
	jsr s8
.o 1 0
	push_a 1
	jsr_eval 0
	push_a 4
	push_b 1
	push_b 1
	buildh _Nil 0
	update_a 0 4
	pop_a 1
.d 2 2 ib
	jsr s2
.o 1 0
	update_a 1 2
	updatepop_a 0 1
.d 2 0
	jsr catAC
.o 1 0
	buildAC "[|"
	update_a 1 4
	updatepop_a 0 3
	pop_b 2
.d 2 0
	jsr catAC
.o 1 0
.d 1 0
	rtn
else.66
	pushI 0
	push_a 4
	select CHAR 0 1
	pushC '_'
	push_b 1
	update_b 1 2
	update_b 0 1
	pop_b 1
	eqC
	jmp_false else.67
	pushI 6
	pushI 2
	push_a 4
.d 1 2 ii
	jsr sliceAC
.o 1 0
	buildAC "Cons"
	push_a 1
	update_a 1 2
	update_a 0 1
	pop_a 1
.d 2 0
	jsr eqAC
.o 0 1 b
	jmp_false else.67
	push_a 0
	jsr_eval 0
	push_a 5
	build _ 1 n32
	push_a 9
	push_b 1
	push_b 1
	push_a 1
	update_a 1 2
	update_a 0 1
	pop_a 1
	update_a 5 6
	update_a 2 5
	update_a 1 4
	updatepop_a 0 3
.d 3 2 ib
	jsr s8
.o 1 0
	push_a 1
	jsr_eval 0
	push_a 6
	push_b 1
	push_b 1
	buildh _Nil 0
	update_a 0 4
	pop_a 1
.d 2 2 ib
	jsr s2
.o 1 0
	update_a 3 4
	update_a 1 3
	updatepop_a 0 2
.d 2 0
	jsr catAC
.o 1 0
	pushI 1
	push_a 1
	buildh _Nil 0
	update_a 0 3
	pop_a 1
	select CHAR 0 1
	pushI 1
	create_array_ CHAR 0 1
	pushI 0
	update CHAR 0 1
	update_a 1 2
	updatepop_a 0 1
.d 2 0
	jsr catAC
.o 1 0
	buildAC "["
	update_a 1 4
	updatepop_a 0 3
	pop_b 2
.d 2 0
	jsr catAC
.o 1 0
.d 1 0
	rtn
else.67
	pop_a 6
	jmp case.60
case.60
	push_b 1
	jmp_false else.69
	pushB TRUE
	push_a 1
	push_b 2
	push_b 2
	update_b 2 1
	update_b 1 2
	updatepop_b 0 1
	buildh e_Clean.PrettyPrint.Expression_dprint;1 0
	push_a 2
	push_a 2
	update_a 1 3
	update_a 2 1
	update_a 0 2
	pop_a 1
	update_a 4 5
	update_a 2 4
	update_a 1 3
	updatepop_a 0 2
.d 3 2 ib
	jsr e_Clean.PrettyPrint.Util_sprint;3
.o 1 0
	push_a 1
	push_b 1
	push_b 1
	update_b 1 3
	updatepop_b 0 2
	update_a 1 2
	updatepop_a 0 1
.d 2 2 ib
	jsr e_Clean.PrettyPrint.Util_sprint;1
.o 1 0
	buildAC ")"
	push_a 1
	update_a 1 2
	update_a 0 1
	pop_a 1
.d 2 0
	jsr catAC
.o 1 0
	buildAC "("
.d 2 0
	jsr catAC
.o 1 0
.d 1 0
	rtn
else.69
	pushB TRUE
	push_a 1
	push_b 2
	push_b 2
	update_b 2 1
	update_b 1 2
	updatepop_b 0 1
	buildh e_Clean.PrettyPrint.Expression_dprint;1 0
	push_a 2
	push_a 2
	update_a 1 3
	update_a 2 1
	update_a 0 2
	pop_a 1
	update_a 4 5
	update_a 2 4
	update_a 1 3
	updatepop_a 0 2
.d 3 2 ib
	jsr e_Clean.PrettyPrint.Util_sprint;3
.o 1 0
	pushB TRUE
	push_a 1
	push_b 2
	push_b 2
	update_b 2 1
	update_b 1 2
	updatepop_b 0 1
	update_a 1 2
	updatepop_a 0 1
	update_b 1 3
	updatepop_b 0 2
.d 2 2 ib
	jmp e_Clean.PrettyPrint.Util_sprint;1
case.34
	pop_b 1
	push_args 1 2 2
	buildh _Nil 0
	update_a 0 4
	pop_a 1
	push_a 1
	push_a 1
	push_a 4
	push_b 1
	push_b 1
	update_a 2 6
	update_a 1 5
	updatepop_a 0 4
	update_b 1 3
	updatepop_b 0 2
.d 3 2 ib
	jmp e_Clean.PrettyPrint.Common_sprint;0
case.35
	pop_b 1
	push_args 1 2 2
	buildh _Nil 0
	update_a 0 4
	pop_a 1
	buildh e_Clean.PrettyPrint.Common_dprint;0 0
	buildh e_Clean.PrettyPrint.Util_dprint;1 0
	push_a 2
	buildAC "'"
	buildh ARRAY 1
	push_a 3
	update_a 2 4
	update_a 0 2
	update_a 3 0
	update_a 1 3
	update_a 0 1
	pop_a 1
	buildhr e_Clean.PrettyPrint.Util_k:+: 4 0
	buildh e_Clean.PrettyPrint.Util_dprint;1 0
	buildh e_Clean.PrettyPrint.Util_dprint;5 0
	buildAC "'."
	buildh ARRAY 1
	push_a 3
	update_a 1 4
	update_a 2 1
	update_a 3 2
	update_a 0 3
	pop_a 1
	buildhr e_Clean.PrettyPrint.Util_k:+: 4 0
	buildh e_Clean.PrettyPrint.Util_dprint;1 0
	buildh e_Clean.PrettyPrint.Util_dprint;5 0
	push_a 4
	buildh ARRAY 1
	push_a 3
	update_a 1 4
	update_a 2 1
	update_a 3 2
	update_a 0 3
	pop_a 1
	buildhr e_Clean.PrettyPrint.Util_k:+: 4 0
	push_a 3
	push_b 1
	push_b 1
	update_a 1 5
	updatepop_a 0 4
	update_b 1 3
	updatepop_b 0 2
.d 2 2 ib
	jmp e_Clean.PrettyPrint.Util_sprint;5
case.36
	pop_b 1
	push_args 1 1 1
	buildh _Nil 0
	update_a 0 3
	pop_a 1
	push_a 0
	push_a 2
	push_b 1
	push_b 1
	update_a 1 4
	updatepop_a 0 3
	update_b 1 3
	updatepop_b 0 2
.d 2 2 ib
	jmp s9
case.37
	pop_b 1
	push_args 1 1 1
	buildh _Nil 0
	update_a 0 3
	pop_a 1
	buildh e_Clean.PrettyPrint.Util_dprint;1 0
	buildh e_Clean.PrettyPrint.Expression_dprint;1 0
	push_a 2
	buildAC ","
	buildh ARRAY 1
	push_a 5
	push_b 1
	push_b 1
	push_a 4
	update_a 3 5
	update_a 1 3
	update_a 4 1
	update_a 2 4
	update_a 0 2
	pop_a 1
	update_b 1 3
	updatepop_b 0 2
	update_a 4 7
	update_a 3 6
	update_a 2 5
	update_a 1 4
	updatepop_a 0 3
.d 5 2 ib
	jsr e_Clean.PrettyPrint.Util_sjoin;7
.o 1 0
	buildAC ")"
	push_a 1
	update_a 1 2
	update_a 0 1
	pop_a 1
.d 2 0
	jsr catAC
.o 1 0
	buildAC "("
.d 2 0
	jsr catAC
.o 1 0
.d 1 0
	rtn
case.38
	pop_b 1
	push_args 1 2 2
	buildh _Nil 0
	update_a 0 4
	pop_a 1
	buildh e_Clean.PrettyPrint.Util_dprint;1 0
	buildh e_Clean.PrettyPrint.Expression_dprint;1 0
	push_a 3
	buildAC ","
	buildh ARRAY 1
	push_a 6
	push_b 1
	push_b 1
	push_a 4
	update_a 3 5
	update_a 1 3
	update_a 4 1
	update_a 2 4
	update_a 0 2
	pop_a 1
	update_a 7 8
	update_a 5 7
	update_a 4 6
	update_a 3 5
	update_a 2 4
	update_a 1 3
	updatepop_a 0 2
.d 5 2 ib
	jsr e_Clean.PrettyPrint.Util_sjoin;7
.o 1 0
	buildh ARRAY 1
	buildh d13 0
	buildh e_Clean.PrettyPrint.Util_dprint;1 0
	push_a 3
	buildAC "{"
	buildh ARRAY 1
	push_a 3
	update_a 2 4
	update_a 0 2
	update_a 3 0
	update_a 1 3
	update_a 0 1
	pop_a 1
	buildhr e_Clean.PrettyPrint.Util_k:+: 4 0
	buildh e_Clean.PrettyPrint.Util_dprint;1 0
	buildh e_Clean.PrettyPrint.Util_dprint;5 0
	buildhr e_Clean.PrettyPrint.Util_k:+: 4 0
	buildh e_Clean.PrettyPrint.Util_dprint;1 0
	buildh e_Clean.PrettyPrint.Util_dprint;5 0
	buildAC "}"
	buildh ARRAY 1
	push_a 3
	update_a 1 4
	update_a 2 1
	update_a 3 2
	update_a 0 3
	pop_a 1
	buildhr e_Clean.PrettyPrint.Util_k:+: 4 0
	push_a 2
	push_b 1
	push_b 1
	update_a 1 3
	updatepop_a 0 2
	update_b 1 3
	updatepop_b 0 2
.d 2 2 ib
	jmp e_Clean.PrettyPrint.Util_sprint;5
case.39
	pop_b 1
	push_args 1 3 3
	buildh _Nil 0
	update_a 0 5
	pop_a 1
	buildh e_Clean.PrettyPrint.Util_dprint;1 0
	buildh d15 0
	push_a 4
	buildAC ", "
	buildh ARRAY 1
	push_a 7
	push_b 1
	push_b 1
	push_a 4
	update_a 3 5
	update_a 1 3
	update_a 4 1
	update_a 2 4
	update_a 0 2
	pop_a 1
	buildh _Nil 0
	update_a 0 8
	pop_a 1
.d 5 2 ib
	jsr e_Clean.PrettyPrint.Util_sjoin;7
.o 1 0
	buildh ARRAY 1
	build_r e_Clean.PrettyPrint.Util_rCPPState 1 2 4 0
	push_a 2
	buildh _Nil 0
	update_a 0 4
	pop_a 1
.d 2 0
	jsr s34
.o 1 0
	buildh ARRAY 1
	build_r e_Clean.PrettyPrint.Util_rCPPState 1 2 5 0
	push_a 4
	buildh _Nil 0
	update_a 0 6
	pop_a 1
.d 2 0
	jsr s33
.o 1 0
	buildh ARRAY 1
	buildh e_Clean.PrettyPrint.Util_dprint;1 0
	buildh e_Clean.PrettyPrint.Util_dprint;1 0
	buildAC "{ "
	buildh ARRAY 1
	push_a 2
	update_a 1 3
	update_a 2 1
	update_a 0 2
	pop_a 1
	buildhr e_Clean.PrettyPrint.Util_k:+: 4 0
	buildh e_Clean.PrettyPrint.Util_dprint;1 0
	buildh e_Clean.PrettyPrint.Util_dprint;5 0
	buildhr e_Clean.PrettyPrint.Util_k:+: 4 0
	buildh e_Clean.PrettyPrint.Util_dprint;1 0
	buildh e_Clean.PrettyPrint.Util_dprint;5 0
	buildhr e_Clean.PrettyPrint.Util_k:+: 4 0
	buildh e_Clean.PrettyPrint.Util_dprint;1 0
	buildh e_Clean.PrettyPrint.Util_dprint;5 0
	buildAC " }"
	buildh ARRAY 1
	push_a 3
	update_a 1 4
	update_a 2 1
	update_a 3 2
	update_a 0 3
	pop_a 1
	buildhr e_Clean.PrettyPrint.Util_k:+: 4 0
	push_a 4
	push_b 1
	push_b 1
	update_a 1 6
	updatepop_a 0 5
	update_b 1 3
	updatepop_b 0 2
.d 2 2 ib
	jmp e_Clean.PrettyPrint.Util_sprint;5
case.40
	pop_b 1
	push_r_args 1 2 2
	buildh _Nil 0
	update_a 0 4
	pop_a 1
	update_b 0 1
	pop_b 1
	push_b 0
.d 0 1 i
	jsr s36
.o 1 0
	buildh ARRAY 1
	buildh e_Clean.PrettyPrint.Util_dprint;1 0
	buildh d10 0
	push_a 4
	buildAC ", "
	buildh ARRAY 1
	push_a 7
	push_b 2
	push_b 2
	push_a 4
	update_a 3 5
	update_a 1 3
	update_a 4 1
	update_a 2 4
	update_a 0 2
	pop_a 1
	buildh _Nil 0
	update_a 0 8
	pop_a 1
.d 5 2 ib
	jsr e_Clean.PrettyPrint.Util_sjoin;7
.o 1 0
	buildh ARRAY 1
	push_b 0
	updatepop_b 0 1
.d 0 1 i
	jsr s35
.o 1 0
	buildh ARRAY 1
	buildh e_Clean.PrettyPrint.Util_dprint;1 0
	buildh e_Clean.PrettyPrint.Util_dprint;1 0
	buildAC "["
	buildh ARRAY 1
	push_a 2
	update_a 1 3
	update_a 2 1
	update_a 0 2
	pop_a 1
	buildhr e_Clean.PrettyPrint.Util_k:+: 4 0
	buildh e_Clean.PrettyPrint.Expression_dprint;1 0
	buildh e_Clean.PrettyPrint.Util_dprint;5 0
	push_a 5
	push_a 3
	update_a 1 4
	update_a 2 1
	update_a 3 2
	update_a 0 3
	pop_a 1
	buildhr e_Clean.PrettyPrint.Util_k:+: 4 0
	buildh e_Clean.PrettyPrint.Util_dprint;1 0
	buildh e_Clean.PrettyPrint.Util_dprint;5 0
	buildAC " \\\\ "
	buildh ARRAY 1
	push_a 3
	update_a 1 4
	update_a 2 1
	update_a 3 2
	update_a 0 3
	pop_a 1
	buildhr e_Clean.PrettyPrint.Util_k:+: 4 0
	buildh e_Clean.PrettyPrint.Util_dprint;1 0
	buildh e_Clean.PrettyPrint.Util_dprint;5 0
	buildhr e_Clean.PrettyPrint.Util_k:+: 4 0
	buildh e_Clean.PrettyPrint.Util_dprint;1 0
	buildh e_Clean.PrettyPrint.Util_dprint;5 0
	buildhr e_Clean.PrettyPrint.Util_k:+: 4 0
	buildh e_Clean.PrettyPrint.Util_dprint;1 0
	buildh e_Clean.PrettyPrint.Util_dprint;5 0
	buildAC "]"
	buildh ARRAY 1
	push_a 3
	update_a 1 4
	update_a 2 1
	update_a 3 2
	update_a 0 3
	pop_a 1
	buildhr e_Clean.PrettyPrint.Util_k:+: 4 0
	push_a 3
	push_b 1
	push_b 1
	update_a 1 5
	updatepop_a 0 4
	update_b 1 3
	updatepop_b 0 2
.d 2 2 ib
	jmp e_Clean.PrettyPrint.Util_sprint;5
case.41
	pop_b 1
	push_args 1 4 4
	buildh _Nil 0
	update_a 0 6
	pop_a 1
	pop_a 1
	push_b 1
	jmp_false else.70
	buildh _Nil 0
	push_a 3
	buildh _Cons 2
	push_a 2
	buildh _Cons 2
	push_a 1
	buildh _Cons 2
	pushB TRUE
	push_a 4
	push_b 2
	push_b 2
	update_b 2 1
	update_b 1 2
	updatepop_b 0 1
	buildh e_Clean.PrettyPrint.Util_dprint;1 0
	buildh e_Clean.PrettyPrint.Expression_dprint;1 0
	buildAC " "
	buildh ARRAY 1
	push_a 3
	update_a 1 4
	update_a 2 1
	update_a 3 2
	update_a 0 3
	pop_a 1
	update_a 8 9
	update_a 4 8
	update_a 3 7
	update_a 2 6
	update_a 1 5
	updatepop_a 0 4
.d 5 2 ib
	jsr e_Clean.PrettyPrint.Util_sjoin;7
.o 1 0
	buildAC "if "
.d 2 0
	jsr catAC
.o 1 0
	push_a 1
	push_b 1
	push_b 1
	update_b 1 3
	updatepop_b 0 2
	update_a 1 2
	updatepop_a 0 1
.d 2 2 ib
	jsr e_Clean.PrettyPrint.Util_sprint;1
.o 1 0
	buildAC ")"
	push_a 1
	update_a 1 2
	update_a 0 1
	pop_a 1
.d 2 0
	jsr catAC
.o 1 0
	buildAC "("
.d 2 0
	jsr catAC
.o 1 0
.d 1 0
	rtn
else.70
	buildh _Nil 0
	push_a 3
	buildh _Cons 2
	push_a 2
	buildh _Cons 2
	push_a 1
	buildh _Cons 2
	pushB TRUE
	push_a 4
	push_b 2
	push_b 2
	update_b 2 1
	update_b 1 2
	updatepop_b 0 1
	buildh e_Clean.PrettyPrint.Util_dprint;1 0
	buildh e_Clean.PrettyPrint.Expression_dprint;1 0
	buildAC " "
	buildh ARRAY 1
	push_a 3
	update_a 1 4
	update_a 2 1
	update_a 3 2
	update_a 0 3
	pop_a 1
	update_a 8 9
	update_a 4 8
	update_a 3 7
	update_a 2 6
	update_a 1 5
	updatepop_a 0 4
.d 5 2 ib
	jsr e_Clean.PrettyPrint.Util_sjoin;7
.o 1 0
	buildAC "if "
.d 2 0
	jsr catAC
.o 1 0
	pushB TRUE
	push_a 1
	push_b 2
	push_b 2
	update_b 2 1
	update_b 1 2
	updatepop_b 0 1
	update_a 1 2
	updatepop_a 0 1
	update_b 1 3
	updatepop_b 0 2
.d 2 2 ib
	jmp e_Clean.PrettyPrint.Util_sprint;1
case.42
	pop_b 1
	push_args 1 3 3
	buildh _Nil 0
	update_a 0 5
	pop_a 1
	pop_a 1
	push_b 0
	pushI 1
	push_b 1
	update_b 1 2
	update_b 0 1
	pop_b 1
	addI
	push_a 2
	push_b 2
	push_b 2
	update_b 2 0
	update_b 1 2
	updatepop_b 0 1
	build_r e_Clean.PrettyPrint.Util_rCPPState 1 2 0 0
	buildh e_Clean.PrettyPrint.Util_dprint;4 0
	buildh e_Clean.PrettyPrint.Util_dprint;1 0
	buildAC "\n"
	buildh ARRAY 1
	push_a 2
	update_a 1 3
	update_a 2 1
	update_a 0 2
	pop_a 1
	buildhr e_Clean.PrettyPrint.Util_k:+: 4 0
	push_a 3
	jsr_eval 0
	buildh e_Clean.PrettyPrint.Util_dprint;5 0
	buildh d17 0
	push_a 3
	push_a 5
	push_b 1
	push_b 1
	push_a 3
	update_a 2 4
	update_a 0 2
	update_a 3 0
	update_a 1 3
	update_a 0 1
	pop_a 1
.d 5 2 ib
	jsr e_Clean.PrettyPrint.Util_sjoin;7
.o 1 0
	build_r e_Clean.PrettyPrint.Util_rCPPState 1 2 2 0
	buildh d17 0
	push_a 6
	push_a 1
	update_a 1 2
	update_a 0 1
	pop_a 1
	pop_b 2
	buildh _Nil 0
	update_a 0 8
	update_a 0 6
	pop_a 1
.d 2 0
	jsr e_Clean.PrettyPrint.Util_sisNil;6
.o 0 1 b
	push_a 2
	push_a 1
	update_a 1 2
	update_a 0 1
	pop_a 1
	buildh _Nil 0
	update_a 0 4
	pop_a 1
.d 2 1 b
	jsr s37
.o 1 0
	update_a 4 5
	update_a 1 4
	updatepop_a 0 3
.d 2 0
	jsr catAC
.o 1 0
	buildAC " of"
.d 2 0
	jsr catAC
.o 1 0
	pushB TRUE
	push_a 2
	push_b 2
	push_b 2
	update_b 2 1
	update_b 1 2
	updatepop_b 0 1
	push_a 2
	push_a 1
	update_a 1 2
	update_a 0 1
	pop_a 1
	update_b 1 3
	updatepop_b 0 2
	buildh _Nil 0
	update_a 0 4
	update_a 0 5
	pop_a 1
.d 2 2 ib
	jsr s2
.o 1 0
	update_a 1 4
	updatepop_a 0 3
.d 2 0
	jsr catAC
.o 1 0
	buildAC "case "
.d 2 0
	jsr catAC
.o 1 0
.d 1 0
	rtn
case.43
	pop_b 1
	push_args 1 1 1
	buildh _Nil 0
	update_a 0 3
	pop_a 1
	push_a 0
	jsr_eval 0
	push_a 2
	push_b 1
	push_b 1
	update_a 1 4
	updatepop_a 0 3
	update_b 1 3
	updatepop_b 0 2
.d 2 2 ib
	jmp s12
case.44
	pop_b 1
	push_args 1 4 4
	buildh _Nil 0
	update_a 0 6
	pop_a 1
	update_a 2 3
	update_a 1 2
	pop_a 2
	push_b 1
	jmp_false else.71
	buildh e_Clean.PrettyPrint.Util_dprint;1 0
	buildh e_Clean.PrettyPrint.Expression_dprint;1 0
	push_a 2
	buildAC " "
	buildh ARRAY 1
	push_a 6
	push_b 1
	push_b 1
	push_a 4
	update_a 3 5
	update_a 1 3
	update_a 4 1
	update_a 2 4
	update_a 0 2
	pop_a 1
	update_a 4 5
	update_a 3 4
	update_a 2 3
	update_a 1 2
	updatepop_a 0 1
.d 5 2 ib
	jsr e_Clean.PrettyPrint.Util_sjoin;7
.o 1 0
	buildh ARRAY 1
	buildh e_Clean.PrettyPrint.Util_dprint;1 0
	buildh e_Clean.PrettyPrint.Util_dprint;1 0
	buildAC "\\"
	buildh ARRAY 1
	push_a 2
	update_a 1 3
	update_a 2 1
	update_a 0 2
	pop_a 1
	buildhr e_Clean.PrettyPrint.Util_k:+: 4 0
	buildh e_Clean.PrettyPrint.Util_dprint;1 0
	buildh e_Clean.PrettyPrint.Util_dprint;5 0
	buildAC " -> "
	buildh ARRAY 1
	push_a 3
	update_a 1 4
	update_a 2 1
	update_a 3 2
	update_a 0 3
	pop_a 1
	buildhr e_Clean.PrettyPrint.Util_k:+: 4 0
	buildh e_Clean.PrettyPrint.Expression_dprint;2 0
	buildh e_Clean.PrettyPrint.Util_dprint;5 0
	push_a 3
	push_a 3
	update_a 1 4
	update_a 2 1
	update_a 3 2
	update_a 0 3
	pop_a 1
	buildhr e_Clean.PrettyPrint.Util_k:+: 4 0
	push_a 2
	push_b 1
	push_b 1
	update_b 1 3
	updatepop_b 0 2
	update_a 1 4
	updatepop_a 0 3
.d 2 2 ib
	jsr e_Clean.PrettyPrint.Util_sprint;5
.o 1 0
	buildAC ")"
	push_a 1
	update_a 1 2
	update_a 0 1
	pop_a 1
.d 2 0
	jsr catAC
.o 1 0
	buildAC "("
.d 2 0
	jsr catAC
.o 1 0
.d 1 0
	rtn
else.71
	buildh e_Clean.PrettyPrint.Util_dprint;1 0
	buildh e_Clean.PrettyPrint.Expression_dprint;1 0
	push_a 2
	buildAC " "
	buildh ARRAY 1
	push_a 6
	push_b 1
	push_b 1
	push_a 4
	update_a 3 5
	update_a 1 3
	update_a 4 1
	update_a 2 4
	update_a 0 2
	pop_a 1
	update_a 4 5
	update_a 3 4
	update_a 2 3
	update_a 1 2
	updatepop_a 0 1
.d 5 2 ib
	jsr e_Clean.PrettyPrint.Util_sjoin;7
.o 1 0
	buildh ARRAY 1
	buildh e_Clean.PrettyPrint.Util_dprint;1 0
	buildh e_Clean.PrettyPrint.Util_dprint;1 0
	buildAC "\\"
	buildh ARRAY 1
	push_a 2
	update_a 1 3
	update_a 2 1
	update_a 0 2
	pop_a 1
	buildhr e_Clean.PrettyPrint.Util_k:+: 4 0
	buildh e_Clean.PrettyPrint.Util_dprint;1 0
	buildh e_Clean.PrettyPrint.Util_dprint;5 0
	buildAC " -> "
	buildh ARRAY 1
	push_a 3
	update_a 1 4
	update_a 2 1
	update_a 3 2
	update_a 0 3
	pop_a 1
	buildhr e_Clean.PrettyPrint.Util_k:+: 4 0
	buildh e_Clean.PrettyPrint.Expression_dprint;2 0
	buildh e_Clean.PrettyPrint.Util_dprint;5 0
	push_a 3
	push_a 3
	update_a 1 4
	update_a 2 1
	update_a 3 2
	update_a 0 3
	pop_a 1
	buildhr e_Clean.PrettyPrint.Util_k:+: 4 0
	pushB TRUE
	push_a 2
	push_b 2
	push_b 2
	update_b 2 1
	update_b 1 2
	updatepop_b 0 1
	update_a 1 4
	updatepop_a 0 3
	update_b 1 3
	updatepop_b 0 2
.d 2 2 ib
	jmp e_Clean.PrettyPrint.Util_sprint;5
case.45
	pop_b 1
	push_args 1 2 2
	buildh _Nil 0
	update_a 0 4
	pop_a 1
	push_b 1
	jmp_false else.72
	push_a 0
	buildAC ", "
	buildh ARRAY 1
	push_a 4
	push_b 1
	push_b 1
	update_a 2 3
	update_a 1 2
	updatepop_a 0 1
.d 3 2 ib
	jsr s26
.o 1 0
	buildh ARRAY 1
	buildh e_Clean.PrettyPrint.Util_dprint;1 0
	buildh e_Clean.PrettyPrint.Util_dprint;1 0
	buildAC "let "
	buildh ARRAY 1
	push_a 2
	update_a 1 3
	update_a 2 1
	update_a 0 2
	pop_a 1
	buildhr e_Clean.PrettyPrint.Util_k:+: 4 0
	buildh e_Clean.PrettyPrint.Util_dprint;1 0
	buildh e_Clean.PrettyPrint.Util_dprint;5 0
	buildAC " in "
	buildh ARRAY 1
	push_a 3
	update_a 1 4
	update_a 2 1
	update_a 3 2
	update_a 0 3
	pop_a 1
	buildhr e_Clean.PrettyPrint.Util_k:+: 4 0
	buildh e_Clean.PrettyPrint.Expression_dprint;1 0
	buildh e_Clean.PrettyPrint.Util_dprint;5 0
	push_a 3
	push_a 3
	update_a 1 4
	update_a 2 1
	update_a 3 2
	update_a 0 3
	pop_a 1
	buildhr e_Clean.PrettyPrint.Util_k:+: 4 0
	push_a 2
	push_b 1
	push_b 1
	update_b 1 3
	updatepop_b 0 2
	update_a 1 4
	updatepop_a 0 3
.d 2 2 ib
	jsr e_Clean.PrettyPrint.Util_sprint;5
.o 1 0
	buildAC ")"
	push_a 1
	update_a 1 2
	update_a 0 1
	pop_a 1
.d 2 0
	jsr catAC
.o 1 0
	buildAC "("
.d 2 0
	jsr catAC
.o 1 0
.d 1 0
	rtn
else.72
	push_a 0
	buildAC ", "
	buildh ARRAY 1
	push_a 4
	push_b 1
	push_b 1
	update_a 2 3
	update_a 1 2
	updatepop_a 0 1
.d 3 2 ib
	jsr s26
.o 1 0
	buildh ARRAY 1
	buildh e_Clean.PrettyPrint.Util_dprint;1 0
	buildh e_Clean.PrettyPrint.Util_dprint;1 0
	buildAC "let "
	buildh ARRAY 1
	push_a 2
	update_a 1 3
	update_a 2 1
	update_a 0 2
	pop_a 1
	buildhr e_Clean.PrettyPrint.Util_k:+: 4 0
	buildh e_Clean.PrettyPrint.Util_dprint;1 0
	buildh e_Clean.PrettyPrint.Util_dprint;5 0
	buildAC " in "
	buildh ARRAY 1
	push_a 3
	update_a 1 4
	update_a 2 1
	update_a 3 2
	update_a 0 3
	pop_a 1
	buildhr e_Clean.PrettyPrint.Util_k:+: 4 0
	buildh e_Clean.PrettyPrint.Expression_dprint;1 0
	buildh e_Clean.PrettyPrint.Util_dprint;5 0
	push_a 3
	push_a 3
	update_a 1 4
	update_a 2 1
	update_a 3 2
	update_a 0 3
	pop_a 1
	buildhr e_Clean.PrettyPrint.Util_k:+: 4 0
	pushB TRUE
	push_a 2
	push_b 2
	push_b 2
	update_b 2 1
	update_b 1 2
	updatepop_b 0 1
	update_a 1 4
	updatepop_a 0 3
	update_b 1 3
	updatepop_b 0 2
.d 2 2 ib
	jmp e_Clean.PrettyPrint.Util_sprint;5
case.46
	pop_b 1
	push_args 1 2 2
	buildh _Nil 0
	update_a 0 4
	pop_a 1
	buildh e_Clean.PrettyPrint.Util_dprint;1 0
	buildh e_Clean.PrettyPrint.Common_dprint;0 0
	buildAC "=:"
	buildh ARRAY 1
	push_a 4
	push_a 3
	update_a 2 4
	update_a 0 2
	update_a 3 0
	update_a 1 3
	update_a 0 1
	pop_a 1
	buildhr e_Clean.PrettyPrint.Util_k:+: 4 0
	buildh e_Clean.PrettyPrint.Expression_dprint;1 0
	buildh e_Clean.PrettyPrint.Util_dprint;5 0
	push_a 3
	push_a 3
	update_a 1 4
	update_a 2 1
	update_a 3 2
	update_a 0 3
	pop_a 1
	buildhr e_Clean.PrettyPrint.Util_k:+: 4 0
	pushB TRUE
	push_a 3
	push_b 2
	push_b 2
	update_b 2 1
	update_b 1 2
	updatepop_b 0 1
	update_a 1 5
	updatepop_a 0 4
	update_b 1 3
	updatepop_b 0 2
.d 2 2 ib
	jmp e_Clean.PrettyPrint.Util_sprint;5
case.47
	pop_b 1
	pop_a 2
	pop_b 2
	buildAC "_"
.d 1 0
	rtn
case.48
	pop_b 1
	push_args 1 3 3
	buildh _Nil 0
	update_a 0 5
	pop_a 1
	push_a 2
	jsr_eval 0
	push_a 2
	jsr_eval 0
	build_r e_Clean.PrettyPrint.Util_rCPPState 1 2 5 0
	buildh _Nil 0
	update_a 0 5
	update_a 0 6
	pop_a 1
.d 2 0
	jsr s5
.o 1 0
	buildh ARRAY 1
	buildh e_Clean.PrettyPrint.Expression_dprint;1 0
	buildh e_Clean.PrettyPrint.Util_dprint;1 0
	push_a 4
	buildAC "{"
	buildh ARRAY 1
	push_a 3
	update_a 2 4
	update_a 0 2
	update_a 3 0
	update_a 1 3
	update_a 0 1
	pop_a 1
	buildhr e_Clean.PrettyPrint.Util_k:+: 4 0
	buildh e_Clean.PrettyPrint.Util_dprint;1 0
	buildh e_Clean.PrettyPrint.Util_dprint;5 0
	buildAC " & "
	buildh ARRAY 1
	push_a 3
	update_a 1 4
	update_a 2 1
	update_a 3 2
	update_a 0 3
	pop_a 1
	buildhr e_Clean.PrettyPrint.Util_k:+: 4 0
	buildh e_Clean.PrettyPrint.Util_dprint;1 0
	buildh e_Clean.PrettyPrint.Util_dprint;5 0
	buildhr e_Clean.PrettyPrint.Util_k:+: 4 0
	buildh e_Clean.PrettyPrint.Util_dprint;1 0
	buildh e_Clean.PrettyPrint.Util_dprint;5 0
	buildAC "="
	buildh ARRAY 1
	push_a 3
	update_a 1 4
	update_a 2 1
	update_a 3 2
	update_a 0 3
	pop_a 1
	buildhr e_Clean.PrettyPrint.Util_k:+: 4 0
	buildh e_Clean.PrettyPrint.Expression_dprint;1 0
	buildh e_Clean.PrettyPrint.Util_dprint;5 0
	buildhr e_Clean.PrettyPrint.Util_k:+: 4 0
	buildh e_Clean.PrettyPrint.Util_dprint;1 0
	buildh e_Clean.PrettyPrint.Util_dprint;5 0
	buildAC "}"
	buildh ARRAY 1
	push_a 3
	update_a 1 4
	update_a 2 1
	update_a 3 2
	update_a 0 3
	pop_a 1
	buildhr e_Clean.PrettyPrint.Util_k:+: 4 0
	pushB FALSE
	push_a 4
	push_b 2
	push_b 2
	update_b 2 1
	update_b 1 2
	updatepop_b 0 1
	update_a 1 6
	updatepop_a 0 5
	update_b 1 3
	updatepop_b 0 2
.d 2 2 ib
	jmp e_Clean.PrettyPrint.Util_sprint;5
case.49
	pop_b 1
	push_args 1 3 3
	buildh _Nil 0
	update_a 0 5
	pop_a 1
	build_r e_Clean.PrettyPrint.Util_rCPPState 1 2 3 0
	push_a 3
	push_a 1
	update_a 1 2
	update_a 0 1
	pop_a 1
	buildh _Nil 0
	update_a 0 5
	pop_a 1
.d 2 0
	jsr s5
.o 1 0
	buildh ARRAY 1
	push_a 1
	buildh _Nil 0
	update_a 0 3
	pop_a 1
.d 1 0
	jsr s38
.o 1 0
	buildh ARRAY 1
	buildh e_Clean.PrettyPrint.Util_dprint;1 0
	buildh e_Clean.PrettyPrint.Expression_dprint;1 0
	push_a 5
	push_a 2
	update_a 1 3
	update_a 2 1
	update_a 0 2
	pop_a 1
	buildhr e_Clean.PrettyPrint.Util_k:+: 4 0
	buildh e_Clean.PrettyPrint.Util_dprint;1 0
	buildh e_Clean.PrettyPrint.Util_dprint;5 0
	buildhr e_Clean.PrettyPrint.Util_k:+: 4 0
	push_a 4
	push_b 1
	push_b 1
	update_a 1 6
	updatepop_a 0 5
	update_b 1 3
	updatepop_b 0 2
.d 2 2 ib
	jmp e_Clean.PrettyPrint.Util_sprint;5
case.50
	pop_b 1
	push_args 1 4 4
	buildh _Nil 0
	update_a 0 6
	pop_a 1
	update_a 1 2
	update_a 0 1
	pop_a 1
	eq_desc e_syntax_kPE_Update 0 1
	jmp_true case.73
	pop_a 3
	jmp case.58
case.73
	push_args 1 3 3
	buildh _Nil 0
	update_a 0 5
	pop_a 1
	pop_a 1
	buildh e_Clean.PrettyPrint.Util_dprint;1 0
	buildh d10 0
	push_a 6
	buildAC ", "
	buildh ARRAY 1
	push_a 9
	push_b 1
	push_b 1
	push_a 4
	update_a 3 5
	update_a 1 3
	update_a 4 1
	update_a 2 4
	update_a 0 2
	pop_a 1
	buildh _Nil 0
	update_a 0 10
	pop_a 1
.d 5 2 ib
	jsr e_Clean.PrettyPrint.Util_sjoin;7
.o 1 0
	buildh ARRAY 1
	push_a 2
	jsr_eval 0
	push_a 2
	jsr_eval 0
	build_r e_Clean.PrettyPrint.Util_rCPPState 1 2 8 0
	buildh _Nil 0
	update_a 0 5
	update_a 0 6
	pop_a 1
.d 2 0
	jsr s5
.o 1 0
	buildh ARRAY 1
	buildh e_Clean.PrettyPrint.Expression_dprint;1 0
	buildh e_Clean.PrettyPrint.Util_dprint;1 0
	push_a 7
	buildAC "{"
	buildh ARRAY 1
	push_a 3
	update_a 2 4
	update_a 0 2
	update_a 3 0
	update_a 1 3
	update_a 0 1
	pop_a 1
	buildhr e_Clean.PrettyPrint.Util_k:+: 4 0
	buildh e_Clean.PrettyPrint.Util_dprint;1 0
	buildh e_Clean.PrettyPrint.Util_dprint;5 0
	buildAC " & "
	buildh ARRAY 1
	push_a 3
	update_a 1 4
	update_a 2 1
	update_a 3 2
	update_a 0 3
	pop_a 1
	buildhr e_Clean.PrettyPrint.Util_k:+: 4 0
	buildh e_Clean.PrettyPrint.Util_dprint;1 0
	buildh e_Clean.PrettyPrint.Util_dprint;5 0
	buildhr e_Clean.PrettyPrint.Util_k:+: 4 0
	buildh e_Clean.PrettyPrint.Util_dprint;1 0
	buildh e_Clean.PrettyPrint.Util_dprint;5 0
	buildAC "="
	buildh ARRAY 1
	push_a 3
	update_a 1 4
	update_a 2 1
	update_a 3 2
	update_a 0 3
	pop_a 1
	buildhr e_Clean.PrettyPrint.Util_k:+: 4 0
	buildh e_Clean.PrettyPrint.Expression_dprint;1 0
	buildh e_Clean.PrettyPrint.Util_dprint;5 0
	buildhr e_Clean.PrettyPrint.Util_k:+: 4 0
	buildh e_Clean.PrettyPrint.Util_dprint;1 0
	buildh e_Clean.PrettyPrint.Util_dprint;5 0
	buildAC " \\\\ "
	buildh ARRAY 1
	push_a 3
	update_a 1 4
	update_a 2 1
	update_a 3 2
	update_a 0 3
	pop_a 1
	buildhr e_Clean.PrettyPrint.Util_k:+: 4 0
	buildh e_Clean.PrettyPrint.Util_dprint;1 0
	buildh e_Clean.PrettyPrint.Util_dprint;5 0
	buildhr e_Clean.PrettyPrint.Util_k:+: 4 0
	buildh e_Clean.PrettyPrint.Util_dprint;1 0
	buildh e_Clean.PrettyPrint.Util_dprint;5 0
	buildAC "}"
	buildh ARRAY 1
	push_a 3
	update_a 1 4
	update_a 2 1
	update_a 3 2
	update_a 0 3
	pop_a 1
	buildhr e_Clean.PrettyPrint.Util_k:+: 4 0
	push_a 6
	push_b 1
	push_b 1
	update_a 1 8
	updatepop_a 0 7
	update_b 1 3
	updatepop_b 0 2
.d 2 2 ib
	jmp e_Clean.PrettyPrint.Util_sprint;5
case.51
	pop_b 1
	push_args 1 3 3
	buildh _Nil 0
	update_a 0 5
	pop_a 1
	buildh e_Clean.PrettyPrint.Util_dprint;1 0
	buildh d10 0
	push_a 4
	buildAC ", "
	buildh ARRAY 1
	push_a 7
	push_b 1
	push_b 1
	push_a 4
	update_a 3 5
	update_a 1 3
	update_a 4 1
	update_a 2 4
	update_a 0 2
	pop_a 1
	buildh _Nil 0
	update_a 0 8
	pop_a 1
.d 5 2 ib
	jsr e_Clean.PrettyPrint.Util_sjoin;7
.o 1 0
	buildh ARRAY 1
	buildh d13 0
	buildh e_Clean.PrettyPrint.Util_dprint;1 0
	push_a 3
	buildAC "{"
	buildh ARRAY 1
	push_a 3
	update_a 2 4
	update_a 0 2
	update_a 3 0
	update_a 1 3
	update_a 0 1
	pop_a 1
	buildhr e_Clean.PrettyPrint.Util_k:+: 4 0
	buildh e_Clean.PrettyPrint.Expression_dprint;1 0
	buildh e_Clean.PrettyPrint.Util_dprint;5 0
	push_a 5
	push_a 3
	update_a 1 4
	update_a 2 1
	update_a 3 2
	update_a 0 3
	pop_a 1
	buildhr e_Clean.PrettyPrint.Util_k:+: 4 0
	buildh e_Clean.PrettyPrint.Util_dprint;1 0
	buildh e_Clean.PrettyPrint.Util_dprint;5 0
	buildAC " \\\\ "
	buildh ARRAY 1
	push_a 3
	update_a 1 4
	update_a 2 1
	update_a 3 2
	update_a 0 3
	pop_a 1
	buildhr e_Clean.PrettyPrint.Util_k:+: 4 0
	buildh e_Clean.PrettyPrint.Util_dprint;1 0
	buildh e_Clean.PrettyPrint.Util_dprint;5 0
	buildhr e_Clean.PrettyPrint.Util_k:+: 4 0
	buildh e_Clean.PrettyPrint.Util_dprint;1 0
	buildh e_Clean.PrettyPrint.Util_dprint;5 0
	buildAC "}"
	buildh ARRAY 1
	push_a 3
	update_a 1 4
	update_a 2 1
	update_a 3 2
	update_a 0 3
	pop_a 1
	buildhr e_Clean.PrettyPrint.Util_k:+: 4 0
	push_a 4
	push_b 1
	push_b 1
	update_a 1 6
	updatepop_a 0 5
	update_b 1 3
	updatepop_b 0 2
.d 2 2 ib
	jmp e_Clean.PrettyPrint.Util_sprint;5
case.52
	pop_b 1
	push_r_args 1 1 1
	buildh _Nil 0
	update_a 0 3
	pop_a 1
	push_b 1
	pushI 1
	push_b 1
	update_b 1 2
	update_b 0 1
	pop_b 1
	addI
	push_a 1
	push_b 3
	push_b 3
	update_b 2 0
	update_b 1 2
	updatepop_b 0 1
	build_r e_Clean.PrettyPrint.Util_rCPPState 1 2 0 0
	buildh e_Clean.PrettyPrint.Util_dprint;4 0
	buildh e_Clean.PrettyPrint.Util_dprint;1 0
	buildAC "\n"
	buildh ARRAY 1
	push_a 2
	update_a 1 3
	update_a 2 1
	update_a 0 2
	pop_a 1
	buildhr e_Clean.PrettyPrint.Util_k:+: 4 0
	build_r e_Clean.PrettyPrint.Util_rCPPState 1 2 3 3
	buildh e_Clean.PrettyPrint.Util_dprint;5 0
	buildh e_Clean.PrettyPrint.Util_dprint;1 0
	push_a 5
	push_a 4
	push_a 6
	push_b 1
	push_b 1
	push_a 4
	update_a 3 5
	update_a 1 3
	update_a 4 1
	update_a 2 4
	update_a 0 2
	pop_a 1
.d 5 2 ib
	jsr e_Clean.PrettyPrint.Util_sjoin;7
.o 1 0
	build_r e_Clean.PrettyPrint.Util_rCPPState 1 2 3 0
	buildh e_Clean.PrettyPrint.Util_dprint;1 0
	push_a 6
	push_a 1
	update_a 1 2
	update_a 0 1
	pop_a 1
	pop_b 2
	buildh _Nil 0
	update_a 0 8
	update_a 0 7
	pop_a 1
.d 2 0
	jsr e_Clean.PrettyPrint.Util_sisNil;6
.o 0 1 b
	push_a 3
	push_a 1
	update_a 1 2
	update_a 0 1
	pop_a 1
	buildh _Nil 0
	update_a 0 5
	pop_a 1
.d 2 1 b
	jsr s40
.o 1 0
.d 2 0
	jsr catAC
.o 1 0
	buildh ARRAY 1
	push_b 0
	updatepop_b 0 1
.d 0 1 b
	jsr s39
.o 1 0
	buildh ARRAY 1
	buildh e_Clean.PrettyPrint.Util_dprint;1 0
	buildh e_Clean.PrettyPrint.Util_dprint;1 0
	buildAC "code "
	buildh ARRAY 1
	push_a 2
	update_a 1 3
	update_a 2 1
	update_a 0 2
	pop_a 1
	buildhr e_Clean.PrettyPrint.Util_k:+: 4 0
	buildh e_Clean.PrettyPrint.Util_dprint;1 0
	buildh e_Clean.PrettyPrint.Util_dprint;5 0
	buildAC "{"
	buildh ARRAY 1
	push_a 3
	update_a 1 4
	update_a 2 1
	update_a 3 2
	update_a 0 3
	pop_a 1
	buildhr e_Clean.PrettyPrint.Util_k:+: 4 0
	buildh e_Clean.PrettyPrint.Util_dprint;1 0
	buildh e_Clean.PrettyPrint.Util_dprint;5 0
	buildhr e_Clean.PrettyPrint.Util_k:+: 4 0
	buildh e_Clean.PrettyPrint.Util_dprint;1 0
	buildh e_Clean.PrettyPrint.Util_dprint;5 0
	buildAC "\n"
	buildh ARRAY 1
	push_a 3
	update_a 1 4
	update_a 2 1
	update_a 3 2
	update_a 0 3
	pop_a 1
	buildhr e_Clean.PrettyPrint.Util_k:+: 4 0
	buildh e_Clean.PrettyPrint.Util_dprint;4 0
	buildh e_Clean.PrettyPrint.Util_dprint;5 0
	buildhr e_Clean.PrettyPrint.Util_k:+: 4 0
	buildh e_Clean.PrettyPrint.Util_dprint;1 0
	buildh e_Clean.PrettyPrint.Util_dprint;5 0
	buildAC "}"
	buildh ARRAY 1
	push_a 3
	update_a 1 4
	update_a 2 1
	update_a 3 2
	update_a 0 3
	pop_a 1
	buildhr e_Clean.PrettyPrint.Util_k:+: 4 0
	push_a 4
	push_b 1
	push_b 1
	update_a 1 6
	updatepop_a 0 5
	update_b 1 3
	updatepop_b 0 2
.d 2 2 ib
	jmp e_Clean.PrettyPrint.Util_sprint;5
case.53
	pop_b 1
	push_args 1 2 2
	buildh _Nil 0
	update_a 0 4
	pop_a 1
	buildh e_Clean.PrettyPrint.Expression_dprint;1 0
	buildh e_Clean.PrettyPrint.Util_dprint;1 0
	push_a 2
	buildAC "("
	buildh ARRAY 1
	push_a 3
	update_a 2 4
	update_a 0 2
	update_a 3 0
	update_a 1 3
	update_a 0 1
	pop_a 1
	buildhr e_Clean.PrettyPrint.Util_k:+: 4 0
	buildh e_Clean.PrettyPrint.Util_dprint;1 0
	buildh e_Clean.PrettyPrint.Util_dprint;5 0
	buildAC " :: "
	buildh ARRAY 1
	push_a 3
	update_a 1 4
	update_a 2 1
	update_a 3 2
	update_a 0 3
	pop_a 1
	buildhr e_Clean.PrettyPrint.Util_k:+: 4 0
	buildh d25 0
	buildh e_Clean.PrettyPrint.Util_dprint;5 0
	push_a 4
	push_a 3
	update_a 1 4
	update_a 2 1
	update_a 3 2
	update_a 0 3
	pop_a 1
	buildhr e_Clean.PrettyPrint.Util_k:+: 4 0
	buildh e_Clean.PrettyPrint.Util_dprint;1 0
	buildh e_Clean.PrettyPrint.Util_dprint;5 0
	buildAC ")"
	buildh ARRAY 1
	push_a 3
	update_a 1 4
	update_a 2 1
	update_a 3 2
	update_a 0 3
	pop_a 1
	buildhr e_Clean.PrettyPrint.Util_k:+: 4 0
	push_a 3
	push_b 1
	push_b 1
	update_a 1 5
	updatepop_a 0 4
	update_b 1 3
	updatepop_b 0 2
.d 2 2 ib
	jmp e_Clean.PrettyPrint.Util_sprint;5
case.54
	pop_b 1
	push_args 1 2 2
	buildh _Nil 0
	update_a 0 4
	pop_a 1
	eq_desc e_general_kYes 0 1
	jmp_true case.74
	jmp case.75
case.74
	push_args 1 1 1
	buildh _Nil 0
	update_a 0 3
	pop_a 1
	push_b 1
	jmp_false else.76
	buildh e_Clean.PrettyPrint.Expression_dprint;1 0
	buildh e_Clean.PrettyPrint.Util_dprint;1 0
	push_a 3
	buildAC "dynamic "
	buildh ARRAY 1
	push_a 3
	update_a 2 4
	update_a 0 2
	update_a 3 0
	update_a 1 3
	update_a 0 1
	pop_a 1
	buildhr e_Clean.PrettyPrint.Util_k:+: 4 0
	buildh e_Clean.PrettyPrint.Util_dprint;1 0
	buildh e_Clean.PrettyPrint.Util_dprint;5 0
	buildAC " :: "
	buildh ARRAY 1
	push_a 3
	update_a 1 4
	update_a 2 1
	update_a 3 2
	update_a 0 3
	pop_a 1
	buildhr e_Clean.PrettyPrint.Util_k:+: 4 0
	buildh d25 0
	buildh e_Clean.PrettyPrint.Util_dprint;5 0
	push_a 3
	push_a 3
	update_a 1 4
	update_a 2 1
	update_a 3 2
	update_a 0 3
	pop_a 1
	buildhr e_Clean.PrettyPrint.Util_k:+: 4 0
	push_a 4
	push_b 1
	push_b 1
	update_b 1 3
	updatepop_b 0 2
	update_a 1 6
	updatepop_a 0 5
.d 2 2 ib
	jsr e_Clean.PrettyPrint.Util_sprint;5
.o 1 0
	buildAC ")"
	push_a 1
	update_a 1 2
	update_a 0 1
	pop_a 1
.d 2 0
	jsr catAC
.o 1 0
	buildAC "("
.d 2 0
	jsr catAC
.o 1 0
.d 1 0
	rtn
else.76
	buildh e_Clean.PrettyPrint.Expression_dprint;1 0
	buildh e_Clean.PrettyPrint.Util_dprint;1 0
	push_a 3
	buildAC "dynamic "
	buildh ARRAY 1
	push_a 3
	update_a 2 4
	update_a 0 2
	update_a 3 0
	update_a 1 3
	update_a 0 1
	pop_a 1
	buildhr e_Clean.PrettyPrint.Util_k:+: 4 0
	buildh e_Clean.PrettyPrint.Util_dprint;1 0
	buildh e_Clean.PrettyPrint.Util_dprint;5 0
	buildAC " :: "
	buildh ARRAY 1
	push_a 3
	update_a 1 4
	update_a 2 1
	update_a 3 2
	update_a 0 3
	pop_a 1
	buildhr e_Clean.PrettyPrint.Util_k:+: 4 0
	buildh d25 0
	buildh e_Clean.PrettyPrint.Util_dprint;5 0
	push_a 3
	push_a 3
	update_a 1 4
	update_a 2 1
	update_a 3 2
	update_a 0 3
	pop_a 1
	buildhr e_Clean.PrettyPrint.Util_k:+: 4 0
	pushB TRUE
	push_a 4
	push_b 2
	push_b 2
	update_b 2 1
	update_b 1 2
	updatepop_b 0 1
	update_a 1 6
	updatepop_a 0 5
	update_b 1 3
	updatepop_b 0 2
.d 2 2 ib
	jmp e_Clean.PrettyPrint.Util_sprint;5
case.75
	push_b 1
	jmp_false else.77
	buildh e_Clean.PrettyPrint.Expression_dprint;1 0
	buildh e_Clean.PrettyPrint.Util_dprint;1 0
	push_a 2
	buildAC "dynamic "
	buildh ARRAY 1
	push_a 3
	update_a 2 4
	update_a 0 2
	update_a 3 0
	update_a 1 3
	update_a 0 1
	pop_a 1
	buildhr e_Clean.PrettyPrint.Util_k:+: 4 0
	push_a 3
	push_b 1
	push_b 1
	update_b 1 3
	updatepop_b 0 2
	update_a 1 5
	updatepop_a 0 4
.d 2 2 ib
	jsr e_Clean.PrettyPrint.Util_sprint;5
.o 1 0
	buildAC ")"
	push_a 1
	update_a 1 2
	update_a 0 1
	pop_a 1
.d 2 0
	jsr catAC
.o 1 0
	buildAC "("
.d 2 0
	jsr catAC
.o 1 0
.d 1 0
	rtn
else.77
	buildh e_Clean.PrettyPrint.Expression_dprint;1 0
	buildh e_Clean.PrettyPrint.Util_dprint;1 0
	push_a 2
	buildAC "dynamic "
	buildh ARRAY 1
	push_a 3
	update_a 2 4
	update_a 0 2
	update_a 3 0
	update_a 1 3
	update_a 0 1
	pop_a 1
	buildhr e_Clean.PrettyPrint.Util_k:+: 4 0
	pushB TRUE
	push_a 3
	push_b 2
	push_b 2
	update_b 2 1
	update_b 1 2
	updatepop_b 0 1
	update_a 1 5
	updatepop_a 0 4
	update_b 1 3
	updatepop_b 0 2
.d 2 2 ib
	jmp e_Clean.PrettyPrint.Util_sprint;5
case.55
	pop_b 1
	push_args 1 2 2
	buildh _Nil 0
	update_a 0 4
	pop_a 1
	buildh e_Clean.PrettyPrint.Util_dprint;1 0
	buildh e_Clean.PrettyPrint.Common_dprint;0 0
	buildAC "{|"
	buildh ARRAY 1
	push_a 3
	push_a 3
	update_a 2 4
	update_a 0 2
	update_a 3 0
	update_a 1 3
	update_a 0 1
	pop_a 1
	buildhr e_Clean.PrettyPrint.Util_k:+: 4 0
	buildh d24 0
	buildh e_Clean.PrettyPrint.Util_dprint;5 0
	push_a 4
	push_a 3
	update_a 1 4
	update_a 2 1
	update_a 3 2
	update_a 0 3
	pop_a 1
	buildhr e_Clean.PrettyPrint.Util_k:+: 4 0
	buildh e_Clean.PrettyPrint.Util_dprint;1 0
	buildh e_Clean.PrettyPrint.Util_dprint;5 0
	buildAC "|}"
	buildh ARRAY 1
	push_a 3
	update_a 1 4
	update_a 2 1
	update_a 3 2
	update_a 0 3
	pop_a 1
	buildhr e_Clean.PrettyPrint.Util_k:+: 4 0
	push_a 3
	push_b 1
	push_b 1
	update_a 1 5
	updatepop_a 0 4
	update_b 1 3
	updatepop_b 0 2
.d 2 2 ib
	jmp e_Clean.PrettyPrint.Util_sprint;5
case.56
	pop_b 1
	push_args 1 1 1
	buildh _Nil 0
	update_a 0 3
	pop_a 1
	buildh e_Clean.PrettyPrint.Util_dprint;1 0
	buildh d14 0
	push_a 2
	buildAC ","
	buildh ARRAY 1
	push_a 5
	push_b 1
	push_b 1
	push_a 4
	update_a 3 5
	update_a 1 3
	update_a 4 1
	update_a 2 4
	update_a 0 2
	pop_a 1
	update_a 6 7
	update_a 4 6
	update_a 3 5
	update_a 2 4
	update_a 1 3
	updatepop_a 0 2
.d 5 2 ib
	jsr e_Clean.PrettyPrint.Util_sjoin;7
.o 1 0
	buildh ARRAY 1
	buildh e_Clean.PrettyPrint.Util_dprint;1 0
	buildh e_Clean.PrettyPrint.Util_dprint;1 0
	buildAC "{"
	buildh ARRAY 1
	push_a 2
	update_a 1 3
	update_a 2 1
	update_a 0 2
	pop_a 1
	buildhr e_Clean.PrettyPrint.Util_k:+: 4 0
	buildh e_Clean.PrettyPrint.Util_dprint;1 0
	buildh e_Clean.PrettyPrint.Util_dprint;5 0
	buildAC "}"
	buildh ARRAY 1
	push_a 3
	update_a 1 4
	update_a 2 1
	update_a 3 2
	update_a 0 3
	pop_a 1
	buildhr e_Clean.PrettyPrint.Util_k:+: 4 0
	push_a 1
	push_b 1
	push_b 1
	update_a 1 2
	updatepop_a 0 1
	update_b 1 3
	updatepop_b 0 2
.d 2 2 ib
	jmp e_Clean.PrettyPrint.Util_sprint;5
case.57
	pop_b 1
	push_args 1 4 4
	buildh _Nil 0
	update_a 0 6
	pop_a 1
	update_a 2 3
	update_a 1 2
	pop_a 2
	buildh e_Clean.PrettyPrint.Util_dprint;1 0
	buildh e_Clean.PrettyPrint.Expression_dprint;1 0
	buildAC "=:("
	buildh ARRAY 1
	push_a 3
	push_a 3
	update_a 2 4
	update_a 0 2
	update_a 3 0
	update_a 1 3
	update_a 0 1
	pop_a 1
	buildhr e_Clean.PrettyPrint.Util_k:+: 4 0
	buildh e_Clean.PrettyPrint.Expression_dprint;1 0
	buildh e_Clean.PrettyPrint.Util_dprint;5 0
	push_a 4
	push_a 3
	update_a 1 4
	update_a 2 1
	update_a 3 2
	update_a 0 3
	pop_a 1
	buildhr e_Clean.PrettyPrint.Util_k:+: 4 0
	buildh e_Clean.PrettyPrint.Util_dprint;1 0
	buildh e_Clean.PrettyPrint.Util_dprint;5 0
	buildAC ")"
	buildh ARRAY 1
	push_a 3
	update_a 1 4
	update_a 2 1
	update_a 3 2
	update_a 0 3
	pop_a 1
	buildhr e_Clean.PrettyPrint.Util_k:+: 4 0
	push_a 3
	push_b 1
	push_b 1
	update_a 1 5
	updatepop_a 0 4
	update_b 1 3
	updatepop_b 0 2
.d 2 2 ib
	jmp e_Clean.PrettyPrint.Util_sprint;5
case.58
	buildAC "UNKNOWN_PE"
	updatepop_a 0 2
	pop_b 2
.d 1 0
	jsr print_string_
.o 0 0
	halt
	push_array 0
	updatepop_a 0 1
.d 1 0
	rtn
.o 2 0
s5
	eq_desc _Cons 2 1
	jmp_true case.78
	jmp case.79
case.78
	push_args 1 2 2
	buildh _Nil 0
	update_a 0 4
	pop_a 1
	jsr_eval 0
	pushD_a 0
	eqD_b e_syntax_kPS_Array 0
	jmp_true case.80
	eqD_b e_syntax_kPS_Record 0
	jmp_true case.81
	pop_a 2
	pop_b 1
	jmp case.79
case.80
	pop_b 1
	repl_args 1 1
	jsr_eval 1
	eq_desc _Nil 0 1
	jmp_true case.82
	pop_a 2
	jmp case.79
case.82
	buildh e_Clean.PrettyPrint.Expression_dprint;1 0
	buildh e_Clean.PrettyPrint.Util_dprint;1 0
	push_a 2
	buildAC "["
	buildh ARRAY 1
	push_a 3
	update_a 2 4
	update_a 0 2
	update_a 3 0
	update_a 1 3
	update_a 0 1
	pop_a 1
	buildhr e_Clean.PrettyPrint.Util_k:+: 4 0
	buildh e_Clean.PrettyPrint.Util_dprint;1 0
	buildh e_Clean.PrettyPrint.Util_dprint;5 0
	buildAC "]"
	buildh ARRAY 1
	push_a 3
	update_a 1 4
	update_a 2 1
	update_a 3 2
	update_a 0 3
	pop_a 1
	buildhr e_Clean.PrettyPrint.Util_k:+: 4 0
	push_a 3
	jsr_eval 0
	repl_r_args 1 2
	pushB FALSE
	push_b 2
	update_b 1 3
	update_b 2 1
	update_b 0 2
	pop_b 1
	update_b 2 1
	update_b 1 2
	updatepop_b 0 1
	update_a 1 5
	updatepop_a 0 4
.d 2 2 ib
	jmp e_Clean.PrettyPrint.Util_sprint;5
case.81
	pop_b 1
	repl_args 2 2
	eq_desc e_syntax_dNoRecordName 0 1
	jmp_true case.83
	pop_a 3
	jmp case.79
case.83
	jsr_eval 2
	eq_desc _Nil 0 2
	jmp_true case.84
	pop_a 3
	jmp case.79
case.84
	push_r_args 0 2 0
	push_a 5
	jsr_eval 0
	repl_r_args 1 2
	update_a 2 7
	update_a 1 6
	updatepop_a 0 5
.d 3 2 ib
	jmp e_Clean.PrettyPrint.Common_sprint;0
case.79
	pop_a 2
	buildAC "UNKNOWN_PARSEDSELECTION"
.d 1 0
	rtn
.o 0 1 b
s47
	eqB_b TRUE 0
	jmp_true case.85
	jmp case.86
case.85
	pop_b 1
	buildAC ""
.d 1 0
	rtn
case.86
	pop_b 1
	buildAC " = "
.d 1 0
	rtn
.o 0 1 b
s46
	eqB_b TRUE 0
	jmp_true case.87
	jmp case.88
case.87
	pop_b 1
	buildAC "#! "
.d 1 0
	rtn
case.88
	pop_b 1
	buildAC "# "
.d 1 0
	rtn
.o 2 1 b
s45
	eqB_b TRUE 0
	jmp_true case.89
	jmp case.90
case.89
	pop_a 2
	pop_b 1
	buildAC ""
.d 1 0
	rtn
case.90
	push_r_args 0 1 2
	push_a 2
	push_a 1
	update_a 1 2
	update_a 0 1
	pop_a 1
	update_a 1 3
	updatepop_a 0 2
	update_b 1 2
	updatepop_b 0 1
.d 2 2 ib
	jmp e_Clean.PrettyPrint.Util_sprint;5
.o 2 1 b
s44
	eqB_b TRUE 0
	jmp_true case.91
	jmp case.92
case.91
	pop_a 2
	pop_b 1
	buildAC ""
.d 1 0
	rtn
case.92
	push_r_args 0 1 2
	push_a 2
	push_a 1
	update_a 1 2
	update_a 0 1
	pop_a 1
	update_a 1 3
	updatepop_a 0 2
	update_b 1 2
	updatepop_b 0 1
.d 2 2 ib
	jmp e_Clean.PrettyPrint.Util_sprint;5
.o 2 1 b
s43
	eqB_b TRUE 0
	jmp_true case.93
	jmp case.94
case.93
	pop_a 2
	pop_b 1
	buildAC ""
.d 1 0
	rtn
case.94
	push_a 1
	jsr_eval 0
	push_r_args 1 1 2
	update_a 1 3
	updatepop_a 0 2
	update_b 1 2
	updatepop_b 0 1
.d 2 2 ib
	jmp e_Clean.PrettyPrint.Util_sprint;5
.o 2 1 b
s42
	eqB_b TRUE 0
	jmp_true case.95
	jmp case.96
case.95
	pop_a 2
	pop_b 1
	buildAC ""
.d 1 0
	rtn
case.96
	push_a 1
	jsr_eval 0
	push_r_args 1 1 2
	update_a 1 3
	updatepop_a 0 2
	update_b 1 2
	updatepop_b 0 1
.d 2 2 ib
	jmp e_Clean.PrettyPrint.Util_sprint;5
.o 1 0
s41
	pushD_a 0
	eqD_b e_syntax_dIsListGenerator 0
	jmp_true case.97
	jmpD ea e_syntax_dIsOverloadedListGenerator 0 case.98 case.99
	pop_b 1
	jmp s41.1
case.97
	pop_b 1
	pop_a 1
	buildAC " <- "
.d 1 0
	rtn
case.98
	pop_b 1
	pop_a 1
	buildAC " <|- "
.d 1 0
	rtn
case.99
	pop_b 1
	pop_a 1
	buildAC " <-: "
.d 1 0
	rtn
s41.1
	pop_a 1
	pushD m_Clean.PrettyPrint.Expression
	pushD x_41
.d 0 2 ii
	jmp _match_error
.string x_41 "<case>[line:171];18;87"
.o 2 1 b
s40
	eqB_b TRUE 0
	jmp_true case.100
	jmp case.101
case.100
	pop_a 2
	pop_b 1
	buildAC ""
.d 1 0
	rtn
case.101
	push_r_args 0 1 2
	push_a 2
	push_a 1
	update_a 1 2
	update_a 0 1
	pop_a 1
	update_a 1 3
	updatepop_a 0 2
	update_b 1 2
	updatepop_b 0 1
.d 2 2 ib
	jmp e_Clean.PrettyPrint.Util_sprint;5
.o 0 1 b
s39
	eqB_b TRUE 0
	jmp_true case.102
	jmp case.103
case.102
	pop_b 1
	buildAC "inline "
.d 1 0
	rtn
case.103
	pop_b 1
	buildAC ""
.d 1 0
	rtn
.o 1 0
s38
	eq_desc e_syntax_dParsedNormalSelector 0 0
	jmp_true case.104
	jmp case.105
case.104
	pop_a 1
	buildAC "."
.d 1 0
	rtn
case.105
	repl_r_args 0 1
	pop_b 1
	buildAC "!"
.d 1 0
	rtn
.o 2 1 b
s37
	eqB_b TRUE 0
	jmp_true case.106
	jmp case.107
case.106
	pop_a 2
	pop_b 1
	buildAC ""
.d 1 0
	rtn
case.107
	push_r_args 0 1 2
	push_a 2
	push_a 1
	update_a 1 2
	update_a 0 1
	pop_a 1
	update_a 1 3
	updatepop_a 0 2
	update_b 1 2
	updatepop_b 0 1
.d 2 2 ib
	jmp e_Clean.PrettyPrint.Util_sprint;5
.o 0 1 i
s36
	eqI_b 52 0
	jmp_true case.108
	eqI_b 53 0
	jmp_true case.109
	jmp case.110
case.108
	pop_b 1
	buildAC "!"
.d 1 0
	rtn
case.109
	pop_b 1
	buildAC "!"
.d 1 0
	rtn
case.110
	pop_b 1
	buildAC ""
.d 1 0
	rtn
.o 0 1 i
s35
	eqI_b 50 0
	jmp_true case.111
	eqI_b 53 0
	jmp_true case.112
	eqI_b 51 0
	jmp_true case.113
	eqI_b 55 0
	jmp_true case.114
	eqI_b 163 0
	jmp_true case.115
	jmp case.116
case.111
	pop_b 1
	buildAC "!"
.d 1 0
	rtn
case.112
	pop_b 1
	buildAC "!"
.d 1 0
	rtn
case.113
	pop_b 1
	buildAC "#"
.d 1 0
	rtn
case.114
	pop_b 1
	buildAC "|"
.d 1 0
	rtn
case.115
	pop_b 1
	buildAC "|"
.d 1 0
	rtn
case.116
	pop_b 1
	buildAC ""
.d 1 0
	rtn
.o 2 0
s34
	eq_desc e_syntax_dPE_Empty 0 0
	jmp_true case.117
	jmp case.118
case.117
	pop_a 2
	buildAC ""
.d 1 0
	rtn
case.118
	push_r_args 1 1 2
	push_a 1
	push_a 1
	update_a 1 2
	update_a 0 1
	pop_a 1
	update_a 1 3
	updatepop_a 0 2
.d 2 2 ib
	jsr s2
.o 1 0
	buildAC " & "
	push_a 1
	update_a 1 2
	update_a 0 1
	pop_a 1
.d 2 0
	jsr catAC
.o 1 0
.d 1 0
	rtn
.o 2 0
s33
	pushD_a 0
	jmpD ea e_syntax_kRecordNameIdent 0 case.120 case.121
case.119
	pop_b 1
	pop_a 2
	buildAC ""
.d 1 0
	rtn
case.120
	pop_b 1
	repl_args 2 2
	push_r_args 2 1 2
	push_a 2
	push_a 2
	push_a 2
	update_a 2 3
	update_a 1 2
	update_a 0 1
	pop_a 1
	update_a 2 5
	update_a 1 4
	updatepop_a 0 3
.d 3 2 ib
	jsr e_Clean.PrettyPrint.Common_sprint;0
.o 1 0
	buildAC " | "
	push_a 1
	update_a 1 2
	update_a 0 1
	pop_a 1
.d 2 0
	jsr catAC
.o 1 0
.d 1 0
	rtn
case.121
	pop_b 1
	repl_args 2 2
	buildh e_Clean.PrettyPrint.Common_dprint;0 0
	buildh e_Clean.PrettyPrint.Util_dprint;1 0
	push_a 2
	buildAC "'"
	buildh ARRAY 1
	push_a 3
	update_a 2 4
	update_a 0 2
	update_a 3 0
	update_a 1 3
	update_a 0 1
	pop_a 1
	buildhr e_Clean.PrettyPrint.Util_k:+: 4 0
	buildh e_Clean.PrettyPrint.Util_dprint;1 0
	buildh e_Clean.PrettyPrint.Util_dprint;5 0
	buildAC "'."
	buildh ARRAY 1
	push_a 3
	update_a 1 4
	update_a 2 1
	update_a 3 2
	update_a 0 3
	pop_a 1
	buildhr e_Clean.PrettyPrint.Util_k:+: 4 0
	buildh e_Clean.PrettyPrint.Util_dprint;1 0
	buildh e_Clean.PrettyPrint.Util_dprint;5 0
	push_a 4
	buildh ARRAY 1
	push_a 3
	update_a 1 4
	update_a 2 1
	update_a 3 2
	update_a 0 3
	pop_a 1
	buildhr e_Clean.PrettyPrint.Util_k:+: 4 0
	push_r_args 3 1 2
	update_a 1 4
	updatepop_a 0 3
.d 2 2 ib
	jsr e_Clean.PrettyPrint.Util_sprint;5
.o 1 0
	buildAC " | "
	push_a 1
	update_a 1 2
	update_a 0 1
	pop_a 1
.d 2 0
	jsr catAC
.o 1 0
.d 1 0
	rtn
.n 1 _
.o 1 0
n32
	push_node _cycle_in_spine 1
.d 1 0
	jsr ea32
.o 1 0
	fillh ARRAY 1 1
.d 1 0
	rtn
.o 1 0
ea32
.o 1 0
s32
	push_a 0
	eqAC_a "_!Cons!"
	jmp_true case.122
	push_a 0
	eqAC_a "_#Cons!"
	jmp_true case.123
	jmp case.124
case.122
	pop_a 1
	buildAC "!]"
.d 1 0
	rtn
case.123
	pop_a 1
	buildAC "!]"
.d 1 0
	rtn
case.124
	pop_a 1
	buildAC "]"
.d 1 0
	rtn
.n 1 _
.o 1 0
n31
	push_node _cycle_in_spine 1
.d 1 0
	jsr ea31
.o 1 0
	fillh ARRAY 1 1
.d 1 0
	rtn
.o 1 0
ea31
.o 1 0
s31
	push_a 0
	eqAC_a "_!Cons!"
	jmp_true case.125
	push_a 0
	eqAC_a "_#Cons!"
	jmp_true case.126
	jmp case.127
case.125
	pop_a 1
	buildAC "!]"
.d 1 0
	rtn
case.126
	pop_a 1
	buildAC "!]"
.d 1 0
	rtn
case.127
	pop_a 1
	buildAC "]"
.d 1 0
	rtn
.n 1 _
.o 1 0
n30
	push_node _cycle_in_spine 1
.d 1 0
	jsr ea30
.o 1 0
	fillh ARRAY 1 1
.d 1 0
	rtn
.o 1 0
ea30
.o 1 0
s30
	push_a 0
	eqAC_a "_!Cons!"
	jmp_true case.128
	push_a 0
	eqAC_a "_#Cons!"
	jmp_true case.129
	jmp case.130
case.128
	pop_a 1
	buildAC "!]"
.d 1 0
	rtn
case.129
	pop_a 1
	buildAC "!]"
.d 1 0
	rtn
case.130
	pop_a 1
	buildAC "]"
.d 1 0
	rtn
.o 3 2 ib
s27
	eq_desc e_syntax_dLocalParsedDefs 1 2
	jmp_true case.131
	jmp case.132
case.131
	push_args 2 1 1
	buildh _Nil 0
	update_a 0 4
	pop_a 1
	push_a 0
	jsr_eval 0
	buildh e_Clean.PrettyPrint.Util_dprint;5 0
	buildh e_Clean.PrettyPrint.Definition_dprint;0 0
	push_a 5
	push_a 5
	push_b 1
	push_b 1
	push_a 3
	update_a 2 4
	update_a 0 2
	update_a 3 0
	update_a 1 3
	update_a 0 1
	pop_a 1
	update_a 4 8
	update_a 3 7
	update_a 2 6
	update_a 1 5
	updatepop_a 0 4
	update_b 1 3
	updatepop_b 0 2
.d 5 2 ib
	jmp e_Clean.PrettyPrint.Util_sjoin;7
case.132
	buildAC "JOIN: UNKNOWN_LOCALDEFS"
	updatepop_a 0 3
	pop_b 2
.d 1 0
	jsr print_string_
.o 0 0
	halt
	push_array 0
	updatepop_a 0 1
.d 1 0
	rtn
.o 3 2 ib
s26
	eq_desc e_syntax_dLocalParsedDefs 1 2
	jmp_true case.133
	jmp case.134
case.133
	push_args 2 1 1
	buildh _Nil 0
	update_a 0 4
	pop_a 1
	push_a 0
	jsr_eval 0
	buildh e_Clean.PrettyPrint.Util_dprint;1 0
	buildh e_Clean.PrettyPrint.Definition_dprint;0 0
	push_a 5
	push_a 5
	push_b 1
	push_b 1
	push_a 3
	update_a 2 4
	update_a 0 2
	update_a 3 0
	update_a 1 3
	update_a 0 1
	pop_a 1
	update_a 4 8
	update_a 3 7
	update_a 2 6
	update_a 1 5
	updatepop_a 0 4
	update_b 1 3
	updatepop_b 0 2
.d 5 2 ib
	jmp e_Clean.PrettyPrint.Util_sjoin;7
case.134
	buildAC "JOIN: UNKNOWN_LOCALDEFS"
	updatepop_a 0 3
	pop_b 2
.d 1 0
	jsr print_string_
.o 0 0
	halt
	push_array 0
	updatepop_a 0 1
.d 1 0
	rtn
.desc d25 _hnf l25 2 0 "print;24"
.o 3 2 ib
i25
	pop_a 1
	push_r_args 1 4 0
	update_a 3 5
	update_a 1 3
	update_a 4 1
	update_a 2 4
	update_a 0 2
	pop_a 1
.d 5 2 ib
	jmp s25
.ai 0 a25 i25
.o 2 0
l25
	repl_args 1 1
.o 2 0
a25
.d 2 0
	jsr ea25
.o 1 0
	buildh ARRAY 1
.d 1 0
	rtn
.o 2 0
ea25
	jsr_eval 1
	jsr_eval 0
	push_r_args 1 4 0
	push_r_args 4 1 2
	update_a 4 6
	update_a 2 4
	update_a 0 2
	update_a 3 5
	update_a 1 3
	pop_a 2
.o 5 2 ib
s25
	build_r e_Clean.PrettyPrint.Util_rCPPState 1 2 0 0
	create
	push_a 6
	push_a 2
	update_a 2 3
	update_a 0 2
	pop_a 1
	buildh _Nil 0
	update_a 0 8
	pop_a 1
.d 3 0
	jsr s29
.o 1 0
	build_r e_Clean.PrettyPrint.Util_rCPPState 1 2 1 0
	create
	push_a 4
	push_a 2
	update_a 2 3
	update_a 0 2
	pop_a 1
	buildh _Nil 0
	update_a 0 6
	pop_a 1
.d 3 0
	jsr s28
.o 1 0
	buildh e_Clean.PrettyPrint.Definition_dprint;2 0
	buildh e_Clean.PrettyPrint.Util_dprint;5 0
	push_a 7
	push_a 3
	update_a 1 4
	update_a 2 1
	update_a 3 2
	update_a 0 3
	pop_a 1
	buildhr e_Clean.PrettyPrint.Util_k:+: 4 0
	buildh e_Clean.PrettyPrint.Util_dprint;5 0
	buildh e_Clean.PrettyPrint.Util_dprint;5 0
	buildhr e_Clean.PrettyPrint.Util_k:+: 4 0
	push_a 1
	push_b 1
	push_b 1
	update_a 1 6
	updatepop_a 0 5
	update_b 1 3
	updatepop_b 0 2
.d 2 2 ib
	jmp e_Clean.PrettyPrint.Util_sprint;5
.o 3 0
s29
	eq_desc _Nil 0 0
	jmp_true case.135
	jmp case.136
case.135
	fillh e_Clean.PrettyPrint.Util_dPrintNil 0 2
	pop_a 2
.d 1 0
	rtn
case.136
	push_r_args 1 1 2
	buildh e_Clean.PrettyPrint.Util_dprint;1 0
	buildh e_Clean.PrettyPrint.Definition_dprint;4 0
	push_a 3
	buildAC " & "
	buildh ARRAY 1
	push_a 4
	update_a 2 5
	update_a 4 2
	update_a 1 4
	update_a 3 1
	update_a 0 3
	pop_a 1
	update_a 4 6
	update_a 3 5
	update_a 2 4
	update_a 1 3
	updatepop_a 0 2
.d 5 2 ib
	jsr e_Clean.PrettyPrint.Util_sjoin;7
.o 1 0
	buildh ARRAY 1
	buildh e_Clean.PrettyPrint.Util_dprint;1 0
	buildh e_Clean.PrettyPrint.Util_dprint;1 0
	buildAC " | "
	buildh ARRAY 1
	push_a 2
	update_a 1 3
	update_a 2 1
	update_a 0 2
	pop_a 1
	fill_r e_Clean.PrettyPrint.Util_k:+: 4 0 4 0 0
	pop_a 4
.d 1 0
	rtn
.o 3 0
s28
	eq_desc _Nil 0 0
	jmp_true case.137
	jmp case.138
case.137
	fillh e_Clean.PrettyPrint.Util_dPrintNil 0 2
	pop_a 2
.d 1 0
	rtn
case.138
	push_r_args 1 1 2
	buildh e_Clean.PrettyPrint.Util_dprint;1 0
	buildh e_Clean.PrettyPrint.Definition_dprint;3 0
	push_a 3
	buildAC " "
	buildh ARRAY 1
	push_a 4
	update_a 2 5
	update_a 4 2
	update_a 1 4
	update_a 3 1
	update_a 0 3
	pop_a 1
	update_a 4 6
	update_a 3 5
	update_a 2 4
	update_a 1 3
	updatepop_a 0 2
.d 5 2 ib
	jsr e_Clean.PrettyPrint.Util_sjoin;7
.o 1 0
	buildh ARRAY 1
	buildh e_Clean.PrettyPrint.Util_dprint;1 0
	buildh e_Clean.PrettyPrint.Util_dprint;1 0
	buildAC "A."
	buildh ARRAY 1
	push_a 2
	update_a 1 3
	update_a 2 1
	update_a 0 2
	pop_a 1
	buildhr e_Clean.PrettyPrint.Util_k:+: 4 0
	buildh e_Clean.PrettyPrint.Util_dprint;1 0
	buildh e_Clean.PrettyPrint.Util_dprint;5 0
	buildAC ": "
	buildh ARRAY 1
	push_a 3
	update_a 1 4
	update_a 2 1
	update_a 3 2
	update_a 0 3
	pop_a 1
	fill_r e_Clean.PrettyPrint.Util_k:+: 4 0 4 0 0
	pop_a 4
.d 1 0
	rtn
.desc d24 _hnf l24 2 0 "print;23"
.o 3 2 ib
i24
	pop_a 1
.d 2 2 ib
	jmp s24
.ai 0 a24 i24
.o 2 0
l24
	repl_args 1 1
.o 2 0
a24
.d 2 0
	jsr ea24
.o 1 0
	buildh ARRAY 1
.d 1 0
	rtn
.o 2 0
ea24
	jsr_eval 1
	jsr_eval 0
	repl_r_args 1 2
.o 2 2 ib
s24
	pushD_a 1
	eqD_b e_syntax_dKindConst 0
	jmp_true case.139
	eqD_b e_syntax_kKindArrow 0
	jmp_true case.140
	pop_b 1
	jmp case.141
case.139
	pop_b 1
	pop_a 2
	pop_b 2
	buildAC "*"
.d 1 0
	rtn
case.140
	pop_b 1
	push_args 1 1 1
	buildh _Nil 0
	update_a 0 3
	pop_a 1
	push_b 1
	jmp_false else.142
	pushB TRUE
	push_a 1
	push_b 2
	push_b 2
	update_b 2 1
	buildhr e_Clean.PrettyPrint.Util_rCPPState 1 2
	pop_b 1
	buildh d24 1
	create
	push_a 2
	push_a 2
	update_a 2 3
	update_a 1 2
	update_a 0 1
	pop_a 1
	update_a 4 5
	update_a 2 4
	update_a 1 3
	updatepop_a 0 2
.d 3 0
	jsr e_StdList_smap
.o 1 0
	create
	buildAC "->"
	buildh ARRAY 1
	push_a 2
	update_a 2 3
	update_a 0 2
	pop_a 1
.d 3 0
	jsr e_Data.List_sintersperse
.o 1 0
	buildh e_Clean.PrettyPrint.Util_dprint;1 0
	push_a 2
	push_b 1
	push_b 1
	push_a 1
	update_a 1 2
	update_a 0 1
	pop_a 1
	update_b 1 3
	updatepop_b 0 2
	update_a 2 3
	update_a 1 2
	updatepop_a 0 1
.d 3 2 ib
	jsr e_Clean.PrettyPrint.Util_sprint;3
.o 1 0
	buildAC ")"
	push_a 1
	update_a 1 2
	update_a 0 1
	pop_a 1
.d 2 0
	jsr catAC
.o 1 0
	buildAC "("
.d 2 0
	jsr catAC
.o 1 0
.d 1 0
	rtn
else.142
	pushB TRUE
	push_a 1
	push_b 2
	push_b 2
	update_b 2 1
	buildhr e_Clean.PrettyPrint.Util_rCPPState 1 2
	pop_b 1
	buildh d24 1
	create
	push_a 2
	push_a 2
	update_a 2 3
	update_a 1 2
	update_a 0 1
	pop_a 1
	update_a 4 5
	update_a 2 4
	update_a 1 3
	updatepop_a 0 2
.d 3 0
	jsr e_StdList_smap
.o 1 0
	create
	buildAC "->"
	buildh ARRAY 1
	push_a 2
	update_a 2 3
	update_a 0 2
	pop_a 1
.d 3 0
	jsr e_Data.List_sintersperse
.o 1 0
	pushB TRUE
	push_a 1
	push_b 2
	push_b 2
	update_b 2 1
	update_b 1 2
	updatepop_b 0 1
	buildh e_Clean.PrettyPrint.Util_dprint;1 0
	update_a 2 3
	update_a 1 2
	updatepop_a 0 1
	update_b 1 3
	updatepop_b 0 2
.d 3 2 ib
	jmp e_Clean.PrettyPrint.Util_sprint;3
case.141
	buildAC "Unknown TypeKind"
	updatepop_a 0 2
	pop_b 2
.d 1 0
	jsr print_string_
.o 0 0
	halt
	push_array 0
	updatepop_a 0 1
.d 1 0
	rtn
.desc d16 _hnf l16 2 0 "print;15"
.o 3 2 ib
i16
	pop_a 1
.d 2 2 ib
	jmp s16
.ai 0 a16 i16
.o 2 0
l16
	repl_args 1 1
.o 2 0
a16
.d 2 0
	jsr ea16
.o 1 0
	buildh ARRAY 1
.d 1 0
	rtn
.o 2 0
ea16
	jsr_eval 1
	jsr_eval 0
	repl_r_args 1 2
.o 2 2 ib
s16
	eq_desc e_syntax_kFieldName 0 1
	jmp_true case.143
	jmp case.144
case.143
	push_args 1 2 2
	buildh _Nil 0
	update_a 0 4
	pop_a 1
	push_a 1
	push_a 1
	push_a 4
	push_b 1
	push_b 1
	update_a 2 6
	update_a 1 5
	updatepop_a 0 4
	update_b 1 3
	updatepop_b 0 2
.d 3 2 ib
	jmp e_Clean.PrettyPrint.Common_sprint;0
case.144
	push_args 1 2 2
	buildh _Nil 0
	update_a 0 4
	pop_a 1
	buildh e_Clean.PrettyPrint.Common_dprint;0 0
	buildh e_Clean.PrettyPrint.Util_dprint;1 0
	push_a 2
	buildAC "'"
	buildh ARRAY 1
	push_a 3
	update_a 2 4
	update_a 0 2
	update_a 3 0
	update_a 1 3
	update_a 0 1
	pop_a 1
	buildhr e_Clean.PrettyPrint.Util_k:+: 4 0
	buildh e_Clean.PrettyPrint.Util_dprint;1 0
	buildh e_Clean.PrettyPrint.Util_dprint;5 0
	buildAC "'."
	buildh ARRAY 1
	push_a 3
	update_a 1 4
	update_a 2 1
	update_a 3 2
	update_a 0 3
	pop_a 1
	buildhr e_Clean.PrettyPrint.Util_k:+: 4 0
	buildh e_Clean.PrettyPrint.Util_dprint;1 0
	buildh e_Clean.PrettyPrint.Util_dprint;5 0
	push_a 4
	buildh ARRAY 1
	push_a 3
	update_a 1 4
	update_a 2 1
	update_a 3 2
	update_a 0 3
	pop_a 1
	buildhr e_Clean.PrettyPrint.Util_k:+: 4 0
	push_a 3
	push_b 1
	push_b 1
	update_a 1 5
	updatepop_a 0 4
	update_b 1 3
	updatepop_b 0 2
.d 2 2 ib
	jmp e_Clean.PrettyPrint.Util_sprint;5
.desc d13 _hnf l13 2 0 "print;12"
.o 3 2 ib
i13
	pop_a 1
.d 2 2 ib
	jmp s13
.ai 0 a13 i13
.o 2 0
l13
	repl_args 1 1
.o 2 0
a13
.d 2 0
	jsr ea13
.o 1 0
	buildh ARRAY 1
.d 1 0
	rtn
.o 2 0
ea13
	jsr_eval 1
	jsr_eval 0
	repl_r_args 1 2
.o 2 2 ib
s13
	pushD_a 1
	jmpD ae e_syntax_dPackedArray 0 case.145 case.148
	jmpD ea e_syntax_dStrictArray 0 case.146 case.147
	pop_b 1
	jmp s13.1
case.145
	pop_b 1
	pop_a 2
	pop_b 2
	buildAC ""
.d 1 0
	rtn
case.146
	pop_b 1
	pop_a 2
	pop_b 2
	buildAC "!"
.d 1 0
	rtn
case.147
	pop_b 1
	pop_a 2
	pop_b 2
	buildAC "#"
.d 1 0
	rtn
case.148
	pop_b 1
	pop_a 2
	pop_b 2
	buildAC "32#"
.d 1 0
	rtn
s13.1
	pop_a 2
	pop_b 2
	pushD m_Clean.PrettyPrint.Expression
	pushD d13
.d 0 2 ii
	jmp _match_error
.o 2 2 ib
s9
	pushD_a 1
	jmpD eb e_syntax_kBVInt 0 case.149 case.154
	jmpD be e_syntax_kBVB 0 case.150 case.151
	eqD_b e_syntax_kBVR 0
	jmp_true case.152
	jmp case.153
case.149
	pop_b 1
	push_r_args 1 0 1
	buildh _Nil 0
	update_a 0 2
	pop_a 1
	push_b 0
	updatepop_b 0 3
	pop_a 2
.d 0 1 i
	jsr ItoAC
.o 1 0
.d 1 0
	rtn
case.150
	pop_b 1
	push_args 1 1 1
	buildh _Nil 0
	update_a 0 3
	pop_a 1
	updatepop_a 0 2
	pop_b 2
.d 1 0
	rtn
case.151
	pop_b 1
	push_r_args 1 0 1
	buildh _Nil 0
	update_a 0 2
	pop_a 1
	push_b 0
	updatepop_b 0 3
	pop_a 2
.d 0 1 b
	jsr BtoAC
.o 1 0
.d 1 0
	rtn
case.152
	pop_b 1
	push_args 1 1 1
	buildh _Nil 0
	update_a 0 3
	pop_a 1
	updatepop_a 0 2
	pop_b 2
.d 1 0
	rtn
case.153
	pop_b 1
	push_args 1 1 1
	buildh _Nil 0
	update_a 0 3
	pop_a 1
	updatepop_a 0 2
	pop_b 2
.d 1 0
	rtn
case.154
	pop_b 1
	push_args 1 1 1
	buildh _Nil 0
	update_a 0 3
	pop_a 1
	pop_a 1
	pop_a 2
	pop_b 2
	buildAC "BVI???"
.d 1 0
	rtn
.o 1 0
s18
	eq_desc e_syntax_dLocalParsedDefs 1 0
	jmp_true case.155
	jmp case.156
case.155
	repl_args 1 1
	jsr_eval 0
	eq_desc _Nil 0 0
	jmp_true case.157
	jmp case.158
case.157
	pop_a 1
	pushB TRUE
.d 0 1 b
	rtn
case.158
	pop_a 1
	pushB FALSE
.d 0 1 b
	rtn
case.156
	buildAC "JOIN: UNKNOWN_LOCALDEFS"
	updatepop_a 0 1
.d 1 0
	jsr print_string_
.o 0 0
	halt
	pushB_a 0
	pop_a 1
.d 0 1 b
	rtn
.export e_Clean.PrettyPrint.Expression_sprint;3
.descexp e_Clean.PrettyPrint.Expression_dprint;3 e_Clean.PrettyPrint.Expression_nprint;3 e_Clean.PrettyPrint.Expression_lprint;3 2 0 "print;3"
.o 3 2 ib
e_Clean.PrettyPrint.Expression_iprint;3
	pop_a 1
.d 2 2 ib
	jmp s4
.ai 0 a4 e_Clean.PrettyPrint.Expression_iprint;3
.o 2 0
e_Clean.PrettyPrint.Expression_lprint;3
	repl_args 1 1
.o 2 0
a4
.d 2 0
	jsr ea4
.o 1 0
	buildh ARRAY 1
.d 1 0
	rtn
.n 2 e_Clean.PrettyPrint.Expression_dprint;3
.o 1 0
e_Clean.PrettyPrint.Expression_nprint;3
	push_node _cycle_in_spine 2
.d 2 0
	jsr ea4
.o 1 0
	fillh ARRAY 1 1
.d 1 0
	rtn
.o 2 0
ea4
	jsr_eval 1
	jsr_eval 0
	repl_r_args 1 2
.o 2 2 ib
e_Clean.PrettyPrint.Expression_sprint;3
.o 2 2 ib
s4
	pushD_a 1
	jmpD be e_syntax_dFK_Macro 0 case.159 case.160
	jmpD be e_syntax_dFK_NodeDefOrFunction 0 case.161 case.162
	eqD_b e_syntax_dFK_Unknown 0
	jmp_true case.163
	pop_b 1
	jmp s4.1
case.159
	pop_b 1
	push_r_args 1 0 1
	buildh _Nil 0
	update_a 0 2
	pop_a 1
	pop_b 1
	pop_a 2
	pop_b 2
	buildAC "="
.d 1 0
	rtn
case.160
	pop_b 1
	pop_a 2
	pop_b 2
	buildAC ":=="
.d 1 0
	rtn
case.161
	pop_b 1
	pop_a 2
	pop_b 2
	buildAC "=:"
.d 1 0
	rtn
case.162
	pop_b 1
	pop_a 2
	pop_b 2
	buildAC "="
.d 1 0
	rtn
case.163
	pop_b 1
	pop_a 2
	pop_b 2
	buildAC "="
.d 1 0
	rtn
s4.1
	pop_a 2
	pop_b 2
	pushD m_Clean.PrettyPrint.Expression
	pushD e_Clean.PrettyPrint.Expression_dprint;3
.d 0 2 ii
	jmp _match_error
.o 2 0
s7
	buildh _Nil 0
	buildAC "_#Nil!"
	buildh ARRAY 1
	buildh _Cons 2
	buildAC "_#Nil"
	buildh ARRAY 1
	buildh _Cons 2
	buildAC "_Nil!"
	buildh ARRAY 1
	buildh _Cons 2
	buildAC "_!Nil!"
	buildh ARRAY 1
	buildh _Cons 2
	buildAC "_!Nil"
	buildh ARRAY 1
	buildh _Cons 2
	buildAC "_|Nil"
	buildh ARRAY 1
	buildh _Cons 2
	buildAC "_nil"
	buildh ARRAY 1
	buildh _Cons 2
	buildAC "_Nil"
	buildh ARRAY 1
	buildh _Cons 2
	buildh e_StdString_d==;2 0
	push_a 2
	buildh ARRAY 1
	push_a 1
	update_a 1 2
	update_a 0 1
	pop_a 1
	update_a 2 4
	update_a 1 3
	updatepop_a 0 2
.d 3 0
	jmp e_StdList_sisMember
.o 2 0
s6
	buildh _Nil 0
	buildAC "_#Cons!"
	buildh ARRAY 1
	buildh _Cons 2
	buildAC "_#Cons"
	buildh ARRAY 1
	buildh _Cons 2
	buildAC "_Cons!"
	buildh ARRAY 1
	buildh _Cons 2
	buildAC "_!Cons!"
	buildh ARRAY 1
	buildh _Cons 2
	buildAC "_!Cons"
	buildh ARRAY 1
	buildh _Cons 2
	buildAC "_|Cons"
	buildh ARRAY 1
	buildh _Cons 2
	buildAC "_cons"
	buildh ARRAY 1
	buildh _Cons 2
	buildAC "_Cons"
	buildh ARRAY 1
	buildh _Cons 2
	buildh e_StdString_d==;2 0
	push_a 2
	buildh ARRAY 1
	push_a 1
	update_a 1 2
	update_a 0 1
	pop_a 1
	update_a 2 4
	update_a 1 3
	updatepop_a 0 2
.d 3 0
	jmp e_StdList_sisMember
.export e_Clean.PrettyPrint.Expression_scompound_rhs
.descexp e_Clean.PrettyPrint.Expression_dcompound_rhs e_Clean.PrettyPrint.Expression_ncompound_rhs e_Clean.PrettyPrint.Expression_lcompound_rhs 1 0 "compound_rhs"
.o 2 0
e_Clean.PrettyPrint.Expression_lcompound_rhs
	pop_a 1
.d 1 0
	jsr ea1
.o 0 1 b
	buildB_b 0
	pop_b 1
.d 1 0
	rtn
.n 1 e_Clean.PrettyPrint.Expression_dcompound_rhs
.o 1 0
e_Clean.PrettyPrint.Expression_ncompound_rhs
	push_node _cycle_in_spine 1
.d 1 0
	jsr ea1
.o 0 1 b
	fillB_b 0 0
	pop_b 1
.d 1 0
	rtn
.o 1 0
ea1
	jsr_eval 0
.o 1 0
e_Clean.PrettyPrint.Expression_scompound_rhs
.o 1 0
s1
	eq_desc e_syntax_kGuardedAlts 0 0
	jmp_true case.164
	jmp case.165
case.164
	repl_args 2 2
	pop_a 2
	pushB TRUE
.d 0 1 b
	rtn
case.165
	repl_args 4 4
	update_a 0 3
	pop_a 3
	eq_desc _Cons 2 0
	jmp_true case.167
	jmp case.166
case.167
	repl_args 2 2
	pop_a 2
	pushB TRUE
.d 0 1 b
	rtn
case.166
	pop_a 1
	pushB FALSE
.d 0 1 b
	rtn
.impmod _system
.implab _match_error
