.comp 920 000011110011000
.start _nostart_
.depend "iTasks.Internal.SDSService" "20210613144730"
.depend "iTasks.Internal.Serialization" "20210613144730"
.depend "_SystemEnum" "20210613144732"
.depend "StdEnum" "20210613144732"
.depend "StdTuple" "20210613144732"
.depend "StdOrdList" "20210613144732"
.depend "Control.Monad.Trans" "20210613144732"
.depend "StdMaybe" "20210613144732"
.depend "Data.Maybe" "20210613144732"
.depend "iTasks.Extensions.Admin.WorkflowAdmin" "20210613144730"
.depend "iTasks.Extensions.User" "20210613144730"
.depend "iTasks.Extensions.Admin.UserAdmin" "20210613144730"
.depend "iTasks.UI.Layout.Common" "20210613144730"
.depend "iTasks.UI.Editor.Modifiers" "20210613144730"
.depend "iTasks.UI.Editor.Containers" "20210613144730"
.depend "iTasks.UI.Tune" "20210613144730"
.depend "iTasks.WF.Combinators.Common" "20210613144730"
.depend "iTasks.WF.Combinators.SDS" "20210613144730"
.depend "iTasks.UI.Editor.Controls" "20210613144730"
.depend "iTasks.WF.Tasks.Interaction" "20210613144730"
.depend "iTasks.WF.Tasks.System" "20210613144730"
.depend "iTasks.WF.Tasks.SDS" "20210613144730"
.depend "iTasks.WF.Tasks.Core" "20210613144730"
.depend "System.Time.GenJSON" "20210613144732"
.depend "Text.HTML.GenJSON" "20210613144732"
.depend "Data.Map.GenJSON" "20210613144732"
.depend "Data.Error.GenJSON" "20210613144732"
.depend "Data.Either.GenJSON" "20210613144732"
.depend "iTasks.WF.Derives" "20210613144730"
.depend "iTasks.SDS.Combinators.Common" "20210613144730"
.depend "iTasks.SDS.Combinators.Core" "20210613144730"
.depend "iTasks.SDS.Sources.System" "20210613144730"
.depend "iTasks.SDS.Sources.Store" "20210613144730"
.depend "iTasks.SDS.Sources.Core" "20210613144730"
.depend "iTasks.Internal.TaskIO" "20210613144730"
.depend "System._Signal" "20210613144732"
.depend "System.Signal" "20210613144732"
.depend "_SystemStrictMaybes" "20210613144732"
.depend "Text.GenPrint" "20210613144732"
.depend "iTasks.Extensions.DateTime" "20210613144730"
.depend "iTasks.Internal.TaskServer" "20210613144730"
.depend "AsyncIO" "20210613144730"
.depend "System._Process" "20210613144732"
.depend "System.Process" "20210613144732"
.depend "System.OS" "20210613144732"
.depend "TCPStringChannelsInternal" "20210613144732"
.depend "TCPStringChannels" "20210613144732"
.depend "TCPEvent" "20210613144732"
.depend "tcp_bytestreams" "20210613144732"
.depend "TCPDef" "20210613144732"
.depend "TCPChannels" "20210613144732"
.depend "TCPIP" "20210613144732"
.depend "iTasks.WF.Tasks.IO" "20210613144730"
.depend "Data.IntMap.Base" "20210613144732"
.depend "Data.IntMap.Strict" "20210613144732"
.depend "Data.CircularStack" "20210613144732"
.depend "iTasks.Extensions.Document" "20210613144730"
.depend "System.File" "20210613144732"
.depend "iTasks.Util.DeferredJSON" "20210613144730"
.depend "iTasks.UI.Layout" "20210613144730"
.depend "iTasks.Internal.TaskState" "20210613144730"
.depend "iTasks.Internal.SDS" "20210613144730"
.depend "Data.GenHash" "20210613144732"
.depend "Data.Maybe.Ord" "20210613144732"
.depend "Control.GenBimap" "20210613144732"
.depend "ABC.Interpreter.JavaScript" "20210613144730"
.depend "ABC.Interpreter" "20210613144730"
.depend "iTasks.UI.Editor" "20210613144730"
.depend "iTasks.UI.Editor.Generic" "20210613144730"
.depend "iTasks.Internal.Generic.Defaults" "20210613144730"
.depend "Data.GenDefault" "20210613144732"
.depend "Data.Integer" "20210613144732"
.depend "Text.HTML" "20210613144732"
.depend "iTasks.Internal.Generic.Visualization" "20210613144730"
.depend "iTasks.SDS.Definition" "20210613144730"
.depend "iTasks.WF.Combinators.Core" "20210613144730"
.depend "iTasks.Internal.TaskEval" "20210613144730"
.depend "iTasks.WF.Definition" "20210613144730"
.depend "iTasks.Internal.Task" "20210613144730"
.depend "iTasks.UI.Definition" "20210613144730"
.depend "Text.GenJSON" "20210613144732"
.depend "Data.Bifunctor" "20210613144732"
.depend "Data.Either" "20210613144732"
.depend "Data.Queue" "20210613144732"
.depend "StdFile" "20210613144732"
.depend "symbols_in_program" "20210613144730"
.depend "iTasks.Internal.IWorld" "20210613144730"
.depend "iTasks.Internal.WebService" "20210613144730"
.depend "tcp" "20210613144732"
.depend "TCPChannelClass" "20210613144732"
.depend "System._Time" "20210613144732"
.depend "System.Time" "20210613144732"
.depend "System.GetOpt" "20210613144732"
.depend "System.OSError" "20210613144732"
.depend "System.FilePath" "20210613144732"
.depend "StdString" "20210613144732"
.depend "Internet.HTTP" "20210613144732"
.depend "Control.Monad.Fail" "20210613144732"
.depend "Data.Traversable" "20210613144732"
.depend "StdMisc" "20210613144732"
.depend "StdOverloadedList" "20210613144732"
.depend "Data.List" "20210613144732"
.depend "Data.Foldable" "20210613144732"
.depend "Data.Set" "20210613144732"
.depend "Data.GenLexOrd" "20210613144732"
.depend "StdFunctions" "20210613144732"
.depend "StdFunc" "20210613144732"
.depend "Data.Map" "20210613144732"
.depend "_SystemEnumStrict" "20210613144732"
.depend "_SystemStrictLists" "20210613144732"
.depend "StdStrictLists" "20210613144732"
.depend "StdGeneric" "20210613144732"
.depend "Data.GenEq" "20210613144732"
.depend "StdReal" "20210613144732"
.depend "StdChar" "20210613144732"
.depend "StdInt" "20210613144732"
.depend "StdBool" "20210613144732"
.depend "StdClass" "20210613144732"
.depend "StdList" "20210613144732"
.depend "Data.Monoid" "20210613144732"
.depend "Control.Applicative" "20210613144732"
.depend "Control.Monad" "20210613144732"
.depend "Data.Functor" "20210613144732"
.depend "Data.Error" "20210613144732"
.depend "iTasks.Engine" "20210613144730"
.depend "iTasks" "20210613144730"
.depend "StdOverloaded" "20210613144732"
.depend "_SystemDynamic" "20210613144732"
.depend "iTasks.Internal.Distributed.Domain" "20210613144730"
.module m_iTasks.Internal.Distributed.Domain "iTasks.Internal.Distributed.Domain" "20210613144730"
.endinfo
.impmod _system
.implab _cycle_in_spine
.implab _type_error
.implab _hnf
.impdesc e_system_dind
.implab e_system_nind e_system_eaind
.impdesc e_system_dif
.implab e_system_nif e_system_eaif
.implab e_system_sif
.impdesc e_system_dAP
.implab e_system_nAP e_system_eaAP
.implab e_system_sAP
.impdesc ARRAY
.impdesc _Nil
.impdesc _Cons
.impdesc _Conss
.implab n_Conss ea_Conss
.impdesc _Consts
.implab n_Consts ea_Consts
.impdesc _Conssts
.implab n_Conssts ea_Conssts
.impdesc _Tuple
.impdesc d_S.1
.implab n_S.1 ea_S.1
.impdesc d_S.2
.implab n_S.2 ea_S.2
.impdesc d_S.3
.implab n_S.3 ea_S.3
.impdesc d_S.4
.implab n_S.4 ea_S.4
.impdesc d_S.5
.implab n_S.5 ea_S.5
.impdesc d_S.6
.implab n_S.6 ea_S.6
.implab _driver
.impmod iTasks.UI.Editor
.implab e_iTasks.UI.Editor_sbinumap_Editor;15
.impmod iTasks.UI.Editor.Generic
.impdesc e_iTasks.UI.Editor.Generic_dgEditor_OBJECT;3
.implab e_iTasks.UI.Editor.Generic_ngEditor_OBJECT;3
.impdesc e_iTasks.UI.Editor.Generic_dgEditor_CONS;4
.impdesc e_iTasks.UI.Editor.Generic_dgEditor__String;11
.impmod iTasks.Internal.Generic.Visualization
.impdesc e_iTasks.Internal.Generic.Visualization_dgText_CONS;8
.implab e_iTasks.Internal.Generic.Visualization_sgText_OBJECT;9
.impdesc e_iTasks.Internal.Generic.Visualization_dgText__String;16
.impmod Text.GenJSON
.impdesc e_Text.GenJSON_dJSONEncode__String;16
.implab e_Text.GenJSON_nJSONEncode__String;16 e_Text.GenJSON_eaJSONEncode__String;16
.implab e_Text.GenJSON_sJSONDecode__String;46
.impmod StdString
.implab e_StdString_s==;2
.impmod Data.GenEq
.implab e_Data.GenEq_sgEq__String;11
.impmod Text.GenJSON
.impdesc e_Text.GenJSON_kJSONString
.impdesc e_Text.GenJSON_dJSONString
.implab e_Text.GenJSON_nJSONString e_Text.GenJSON_eaJSONString
.impdesc e_Text.GenJSON_kJSONArray
.impmod StdGeneric
.impdesc e_StdGeneric_dCONS
.impdesc e_StdGeneric_rGenericTypeDefDescriptor
.impdesc e_StdGeneric_rGenericConsDescriptor
.impdesc e_StdGeneric_dGenConsNoPrio
.impdesc e_StdGeneric_dGenTypeCons
.impdesc e_StdGeneric_dGenTypeApp
.impdesc e_StdGeneric_dGenTypeArrow
.export e_iTasks.Internal.Distributed.Domain_dDomain
.desc e_iTasks.Internal.Distributed.Domain_dDomain _hnf _add_arg 1 0 "Domain"
.export e_iTasks.Internal.Distributed.Domain_sTD;Domain
.export e_iTasks.Internal.Distributed.Domain_eaTD;Domain
.descexp e_iTasks.Internal.Distributed.Domain_dTD;Domain e_iTasks.Internal.Distributed.Domain_nTD;Domain e_iTasks.Internal.Distributed.Domain_lTD;Domain 1 0 "TD;Domain"
.o 2 0 
e_iTasks.Internal.Distributed.Domain_lTD;Domain
	update_a 1 0
	create 
.d 2 0 
	put_a_jmp 2 e_iTasks.Internal.Distributed.Domain_eaTD;Domain
.n 1 e_iTasks.Internal.Distributed.Domain_dTD;Domain e_iTasks.Internal.Distributed.Domain_eaTD;Domain
.o 1 0 
e_iTasks.Internal.Distributed.Domain_nTD;Domain
	push_node _cycle_in_spine 1
.o 2 0 
e_iTasks.Internal.Distributed.Domain_eaTD;Domain
.o 2 0 
e_iTasks.Internal.Distributed.Domain_sTD;Domain
.o 2 0 
s6
	fillh _Nil 0 1
.d 1 0 
	pop_a_rtn 1
.export e_iTasks.Internal.Distributed.Domain_sgEq_Domain;4
.descexp e_iTasks.Internal.Distributed.Domain_dgEq_Domain;4 e_iTasks.Internal.Distributed.Domain_ngEq_Domain;4 e_iTasks.Internal.Distributed.Domain_lgEq_Domain;4 2 0 "gEq_Domain;4"
.o 3 0 
e_iTasks.Internal.Distributed.Domain_igEq_Domain;4
.d 2 0 
	pop_a_jmp 1 s5
.ai 0 a5 e_iTasks.Internal.Distributed.Domain_igEq_Domain;4
.o 2 0 
e_iTasks.Internal.Distributed.Domain_lgEq_Domain;4
	repl_args 1 1
.o 2 0 
a5
.d 2 0 
	jsr ea5
.o 0 1 b
	buildB_b 0
.d 1 0 
	pop_b_rtn 1
.n 2 e_iTasks.Internal.Distributed.Domain_dgEq_Domain;4
.o 1 0 
e_iTasks.Internal.Distributed.Domain_ngEq_Domain;4
	push_node _cycle_in_spine 2
.d 2 0 
	jsr ea5
.o 0 1 b
	fillB_b 0 0
.d 1 0 
	pop_b_rtn 1
.o 2 0 
ea5
	jsr_eval 1
	jsr_eval 0
.o 2 0 
e_iTasks.Internal.Distributed.Domain_sgEq_Domain;4
.o 2 0 
s5
	create 
	push_a 2
	update3pop_a 0 1
.d 2 0 
	jsr s12
.o 1 0 
	create 
	push_a 2
.d 2 0 
	buildh0_put_a_jsr _Nil 4 s12
.o 1 0 
	update2pop_a 0 1
s23
s22
	repl_args 1 1
	push_args 1 1 1
	buildh0_put_a _Nil 3
	jsr_eval 0
	push_a 0
	push_array 0
	updates2_a 3 0 1
	jsr_eval 0
	push_array 0
	update_a 2 5
	updatepop_a 0 4
.d 2 0 
	jmp e_Data.GenEq_sgEq__String;11
.export e_iTasks.Internal.Distributed.Domain_sJSONDecode_Domain;3
.descexp e_iTasks.Internal.Distributed.Domain_dJSONDecode_Domain;3 e_iTasks.Internal.Distributed.Domain_nJSONDecode_Domain;3 e_iTasks.Internal.Distributed.Domain_lJSONDecode_Domain;3 2 0 "JSONDecode_Domain;3"
.o 2 1 b
e_iTasks.Internal.Distributed.Domain_iJSONDecode_Domain;3
.d 1 1 b
	pop_a_jmp 1 s4
.ai 0 a4 e_iTasks.Internal.Distributed.Domain_iJSONDecode_Domain;3
.o 2 0 
e_iTasks.Internal.Distributed.Domain_lJSONDecode_Domain;3
	repl_args 1 1
.o 2 0 
a4
.d 2 0 
	jsr ea4
.o 2 0 
	buildh _Tuple 2
.d 1 0 
	rtn 
.n 2 e_iTasks.Internal.Distributed.Domain_dJSONDecode_Domain;3
.o 1 0 
e_iTasks.Internal.Distributed.Domain_nJSONDecode_Domain;3
	push_node _cycle_in_spine 2
.d 2 0 
	jsr ea4
.o 2 0 
	fillh _Tuple 2 2
.d 1 0 
	rtn 
.o 2 0 
ea4
	jsr_eval 1
	jsr_eval 0
	pushB0_pop_a1 
.o 1 1 b
e_iTasks.Internal.Distributed.Domain_sJSONDecode_Domain;3
.o 1 1 b
s4
	push_ab 0 0
	buildAC "Domain"
	buildh ARRAY 1
	put_b 1
	update2pop_a 0 1
.d 2 1 b
	jsr s21
.o 2 0 
.d 2 0 
	jmp s236
.o 2 1 b
s21
	push_update_a 0 1
	pop_b_pushB 1 FALSE
.d 2 1 b
	jsr s20
.o 2 0 
.d 3 0 
	jmp s235
.o 2 1 b
s20
	jmp_ne_desc _Cons 2 1 case.2
	push_args 1 2 2
	jsr_eval 0
	jmp_eq_desc e_Text.GenJSON_kJSONArray 0 0 case.3
	pop_a_jmp 2 case.2
case.3
	repl_args 1 1
	jmp_eq_desc _Cons 2 0 case.4
	pop_a_jmp 2 case.2
case.4
	repl_args 2 2
	jsr_eval 0
	jmp_eq_desc e_Text.GenJSON_kJSONString 0 0 case.5
	pop_a_jmp 3 case.2
case.5
	repl_args 1 1
	push_array 3
	swap_a1 
	pop_b 1
.d 2 0 
	buildh0_put_a_jsr _Nil 5 eqAC
.o 0 1 b
	jmp_false else.6
	jsr_eval 0
	update2pop_a 0 1
	pushB FALSE
.d 1 1 b
	jsr e_Text.GenJSON_sJSONDecode__String;46
.o 2 0 
.d 4 0 
	jmp s234
else.6
	pop_a 3
	buildh _None 0
.d 2 0 
	rtn 
case.2
	pop_a 1
	buildh _None 0
.d 2 0 
	pop_b_rtn 1
.o 2 0 
s16
	jmp_ne_desc _Just 1 0 case.8
	repl_args 1 1
	create 
	swap_a1 
.d 2 0 
	jsr s11
.o 1 0 
	fillh _Just 1 1
.d 1 0 
	rtn 
case.8
	fillh _None 0 1
.d 1 0 
	pop_a_rtn 1
.export e_iTasks.Internal.Distributed.Domain_sJSONEncode_Domain;2
.export e_iTasks.Internal.Distributed.Domain_eaJSONEncode_Domain;2
.descexp e_iTasks.Internal.Distributed.Domain_dJSONEncode_Domain;2 e_iTasks.Internal.Distributed.Domain_nJSONEncode_Domain;2 e_iTasks.Internal.Distributed.Domain_lJSONEncode_Domain;2 2 0 "JSONEncode_Domain;2"
.o 3 1 b
e_iTasks.Internal.Distributed.Domain_iJSONEncode_Domain;2
.d 2 1 b
	pop_a_jmp 1 s3
.ai 2 e_iTasks.Internal.Distributed.Domain_eaJSONEncode_Domain;2 e_iTasks.Internal.Distributed.Domain_iJSONEncode_Domain;2
.o 2 0 
e_iTasks.Internal.Distributed.Domain_lJSONEncode_Domain;2
	push_args 0 1 1
	update_a 2 1
	create 
.d 3 0 
	put_a_jmp 3 e_iTasks.Internal.Distributed.Domain_eaJSONEncode_Domain;2
.n 2 e_iTasks.Internal.Distributed.Domain_dJSONEncode_Domain;2 e_iTasks.Internal.Distributed.Domain_eaJSONEncode_Domain;2
.o 1 0 
e_iTasks.Internal.Distributed.Domain_nJSONEncode_Domain;2
	push_node _cycle_in_spine 2
.o 3 0 
e_iTasks.Internal.Distributed.Domain_eaJSONEncode_Domain;2
	jsr_eval 1
	jsr_eval 0
	pushB0_pop_a1 
.o 2 1 b
e_iTasks.Internal.Distributed.Domain_sJSONEncode_Domain;2
.o 2 1 b
s3
	create 
	swap_a1 
.d 2 0 
	jsr s12
.o 1 0 
	push_b 0
	buildAC "Domain"
	buildh ARRAY 1
.d 3 1 b
	put_b_jmp 1 s19
.o 3 1 b
s19
	pop_b_pushB 1 FALSE
s18
	push_args 1 1 1
	buildh0_put_a _Nil 3
	buildh _Nil 0
	push_a 1
	buildB FALSE
	build e_Text.GenJSON_dJSONEncode__String;16 2 e_Text.GenJSON_nJSONEncode__String;16
	buildo1 e_Text.GenJSON_nJSONString 3
	buildh _Cons 2
	buildhr e_Text.GenJSON_kJSONArray 1 0
	fillh _Cons 2 5
.d 1 0 
	pop_ab_rtn 3 1
.export e_iTasks.Internal.Distributed.Domain_sgText_Domain;1
.export e_iTasks.Internal.Distributed.Domain_eagText_Domain;1
.descexp e_iTasks.Internal.Distributed.Domain_dgText_Domain;1 e_iTasks.Internal.Distributed.Domain_ngText_Domain;1 e_iTasks.Internal.Distributed.Domain_lgText_Domain;1 2 0 "gText_Domain;1"
.o 4 0 
e_iTasks.Internal.Distributed.Domain_igText_Domain;1
.d 3 0 
	pop_a_jmp 1 s2
.ai 2 e_iTasks.Internal.Distributed.Domain_eagText_Domain;1 e_iTasks.Internal.Distributed.Domain_igText_Domain;1
.o 2 0 
e_iTasks.Internal.Distributed.Domain_lgText_Domain;1
	push_args 0 1 1
	update_a 2 1
	create 
.d 3 0 
	put_a_jmp 3 e_iTasks.Internal.Distributed.Domain_eagText_Domain;1
.n 2 e_iTasks.Internal.Distributed.Domain_dgText_Domain;1 e_iTasks.Internal.Distributed.Domain_eagText_Domain;1
.o 1 0 
e_iTasks.Internal.Distributed.Domain_ngText_Domain;1
	push_node _cycle_in_spine 2
.o 3 0 
e_iTasks.Internal.Distributed.Domain_eagText_Domain;1
	jsr_eval 0
.o 3 0 
e_iTasks.Internal.Distributed.Domain_sgText_Domain;1
.o 3 0 
s2
	buildo1 e_iTasks.Internal.Distributed.Domain_nbimapToGeneric;14.15 1
	buildh e_iTasks.Internal.Generic.Visualization_dgText__String;16 0
	build e_iTasks.Internal.Distributed.Domain_dtdi_Domain;7.8 0 e_iTasks.Internal.Distributed.Domain_ntdi_Domain;7.8
	buildAC "Domain"
	buildh ARRAY 1
	buildh e_iTasks.Internal.Generic.Visualization_dgText_CONS;8 3
	updates2pop_a 0 1 3
.d 4 0 
	jmp e_iTasks.Internal.Generic.Visualization_sgText_OBJECT;9
.export e_iTasks.Internal.Distributed.Domain_dbimapToGeneric;14.15
.export e_iTasks.Internal.Distributed.Domain_nbimapToGeneric;14.15
.descn e_iTasks.Internal.Distributed.Domain_dbimapToGeneric;14.15 e_iTasks.Internal.Distributed.Domain_nbimapToGeneric;14.15 1 0 "bimapToGeneric;14.15"
.n 1 e_iTasks.Internal.Distributed.Domain_dbimapToGeneric;14.15 ea15
.o 1 0 
e_iTasks.Internal.Distributed.Domain_nbimapToGeneric;14.15
	push_node _cycle_in_spine 1
.o 2 0 
ea15
	jsr_eval 0
.o 2 0 
s15
	jmp_ne_desc _Just 1 0 case.10
	repl_args 1 1
	create 
	swap_a1 
.d 2 0 
	jsr s12
.o 1 0 
	fillh _Just 1 1
.d 1 0 
	rtn 
case.10
	fillh _None 0 1
.d 1 0 
	pop_a_rtn 1
.export e_iTasks.Internal.Distributed.Domain_sgEditor_Domain;0
.descexp e_iTasks.Internal.Distributed.Domain_dgEditor_Domain;0 e_iTasks.Internal.Distributed.Domain_ngEditor_Domain;0 e_iTasks.Internal.Distributed.Domain_lgEditor_Domain;0 1 0 "gEditor_Domain;0"
.o 2 0 
e_iTasks.Internal.Distributed.Domain_igEditor_Domain;0
.d 1 0 
	pop_a_jmp 1 s1
.ai 1 _ e_iTasks.Internal.Distributed.Domain_igEditor_Domain;0
.o 2 0 
e_iTasks.Internal.Distributed.Domain_lgEditor_Domain;0
.d 1 0 
	pop_a_jsr 1 ea1
.o 4 0 
.impmod iTasks.UI.Editor
.impdesc e_iTasks.UI.Editor_rEditor
	buildhr e_iTasks.UI.Editor_rEditor 4 0
.d 1 0 
	rtn 
.n 1 e_iTasks.Internal.Distributed.Domain_dgEditor_Domain;0
.o 1 0 
e_iTasks.Internal.Distributed.Domain_ngEditor_Domain;0
	push_node _cycle_in_spine 1
.d 1 0 
	jsr ea1
.o 4 0 
	fill_r e_iTasks.UI.Editor_rEditor 4 0 4 0 0
.d 1 0 
	pop_a_rtn 4
.o 1 0 
ea1
	jsr_eval 0
.o 1 0 
e_iTasks.Internal.Distributed.Domain_sgEditor_Domain;0
.o 1 0 
s1
	buildh e_iTasks.UI.Editor.Generic_dgEditor__String;11 0
	buildI 0
	buildI 1
	buildh e_iTasks.UI.Editor.Generic_dgEditor_CONS;4 3
	build e_iTasks.Internal.Distributed.Domain_dcli_Domain;6.7 0 e_iTasks.Internal.Distributed.Domain_ncli_Domain;6.7
	push_a 2
	buildI 1
	push_update_a 2 3
	updates2_a_pop_a 0 2 4 1
	build e_iTasks.UI.Editor.Generic_dgEditor_OBJECT;3 4 e_iTasks.UI.Editor.Generic_ngEditor_OBJECT;3
	buildh e_iTasks.Internal.Distributed.Domain_dbimapToGeneric;13.14 0
	update2_a 0 1
	buildh0_dup_a e_iTasks.Internal.Distributed.Domain_dbimapFromGeneric;12.13 1
	buildh0_put_a e_iTasks.Internal.Distributed.Domain_dtoGenericDomain;11.12 1
	buildh e_iTasks.Internal.Distributed.Domain_dfromGenericDomain;10.11 0
.d 5 0 
	jmp e_iTasks.UI.Editor_sbinumap_Editor;15
.export e_iTasks.Internal.Distributed.Domain_dbimapFromGeneric;12.13
.desc e_iTasks.Internal.Distributed.Domain_dbimapFromGeneric;12.13 _hnf l13 1 0 "bimapFromGeneric;12.13"
.o 2 0 
l13
	update_a 1 0
	create 
	put_a 2
.o 2 0 
ea13
	jsr_eval 0
.o 2 0 
s13
	jmp_ne_desc _Just 1 0 case.12
	repl_args 1 1
	create 
	swap_a1 
.d 2 0 
	jsr s11
.o 1 0 
	fillh _Just 1 1
.d 1 0 
	rtn 
case.12
	fillh _None 0 1
.d 1 0 
	pop_a_rtn 1
.export e_iTasks.Internal.Distributed.Domain_dfromGenericDomain;10.11
.desc e_iTasks.Internal.Distributed.Domain_dfromGenericDomain;10.11 _hnf l11 1 0 "fromGenericDomain;10.11"
.o 2 0 
l11
	update_a 1 0
	create 
	put_a 2
.o 2 0 
ea11
	jsr_eval 0
.o 2 0 
s11
	repl_args 1 1
	push_a 0
	fillh e_iTasks.Internal.Distributed.Domain_dDomain 1 2
.d 1 0 
	pop_a_rtn 1
.export e_iTasks.Internal.Distributed.Domain_dbimapToGeneric;13.14
.desc e_iTasks.Internal.Distributed.Domain_dbimapToGeneric;13.14 _hnf l14 1 0 "bimapToGeneric;13.14"
.o 2 0 
l14
	update_a 1 0
	create 
	put_a 2
.o 2 0 
ea14
	jsr_eval 0
.o 2 0 
s14
	jmp_ne_desc _Just 1 0 case.14
	repl_args 1 1
	create 
	swap_a1 
.d 2 0 
	jsr s12
.o 1 0 
	fillh _Just 1 1
.d 1 0 
	rtn 
case.14
	fillh _None 0 1
.d 1 0 
	pop_a_rtn 1
.export e_iTasks.Internal.Distributed.Domain_dtoGenericDomain;11.12
.desc e_iTasks.Internal.Distributed.Domain_dtoGenericDomain;11.12 _hnf l12 1 0 "toGenericDomain;11.12"
.o 2 0 
l12
	update_a 1 0
	create 
	put_a 2
.o 2 0 
ea12
	jsr_eval 0
.o 2 0 
s12
	repl_args 1 1
	push_a 0
	fillh e_StdGeneric_dCONS 1 2
.d 1 0 
	pop_a_rtn 1
.export e_iTasks.Internal.Distributed.Domain_dtdi_Domain;7.8
.export e_iTasks.Internal.Distributed.Domain_ntdi_Domain;7.8
.descn e_iTasks.Internal.Distributed.Domain_dtdi_Domain;7.8 e_iTasks.Internal.Distributed.Domain_ntdi_Domain;7.8 0 0 "tdi_Domain;7.8"
.n 0 e_iTasks.Internal.Distributed.Domain_dtdi_Domain;7.8
.o 1 0 
e_iTasks.Internal.Distributed.Domain_ntdi_Domain;7.8
	push_node _cycle_in_spine 0
.o 0 0 
ea8
	build e_iTasks.Internal.Distributed.Domain_dcli_Domain;6.7 0 e_iTasks.Internal.Distributed.Domain_ncli_Domain;6.7
	buildI 1
	buildI 0
	buildAC "Domain"
	buildh ARRAY 1
	fill_r e_StdGeneric_rGenericTypeDefDescriptor 4 0 4 0 0
.d 1 0 
	pop_a_rtn 4
.export e_iTasks.Internal.Distributed.Domain_dcdi_Domain;9.10
.export e_iTasks.Internal.Distributed.Domain_ncdi_Domain;9.10
.descn e_iTasks.Internal.Distributed.Domain_dcdi_Domain;9.10 e_iTasks.Internal.Distributed.Domain_ncdi_Domain;9.10 0 0 "cdi_Domain;9.10"
.n 0 e_iTasks.Internal.Distributed.Domain_dcdi_Domain;9.10
.o 1 0 
e_iTasks.Internal.Distributed.Domain_ncdi_Domain;9.10
	push_node _cycle_in_spine 0
.o 0 0 
ea10
	build e_iTasks.Internal.Distributed.Domain_dgti_Domain;8.9 0 e_iTasks.Internal.Distributed.Domain_ngti_Domain;8.9
	build e_iTasks.Internal.Distributed.Domain_dtdi_Domain;7.8 0 e_iTasks.Internal.Distributed.Domain_ntdi_Domain;7.8
	buildh e_StdGeneric_dGenConsNoPrio 0
	buildI 0
	buildI 1
	buildAC "Domain"
	buildh ARRAY 1
	push_update_a 3 4
	updates3_a 0 3 6 5
	pop_a 1
	fill_r e_StdGeneric_rGenericConsDescriptor 6 0 6 0 0
.d 1 0 
	pop_a_rtn 6
.export e_iTasks.Internal.Distributed.Domain_dcli_Domain;6.7
.export e_iTasks.Internal.Distributed.Domain_ncli_Domain;6.7
.descn e_iTasks.Internal.Distributed.Domain_dcli_Domain;6.7 e_iTasks.Internal.Distributed.Domain_ncli_Domain;6.7 0 0 "cli_Domain;6.7"
.n 0 e_iTasks.Internal.Distributed.Domain_dcli_Domain;6.7 ea7
.o 1 0 
e_iTasks.Internal.Distributed.Domain_ncli_Domain;6.7
	push_node _cycle_in_spine 0
.o 1 0 
ea7
.o 1 0 
s7
	buildh _Nil 0
	build e_iTasks.Internal.Distributed.Domain_dcdi_Domain;9.10 0 e_iTasks.Internal.Distributed.Domain_ncdi_Domain;9.10
	fillh _Cons 2 2
.d 1 0 
	rtn 
.export e_iTasks.Internal.Distributed.Domain_dgti_Domain;8.9
.export e_iTasks.Internal.Distributed.Domain_ngti_Domain;8.9
.descn e_iTasks.Internal.Distributed.Domain_dgti_Domain;8.9 e_iTasks.Internal.Distributed.Domain_ngti_Domain;8.9 0 0 "gti_Domain;8.9"
.n 0 e_iTasks.Internal.Distributed.Domain_dgti_Domain;8.9 ea9
.o 1 0 
e_iTasks.Internal.Distributed.Domain_ngti_Domain;8.9
	push_node _cycle_in_spine 0
.o 1 0 
ea9
.o 1 0 
s9
	buildAC "Domain"
	buildh ARRAY 1
	buildh e_StdGeneric_dGenTypeCons 1
	buildAC "Char"
	buildh ARRAY 1
	buildh e_StdGeneric_dGenTypeCons 1
	buildAC "_#Array"
	buildh ARRAY 1
	buildh e_StdGeneric_dGenTypeCons 1
	buildh e_StdGeneric_dGenTypeApp 2
	fillh e_StdGeneric_dGenTypeArrow 2 2
.d 1 0 
	rtn 
.o 4 0 
s234
case.15
	jmp_ne_desc _Just 1 0 case.16
	repl_args 1 1
	push_jsr_eval 2
	push_a 1
	buildh e_StdGeneric_dCONS 1
	buildh _Just 1
	update2pop_a 0 4
.d 2 0 
	rtn 
case.16
	pop_a 3
	buildh _None 0
.d 2 0 
	rtn 
.o 3 0 
s235
case.18
	jmp_ne_desc _Just 1 0 case.19
	repl_args 1 1
	push_a 0
	buildh _Just 1
	updates2pop_a 0 2 3
.d 2 0 
	rtn 
case.19
	pop_a 2
	buildh _None 0
.d 2 0 
	rtn 
.o 2 0 
s236
	create 
	swap_a1 
.d 2 0 
	jsr s16
.o 1 0 
.d 2 0 
	rtn 
