.comp 920 000011110011000
.start _nostart_
.depend "StdOverloaded" "20210609153507"
.depend "_SystemDynamic" "20210609153507"
.depend "_SystemStrictMaybes" "20210609153507"
.module m__SystemStrictMaybes "_SystemStrictMaybes" "20210609153507"
.endinfo
.impmod _system
.implab _cycle_in_spine
.implab _type_error
.implab _hnf
.impdesc e_system_dind
.implab e_system_nind e_system_eaind
.impdesc e_system_dif
.implab e_system_nif e_system_eaif
.implab e_system_sif
.impdesc e_system_dAP
.implab e_system_nAP e_system_eaAP
.implab e_system_sAP
.impdesc ARRAY
.impdesc _Nil
.impdesc _Cons
.impdesc _Conss
.implab n_Conss ea_Conss
.impdesc _Consts
.implab n_Consts ea_Consts
.impdesc _Conssts
.implab n_Conssts ea_Conssts
.impdesc _Tuple
.impdesc d_S.1
.implab n_S.1 ea_S.1
.impdesc d_S.2
.implab n_S.2 ea_S.2
.impdesc d_S.3
.implab n_S.3 ea_S.3
.impdesc d_S.4
.implab n_S.4 ea_S.4
.impdesc d_S.5
.implab n_S.5 ea_S.5
.impdesc d_S.6
.implab n_S.6 ea_S.6
.implab _driver
.export e__SystemStrictMaybes_rMaybe;
.record e__SystemStrictMaybes_rMaybe; aa 2 0 "Maybe;"
.descexp e__SystemStrictMaybes_tMaybe; e__SystemStrictMaybes_cMaybe; _hnf 2 1 "Maybe;"
.n 2 e__SystemStrictMaybes_tMaybe;
.o 1 0
e__SystemStrictMaybes_cMaybe;
	push_node _cycle_in_spine 2
	jsr_eval 1
	jsr_eval 0
.impmod _SystemStrictMaybes
.impdesc e__SystemStrictMaybes_rMaybe;
	fill_r e__SystemStrictMaybes_rMaybe; 2 0 2 0 0
	pop_a 2
.d 1 0
	rtn
.export e__SystemStrictMaybes_dMaybe;._cJust
.export e__SystemStrictMaybes_nMaybe;._cJust
.export e__SystemStrictMaybes_eaMaybe;._cJust
.descs e__SystemStrictMaybes_dMaybe;._cJust e__SystemStrictMaybes_nMaybe;._cJust _ 1 0 "Maybe;._cJust"
.n -4 e__SystemStrictMaybes_dMaybe;._cJust e__SystemStrictMaybes_eaMaybe;._cJust
.o 1 0
e__SystemStrictMaybes_nMaybe;._cJust
	push_node _cycle_in_spine 1
.o 2 0
e__SystemStrictMaybes_eaMaybe;._cJust
	jsr_eval 0
	repl_r_args_a 2 0 1 1
	fill_a 0 1
	pop_a 1
.d 1 0
	rtn
.export e__SystemStrictMaybes_dMaybe;._eJust
.export e__SystemStrictMaybes_nMaybe;._eJust
.export e__SystemStrictMaybes_eaMaybe;._eJust
.descs e__SystemStrictMaybes_dMaybe;._eJust e__SystemStrictMaybes_nMaybe;._eJust _ 2 0 "Maybe;._eJust"
.n -4 e__SystemStrictMaybes_dMaybe;._eJust e__SystemStrictMaybes_eaMaybe;._eJust
.o 1 0
e__SystemStrictMaybes_nMaybe;._eJust
	push_node _cycle_in_spine 1
.o 2 0
e__SystemStrictMaybes_eaMaybe;._eJust
	jsr_eval 0
	repl_r_args_a 2 0 2 1
	fill_a 0 1
	pop_a 1
.d 1 0
	rtn
.export e__SystemStrictMaybes_rUMaybe;
.record e__SystemStrictMaybes_rUMaybe; aa 2 0 "UMaybe;"
.descexp e__SystemStrictMaybes_tUMaybe; e__SystemStrictMaybes_cUMaybe; _hnf 2 1 "UMaybe;"
.n 2 e__SystemStrictMaybes_tUMaybe;
.o 1 0
e__SystemStrictMaybes_cUMaybe;
	push_node _cycle_in_spine 2
	jsr_eval 1
	jsr_eval 0
.impdesc e__SystemStrictMaybes_rUMaybe;
	fill_r e__SystemStrictMaybes_rUMaybe; 2 0 2 0 0
	pop_a 2
.d 1 0
	rtn
.export e__SystemStrictMaybes_dUMaybe;._cJust_u
.export e__SystemStrictMaybes_nUMaybe;._cJust_u
.export e__SystemStrictMaybes_eaUMaybe;._cJust_u
.descs e__SystemStrictMaybes_dUMaybe;._cJust_u e__SystemStrictMaybes_nUMaybe;._cJust_u _ 1 0 "UMaybe;._cJust_u"
.n -4 e__SystemStrictMaybes_dUMaybe;._cJust_u e__SystemStrictMaybes_eaUMaybe;._cJust_u
.o 1 0
e__SystemStrictMaybes_nUMaybe;._cJust_u
	push_node _cycle_in_spine 1
.o 2 0
e__SystemStrictMaybes_eaUMaybe;._cJust_u
	jsr_eval 0
	repl_r_args_a 2 0 1 1
	fill_a 0 1
	pop_a 1
.d 1 0
	rtn
.export e__SystemStrictMaybes_dUMaybe;._eJust_u
.export e__SystemStrictMaybes_nUMaybe;._eJust_u
.export e__SystemStrictMaybes_eaUMaybe;._eJust_u
.descs e__SystemStrictMaybes_dUMaybe;._eJust_u e__SystemStrictMaybes_nUMaybe;._eJust_u _ 2 0 "UMaybe;._eJust_u"
.n -4 e__SystemStrictMaybes_dUMaybe;._eJust_u e__SystemStrictMaybes_eaUMaybe;._eJust_u
.o 1 0
e__SystemStrictMaybes_nUMaybe;._eJust_u
	push_node _cycle_in_spine 1
.o 2 0
e__SystemStrictMaybes_eaUMaybe;._eJust_u
	jsr_eval 0
	repl_r_args_a 2 0 2 1
	fill_a 0 1
	pop_a 1
.d 1 0
	rtn
.export e__SystemStrictMaybes_sTD;UMaybe;
.export e__SystemStrictMaybes_eaTD;UMaybe;
.descexp e__SystemStrictMaybes_dTD;UMaybe; e__SystemStrictMaybes_nTD;UMaybe; e__SystemStrictMaybes_lTD;UMaybe; 1 0 "TD;UMaybe;"
.o 2 0
e__SystemStrictMaybes_lTD;UMaybe;
	update_a 1 0
	create
	update_a 0 2
	pop_a 1
.d 2 0
	jmp e__SystemStrictMaybes_eaTD;UMaybe;
.n 1 e__SystemStrictMaybes_dTD;UMaybe; e__SystemStrictMaybes_eaTD;UMaybe;
.o 1 0
e__SystemStrictMaybes_nTD;UMaybe;
	push_node _cycle_in_spine 1
.o 2 0
e__SystemStrictMaybes_eaTD;UMaybe;
.o 2 0
e__SystemStrictMaybes_sTD;UMaybe;
.o 2 0
s30
	fillh _Nil 0 1
	pop_a 1
.d 1 0
	rtn
.export e__SystemStrictMaybes_sTD;Maybe;
.export e__SystemStrictMaybes_eaTD;Maybe;
.descexp e__SystemStrictMaybes_dTD;Maybe; e__SystemStrictMaybes_nTD;Maybe; e__SystemStrictMaybes_lTD;Maybe; 1 0 "TD;Maybe;"
.o 2 0
e__SystemStrictMaybes_lTD;Maybe;
	update_a 1 0
	create
	update_a 0 2
	pop_a 1
.d 2 0
	jmp e__SystemStrictMaybes_eaTD;Maybe;
.n 1 e__SystemStrictMaybes_dTD;Maybe; e__SystemStrictMaybes_eaTD;Maybe;
.o 1 0
e__SystemStrictMaybes_nTD;Maybe;
	push_node _cycle_in_spine 1
.o 2 0
e__SystemStrictMaybes_eaTD;Maybe;
.o 2 0
e__SystemStrictMaybes_sTD;Maybe;
.o 2 0
s29
	fillh _Nil 0 1
	pop_a 1
.d 1 0
	rtn
.export e__SystemStrictMaybes_s_eJust_u;27
.descexp e__SystemStrictMaybes_d_eJust_u;27 e__SystemStrictMaybes_n_eJust_u;27 e__SystemStrictMaybes_l_eJust_u;27 1 0 "_eJust_u;27"
.o 2 0
e__SystemStrictMaybes_i_eJust_u;27
	pop_a 1
.d 1 0
	jsr s28
.o 1 0
	buildh ARRAY 1
.d 1 0
	rtn
.ai 1 _ e__SystemStrictMaybes_i_eJust_u;27
.o 2 0
e__SystemStrictMaybes_l_eJust_u;27
	pop_a 1
.d 1 0
	jsr ea28
.o 1 0
	buildh ARRAY 1
.d 1 0
	rtn
.n 1 e__SystemStrictMaybes_d_eJust_u;27
.o 1 0
e__SystemStrictMaybes_n_eJust_u;27
	push_node _cycle_in_spine 1
.d 1 0
	jsr ea28
.o 1 0
	fillh ARRAY 1 1
.d 1 0
	rtn
.o 1 0
ea28
	jsr_eval 0
.o 1 0
e__SystemStrictMaybes_s_eJust_u;27
.o 1 0
s28
	repl_r_args 1 0
.d 1 0
	rtn
.export e__SystemStrictMaybes_s_cJust_u;26
.export e__SystemStrictMaybes_ea_cJust_u;26
.descexp e__SystemStrictMaybes_d_cJust_u;26 e__SystemStrictMaybes_n_cJust_u;26 e__SystemStrictMaybes_l_cJust_u;26 1 0 "_cJust_u;26"
.o 3 0
e__SystemStrictMaybes_i_cJust_u;26
	pop_a 1
	push_array 0
	update_a 0 1
	pop_a 1
.d 2 0
	jmp s27
.ai 1 _ e__SystemStrictMaybes_i_cJust_u;26
.o 2 0
e__SystemStrictMaybes_l_cJust_u;26
	update_a 1 0
	create
	update_a 0 2
	pop_a 1
.d 2 0
	jmp e__SystemStrictMaybes_ea_cJust_u;26
.n 1 e__SystemStrictMaybes_d_cJust_u;26 e__SystemStrictMaybes_ea_cJust_u;26
.o 1 0
e__SystemStrictMaybes_n_cJust_u;26
	push_node _cycle_in_spine 1
.o 2 0
e__SystemStrictMaybes_ea_cJust_u;26
	jsr_eval 0
	push_array 0
	update_a 0 1
	pop_a 1
.o 2 0
e__SystemStrictMaybes_s_cJust_u;26
.o 2 0
s27
	fill_r _Justa 1 0 1 0 0
	pop_a 1
.d 1 0
	rtn
.export e__SystemStrictMaybes_s_eJust_u;25
.descexp e__SystemStrictMaybes_d_eJust_u;25 e__SystemStrictMaybes_n_eJust_u;25 e__SystemStrictMaybes_l_eJust_u;25 1 0 "_eJust_u;25"
.o 2 0
e__SystemStrictMaybes_i_eJust_u;25
	pop_a 1
.d 1 0
	jsr s26
.o 1 0
	buildh ARRAY 1
.d 1 0
	rtn
.ai 1 _ e__SystemStrictMaybes_i_eJust_u;25
.o 2 0
e__SystemStrictMaybes_l_eJust_u;25
	pop_a 1
.d 1 0
	jsr ea26
.o 1 0
	buildh ARRAY 1
.d 1 0
	rtn
.n 1 e__SystemStrictMaybes_d_eJust_u;25
.o 1 0
e__SystemStrictMaybes_n_eJust_u;25
	push_node _cycle_in_spine 1
.d 1 0
	jsr ea26
.o 1 0
	fillh ARRAY 1 1
.d 1 0
	rtn
.o 1 0
ea26
	jsr_eval 0
.o 1 0
e__SystemStrictMaybes_s_eJust_u;25
.o 1 0
s26
	repl_r_args 1 0
.d 1 0
	rtn
.export e__SystemStrictMaybes_s_cJust_u;24
.export e__SystemStrictMaybes_ea_cJust_u;24
.descexp e__SystemStrictMaybes_d_cJust_u;24 e__SystemStrictMaybes_n_cJust_u;24 e__SystemStrictMaybes_l_cJust_u;24 1 0 "_cJust_u;24"
.o 3 0
e__SystemStrictMaybes_i_cJust_u;24
	pop_a 1
	push_array 0
	update_a 0 1
	pop_a 1
.d 2 0
	jmp s25
.ai 1 _ e__SystemStrictMaybes_i_cJust_u;24
.o 2 0
e__SystemStrictMaybes_l_cJust_u;24
	update_a 1 0
	create
	update_a 0 2
	pop_a 1
.d 2 0
	jmp e__SystemStrictMaybes_ea_cJust_u;24
.n 1 e__SystemStrictMaybes_d_cJust_u;24 e__SystemStrictMaybes_ea_cJust_u;24
.o 1 0
e__SystemStrictMaybes_n_cJust_u;24
	push_node _cycle_in_spine 1
.o 2 0
e__SystemStrictMaybes_ea_cJust_u;24
	jsr_eval 0
	push_array 0
	update_a 0 1
	pop_a 1
.o 2 0
e__SystemStrictMaybes_s_cJust_u;24
.o 2 0
s25
	fill_r _Justa 1 0 1 0 0
	pop_a 1
.d 1 0
	rtn
.export e__SystemStrictMaybes_s_eJust_u;23
.descexp e__SystemStrictMaybes_d_eJust_u;23 e__SystemStrictMaybes_n_eJust_u;23 e__SystemStrictMaybes_l_eJust_u;23 1 0 "_eJust_u;23"
.o 2 0
e__SystemStrictMaybes_i_eJust_u;23
	pop_a 1
.d 1 0
	jsr s24
.o 1 0
	buildh ARRAY 1
.d 1 0
	rtn
.ai 1 _ e__SystemStrictMaybes_i_eJust_u;23
.o 2 0
e__SystemStrictMaybes_l_eJust_u;23
	pop_a 1
.d 1 0
	jsr ea24
.o 1 0
	buildh ARRAY 1
.d 1 0
	rtn
.n 1 e__SystemStrictMaybes_d_eJust_u;23
.o 1 0
e__SystemStrictMaybes_n_eJust_u;23
	push_node _cycle_in_spine 1
.d 1 0
	jsr ea24
.o 1 0
	fillh ARRAY 1 1
.d 1 0
	rtn
.o 1 0
ea24
	jsr_eval 0
.o 1 0
e__SystemStrictMaybes_s_eJust_u;23
.o 1 0
s24
	repl_r_args 1 0
.d 1 0
	rtn
.export e__SystemStrictMaybes_s_cJust_u;22
.export e__SystemStrictMaybes_ea_cJust_u;22
.descexp e__SystemStrictMaybes_d_cJust_u;22 e__SystemStrictMaybes_n_cJust_u;22 e__SystemStrictMaybes_l_cJust_u;22 1 0 "_cJust_u;22"
.o 3 0
e__SystemStrictMaybes_i_cJust_u;22
	pop_a 1
	push_array 0
	update_a 0 1
	pop_a 1
.d 2 0
	jmp s23
.ai 1 _ e__SystemStrictMaybes_i_cJust_u;22
.o 2 0
e__SystemStrictMaybes_l_cJust_u;22
	update_a 1 0
	create
	update_a 0 2
	pop_a 1
.d 2 0
	jmp e__SystemStrictMaybes_ea_cJust_u;22
.n 1 e__SystemStrictMaybes_d_cJust_u;22 e__SystemStrictMaybes_ea_cJust_u;22
.o 1 0
e__SystemStrictMaybes_n_cJust_u;22
	push_node _cycle_in_spine 1
.o 2 0
e__SystemStrictMaybes_ea_cJust_u;22
	jsr_eval 0
	push_array 0
	update_a 0 1
	pop_a 1
.o 2 0
e__SystemStrictMaybes_s_cJust_u;22
.o 2 0
s23
	fill_r _Justa 1 0 1 0 0
	pop_a 1
.d 1 0
	rtn
.export e__SystemStrictMaybes_s_eJust_u;21
.descexp e__SystemStrictMaybes_d_eJust_u;21 e__SystemStrictMaybes_n_eJust_u;21 e__SystemStrictMaybes_l_eJust_u;21 1 0 "_eJust_u;21"
.o 2 0
e__SystemStrictMaybes_i_eJust_u;21
	pop_a 1
.d 1 0
	jsr s22
.o 1 0
	buildh ARRAY 1
.d 1 0
	rtn
.ai 1 _ e__SystemStrictMaybes_i_eJust_u;21
.o 2 0
e__SystemStrictMaybes_l_eJust_u;21
	pop_a 1
.d 1 0
	jsr ea22
.o 1 0
	buildh ARRAY 1
.d 1 0
	rtn
.n 1 e__SystemStrictMaybes_d_eJust_u;21
.o 1 0
e__SystemStrictMaybes_n_eJust_u;21
	push_node _cycle_in_spine 1
.d 1 0
	jsr ea22
.o 1 0
	fillh ARRAY 1 1
.d 1 0
	rtn
.o 1 0
ea22
	jsr_eval 0
.o 1 0
e__SystemStrictMaybes_s_eJust_u;21
.o 1 0
s22
	repl_r_args 1 0
.d 1 0
	rtn
.export e__SystemStrictMaybes_s_cJust_u;20
.export e__SystemStrictMaybes_ea_cJust_u;20
.descexp e__SystemStrictMaybes_d_cJust_u;20 e__SystemStrictMaybes_n_cJust_u;20 e__SystemStrictMaybes_l_cJust_u;20 1 0 "_cJust_u;20"
.o 3 0
e__SystemStrictMaybes_i_cJust_u;20
	pop_a 1
	push_array 0
	update_a 0 1
	pop_a 1
.d 2 0
	jmp s21
.ai 1 _ e__SystemStrictMaybes_i_cJust_u;20
.o 2 0
e__SystemStrictMaybes_l_cJust_u;20
	update_a 1 0
	create
	update_a 0 2
	pop_a 1
.d 2 0
	jmp e__SystemStrictMaybes_ea_cJust_u;20
.n 1 e__SystemStrictMaybes_d_cJust_u;20 e__SystemStrictMaybes_ea_cJust_u;20
.o 1 0
e__SystemStrictMaybes_n_cJust_u;20
	push_node _cycle_in_spine 1
.o 2 0
e__SystemStrictMaybes_ea_cJust_u;20
	jsr_eval 0
	push_array 0
	update_a 0 1
	pop_a 1
.o 2 0
e__SystemStrictMaybes_s_cJust_u;20
.o 2 0
s21
	fill_r _Justa 1 0 1 0 0
	pop_a 1
.d 1 0
	rtn
.export e__SystemStrictMaybes_s_eJust_u;19
.descexp e__SystemStrictMaybes_d_eJust_u;19 e__SystemStrictMaybes_n_eJust_u;19 e__SystemStrictMaybes_l_eJust_u;19 1 0 "_eJust_u;19"
.o 2 0
e__SystemStrictMaybes_i_eJust_u;19
	pop_a 1
.d 1 0
	jsr s20
.o 0 2 f
	buildF_b 0
	pop_b 2
.d 1 0
	rtn
.ai 1 _ e__SystemStrictMaybes_i_eJust_u;19
.o 2 0
e__SystemStrictMaybes_l_eJust_u;19
	pop_a 1
.d 1 0
	jsr ea20
.o 0 2 f
	buildF_b 0
	pop_b 2
.d 1 0
	rtn
.n 1 e__SystemStrictMaybes_d_eJust_u;19
.o 1 0
e__SystemStrictMaybes_n_eJust_u;19
	push_node _cycle_in_spine 1
.d 1 0
	jsr ea20
.o 0 2 f
	fillF_b 0 0
	pop_b 2
.d 1 0
	rtn
.o 1 0
ea20
	jsr_eval 0
.o 1 0
e__SystemStrictMaybes_s_eJust_u;19
.o 1 0
s20
	repl_r_args 0 2
.d 0 2 f
	rtn
.export e__SystemStrictMaybes_s_cJust_u;18
.export e__SystemStrictMaybes_ea_cJust_u;18
.descexp e__SystemStrictMaybes_d_cJust_u;18 e__SystemStrictMaybes_n_cJust_u;18 e__SystemStrictMaybes_l_cJust_u;18 1 0 "_cJust_u;18"
.o 3 0
e__SystemStrictMaybes_i_cJust_u;18
	pop_a 1
	pushF_a 0
	pop_a 1
.d 1 2 f
	jmp s19
.ai 1 _ e__SystemStrictMaybes_i_cJust_u;18
.o 2 0
e__SystemStrictMaybes_l_cJust_u;18
	update_a 1 0
	create
	update_a 0 2
	pop_a 1
.d 2 0
	jmp e__SystemStrictMaybes_ea_cJust_u;18
.n 1 e__SystemStrictMaybes_d_cJust_u;18 e__SystemStrictMaybes_ea_cJust_u;18
.o 1 0
e__SystemStrictMaybes_n_cJust_u;18
	push_node _cycle_in_spine 1
.o 2 0
e__SystemStrictMaybes_ea_cJust_u;18
	jsr_eval 0
	pushF_a 0
	pop_a 1
.o 1 2 f
e__SystemStrictMaybes_s_cJust_u;18
.o 1 2 f
s19
	fill_r _Justf 0 2 0 0 0
	pop_b 2
.d 1 0
	rtn
.export e__SystemStrictMaybes_s_eJust_u;17
.descexp e__SystemStrictMaybes_d_eJust_u;17 e__SystemStrictMaybes_n_eJust_u;17 e__SystemStrictMaybes_l_eJust_u;17 1 0 "_eJust_u;17"
.o 2 0
e__SystemStrictMaybes_i_eJust_u;17
	pop_a 1
.d 1 0
	jsr s18
.o 0 1 b
	buildB_b 0
	pop_b 1
.d 1 0
	rtn
.ai 1 _ e__SystemStrictMaybes_i_eJust_u;17
.o 2 0
e__SystemStrictMaybes_l_eJust_u;17
	pop_a 1
.d 1 0
	jsr ea18
.o 0 1 b
	buildB_b 0
	pop_b 1
.d 1 0
	rtn
.n 1 e__SystemStrictMaybes_d_eJust_u;17
.o 1 0
e__SystemStrictMaybes_n_eJust_u;17
	push_node _cycle_in_spine 1
.d 1 0
	jsr ea18
.o 0 1 b
	fillB_b 0 0
	pop_b 1
.d 1 0
	rtn
.o 1 0
ea18
	jsr_eval 0
.o 1 0
e__SystemStrictMaybes_s_eJust_u;17
.o 1 0
s18
	repl_r_args 0 1
.d 0 1 b
	rtn
.export e__SystemStrictMaybes_s_cJust_u;16
.export e__SystemStrictMaybes_ea_cJust_u;16
.descexp e__SystemStrictMaybes_d_cJust_u;16 e__SystemStrictMaybes_n_cJust_u;16 e__SystemStrictMaybes_l_cJust_u;16 1 0 "_cJust_u;16"
.o 3 0
e__SystemStrictMaybes_i_cJust_u;16
	pop_a 1
	pushB_a 0
	pop_a 1
.d 1 1 b
	jmp s17
.ai 1 _ e__SystemStrictMaybes_i_cJust_u;16
.o 2 0
e__SystemStrictMaybes_l_cJust_u;16
	update_a 1 0
	create
	update_a 0 2
	pop_a 1
.d 2 0
	jmp e__SystemStrictMaybes_ea_cJust_u;16
.n 1 e__SystemStrictMaybes_d_cJust_u;16 e__SystemStrictMaybes_ea_cJust_u;16
.o 1 0
e__SystemStrictMaybes_n_cJust_u;16
	push_node _cycle_in_spine 1
.o 2 0
e__SystemStrictMaybes_ea_cJust_u;16
	jsr_eval 0
	pushB_a 0
	pop_a 1
.o 1 1 b
e__SystemStrictMaybes_s_cJust_u;16
.o 1 1 b
s17
	fill_r _Justb 0 1 0 0 0
	pop_b 1
.d 1 0
	rtn
.export e__SystemStrictMaybes_s_eJust_u;15
.descexp e__SystemStrictMaybes_d_eJust_u;15 e__SystemStrictMaybes_n_eJust_u;15 e__SystemStrictMaybes_l_eJust_u;15 1 0 "_eJust_u;15"
.o 2 0
e__SystemStrictMaybes_i_eJust_u;15
	pop_a 1
.d 1 0
	jsr s16
.o 0 1 c
	buildC_b 0
	pop_b 1
.d 1 0
	rtn
.ai 1 _ e__SystemStrictMaybes_i_eJust_u;15
.o 2 0
e__SystemStrictMaybes_l_eJust_u;15
	pop_a 1
.d 1 0
	jsr ea16
.o 0 1 c
	buildC_b 0
	pop_b 1
.d 1 0
	rtn
.n 1 e__SystemStrictMaybes_d_eJust_u;15
.o 1 0
e__SystemStrictMaybes_n_eJust_u;15
	push_node _cycle_in_spine 1
.d 1 0
	jsr ea16
.o 0 1 c
	fillC_b 0 0
	pop_b 1
.d 1 0
	rtn
.o 1 0
ea16
	jsr_eval 0
.o 1 0
e__SystemStrictMaybes_s_eJust_u;15
.o 1 0
s16
	repl_r_args 0 1
.d 0 1 c
	rtn
.export e__SystemStrictMaybes_s_cJust_u;14
.export e__SystemStrictMaybes_ea_cJust_u;14
.descexp e__SystemStrictMaybes_d_cJust_u;14 e__SystemStrictMaybes_n_cJust_u;14 e__SystemStrictMaybes_l_cJust_u;14 1 0 "_cJust_u;14"
.o 3 0
e__SystemStrictMaybes_i_cJust_u;14
	pop_a 1
	pushC_a 0
	pop_a 1
.d 1 1 c
	jmp s15
.ai 1 _ e__SystemStrictMaybes_i_cJust_u;14
.o 2 0
e__SystemStrictMaybes_l_cJust_u;14
	update_a 1 0
	create
	update_a 0 2
	pop_a 1
.d 2 0
	jmp e__SystemStrictMaybes_ea_cJust_u;14
.n 1 e__SystemStrictMaybes_d_cJust_u;14 e__SystemStrictMaybes_ea_cJust_u;14
.o 1 0
e__SystemStrictMaybes_n_cJust_u;14
	push_node _cycle_in_spine 1
.o 2 0
e__SystemStrictMaybes_ea_cJust_u;14
	jsr_eval 0
	pushC_a 0
	pop_a 1
.o 1 1 c
e__SystemStrictMaybes_s_cJust_u;14
.o 1 1 c
s15
	fill_r _Justc 0 1 0 0 0
	pop_b 1
.d 1 0
	rtn
.export e__SystemStrictMaybes_s_eJust_u;13
.descexp e__SystemStrictMaybes_d_eJust_u;13 e__SystemStrictMaybes_n_eJust_u;13 e__SystemStrictMaybes_l_eJust_u;13 1 0 "_eJust_u;13"
.o 2 0
e__SystemStrictMaybes_i_eJust_u;13
	pop_a 1
.d 1 0
	jsr s14
.o 0 1 r
	buildR_b 0
	pop_b 1
.d 1 0
	rtn
.ai 1 _ e__SystemStrictMaybes_i_eJust_u;13
.o 2 0
e__SystemStrictMaybes_l_eJust_u;13
	pop_a 1
.d 1 0
	jsr ea14
.o 0 1 r
	buildR_b 0
	pop_b 1
.d 1 0
	rtn
.n 1 e__SystemStrictMaybes_d_eJust_u;13
.o 1 0
e__SystemStrictMaybes_n_eJust_u;13
	push_node _cycle_in_spine 1
.d 1 0
	jsr ea14
.o 0 1 r
	fillR_b 0 0
	pop_b 1
.d 1 0
	rtn
.o 1 0
ea14
	jsr_eval 0
.o 1 0
e__SystemStrictMaybes_s_eJust_u;13
.o 1 0
s14
	repl_r_args 0 1
.d 0 1 r
	rtn
.export e__SystemStrictMaybes_s_cJust_u;12
.export e__SystemStrictMaybes_ea_cJust_u;12
.descexp e__SystemStrictMaybes_d_cJust_u;12 e__SystemStrictMaybes_n_cJust_u;12 e__SystemStrictMaybes_l_cJust_u;12 1 0 "_cJust_u;12"
.o 3 0
e__SystemStrictMaybes_i_cJust_u;12
	pop_a 1
	pushR_a 0
	pop_a 1
.d 1 1 r
	jmp s13
.ai 1 _ e__SystemStrictMaybes_i_cJust_u;12
.o 2 0
e__SystemStrictMaybes_l_cJust_u;12
	update_a 1 0
	create
	update_a 0 2
	pop_a 1
.d 2 0
	jmp e__SystemStrictMaybes_ea_cJust_u;12
.n 1 e__SystemStrictMaybes_d_cJust_u;12 e__SystemStrictMaybes_ea_cJust_u;12
.o 1 0
e__SystemStrictMaybes_n_cJust_u;12
	push_node _cycle_in_spine 1
.o 2 0
e__SystemStrictMaybes_ea_cJust_u;12
	jsr_eval 0
	pushR_a 0
	pop_a 1
.o 1 1 r
e__SystemStrictMaybes_s_cJust_u;12
.o 1 1 r
s13
	fill_r _Justr 0 1 0 0 0
	pop_b 1
.d 1 0
	rtn
.export e__SystemStrictMaybes_s_eJust_u;11
.descexp e__SystemStrictMaybes_d_eJust_u;11 e__SystemStrictMaybes_n_eJust_u;11 e__SystemStrictMaybes_l_eJust_u;11 1 0 "_eJust_u;11"
.o 2 0
e__SystemStrictMaybes_i_eJust_u;11
	pop_a 1
.d 1 0
	jsr s12
.o 0 1 i
	buildI_b 0
	pop_b 1
.d 1 0
	rtn
.ai 1 _ e__SystemStrictMaybes_i_eJust_u;11
.o 2 0
e__SystemStrictMaybes_l_eJust_u;11
	pop_a 1
.d 1 0
	jsr ea12
.o 0 1 i
	buildI_b 0
	pop_b 1
.d 1 0
	rtn
.n 1 e__SystemStrictMaybes_d_eJust_u;11
.o 1 0
e__SystemStrictMaybes_n_eJust_u;11
	push_node _cycle_in_spine 1
.d 1 0
	jsr ea12
.o 0 1 i
	fillI_b 0 0
	pop_b 1
.d 1 0
	rtn
.o 1 0
ea12
	jsr_eval 0
.o 1 0
e__SystemStrictMaybes_s_eJust_u;11
.o 1 0
s12
	repl_r_args 0 1
.d 0 1 i
	rtn
.export e__SystemStrictMaybes_s_cJust_u;10
.export e__SystemStrictMaybes_ea_cJust_u;10
.descexp e__SystemStrictMaybes_d_cJust_u;10 e__SystemStrictMaybes_n_cJust_u;10 e__SystemStrictMaybes_l_cJust_u;10 1 0 "_cJust_u;10"
.o 3 0
e__SystemStrictMaybes_i_cJust_u;10
	pop_a 1
	pushI_a 0
	pop_a 1
.d 1 1 i
	jmp s11
.ai 1 _ e__SystemStrictMaybes_i_cJust_u;10
.o 2 0
e__SystemStrictMaybes_l_cJust_u;10
	update_a 1 0
	create
	update_a 0 2
	pop_a 1
.d 2 0
	jmp e__SystemStrictMaybes_ea_cJust_u;10
.n 1 e__SystemStrictMaybes_d_cJust_u;10 e__SystemStrictMaybes_ea_cJust_u;10
.o 1 0
e__SystemStrictMaybes_n_cJust_u;10
	push_node _cycle_in_spine 1
.o 2 0
e__SystemStrictMaybes_ea_cJust_u;10
	jsr_eval 0
	pushI_a 0
	pop_a 1
.o 1 1 i
e__SystemStrictMaybes_s_cJust_u;10
.o 1 1 i
s11
	fill_r _Justi 0 1 0 0 0
	pop_b 1
.d 1 0
	rtn
.export e__SystemStrictMaybes_s_eJust_u;9
.descexp e__SystemStrictMaybes_d_eJust_u;9 e__SystemStrictMaybes_n_eJust_u;9 e__SystemStrictMaybes_l_eJust_u;9 1 0 "_eJust_u;9"
.o 2 0
e__SystemStrictMaybes_i_eJust_u;9
	pop_a 1
.d 1 0
	jmp s10
.ai 1 _ e__SystemStrictMaybes_i_eJust_u;9
.o 2 0
e__SystemStrictMaybes_l_eJust_u;9
	pop_a 1
.d 1 0
	jmp ea10
.n 1 e__SystemStrictMaybes_d_eJust_u;9 _
.o 1 0
e__SystemStrictMaybes_n_eJust_u;9
	push_node _cycle_in_spine 1
.d 1 0
	jsr ea10
.o 1 0
	fill_a 0 1
	pop_a 1
.d 1 0
	rtn
.o 1 0
ea10
	jsr_eval 0
.o 1 0
e__SystemStrictMaybes_s_eJust_u;9
.o 1 0
s10
	print "_eJust_u of UMaybe a"
	halt
.d 1 0
	rtn
.export e__SystemStrictMaybes_s_cJust_u;8
.export e__SystemStrictMaybes_ea_cJust_u;8
.descexp e__SystemStrictMaybes_d_cJust_u;8 e__SystemStrictMaybes_n_cJust_u;8 e__SystemStrictMaybes_l_cJust_u;8 1 0 "_cJust_u;8"
.o 3 0
e__SystemStrictMaybes_i_cJust_u;8
	pop_a 1
.d 2 0
	jmp s9
.ai 1 _ e__SystemStrictMaybes_i_cJust_u;8
.o 2 0
e__SystemStrictMaybes_l_cJust_u;8
	update_a 1 0
	create
	update_a 0 2
	pop_a 1
.d 2 0
	jmp e__SystemStrictMaybes_ea_cJust_u;8
.n 1 e__SystemStrictMaybes_d_cJust_u;8 e__SystemStrictMaybes_ea_cJust_u;8
.o 1 0
e__SystemStrictMaybes_n_cJust_u;8
	push_node _cycle_in_spine 1
.o 2 0
e__SystemStrictMaybes_ea_cJust_u;8
	jsr_eval 0
.o 2 0
e__SystemStrictMaybes_s_cJust_u;8
.o 2 0
s9
	print "_cJust_u of UMaybe a"
	halt
.d 1 0
	rtn
.export e__SystemStrictMaybes_s_eJust;7
.descexp e__SystemStrictMaybes_d_eJust;7 e__SystemStrictMaybes_n_eJust;7 e__SystemStrictMaybes_l_eJust;7 2 0 "_eJust;7"
.o 2 0
e__SystemStrictMaybes_i_eJust;7
	repl_args 1 1
	jsr_eval 0
	push_r_args 0 2 0
	update_a 1 2
	update_a 0 1
	pop_a 1
.d 3 0
	jmp s8
.ai 0 ea8 e__SystemStrictMaybes_i_eJust;7
.o 2 0
e__SystemStrictMaybes_l_eJust;7
	repl_args 1 1
.d 2 0
	jmp ea8
.n 2 e__SystemStrictMaybes_d_eJust;7 _
.o 1 0
e__SystemStrictMaybes_n_eJust;7
	push_node _cycle_in_spine 2
.d 2 0
	jsr ea8
.o 1 0
	fill_a 0 1
	pop_a 1
.d 1 0
	rtn
.o 2 0
ea8
	jsr_eval 1
	jsr_eval 0
	repl_r_args 2 0
.o 3 0
e__SystemStrictMaybes_s_eJust;7
.o 3 0
s8
	push_a 1
	push_a 3
	push_a 1
	update_a 1 2
	update_a 0 1
	pop_a 1
	update_a 1 4
	updatepop_a 0 3
.d 2 0
	jmp_i 1
.export e__SystemStrictMaybes_s_cJust;6
.export e__SystemStrictMaybes_ea_cJust;6
.descexp e__SystemStrictMaybes_d_cJust;6 e__SystemStrictMaybes_n_cJust;6 e__SystemStrictMaybes_l_cJust;6 2 0 "_cJust;6"
.o 2 0
e__SystemStrictMaybes_i_cJust;6
	repl_args 1 1
	create
	jsr_eval 2
	jsr_eval 1
	push_r_args 1 2 0
	update_a 4 3
	update_a 2 4
	update_a 1 2
	update_a 0 1
	pop_a 1
.d 4 0
	jmp s7
.ai 2 e__SystemStrictMaybes_ea_cJust;6 e__SystemStrictMaybes_i_cJust;6
.o 2 0
e__SystemStrictMaybes_l_cJust;6
	push_args 0 1 1
	update_a 2 1
	create
	update_a 0 3
	pop_a 1
.d 3 0
	jmp e__SystemStrictMaybes_ea_cJust;6
.n 2 e__SystemStrictMaybes_d_cJust;6 e__SystemStrictMaybes_ea_cJust;6
.o 1 0
e__SystemStrictMaybes_n_cJust;6
	push_node _cycle_in_spine 2
.d 3 0
	jmp e__SystemStrictMaybes_ea_cJust;6
.o 4 0
e__SystemStrictMaybes_s_cJust;6
	jsr_eval 2
.d 4 0
	jmp s7
.o 3 0
e__SystemStrictMaybes_ea_cJust;6
	jsr_eval 1
	jsr_eval 0
	repl_r_args 2 0
.o 4 0
s7
	push_a 0
	push_a 3
	push_a 1
	update_a 1 2
	update_a 0 1
	pop_a 1
	update_a 1 4
	updatepop_a 0 3
.d 3 0
	jmp_i 1
.export e__SystemStrictMaybes_s_eJust;5
.descexp e__SystemStrictMaybes_d_eJust;5 e__SystemStrictMaybes_n_eJust;5 e__SystemStrictMaybes_l_eJust;5 1 0 "_eJust;5"
.o 2 0
e__SystemStrictMaybes_i_eJust;5
	pop_a 1
.d 1 0
	jmp s6
.ai 1 _ e__SystemStrictMaybes_i_eJust;5
.o 2 0
e__SystemStrictMaybes_l_eJust;5
	pop_a 1
.d 1 0
	jmp ea6
.n 1 e__SystemStrictMaybes_d_eJust;5 _
.o 1 0
e__SystemStrictMaybes_n_eJust;5
	push_node _cycle_in_spine 1
.d 1 0
	jsr ea6
.o 1 0
	fill_a 0 1
	pop_a 1
.d 1 0
	rtn
.o 1 0
ea6
	jsr_eval 0
.o 1 0
e__SystemStrictMaybes_s_eJust;5
.o 1 0
s6
	eq_desc _Just 1 0
	jmp_true case.1
	jmp s6.1
case.1
	repl_args 1 1
	jmp_eval
s6.1
	pop_a 1
	pushD m__SystemStrictMaybes
	pushD e__SystemStrictMaybes_d_eJust;5
.d 0 2 ii
	jmp _match_error
.export e__SystemStrictMaybes_s_cJust;4
.export e__SystemStrictMaybes_ea_cJust;4
.descexp e__SystemStrictMaybes_d_cJust;4 e__SystemStrictMaybes_n_cJust;4 e__SystemStrictMaybes_l_cJust;4 1 0 "_cJust;4"
.o 2 0
e__SystemStrictMaybes_i_cJust;4
	pop_a 1
	create
	push_a 1
	update_a 1 2
	update_a 0 1
	pop_a 1
.d 2 0
	jmp s5
.ai 1 _ e__SystemStrictMaybes_i_cJust;4
.o 2 0
e__SystemStrictMaybes_l_cJust;4
	update_a 1 0
	create
	update_a 0 2
	pop_a 1
.d 2 0
	jmp e__SystemStrictMaybes_ea_cJust;4
.n 1 e__SystemStrictMaybes_d_cJust;4 e__SystemStrictMaybes_ea_cJust;4
.o 1 0
e__SystemStrictMaybes_n_cJust;4
	push_node _cycle_in_spine 1
.o 2 0
e__SystemStrictMaybes_ea_cJust;4
.o 2 0
e__SystemStrictMaybes_s_cJust;4
.o 2 0
s5
	push_a 0
	fillh _Just 1 2
	pop_a 1
.d 1 0
	rtn
.export e__SystemStrictMaybes_s_eJust;3
.descexp e__SystemStrictMaybes_d_eJust;3 e__SystemStrictMaybes_n_eJust;3 e__SystemStrictMaybes_l_eJust;3 1 0 "_eJust;3"
.o 2 0
e__SystemStrictMaybes_i_eJust;3
	pop_a 1
.d 1 0
	jmp s4
.ai 1 _ e__SystemStrictMaybes_i_eJust;3
.o 2 0
e__SystemStrictMaybes_l_eJust;3
	pop_a 1
.d 1 0
	jmp ea4
.n 1 e__SystemStrictMaybes_d_eJust;3 _
.o 1 0
e__SystemStrictMaybes_n_eJust;3
	push_node _cycle_in_spine 1
.d 1 0
	jsr ea4
.o 1 0
	fill_a 0 1
	pop_a 1
.d 1 0
	rtn
.o 1 0
ea4
	jsr_eval 0
.o 1 0
e__SystemStrictMaybes_s_eJust;3
.o 1 0
s4
	eq_desc _Just 1 0
	jmp_true case.2
	jmp s4.1
case.2
	repl_args 1 1
.d 1 0
	rtn
s4.1
	pop_a 1
	pushD m__SystemStrictMaybes
	pushD e__SystemStrictMaybes_d_eJust;3
.d 0 2 ii
	jmp _match_error
.export e__SystemStrictMaybes_s_cJust;2
.export e__SystemStrictMaybes_ea_cJust;2
.descexp e__SystemStrictMaybes_d_cJust;2 e__SystemStrictMaybes_n_cJust;2 e__SystemStrictMaybes_l_cJust;2 1 0 "_cJust;2"
.o 2 0
e__SystemStrictMaybes_i_cJust;2
	pop_a 1
	create
	jsr_eval 1
	push_a 1
	update_a 1 2
	update_a 0 1
	pop_a 1
.d 2 0
	jmp s3
.ai 1 _ e__SystemStrictMaybes_i_cJust;2
.o 2 0
e__SystemStrictMaybes_l_cJust;2
	update_a 1 0
	create
	update_a 0 2
	pop_a 1
.d 2 0
	jmp e__SystemStrictMaybes_ea_cJust;2
.n 1 e__SystemStrictMaybes_d_cJust;2 e__SystemStrictMaybes_ea_cJust;2
.o 1 0
e__SystemStrictMaybes_n_cJust;2
	push_node _cycle_in_spine 1
.o 2 0
e__SystemStrictMaybes_s_cJust;2
.o 2 0
e__SystemStrictMaybes_ea_cJust;2
	jsr_eval 0
.o 2 0
s3
	push_a 0
	fillh _Just 1 2
	pop_a 1
.d 1 0
	rtn
.export e__SystemStrictMaybes_s_nothing_u
.export e__SystemStrictMaybes_ea_nothing_u
.descexp e__SystemStrictMaybes_d_nothing_u e__SystemStrictMaybes_n_nothing_u e__SystemStrictMaybes_l_nothing_u 1 0 "_nothing_u"
.o 2 0
e__SystemStrictMaybes_l_nothing_u
	update_a 1 0
	create
	update_a 0 2
	pop_a 1
.d 2 0
	jmp e__SystemStrictMaybes_ea_nothing_u
.n 1 e__SystemStrictMaybes_d_nothing_u e__SystemStrictMaybes_ea_nothing_u
.o 1 0
e__SystemStrictMaybes_n_nothing_u
	push_node _cycle_in_spine 1
.o 2 0
e__SystemStrictMaybes_ea_nothing_u
	jsr_eval 0
	repl_r_args 2 0
.o 3 0
e__SystemStrictMaybes_s_nothing_u
.o 3 0
s2
	pop_a 2
	fillh _Nothing 0 0
.d 1 0
	rtn
.export e__SystemStrictMaybes_s_nothing
.descexp e__SystemStrictMaybes_d_nothing e__SystemStrictMaybes_n_nothing e__SystemStrictMaybes_l_nothing 1 0 "_nothing"
.o 2 0
e__SystemStrictMaybes_l_nothing
	pop_a 1
.d 1 0
	jmp ea1
.n 1 e__SystemStrictMaybes_d_nothing _
.o 1 0
e__SystemStrictMaybes_n_nothing
	push_node _cycle_in_spine 1
.d 1 0
	jsr ea1
.o 1 0
	fill_a 0 1
	pop_a 1
.d 1 0
	rtn
.o 1 0
ea1
	jsr_eval 0
	repl_r_args 2 0
.o 2 0
e__SystemStrictMaybes_s_nothing
.o 2 0
s1
	pop_a 2
	fillh _Nothing 0 0
.d 1 0
	rtn
.impmod _system
.implab _match_error
