.comp 920 000011110011000
.start _nostart_
.depend "StdCharList" "20210613144732"
.depend "_SystemArray" "20210613144732"
.depend "StdArray" "20210613144732"
.depend "StdEnv" "20210613144732"
.depend "_SystemEnum" "20210613144732"
.depend "StdEnum" "20210613144732"
.depend "StdTuple" "20210613144732"
.depend "StdOrdList" "20210613144732"
.depend "Control.Monad.Trans" "20210613144732"
.depend "StdMaybe" "20210613144732"
.depend "Data.Maybe" "20210613144732"
.depend "iTasks.UI.Layout.Common" "20210613144730"
.depend "iTasks.UI.Tune" "20210613144730"
.depend "iTasks.Internal.TaskIO" "20210613144730"
.depend "System._Signal" "20210613144732"
.depend "System.Signal" "20210613144732"
.depend "_SystemStrictMaybes" "20210613144732"
.depend "Text.GenPrint" "20210613144732"
.depend "iTasks.Extensions.DateTime" "20210613144730"
.depend "iTasks.Internal.TaskServer" "20210613144730"
.depend "AsyncIO" "20210613144730"
.depend "System._Process" "20210613144732"
.depend "System.Process" "20210613144732"
.depend "System.OS" "20210613144732"
.depend "TCPStringChannelsInternal" "20210613144732"
.depend "TCPStringChannels" "20210613144732"
.depend "TCPEvent" "20210613144732"
.depend "tcp_bytestreams" "20210613144732"
.depend "TCPDef" "20210613144732"
.depend "TCPChannels" "20210613144732"
.depend "TCPIP" "20210613144732"
.depend "iTasks.WF.Tasks.IO" "20210613144730"
.depend "Data.IntMap.Base" "20210613144732"
.depend "Data.IntMap.Strict" "20210613144732"
.depend "Data.CircularStack" "20210613144732"
.depend "iTasks.Extensions.Document" "20210613144730"
.depend "System.File" "20210613144732"
.depend "iTasks.Util.DeferredJSON" "20210613144730"
.depend "iTasks.UI.Layout" "20210613144730"
.depend "iTasks.Internal.TaskState" "20210613144730"
.depend "iTasks.Internal.SDS" "20210613144730"
.depend "Data.GenHash" "20210613144732"
.depend "Data.Maybe.Ord" "20210613144732"
.depend "Control.GenBimap" "20210613144732"
.depend "ABC.Interpreter.JavaScript" "20210613144730"
.depend "ABC.Interpreter" "20210613144730"
.depend "iTasks.UI.Editor" "20210613144730"
.depend "iTasks.UI.Editor.Generic" "20210613144730"
.depend "iTasks.Internal.Generic.Defaults" "20210613144730"
.depend "Data.GenDefault" "20210613144732"
.depend "Data.Integer" "20210613144732"
.depend "Text.HTML" "20210613144732"
.depend "iTasks.Internal.Generic.Visualization" "20210613144730"
.depend "iTasks.SDS.Definition" "20210613144730"
.depend "iTasks.WF.Combinators.Core" "20210613144730"
.depend "iTasks.Internal.TaskEval" "20210613144730"
.depend "iTasks.WF.Definition" "20210613144730"
.depend "iTasks.Internal.Task" "20210613144730"
.depend "iTasks.UI.Definition" "20210613144730"
.depend "Text.GenJSON" "20210613144732"
.depend "Data.Bifunctor" "20210613144732"
.depend "Data.Either" "20210613144732"
.depend "Data.Queue" "20210613144732"
.depend "StdFile" "20210613144732"
.depend "symbols_in_program" "20210613144730"
.depend "iTasks.Internal.IWorld" "20210613144730"
.depend "iTasks.Internal.WebService" "20210613144730"
.depend "tcp" "20210613144732"
.depend "TCPChannelClass" "20210613144732"
.depend "System._Time" "20210613144732"
.depend "System.Time" "20210613144732"
.depend "System.GetOpt" "20210613144732"
.depend "System.OSError" "20210613144732"
.depend "System.FilePath" "20210613144732"
.depend "StdString" "20210613144732"
.depend "Internet.HTTP" "20210613144732"
.depend "Control.Monad.Fail" "20210613144732"
.depend "Data.Traversable" "20210613144732"
.depend "StdMisc" "20210613144732"
.depend "StdOverloadedList" "20210613144732"
.depend "Data.List" "20210613144732"
.depend "Data.Foldable" "20210613144732"
.depend "Data.Set" "20210613144732"
.depend "Data.GenLexOrd" "20210613144732"
.depend "StdFunctions" "20210613144732"
.depend "StdFunc" "20210613144732"
.depend "Data.Map" "20210613144732"
.depend "_SystemEnumStrict" "20210613144732"
.depend "_SystemStrictLists" "20210613144732"
.depend "StdStrictLists" "20210613144732"
.depend "StdGeneric" "20210613144732"
.depend "Data.GenEq" "20210613144732"
.depend "StdReal" "20210613144732"
.depend "StdChar" "20210613144732"
.depend "StdInt" "20210613144732"
.depend "StdBool" "20210613144732"
.depend "StdClass" "20210613144732"
.depend "StdList" "20210613144732"
.depend "Data.Monoid" "20210613144732"
.depend "Control.Applicative" "20210613144732"
.depend "Control.Monad" "20210613144732"
.depend "Data.Functor" "20210613144732"
.depend "Data.Error" "20210613144732"
.depend "iTasks.Engine" "20210613144730"
.depend "StdOverloaded" "20210613144732"
.depend "_SystemDynamic" "20210613144732"
.depend "iTasks.UI.Layout.BasicForms" "20210613144730"
.module m_iTasks.UI.Layout.BasicForms "iTasks.UI.Layout.BasicForms" "20210613144730"
.endinfo
.impmod _system
.implab _cycle_in_spine
.implab _type_error
.implab _hnf
.impdesc e_system_dind
.implab e_system_nind e_system_eaind
.impdesc e_system_dif
.implab e_system_nif e_system_eaif
.implab e_system_sif
.impdesc e_system_dAP
.implab e_system_nAP e_system_eaAP
.implab e_system_sAP
.impdesc ARRAY
.impdesc _Nil
.impdesc _Cons
.impdesc _Conss
.implab n_Conss ea_Conss
.impdesc _Consts
.implab n_Consts ea_Consts
.impdesc _Conssts
.implab n_Conssts ea_Conssts
.impdesc _Tuple
.impdesc d_S.1
.implab n_S.1 ea_S.1
.impdesc d_S.2
.implab n_S.2 ea_S.2
.impdesc d_S.3
.implab n_S.3 ea_S.3
.impdesc d_S.4
.implab n_S.4 ea_S.4
.impdesc d_S.5
.implab n_S.5 ea_S.5
.impdesc d_S.6
.implab n_S.6 ea_S.6
.implab _driver
.impmod Data.Maybe
.implab e_Data.Maybe_smaybe;63
.impmod iTasks.UI.Layout.Common
.impdesc e_iTasks.UI.Layout.Common_dtoFormItem
.implab e_iTasks.UI.Layout.Common_ntoFormItem e_iTasks.UI.Layout.Common_eatoFormItem
.impmod iTasks.UI.Layout
.impdesc e_iTasks.UI.Layout_dsetUIType
.implab e_iTasks.UI.Layout_nsetUIType e_iTasks.UI.Layout_easetUIType
.impdesc e_iTasks.UI.Layout_dmodifyUIAttributes
.implab e_iTasks.UI.Layout_nmodifyUIAttributes e_iTasks.UI.Layout_eamodifyUIAttributes
.impdesc e_iTasks.UI.Layout_dhideUI
.implab e_iTasks.UI.Layout_nhideUI e_iTasks.UI.Layout_eahideUI
.impdesc e_iTasks.UI.Layout_dinsertChildUI
.implab e_iTasks.UI.Layout_ninsertChildUI e_iTasks.UI.Layout_eainsertChildUI
.impdesc e_iTasks.UI.Layout_dmoveSubUIs
.implab e_iTasks.UI.Layout_nmoveSubUIs e_iTasks.UI.Layout_eamoveSubUIs
.impdesc e_iTasks.UI.Layout_dlayoutSubUIs
.implab e_iTasks.UI.Layout_nlayoutSubUIs e_iTasks.UI.Layout_ealayoutSubUIs
.impdesc e_iTasks.UI.Layout_dsequenceLayouts
.implab e_iTasks.UI.Layout_ssequenceLayouts
.implab e_iTasks.UI.Layout_nsequenceLayouts e_iTasks.UI.Layout_easequenceLayouts
.impmod iTasks.UI.Definition
.impdesc e_iTasks.UI.Definition_dui
.implab e_iTasks.UI.Definition_nui e_iTasks.UI.Definition_eaui
.impdesc e_iTasks.UI.Definition_dvalueAttr
.implab e_iTasks.UI.Definition_nvalueAttr e_iTasks.UI.Definition_eavalueAttr
.impdesc e_iTasks.UI.Definition_dtextAttr
.implab e_iTasks.UI.Definition_ntextAttr e_iTasks.UI.Definition_eatextAttr
.impmod StdString
.implab e_StdString_s<;3
.impmod Data.Map
.implab e_Data.Map_sunions;70
.impmod iTasks.UI.Layout
.impdesc e_iTasks.UI.Layout_kSelectByPath
.impdesc e_iTasks.UI.Layout_kSelectByDepth
.impdesc e_iTasks.UI.Layout_dSelectDescendents
.impdesc e_iTasks.UI.Layout_kSelectByType
.impdesc e_iTasks.UI.Layout_kSelectByHasAttribute
.impdesc e_iTasks.UI.Layout_kSelectByClass
.impdesc e_iTasks.UI.Layout_kSelectAND
.impdesc e_iTasks.UI.Layout_kSelectKeys
.impmod iTasks.UI.Definition
.impdesc e_iTasks.UI.Definition_dUIEmpty
.impdesc e_iTasks.UI.Definition_dUIAction
.impdesc e_iTasks.UI.Definition_dUIPanel
.impdesc e_iTasks.UI.Definition_dUIButtonBar
.impdesc e_iTasks.UI.Definition_dUIButton
.impmod Text.GenJSON
.impdesc e_Text.GenJSON_kJSONString
.impmod Data.Map
.impdesc e_Data.Map_kBin
.impdesc e_Data.Map_dTip
.export e_iTasks.UI.Layout.BasicForms_sbasicFormsSessionLayout
.export e_iTasks.UI.Layout.BasicForms_eabasicFormsSessionLayout
.descexp e_iTasks.UI.Layout.BasicForms_dbasicFormsSessionLayout e_iTasks.UI.Layout.BasicForms_nbasicFormsSessionLayout e_iTasks.UI.Layout.BasicForms_lbasicFormsSessionLayout 0 0 "basicFormsSessionLayout"
.o 1 0
e_iTasks.UI.Layout.BasicForms_lbasicFormsSessionLayout
	halt
.n 0 e_iTasks.UI.Layout.BasicForms_dbasicFormsSessionLayout e_iTasks.UI.Layout.BasicForms_eabasicFormsSessionLayout
.o 1 0
e_iTasks.UI.Layout.BasicForms_nbasicFormsSessionLayout
	push_node _cycle_in_spine 0
.o 1 0
e_iTasks.UI.Layout.BasicForms_eabasicFormsSessionLayout
.o 1 0
e_iTasks.UI.Layout.BasicForms_sbasicFormsSessionLayout
.o 1 0
s1
.d 1 0
	jmp s2
.o 1 0
s2
	buildh _Nil 0
	build e_iTasks.UI.Layout_dhideUI 0 e_iTasks.UI.Layout_nhideUI
	buildh e_iTasks.UI.Definition_dUIEmpty 0
	buildhr e_iTasks.UI.Layout_kSelectByType 1 0
	build e_iTasks.UI.Layout_dlayoutSubUIs 2 e_iTasks.UI.Layout_nlayoutSubUIs
	buildh _Cons 2
	build e_iTasks.UI.Layout.BasicForms_dlayoutAsButton.5 0 e_iTasks.UI.Layout.BasicForms_nlayoutAsButton.5
	buildh e_iTasks.UI.Definition_dUIAction 0
	buildhr e_iTasks.UI.Layout_kSelectByType 1 0
	build e_iTasks.UI.Layout_dlayoutSubUIs 2 e_iTasks.UI.Layout_nlayoutSubUIs
	buildh _Cons 2
	build e_iTasks.UI.Layout.BasicForms_dlayoutStep.3 0 e_iTasks.UI.Layout.BasicForms_nlayoutStep.3
	buildAC "step-actions"
	buildhr e_iTasks.UI.Layout_kSelectByClass 1 0
	build e_iTasks.UI.Layout_dlayoutSubUIs 2 e_iTasks.UI.Layout_nlayoutSubUIs
	buildh _Cons 2
	build e_iTasks.UI.Layout.BasicForms_dlayoutInteract.4 0 e_iTasks.UI.Layout.BasicForms_nlayoutInteract.4
	buildAC "interact"
	buildhr e_iTasks.UI.Layout_kSelectByClass 1 0
	build e_iTasks.UI.Layout_dlayoutSubUIs 2 e_iTasks.UI.Layout_nlayoutSubUIs
	buildh _Cons 2
.d 2 0
	jmp e_iTasks.UI.Layout_ssequenceLayouts
.export e_iTasks.UI.Layout.BasicForms_dlayoutInteract.4
.export e_iTasks.UI.Layout.BasicForms_nlayoutInteract.4
.descn e_iTasks.UI.Layout.BasicForms_dlayoutInteract.4 e_iTasks.UI.Layout.BasicForms_nlayoutInteract.4 0 0 "layoutInteract.4"
.n 0 e_iTasks.UI.Layout.BasicForms_dlayoutInteract.4 ea4
.o 1 0
e_iTasks.UI.Layout.BasicForms_nlayoutInteract.4
	push_node _cycle_in_spine 0
.o 1 0
ea4
.o 1 0
s4
	buildh _Nil 0
	build e_iTasks.UI.Layout.Common_dtoFormItem 0 e_iTasks.UI.Layout.Common_ntoFormItem
	buildAC "label"
	buildhr e_iTasks.UI.Layout_kSelectByHasAttribute 1 0
	buildh e_iTasks.UI.Layout_dSelectDescendents 0
	buildhr e_iTasks.UI.Layout_kSelectAND 2 0
	build e_iTasks.UI.Layout_dlayoutSubUIs 2 e_iTasks.UI.Layout_nlayoutSubUIs
	buildh _Cons 2
	buildh e_iTasks.UI.Definition_dUIPanel 0
	build e_iTasks.UI.Layout_dsetUIType 1 e_iTasks.UI.Layout_nsetUIType
	buildh _Cons 2
.d 2 0
	jmp e_iTasks.UI.Layout_ssequenceLayouts
.export e_iTasks.UI.Layout.BasicForms_dlayoutStep.3
.export e_iTasks.UI.Layout.BasicForms_nlayoutStep.3
.descn e_iTasks.UI.Layout.BasicForms_dlayoutStep.3 e_iTasks.UI.Layout.BasicForms_nlayoutStep.3 0 0 "layoutStep.3"
.n 0 e_iTasks.UI.Layout.BasicForms_dlayoutStep.3 ea3
.o 1 0
e_iTasks.UI.Layout.BasicForms_nlayoutStep.3
	push_node _cycle_in_spine 0
.o 1 0
ea3
.o 1 0
s3
	buildh _Nil 0
	build e_iTasks.UI.Layout.BasicForms_dlayoutStep.3 0 e_iTasks.UI.Layout.BasicForms_nlayoutStep.3
	buildAC "step-actions"
	buildhr e_iTasks.UI.Layout_kSelectByClass 1 0
	buildh e_iTasks.UI.Layout_dSelectDescendents 0
	buildhr e_iTasks.UI.Layout_kSelectAND 2 0
	build e_iTasks.UI.Layout_dlayoutSubUIs 2 e_iTasks.UI.Layout_nlayoutSubUIs
	buildh _Cons 2
	buildh _Nil 0
	build e_iTasks.UI.Layout.BasicForms_dlayoutAsButton.5 0 e_iTasks.UI.Layout.BasicForms_nlayoutAsButton.5
	pushI 1
	buildhr e_iTasks.UI.Layout_kSelectByDepth 0 1
	build e_iTasks.UI.Layout_dlayoutSubUIs 2 e_iTasks.UI.Layout_nlayoutSubUIs
	buildh _Nil 0
	buildI 1
	buildh _Cons 2
	buildhr e_iTasks.UI.Layout_kSelectByPath 1 0
	build e_iTasks.UI.Layout_dlayoutSubUIs 2 e_iTasks.UI.Layout_nlayoutSubUIs
	buildh _Cons 2
	buildh _Nil 0
	buildI 1
	buildh _Cons 2
	buildh e_iTasks.UI.Definition_dUIAction 0
	buildhr e_iTasks.UI.Layout_kSelectByType 1 0
	pushI 1
	buildhr e_iTasks.UI.Layout_kSelectByDepth 0 1
	buildhr e_iTasks.UI.Layout_kSelectAND 2 0
	buildI 0
	push_a 2
	update_a 1 3
	update_a 2 1
	update_a 0 2
	pop_a 1
	build e_iTasks.UI.Layout_dmoveSubUIs 3 e_iTasks.UI.Layout_nmoveSubUIs
	buildh _Cons 2
	buildh e_iTasks.UI.Definition_dUIButtonBar 0
	build e_iTasks.UI.Definition_dui 1 e_iTasks.UI.Definition_nui
	buildI 1
	build e_iTasks.UI.Layout_dinsertChildUI 2 e_iTasks.UI.Layout_ninsertChildUI
	buildh _Cons 2
	build e_iTasks.UI.Layout_dsequenceLayouts 1 e_iTasks.UI.Layout_nsequenceLayouts
	buildh _Cons 2
.d 2 0
	jmp e_iTasks.UI.Layout_ssequenceLayouts
.export e_iTasks.UI.Layout.BasicForms_dlayoutAsButton.5
.export e_iTasks.UI.Layout.BasicForms_nlayoutAsButton.5
.descn e_iTasks.UI.Layout.BasicForms_dlayoutAsButton.5 e_iTasks.UI.Layout.BasicForms_nlayoutAsButton.5 0 0 "layoutAsButton.5"
.n 0 e_iTasks.UI.Layout.BasicForms_dlayoutAsButton.5 ea5
.o 1 0
e_iTasks.UI.Layout.BasicForms_nlayoutAsButton.5
	push_node _cycle_in_spine 0
.o 1 0
ea5
.o 1 0
s5
	buildh _Nil 0
	buildh e_iTasks.UI.Layout.BasicForms_dtoButtonAttributes;6.7 0
	buildh _Nil 0
	buildAC "actionId"
	buildh ARRAY 1
	buildh _Cons 2
	buildhr e_iTasks.UI.Layout_kSelectKeys 1 0
	build e_iTasks.UI.Layout_dmodifyUIAttributes 2 e_iTasks.UI.Layout_nmodifyUIAttributes
	buildh _Cons 2
	buildh e_iTasks.UI.Definition_dUIButton 0
	build e_iTasks.UI.Layout_dsetUIType 1 e_iTasks.UI.Layout_nsetUIType
	buildh _Cons 2
.d 2 0
	jmp e_iTasks.UI.Layout_ssequenceLayouts
.export e_iTasks.UI.Layout.BasicForms_dtoButtonAttributes;6.7
.desc e_iTasks.UI.Layout.BasicForms_dtoButtonAttributes;6.7 _hnf l7 1 0 "toButtonAttributes;6.7"
.o 2 0
l7
	update_a 1 0
	create
	update_a 0 2
	pop_a 1
.o 2 0
ea7
.o 2 0
s7
	push_a 0
	buildAC "actionId"
	buildh ARRAY 1
	build e_iTasks.UI.Layout.BasicForms_dget`;501.8 2 e_iTasks.UI.Layout.BasicForms_nget`;501.8
	buildh e_iTasks.UI.Layout.BasicForms_d\;48;23;5.6 0
	push_a 2
	update_a 2 3
	update_a 1 2
	updatepop_a 0 1
.d 3 0
	jsr e_Data.Maybe_smaybe;63
.o 1 0
	fill_a 0 1
	pop_a 1
.d 1 0
	rtn
.export e_iTasks.UI.Layout.BasicForms_d\;48;23;5.6
.desc e_iTasks.UI.Layout.BasicForms_d\;48;23;5.6 _hnf l6 1 0 "\;48;23;5.6"
.o 2 0
l6
	update_a 1 0
	create
	update_a 0 2
	pop_a 1
.o 2 0
ea6
	jsr_eval 0
.o 2 0
s6
	eq_desc e_Text.GenJSON_kJSONString 0 0
	jmp_true case.1
	jmp s6.1
case.1
	repl_args 1 1
	buildh _Nil 0
	push_a 1
	buildh ARRAY 1
	build e_iTasks.UI.Definition_dtextAttr 1 e_iTasks.UI.Definition_ntextAttr
	buildh _Cons 2
	push_a 1
	buildhr e_Text.GenJSON_kJSONString 1 0
	build e_iTasks.UI.Definition_dvalueAttr 1 e_iTasks.UI.Definition_nvalueAttr
	buildh _Cons 2
	updatepop_a 0 1
.d 2 0
	jmp e_Data.Map_sunions;70
s6.1
	pop_a 2
	pushD m_iTasks.UI.Layout.BasicForms
	pushD e_iTasks.UI.Layout.BasicForms_d\;48;23;5.6
.d 0 2 ii
	jmp _match_error
.export e_iTasks.UI.Layout.BasicForms_dget`;501.8
.export e_iTasks.UI.Layout.BasicForms_nget`;501.8
.descn e_iTasks.UI.Layout.BasicForms_dget`;501.8 e_iTasks.UI.Layout.BasicForms_nget`;501.8 2 0 "get`;501.8"
.n 2 e_iTasks.UI.Layout.BasicForms_dget`;501.8 ea8
.o 1 0
e_iTasks.UI.Layout.BasicForms_nget`;501.8
	push_node _cycle_in_spine 2
.o 3 0
ea8
	jsr_eval 1
.o 3 0
s8
	eq_desc e_Data.Map_kBin 0 1
	jmp_true case.2
	jmp case.3
case.2
	push_r_args 1 4 1
	buildh _Nil 0
	update_a 0 6
	pop_a 1
	pop_b 1
	push_a 4
	jsr_eval 0
	push_array 0
	updatepop_a 0 1
	push_array 1
	push_a 1
	update_a 1 2
	update_a 0 1
	pop_a 1
.d 2 0
	jsr cmpAC
.o 0 1 i
	pushI 0
	gtI
	jmp_false else.4
	push_a 2
	push_a 5
	update_a 1 7
	updatepop_a 0 6
.d 3 0
	jmp s8
else.4
	push_array 4
	push_array 1
	update_a 3 4
	update_a 1 3
	updatepop_a 0 2
.d 2 0
	jsr cmpAC
.o 0 1 i
	pushI 0
	gtI
	jmp_false else.5
	push_a 1
	push_a 3
	update_a 1 5
	updatepop_a 0 4
.d 3 0
	jmp s8
else.5
	push_a 0
	fillh _Just 1 5
	pop_a 4
.d 1 0
	rtn
case.3
	fillh _None 0 2
	pop_a 2
.d 1 0
	rtn
.impmod _system
.implab _match_error
