.comp 920 000011110011000
.start _nostart_
.depend "StdOverloaded" "20210613154827"
.depend "_SystemDynamic" "20210613154827"
.depend "Data.Bifunctor" "20210613154827"
.module m_Data.Bifunctor "Data.Bifunctor" "20210613154827"
.endinfo
.impmod _system
.implab _cycle_in_spine
.implab _type_error
.implab _hnf
.impdesc e_system_dind
.implab e_system_nind e_system_eaind
.impdesc e_system_dif
.implab e_system_nif e_system_eaif
.implab e_system_sif
.impdesc e_system_dAP
.implab e_system_nAP e_system_eaAP
.implab e_system_sAP
.impdesc ARRAY
.impdesc _Nil
.impdesc _Cons
.impdesc _Conss
.implab n_Conss ea_Conss
.impdesc _Consts
.implab n_Consts ea_Consts
.impdesc _Conssts
.implab n_Conssts ea_Conssts
.impdesc _Tuple
.impdesc d_S.1
.implab n_S.1 ea_S.1
.impdesc d_S.2
.implab n_S.2 ea_S.2
.impdesc d_S.3
.implab n_S.3 ea_S.3
.impdesc d_S.4
.implab n_S.4 ea_S.4
.impdesc d_S.5
.implab n_S.5 ea_S.5
.impdesc d_S.6
.implab n_S.6 ea_S.6
.implab _driver
.export e_Data.Bifunctor_rBifunctor;
.record e_Data.Bifunctor_rBifunctor; aaa 3 0 "Bifunctor;"
.descexp e_Data.Bifunctor_tBifunctor; e_Data.Bifunctor_cBifunctor; _hnf 3 1 "Bifunctor;"
.n 3 e_Data.Bifunctor_tBifunctor;
.o 1 0
e_Data.Bifunctor_cBifunctor;
	push_node _cycle_in_spine 3
	jsr_eval 2
	jsr_eval 1
	jsr_eval 0
.impmod Data.Bifunctor
.impdesc e_Data.Bifunctor_rBifunctor;
	fill_r e_Data.Bifunctor_rBifunctor; 3 0 3 0 0
	pop_a 3
.d 1 0
	rtn
.export e_Data.Bifunctor_dBifunctor;.bifmap
.export e_Data.Bifunctor_nBifunctor;.bifmap
.export e_Data.Bifunctor_eaBifunctor;.bifmap
.descs e_Data.Bifunctor_dBifunctor;.bifmap e_Data.Bifunctor_nBifunctor;.bifmap _ 1 0 "Bifunctor;.bifmap"
.n -4 e_Data.Bifunctor_dBifunctor;.bifmap e_Data.Bifunctor_eaBifunctor;.bifmap
.o 1 0
e_Data.Bifunctor_nBifunctor;.bifmap
	push_node _cycle_in_spine 1
.o 2 0
e_Data.Bifunctor_eaBifunctor;.bifmap
	jsr_eval 0
	repl_r_args_a 3 0 1 1
	fill_a 0 1
	pop_a 1
.d 1 0
	rtn
.export e_Data.Bifunctor_dBifunctor;.first
.export e_Data.Bifunctor_nBifunctor;.first
.export e_Data.Bifunctor_eaBifunctor;.first
.descs e_Data.Bifunctor_dBifunctor;.first e_Data.Bifunctor_nBifunctor;.first _ 3 0 "Bifunctor;.first"
.n -4 e_Data.Bifunctor_dBifunctor;.first e_Data.Bifunctor_eaBifunctor;.first
.o 1 0
e_Data.Bifunctor_nBifunctor;.first
	push_node _cycle_in_spine 1
.o 2 0
e_Data.Bifunctor_eaBifunctor;.first
	jsr_eval 0
	repl_r_args_a 3 0 2 1
	fill_a 0 1
	pop_a 1
.d 1 0
	rtn
.export e_Data.Bifunctor_dBifunctor;.second
.export e_Data.Bifunctor_nBifunctor;.second
.export e_Data.Bifunctor_eaBifunctor;.second
.descs e_Data.Bifunctor_dBifunctor;.second e_Data.Bifunctor_nBifunctor;.second _ 4 0 "Bifunctor;.second"
.n -4 e_Data.Bifunctor_dBifunctor;.second e_Data.Bifunctor_eaBifunctor;.second
.o 1 0
e_Data.Bifunctor_nBifunctor;.second
	push_node _cycle_in_spine 1
.o 2 0
e_Data.Bifunctor_eaBifunctor;.second
	jsr_eval 0
	repl_r_args_a 3 0 3 1
	fill_a 0 1
	pop_a 1
.d 1 0
	rtn
.export e_Data.Bifunctor_sTD;Bifunctor;
.export e_Data.Bifunctor_eaTD;Bifunctor;
.descexp e_Data.Bifunctor_dTD;Bifunctor; e_Data.Bifunctor_nTD;Bifunctor; e_Data.Bifunctor_lTD;Bifunctor; 1 0 "TD;Bifunctor;"
.o 2 0
e_Data.Bifunctor_lTD;Bifunctor;
	update_a 1 0
	create
	update_a 0 2
	pop_a 1
.d 2 0
	jmp e_Data.Bifunctor_eaTD;Bifunctor;
.n 1 e_Data.Bifunctor_dTD;Bifunctor; e_Data.Bifunctor_eaTD;Bifunctor;
.o 1 0
e_Data.Bifunctor_nTD;Bifunctor;
	push_node _cycle_in_spine 1
.o 2 0
e_Data.Bifunctor_eaTD;Bifunctor;
.o 2 0
e_Data.Bifunctor_sTD;Bifunctor;
.o 2 0
s1
	fillh _Nil 0 1
	pop_a 1
.d 1 0
	rtn
