.comp 920 000011110011000
.start _nostart_
.depend "StdCharList" "20210613154827"
.depend "_SystemArray" "20210613154827"
.depend "StdArray" "20210613154827"
.depend "StdEnv" "20210613154827"
.depend "_SystemEnum" "20210613154827"
.depend "StdEnum" "20210613154827"
.depend "StdTuple" "20210613154827"
.depend "StdOrdList" "20210613154827"
.depend "StdFile" "20210613154827"
.depend "StdString" "20210613154827"
.depend "StdMisc" "20210613154827"
.depend "StdFunctions" "20210613154827"
.depend "_SystemEnumStrict" "20210613154827"
.depend "_SystemStrictLists" "20210613154827"
.depend "StdStrictLists" "20210613154827"
.depend "StdGeneric" "20210613154827"
.depend "Data.GenEq" "20210613154827"
.depend "StdReal" "20210613154827"
.depend "StdChar" "20210613154827"
.depend "StdInt" "20210613154827"
.depend "StdBool" "20210613154827"
.depend "StdClass" "20210613154827"
.depend "StdList" "20210613154827"
.depend "StdOverloaded" "20210613154827"
.depend "_SystemDynamic" "20210613154827"
.depend "Data.GenLexOrd" "20210613154827"
.module m_Data.GenLexOrd "Data.GenLexOrd" "20210613154827"
.endinfo
.impmod _system
.implab _cycle_in_spine
.implab _type_error
.implab _hnf
.impdesc e_system_dind
.implab e_system_nind e_system_eaind
.impdesc e_system_dif
.implab e_system_nif e_system_eaif
.implab e_system_sif
.impdesc e_system_dAP
.implab e_system_nAP e_system_eaAP
.implab e_system_sAP
.impdesc ARRAY
.impdesc _Nil
.impdesc _Cons
.impdesc _Conss
.implab n_Conss ea_Conss
.impdesc _Consts
.implab n_Consts ea_Consts
.impdesc _Conssts
.implab n_Conssts ea_Conssts
.impdesc _Tuple
.impdesc d_S.1
.implab n_S.1 ea_S.1
.impdesc d_S.2
.implab n_S.2 ea_S.2
.impdesc d_S.3
.implab n_S.3 ea_S.3
.impdesc d_S.4
.implab n_S.4 ea_S.4
.impdesc d_S.5
.implab n_S.5 ea_S.5
.impdesc d_S.6
.implab n_S.6 ea_S.6
.implab _driver
.impmod _SystemArray
.impdesc e__SystemArray_dselect;3
.implab e__SystemArray_nselect;3 _
.impdesc e__SystemArray_dselect;107
.implab e__SystemArray_nselect;107 _
.impmod StdString
.implab e_StdString_s==;2
.implab e_StdString_s<;3
.impmod StdReal
.implab e_StdReal_s==;11
.implab e_StdReal_s<;12
.impmod StdChar
.implab e_StdChar_s==;18
.implab e_StdChar_s<;19
.impmod StdInt
.implab e_StdInt_s+;6
.implab e_StdInt_sone;11
.implab e_StdInt_s==;16
.implab e_StdInt_s<;17
.impmod StdGeneric
.impdesc e_StdGeneric_dUNIT
.impdesc e_StdGeneric_dLEFT
.impdesc e_StdGeneric_dRIGHT
.impdesc e_StdGeneric_dPAIR
.impdesc e_StdGeneric_dCONS
.impdesc e_StdGeneric_dRECORD
.export e_Data.GenLexOrd_dLT
.desc0 e_Data.GenLexOrd_dLT 0 "LT"
.export e_Data.GenLexOrd_dEQ
.desc0 e_Data.GenLexOrd_dEQ 1 "EQ"
.export e_Data.GenLexOrd_dGT
.desc0 e_Data.GenLexOrd_dGT 2 "GT"
.export e_Data.GenLexOrd_sTD;LexOrd
.export e_Data.GenLexOrd_eaTD;LexOrd
.descexp e_Data.GenLexOrd_dTD;LexOrd e_Data.GenLexOrd_nTD;LexOrd e_Data.GenLexOrd_lTD;LexOrd 1 0 "TD;LexOrd"
.o 2 0
e_Data.GenLexOrd_lTD;LexOrd
	update_a 1 0
	create
	update_a 0 2
	pop_a 1
.d 2 0
	jmp e_Data.GenLexOrd_eaTD;LexOrd
.n 1 e_Data.GenLexOrd_dTD;LexOrd e_Data.GenLexOrd_eaTD;LexOrd
.o 1 0
e_Data.GenLexOrd_nTD;LexOrd
	push_node _cycle_in_spine 1
.o 2 0
e_Data.GenLexOrd_eaTD;LexOrd
.o 2 0
e_Data.GenLexOrd_sTD;LexOrd
.o 2 0
s29
	fillh _Nil 0 1
	pop_a 1
.d 1 0
	rtn
.export e_Data.GenLexOrd_sgLexOrd__Tuple8;27
.export e_Data.GenLexOrd_eagLexOrd__Tuple8;27
.descexp e_Data.GenLexOrd_dgLexOrd__Tuple8;27 e_Data.GenLexOrd_ngLexOrd__Tuple8;27 e_Data.GenLexOrd_lgLexOrd__Tuple8;27 10 0 "gLexOrd__Tuple8;27"
.o 12 0
e_Data.GenLexOrd_igLexOrd__Tuple8;27
	pop_a 1
	push_args 9 8 8
	push_args 16 8 8
	jsr_eval 16
	update_a 15 25
	update_a 5 15
	update_a 19 5
	update_a 9 19
	update_a 23 9
	update_a 13 23
	update_a 3 13
	update_a 17 3
	update_a 7 17
	update_a 21 7
	update_a 11 21
	update_a 1 11
	update_a 14 24
	update_a 4 14
	update_a 18 4
	update_a 8 18
	update_a 22 8
	update_a 12 22
	update_a 2 12
	update_a 16 2
	update_a 6 16
	update_a 20 6
	update_a 10 20
	update_a 0 10
	pop_a 2
.d 25 0
	jmp s28
.ai 10 e_Data.GenLexOrd_eagLexOrd__Tuple8;27 e_Data.GenLexOrd_igLexOrd__Tuple8;27
.o 2 0
e_Data.GenLexOrd_lgLexOrd__Tuple8;27
	push_args 0 9 9
	update_a 10 9
	create
	update_a 0 11
	pop_a 1
.d 11 0
	jmp e_Data.GenLexOrd_eagLexOrd__Tuple8;27
.n 10 e_Data.GenLexOrd_dgLexOrd__Tuple8;27 e_Data.GenLexOrd_eagLexOrd__Tuple8;27
.o 1 0
e_Data.GenLexOrd_ngLexOrd__Tuple8;27
	push_node _cycle_in_spine 10
.d 11 0
	jmp e_Data.GenLexOrd_eagLexOrd__Tuple8;27
.o 25 0
e_Data.GenLexOrd_sgLexOrd__Tuple8;27
	jsr_eval 0
.d 25 0
	jmp s28
.o 11 0
e_Data.GenLexOrd_eagLexOrd__Tuple8;27
	push_a 9
	jsr_eval 0
	repl_args 8 8
	push_a 16
	jsr_eval 0
	repl_args 8 8
	jsr_eval 16
	update_a 15 25
	update_a 5 15
	update_a 19 5
	update_a 9 19
	update_a 23 9
	update_a 13 23
	update_a 3 13
	update_a 17 3
	update_a 7 17
	update_a 21 7
	update_a 11 21
	update_a 1 11
	update_a 14 24
	update_a 4 14
	update_a 18 4
	update_a 8 18
	update_a 22 8
	update_a 12 22
	update_a 2 12
	update_a 16 2
	update_a 6 16
	update_a 20 6
	update_a 10 20
	update_a 0 10
	pop_a 2
.o 25 0
s28
	create
	push_a 24
	push_a 24
	push_a 24
	push_a 24
	push_a 24
	push_a 24
	push_a 24
	push_a 24
	buildh _Nil 0
	update_a 0 26
	update_a 0 27
	update_a 0 28
	update_a 0 29
	update_a 0 30
	update_a 0 31
	update_a 0 32
	update_a 0 33
	pop_a 1
.d 9 0
	jsr s37
.o 1 0
	create
	push_a 17
	push_a 17
	push_a 17
	push_a 17
	push_a 17
	push_a 17
	push_a 17
	push_a 17
	buildh _Nil 0
	update_a 0 19
	update_a 0 20
	update_a 0 21
	update_a 0 22
	update_a 0 23
	update_a 0 24
	update_a 0 25
	update_a 0 26
	pop_a 1
.d 9 0
	jsr s37
.o 1 0
	push_a 9
	push_a 9
	buildh e_Data.GenLexOrd_dgLexOrd_PAIR;2 2
	push_a 8
	push_a 8
	buildh e_Data.GenLexOrd_dgLexOrd_PAIR;2 2
	buildh e_Data.GenLexOrd_dgLexOrd_PAIR;2 2
	push_a 6
	push_a 6
	buildh e_Data.GenLexOrd_dgLexOrd_PAIR;2 2
	push_a 5
	push_a 5
	buildh e_Data.GenLexOrd_dgLexOrd_PAIR;2 2
	buildh e_Data.GenLexOrd_dgLexOrd_PAIR;2 2
	buildh e_Data.GenLexOrd_dgLexOrd_PAIR;2 2
	buildh e_Data.GenLexOrd_dgLexOrd_CONS;4 1
	update_a 2 26
	update_a 1 25
	updatepop_a 0 24
.d 4 0
	jmp s7
.o 9 0
s37
	push_a 7
	push_a 7
	buildh e_StdGeneric_dPAIR 2
	push_a 6
	push_a 6
	buildh e_StdGeneric_dPAIR 2
	buildh e_StdGeneric_dPAIR 2
	push_a 4
	push_a 4
	buildh e_StdGeneric_dPAIR 2
	push_a 3
	push_a 3
	buildh e_StdGeneric_dPAIR 2
	buildh e_StdGeneric_dPAIR 2
	buildh e_StdGeneric_dPAIR 2
	fillh e_StdGeneric_dCONS 1 9
	pop_a 8
.d 1 0
	rtn
.export e_Data.GenLexOrd_sgLexOrd__Tuple7;26
.export e_Data.GenLexOrd_eagLexOrd__Tuple7;26
.descexp e_Data.GenLexOrd_dgLexOrd__Tuple7;26 e_Data.GenLexOrd_ngLexOrd__Tuple7;26 e_Data.GenLexOrd_lgLexOrd__Tuple7;26 9 0 "gLexOrd__Tuple7;26"
.o 11 0
e_Data.GenLexOrd_igLexOrd__Tuple7;26
	pop_a 1
	push_args 8 7 7
	push_args 14 7 7
	jsr_eval 14
	update_a 13 22
	update_a 4 13
	update_a 16 4
	update_a 7 16
	update_a 19 7
	update_a 10 19
	update_a 1 10
	update_a 12 21
	update_a 3 12
	update_a 15 3
	update_a 6 15
	update_a 18 6
	update_a 9 18
	update_a 0 9
	push_a 20
	update_a 12 21
	update_a 3 12
	update_a 15 3
	update_a 6 15
	update_a 18 6
	update_a 9 18
	update_a 0 9
	pop_a 3
.d 22 0
	jmp s27
.ai 9 e_Data.GenLexOrd_eagLexOrd__Tuple7;26 e_Data.GenLexOrd_igLexOrd__Tuple7;26
.o 2 0
e_Data.GenLexOrd_lgLexOrd__Tuple7;26
	push_args 0 8 8
	update_a 9 8
	create
	update_a 0 10
	pop_a 1
.d 10 0
	jmp e_Data.GenLexOrd_eagLexOrd__Tuple7;26
.n 9 e_Data.GenLexOrd_dgLexOrd__Tuple7;26 e_Data.GenLexOrd_eagLexOrd__Tuple7;26
.o 1 0
e_Data.GenLexOrd_ngLexOrd__Tuple7;26
	push_node _cycle_in_spine 9
.d 10 0
	jmp e_Data.GenLexOrd_eagLexOrd__Tuple7;26
.o 22 0
e_Data.GenLexOrd_sgLexOrd__Tuple7;26
	jsr_eval 0
.d 22 0
	jmp s27
.o 10 0
e_Data.GenLexOrd_eagLexOrd__Tuple7;26
	push_a 8
	jsr_eval 0
	repl_args 7 7
	push_a 14
	jsr_eval 0
	repl_args 7 7
	jsr_eval 14
	update_a 13 22
	update_a 4 13
	update_a 16 4
	update_a 7 16
	update_a 19 7
	update_a 10 19
	update_a 1 10
	update_a 12 21
	update_a 3 12
	update_a 15 3
	update_a 6 15
	update_a 18 6
	update_a 9 18
	update_a 0 9
	push_a 20
	update_a 12 21
	update_a 3 12
	update_a 15 3
	update_a 6 15
	update_a 18 6
	update_a 9 18
	update_a 0 9
	pop_a 3
.o 22 0
s27
	create
	push_a 21
	push_a 21
	push_a 21
	push_a 21
	push_a 21
	push_a 21
	push_a 21
	buildh _Nil 0
	update_a 0 23
	update_a 0 24
	update_a 0 25
	update_a 0 26
	update_a 0 27
	update_a 0 28
	update_a 0 29
	pop_a 1
.d 8 0
	jsr s36
.o 1 0
	create
	push_a 15
	push_a 15
	push_a 15
	push_a 15
	push_a 15
	push_a 15
	push_a 15
	buildh _Nil 0
	update_a 0 17
	update_a 0 18
	update_a 0 19
	update_a 0 20
	update_a 0 21
	update_a 0 22
	update_a 0 23
	pop_a 1
.d 8 0
	jsr s36
.o 1 0
	push_a 8
	push_a 8
	buildh e_Data.GenLexOrd_dgLexOrd_PAIR;2 2
	push_a 7
	push_a 7
	buildh e_Data.GenLexOrd_dgLexOrd_PAIR;2 2
	buildh e_Data.GenLexOrd_dgLexOrd_PAIR;2 2
	push_a 5
	push_a 5
	buildh e_Data.GenLexOrd_dgLexOrd_PAIR;2 2
	push_a 4
	buildh e_Data.GenLexOrd_dgLexOrd_PAIR;2 2
	buildh e_Data.GenLexOrd_dgLexOrd_PAIR;2 2
	buildh e_Data.GenLexOrd_dgLexOrd_CONS;4 1
	update_a 2 23
	update_a 1 22
	updatepop_a 0 21
.d 4 0
	jmp s7
.o 8 0
s36
	push_a 6
	push_a 6
	buildh e_StdGeneric_dPAIR 2
	push_a 5
	push_a 5
	buildh e_StdGeneric_dPAIR 2
	buildh e_StdGeneric_dPAIR 2
	push_a 3
	push_a 3
	buildh e_StdGeneric_dPAIR 2
	push_a 2
	buildh e_StdGeneric_dPAIR 2
	buildh e_StdGeneric_dPAIR 2
	fillh e_StdGeneric_dCONS 1 8
	pop_a 7
.d 1 0
	rtn
.export e_Data.GenLexOrd_sgLexOrd__Tuple6;25
.export e_Data.GenLexOrd_eagLexOrd__Tuple6;25
.descexp e_Data.GenLexOrd_dgLexOrd__Tuple6;25 e_Data.GenLexOrd_ngLexOrd__Tuple6;25 e_Data.GenLexOrd_lgLexOrd__Tuple6;25 8 0 "gLexOrd__Tuple6;25"
.o 10 0
e_Data.GenLexOrd_igLexOrd__Tuple6;25
	pop_a 1
	push_args 7 6 6
	push_args 12 6 6
	jsr_eval 12
	update_a 11 19
	update_a 3 11
	update_a 13 3
	update_a 5 13
	update_a 15 5
	update_a 7 15
	update_a 17 7
	update_a 9 17
	update_a 1 9
	update_a 10 18
	update_a 2 10
	update_a 12 2
	update_a 4 12
	update_a 14 4
	update_a 6 14
	update_a 16 6
	update_a 8 16
	update_a 0 8
	pop_a 2
.d 19 0
	jmp s26
.ai 8 e_Data.GenLexOrd_eagLexOrd__Tuple6;25 e_Data.GenLexOrd_igLexOrd__Tuple6;25
.o 2 0
e_Data.GenLexOrd_lgLexOrd__Tuple6;25
	push_args 0 7 7
	update_a 8 7
	create
	update_a 0 9
	pop_a 1
.d 9 0
	jmp e_Data.GenLexOrd_eagLexOrd__Tuple6;25
.n 8 e_Data.GenLexOrd_dgLexOrd__Tuple6;25 e_Data.GenLexOrd_eagLexOrd__Tuple6;25
.o 1 0
e_Data.GenLexOrd_ngLexOrd__Tuple6;25
	push_node _cycle_in_spine 8
.d 9 0
	jmp e_Data.GenLexOrd_eagLexOrd__Tuple6;25
.o 19 0
e_Data.GenLexOrd_sgLexOrd__Tuple6;25
	jsr_eval 0
.d 19 0
	jmp s26
.o 9 0
e_Data.GenLexOrd_eagLexOrd__Tuple6;25
	push_a 7
	jsr_eval 0
	repl_args 6 6
	push_a 12
	jsr_eval 0
	repl_args 6 6
	jsr_eval 12
	update_a 11 19
	update_a 3 11
	update_a 13 3
	update_a 5 13
	update_a 15 5
	update_a 7 15
	update_a 17 7
	update_a 9 17
	update_a 1 9
	update_a 10 18
	update_a 2 10
	update_a 12 2
	update_a 4 12
	update_a 14 4
	update_a 6 14
	update_a 16 6
	update_a 8 16
	update_a 0 8
	pop_a 2
.o 19 0
s26
	create
	push_a 18
	push_a 18
	push_a 18
	push_a 18
	push_a 18
	push_a 18
	buildh _Nil 0
	update_a 0 20
	update_a 0 21
	update_a 0 22
	update_a 0 23
	update_a 0 24
	update_a 0 25
	pop_a 1
.d 7 0
	jsr s35
.o 1 0
	create
	push_a 13
	push_a 13
	push_a 13
	push_a 13
	push_a 13
	push_a 13
	buildh _Nil 0
	update_a 0 15
	update_a 0 16
	update_a 0 17
	update_a 0 18
	update_a 0 19
	update_a 0 20
	pop_a 1
.d 7 0
	jsr s35
.o 1 0
	push_a 7
	push_a 7
	buildh e_Data.GenLexOrd_dgLexOrd_PAIR;2 2
	push_a 6
	buildh e_Data.GenLexOrd_dgLexOrd_PAIR;2 2
	push_a 5
	push_a 5
	buildh e_Data.GenLexOrd_dgLexOrd_PAIR;2 2
	push_a 4
	buildh e_Data.GenLexOrd_dgLexOrd_PAIR;2 2
	buildh e_Data.GenLexOrd_dgLexOrd_PAIR;2 2
	buildh e_Data.GenLexOrd_dgLexOrd_CONS;4 1
	update_a 2 20
	update_a 1 19
	updatepop_a 0 18
.d 4 0
	jmp s7
.o 7 0
s35
	push_a 5
	push_a 5
	buildh e_StdGeneric_dPAIR 2
	push_a 4
	buildh e_StdGeneric_dPAIR 2
	push_a 3
	push_a 3
	buildh e_StdGeneric_dPAIR 2
	push_a 2
	buildh e_StdGeneric_dPAIR 2
	buildh e_StdGeneric_dPAIR 2
	fillh e_StdGeneric_dCONS 1 7
	pop_a 6
.d 1 0
	rtn
.export e_Data.GenLexOrd_sgLexOrd__Tuple5;24
.export e_Data.GenLexOrd_eagLexOrd__Tuple5;24
.descexp e_Data.GenLexOrd_dgLexOrd__Tuple5;24 e_Data.GenLexOrd_ngLexOrd__Tuple5;24 e_Data.GenLexOrd_lgLexOrd__Tuple5;24 7 0 "gLexOrd__Tuple5;24"
.o 9 0
e_Data.GenLexOrd_igLexOrd__Tuple5;24
	pop_a 1
	push_args 6 5 5
	push_args 10 5 5
	jsr_eval 10
	update_a 9 16
	update_a 2 9
	update_a 10 2
	update_a 3 10
	update_a 11 3
	update_a 4 11
	update_a 12 4
	update_a 5 12
	update_a 13 5
	update_a 6 13
	update_a 14 6
	update_a 7 14
	update_a 0 7
	update_a 8 15
	update_a 1 8
	pop_a 2
.d 16 0
	jmp s25
.ai 7 e_Data.GenLexOrd_eagLexOrd__Tuple5;24 e_Data.GenLexOrd_igLexOrd__Tuple5;24
.o 2 0
e_Data.GenLexOrd_lgLexOrd__Tuple5;24
	push_args 0 6 6
	update_a 7 6
	create
	update_a 0 8
	pop_a 1
.d 8 0
	jmp e_Data.GenLexOrd_eagLexOrd__Tuple5;24
.n 7 e_Data.GenLexOrd_dgLexOrd__Tuple5;24 e_Data.GenLexOrd_eagLexOrd__Tuple5;24
.o 1 0
e_Data.GenLexOrd_ngLexOrd__Tuple5;24
	push_node _cycle_in_spine 7
.d 8 0
	jmp e_Data.GenLexOrd_eagLexOrd__Tuple5;24
.o 16 0
e_Data.GenLexOrd_sgLexOrd__Tuple5;24
	jsr_eval 0
.d 16 0
	jmp s25
.o 8 0
e_Data.GenLexOrd_eagLexOrd__Tuple5;24
	push_a 6
	jsr_eval 0
	repl_args 5 5
	push_a 10
	jsr_eval 0
	repl_args 5 5
	jsr_eval 10
	update_a 9 16
	update_a 2 9
	update_a 10 2
	update_a 3 10
	update_a 11 3
	update_a 4 11
	update_a 12 4
	update_a 5 12
	update_a 13 5
	update_a 6 13
	update_a 14 6
	update_a 7 14
	update_a 0 7
	update_a 8 15
	update_a 1 8
	pop_a 2
.o 16 0
s25
	create
	push_a 15
	push_a 15
	push_a 15
	push_a 15
	push_a 15
	buildh _Nil 0
	update_a 0 17
	update_a 0 18
	update_a 0 19
	update_a 0 20
	update_a 0 21
	pop_a 1
.d 6 0
	jsr s34
.o 1 0
	create
	push_a 11
	push_a 11
	push_a 11
	push_a 11
	push_a 11
	buildh _Nil 0
	update_a 0 13
	update_a 0 14
	update_a 0 15
	update_a 0 16
	update_a 0 17
	pop_a 1
.d 6 0
	jsr s34
.o 1 0
	push_a 6
	push_a 6
	buildh e_Data.GenLexOrd_dgLexOrd_PAIR;2 2
	push_a 5
	buildh e_Data.GenLexOrd_dgLexOrd_PAIR;2 2
	push_a 4
	push_a 4
	buildh e_Data.GenLexOrd_dgLexOrd_PAIR;2 2
	buildh e_Data.GenLexOrd_dgLexOrd_PAIR;2 2
	buildh e_Data.GenLexOrd_dgLexOrd_CONS;4 1
	update_a 2 17
	update_a 1 16
	updatepop_a 0 15
.d 4 0
	jmp s7
.o 6 0
s34
	push_a 4
	push_a 4
	buildh e_StdGeneric_dPAIR 2
	push_a 3
	buildh e_StdGeneric_dPAIR 2
	push_a 2
	push_a 2
	buildh e_StdGeneric_dPAIR 2
	buildh e_StdGeneric_dPAIR 2
	fillh e_StdGeneric_dCONS 1 6
	pop_a 5
.d 1 0
	rtn
.export e_Data.GenLexOrd_sgLexOrd__Tuple4;23
.export e_Data.GenLexOrd_eagLexOrd__Tuple4;23
.descexp e_Data.GenLexOrd_dgLexOrd__Tuple4;23 e_Data.GenLexOrd_ngLexOrd__Tuple4;23 e_Data.GenLexOrd_lgLexOrd__Tuple4;23 6 0 "gLexOrd__Tuple4;23"
.o 8 0
e_Data.GenLexOrd_igLexOrd__Tuple4;23
	pop_a 1
	push_args 5 4 4
	push_args 8 4 4
	jsr_eval 8
	update_a 7 13
	update_a 1 7
	update_a 6 12
	update_a 0 6
	push_a 11
	update_a 6 12
	update_a 0 6
	update_a 11 0
	update_a 5 11
	update_a 0 5
	update_a 10 0
	update_a 4 10
	update_a 0 4
	update_a 9 0
	update_a 3 9
	update_a 0 3
	pop_a 3
.d 13 0
	jmp s24
.ai 6 e_Data.GenLexOrd_eagLexOrd__Tuple4;23 e_Data.GenLexOrd_igLexOrd__Tuple4;23
.o 2 0
e_Data.GenLexOrd_lgLexOrd__Tuple4;23
	push_args 0 5 5
	update_a 6 5
	create
	update_a 0 7
	pop_a 1
.d 7 0
	jmp e_Data.GenLexOrd_eagLexOrd__Tuple4;23
.n 6 e_Data.GenLexOrd_dgLexOrd__Tuple4;23 e_Data.GenLexOrd_eagLexOrd__Tuple4;23
.o 1 0
e_Data.GenLexOrd_ngLexOrd__Tuple4;23
	push_node _cycle_in_spine 6
.d 7 0
	jmp e_Data.GenLexOrd_eagLexOrd__Tuple4;23
.o 13 0
e_Data.GenLexOrd_sgLexOrd__Tuple4;23
	jsr_eval 0
.d 13 0
	jmp s24
.o 7 0
e_Data.GenLexOrd_eagLexOrd__Tuple4;23
	push_a 5
	jsr_eval 0
	repl_args 4 4
	push_a 8
	jsr_eval 0
	repl_args 4 4
	jsr_eval 8
	update_a 7 13
	update_a 1 7
	update_a 6 12
	update_a 0 6
	push_a 11
	update_a 6 12
	update_a 0 6
	update_a 11 0
	update_a 5 11
	update_a 0 5
	update_a 10 0
	update_a 4 10
	update_a 0 4
	update_a 9 0
	update_a 3 9
	update_a 0 3
	pop_a 3
.o 13 0
s24
	create
	push_a 12
	push_a 12
	push_a 12
	push_a 12
	buildh _Nil 0
	update_a 0 14
	update_a 0 15
	update_a 0 16
	update_a 0 17
	pop_a 1
.d 5 0
	jsr s33
.o 1 0
	create
	push_a 9
	push_a 9
	push_a 9
	push_a 9
	buildh _Nil 0
	update_a 0 11
	update_a 0 12
	update_a 0 13
	update_a 0 14
	pop_a 1
.d 5 0
	jsr s33
.o 1 0
	push_a 5
	push_a 5
	buildh e_Data.GenLexOrd_dgLexOrd_PAIR;2 2
	push_a 4
	push_a 4
	buildh e_Data.GenLexOrd_dgLexOrd_PAIR;2 2
	buildh e_Data.GenLexOrd_dgLexOrd_PAIR;2 2
	buildh e_Data.GenLexOrd_dgLexOrd_CONS;4 1
	update_a 2 14
	update_a 1 13
	updatepop_a 0 12
.d 4 0
	jmp s7
.o 5 0
s33
	push_a 3
	push_a 3
	buildh e_StdGeneric_dPAIR 2
	push_a 2
	push_a 2
	buildh e_StdGeneric_dPAIR 2
	buildh e_StdGeneric_dPAIR 2
	fillh e_StdGeneric_dCONS 1 5
	pop_a 4
.d 1 0
	rtn
.export e_Data.GenLexOrd_sgLexOrd__Tuple3;22
.export e_Data.GenLexOrd_eagLexOrd__Tuple3;22
.descexp e_Data.GenLexOrd_dgLexOrd__Tuple3;22 e_Data.GenLexOrd_ngLexOrd__Tuple3;22 e_Data.GenLexOrd_lgLexOrd__Tuple3;22 5 0 "gLexOrd__Tuple3;22"
.o 7 0
e_Data.GenLexOrd_igLexOrd__Tuple3;22
	pop_a 1
	push_args 4 3 3
	push_args 6 3 3
	jsr_eval 6
	update_a 5 10
	update_a 0 5
	update_a 4 9
	update_a 8 4
	update_a 3 8
	update_a 7 3
	update_a 2 7
	update_a 6 2
	update_a 1 6
	pop_a 2
.d 10 0
	jmp s23
.ai 5 e_Data.GenLexOrd_eagLexOrd__Tuple3;22 e_Data.GenLexOrd_igLexOrd__Tuple3;22
.o 2 0
e_Data.GenLexOrd_lgLexOrd__Tuple3;22
	push_args 0 4 4
	update_a 5 4
	create
	update_a 0 6
	pop_a 1
.d 6 0
	jmp e_Data.GenLexOrd_eagLexOrd__Tuple3;22
.n 5 e_Data.GenLexOrd_dgLexOrd__Tuple3;22 e_Data.GenLexOrd_eagLexOrd__Tuple3;22
.o 1 0
e_Data.GenLexOrd_ngLexOrd__Tuple3;22
	push_node _cycle_in_spine 5
.d 6 0
	jmp e_Data.GenLexOrd_eagLexOrd__Tuple3;22
.o 10 0
e_Data.GenLexOrd_sgLexOrd__Tuple3;22
	jsr_eval 0
.d 10 0
	jmp s23
.o 6 0
e_Data.GenLexOrd_eagLexOrd__Tuple3;22
	push_a 4
	jsr_eval 0
	repl_args 3 3
	push_a 6
	jsr_eval 0
	repl_args 3 3
	jsr_eval 6
	update_a 5 10
	update_a 0 5
	update_a 4 9
	update_a 8 4
	update_a 3 8
	update_a 7 3
	update_a 2 7
	update_a 6 2
	update_a 1 6
	pop_a 2
.o 10 0
s23
	create
	push_a 9
	push_a 9
	push_a 9
	buildh _Nil 0
	update_a 0 11
	update_a 0 12
	update_a 0 13
	pop_a 1
.d 4 0
	jsr s32
.o 1 0
	create
	push_a 7
	push_a 7
	push_a 7
	buildh _Nil 0
	update_a 0 9
	update_a 0 10
	update_a 0 11
	pop_a 1
.d 4 0
	jsr s32
.o 1 0
	push_a 4
	push_a 4
	buildh e_Data.GenLexOrd_dgLexOrd_PAIR;2 2
	push_a 3
	buildh e_Data.GenLexOrd_dgLexOrd_PAIR;2 2
	buildh e_Data.GenLexOrd_dgLexOrd_CONS;4 1
	update_a 2 11
	update_a 1 10
	updatepop_a 0 9
.d 4 0
	jmp s7
.o 4 0
s32
	push_a 2
	push_a 2
	buildh e_StdGeneric_dPAIR 2
	push_a 1
	buildh e_StdGeneric_dPAIR 2
	fillh e_StdGeneric_dCONS 1 4
	pop_a 3
.d 1 0
	rtn
.export e_Data.GenLexOrd_sgLexOrd__Tuple2;21
.export e_Data.GenLexOrd_eagLexOrd__Tuple2;21
.descexp e_Data.GenLexOrd_dgLexOrd__Tuple2;21 e_Data.GenLexOrd_ngLexOrd__Tuple2;21 e_Data.GenLexOrd_lgLexOrd__Tuple2;21 4 0 "gLexOrd__Tuple2;21"
.o 6 0
e_Data.GenLexOrd_igLexOrd__Tuple2;21
	pop_a 1
	push_args 3 2 2
	push_args 4 2 2
	jsr_eval 4
	update_a 3 7
	update_a 5 3
	update_a 1 5
	update_a 2 6
	update_a 4 2
	update_a 0 4
	pop_a 2
.d 7 0
	jmp s22
.ai 4 e_Data.GenLexOrd_eagLexOrd__Tuple2;21 e_Data.GenLexOrd_igLexOrd__Tuple2;21
.o 2 0
e_Data.GenLexOrd_lgLexOrd__Tuple2;21
	push_args 0 3 3
	update_a 4 3
	create
	update_a 0 5
	pop_a 1
.d 5 0
	jmp e_Data.GenLexOrd_eagLexOrd__Tuple2;21
.n 4 e_Data.GenLexOrd_dgLexOrd__Tuple2;21 e_Data.GenLexOrd_eagLexOrd__Tuple2;21
.o 1 0
e_Data.GenLexOrd_ngLexOrd__Tuple2;21
	push_node _cycle_in_spine 4
.d 5 0
	jmp e_Data.GenLexOrd_eagLexOrd__Tuple2;21
.o 7 0
e_Data.GenLexOrd_sgLexOrd__Tuple2;21
	jsr_eval 0
.d 7 0
	jmp s22
.o 5 0
e_Data.GenLexOrd_eagLexOrd__Tuple2;21
	push_a 3
	jsr_eval 0
	repl_args 2 2
	push_a 4
	jsr_eval 0
	repl_args 2 2
	jsr_eval 4
	update_a 3 7
	update_a 5 3
	update_a 1 5
	update_a 2 6
	update_a 4 2
	update_a 0 4
	pop_a 2
.o 7 0
s22
	create
	push_a 6
	push_a 6
	buildh _Nil 0
	update_a 0 8
	update_a 0 9
	pop_a 1
.d 3 0
	jsr s31
.o 1 0
	create
	push_a 5
	push_a 5
	buildh _Nil 0
	update_a 0 7
	update_a 0 8
	pop_a 1
.d 3 0
	jsr s31
.o 1 0
	push_a 3
	push_a 3
	buildh e_Data.GenLexOrd_dgLexOrd_PAIR;2 2
	buildh e_Data.GenLexOrd_dgLexOrd_CONS;4 1
	update_a 2 8
	update_a 1 7
	updatepop_a 0 6
.d 4 0
	jmp s7
.o 3 0
s31
	push_a 1
	push_a 1
	buildh e_StdGeneric_dPAIR 2
	fillh e_StdGeneric_dCONS 1 3
	pop_a 2
.d 1 0
	rtn
.export e_Data.GenLexOrd_sgLexOrd__!Array;20
.export e_Data.GenLexOrd_eagLexOrd__!Array;20
.descexp e_Data.GenLexOrd_dgLexOrd__!Array;20 e_Data.GenLexOrd_ngLexOrd__!Array;20 e_Data.GenLexOrd_lgLexOrd__!Array;20 3 0 "gLexOrd__!Array;20"
.o 5 0
e_Data.GenLexOrd_igLexOrd__!Array;20
	pop_a 1
	push_array 2
	push_array 2
	update_a 1 4
	update_a 0 3
	pop_a 2
.d 4 0
	jmp s21
.ai 3 e_Data.GenLexOrd_eagLexOrd__!Array;20 e_Data.GenLexOrd_igLexOrd__!Array;20
.o 2 0
e_Data.GenLexOrd_lgLexOrd__!Array;20
	push_args 0 2 2
	update_a 3 2
	create
	update_a 0 4
	pop_a 1
.d 4 0
	jmp e_Data.GenLexOrd_eagLexOrd__!Array;20
.n 3 e_Data.GenLexOrd_dgLexOrd__!Array;20 e_Data.GenLexOrd_eagLexOrd__!Array;20
.o 1 0
e_Data.GenLexOrd_ngLexOrd__!Array;20
	push_node _cycle_in_spine 3
.o 4 0
e_Data.GenLexOrd_eagLexOrd__!Array;20
	jsr_eval 2
	jsr_eval 1
	push_array 2
	push_array 2
	update_a 1 4
	update_a 0 3
	pop_a 2
.o 4 0
e_Data.GenLexOrd_sgLexOrd__!Array;20
.o 4 0
s21
	push_a 2
	push_a 2
	push_a 2
	update_a 2 5
	update_a 1 4
	updatepop_a 0 3
.d 4 0
	jmp s51
.o 4 0
s51
	push_a 1
	push_arraysize _ 1 0
	push_a 2
	push_arraysize _ 1 0
	push_b 0
	push_b 2
	ltI
	jmp_false else.1
	fillh e_Data.GenLexOrd_dLT 0 3
	pop_a 3
	pop_b 2
.d 1 0
	rtn
else.1
	push_b 1
	push_b 1
	ltI
	jmp_false else.2
	fillh e_Data.GenLexOrd_dGT 0 3
	pop_a 3
	pop_b 2
.d 1 0
	rtn
else.2
	push_a 2
	buildh ARRAY 1
	push_a 2
	buildh ARRAY 1
	push_b 1
	pushI 0
	push_a 2
	update_a 2 5
	update_a 1 4
	updatepop_a 0 3
	update_b 1 3
	updatepop_b 0 2
.d 4 2 ii
	jmp s52
.o 4 2 ii
s52
	push_b 1
	push_b 1
	eqI
	jmp_false else.3
	fillh e_Data.GenLexOrd_dEQ 0 3
	pop_a 3
	pop_b 2
.d 1 0
	rtn
else.3
	buildI_b 0
	push_a 3
	build e__SystemArray_dselect;3 2 e__SystemArray_nselect;3
	buildI_b 0
	push_a 3
	build e__SystemArray_dselect;3 2 e__SystemArray_nselect;3
	push_a 2
	jsr_eval 0
	jsr_ap 2
	push_a 3
	push_a 3
	push_b 1
	push_b 1
	push_a 3
	push_a 3
	update_a 3 4
	update_a 2 3
	update_a 1 2
	update_a 0 1
	pop_a 1
	update_a 3 6
	update_a 2 5
	update_a 1 4
	updatepop_a 0 3
	update_b 1 3
	updatepop_b 0 2
.d 5 2 ii
	jmp s73
.o 5 2 ii
s73
	pushD_a 0
	jmpD ae e_Data.GenLexOrd_dEQ 0 case.5 case.6
case.4
	pop_b 1
	fillh e_Data.GenLexOrd_dLT 0 4
	pop_a 4
	pop_b 2
.d 1 0
	rtn
case.5
	pop_b 1
	fillh e_Data.GenLexOrd_dGT 0 4
	pop_a 4
	pop_b 2
.d 1 0
	rtn
case.6
	pop_b 1
	pushI 1
	push_b 1
	addI
	push_a 3
	push_a 3
	push_b 2
	push_a 3
	push_b 1
	update_b 1 2
	update_b 0 1
	pop_b 1
	update_a 2 6
	update_a 1 5
	updatepop_a 0 4
	update_b 1 3
	updatepop_b 0 2
.d 4 2 ii
	jmp s52
.export e_Data.GenLexOrd_sgLexOrd__Array;19
.export e_Data.GenLexOrd_eagLexOrd__Array;19
.descexp e_Data.GenLexOrd_dgLexOrd__Array;19 e_Data.GenLexOrd_ngLexOrd__Array;19 e_Data.GenLexOrd_lgLexOrd__Array;19 3 0 "gLexOrd__Array;19"
.o 5 0
e_Data.GenLexOrd_igLexOrd__Array;19
	pop_a 1
	push_array 2
	push_array 2
	update_a 1 4
	update_a 0 3
	pop_a 2
.d 4 0
	jmp s20
.ai 3 e_Data.GenLexOrd_eagLexOrd__Array;19 e_Data.GenLexOrd_igLexOrd__Array;19
.o 2 0
e_Data.GenLexOrd_lgLexOrd__Array;19
	push_args 0 2 2
	update_a 3 2
	create
	update_a 0 4
	pop_a 1
.d 4 0
	jmp e_Data.GenLexOrd_eagLexOrd__Array;19
.n 3 e_Data.GenLexOrd_dgLexOrd__Array;19 e_Data.GenLexOrd_eagLexOrd__Array;19
.o 1 0
e_Data.GenLexOrd_ngLexOrd__Array;19
	push_node _cycle_in_spine 3
.o 4 0
e_Data.GenLexOrd_eagLexOrd__Array;19
	jsr_eval 2
	jsr_eval 1
	push_array 2
	push_array 2
	update_a 1 4
	update_a 0 3
	pop_a 2
.o 4 0
e_Data.GenLexOrd_sgLexOrd__Array;19
.o 4 0
s20
	push_a 2
	push_a 2
	push_a 2
	update_a 2 5
	update_a 1 4
	updatepop_a 0 3
.d 4 0
	jmp s49
.o 4 0
s49
	push_a 1
	push_arraysize _ 1 0
	push_a 2
	push_arraysize _ 1 0
	push_b 0
	push_b 2
	ltI
	jmp_false else.7
	fillh e_Data.GenLexOrd_dLT 0 3
	pop_a 3
	pop_b 2
.d 1 0
	rtn
else.7
	push_b 1
	push_b 1
	ltI
	jmp_false else.8
	fillh e_Data.GenLexOrd_dGT 0 3
	pop_a 3
	pop_b 2
.d 1 0
	rtn
else.8
	push_a 2
	buildh ARRAY 1
	push_a 2
	buildh ARRAY 1
	push_b 1
	pushI 0
	push_a 2
	update_a 2 5
	update_a 1 4
	updatepop_a 0 3
	update_b 1 3
	updatepop_b 0 2
.d 4 2 ii
	jmp s50
.o 4 2 ii
s50
	push_b 1
	push_b 1
	eqI
	jmp_false else.9
	fillh e_Data.GenLexOrd_dEQ 0 3
	pop_a 3
	pop_b 2
.d 1 0
	rtn
else.9
	buildI_b 0
	push_a 3
	build e__SystemArray_dselect;107 2 e__SystemArray_nselect;107
	buildI_b 0
	push_a 3
	build e__SystemArray_dselect;107 2 e__SystemArray_nselect;107
	push_a 2
	jsr_eval 0
	jsr_ap 2
	push_a 3
	push_a 3
	push_b 1
	push_b 1
	push_a 3
	push_a 3
	update_a 3 4
	update_a 2 3
	update_a 1 2
	update_a 0 1
	pop_a 1
	update_a 3 6
	update_a 2 5
	update_a 1 4
	updatepop_a 0 3
	update_b 1 3
	updatepop_b 0 2
.d 5 2 ii
	jmp s72
.o 5 2 ii
s72
	pushD_a 0
	jmpD ae e_Data.GenLexOrd_dEQ 0 case.11 case.12
case.10
	pop_b 1
	fillh e_Data.GenLexOrd_dLT 0 4
	pop_a 4
	pop_b 2
.d 1 0
	rtn
case.11
	pop_b 1
	fillh e_Data.GenLexOrd_dGT 0 4
	pop_a 4
	pop_b 2
.d 1 0
	rtn
case.12
	pop_b 1
	pushI 1
	push_b 1
	addI
	push_a 3
	push_a 3
	push_b 2
	push_a 3
	push_b 1
	update_b 1 2
	update_b 0 1
	pop_b 1
	update_a 2 6
	update_a 1 5
	updatepop_a 0 4
	update_b 1 3
	updatepop_b 0 2
.d 4 2 ii
	jmp s50
.export e_Data.GenLexOrd_sgLexOrd__#List!;18
.export e_Data.GenLexOrd_eagLexOrd__#List!;18
.descexp e_Data.GenLexOrd_dgLexOrd__#List!;18 e_Data.GenLexOrd_ngLexOrd__#List!;18 e_Data.GenLexOrd_lgLexOrd__#List!;18 4 0 "gLexOrd__#List!;18"
.o 5 0
e_Data.GenLexOrd_igLexOrd__#List!;18
	repl_args 1 1
	jsr_eval 1
	jsr_eval 0
	push_r_args 0 2 0
	update_a 1 2
	update_a 0 1
	pop_a 1
.d 6 0
	jmp s19
.ai 4 e_Data.GenLexOrd_eagLexOrd__#List!;18 e_Data.GenLexOrd_igLexOrd__#List!;18
.o 2 0
e_Data.GenLexOrd_lgLexOrd__#List!;18
	push_args 0 3 3
	update_a 4 3
	create
	update_a 0 5
	pop_a 1
.d 5 0
	jmp e_Data.GenLexOrd_eagLexOrd__#List!;18
.n 4 e_Data.GenLexOrd_dgLexOrd__#List!;18 e_Data.GenLexOrd_eagLexOrd__#List!;18
.o 1 0
e_Data.GenLexOrd_ngLexOrd__#List!;18
	push_node _cycle_in_spine 4
.d 5 0
	jmp e_Data.GenLexOrd_eagLexOrd__#List!;18
.o 6 0
e_Data.GenLexOrd_sgLexOrd__#List!;18
	jsr_eval 2
.d 6 0
	jmp s19
.o 5 0
e_Data.GenLexOrd_eagLexOrd__#List!;18
	jsr_eval 3
	jsr_eval 2
	jsr_eval 1
	jsr_eval 0
	repl_r_args 2 0
.o 6 0
s19
	push_a 4
	push_a 4
	push_a 4
	push_a 4
	push_a 4
	update_a 4 9
	update_a 3 8
	update_a 2 7
	update_a 1 6
	updatepop_a 0 5
.d 6 0
	jmp s48
.o 6 0
s48
	eq_desc _Nil 0 3
	jmp_true case.13
	jmp case.14
case.13
.impmod _SystemStrictLists
.impdesc e__SystemStrictLists_rUTSList;
	build_r e__SystemStrictLists_rUTSList; 2 0 0 0
	push_a 5
	update_a 1 6
	updatepop_a 0 5
.d 3 0
	jmp s69
case.14
	push_a 3
	push_a 2
.d 2 0
	jsr_i 1
.o 2 0
	buildh _Nil 0
	update_a 0 6
	pop_a 1
	build_r e__SystemStrictLists_rUTSList; 2 0 2 0
	push_a 2
	push_a 2
	push_a 7
	push_a 10
	push_a 4
	update_a 4 5
	update_a 0 4
	pop_a 1
	update_a 4 11
	update_a 3 10
	update_a 2 9
	update_a 1 8
	updatepop_a 0 7
.d 6 0
	jmp s71
.o 6 0
s71
	eq_desc _Nil 0 0
	jmp_true case.15
	jmp case.16
case.15
	fillh e_Data.GenLexOrd_dGT 0 5
	pop_a 5
.d 1 0
	rtn
case.16
	push_r_args_a 3 2 0 2 1
.d 2 0
	jsr_i 1
.o 2 0
	push_a 0
	push_a 4
	push_a 4
	update_a 2 3
	update_a 1 2
	updatepop_a 0 1
	buildh _Nil 0
	update_a 0 6
	pop_a 1
	jsr_ap 2
	push_a 1
	push_a 6
	push_a 4
	push_a 7
	push_a 4
	update_a 4 5
	update_a 3 4
	update_a 2 3
	update_a 1 2
	update_a 0 1
	pop_a 1
	update_a 4 9
	update_a 3 8
	update_a 2 7
	update_a 1 6
	updatepop_a 0 5
.d 6 0
	jmp s70
.o 6 0
s70
	pushD_a 0
	jmpD ba e_Data.GenLexOrd_dEQ 0 case.18 case.19
case.17
	pop_b 1
	push_a 4
	jsr_eval 0
	push_a 4
	jsr_eval 0
	push_r_args 3 2 0
	push_a 6
	push_a 2
	update_a 1 3
	update_a 2 1
	update_a 0 2
	pop_a 1
	update_a 4 9
	update_a 3 8
	update_a 2 7
	update_a 1 6
	updatepop_a 0 5
.d 6 0
	jmp s48
case.18
	pop_b 1
	fillh e_Data.GenLexOrd_dLT 0 5
	pop_a 5
.d 1 0
	rtn
case.19
	pop_b 1
	fillh e_Data.GenLexOrd_dGT 0 5
	pop_a 5
.d 1 0
	rtn
.o 3 0
s69
	eq_desc _Nil 0 0
	jmp_true case.20
	jmp case.21
case.20
	fillh e_Data.GenLexOrd_dEQ 0 2
	pop_a 2
.d 1 0
	rtn
case.21
	fillh e_Data.GenLexOrd_dLT 0 2
	pop_a 2
.d 1 0
	rtn
.export e_Data.GenLexOrd_sgLexOrd__#List;17
.export e_Data.GenLexOrd_eagLexOrd__#List;17
.descexp e_Data.GenLexOrd_dgLexOrd__#List;17 e_Data.GenLexOrd_ngLexOrd__#List;17 e_Data.GenLexOrd_lgLexOrd__#List;17 4 0 "gLexOrd__#List;17"
.o 5 0
e_Data.GenLexOrd_igLexOrd__#List;17
	repl_args 1 1
	jsr_eval 1
	jsr_eval 0
	push_r_args 0 2 0
	update_a 1 2
	update_a 0 1
	pop_a 1
.d 6 0
	jmp s18
.ai 4 e_Data.GenLexOrd_eagLexOrd__#List;17 e_Data.GenLexOrd_igLexOrd__#List;17
.o 2 0
e_Data.GenLexOrd_lgLexOrd__#List;17
	push_args 0 3 3
	update_a 4 3
	create
	update_a 0 5
	pop_a 1
.d 5 0
	jmp e_Data.GenLexOrd_eagLexOrd__#List;17
.n 4 e_Data.GenLexOrd_dgLexOrd__#List;17 e_Data.GenLexOrd_eagLexOrd__#List;17
.o 1 0
e_Data.GenLexOrd_ngLexOrd__#List;17
	push_node _cycle_in_spine 4
.d 5 0
	jmp e_Data.GenLexOrd_eagLexOrd__#List;17
.o 6 0
e_Data.GenLexOrd_sgLexOrd__#List;17
	jsr_eval 2
.d 6 0
	jmp s18
.o 5 0
e_Data.GenLexOrd_eagLexOrd__#List;17
	jsr_eval 3
	jsr_eval 2
	jsr_eval 1
	jsr_eval 0
	repl_r_args 2 0
.o 6 0
s18
	push_a 4
	push_a 4
	push_a 4
	push_a 4
	push_a 4
	update_a 4 9
	update_a 3 8
	update_a 2 7
	update_a 1 6
	updatepop_a 0 5
.d 6 0
	jmp s47
.o 6 0
s47
	eq_desc _Nil 0 3
	jmp_true case.22
	jmp case.23
case.22
.impdesc e__SystemStrictLists_rUList;
	build_r e__SystemStrictLists_rUList; 2 0 0 0
	push_a 5
	update_a 1 6
	updatepop_a 0 5
.d 3 0
	jmp s66
case.23
	push_a 3
	push_a 2
.d 2 0
	jsr_i 1
.o 2 0
	buildh _Nil 0
	update_a 0 6
	pop_a 1
	build_r e__SystemStrictLists_rUList; 2 0 2 0
	push_a 2
	push_a 2
	push_a 7
	push_a 10
	push_a 4
	update_a 4 5
	update_a 0 4
	pop_a 1
	update_a 4 11
	update_a 3 10
	update_a 2 9
	update_a 1 8
	updatepop_a 0 7
.d 6 0
	jmp s68
.o 6 0
s68
	eq_desc _Nil 0 0
	jmp_true case.24
	jmp case.25
case.24
	fillh e_Data.GenLexOrd_dGT 0 5
	pop_a 5
.d 1 0
	rtn
case.25
	push_r_args_a 3 2 0 2 1
.d 2 0
	jsr_i 1
.o 2 0
	push_a 0
	push_a 4
	push_a 4
	update_a 2 3
	update_a 1 2
	updatepop_a 0 1
	buildh _Nil 0
	update_a 0 6
	pop_a 1
	jsr_ap 2
	push_a 1
	push_a 6
	push_a 4
	push_a 7
	push_a 4
	update_a 4 5
	update_a 3 4
	update_a 2 3
	update_a 1 2
	update_a 0 1
	pop_a 1
	update_a 4 9
	update_a 3 8
	update_a 2 7
	update_a 1 6
	updatepop_a 0 5
.d 6 0
	jmp s67
.o 6 0
s67
	pushD_a 0
	jmpD ba e_Data.GenLexOrd_dEQ 0 case.27 case.28
case.26
	pop_b 1
	push_a 4
	jsr_eval 0
	push_a 4
	jsr_eval 0
	push_r_args 3 2 0
	push_a 6
	push_a 2
	update_a 1 3
	update_a 2 1
	update_a 0 2
	pop_a 1
	update_a 4 9
	update_a 3 8
	update_a 2 7
	update_a 1 6
	updatepop_a 0 5
.d 6 0
	jmp s47
case.27
	pop_b 1
	fillh e_Data.GenLexOrd_dLT 0 5
	pop_a 5
.d 1 0
	rtn
case.28
	pop_b 1
	fillh e_Data.GenLexOrd_dGT 0 5
	pop_a 5
.d 1 0
	rtn
.o 3 0
s66
	eq_desc _Nil 0 0
	jmp_true case.29
	jmp case.30
case.29
	fillh e_Data.GenLexOrd_dEQ 0 2
	pop_a 2
.d 1 0
	rtn
case.30
	fillh e_Data.GenLexOrd_dLT 0 2
	pop_a 2
.d 1 0
	rtn
.export e_Data.GenLexOrd_sgLexOrd__!List!;16
.export e_Data.GenLexOrd_eagLexOrd__!List!;16
.descexp e_Data.GenLexOrd_dgLexOrd__!List!;16 e_Data.GenLexOrd_ngLexOrd__!List!;16 e_Data.GenLexOrd_lgLexOrd__!List!;16 3 0 "gLexOrd__!List!;16"
.o 5 0
e_Data.GenLexOrd_igLexOrd__!List!;16
	pop_a 1
	jsr_eval 0
.d 4 0
	jmp s17
.ai 3 e_Data.GenLexOrd_eagLexOrd__!List!;16 e_Data.GenLexOrd_igLexOrd__!List!;16
.o 2 0
e_Data.GenLexOrd_lgLexOrd__!List!;16
	push_args 0 2 2
	update_a 3 2
	create
	update_a 0 4
	pop_a 1
.d 4 0
	jmp e_Data.GenLexOrd_eagLexOrd__!List!;16
.n 3 e_Data.GenLexOrd_dgLexOrd__!List!;16 e_Data.GenLexOrd_eagLexOrd__!List!;16
.o 1 0
e_Data.GenLexOrd_ngLexOrd__!List!;16
	push_node _cycle_in_spine 3
.d 4 0
	jmp e_Data.GenLexOrd_eagLexOrd__!List!;16
.o 4 0
e_Data.GenLexOrd_sgLexOrd__!List!;16
	jsr_eval 0
.d 4 0
	jmp s17
.o 4 0
e_Data.GenLexOrd_eagLexOrd__!List!;16
	jsr_eval 2
	jsr_eval 1
	jsr_eval 0
.o 4 0
s17
	push_a 2
	push_a 2
	push_a 2
	update_a 2 5
	update_a 1 4
	updatepop_a 0 3
.d 4 0
	jmp s46
.o 4 0
s46
	eq_desc _Nil 0 1
	jmp_true case.31
	jmp case.32
case.31
	push_a 2
	updatepop_a 0 3
.d 2 0
	jmp s63
case.32
	push_args 1 2 2
	buildh _Nil 0
	update_a 0 4
	pop_a 1
	push_a 1
	push_a 1
	push_a 4
	push_a 7
	update_a 3 8
	update_a 2 7
	update_a 1 6
	updatepop_a 0 5
.d 5 0
	jmp s65
.o 5 0
s65
	eq_desc _Nil 0 0
	jmp_true case.33
	jmp case.34
case.33
	fillh e_Data.GenLexOrd_dGT 0 4
	pop_a 4
.d 1 0
	rtn
case.34
	repl_args 2 2
	push_a 0
	push_a 4
	push_a 4
	update_a 2 3
	update_a 1 2
	updatepop_a 0 1
	buildh _Nil 0
	update_a 0 6
	pop_a 1
	jsr_ap 2
	push_a 1
	push_a 5
	push_a 4
	push_a 3
	update_a 3 4
	update_a 2 3
	update_a 1 2
	update_a 0 1
	pop_a 1
	update_a 3 7
	update_a 2 6
	update_a 1 5
	updatepop_a 0 4
.d 5 0
	jmp s64
.o 5 0
s64
	pushD_a 0
	jmpD ba e_Data.GenLexOrd_dEQ 0 case.36 case.37
case.35
	pop_b 1
	push_a 3
	push_a 3
	push_a 3
	update_a 2 6
	update_a 1 5
	updatepop_a 0 4
.d 4 0
	jmp s46
case.36
	pop_b 1
	fillh e_Data.GenLexOrd_dLT 0 4
	pop_a 4
.d 1 0
	rtn
case.37
	pop_b 1
	fillh e_Data.GenLexOrd_dGT 0 4
	pop_a 4
.d 1 0
	rtn
.o 2 0
s63
	eq_desc _Nil 0 0
	jmp_true case.38
	jmp case.39
case.38
	fillh e_Data.GenLexOrd_dEQ 0 1
	pop_a 1
.d 1 0
	rtn
case.39
	fillh e_Data.GenLexOrd_dLT 0 1
	pop_a 1
.d 1 0
	rtn
.export e_Data.GenLexOrd_sgLexOrd__List!;15
.export e_Data.GenLexOrd_eagLexOrd__List!;15
.descexp e_Data.GenLexOrd_dgLexOrd__List!;15 e_Data.GenLexOrd_ngLexOrd__List!;15 e_Data.GenLexOrd_lgLexOrd__List!;15 3 0 "gLexOrd__List!;15"
.o 5 0
e_Data.GenLexOrd_igLexOrd__List!;15
	pop_a 1
	jsr_eval 0
.d 4 0
	jmp s16
.ai 3 e_Data.GenLexOrd_eagLexOrd__List!;15 e_Data.GenLexOrd_igLexOrd__List!;15
.o 2 0
e_Data.GenLexOrd_lgLexOrd__List!;15
	push_args 0 2 2
	update_a 3 2
	create
	update_a 0 4
	pop_a 1
.d 4 0
	jmp e_Data.GenLexOrd_eagLexOrd__List!;15
.n 3 e_Data.GenLexOrd_dgLexOrd__List!;15 e_Data.GenLexOrd_eagLexOrd__List!;15
.o 1 0
e_Data.GenLexOrd_ngLexOrd__List!;15
	push_node _cycle_in_spine 3
.d 4 0
	jmp e_Data.GenLexOrd_eagLexOrd__List!;15
.o 4 0
e_Data.GenLexOrd_sgLexOrd__List!;15
	jsr_eval 0
.d 4 0
	jmp s16
.o 4 0
e_Data.GenLexOrd_eagLexOrd__List!;15
	jsr_eval 2
	jsr_eval 1
	jsr_eval 0
.o 4 0
s16
	push_a 2
	push_a 2
	push_a 2
	update_a 2 5
	update_a 1 4
	updatepop_a 0 3
.d 4 0
	jmp s45
.o 4 0
s45
	eq_desc _Nil 0 1
	jmp_true case.40
	jmp case.41
case.40
	push_a 2
	updatepop_a 0 3
.d 2 0
	jmp s60
case.41
	push_args 1 2 2
	buildh _Nil 0
	update_a 0 4
	pop_a 1
	push_a 1
	push_a 1
	push_a 4
	push_a 7
	update_a 3 8
	update_a 2 7
	update_a 1 6
	updatepop_a 0 5
.d 5 0
	jmp s62
.o 5 0
s62
	eq_desc _Nil 0 0
	jmp_true case.42
	jmp case.43
case.42
	fillh e_Data.GenLexOrd_dGT 0 4
	pop_a 4
.d 1 0
	rtn
case.43
	repl_args 2 2
	push_a 0
	push_a 4
	push_a 4
	update_a 2 3
	update_a 1 2
	updatepop_a 0 1
	buildh _Nil 0
	update_a 0 6
	pop_a 1
	jsr_ap 2
	push_a 1
	push_a 5
	push_a 4
	push_a 3
	update_a 3 4
	update_a 2 3
	update_a 1 2
	update_a 0 1
	pop_a 1
	update_a 3 7
	update_a 2 6
	update_a 1 5
	updatepop_a 0 4
.d 5 0
	jmp s61
.o 5 0
s61
	pushD_a 0
	jmpD ba e_Data.GenLexOrd_dEQ 0 case.45 case.46
case.44
	pop_b 1
	push_a 3
	push_a 3
	push_a 3
	update_a 2 6
	update_a 1 5
	updatepop_a 0 4
.d 4 0
	jmp s45
case.45
	pop_b 1
	fillh e_Data.GenLexOrd_dLT 0 4
	pop_a 4
.d 1 0
	rtn
case.46
	pop_b 1
	fillh e_Data.GenLexOrd_dGT 0 4
	pop_a 4
.d 1 0
	rtn
.o 2 0
s60
	eq_desc _Nil 0 0
	jmp_true case.47
	jmp case.48
case.47
	fillh e_Data.GenLexOrd_dEQ 0 1
	pop_a 1
.d 1 0
	rtn
case.48
	fillh e_Data.GenLexOrd_dLT 0 1
	pop_a 1
.d 1 0
	rtn
.export e_Data.GenLexOrd_sgLexOrd__!List;14
.export e_Data.GenLexOrd_eagLexOrd__!List;14
.descexp e_Data.GenLexOrd_dgLexOrd__!List;14 e_Data.GenLexOrd_ngLexOrd__!List;14 e_Data.GenLexOrd_lgLexOrd__!List;14 3 0 "gLexOrd__!List;14"
.o 5 0
e_Data.GenLexOrd_igLexOrd__!List;14
	pop_a 1
	jsr_eval 0
.d 4 0
	jmp s15
.ai 3 e_Data.GenLexOrd_eagLexOrd__!List;14 e_Data.GenLexOrd_igLexOrd__!List;14
.o 2 0
e_Data.GenLexOrd_lgLexOrd__!List;14
	push_args 0 2 2
	update_a 3 2
	create
	update_a 0 4
	pop_a 1
.d 4 0
	jmp e_Data.GenLexOrd_eagLexOrd__!List;14
.n 3 e_Data.GenLexOrd_dgLexOrd__!List;14 e_Data.GenLexOrd_eagLexOrd__!List;14
.o 1 0
e_Data.GenLexOrd_ngLexOrd__!List;14
	push_node _cycle_in_spine 3
.d 4 0
	jmp e_Data.GenLexOrd_eagLexOrd__!List;14
.o 4 0
e_Data.GenLexOrd_sgLexOrd__!List;14
	jsr_eval 0
.d 4 0
	jmp s15
.o 4 0
e_Data.GenLexOrd_eagLexOrd__!List;14
	jsr_eval 2
	jsr_eval 1
	jsr_eval 0
.o 4 0
s15
	push_a 2
	push_a 2
	push_a 2
	update_a 2 5
	update_a 1 4
	updatepop_a 0 3
.d 4 0
	jmp s44
.o 4 0
s44
	eq_desc _Nil 0 1
	jmp_true case.49
	jmp case.50
case.49
	push_a 2
	updatepop_a 0 3
.d 2 0
	jmp s57
case.50
	push_args 1 2 2
	buildh _Nil 0
	update_a 0 4
	pop_a 1
	push_a 1
	push_a 1
	push_a 4
	push_a 7
	update_a 3 8
	update_a 2 7
	update_a 1 6
	updatepop_a 0 5
.d 5 0
	jmp s59
.o 5 0
s59
	eq_desc _Nil 0 0
	jmp_true case.51
	jmp case.52
case.51
	fillh e_Data.GenLexOrd_dGT 0 4
	pop_a 4
.d 1 0
	rtn
case.52
	repl_args 2 2
	push_a 0
	push_a 4
	push_a 4
	update_a 2 3
	update_a 1 2
	updatepop_a 0 1
	buildh _Nil 0
	update_a 0 6
	pop_a 1
	jsr_ap 2
	push_a 1
	push_a 5
	push_a 4
	push_a 3
	update_a 3 4
	update_a 2 3
	update_a 1 2
	update_a 0 1
	pop_a 1
	update_a 3 7
	update_a 2 6
	update_a 1 5
	updatepop_a 0 4
.d 5 0
	jmp s58
.o 5 0
s58
	pushD_a 0
	jmpD ba e_Data.GenLexOrd_dEQ 0 case.54 case.55
case.53
	pop_b 1
	push_a 3
	jsr_eval 0
	push_a 3
	jsr_eval 0
	push_a 3
	update_a 2 6
	update_a 1 5
	updatepop_a 0 4
.d 4 0
	jmp s44
case.54
	pop_b 1
	fillh e_Data.GenLexOrd_dLT 0 4
	pop_a 4
.d 1 0
	rtn
case.55
	pop_b 1
	fillh e_Data.GenLexOrd_dGT 0 4
	pop_a 4
.d 1 0
	rtn
.o 2 0
s57
	eq_desc _Nil 0 0
	jmp_true case.56
	jmp case.57
case.56
	fillh e_Data.GenLexOrd_dEQ 0 1
	pop_a 1
.d 1 0
	rtn
case.57
	fillh e_Data.GenLexOrd_dLT 0 1
	pop_a 1
.d 1 0
	rtn
.export e_Data.GenLexOrd_sgLexOrd__List;13
.export e_Data.GenLexOrd_eagLexOrd__List;13
.descexp e_Data.GenLexOrd_dgLexOrd__List;13 e_Data.GenLexOrd_ngLexOrd__List;13 e_Data.GenLexOrd_lgLexOrd__List;13 3 0 "gLexOrd__List;13"
.o 5 0
e_Data.GenLexOrd_igLexOrd__List;13
	pop_a 1
	jsr_eval 0
.d 4 0
	jmp s14
.ai 3 e_Data.GenLexOrd_eagLexOrd__List;13 e_Data.GenLexOrd_igLexOrd__List;13
.o 2 0
e_Data.GenLexOrd_lgLexOrd__List;13
	push_args 0 2 2
	update_a 3 2
	create
	update_a 0 4
	pop_a 1
.d 4 0
	jmp e_Data.GenLexOrd_eagLexOrd__List;13
.n 3 e_Data.GenLexOrd_dgLexOrd__List;13 e_Data.GenLexOrd_eagLexOrd__List;13
.o 1 0
e_Data.GenLexOrd_ngLexOrd__List;13
	push_node _cycle_in_spine 3
.d 4 0
	jmp e_Data.GenLexOrd_eagLexOrd__List;13
.o 4 0
e_Data.GenLexOrd_sgLexOrd__List;13
	jsr_eval 0
.d 4 0
	jmp s14
.o 4 0
e_Data.GenLexOrd_eagLexOrd__List;13
	jsr_eval 2
	jsr_eval 1
	jsr_eval 0
.o 4 0
s14
	push_a 2
	push_a 2
	push_a 2
	update_a 2 5
	update_a 1 4
	updatepop_a 0 3
.d 4 0
	jmp s43
.o 4 0
s43
	eq_desc _Nil 0 1
	jmp_true case.58
	jmp case.59
case.58
	push_a 2
	updatepop_a 0 3
.d 2 0
	jmp s54
case.59
	push_args 1 2 2
	buildh _Nil 0
	update_a 0 4
	pop_a 1
	push_a 1
	push_a 1
	push_a 4
	push_a 7
	update_a 3 8
	update_a 2 7
	update_a 1 6
	updatepop_a 0 5
.d 5 0
	jmp s56
.o 5 0
s56
	eq_desc _Nil 0 0
	jmp_true case.60
	jmp case.61
case.60
	fillh e_Data.GenLexOrd_dGT 0 4
	pop_a 4
.d 1 0
	rtn
case.61
	repl_args 2 2
	push_a 0
	push_a 4
	push_a 4
	update_a 2 3
	update_a 1 2
	updatepop_a 0 1
	buildh _Nil 0
	update_a 0 6
	pop_a 1
	jsr_ap 2
	push_a 1
	push_a 5
	push_a 4
	push_a 3
	update_a 3 4
	update_a 2 3
	update_a 1 2
	update_a 0 1
	pop_a 1
	update_a 3 7
	update_a 2 6
	update_a 1 5
	updatepop_a 0 4
.d 5 0
	jmp s55
.o 5 0
s55
	pushD_a 0
	jmpD ba e_Data.GenLexOrd_dEQ 0 case.63 case.64
case.62
	pop_b 1
	push_a 3
	jsr_eval 0
	push_a 3
	jsr_eval 0
	push_a 3
	update_a 2 6
	update_a 1 5
	updatepop_a 0 4
.d 4 0
	jmp s43
case.63
	pop_b 1
	fillh e_Data.GenLexOrd_dLT 0 4
	pop_a 4
.d 1 0
	rtn
case.64
	pop_b 1
	fillh e_Data.GenLexOrd_dGT 0 4
	pop_a 4
.d 1 0
	rtn
.o 2 0
s54
	eq_desc _Nil 0 0
	jmp_true case.65
	jmp case.66
case.65
	fillh e_Data.GenLexOrd_dEQ 0 1
	pop_a 1
.d 1 0
	rtn
case.66
	fillh e_Data.GenLexOrd_dLT 0 1
	pop_a 1
.d 1 0
	rtn
.export e_Data.GenLexOrd_sgLexOrd__String;12
.export e_Data.GenLexOrd_eagLexOrd__String;12
.descexp e_Data.GenLexOrd_dgLexOrd__String;12 e_Data.GenLexOrd_ngLexOrd__String;12 e_Data.GenLexOrd_lgLexOrd__String;12 2 0 "gLexOrd__String;12"
.o 4 0
e_Data.GenLexOrd_igLexOrd__String;12
	pop_a 1
	push_array 1
	push_array 1
	update_a 1 3
	update_a 0 2
	pop_a 2
.d 3 0
	jmp s13
.ai 2 e_Data.GenLexOrd_eagLexOrd__String;12 e_Data.GenLexOrd_igLexOrd__String;12
.o 2 0
e_Data.GenLexOrd_lgLexOrd__String;12
	push_args 0 1 1
	update_a 2 1
	create
	update_a 0 3
	pop_a 1
.d 3 0
	jmp e_Data.GenLexOrd_eagLexOrd__String;12
.n 2 e_Data.GenLexOrd_dgLexOrd__String;12 e_Data.GenLexOrd_eagLexOrd__String;12
.o 1 0
e_Data.GenLexOrd_ngLexOrd__String;12
	push_node _cycle_in_spine 2
.o 3 0
e_Data.GenLexOrd_eagLexOrd__String;12
	jsr_eval 1
	jsr_eval 0
	push_array 1
	push_array 1
	update_a 1 3
	update_a 0 2
	pop_a 2
.o 3 0
e_Data.GenLexOrd_sgLexOrd__String;12
.o 3 0
s13
	push_a 1
	push_a 1
.d 2 0
	jsr eqAC
.o 0 1 b
	jmp_false else.67
	fillh e_Data.GenLexOrd_dEQ 0 2
	pop_a 2
.d 1 0
	rtn
else.67
	push_a 1
	push_a 1
	update_a 1 3
	updatepop_a 0 2
.d 2 0
	jsr cmpAC
.o 0 1 i
	pushI 0
	gtI
	jmp_false else.68
	fillh e_Data.GenLexOrd_dLT 0 0
.d 1 0
	rtn
else.68
	fillh e_Data.GenLexOrd_dGT 0 0
.d 1 0
	rtn
.export e_Data.GenLexOrd_sgLexOrd_Real;11
.export e_Data.GenLexOrd_eagLexOrd_Real;11
.descexp e_Data.GenLexOrd_dgLexOrd_Real;11 e_Data.GenLexOrd_ngLexOrd_Real;11 e_Data.GenLexOrd_lgLexOrd_Real;11 2 0 "gLexOrd_Real;11"
.o 4 0
e_Data.GenLexOrd_igLexOrd_Real;11
	pop_a 1
	pushR_a 1
	pushR_a 0
	pop_a 2
.d 1 2 rr
	jmp s12
.ai 2 e_Data.GenLexOrd_eagLexOrd_Real;11 e_Data.GenLexOrd_igLexOrd_Real;11
.o 2 0
e_Data.GenLexOrd_lgLexOrd_Real;11
	push_args 0 1 1
	update_a 2 1
	create
	update_a 0 3
	pop_a 1
.d 3 0
	jmp e_Data.GenLexOrd_eagLexOrd_Real;11
.n 2 e_Data.GenLexOrd_dgLexOrd_Real;11 e_Data.GenLexOrd_eagLexOrd_Real;11
.o 1 0
e_Data.GenLexOrd_ngLexOrd_Real;11
	push_node _cycle_in_spine 2
.o 3 0
e_Data.GenLexOrd_eagLexOrd_Real;11
	jsr_eval 1
	jsr_eval 0
	pushR_a 1
	pushR_a 0
	pop_a 2
.o 1 2 rr
e_Data.GenLexOrd_sgLexOrd_Real;11
.o 1 2 rr
s12
	push_b 1
	push_b 1
	eqR
	jmp_false else.69
	fillh e_Data.GenLexOrd_dEQ 0 0
	pop_b 2
.d 1 0
	rtn
else.69
	push_b 1
	push_b 1
	ltR
	jmp_false else.70
	fillh e_Data.GenLexOrd_dLT 0 0
	pop_b 2
.d 1 0
	rtn
else.70
	fillh e_Data.GenLexOrd_dGT 0 0
	pop_b 2
.d 1 0
	rtn
.export e_Data.GenLexOrd_sgLexOrd_Int;10
.export e_Data.GenLexOrd_eagLexOrd_Int;10
.descexp e_Data.GenLexOrd_dgLexOrd_Int;10 e_Data.GenLexOrd_ngLexOrd_Int;10 e_Data.GenLexOrd_lgLexOrd_Int;10 2 0 "gLexOrd_Int;10"
.o 4 0
e_Data.GenLexOrd_igLexOrd_Int;10
	pop_a 1
	pushI_a 1
	pushI_a 0
	pop_a 2
.d 1 2 ii
	jmp s11
.ai 2 e_Data.GenLexOrd_eagLexOrd_Int;10 e_Data.GenLexOrd_igLexOrd_Int;10
.o 2 0
e_Data.GenLexOrd_lgLexOrd_Int;10
	push_args 0 1 1
	update_a 2 1
	create
	update_a 0 3
	pop_a 1
.d 3 0
	jmp e_Data.GenLexOrd_eagLexOrd_Int;10
.n 2 e_Data.GenLexOrd_dgLexOrd_Int;10 e_Data.GenLexOrd_eagLexOrd_Int;10
.o 1 0
e_Data.GenLexOrd_ngLexOrd_Int;10
	push_node _cycle_in_spine 2
.o 3 0
e_Data.GenLexOrd_eagLexOrd_Int;10
	jsr_eval 1
	jsr_eval 0
	pushI_a 1
	pushI_a 0
	pop_a 2
.o 1 2 ii
e_Data.GenLexOrd_sgLexOrd_Int;10
.o 1 2 ii
s11
	push_b 1
	push_b 1
	eqI
	jmp_false else.71
	fillh e_Data.GenLexOrd_dEQ 0 0
	pop_b 2
.d 1 0
	rtn
else.71
	push_b 1
	push_b 1
	ltI
	jmp_false else.72
	fillh e_Data.GenLexOrd_dLT 0 0
	pop_b 2
.d 1 0
	rtn
else.72
	fillh e_Data.GenLexOrd_dGT 0 0
	pop_b 2
.d 1 0
	rtn
.export e_Data.GenLexOrd_sgLexOrd_Bool;9
.export e_Data.GenLexOrd_eagLexOrd_Bool;9
.descexp e_Data.GenLexOrd_dgLexOrd_Bool;9 e_Data.GenLexOrd_ngLexOrd_Bool;9 e_Data.GenLexOrd_lgLexOrd_Bool;9 2 0 "gLexOrd_Bool;9"
.o 4 0
e_Data.GenLexOrd_igLexOrd_Bool;9
	pop_a 1
	pushB_a 1
	pushB_a 0
	pop_a 2
.d 1 2 bb
	jmp s10
.ai 2 e_Data.GenLexOrd_eagLexOrd_Bool;9 e_Data.GenLexOrd_igLexOrd_Bool;9
.o 2 0
e_Data.GenLexOrd_lgLexOrd_Bool;9
	push_args 0 1 1
	update_a 2 1
	create
	update_a 0 3
	pop_a 1
.d 3 0
	jmp e_Data.GenLexOrd_eagLexOrd_Bool;9
.n 2 e_Data.GenLexOrd_dgLexOrd_Bool;9 e_Data.GenLexOrd_eagLexOrd_Bool;9
.o 1 0
e_Data.GenLexOrd_ngLexOrd_Bool;9
	push_node _cycle_in_spine 2
.o 3 0
e_Data.GenLexOrd_eagLexOrd_Bool;9
	jsr_eval 1
	jsr_eval 0
	pushB_a 1
	pushB_a 0
	pop_a 2
.o 1 2 bb
e_Data.GenLexOrd_sgLexOrd_Bool;9
.o 1 2 bb
s10
	push_b 0
	jmp_false else.73
	push_b 1
	jmp_false else.74
	fillh e_Data.GenLexOrd_dEQ 0 0
	pop_b 2
.d 1 0
	rtn
else.74
	fillh e_Data.GenLexOrd_dGT 0 0
	pop_b 2
.d 1 0
	rtn
else.73
	push_b 1
	jmp_false else.75
	fillh e_Data.GenLexOrd_dLT 0 0
	pop_b 2
.d 1 0
	rtn
else.75
	fillh e_Data.GenLexOrd_dEQ 0 0
	pop_b 2
.d 1 0
	rtn
.export e_Data.GenLexOrd_sgLexOrd_Char;8
.export e_Data.GenLexOrd_eagLexOrd_Char;8
.descexp e_Data.GenLexOrd_dgLexOrd_Char;8 e_Data.GenLexOrd_ngLexOrd_Char;8 e_Data.GenLexOrd_lgLexOrd_Char;8 2 0 "gLexOrd_Char;8"
.o 4 0
e_Data.GenLexOrd_igLexOrd_Char;8
	pop_a 1
	pushC_a 1
	pushC_a 0
	pop_a 2
.d 1 2 cc
	jmp s9
.ai 2 e_Data.GenLexOrd_eagLexOrd_Char;8 e_Data.GenLexOrd_igLexOrd_Char;8
.o 2 0
e_Data.GenLexOrd_lgLexOrd_Char;8
	push_args 0 1 1
	update_a 2 1
	create
	update_a 0 3
	pop_a 1
.d 3 0
	jmp e_Data.GenLexOrd_eagLexOrd_Char;8
.n 2 e_Data.GenLexOrd_dgLexOrd_Char;8 e_Data.GenLexOrd_eagLexOrd_Char;8
.o 1 0
e_Data.GenLexOrd_ngLexOrd_Char;8
	push_node _cycle_in_spine 2
.o 3 0
e_Data.GenLexOrd_eagLexOrd_Char;8
	jsr_eval 1
	jsr_eval 0
	pushC_a 1
	pushC_a 0
	pop_a 2
.o 1 2 cc
e_Data.GenLexOrd_sgLexOrd_Char;8
.o 1 2 cc
s9
	push_b 1
	push_b 1
	eqC
	jmp_false else.76
	fillh e_Data.GenLexOrd_dEQ 0 0
	pop_b 2
.d 1 0
	rtn
else.76
	push_b 1
	push_b 1
	ltC
	jmp_false else.77
	fillh e_Data.GenLexOrd_dLT 0 0
	pop_b 2
.d 1 0
	rtn
else.77
	fillh e_Data.GenLexOrd_dGT 0 0
	pop_b 2
.d 1 0
	rtn
.export e_Data.GenLexOrd_sgLexOrd_RECORD;7
.export e_Data.GenLexOrd_eagLexOrd_RECORD;7
.descexp e_Data.GenLexOrd_dgLexOrd_RECORD;7 e_Data.GenLexOrd_ngLexOrd_RECORD;7 e_Data.GenLexOrd_lgLexOrd_RECORD;7 3 0 "gLexOrd_RECORD;7"
.a 3 e_Data.GenLexOrd_eagLexOrd_RECORD;7
.o 2 0
e_Data.GenLexOrd_lgLexOrd_RECORD;7
	push_args 0 2 2
	update_a 3 2
	create
	update_a 0 4
	pop_a 1
.d 4 0
	jmp e_Data.GenLexOrd_eagLexOrd_RECORD;7
.n 3 e_Data.GenLexOrd_dgLexOrd_RECORD;7 e_Data.GenLexOrd_eagLexOrd_RECORD;7
.o 1 0
e_Data.GenLexOrd_ngLexOrd_RECORD;7
	push_node _cycle_in_spine 3
.d 4 0
	jmp e_Data.GenLexOrd_eagLexOrd_RECORD;7
.o 4 0
e_Data.GenLexOrd_sgLexOrd_RECORD;7
	jsr_eval 0
.d 4 0
	jmp s8
.o 4 0
e_Data.GenLexOrd_eagLexOrd_RECORD;7
	jsr_eval 2
	jsr_eval 1
	jsr_eval 0
.o 4 0
s8
	push_args 1 1 1
	buildh _Nil 0
	update_a 0 3
	pop_a 1
	push_args 3 1 1
	buildh _Nil 0
	update_a 0 5
	pop_a 1
	push_a 0
	push_a 2
	push_a 4
	update_a 2 7
	update_a 1 6
	updatepop_a 0 5
	jsr_ap 2
	fill_a 0 1
	pop_a 1
.d 1 0
	rtn
.export e_Data.GenLexOrd_sgLexOrd_OBJECT;6
.export e_Data.GenLexOrd_eagLexOrd_OBJECT;6
.descexp e_Data.GenLexOrd_dgLexOrd_OBJECT;6 e_Data.GenLexOrd_ngLexOrd_OBJECT;6 e_Data.GenLexOrd_lgLexOrd_OBJECT;6 3 0 "gLexOrd_OBJECT;6"
.a 3 e_Data.GenLexOrd_eagLexOrd_OBJECT;6
.o 2 0
e_Data.GenLexOrd_lgLexOrd_OBJECT;6
	push_args 0 2 2
	update_a 3 2
	create
	update_a 0 4
	pop_a 1
.d 4 0
	jmp e_Data.GenLexOrd_eagLexOrd_OBJECT;6
.n 3 e_Data.GenLexOrd_dgLexOrd_OBJECT;6 e_Data.GenLexOrd_eagLexOrd_OBJECT;6
.o 1 0
e_Data.GenLexOrd_ngLexOrd_OBJECT;6
	push_node _cycle_in_spine 3
.d 4 0
	jmp e_Data.GenLexOrd_eagLexOrd_OBJECT;6
.o 4 0
e_Data.GenLexOrd_sgLexOrd_OBJECT;6
	jsr_eval 0
.d 4 0
	jmp s7
.o 4 0
e_Data.GenLexOrd_eagLexOrd_OBJECT;6
	jsr_eval 2
	jsr_eval 1
	jsr_eval 0
.o 4 0
s7
	push_a 2
	push_a 2
	push_a 2
	update_a 2 5
	update_a 1 4
	updatepop_a 0 3
	jsr_ap 2
	fill_a 0 1
	pop_a 1
.d 1 0
	rtn
.export e_Data.GenLexOrd_sgLexOrd_FIELD;5
.export e_Data.GenLexOrd_eagLexOrd_FIELD;5
.descexp e_Data.GenLexOrd_dgLexOrd_FIELD;5 e_Data.GenLexOrd_ngLexOrd_FIELD;5 e_Data.GenLexOrd_lgLexOrd_FIELD;5 3 0 "gLexOrd_FIELD;5"
.a 3 e_Data.GenLexOrd_eagLexOrd_FIELD;5
.o 2 0
e_Data.GenLexOrd_lgLexOrd_FIELD;5
	push_args 0 2 2
	update_a 3 2
	create
	update_a 0 4
	pop_a 1
.d 4 0
	jmp e_Data.GenLexOrd_eagLexOrd_FIELD;5
.n 3 e_Data.GenLexOrd_dgLexOrd_FIELD;5 e_Data.GenLexOrd_eagLexOrd_FIELD;5
.o 1 0
e_Data.GenLexOrd_ngLexOrd_FIELD;5
	push_node _cycle_in_spine 3
.d 4 0
	jmp e_Data.GenLexOrd_eagLexOrd_FIELD;5
.o 4 0
e_Data.GenLexOrd_sgLexOrd_FIELD;5
	jsr_eval 0
.d 4 0
	jmp s6
.o 4 0
e_Data.GenLexOrd_eagLexOrd_FIELD;5
	jsr_eval 2
	jsr_eval 1
	jsr_eval 0
.o 4 0
s6
	push_a 2
	push_a 2
	push_a 2
	update_a 2 5
	update_a 1 4
	updatepop_a 0 3
	jsr_ap 2
	fill_a 0 1
	pop_a 1
.d 1 0
	rtn
.export e_Data.GenLexOrd_sgLexOrd_CONS;4
.export e_Data.GenLexOrd_eagLexOrd_CONS;4
.descexp e_Data.GenLexOrd_dgLexOrd_CONS;4 e_Data.GenLexOrd_ngLexOrd_CONS;4 e_Data.GenLexOrd_lgLexOrd_CONS;4 3 0 "gLexOrd_CONS;4"
.a 3 e_Data.GenLexOrd_eagLexOrd_CONS;4
.o 2 0
e_Data.GenLexOrd_lgLexOrd_CONS;4
	push_args 0 2 2
	update_a 3 2
	create
	update_a 0 4
	pop_a 1
.d 4 0
	jmp e_Data.GenLexOrd_eagLexOrd_CONS;4
.n 3 e_Data.GenLexOrd_dgLexOrd_CONS;4 e_Data.GenLexOrd_eagLexOrd_CONS;4
.o 1 0
e_Data.GenLexOrd_ngLexOrd_CONS;4
	push_node _cycle_in_spine 3
.d 4 0
	jmp e_Data.GenLexOrd_eagLexOrd_CONS;4
.o 4 0
e_Data.GenLexOrd_sgLexOrd_CONS;4
	jsr_eval 0
.d 4 0
	jmp s5
.o 4 0
e_Data.GenLexOrd_eagLexOrd_CONS;4
	jsr_eval 2
	jsr_eval 1
	jsr_eval 0
.o 4 0
s5
	push_args 1 1 1
	buildh _Nil 0
	update_a 0 3
	pop_a 1
	push_args 3 1 1
	buildh _Nil 0
	update_a 0 5
	pop_a 1
	push_a 0
	push_a 2
	push_a 4
	update_a 2 7
	update_a 1 6
	updatepop_a 0 5
	jsr_ap 2
	fill_a 0 1
	pop_a 1
.d 1 0
	rtn
.export e_Data.GenLexOrd_sgLexOrd_EITHER;3
.export e_Data.GenLexOrd_eagLexOrd_EITHER;3
.descexp e_Data.GenLexOrd_dgLexOrd_EITHER;3 e_Data.GenLexOrd_ngLexOrd_EITHER;3 e_Data.GenLexOrd_lgLexOrd_EITHER;3 4 0 "gLexOrd_EITHER;3"
.a 4 e_Data.GenLexOrd_eagLexOrd_EITHER;3
.o 2 0
e_Data.GenLexOrd_lgLexOrd_EITHER;3
	push_args 0 3 3
	update_a 4 3
	create
	update_a 0 5
	pop_a 1
.d 5 0
	jmp e_Data.GenLexOrd_eagLexOrd_EITHER;3
.n 4 e_Data.GenLexOrd_dgLexOrd_EITHER;3 e_Data.GenLexOrd_eagLexOrd_EITHER;3
.o 1 0
e_Data.GenLexOrd_ngLexOrd_EITHER;3
	push_node _cycle_in_spine 4
.o 5 0
e_Data.GenLexOrd_eagLexOrd_EITHER;3
	jsr_eval 3
	jsr_eval 2
.o 5 0
e_Data.GenLexOrd_sgLexOrd_EITHER;3
.o 5 0
s4
	eq_desc e_StdGeneric_dLEFT 1 2
	jmp_true case.78
	jmp case.79
case.78
	push_args 2 1 1
	buildh _Nil 0
	update_a 0 4
	pop_a 1
	eq_desc e_StdGeneric_dLEFT 1 4
	jmp_true case.80
	jmp case.81
case.80
	push_args 4 1 1
	buildh _Nil 0
	update_a 0 6
	pop_a 1
	push_a 0
	push_a 3
	jsr_eval 0
	push_a 3
	push_a 1
	update_a 1 2
	update_a 0 1
	pop_a 1
	update_a 2 8
	update_a 1 7
	updatepop_a 0 6
	jsr_ap 2
	fill_a 0 1
	pop_a 1
.d 1 0
	rtn
case.81
	push_args 4 1 1
	buildh _Nil 0
	update_a 0 6
	pop_a 1
	pop_a 1
	fillh e_Data.GenLexOrd_dLT 0 5
	pop_a 5
.d 1 0
	rtn
case.79
	push_args 2 1 1
	buildh _Nil 0
	update_a 0 4
	pop_a 1
	eq_desc e_StdGeneric_dLEFT 1 4
	jmp_true case.82
	jmp case.83
case.82
	push_args 4 1 1
	buildh _Nil 0
	update_a 0 6
	pop_a 1
	pop_a 1
	fillh e_Data.GenLexOrd_dGT 0 5
	pop_a 5
.d 1 0
	rtn
case.83
	push_args 4 1 1
	buildh _Nil 0
	update_a 0 6
	pop_a 1
	push_a 0
	push_a 4
	jsr_eval 0
	push_a 3
	push_a 1
	update_a 1 2
	update_a 0 1
	pop_a 1
	update_a 2 8
	update_a 1 7
	updatepop_a 0 6
	jsr_ap 2
	fill_a 0 1
	pop_a 1
.d 1 0
	rtn
.export e_Data.GenLexOrd_sgLexOrd_PAIR;2
.export e_Data.GenLexOrd_eagLexOrd_PAIR;2
.descexp e_Data.GenLexOrd_dgLexOrd_PAIR;2 e_Data.GenLexOrd_ngLexOrd_PAIR;2 e_Data.GenLexOrd_lgLexOrd_PAIR;2 4 0 "gLexOrd_PAIR;2"
.a 4 e_Data.GenLexOrd_eagLexOrd_PAIR;2
.o 2 0
e_Data.GenLexOrd_lgLexOrd_PAIR;2
	push_args 0 3 3
	update_a 4 3
	create
	update_a 0 5
	pop_a 1
.d 5 0
	jmp e_Data.GenLexOrd_eagLexOrd_PAIR;2
.n 4 e_Data.GenLexOrd_dgLexOrd_PAIR;2 e_Data.GenLexOrd_eagLexOrd_PAIR;2
.o 1 0
e_Data.GenLexOrd_ngLexOrd_PAIR;2
	push_node _cycle_in_spine 4
.d 5 0
	jmp e_Data.GenLexOrd_eagLexOrd_PAIR;2
.o 5 0
e_Data.GenLexOrd_sgLexOrd_PAIR;2
	jsr_eval 0
.d 5 0
	jmp s3
.o 5 0
e_Data.GenLexOrd_eagLexOrd_PAIR;2
	jsr_eval 3
	jsr_eval 2
	jsr_eval 0
.o 5 0
s3
	push_args 2 2 2
	buildh _Nil 0
	update_a 0 5
	pop_a 1
	push_args 5 2 2
	buildh _Nil 0
	update_a 0 8
	pop_a 1
	push_a 0
	push_a 3
	push_a 6
	update_a 8 10
	update_a 6 9
	update_a 4 8
	update_a 2 7
	update_a 1 6
	updatepop_a 0 5
	jsr_ap 2
	push_a 1
	push_a 3
	push_a 5
	push_a 3
	update_a 3 4
	update_a 2 3
	update_a 1 2
	update_a 0 1
	pop_a 1
	update_a 3 6
	update_a 2 5
	update_a 1 4
	updatepop_a 0 3
.d 5 0
	jmp s53
.o 5 0
s53
	pushD_a 0
	jmpD ba e_Data.GenLexOrd_dEQ 0 case.85 case.86
case.84
	pop_b 1
	push_a 3
	push_a 2
	jsr_eval 0
	push_a 4
	push_a 1
	update_a 1 2
	update_a 0 1
	pop_a 1
	update_a 2 6
	update_a 1 5
	updatepop_a 0 4
	jsr_ap 2
	fill_a 0 1
	pop_a 1
.d 1 0
	rtn
case.85
	pop_b 1
	fillh e_Data.GenLexOrd_dLT 0 4
	pop_a 4
.d 1 0
	rtn
case.86
	pop_b 1
	fillh e_Data.GenLexOrd_dGT 0 4
	pop_a 4
.d 1 0
	rtn
.export e_Data.GenLexOrd_sgLexOrd_UNIT;1
.export e_Data.GenLexOrd_eagLexOrd_UNIT;1
.descexp e_Data.GenLexOrd_dgLexOrd_UNIT;1 e_Data.GenLexOrd_ngLexOrd_UNIT;1 e_Data.GenLexOrd_lgLexOrd_UNIT;1 2 0 "gLexOrd_UNIT;1"
.a 2 e_Data.GenLexOrd_eagLexOrd_UNIT;1
.o 2 0
e_Data.GenLexOrd_lgLexOrd_UNIT;1
	push_args 0 1 1
	update_a 2 1
	create
	update_a 0 3
	pop_a 1
.d 3 0
	jmp e_Data.GenLexOrd_eagLexOrd_UNIT;1
.n 2 e_Data.GenLexOrd_dgLexOrd_UNIT;1 e_Data.GenLexOrd_eagLexOrd_UNIT;1
.o 1 0
e_Data.GenLexOrd_ngLexOrd_UNIT;1
	push_node _cycle_in_spine 2
.o 3 0
e_Data.GenLexOrd_eagLexOrd_UNIT;1
	jsr_eval 1
	jsr_eval 0
.o 3 0
e_Data.GenLexOrd_sgLexOrd_UNIT;1
.o 3 0
s2
	fillh e_Data.GenLexOrd_dEQ 0 2
	pop_a 2
.d 1 0
	rtn
.export e_Data.GenLexOrd_sgEq_LexOrd;0
.descexp e_Data.GenLexOrd_dgEq_LexOrd;0 e_Data.GenLexOrd_ngEq_LexOrd;0 e_Data.GenLexOrd_lgEq_LexOrd;0 2 0 "gEq_LexOrd;0"
.o 3 0
e_Data.GenLexOrd_igEq_LexOrd;0
	pop_a 1
.d 2 0
	jmp s1
.ai 0 a1 e_Data.GenLexOrd_igEq_LexOrd;0
.o 2 0
e_Data.GenLexOrd_lgEq_LexOrd;0
	repl_args 1 1
.o 2 0
a1
.d 2 0
	jsr ea1
.o 0 1 b
	buildB_b 0
	pop_b 1
.d 1 0
	rtn
.n 2 e_Data.GenLexOrd_dgEq_LexOrd;0
.o 1 0
e_Data.GenLexOrd_ngEq_LexOrd;0
	push_node _cycle_in_spine 2
.d 2 0
	jsr ea1
.o 0 1 b
	fillB_b 0 0
	pop_b 1
.d 1 0
	rtn
.o 2 0
ea1
	jsr_eval 1
	jsr_eval 0
.o 2 0
e_Data.GenLexOrd_sgEq_LexOrd;0
.o 2 0
s1
	create
	push_a 2
	update_a 2 3
	update_a 1 2
	updatepop_a 0 1
.d 2 0
	jsr s30
.o 1 0
	create
	push_a 2
	buildh _Nil 0
	update_a 0 4
	pop_a 1
.d 2 0
	jsr s30
.o 1 0
	update_a 1 2
	updatepop_a 0 1
.d 2 0
	jmp s41
.o 2 0
s30
	pushD_a 0
	jmpD ea e_Data.GenLexOrd_dEQ 0 case.88 case.89
case.87
	pop_b 1
	buildh e_StdGeneric_dUNIT 0
	buildh e_StdGeneric_dCONS 1
	fillh e_StdGeneric_dLEFT 1 2
	pop_a 1
.d 1 0
	rtn
case.88
	pop_b 1
	buildh e_StdGeneric_dUNIT 0
	buildh e_StdGeneric_dCONS 1
	buildh e_StdGeneric_dLEFT 1
	fillh e_StdGeneric_dRIGHT 1 2
	pop_a 1
.d 1 0
	rtn
case.89
	pop_b 1
	buildh e_StdGeneric_dUNIT 0
	buildh e_StdGeneric_dCONS 1
	buildh e_StdGeneric_dRIGHT 1
	fillh e_StdGeneric_dRIGHT 1 2
	pop_a 1
.d 1 0
	rtn
.o 2 0
s41
	push_a 1
	push_a 1
	update_a 1 3
	updatepop_a 0 2
.d 2 0
	jmp s42
.o 2 0
s42
	eq_desc e_StdGeneric_dLEFT 1 0
	jmp_true case.90
	jmp case.91
case.90
	repl_args 1 1
	eq_desc e_StdGeneric_dLEFT 1 1
	jmp_true case.92
	jmp case.93
case.92
	push_args 1 1 1
	buildh _Nil 0
	update_a 0 3
	pop_a 1
	push_a 0
	jsr_eval 0
	push_a 2
	jsr_eval 0
	update_a 1 4
	updatepop_a 0 3
.d 2 0
	jmp s39
case.93
	push_args 1 1 1
	buildh _Nil 0
	update_a 0 3
	pop_a 1
	pop_a 1
	pop_a 2
	pushB FALSE
.d 0 1 b
	rtn
case.91
	repl_args 1 1
	eq_desc e_StdGeneric_dRIGHT 1 1
	jmp_true case.94
	jmp case.95
case.94
	push_args 1 1 1
	buildh _Nil 0
	update_a 0 3
	pop_a 1
	push_a 0
	jsr_eval 0
	push_a 2
	jsr_eval 0
	update_a 1 4
	updatepop_a 0 3
.d 2 0
	jmp s40
case.95
	push_args 1 1 1
	buildh _Nil 0
	update_a 0 3
	pop_a 1
	pop_a 1
	pop_a 2
	pushB FALSE
.d 0 1 b
	rtn
.o 2 0
s40
	eq_desc e_StdGeneric_dLEFT 1 0
	jmp_true case.96
	jmp case.97
case.96
	repl_args 1 1
	eq_desc e_StdGeneric_dLEFT 1 1
	jmp_true case.98
	jmp case.99
case.98
	push_args 1 1 1
	buildh _Nil 0
	update_a 0 3
	pop_a 1
	push_a 0
	jsr_eval 0
	push_a 2
	jsr_eval 0
	update_a 1 4
	updatepop_a 0 3
.d 2 0
	jmp s39
case.99
	push_args 1 1 1
	buildh _Nil 0
	update_a 0 3
	pop_a 1
	pop_a 1
	pop_a 2
	pushB FALSE
.d 0 1 b
	rtn
case.97
	repl_args 1 1
	eq_desc e_StdGeneric_dRIGHT 1 1
	jmp_true case.100
	jmp case.101
case.100
	push_args 1 1 1
	buildh _Nil 0
	update_a 0 3
	pop_a 1
	push_a 0
	jsr_eval 0
	push_a 2
	jsr_eval 0
	update_a 1 4
	updatepop_a 0 3
.d 2 0
	jmp s39
case.101
	push_args 1 1 1
	buildh _Nil 0
	update_a 0 3
	pop_a 1
	pop_a 1
	pop_a 2
	pushB FALSE
.d 0 1 b
	rtn
.o 2 0
s39
	repl_args 1 1
	push_args 1 1 1
	buildh _Nil 0
	update_a 0 3
	pop_a 1
	push_a 0
	jsr_eval 0
	push_a 2
	jsr_eval 0
	update_a 1 4
	updatepop_a 0 3
.d 2 0
	jmp s38
.o 2 0
s38
	pop_a 2
	pushB TRUE
.d 0 1 b
	rtn
