.comp 920 000011110011000
.start _nostart_
.depend "Data.Func" "20210613154827"
.depend "Control.Monad.Trans" "20210613154827"
.depend "StdMaybe" "20210613154827"
.depend "_SystemStrictMaybes" "20210613154827"
.depend "Control.Monad.Fail" "20210613154827"
.depend "Data.Traversable" "20210613154827"
.depend "StdMisc" "20210613154827"
.depend "StdOverloadedList" "20210613154827"
.depend "Data.List" "20210613154827"
.depend "Data.Foldable" "20210613154827"
.depend "StdFunctions" "20210613154827"
.depend "StdFunc" "20210613154827"
.depend "_SystemEnumStrict" "20210613154827"
.depend "_SystemStrictLists" "20210613154827"
.depend "StdStrictLists" "20210613154827"
.depend "StdGeneric" "20210613154827"
.depend "Data.GenEq" "20210613154827"
.depend "StdReal" "20210613154827"
.depend "StdChar" "20210613154827"
.depend "StdInt" "20210613154827"
.depend "StdBool" "20210613154827"
.depend "StdClass" "20210613154827"
.depend "StdList" "20210613154827"
.depend "Data.Monoid" "20210613154827"
.depend "Control.Applicative" "20210613154827"
.depend "Control.Monad" "20210613154827"
.depend "Data.Functor" "20210613154827"
.depend "StdOverloaded" "20210613154827"
.depend "_SystemDynamic" "20210613154827"
.depend "Data.Maybe" "20210613154827"
.module m_Data.Maybe "Data.Maybe" "20210613154827"
.endinfo
.impmod _system
.implab _cycle_in_spine
.implab _type_error
.implab _hnf
.impdesc e_system_dind
.implab e_system_nind e_system_eaind
.impdesc e_system_dif
.implab e_system_nif e_system_eaif
.implab e_system_sif
.impdesc e_system_dAP
.implab e_system_nAP e_system_eaAP
.implab e_system_sAP
.impdesc ARRAY
.impdesc _Nil
.impdesc _Cons
.impdesc _Conss
.implab n_Conss ea_Conss
.impdesc _Consts
.implab n_Consts ea_Consts
.impdesc _Conssts
.implab n_Conssts ea_Conssts
.impdesc _Tuple
.impdesc d_S.1
.implab n_S.1 ea_S.1
.impdesc d_S.2
.implab n_S.2 ea_S.2
.impdesc d_S.3
.implab n_S.3 ea_S.3
.impdesc d_S.4
.implab n_S.4 ea_S.4
.impdesc d_S.5
.implab n_S.5 ea_S.5
.impdesc d_S.6
.implab n_S.6 ea_S.6
.implab _driver
.impmod StdMaybe
.implab e_StdMaybe_smapMaybe;16
.implab e_StdMaybe_smapMaybe;17
.impmod StdMisc
.impdesc e_StdMisc_dabort
.implab e_StdMisc_sabort
.implab e_StdMisc_nabort _
.impmod StdFunctions
.impdesc e_StdFunctions_did
.impmod StdGeneric
.impdesc e_StdGeneric_dUNIT
.impdesc e_StdGeneric_dLEFT
.impdesc e_StdGeneric_dRIGHT
.impdesc e_StdGeneric_dCONS
.impmod Data.Monoid
.impdesc e_Data.Monoid_dSemigroup;.mappend
.implab e_Data.Monoid_nSemigroup;.mappend e_Data.Monoid_eaSemigroup;.mappend
.impdesc e_Data.Monoid_dMonoid;.mempty
.implab e_Data.Monoid_nMonoid;.mempty e_Data.Monoid_eaMonoid;.mempty
.impdesc e_Data.Monoid_dMonoid;.Semigroup
.implab e_Data.Monoid_nMonoid;.Semigroup
.impmod Control.Applicative
.impdesc e_Control.Applicative_dApplicative;.pure
.implab e_Control.Applicative_nApplicative;.pure
.impmod Control.Monad
.impdesc e_Control.Monad_dMonad;.Applicative
.implab e_Control.Monad_nMonad;.Applicative
.export e_Data.Maybe_eaMaybeT
.descexp e_Data.Maybe_dMaybeT e_Data.Maybe_nMaybeT e_Data.Maybe_lMaybeT 1 0 "MaybeT"
.o 2 0 
e_Data.Maybe_lMaybeT
	update_a 1 0
	create 
.d 2 0 
	put_a_jmp 2 e_Data.Maybe_eaMaybeT
.n 1 e_Data.Maybe_dMaybeT e_Data.Maybe_eaMaybeT
.o 1 0 
e_Data.Maybe_nMaybeT
	push_node _cycle_in_spine 1
.o 2 0 
e_Data.Maybe_eaMaybeT
	jsr_eval 0
	fill_r e_Data.Maybe_kMaybeT 1 0 1 0 0
.d 1 0 
	pop_a_rtn 1
.export e_Data.Maybe_kMaybeT
.record e_Data.Maybe_kMaybeT da 1 0 "MaybeT"
.export e_Data.Maybe_sTD;MaybeT
.export e_Data.Maybe_eaTD;MaybeT
.descexp e_Data.Maybe_dTD;MaybeT e_Data.Maybe_nTD;MaybeT e_Data.Maybe_lTD;MaybeT 1 0 "TD;MaybeT"
.o 2 0 
e_Data.Maybe_lTD;MaybeT
	update_a 1 0
	create 
.d 2 0 
	put_a_jmp 2 e_Data.Maybe_eaTD;MaybeT
.n 1 e_Data.Maybe_dTD;MaybeT e_Data.Maybe_eaTD;MaybeT
.o 1 0 
e_Data.Maybe_nTD;MaybeT
	push_node _cycle_in_spine 1
.o 2 0 
e_Data.Maybe_eaTD;MaybeT
.o 2 0 
e_Data.Maybe_sTD;MaybeT
.o 2 0 
s72
	fillh _Nil 0 1
.d 1 0 
	pop_a_rtn 1
.export e_Data.Maybe_sgEq__Maybe;70
.descexp e_Data.Maybe_dgEq__Maybe;70 e_Data.Maybe_ngEq__Maybe;70 e_Data.Maybe_lgEq__Maybe;70 3 0 "gEq__Maybe;70"
.o 4 0 
e_Data.Maybe_igEq__Maybe;70
.d 3 0 
	pop_a_jmp 1 s71
.ai 0 a71 e_Data.Maybe_igEq__Maybe;70
.o 2 0 
e_Data.Maybe_lgEq__Maybe;70
	repl_args 2 2
.o 3 0 
a71
.d 3 0 
	jsr ea71
.o 0 1 b
	buildB_b 0
.d 1 0 
	pop_b_rtn 1
.n 3 e_Data.Maybe_dgEq__Maybe;70
.o 1 0 
e_Data.Maybe_ngEq__Maybe;70
	push_node _cycle_in_spine 3
.d 3 0 
	jsr ea71
.o 0 1 b
	fillB_b 0 0
.d 1 0 
	pop_b_rtn 1
.o 3 0 
ea71
	jsr_eval 2
	jsr_eval 1
.o 3 0 
e_Data.Maybe_sgEq__Maybe;70
.o 3 0 
s71
	create 
	push_a 3
.d 2 0 
	buildh0_put_a_jsr _Nil 5 s90
.o 1 0 
	create 
	push_a 3
.d 2 0 
	buildh0_put_a_jsr _Nil 5 s90
.o 1 0 
	update2_a 0 3
.d 3 0 
	pop_a_jmp 2 s102
.o 2 0 
s90
	jmp_ne_desc _Just 1 0 case.2
	repl_args 1 1
	push_a 0
	buildh e_StdGeneric_dCONS 1
	fillh e_StdGeneric_dLEFT 1 2
.d 1 0 
	pop_a_rtn 1
case.2
	buildh e_StdGeneric_dUNIT 0
	buildh e_StdGeneric_dCONS 1
	fillh e_StdGeneric_dRIGHT 1 2
.d 1 0 
	pop_a_rtn 1
.o 3 0 
s102
.d 3 0 
	jmp s101
.export e_Data.Maybe_sgEq__!Maybe;69
.descexp e_Data.Maybe_dgEq__!Maybe;69 e_Data.Maybe_ngEq__!Maybe;69 e_Data.Maybe_lgEq__!Maybe;69 3 0 "gEq__!Maybe;69"
.o 4 0 
e_Data.Maybe_igEq__!Maybe;69
.d 3 0 
	pop_a_jmp 1 s70
.ai 0 a70 e_Data.Maybe_igEq__!Maybe;69
.o 2 0 
e_Data.Maybe_lgEq__!Maybe;69
	repl_args 2 2
.o 3 0 
a70
.d 3 0 
	jsr ea70
.o 0 1 b
	buildB_b 0
.d 1 0 
	pop_b_rtn 1
.n 3 e_Data.Maybe_dgEq__!Maybe;69
.o 1 0 
e_Data.Maybe_ngEq__!Maybe;69
	push_node _cycle_in_spine 3
.d 3 0 
	jsr ea70
.o 0 1 b
	fillB_b 0 0
.d 1 0 
	pop_b_rtn 1
.o 3 0 
ea70
	jsr_eval 2
	jsr_eval 1
.o 3 0 
e_Data.Maybe_sgEq__!Maybe;69
.o 3 0 
s70
	create 
	push_a 3
.d 2 0 
	buildh0_put_a_jsr _Nil 5 s89
.o 1 0 
	create 
	push_a 3
.d 2 0 
	buildh0_put_a_jsr _Nil 5 s89
.o 1 0 
	update2_a 0 3
.d 3 0 
	pop_a_jmp 2 s100
.o 2 0 
s89
	jmp_ne_desc _Just 1 0 case.4
	repl_args 1 1
	push_a 0
	buildh e_StdGeneric_dCONS 1
	fillh e_StdGeneric_dLEFT 1 2
.d 1 0 
	pop_a_rtn 1
case.4
	buildh e_StdGeneric_dUNIT 0
	buildh e_StdGeneric_dCONS 1
	fillh e_StdGeneric_dRIGHT 1 2
.d 1 0 
	pop_a_rtn 1
.o 3 0 
s100
s101
	jmp_ne_desc e_StdGeneric_dLEFT 1 1 case.6
	push_args 1 1 1
	buildh0_put_a _Nil 3
	jmp_ne_desc e_StdGeneric_dLEFT 1 3 case.8
	push_args 3 1 1
	buildh0_put_a _Nil 5
	jsr_eval 0
	push_a2 0 1
	jsr_eval 0
	push_jsr_eval 4
	update3pop_a 0 5
.d 3 0 
	jmp s91
case.8
	push_args 3 1 1
	pushB FALSE
.d 0 1 b
	pop_a_rtn 5
case.6
	push_args 1 1 1
	buildh0_put_a _Nil 3
	jmp_ne_desc e_StdGeneric_dRIGHT 1 3 case.10
	push_args 3 1 1
	buildh0_put_a _Nil 5
	jsr_eval 0
	push_a2 0 1
	jsr_eval 0
	update2pop_a 0 5
.d 2 0 
	jmp s99
case.10
	push_args 3 1 1
	pushB FALSE
.d 0 1 b
	pop_a_rtn 5
.o 3 0 
s91
	push_args 1 1 1
	buildh0_put_a _Nil 3
	push_args 3 1 1
	dup_a 4
	update_a 1 3
	pop_a 2
	jsr_ap 2
	pushB0_pop_a1 
.d 0 1 b
	rtn 
.o 2 0 
s99
	repl_args 1 1
	push_args 1 1 1
	buildh0_put_a _Nil 3
	jsr_eval 0
	push_a2 0 1
	jsr_eval 0
	update2pop_a 0 3
s92
	pushB TRUE
.d 0 1 b
	pop_a_rtn 2
.export e_Data.Maybe_sfromMaybe;68
.descexp e_Data.Maybe_dfromMaybe;68 e_Data.Maybe_nfromMaybe;68 e_Data.Maybe_lfromMaybe;68 2 0 "fromMaybe;68"
.a 0 ea69
.o 2 0 
e_Data.Maybe_lfromMaybe;68
	repl_args 1 1
.d 2 0 
	jmp ea69
.n 2 e_Data.Maybe_dfromMaybe;68 _
.o 1 0 
e_Data.Maybe_nfromMaybe;68
	push_node _cycle_in_spine 2
.d 2 0 
	jsr ea69
.o 1 0 
.d 1 0 
	fill_a01_pop_rtn 
.o 2 0 
ea69
	jsr_eval 1
.o 2 0 
e_Data.Maybe_sfromMaybe;68
.o 2 0 
s69
.d 2 0 
	jmp s95
.export e_Data.Maybe_sfromMaybe;67
.descexp e_Data.Maybe_dfromMaybe;67 e_Data.Maybe_nfromMaybe;67 e_Data.Maybe_lfromMaybe;67 2 0 "fromMaybe;67"
.a 0 ea68
.o 2 0 
e_Data.Maybe_lfromMaybe;67
	repl_args 1 1
.d 2 0 
	jmp ea68
.n 2 e_Data.Maybe_dfromMaybe;67 _
.o 1 0 
e_Data.Maybe_nfromMaybe;67
	push_node _cycle_in_spine 2
.d 2 0 
	jsr ea68
.o 1 0 
.d 1 0 
	fill_a01_pop_rtn 
.o 2 0 
ea68
	jsr_eval 1
.o 2 0 
e_Data.Maybe_sfromMaybe;67
.o 2 0 
s68
.d 2 0 
	jmp s93
.export e_Data.Maybe_smaybeSt;66
.descexp e_Data.Maybe_dmaybeSt;66 e_Data.Maybe_nmaybeSt;66 e_Data.Maybe_lmaybeSt;66 3 0 "maybeSt;66"
.a 0 ea67
.o 2 0 
e_Data.Maybe_lmaybeSt;66
	repl_args 2 2
.d 3 0 
	jmp ea67
.n 3 e_Data.Maybe_dmaybeSt;66 _
.o 1 0 
e_Data.Maybe_nmaybeSt;66
	push_node _cycle_in_spine 3
.d 3 0 
	jsr ea67
.o 1 0 
.d 1 0 
	fill_a01_pop_rtn 
.o 3 0 
ea67
	jsr_eval 2
.o 3 0 
e_Data.Maybe_smaybeSt;66
.o 3 0 
s67
s98
	jmp_ne_desc _None 0 2 case.12
	updatepop_a 0 2
	jmp_eval
case.12
	push_args 2 1 1
	buildh _Nil 0
	push_a 3
	updates2_a 3 1 5
	jsr_eval 0
	update_a 1 5
	update_a 2 4
	updatepop_a 0 3
	jmp_ap 2
.export e_Data.Maybe_smaybeSt;65
.descexp e_Data.Maybe_dmaybeSt;65 e_Data.Maybe_nmaybeSt;65 e_Data.Maybe_lmaybeSt;65 3 0 "maybeSt;65"
.a 0 ea66
.o 2 0 
e_Data.Maybe_lmaybeSt;65
	repl_args 2 2
.d 3 0 
	jmp ea66
.n 3 e_Data.Maybe_dmaybeSt;65 _
.o 1 0 
e_Data.Maybe_nmaybeSt;65
	push_node _cycle_in_spine 3
.d 3 0 
	jsr ea66
.o 1 0 
.d 1 0 
	fill_a01_pop_rtn 
.o 3 0 
ea66
	jsr_eval 2
.o 3 0 
e_Data.Maybe_smaybeSt;65
.o 3 0 
s66
s97
	jmp_ne_desc _None 0 2 case.14
	updatepop_a 0 2
	jmp_eval
case.14
	push_args 2 1 1
	buildh _Nil 0
	push_a 3
	updates2_a 3 1 5
	jsr_eval 0
	update_a 1 5
	update_a 2 4
	updatepop_a 0 3
	jmp_ap 2
.export e_Data.Maybe_smaybe;64
.descexp e_Data.Maybe_dmaybe;64 e_Data.Maybe_nmaybe;64 e_Data.Maybe_lmaybe;64 3 0 "maybe;64"
.a 0 ea65
.o 2 0 
e_Data.Maybe_lmaybe;64
	repl_args 2 2
.d 3 0 
	jmp ea65
.n 3 e_Data.Maybe_dmaybe;64 _
.o 1 0 
e_Data.Maybe_nmaybe;64
	push_node _cycle_in_spine 3
.d 3 0 
	jsr ea65
.o 1 0 
.d 1 0 
	fill_a01_pop_rtn 
.o 3 0 
e_Data.Maybe_smaybe;64
.o 3 0 
ea65
	jsr_eval 2
.o 3 0 
s65
.d 3 0 
	jmp s96
.export e_Data.Maybe_smaybe;63
.descexp e_Data.Maybe_dmaybe;63 e_Data.Maybe_nmaybe;63 e_Data.Maybe_lmaybe;63 3 0 "maybe;63"
.a 0 ea64
.o 2 0 
e_Data.Maybe_lmaybe;63
	repl_args 2 2
.d 3 0 
	jmp ea64
.n 3 e_Data.Maybe_dmaybe;63 _
.o 1 0 
e_Data.Maybe_nmaybe;63
	push_node _cycle_in_spine 3
.d 3 0 
	jsr ea64
.o 1 0 
.d 1 0 
	fill_a01_pop_rtn 
.o 3 0 
e_Data.Maybe_smaybe;63
.o 3 0 
ea64
	jsr_eval 2
.o 3 0 
s64
.d 3 0 
	jmp s94
.export e_Data.Maybe_sfail;61
.export e_Data.Maybe_eafail;61
.descexp e_Data.Maybe_dfail;61 e_Data.Maybe_nfail;61 e_Data.Maybe_lfail;61 2 0 "fail;61"
.o 2 0 
e_Data.Maybe_ifail;61
	repl_args 1 1
	create 
	jsr_eval 1
	push_r_args 1 2 0
	update_a 4 3
	updates3pop_a 0 1 2 4
.d 4 0 
	jmp s62
.ai 2 e_Data.Maybe_eafail;61 e_Data.Maybe_ifail;61
.o 2 0 
e_Data.Maybe_lfail;61
	push_args 0 1 1
	update_a 2 1
	create 
.d 3 0 
	put_a_jmp 3 e_Data.Maybe_eafail;61
.n 2 e_Data.Maybe_dfail;61 e_Data.Maybe_eafail;61
.o 1 0 
e_Data.Maybe_nfail;61
	push_node _cycle_in_spine 2
.o 3 0 
e_Data.Maybe_eafail;61
	jsr_eval 0
	repl_r_args 2 0
.o 4 0 
e_Data.Maybe_sfail;61
.o 4 0 
s62
	push_a2 2 0
	buildh0_put_a _Nil 5
.d 2 0 
	jsr_i 1
.o 1 0 
	push_r_args 2 2 0
	update3pop_a 0 3
.d 4 0 
	jmp s63
.export e_Data.Maybe_sliftT;62
.export e_Data.Maybe_ealiftT;62
.descexp e_Data.Maybe_dliftT;62 e_Data.Maybe_nliftT;62 e_Data.Maybe_lliftT;62 2 0 "liftT;62"
.o 4 0 
e_Data.Maybe_iliftT;62
	pop_a 1
	create 
	jsr_eval 3
	push_update_a 1 2
	updates3pop_a 0 1 4 3
.d 4 0 
	jmp s63
.ai 2 e_Data.Maybe_ealiftT;62 e_Data.Maybe_iliftT;62
.o 2 0 
e_Data.Maybe_lliftT;62
	push_args 0 1 1
	update_a 2 1
	create 
.d 3 0 
	put_a_jmp 3 e_Data.Maybe_ealiftT;62
.n 2 e_Data.Maybe_dliftT;62 e_Data.Maybe_ealiftT;62
.o 1 0 
e_Data.Maybe_nliftT;62
	push_node _cycle_in_spine 2
.o 3 0 
e_Data.Maybe_ealiftT;62
	jsr_eval 1
	jsr_eval 0
	repl_r_args 2 0
.o 4 0 
e_Data.Maybe_sliftT;62
.o 4 0 
s63
	push_a 2
	buildh _Justs 0
	push_r_args 3 3 0
	update2_a 3 6
	updatepop_a 0 5
.d 3 0 
	jsr_i 2
.o 1 0 
	fill_r e_Data.Maybe_kMaybeT 1 0 1 0 0
.d 1 0 
	pop_a_rtn 1
.export e_Data.Maybe_sbind;60
.export e_Data.Maybe_eabind;60
.descexp e_Data.Maybe_dbind;60 e_Data.Maybe_nbind;60 e_Data.Maybe_lbind;60 3 0 "bind;60"
.o 3 0 
e_Data.Maybe_ibind;60
	repl_args 1 1
	create 
	jsr_eval 1
	push_r_args 1 2 0
	updates2_a 5 4 3
	updates3pop_a 0 1 2 5
.d 5 0 
	jmp s61
.ai 3 e_Data.Maybe_eabind;60 e_Data.Maybe_ibind;60
.o 2 0 
e_Data.Maybe_lbind;60
	push_args 0 2 2
	update_a 3 2
	create 
.d 4 0 
	put_a_jmp 4 e_Data.Maybe_eabind;60
.n 3 e_Data.Maybe_dbind;60 e_Data.Maybe_eabind;60
.o 1 0 
e_Data.Maybe_nbind;60
	push_node _cycle_in_spine 3
.o 4 0 
e_Data.Maybe_eabind;60
	jsr_eval 1
	jsr_eval 0
	repl_r_args 2 0
.o 5 0 
e_Data.Maybe_sbind;60
.o 5 0 
s61
	push_a 1
	repl_r_args_a 3 0 2 1
.impmod Control.Applicative
.impdesc e_Control.Applicative_rpure;
	buildhr e_Control.Applicative_rpure; 1 0
	push_update_a 0 4
	buildh e_Data.Maybe_d\;222;25;83.84 2
	push_a 3
	buildh0_dup2_a _Nil 5
.d 1 0 
	pop_a_jsr 1 s4
.o 1 0 
	update2_a 0 4
	updatepop_a 2 3
.d 3 0 
	jsr_i 2
.o 1 0 
	fill_r e_Data.Maybe_kMaybeT 1 0 1 0 0
.d 1 0 
	pop_a_rtn 1
.export e_Data.Maybe_d\;222;25;83.84
.desc e_Data.Maybe_d\;222;25;83.84 _hnf l84 3 0 "\;222;25;83.84"
.a 0 ea84
.o 2 0 
l84
	repl_args 2 2
.o 3 0 
ea84
	jsr_eval 2
	repl_r_args 1 0
.o 3 0 
s84
	push_a 2
	update3pop_a 0 1
s106
	jmp_ne_desc _None 0 0 case.16
	buildh0_dup_a _None 3
	pop_a 2
.d 2 0 
	jmp_i 1
case.16
	repl_args 1 1
	push_jsr_eval 2
	update2pop_a 0 2
	jsr_ap 1
.d 1 0 
	jmp s4
.export e_Data.Maybe_sempty;59
.export e_Data.Maybe_eaempty;59
.descexp e_Data.Maybe_dempty;59 e_Data.Maybe_nempty;59 e_Data.Maybe_lempty;59 1 0 "empty;59"
.o 1 0 
e_Data.Maybe_iempty;59
	repl_args 1 1
	create 
	jsr_eval 1
	push_r_args 1 2 0
	update3pop_a 0 1
.d 3 0 
	jmp s60
.ai 1 _ e_Data.Maybe_iempty;59
.o 2 0 
e_Data.Maybe_lempty;59
	update_a 1 0
	create 
.d 2 0 
	put_a_jmp 2 e_Data.Maybe_eaempty;59
.n 1 e_Data.Maybe_dempty;59 e_Data.Maybe_eaempty;59
.o 1 0 
e_Data.Maybe_nempty;59
	push_node _cycle_in_spine 1
.o 2 0 
e_Data.Maybe_eaempty;59
	jsr_eval 0
	repl_r_args 2 0
.o 3 0 
e_Data.Maybe_sempty;59
.o 3 0 
s60
	buildh _None 0
	push_r_args 2 3 0
	update_a 3 5
	updatepop_a 1 4
.d 2 0 
	jsr_i 1
.o 1 0 
	fill_r e_Data.Maybe_kMaybeT 1 0 1 0 0
.d 1 0 
	pop_a_rtn 1
.export e_Data.Maybe_s<|>;58
.export e_Data.Maybe_ea<|>;58
.descexp e_Data.Maybe_d<|>;58 e_Data.Maybe_n<|>;58 e_Data.Maybe_l<|>;58 3 0 "<|>;58"
.o 3 0 
e_Data.Maybe_i<|>;58
	repl_args 1 1
	create 
	jsr_eval 1
	push_r_args 1 2 0
	updates2_a 5 4 3
	updates3pop_a 0 1 2 5
.d 5 0 
	jmp s59
.ai 3 e_Data.Maybe_ea<|>;58 e_Data.Maybe_i<|>;58
.o 2 0 
e_Data.Maybe_l<|>;58
	push_args 0 2 2
	update_a 3 2
	create 
.d 4 0 
	put_a_jmp 4 e_Data.Maybe_ea<|>;58
.n 3 e_Data.Maybe_d<|>;58 e_Data.Maybe_ea<|>;58
.o 1 0 
e_Data.Maybe_n<|>;58
	push_node _cycle_in_spine 3
.o 4 0 
e_Data.Maybe_ea<|>;58
	jsr_eval 1
	jsr_eval 0
	repl_r_args 2 0
.o 5 0 
e_Data.Maybe_s<|>;58
.o 5 0 
s59
	push_a 1
	repl_r_args_a 3 0 2 1
	buildhr e_Control.Applicative_rpure; 1 0
	push_update_a 0 4
	buildh e_Data.Maybe_d\;215;25;82.83 2
	push_a 3
	buildh0_dup2_a _Nil 5
.d 1 0 
	pop_a_jsr 1 s4
.o 1 0 
	update2_a 0 4
	updatepop_a 2 3
.d 3 0 
	jsr_i 2
.o 1 0 
	fill_r e_Data.Maybe_kMaybeT 1 0 1 0 0
.d 1 0 
	pop_a_rtn 1
.export e_Data.Maybe_d\;215;25;82.83
.desc e_Data.Maybe_d\;215;25;82.83 _hnf l83 3 0 "\;215;25;82.83"
.a 0 ea83
.o 2 0 
l83
	repl_args 2 2
.o 3 0 
ea83
	jsr_eval 2
	repl_r_args 1 0
.o 3 0 
s83
	swap_a 2
s105
	jmp_ne_desc _None 0 0 case.18
	push_jsr_eval 1
	updatepop_a 0 3
.d 1 0 
	jmp s4
case.18
	updates2_a_pop_a 0 2 1 1
.d 2 0 
	jmp_i 1
.export e_Data.Maybe_s<*>;57
.export e_Data.Maybe_ea<*>;57
.descexp e_Data.Maybe_d<*>;57 e_Data.Maybe_n<*>;57 e_Data.Maybe_l<*>;57 3 0 "<*>;57"
.o 3 0 
e_Data.Maybe_i<*>;57
	repl_args 1 1
	create 
	jsr_eval 1
	push_r_args 1 2 0
	updates2_a 5 4 3
	updates3pop_a 0 1 2 5
.d 5 0 
	jmp s58
.ai 3 e_Data.Maybe_ea<*>;57 e_Data.Maybe_i<*>;57
.o 2 0 
e_Data.Maybe_l<*>;57
	push_args 0 2 2
	update_a 3 2
	create 
.d 4 0 
	put_a_jmp 4 e_Data.Maybe_ea<*>;57
.n 3 e_Data.Maybe_d<*>;57 e_Data.Maybe_ea<*>;57
.o 1 0 
e_Data.Maybe_n<*>;57
	push_node _cycle_in_spine 3
.o 4 0 
e_Data.Maybe_ea<*>;57
	jsr_eval 1
	jsr_eval 0
	repl_r_args 2 0
.o 5 0 
e_Data.Maybe_s<*>;57
.o 5 0 
s58
.impmod Control.Monad
.impdesc e_Control.Monad_rMonad;
	build_r e_Control.Monad_rMonad; 2 0 0 0
	push_update_a 0 4
	buildh e_Data.Maybe_d\;202;26;81.82 2
	push_a 3
	buildh0_dup2_a _Nil 5
.d 1 0 
	pop_a_jsr 1 s4
.o 1 0 
	update2_a 0 4
	updatepop_a 2 3
.d 3 0 
	jsr_i 2
.o 1 0 
	fill_r e_Data.Maybe_kMaybeT 1 0 1 0 0
.d 1 0 
	pop_a_rtn 1
.export e_Data.Maybe_d\;202;26;81.82
.desc e_Data.Maybe_d\;202;26;81.82 _hnf l82 3 0 "\;202;26;81.82"
.a 0 ea82
.o 2 0 
l82
	repl_args 2 2
.o 3 0 
ea82
	jsr_eval 2
	repl_r_args 2 0
.o 4 0 
s82
	push_update_a 3 2
	update3pop_a 0 1
s104
	jmp_ne_desc _None 0 0 case.20
	buildh _None 0
	push_r_args 3 3 0
	update_a 3 7
	updatepop_a 1 6
.d 2 0 
	jmp_i 1
case.20
	repl_args 1 1
	push_a 2
	repl_r_args_a 3 0 2 1
	buildhr e_Control.Applicative_rpure; 1 0
	push_update_a 0 1
	buildh e_Data.Maybe_d\;206;34;80.81 2
	push_jsr_eval 4
	buildh0_dup_a _Nil 6
	put_a 3
.d 1 0 
	jsr s4
.o 1 0 
	update2_a 0 4
	pop_a 3
.d 3 0 
	jmp_i 2
.export e_Data.Maybe_d\;206;34;80.81
.desc e_Data.Maybe_d\;206;34;80.81 _hnf l81 3 0 "\;206;34;80.81"
.a 0 ea81
.o 2 0 
l81
	repl_args 2 2
.o 3 0 
ea81
	jsr_eval 2
	repl_r_args 1 0
.o 3 0 
s81
	push_a 2
	update3pop_a 0 1
s103
	jmp_ne_desc _None 0 0 case.22
	buildh0_dup_a _None 3
	pop_a 2
.d 2 0 
	jmp_i 1
case.22
	repl_args 1 1
	push_a2 0 2
	build e_Data.Maybe_d_f7.148 2 e_Data.Maybe_n_f7.148
	dup_a 3
	pop_a 2
.d 2 0 
	jmp_i 1
.export e_Data.Maybe_d_f7.148
.export e_Data.Maybe_n_f7.148
.descn e_Data.Maybe_d_f7.148 e_Data.Maybe_n_f7.148 2 0 "_f7.148"
.n 2 e_Data.Maybe_d_f7.148 ea148
.o 1 0 
e_Data.Maybe_n_f7.148
	push_node _cycle_in_spine 2
.o 3 0 
ea148
.o 3 0 
s148
	jsr_eval 0
	jsr_ap 1
	fillh _Just 1 1
.d 1 0 
	rtn 
.export e_Data.Maybe_spure;56
.export e_Data.Maybe_eapure;56
.descexp e_Data.Maybe_dpure;56 e_Data.Maybe_npure;56 e_Data.Maybe_lpure;56 2 0 "pure;56"
.o 2 0 
e_Data.Maybe_ipure;56
	repl_args 1 1
	create 
	jsr_eval 1
	push_r_args 1 1 0
	updates3pop_a 0 1 3 2
.d 3 0 
	jmp s57
.ai 2 e_Data.Maybe_eapure;56 e_Data.Maybe_ipure;56
.o 2 0 
e_Data.Maybe_lpure;56
	push_args 0 1 1
	update_a 2 1
	create 
.d 3 0 
	put_a_jmp 3 e_Data.Maybe_eapure;56
.n 2 e_Data.Maybe_dpure;56 e_Data.Maybe_eapure;56
.o 1 0 
e_Data.Maybe_npure;56
	push_node _cycle_in_spine 2
.o 3 0 
e_Data.Maybe_eapure;56
	jsr_eval 0
	repl_r_args 1 0
.o 3 0 
e_Data.Maybe_spure;56
.o 3 0 
s57
	buildo1 n_Justs 1
	put_a 2
.d 2 0 
	jsr_i 1
.o 1 0 
	fill_r e_Data.Maybe_kMaybeT 1 0 1 0 0
.d 1 0 
	pop_a_rtn 1
.export e_Data.Maybe_sfmap;55
.export e_Data.Maybe_eafmap;55
.descexp e_Data.Maybe_dfmap;55 e_Data.Maybe_nfmap;55 e_Data.Maybe_lfmap;55 3 0 "fmap;55"
.o 3 0 
e_Data.Maybe_ifmap;55
	repl_args 1 1
	create 
	jsr_eval 3
	jsr_eval 1
	push_r_args 1 1 0
	update_a 3 2
	updates3pop_a 0 1 4 3
.d 4 0 
	jmp s56
.ai 3 e_Data.Maybe_eafmap;55 e_Data.Maybe_ifmap;55
.o 2 0 
e_Data.Maybe_lfmap;55
	push_args 0 2 2
	update_a 3 2
	create 
.d 4 0 
	put_a_jmp 4 e_Data.Maybe_eafmap;55
.n 3 e_Data.Maybe_dfmap;55 e_Data.Maybe_eafmap;55
.o 1 0 
e_Data.Maybe_nfmap;55
	push_node _cycle_in_spine 3
.d 4 0 
	jmp e_Data.Maybe_eafmap;55
.o 4 0 
e_Data.Maybe_sfmap;55
	jsr_eval 2
.d 4 0 
	jmp s56
.o 4 0 
e_Data.Maybe_eafmap;55
	jsr_eval 2
	jsr_eval 0
	repl_r_args 1 0
.o 4 0 
s56
	push_a 1
	buildh e_Data.Maybe_dfmap;5 1
	put_a 2
	jsr_ap 1
.d 3 0 
	jmp s5
.export e_Data.Maybe_ssequence;52
.descexp e_Data.Maybe_dsequence;52 e_Data.Maybe_nsequence;52 e_Data.Maybe_lsequence;52 2 0 "sequence;52"
.o 4 0 
e_Data.Maybe_isequence;52
.d 3 0 
	pop_a_jmp 1 s53
.ai 0 ea53 e_Data.Maybe_isequence;52
.o 2 0 
e_Data.Maybe_lsequence;52
	repl_args 1 1
.d 2 0 
	jmp ea53
.n 2 e_Data.Maybe_dsequence;52 _
.o 1 0 
e_Data.Maybe_nsequence;52
	push_node _cycle_in_spine 2
.d 2 0 
	jsr ea53
.o 1 0 
.d 1 0 
	fill_a01_pop_rtn 
.o 2 0 
ea53
	jsr_eval 1
	jsr_eval 0
	repl_r_args 2 0
.o 3 0 
e_Data.Maybe_ssequence;52
.o 3 0 
s53
	push_r_args 1 3 0
	update3pop_a 0 2
.d 4 0 
	jmp s54
.export e_Data.Maybe_ssequenceA;53
.descexp e_Data.Maybe_dsequenceA;53 e_Data.Maybe_nsequenceA;53 e_Data.Maybe_lsequenceA;53 2 0 "sequenceA;53"
.o 5 0 
e_Data.Maybe_isequenceA;53
.d 4 0 
	pop_a_jmp 1 s54
.ai 0 ea54 e_Data.Maybe_isequenceA;53
.o 2 0 
e_Data.Maybe_lsequenceA;53
	repl_args 1 1
.d 2 0 
	jmp ea54
.n 2 e_Data.Maybe_dsequenceA;53 _
.o 1 0 
e_Data.Maybe_nsequenceA;53
	push_node _cycle_in_spine 2
.d 2 0 
	jsr ea54
.o 1 0 
.d 1 0 
	fill_a01_pop_rtn 
.o 2 0 
ea54
	jsr_eval 1
	jsr_eval 0
	repl_r_args 3 0
.o 4 0 
e_Data.Maybe_ssequenceA;53
.o 4 0 
s54
	buildh e_Data.Maybe_d\;104;29;88.88 0
	push_update_a 1 2
	updates3pop_a 0 1 4 3
.d 5 0 
	jmp s55
.export e_Data.Maybe_d\;104;29;88.88
.desc e_Data.Maybe_d\;104;29;88.88 _hnf l88 1 0 "\;104;29;88.88"
.o 2 0 
l88
	pop_a 1
.o 1 0 
ea88
	jsr_eval 0
.o 1 0 
s88
.d 1 0 
	rtn 
.export e_Data.Maybe_smapM;51
.descexp e_Data.Maybe_dmapM;51 e_Data.Maybe_nmapM;51 e_Data.Maybe_lmapM;51 3 0 "mapM;51"
.o 5 0 
e_Data.Maybe_imapM;51
.d 4 0 
	pop_a_jmp 1 s52
.ai 0 ea52 e_Data.Maybe_imapM;51
.o 2 0 
e_Data.Maybe_lmapM;51
	repl_args 2 2
.d 3 0 
	jmp ea52
.n 3 e_Data.Maybe_dmapM;51 _
.o 1 0 
e_Data.Maybe_nmapM;51
	push_node _cycle_in_spine 3
.d 3 0 
	jsr ea52
.o 1 0 
.d 1 0 
	fill_a01_pop_rtn 
.o 3 0 
ea52
	jsr_eval 2
	jsr_eval 0
	repl_r_args 2 0
.o 4 0 
e_Data.Maybe_smapM;51
.o 4 0 
s52
	push_r_args 1 3 0
	update3pop_a 0 2
.d 5 0 
	jmp s55
.export e_Data.Maybe_straverse;54
.descexp e_Data.Maybe_dtraverse;54 e_Data.Maybe_ntraverse;54 e_Data.Maybe_ltraverse;54 3 0 "traverse;54"
.o 6 0 
e_Data.Maybe_itraverse;54
.d 5 0 
	pop_a_jmp 1 s55
.ai 0 ea55 e_Data.Maybe_itraverse;54
.o 2 0 
e_Data.Maybe_ltraverse;54
	repl_args 2 2
.d 3 0 
	jmp ea55
.n 3 e_Data.Maybe_dtraverse;54 _
.o 1 0 
e_Data.Maybe_ntraverse;54
	push_node _cycle_in_spine 3
.d 3 0 
	jsr ea55
.o 1 0 
.d 1 0 
	fill_a01_pop_rtn 
.o 3 0 
ea55
	jsr_eval 2
	jsr_eval 0
	repl_r_args 3 0
.o 5 0 
e_Data.Maybe_straverse;54
.o 5 0 
s55
	jmp_ne_desc _None 0 4 case.24
	buildh0_dup_a _None 5
	updatepop_a 2 4
.d 2 0 
	jmp_i 1
case.24
	push_args 4 1 1
	buildh _Nil 0
	push_a 5
	updates2_a 2 1 7
	build e_system_dAP 2 e_system_nAP
	dup_a 6
	buildh0_dup_a _Just 6
	updatepop_a 3 5
.d 3 0 
	jmp_i 2
.export e_Data.Maybe_ssequence;48
.descexp e_Data.Maybe_dsequence;48 e_Data.Maybe_nsequence;48 e_Data.Maybe_lsequence;48 2 0 "sequence;48"
.o 4 0 
e_Data.Maybe_isequence;48
.d 3 0 
	pop_a_jmp 1 s49
.ai 0 ea49 e_Data.Maybe_isequence;48
.o 2 0 
e_Data.Maybe_lsequence;48
	repl_args 1 1
.d 2 0 
	jmp ea49
.n 2 e_Data.Maybe_dsequence;48 _
.o 1 0 
e_Data.Maybe_nsequence;48
	push_node _cycle_in_spine 2
.d 2 0 
	jsr ea49
.o 1 0 
.d 1 0 
	fill_a01_pop_rtn 
.o 2 0 
ea49
	jsr_eval 1
	jsr_eval 0
	repl_r_args 2 0
.o 3 0 
e_Data.Maybe_ssequence;48
.o 3 0 
s49
	push_r_args 1 3 0
	update3pop_a 0 2
.d 4 0 
	jmp s50
.export e_Data.Maybe_ssequenceA;49
.descexp e_Data.Maybe_dsequenceA;49 e_Data.Maybe_nsequenceA;49 e_Data.Maybe_lsequenceA;49 2 0 "sequenceA;49"
.o 5 0 
e_Data.Maybe_isequenceA;49
.d 4 0 
	pop_a_jmp 1 s50
.ai 0 ea50 e_Data.Maybe_isequenceA;49
.o 2 0 
e_Data.Maybe_lsequenceA;49
	repl_args 1 1
.d 2 0 
	jmp ea50
.n 2 e_Data.Maybe_dsequenceA;49 _
.o 1 0 
e_Data.Maybe_nsequenceA;49
	push_node _cycle_in_spine 2
.d 2 0 
	jsr ea50
.o 1 0 
.d 1 0 
	fill_a01_pop_rtn 
.o 2 0 
ea50
	jsr_eval 1
	jsr_eval 0
	repl_r_args 3 0
.o 4 0 
e_Data.Maybe_ssequenceA;49
.o 4 0 
s50
	buildh e_Data.Maybe_d\;104;29;87.87 0
	push_update_a 1 2
	updates3pop_a 0 1 4 3
.d 5 0 
	jmp s51
.export e_Data.Maybe_d\;104;29;87.87
.desc e_Data.Maybe_d\;104;29;87.87 _hnf l87 1 0 "\;104;29;87.87"
.o 2 0 
l87
	pop_a 1
.o 1 0 
ea87
	jsr_eval 0
.o 1 0 
s87
.d 1 0 
	rtn 
.export e_Data.Maybe_smapM;47
.descexp e_Data.Maybe_dmapM;47 e_Data.Maybe_nmapM;47 e_Data.Maybe_lmapM;47 3 0 "mapM;47"
.o 5 0 
e_Data.Maybe_imapM;47
.d 4 0 
	pop_a_jmp 1 s48
.ai 0 ea48 e_Data.Maybe_imapM;47
.o 2 0 
e_Data.Maybe_lmapM;47
	repl_args 2 2
.d 3 0 
	jmp ea48
.n 3 e_Data.Maybe_dmapM;47 _
.o 1 0 
e_Data.Maybe_nmapM;47
	push_node _cycle_in_spine 3
.d 3 0 
	jsr ea48
.o 1 0 
.d 1 0 
	fill_a01_pop_rtn 
.o 3 0 
ea48
	jsr_eval 2
	jsr_eval 0
	repl_r_args 2 0
.o 4 0 
e_Data.Maybe_smapM;47
.o 4 0 
s48
	push_r_args 1 3 0
	update3pop_a 0 2
.d 5 0 
	jmp s51
.export e_Data.Maybe_straverse;50
.descexp e_Data.Maybe_dtraverse;50 e_Data.Maybe_ntraverse;50 e_Data.Maybe_ltraverse;50 3 0 "traverse;50"
.o 6 0 
e_Data.Maybe_itraverse;50
.d 5 0 
	pop_a_jmp 1 s51
.ai 0 ea51 e_Data.Maybe_itraverse;50
.o 2 0 
e_Data.Maybe_ltraverse;50
	repl_args 2 2
.d 3 0 
	jmp ea51
.n 3 e_Data.Maybe_dtraverse;50 _
.o 1 0 
e_Data.Maybe_ntraverse;50
	push_node _cycle_in_spine 3
.d 3 0 
	jsr ea51
.o 1 0 
.d 1 0 
	fill_a01_pop_rtn 
.o 3 0 
ea51
	jsr_eval 2
	jsr_eval 0
	repl_r_args 3 0
.o 5 0 
e_Data.Maybe_straverse;50
.o 5 0 
s51
	jmp_ne_desc _None 0 4 case.26
	buildh0_dup_a _None 5
	updatepop_a 2 4
.d 2 0 
	jmp_i 1
case.26
	push_args 4 1 1
	buildh _Nil 0
	push_a 5
	updates2_a 2 1 7
	build e_system_dAP 2 e_system_nAP
	dup_a 6
	buildh0_dup_a _Justs 6
	updatepop_a 3 5
.d 3 0 
	jmp_i 2
.export e_Data.Maybe_sfoldr`;46
.descexp e_Data.Maybe_dfoldr`;46 e_Data.Maybe_nfoldr`;46 e_Data.Maybe_lfoldr`;46 3 0 "foldr`;46"
.o 4 0 
e_Data.Maybe_ifoldr`;46
.d 3 0 
	pop_a_jmp 1 s47
.ai 0 ea47 e_Data.Maybe_ifoldr`;46
.o 2 0 
e_Data.Maybe_lfoldr`;46
	repl_args 2 2
.d 3 0 
	jmp ea47
.n 3 e_Data.Maybe_dfoldr`;46 _
.o 1 0 
e_Data.Maybe_nfoldr`;46
	push_node _cycle_in_spine 3
.d 3 0 
	jsr ea47
.o 1 0 
.d 1 0 
	fill_a01_pop_rtn 
.o 3 0 
ea47
	jsr_eval 2
	jsr_eval 1
.o 3 0 
e_Data.Maybe_sfoldr`;46
.o 3 0 
s47
	buildh e_StdFunctions_did 0
	push_a 1
	buildh e_Data.Maybe_df`;76.77 1
	update2_a 0 1
	exchange_a 4 3
.d 3 0 
	pop_a_jsr 1 s42
.o 1 0 
	jmp_ap 1
.export e_Data.Maybe_df`;76.77
.desc e_Data.Maybe_df`;76.77 _hnf l77 4 0 "f`;76.77"
.a 0 ea77
.o 2 0 
l77
	repl_args 3 3
.o 4 0 
ea77
	jsr_eval 1
.o 4 0 
s77
	push2_a 3
	push_a 2
	build e_Data.Maybe_d_f6.147 3 e_Data.Maybe_n_f6.147
	dup_a 4
	updatepop_a 2 3
	jmp_ap 1
.export e_Data.Maybe_d_f6.147
.export e_Data.Maybe_n_f6.147
.descn e_Data.Maybe_d_f6.147 e_Data.Maybe_n_f6.147 3 0 "_f6.147"
.n 3 e_Data.Maybe_d_f6.147 ea147
.o 1 0 
e_Data.Maybe_n_f6.147
	push_node _cycle_in_spine 3
.o 4 0 
ea147
.o 4 0 
s147
	push_a2 2 0
	jsr_eval 0
	update_a 1 4
	updatepop_a 0 2
	jsr_ap 2
.d 1 0 
	fill_a01_pop_rtn 
.export e_Data.Maybe_sfoldr1;45
.descexp e_Data.Maybe_dfoldr1;45 e_Data.Maybe_nfoldr1;45 e_Data.Maybe_lfoldr1;45 2 0 "foldr1;45"
.o 3 0 
e_Data.Maybe_ifoldr1;45
.d 2 0 
	pop_a_jmp 1 s46
.ai 0 ea46 e_Data.Maybe_ifoldr1;45
.o 2 0 
e_Data.Maybe_lfoldr1;45
	repl_args 1 1
.d 2 0 
	jmp ea46
.n 2 e_Data.Maybe_dfoldr1;45 _
.o 1 0 
e_Data.Maybe_nfoldr1;45
	push_node _cycle_in_spine 2
.d 2 0 
	jsr ea46
.o 1 0 
.d 1 0 
	fill_a01_pop_rtn 
.o 2 0 
ea46
	jsr_eval 1
	jsr_eval 0
.o 2 0 
e_Data.Maybe_sfoldr1;45
.o 2 0 
s46
	buildh _None 0
	push_a 1
	buildh e_Data.Maybe_dmf;78.79 1
	update2pop_a 0 1
.d 3 0 
	jsr s45
.o 1 0 
	buildAC "foldr1: empty structure"
	buildh ARRAY 1
	build e_StdMisc_dabort 1 e_StdMisc_nabort
.d 2 0 
	jmp s95
.export e_Data.Maybe_dmf;78.79
.desc e_Data.Maybe_dmf;78.79 _hnf l79 3 0 "mf;78.79"
.a 3 ea79
.o 2 0 
l79
	push_args 0 2 2
	update_a 3 2
	create 
	put_a 4
.o 4 0 
ea79
	jsr_eval 2
.o 4 0 
s79
	jmp_ne_desc _None 0 2 case.28
	push_a 1
	fillh _Just 1 4
.d 1 0 
	pop_a_rtn 3
case.28
	push_args 2 1 1
	buildh _Nil 0
	push2_a 3
	updates2_a 3 2 6
	build e_Data.Maybe_d_f5.146 3 e_Data.Maybe_n_f5.146
	fillh _Just 1 5
.d 1 0 
	pop_a_rtn 4
.export e_Data.Maybe_d_f5.146
.export e_Data.Maybe_n_f5.146
.descn e_Data.Maybe_d_f5.146 e_Data.Maybe_n_f5.146 3 0 "_f5.146"
.n 3 e_Data.Maybe_d_f5.146 ea146
.o 1 0 
e_Data.Maybe_n_f5.146
	push_node _cycle_in_spine 3
.o 4 0 
ea146
.o 4 0 
s146
	push_a2 2 0
	jsr_eval 0
	update_a 1 4
	updatepop_a 0 2
	jsr_ap 2
.d 1 0 
	fill_a01_pop_rtn 
.export e_Data.Maybe_sfoldl`;43
.descexp e_Data.Maybe_dfoldl`;43 e_Data.Maybe_nfoldl`;43 e_Data.Maybe_lfoldl`;43 3 0 "foldl`;43"
.o 4 0 
e_Data.Maybe_ifoldl`;43
.d 3 0 
	pop_a_jmp 1 s44
.ai 0 ea44 e_Data.Maybe_ifoldl`;43
.o 2 0 
e_Data.Maybe_lfoldl`;43
	repl_args 2 2
.d 3 0 
	jmp ea44
.n 3 e_Data.Maybe_dfoldl`;43 _
.o 1 0 
e_Data.Maybe_nfoldl`;43
	push_node _cycle_in_spine 3
.d 3 0 
	jsr ea44
.o 1 0 
.d 1 0 
	fill_a01_pop_rtn 
.o 3 0 
ea44
	jsr_eval 2
	jsr_eval 1
.o 3 0 
e_Data.Maybe_sfoldl`;43
.o 3 0 
s44
	buildh e_StdFunctions_did 0
	push_a 1
	buildh e_Data.Maybe_df`;77.78 1
	update2_a 0 1
	exchange_a 4 3
.d 3 0 
	pop_a_jsr 1 s45
.o 1 0 
	jmp_ap 1
.export e_Data.Maybe_df`;77.78
.desc e_Data.Maybe_df`;77.78 _hnf l78 4 0 "f`;77.78"
.a 0 ea78
.o 2 0 
l78
	repl_args 3 3
.o 4 0 
ea78
	jsr_eval 2
.o 4 0 
s78
	push_a2 1 3
	push_a 2
	build e_Data.Maybe_d_f4.145 3 e_Data.Maybe_n_f4.145
	dup_a 4
	pop_a 3
	jmp_ap 1
.export e_Data.Maybe_d_f4.145
.export e_Data.Maybe_n_f4.145
.descn e_Data.Maybe_d_f4.145 e_Data.Maybe_n_f4.145 3 0 "_f4.145"
.n 3 e_Data.Maybe_d_f4.145 ea145
.o 1 0 
e_Data.Maybe_n_f4.145
	push_node _cycle_in_spine 3
.o 4 0 
ea145
.o 4 0 
s145
	push_a2 2 0
	jsr_eval 0
	update_a 1 4
	updatepop_a 0 2
	jsr_ap 2
.d 1 0 
	fill_a01_pop_rtn 
.export e_Data.Maybe_sfoldl1;42
.descexp e_Data.Maybe_dfoldl1;42 e_Data.Maybe_nfoldl1;42 e_Data.Maybe_lfoldl1;42 2 0 "foldl1;42"
.o 3 0 
e_Data.Maybe_ifoldl1;42
.d 2 0 
	pop_a_jmp 1 s43
.ai 0 ea43 e_Data.Maybe_ifoldl1;42
.o 2 0 
e_Data.Maybe_lfoldl1;42
	repl_args 1 1
.d 2 0 
	jmp ea43
.n 2 e_Data.Maybe_dfoldl1;42 _
.o 1 0 
e_Data.Maybe_nfoldl1;42
	push_node _cycle_in_spine 2
.d 2 0 
	jsr ea43
.o 1 0 
.d 1 0 
	fill_a01_pop_rtn 
.o 2 0 
ea43
	jsr_eval 1
	jsr_eval 0
.o 2 0 
e_Data.Maybe_sfoldl1;42
.o 2 0 
s43
	buildh _None 0
	push_a 1
	buildh e_Data.Maybe_dmf;79.80 1
	update2pop_a 0 1
.d 3 0 
	jsr s42
.o 1 0 
	buildAC "foldl1: empty structure"
	buildh ARRAY 1
	build e_StdMisc_dabort 1 e_StdMisc_nabort
.d 2 0 
	jmp s95
.export e_Data.Maybe_dmf;79.80
.desc e_Data.Maybe_dmf;79.80 _hnf l80 3 0 "mf;79.80"
.a 3 ea80
.o 2 0 
l80
	push_args 0 2 2
	update_a 3 2
	create 
	put_a 4
.o 4 0 
ea80
	jsr_eval 1
.o 4 0 
s80
	jmp_ne_desc _None 0 1 case.30
	push_a 2
	fillh _Just 1 4
.d 1 0 
	pop_a_rtn 3
case.30
	push_args 1 1 1
	buildh _Nil 0
	push_a2 1 2
	updates2_a 6 2 5
	build e_Data.Maybe_d_f3.144 3 e_Data.Maybe_n_f3.144
	fillh _Just 1 5
.d 1 0 
	pop_a_rtn 4
.export e_Data.Maybe_d_f3.144
.export e_Data.Maybe_n_f3.144
.descn e_Data.Maybe_d_f3.144 e_Data.Maybe_n_f3.144 3 0 "_f3.144"
.n 3 e_Data.Maybe_d_f3.144 ea144
.o 1 0 
e_Data.Maybe_n_f3.144
	push_node _cycle_in_spine 3
.o 4 0 
ea144
.o 4 0 
s144
	push_a2 2 0
	jsr_eval 0
	update_a 1 4
	updatepop_a 0 2
	jsr_ap 2
.d 1 0 
	fill_a01_pop_rtn 
.o 2 0 
s95
	buildh e_StdFunctions_did 0
	swap_a1 
s96
	jmp_ne_desc _None 0 2 case.32
	updatepop_a 0 2
	jmp_eval
case.32
	push_args 2 1 1
	buildh _Nil 0
	updates2_a 3 0 4
	jsr_eval 0
	update2pop_a 0 3
	jmp_ap 1
.export e_Data.Maybe_sfoldl;41
.descexp e_Data.Maybe_dfoldl;41 e_Data.Maybe_nfoldl;41 e_Data.Maybe_lfoldl;41 3 0 "foldl;41"
.o 4 0 
e_Data.Maybe_ifoldl;41
.d 3 0 
	pop_a_jmp 1 s42
.ai 0 ea42 e_Data.Maybe_ifoldl;41
.o 2 0 
e_Data.Maybe_lfoldl;41
	repl_args 2 2
.d 3 0 
	jmp ea42
.n 3 e_Data.Maybe_dfoldl;41 _
.o 1 0 
e_Data.Maybe_nfoldl;41
	push_node _cycle_in_spine 3
.d 3 0 
	jsr ea42
.o 1 0 
.d 1 0 
	fill_a01_pop_rtn 
.o 3 0 
ea42
	jsr_eval 2
.o 3 0 
e_Data.Maybe_sfoldl;41
.o 3 0 
s42
	jmp_ne_desc _None 0 2 case.34
	updatepop_a 1 2
	jmp_eval
case.34
	push_args 2 1 1
	buildh _Nil 0
	push_a 2
	updates2_a 2 1 5
	jsr_eval 0
	update_a 1 5
	updatepop_a 0 3
	jmp_ap 2
.export e_Data.Maybe_sfold;39
.descexp e_Data.Maybe_dfold;39 e_Data.Maybe_nfold;39 e_Data.Maybe_lfold;39 2 0 "fold;39"
.o 4 0 
e_Data.Maybe_ifold;39
.d 3 0 
	pop_a_jmp 1 s40
.ai 0 ea40 e_Data.Maybe_ifold;39
.o 2 0 
e_Data.Maybe_lfold;39
	repl_args 1 1
.d 2 0 
	jmp ea40
.n 2 e_Data.Maybe_dfold;39 _
.o 1 0 
e_Data.Maybe_nfold;39
	push_node _cycle_in_spine 2
.d 2 0 
	jsr ea40
.o 1 0 
.d 1 0 
	fill_a01_pop_rtn 
.o 2 0 
ea40
	jsr_eval 1
	jsr_eval 0
	repl_r_args 2 0
.o 3 0 
e_Data.Maybe_sfold;39
.o 3 0 
s40
	buildh e_StdFunctions_did 0
	push_a 1
	updates3pop_a 0 1 3 2
.d 4 0 
	jmp s41
.export e_Data.Maybe_sfoldMap;40
.descexp e_Data.Maybe_dfoldMap;40 e_Data.Maybe_nfoldMap;40 e_Data.Maybe_lfoldMap;40 3 0 "foldMap;40"
.o 5 0 
e_Data.Maybe_ifoldMap;40
.d 4 0 
	pop_a_jmp 1 s41
.ai 0 ea41 e_Data.Maybe_ifoldMap;40
.o 2 0 
e_Data.Maybe_lfoldMap;40
	repl_args 2 2
.d 3 0 
	jmp ea41
.n 3 e_Data.Maybe_dfoldMap;40 _
.o 1 0 
e_Data.Maybe_nfoldMap;40
	push_node _cycle_in_spine 3
.d 3 0 
	jsr ea41
.o 1 0 
.d 1 0 
	fill_a01_pop_rtn 
.o 3 0 
ea41
	jsr_eval 2
	jsr_eval 0
	repl_r_args 2 0
.o 4 0 
e_Data.Maybe_sfoldMap;40
.o 4 0 
s41
	push_a 0
	buildho2 e_Data.Maybe_d\;15;13;86.86 2 3
	update2pop_a 0 3
.d 3 0 
	jmp s45
.export e_Data.Maybe_d\;15;13;86.86
.desc e_Data.Maybe_d\;15;13;86.86 _hnf l86 3 0 "\;15;13;86.86"
.a 0 ea86
.o 2 0 
l86
	repl_args 2 2
.o 3 0 
ea86
.o 3 0 
s86
	push2_a 2
	build e_system_dAP 2 e_system_nAP
	dup_a 3
	updatepop_a 1 2
	jmp_ap 1
.export e_Data.Maybe_sfoldr;44
.descexp e_Data.Maybe_dfoldr;44 e_Data.Maybe_nfoldr;44 e_Data.Maybe_lfoldr;44 3 0 "foldr;44"
.o 4 0 
e_Data.Maybe_ifoldr;44
.d 3 0 
	pop_a_jmp 1 s45
.ai 0 ea45 e_Data.Maybe_ifoldr;44
.o 2 0 
e_Data.Maybe_lfoldr;44
	repl_args 2 2
.d 3 0 
	jmp ea45
.n 3 e_Data.Maybe_dfoldr;44 _
.o 1 0 
e_Data.Maybe_nfoldr;44
	push_node _cycle_in_spine 3
.d 3 0 
	jsr ea45
.o 1 0 
.d 1 0 
	fill_a01_pop_rtn 
.o 3 0 
ea45
	jsr_eval 2
.o 3 0 
e_Data.Maybe_sfoldr;44
.o 3 0 
s45
	jmp_ne_desc _None 0 2 case.36
	updatepop_a 1 2
	jmp_eval
case.36
	push_args 2 1 1
	buildh _Nil 0
	push_a 2
	updates2_a 4 1 5
	jsr_eval 0
	update_a 1 5
	update_a 2 4
	updatepop_a 0 3
	jmp_ap 2
.export e_Data.Maybe_sfoldr`;38
.descexp e_Data.Maybe_dfoldr`;38 e_Data.Maybe_nfoldr`;38 e_Data.Maybe_lfoldr`;38 3 0 "foldr`;38"
.o 4 0 
e_Data.Maybe_ifoldr`;38
.d 3 0 
	pop_a_jmp 1 s39
.ai 0 ea39 e_Data.Maybe_ifoldr`;38
.o 2 0 
e_Data.Maybe_lfoldr`;38
	repl_args 2 2
.d 3 0 
	jmp ea39
.n 3 e_Data.Maybe_dfoldr`;38 _
.o 1 0 
e_Data.Maybe_nfoldr`;38
	push_node _cycle_in_spine 3
.d 3 0 
	jsr ea39
.o 1 0 
.d 1 0 
	fill_a01_pop_rtn 
.o 3 0 
ea39
	jsr_eval 2
	jsr_eval 1
.o 3 0 
e_Data.Maybe_sfoldr`;38
.o 3 0 
s39
	buildh e_StdFunctions_did 0
	push_a 1
	buildh e_Data.Maybe_df`;72.73 1
	update2_a 0 1
	exchange_a 4 3
.d 3 0 
	pop_a_jsr 1 s34
.o 1 0 
	jmp_ap 1
.export e_Data.Maybe_df`;72.73
.desc e_Data.Maybe_df`;72.73 _hnf l73 4 0 "f`;72.73"
.a 0 ea73
.o 2 0 
l73
	repl_args 3 3
.o 4 0 
ea73
	jsr_eval 1
.o 4 0 
s73
	push2_a 3
	push_a 2
	build e_Data.Maybe_d_f2.143 3 e_Data.Maybe_n_f2.143
	dup_a 4
	updatepop_a 2 3
	jmp_ap 1
.export e_Data.Maybe_d_f2.143
.export e_Data.Maybe_n_f2.143
.descn e_Data.Maybe_d_f2.143 e_Data.Maybe_n_f2.143 3 0 "_f2.143"
.n 3 e_Data.Maybe_d_f2.143 ea143
.o 1 0 
e_Data.Maybe_n_f2.143
	push_node _cycle_in_spine 3
.o 4 0 
ea143
.o 4 0 
s143
	push_a2 2 0
	jsr_eval 0
	update_a 1 4
	updatepop_a 0 2
	jsr_ap 2
.d 1 0 
	fill_a01_pop_rtn 
.export e_Data.Maybe_sfoldr1;37
.descexp e_Data.Maybe_dfoldr1;37 e_Data.Maybe_nfoldr1;37 e_Data.Maybe_lfoldr1;37 2 0 "foldr1;37"
.o 3 0 
e_Data.Maybe_ifoldr1;37
.d 2 0 
	pop_a_jmp 1 s38
.ai 0 ea38 e_Data.Maybe_ifoldr1;37
.o 2 0 
e_Data.Maybe_lfoldr1;37
	repl_args 1 1
.d 2 0 
	jmp ea38
.n 2 e_Data.Maybe_dfoldr1;37 _
.o 1 0 
e_Data.Maybe_nfoldr1;37
	push_node _cycle_in_spine 2
.d 2 0 
	jsr ea38
.o 1 0 
.d 1 0 
	fill_a01_pop_rtn 
.o 2 0 
ea38
	jsr_eval 1
	jsr_eval 0
.o 2 0 
e_Data.Maybe_sfoldr1;37
.o 2 0 
s38
	buildh _None 0
	push_a 1
	buildh e_Data.Maybe_dmf;74.75 1
	update2pop_a 0 1
.d 3 0 
	jsr s37
.o 1 0 
	buildAC "foldr1: empty structure"
	buildh ARRAY 1
	build e_StdMisc_dabort 1 e_StdMisc_nabort
.d 2 0 
	jmp s93
.export e_Data.Maybe_dmf;74.75
.desc e_Data.Maybe_dmf;74.75 _hnf l75 3 0 "mf;74.75"
.a 3 ea75
.o 2 0 
l75
	push_args 0 2 2
	update_a 3 2
	create 
	put_a 4
.o 4 0 
ea75
	jsr_eval 2
.o 4 0 
s75
	jmp_ne_desc _None 0 2 case.38
	push_jsr_eval 1
	fillh _Just 1 4
.d 1 0 
	pop_a_rtn 3
case.38
	push_args 2 1 1
	buildh _Nil 0
	push_a 2
	updates2_a 2 1 5
	jsr_eval 0
	update_a 1 5
	updatepop_a 0 3
	jsr_ap 2
	fillh _Just 1 1
.d 1 0 
	rtn 
.export e_Data.Maybe_sfoldl`;35
.descexp e_Data.Maybe_dfoldl`;35 e_Data.Maybe_nfoldl`;35 e_Data.Maybe_lfoldl`;35 3 0 "foldl`;35"
.o 4 0 
e_Data.Maybe_ifoldl`;35
.d 3 0 
	pop_a_jmp 1 s36
.ai 0 ea36 e_Data.Maybe_ifoldl`;35
.o 2 0 
e_Data.Maybe_lfoldl`;35
	repl_args 2 2
.d 3 0 
	jmp ea36
.n 3 e_Data.Maybe_dfoldl`;35 _
.o 1 0 
e_Data.Maybe_nfoldl`;35
	push_node _cycle_in_spine 3
.d 3 0 
	jsr ea36
.o 1 0 
.d 1 0 
	fill_a01_pop_rtn 
.o 3 0 
ea36
	jsr_eval 2
	jsr_eval 1
.o 3 0 
e_Data.Maybe_sfoldl`;35
.o 3 0 
s36
	buildh e_StdFunctions_did 0
	push_a 1
	buildh e_Data.Maybe_df`;73.74 1
	update2_a 0 1
	exchange_a 4 3
.d 3 0 
	pop_a_jsr 1 s37
.o 1 0 
	jmp_ap 1
.export e_Data.Maybe_df`;73.74
.desc e_Data.Maybe_df`;73.74 _hnf l74 4 0 "f`;73.74"
.a 0 ea74
.o 2 0 
l74
	repl_args 3 3
.o 4 0 
ea74
	jsr_eval 2
.o 4 0 
s74
	push_a2 1 3
	push_a 2
	build e_Data.Maybe_d_f1.142 3 e_Data.Maybe_n_f1.142
	dup_a 4
	pop_a 3
	jmp_ap 1
.export e_Data.Maybe_d_f1.142
.export e_Data.Maybe_n_f1.142
.descn e_Data.Maybe_d_f1.142 e_Data.Maybe_n_f1.142 3 0 "_f1.142"
.n 3 e_Data.Maybe_d_f1.142 ea142
.o 1 0 
e_Data.Maybe_n_f1.142
	push_node _cycle_in_spine 3
.o 4 0 
ea142
.o 4 0 
s142
	push_a2 2 0
	jsr_eval 0
	update_a 1 4
	updatepop_a 0 2
	jsr_ap 2
.d 1 0 
	fill_a01_pop_rtn 
.export e_Data.Maybe_sfoldl1;34
.descexp e_Data.Maybe_dfoldl1;34 e_Data.Maybe_nfoldl1;34 e_Data.Maybe_lfoldl1;34 2 0 "foldl1;34"
.o 3 0 
e_Data.Maybe_ifoldl1;34
.d 2 0 
	pop_a_jmp 1 s35
.ai 0 ea35 e_Data.Maybe_ifoldl1;34
.o 2 0 
e_Data.Maybe_lfoldl1;34
	repl_args 1 1
.d 2 0 
	jmp ea35
.n 2 e_Data.Maybe_dfoldl1;34 _
.o 1 0 
e_Data.Maybe_nfoldl1;34
	push_node _cycle_in_spine 2
.d 2 0 
	jsr ea35
.o 1 0 
.d 1 0 
	fill_a01_pop_rtn 
.o 2 0 
ea35
	jsr_eval 1
	jsr_eval 0
.o 2 0 
e_Data.Maybe_sfoldl1;34
.o 2 0 
s35
	buildh _None 0
	push_a 1
	buildh e_Data.Maybe_dmf;75.76 1
	update2pop_a 0 1
.d 3 0 
	jsr s34
.o 1 0 
	buildAC "foldl1: empty structure"
	buildh ARRAY 1
	build e_StdMisc_dabort 1 e_StdMisc_nabort
.d 2 0 
	jmp s93
.export e_Data.Maybe_dmf;75.76
.desc e_Data.Maybe_dmf;75.76 _hnf l76 3 0 "mf;75.76"
.a 3 ea76
.o 2 0 
l76
	push_args 0 2 2
	update_a 3 2
	create 
	put_a 4
.o 4 0 
ea76
	jsr_eval 1
.o 4 0 
s76
	jmp_ne_desc _None 0 1 case.40
	push_jsr_eval 2
	fillh _Just 1 4
.d 1 0 
	pop_a_rtn 3
case.40
	push_args 1 1 1
	buildh _Nil 0
	push_a 2
	updates2_a 5 1 4
	jsr_eval 0
	update_a 1 5
	update_a 2 4
	updatepop_a 0 3
	jsr_ap 2
	fillh _Just 1 1
.d 1 0 
	rtn 
.o 2 0 
s93
	buildh e_StdFunctions_did 0
	swap_a1 
s94
	jmp_ne_desc _None 0 2 case.42
	updatepop_a 0 2
	jmp_eval
case.42
	push_args 2 1 1
	buildh _Nil 0
	updates2_a 3 0 4
	jsr_eval 0
	update2pop_a 0 3
	jmp_ap 1
.export e_Data.Maybe_sfoldl;33
.descexp e_Data.Maybe_dfoldl;33 e_Data.Maybe_nfoldl;33 e_Data.Maybe_lfoldl;33 3 0 "foldl;33"
.o 4 0 
e_Data.Maybe_ifoldl;33
.d 3 0 
	pop_a_jmp 1 s34
.ai 0 ea34 e_Data.Maybe_ifoldl;33
.o 2 0 
e_Data.Maybe_lfoldl;33
	repl_args 2 2
.d 3 0 
	jmp ea34
.n 3 e_Data.Maybe_dfoldl;33 _
.o 1 0 
e_Data.Maybe_nfoldl;33
	push_node _cycle_in_spine 3
.d 3 0 
	jsr ea34
.o 1 0 
.d 1 0 
	fill_a01_pop_rtn 
.o 3 0 
ea34
	jsr_eval 2
.o 3 0 
e_Data.Maybe_sfoldl;33
.o 3 0 
s34
	jmp_ne_desc _None 0 2 case.44
	updatepop_a 1 2
	jmp_eval
case.44
	push_args 2 1 1
	buildh _Nil 0
	push_a 2
	updates2_a 2 1 5
	jsr_eval 0
	update_a 1 5
	updatepop_a 0 3
	jmp_ap 2
.export e_Data.Maybe_sfold;31
.descexp e_Data.Maybe_dfold;31 e_Data.Maybe_nfold;31 e_Data.Maybe_lfold;31 2 0 "fold;31"
.o 4 0 
e_Data.Maybe_ifold;31
.d 3 0 
	pop_a_jmp 1 s32
.ai 0 ea32 e_Data.Maybe_ifold;31
.o 2 0 
e_Data.Maybe_lfold;31
	repl_args 1 1
.d 2 0 
	jmp ea32
.n 2 e_Data.Maybe_dfold;31 _
.o 1 0 
e_Data.Maybe_nfold;31
	push_node _cycle_in_spine 2
.d 2 0 
	jsr ea32
.o 1 0 
.d 1 0 
	fill_a01_pop_rtn 
.o 2 0 
ea32
	jsr_eval 1
	jsr_eval 0
	repl_r_args 2 0
.o 3 0 
e_Data.Maybe_sfold;31
.o 3 0 
s32
	buildh e_StdFunctions_did 0
	push_a 1
	updates3pop_a 0 1 3 2
.d 4 0 
	jmp s33
.export e_Data.Maybe_sfoldMap;32
.descexp e_Data.Maybe_dfoldMap;32 e_Data.Maybe_nfoldMap;32 e_Data.Maybe_lfoldMap;32 3 0 "foldMap;32"
.o 5 0 
e_Data.Maybe_ifoldMap;32
.d 4 0 
	pop_a_jmp 1 s33
.ai 0 ea33 e_Data.Maybe_ifoldMap;32
.o 2 0 
e_Data.Maybe_lfoldMap;32
	repl_args 2 2
.d 3 0 
	jmp ea33
.n 3 e_Data.Maybe_dfoldMap;32 _
.o 1 0 
e_Data.Maybe_nfoldMap;32
	push_node _cycle_in_spine 3
.d 3 0 
	jsr ea33
.o 1 0 
.d 1 0 
	fill_a01_pop_rtn 
.o 3 0 
ea33
	jsr_eval 2
	jsr_eval 0
	repl_r_args 2 0
.o 4 0 
e_Data.Maybe_sfoldMap;32
.o 4 0 
s33
	push_a 0
	buildho2 e_Data.Maybe_d\;15;13;85.85 2 3
	update2pop_a 0 3
.d 3 0 
	jmp s37
.export e_Data.Maybe_d\;15;13;85.85
.desc e_Data.Maybe_d\;15;13;85.85 _hnf l85 3 0 "\;15;13;85.85"
.a 0 ea85
.o 2 0 
l85
	repl_args 2 2
.o 3 0 
ea85
.o 3 0 
s85
	push2_a 2
	build e_system_dAP 2 e_system_nAP
	dup_a 3
	updatepop_a 1 2
	jmp_ap 1
.export e_Data.Maybe_sfoldr;36
.descexp e_Data.Maybe_dfoldr;36 e_Data.Maybe_nfoldr;36 e_Data.Maybe_lfoldr;36 3 0 "foldr;36"
.o 4 0 
e_Data.Maybe_ifoldr;36
.d 3 0 
	pop_a_jmp 1 s37
.ai 0 ea37 e_Data.Maybe_ifoldr;36
.o 2 0 
e_Data.Maybe_lfoldr;36
	repl_args 2 2
.d 3 0 
	jmp ea37
.n 3 e_Data.Maybe_dfoldr;36 _
.o 1 0 
e_Data.Maybe_nfoldr;36
	push_node _cycle_in_spine 3
.d 3 0 
	jsr ea37
.o 1 0 
.d 1 0 
	fill_a01_pop_rtn 
.o 3 0 
ea37
	jsr_eval 2
.o 3 0 
e_Data.Maybe_sfoldr;36
.o 3 0 
s37
	jmp_ne_desc _None 0 2 case.46
	updatepop_a 1 2
	jmp_eval
case.46
	push_args 2 1 1
	buildh _Nil 0
	push_a 2
	updates2_a 4 1 5
	jsr_eval 0
	update_a 1 5
	update_a 2 4
	updatepop_a 0 3
	jmp_ap 2
.export e_Data.Maybe_smempty;30
.export e_Data.Maybe_eamempty;30
.descexp e_Data.Maybe_dmempty;30 e_Data.Maybe_nmempty;30 e_Data.Maybe_lmempty;30 0 0 "mempty;30"
.o 1 0 
e_Data.Maybe_imempty;30
	pop_a 1
	create 
.d 1 0 
	jmp s31
.o 1 0 
e_Data.Maybe_lmempty;30
	halt
.n 0 e_Data.Maybe_dmempty;30 e_Data.Maybe_eamempty;30
.o 1 0 
e_Data.Maybe_nmempty;30
	push_node _cycle_in_spine 0
.o 1 0 
e_Data.Maybe_eamempty;30
.o 1 0 
e_Data.Maybe_smempty;30
.o 1 0 
s31
	fillh _None 0 0
.d 1 0 
	rtn 
.export e_Data.Maybe_smempty;29
.export e_Data.Maybe_eamempty;29
.descexp e_Data.Maybe_dmempty;29 e_Data.Maybe_nmempty;29 e_Data.Maybe_lmempty;29 0 0 "mempty;29"
.o 1 0 
e_Data.Maybe_imempty;29
	pop_a 1
	create 
.d 1 0 
	jmp s30
.o 1 0 
e_Data.Maybe_lmempty;29
	halt
.n 0 e_Data.Maybe_dmempty;29 e_Data.Maybe_eamempty;29
.o 1 0 
e_Data.Maybe_nmempty;29
	push_node _cycle_in_spine 0
.o 1 0 
e_Data.Maybe_eamempty;29
.o 1 0 
e_Data.Maybe_smempty;29
.o 1 0 
s30
	fillh _None 0 0
.d 1 0 
	rtn 
.export e_Data.Maybe_smappend;28
.export e_Data.Maybe_eamappend;28
.descexp e_Data.Maybe_dmappend;28 e_Data.Maybe_nmappend;28 e_Data.Maybe_lmappend;28 3 0 "mappend;28"
.o 3 0 
e_Data.Maybe_imappend;28
	repl_args 1 1
	create 
	jsr_eval 3
	jsr_eval 1
	push_r_args 1 1 0
	update_a 3 2
	updates3pop_a 0 1 4 3
.d 4 0 
	jmp s29
.ai 3 e_Data.Maybe_eamappend;28 e_Data.Maybe_imappend;28
.o 2 0 
e_Data.Maybe_lmappend;28
	push_args 0 2 2
	update_a 3 2
	create 
.d 4 0 
	put_a_jmp 4 e_Data.Maybe_eamappend;28
.n 3 e_Data.Maybe_dmappend;28 e_Data.Maybe_eamappend;28
.o 1 0 
e_Data.Maybe_nmappend;28
	push_node _cycle_in_spine 3
.o 4 0 
e_Data.Maybe_eamappend;28
	jsr_eval 2
	jsr_eval 1
	jsr_eval 0
	repl_r_args 1 0
.o 4 0 
e_Data.Maybe_smappend;28
.o 4 0 
s29
	jmp_ne_desc _None 0 1 case.48
	fill_a 2 3
.d 1 0 
	pop_a_rtn 3
case.48
	jmp_ne_desc _None 0 2 case.50
	fill_a 1 3
.d 1 0 
	pop_a_rtn 3
case.50
	push_args 2 1 1
	buildh0_put_a _Nil 4
	jmp_eq_desc _Just 1 2 case.52
	pop_a_jmp 1 case.51
case.52
	push_args 2 1 1
	buildh _Nil 0
	push_a2 1 3
	updates2_a 4 2 6
	build e_Data.Maybe_d_f0.141 3 e_Data.Maybe_n_f0.141
	fillh _Just 1 6
.d 1 0 
	pop_a_rtn 5
case.51
	buildAC "impossible case in mappend_Maybe\n"
	updatepop_a 0 3
.d 1 0 
	jsr print_string_
.o 0 0 
	halt
.d 1 0 
	fill_a01_pop_rtn 
.export e_Data.Maybe_d_f0.141
.export e_Data.Maybe_n_f0.141
.descn e_Data.Maybe_d_f0.141 e_Data.Maybe_n_f0.141 3 0 "_f0.141"
.n 3 e_Data.Maybe_d_f0.141 ea141
.o 1 0 
e_Data.Maybe_n_f0.141
	push_node _cycle_in_spine 3
.o 4 0 
ea141
.o 4 0 
s141
	push2_a 2
	jsr_eval 0
	push_jsr_eval 2
	update3pop_a 0 3
.d 3 0 
	jsr_i 2
.o 1 0 
.d 1 0 
	fill_a01_pop_rtn 
.export e_Data.Maybe_smappend;27
.export e_Data.Maybe_eamappend;27
.descexp e_Data.Maybe_dmappend;27 e_Data.Maybe_nmappend;27 e_Data.Maybe_lmappend;27 3 0 "mappend;27"
.o 3 0 
e_Data.Maybe_imappend;27
	repl_args 1 1
	create 
	jsr_eval 3
	jsr_eval 1
	push_r_args 1 1 0
	update_a 3 2
	updates3pop_a 0 1 4 3
.d 4 0 
	jmp s28
.ai 3 e_Data.Maybe_eamappend;27 e_Data.Maybe_imappend;27
.o 2 0 
e_Data.Maybe_lmappend;27
	push_args 0 2 2
	update_a 3 2
	create 
.d 4 0 
	put_a_jmp 4 e_Data.Maybe_eamappend;27
.n 3 e_Data.Maybe_dmappend;27 e_Data.Maybe_eamappend;27
.o 1 0 
e_Data.Maybe_nmappend;27
	push_node _cycle_in_spine 3
.o 4 0 
e_Data.Maybe_eamappend;27
	jsr_eval 2
	jsr_eval 1
	jsr_eval 0
	repl_r_args 1 0
.o 4 0 
e_Data.Maybe_smappend;27
.o 4 0 
s28
	jmp_ne_desc _None 0 1 case.54
	fill_a 2 3
.d 1 0 
	pop_a_rtn 3
case.54
	jmp_ne_desc _None 0 2 case.56
	fill_a 1 3
.d 1 0 
	pop_a_rtn 3
case.56
	push_args 2 1 1
	buildh0_put_a _Nil 4
	jmp_eq_desc _Just 1 2 case.58
	pop_a_jmp 1 case.57
case.58
	push_args 2 1 1
	update2_a 0 3
	pop_a 2
.d 3 0 
	jsr_i 2
.o 1 0 
	fillh _Just 1 1
.d 1 0 
	rtn 
case.57
	buildAC "impossible case in mappend_Maybe\n"
	updatepop_a 0 3
.d 1 0 
	jsr print_string_
.o 0 0 
	halt
.d 1 0 
	fill_a01_pop_rtn 
.export e_Data.Maybe_sfail;26
.export e_Data.Maybe_eafail;26
.descexp e_Data.Maybe_dfail;26 e_Data.Maybe_nfail;26 e_Data.Maybe_lfail;26 1 0 "fail;26"
.o 2 0 
e_Data.Maybe_ifail;26
	pop_a 1
	create 
	swap_a1 
.d 2 0 
	jmp s27
.ai 1 _ e_Data.Maybe_ifail;26
.o 2 0 
e_Data.Maybe_lfail;26
	update_a 1 0
	create 
.d 2 0 
	put_a_jmp 2 e_Data.Maybe_eafail;26
.n 1 e_Data.Maybe_dfail;26 e_Data.Maybe_eafail;26
.o 1 0 
e_Data.Maybe_nfail;26
	push_node _cycle_in_spine 1
.o 2 0 
e_Data.Maybe_eafail;26
.o 2 0 
e_Data.Maybe_sfail;26
.o 2 0 
s27
	fillh _None 0 1
.d 1 0 
	pop_a_rtn 1
.export e_Data.Maybe_sfail;25
.export e_Data.Maybe_eafail;25
.descexp e_Data.Maybe_dfail;25 e_Data.Maybe_nfail;25 e_Data.Maybe_lfail;25 1 0 "fail;25"
.o 2 0 
e_Data.Maybe_ifail;25
	pop_a 1
	create 
	swap_a1 
.d 2 0 
	jmp s26
.ai 1 _ e_Data.Maybe_ifail;25
.o 2 0 
e_Data.Maybe_lfail;25
	update_a 1 0
	create 
.d 2 0 
	put_a_jmp 2 e_Data.Maybe_eafail;25
.n 1 e_Data.Maybe_dfail;25 e_Data.Maybe_eafail;25
.o 1 0 
e_Data.Maybe_nfail;25
	push_node _cycle_in_spine 1
.o 2 0 
e_Data.Maybe_eafail;25
.o 2 0 
e_Data.Maybe_sfail;25
.o 2 0 
s26
	fillh _None 0 1
.d 1 0 
	pop_a_rtn 1
.export e_Data.Maybe_smzero;24
.export e_Data.Maybe_eamzero;24
.descexp e_Data.Maybe_dmzero;24 e_Data.Maybe_nmzero;24 e_Data.Maybe_lmzero;24 0 0 "mzero;24"
.o 1 0 
e_Data.Maybe_imzero;24
	pop_a 1
	create 
.d 1 0 
	jmp s25
.o 1 0 
e_Data.Maybe_lmzero;24
	halt
.n 0 e_Data.Maybe_dmzero;24 e_Data.Maybe_eamzero;24
.o 1 0 
e_Data.Maybe_nmzero;24
	push_node _cycle_in_spine 0
.o 1 0 
e_Data.Maybe_eamzero;24
.o 1 0 
e_Data.Maybe_smzero;24
.o 1 0 
s25
	fillh _None 0 0
.d 1 0 
	rtn 
.export e_Data.Maybe_smplus;23
.export e_Data.Maybe_eamplus;23
.descexp e_Data.Maybe_dmplus;23 e_Data.Maybe_nmplus;23 e_Data.Maybe_lmplus;23 2 0 "mplus;23"
.o 3 0 
e_Data.Maybe_implus;23
	pop_a 1
	create 
	push_a 1
	updates3pop_a 0 1 3 2
.d 3 0 
	jmp s24
.ai 2 e_Data.Maybe_eamplus;23 e_Data.Maybe_implus;23
.o 2 0 
e_Data.Maybe_lmplus;23
	push_args 0 1 1
	update_a 2 1
	create 
.d 3 0 
	put_a_jmp 3 e_Data.Maybe_eamplus;23
.n 2 e_Data.Maybe_dmplus;23 e_Data.Maybe_eamplus;23
.o 1 0 
e_Data.Maybe_nmplus;23
	push_node _cycle_in_spine 2
.o 3 0 
e_Data.Maybe_eamplus;23
	jsr_eval 0
.o 3 0 
e_Data.Maybe_smplus;23
.o 3 0 
s24
	jmp_ne_desc _None 0 0 case.60
	pop_a 1
	jmp_eval_upd
case.60
	fill_a 0 2
.d 1 0 
	pop_a_rtn 2
.export e_Data.Maybe_smzero;22
.export e_Data.Maybe_eamzero;22
.descexp e_Data.Maybe_dmzero;22 e_Data.Maybe_nmzero;22 e_Data.Maybe_lmzero;22 0 0 "mzero;22"
.o 1 0 
e_Data.Maybe_imzero;22
	pop_a 1
	create 
.d 1 0 
	jmp s23
.o 1 0 
e_Data.Maybe_lmzero;22
	halt
.n 0 e_Data.Maybe_dmzero;22 e_Data.Maybe_eamzero;22
.o 1 0 
e_Data.Maybe_nmzero;22
	push_node _cycle_in_spine 0
.o 1 0 
e_Data.Maybe_eamzero;22
.o 1 0 
e_Data.Maybe_smzero;22
.o 1 0 
s23
	fillh _None 0 0
.d 1 0 
	rtn 
.export e_Data.Maybe_smplus;21
.export e_Data.Maybe_eamplus;21
.descexp e_Data.Maybe_dmplus;21 e_Data.Maybe_nmplus;21 e_Data.Maybe_lmplus;21 2 0 "mplus;21"
.o 3 0 
e_Data.Maybe_implus;21
	pop_a 1
	create 
	push_a 1
	updates3pop_a 0 1 3 2
.d 3 0 
	jmp s22
.ai 2 e_Data.Maybe_eamplus;21 e_Data.Maybe_implus;21
.o 2 0 
e_Data.Maybe_lmplus;21
	push_args 0 1 1
	update_a 2 1
	create 
.d 3 0 
	put_a_jmp 3 e_Data.Maybe_eamplus;21
.n 2 e_Data.Maybe_dmplus;21 e_Data.Maybe_eamplus;21
.o 1 0 
e_Data.Maybe_nmplus;21
	push_node _cycle_in_spine 2
.o 3 0 
e_Data.Maybe_eamplus;21
	jsr_eval 0
.o 3 0 
e_Data.Maybe_smplus;21
.o 3 0 
s22
	jmp_ne_desc _None 0 0 case.62
	pop_a 1
	jmp_eval_upd
case.62
	fill_a 0 2
.d 1 0 
	pop_a_rtn 2
.export e_Data.Maybe_sbind;20
.export e_Data.Maybe_eabind;20
.descexp e_Data.Maybe_dbind;20 e_Data.Maybe_nbind;20 e_Data.Maybe_lbind;20 2 0 "bind;20"
.o 3 0 
e_Data.Maybe_ibind;20
	pop_a 1
	create 
	push_a 1
	updates3pop_a 0 1 3 2
.d 3 0 
	jmp s21
.ai 2 e_Data.Maybe_eabind;20 e_Data.Maybe_ibind;20
.o 2 0 
e_Data.Maybe_lbind;20
	push_args 0 1 1
	update_a 2 1
	create 
.d 3 0 
	put_a_jmp 3 e_Data.Maybe_eabind;20
.n 2 e_Data.Maybe_dbind;20 e_Data.Maybe_eabind;20
.o 1 0 
e_Data.Maybe_nbind;20
	push_node _cycle_in_spine 2
.o 3 0 
e_Data.Maybe_eabind;20
	jsr_eval 0
.o 3 0 
e_Data.Maybe_sbind;20
.o 3 0 
s21
	jmp_ne_desc _Just 1 0 case.64
	repl_args 1 1
	push_jsr_eval 1
	update2pop_a 0 1
	jsr_ap 1
.d 1 0 
	fill_a01_pop_rtn 
case.64
	fillh _None 0 2
.d 1 0 
	pop_a_rtn 2
.export e_Data.Maybe_sbind;19
.export e_Data.Maybe_eabind;19
.descexp e_Data.Maybe_dbind;19 e_Data.Maybe_nbind;19 e_Data.Maybe_lbind;19 2 0 "bind;19"
.o 3 0 
e_Data.Maybe_ibind;19
	pop_a 1
	create 
	push_a 1
	updates3pop_a 0 1 3 2
.d 3 0 
	jmp s20
.ai 2 e_Data.Maybe_eabind;19 e_Data.Maybe_ibind;19
.o 2 0 
e_Data.Maybe_lbind;19
	push_args 0 1 1
	update_a 2 1
	create 
.d 3 0 
	put_a_jmp 3 e_Data.Maybe_eabind;19
.n 2 e_Data.Maybe_dbind;19 e_Data.Maybe_eabind;19
.o 1 0 
e_Data.Maybe_nbind;19
	push_node _cycle_in_spine 2
.o 3 0 
e_Data.Maybe_eabind;19
	jsr_eval 0
.o 3 0 
e_Data.Maybe_sbind;19
.o 3 0 
s20
	jmp_ne_desc _Just 1 0 case.66
	repl_args 1 1
	push_jsr_eval 1
	update2pop_a 0 1
	jsr_ap 1
.d 1 0 
	fill_a01_pop_rtn 
case.66
	fillh _None 0 2
.d 1 0 
	pop_a_rtn 2
.export e_Data.Maybe_sempty;18
.export e_Data.Maybe_eaempty;18
.descexp e_Data.Maybe_dempty;18 e_Data.Maybe_nempty;18 e_Data.Maybe_lempty;18 0 0 "empty;18"
.o 1 0 
e_Data.Maybe_iempty;18
	pop_a 1
	create 
.d 1 0 
	jmp s19
.o 1 0 
e_Data.Maybe_lempty;18
	halt
.n 0 e_Data.Maybe_dempty;18 e_Data.Maybe_eaempty;18
.o 1 0 
e_Data.Maybe_nempty;18
	push_node _cycle_in_spine 0
.o 1 0 
e_Data.Maybe_eaempty;18
.o 1 0 
e_Data.Maybe_sempty;18
.o 1 0 
s19
	fillh _None 0 0
.d 1 0 
	rtn 
.export e_Data.Maybe_s<|>;17
.export e_Data.Maybe_ea<|>;17
.descexp e_Data.Maybe_d<|>;17 e_Data.Maybe_n<|>;17 e_Data.Maybe_l<|>;17 2 0 "<|>;17"
.o 3 0 
e_Data.Maybe_i<|>;17
	pop_a 1
	create 
	push_a 1
	updates3pop_a 0 1 3 2
.d 3 0 
	jmp s18
.ai 2 e_Data.Maybe_ea<|>;17 e_Data.Maybe_i<|>;17
.o 2 0 
e_Data.Maybe_l<|>;17
	push_args 0 1 1
	update_a 2 1
	create 
.d 3 0 
	put_a_jmp 3 e_Data.Maybe_ea<|>;17
.n 2 e_Data.Maybe_d<|>;17 e_Data.Maybe_ea<|>;17
.o 1 0 
e_Data.Maybe_n<|>;17
	push_node _cycle_in_spine 2
.o 3 0 
e_Data.Maybe_ea<|>;17
	jsr_eval 0
.o 3 0 
e_Data.Maybe_s<|>;17
.o 3 0 
s18
	jmp_ne_desc _None 0 0 case.68
	pop_a 1
	jmp_eval_upd
case.68
	fill_a 0 2
.d 1 0 
	pop_a_rtn 2
.export e_Data.Maybe_sempty;16
.export e_Data.Maybe_eaempty;16
.descexp e_Data.Maybe_dempty;16 e_Data.Maybe_nempty;16 e_Data.Maybe_lempty;16 0 0 "empty;16"
.o 1 0 
e_Data.Maybe_iempty;16
	pop_a 1
	create 
.d 1 0 
	jmp s17
.o 1 0 
e_Data.Maybe_lempty;16
	halt
.n 0 e_Data.Maybe_dempty;16 e_Data.Maybe_eaempty;16
.o 1 0 
e_Data.Maybe_nempty;16
	push_node _cycle_in_spine 0
.o 1 0 
e_Data.Maybe_eaempty;16
.o 1 0 
e_Data.Maybe_sempty;16
.o 1 0 
s17
	fillh _None 0 0
.d 1 0 
	rtn 
.export e_Data.Maybe_s<|>;15
.export e_Data.Maybe_ea<|>;15
.descexp e_Data.Maybe_d<|>;15 e_Data.Maybe_n<|>;15 e_Data.Maybe_l<|>;15 2 0 "<|>;15"
.o 3 0 
e_Data.Maybe_i<|>;15
	pop_a 1
	create 
	push_a 1
	updates3pop_a 0 1 3 2
.d 3 0 
	jmp s16
.ai 2 e_Data.Maybe_ea<|>;15 e_Data.Maybe_i<|>;15
.o 2 0 
e_Data.Maybe_l<|>;15
	push_args 0 1 1
	update_a 2 1
	create 
.d 3 0 
	put_a_jmp 3 e_Data.Maybe_ea<|>;15
.n 2 e_Data.Maybe_d<|>;15 e_Data.Maybe_ea<|>;15
.o 1 0 
e_Data.Maybe_n<|>;15
	push_node _cycle_in_spine 2
.o 3 0 
e_Data.Maybe_ea<|>;15
	jsr_eval 0
.o 3 0 
e_Data.Maybe_s<|>;15
.o 3 0 
s16
	jmp_ne_desc _None 0 0 case.70
	pop_a 1
	jmp_eval_upd
case.70
	fill_a 0 2
.d 1 0 
	pop_a_rtn 2
.export e_Data.Maybe_s<*;14
.export e_Data.Maybe_ea<*;14
.descexp e_Data.Maybe_d<*;14 e_Data.Maybe_n<*;14 e_Data.Maybe_l<*;14 2 0 "<*;14"
.o 3 0 
e_Data.Maybe_i<*;14
	pop_a 1
	create 
	push_a 1
	updates3pop_a 0 1 3 2
.d 3 0 
	jmp s15
.ai 2 e_Data.Maybe_ea<*;14 e_Data.Maybe_i<*;14
.o 2 0 
e_Data.Maybe_l<*;14
	push_args 0 1 1
	update_a 2 1
	create 
.d 3 0 
	put_a_jmp 3 e_Data.Maybe_ea<*;14
.n 2 e_Data.Maybe_d<*;14 e_Data.Maybe_ea<*;14
.o 1 0 
e_Data.Maybe_n<*;14
	push_node _cycle_in_spine 2
.o 3 0 
e_Data.Maybe_ea<*;14
	jsr_eval 0
.o 3 0 
e_Data.Maybe_s<*;14
.o 3 0 
s15
	jmp_ne_desc _None 0 0 case.72
	fillh _None 0 2
.d 1 0 
	pop_a_rtn 2
case.72
	jsr_eval 1
	jmp_ne_desc _Just 1 1 case.74
	push_args 1 1 1
	buildh0_dup_a _Nil 3
	pop_a 2
	fill_a 0 2
.d 1 0 
	pop_a_rtn 2
case.74
	fillh _None 0 2
.d 1 0 
	pop_a_rtn 2
.export e_Data.Maybe_s<*;13
.export e_Data.Maybe_ea<*;13
.descexp e_Data.Maybe_d<*;13 e_Data.Maybe_n<*;13 e_Data.Maybe_l<*;13 2 0 "<*;13"
.o 3 0 
e_Data.Maybe_i<*;13
	pop_a 1
	create 
	push_a 1
	updates3pop_a 0 1 3 2
.d 3 0 
	jmp s14
.ai 2 e_Data.Maybe_ea<*;13 e_Data.Maybe_i<*;13
.o 2 0 
e_Data.Maybe_l<*;13
	push_args 0 1 1
	update_a 2 1
	create 
.d 3 0 
	put_a_jmp 3 e_Data.Maybe_ea<*;13
.n 2 e_Data.Maybe_d<*;13 e_Data.Maybe_ea<*;13
.o 1 0 
e_Data.Maybe_n<*;13
	push_node _cycle_in_spine 2
.o 3 0 
e_Data.Maybe_ea<*;13
	jsr_eval 0
.o 3 0 
e_Data.Maybe_s<*;13
.o 3 0 
s14
	jmp_ne_desc _None 0 0 case.76
	fillh _None 0 2
.d 1 0 
	pop_a_rtn 2
case.76
	jsr_eval 1
	jmp_ne_desc _Just 1 1 case.78
	push_args 1 1 1
	buildh0_dup_a _Nil 3
	pop_a 2
	fill_a 0 2
.d 1 0 
	pop_a_rtn 2
case.78
	fillh _None 0 2
.d 1 0 
	pop_a_rtn 2
.export e_Data.Maybe_s*>;12
.export e_Data.Maybe_ea*>;12
.descexp e_Data.Maybe_d*>;12 e_Data.Maybe_n*>;12 e_Data.Maybe_l*>;12 2 0 "*>;12"
.o 3 0 
e_Data.Maybe_i*>;12
	pop_a 1
	create 
	push_a 1
	updates3pop_a 0 1 3 2
.d 3 0 
	jmp s13
.ai 2 e_Data.Maybe_ea*>;12 e_Data.Maybe_i*>;12
.o 2 0 
e_Data.Maybe_l*>;12
	push_args 0 1 1
	update_a 2 1
	create 
.d 3 0 
	put_a_jmp 3 e_Data.Maybe_ea*>;12
.n 2 e_Data.Maybe_d*>;12 e_Data.Maybe_ea*>;12
.o 1 0 
e_Data.Maybe_n*>;12
	push_node _cycle_in_spine 2
.o 3 0 
e_Data.Maybe_ea*>;12
	jsr_eval 0
.o 3 0 
e_Data.Maybe_s*>;12
.o 3 0 
s13
	jmp_ne_desc _Just 1 0 case.80
	pop_a 1
	jmp_eval_upd
case.80
	fillh _None 0 2
.d 1 0 
	pop_a_rtn 2
.export e_Data.Maybe_s*>;11
.export e_Data.Maybe_ea*>;11
.descexp e_Data.Maybe_d*>;11 e_Data.Maybe_n*>;11 e_Data.Maybe_l*>;11 2 0 "*>;11"
.o 3 0 
e_Data.Maybe_i*>;11
	pop_a 1
	create 
	push_a 1
	updates3pop_a 0 1 3 2
.d 3 0 
	jmp s12
.ai 2 e_Data.Maybe_ea*>;11 e_Data.Maybe_i*>;11
.o 2 0 
e_Data.Maybe_l*>;11
	push_args 0 1 1
	update_a 2 1
	create 
.d 3 0 
	put_a_jmp 3 e_Data.Maybe_ea*>;11
.n 2 e_Data.Maybe_d*>;11 e_Data.Maybe_ea*>;11
.o 1 0 
e_Data.Maybe_n*>;11
	push_node _cycle_in_spine 2
.o 3 0 
e_Data.Maybe_ea*>;11
	jsr_eval 0
.o 3 0 
e_Data.Maybe_s*>;11
.o 3 0 
s12
	jmp_ne_desc _Just 1 0 case.82
	pop_a 1
	jmp_eval_upd
case.82
	fillh _None 0 2
.d 1 0 
	pop_a_rtn 2
.export e_Data.Maybe_s<*>;10
.export e_Data.Maybe_ea<*>;10
.descexp e_Data.Maybe_d<*>;10 e_Data.Maybe_n<*>;10 e_Data.Maybe_l<*>;10 2 0 "<*>;10"
.o 3 0 
e_Data.Maybe_i<*>;10
	pop_a 1
	create 
	push_a 1
	updates3pop_a 0 1 3 2
.d 3 0 
	jmp s11
.ai 2 e_Data.Maybe_ea<*>;10 e_Data.Maybe_i<*>;10
.o 2 0 
e_Data.Maybe_l<*>;10
	push_args 0 1 1
	update_a 2 1
	create 
.d 3 0 
	put_a_jmp 3 e_Data.Maybe_ea<*>;10
.n 2 e_Data.Maybe_d<*>;10 e_Data.Maybe_ea<*>;10
.o 1 0 
e_Data.Maybe_n<*>;10
	push_node _cycle_in_spine 2
.o 3 0 
e_Data.Maybe_ea<*>;10
	jsr_eval 0
.o 3 0 
e_Data.Maybe_s<*>;10
.o 3 0 
s11
	jmp_ne_desc _None 0 0 case.84
	fillh _None 0 2
.d 1 0 
	pop_a_rtn 2
case.84
	repl_args 1 1
	push_jsr_eval 1
.d 3 0 
	put_a_jmp 2 s7
.export e_Data.Maybe_s<*>;9
.export e_Data.Maybe_ea<*>;9
.descexp e_Data.Maybe_d<*>;9 e_Data.Maybe_n<*>;9 e_Data.Maybe_l<*>;9 2 0 "<*>;9"
.o 3 0 
e_Data.Maybe_i<*>;9
	pop_a 1
	create 
	push_a 1
	updates3pop_a 0 1 3 2
.d 3 0 
	jmp s10
.ai 2 e_Data.Maybe_ea<*>;9 e_Data.Maybe_i<*>;9
.o 2 0 
e_Data.Maybe_l<*>;9
	push_args 0 1 1
	update_a 2 1
	create 
.d 3 0 
	put_a_jmp 3 e_Data.Maybe_ea<*>;9
.n 2 e_Data.Maybe_d<*>;9 e_Data.Maybe_ea<*>;9
.o 1 0 
e_Data.Maybe_n<*>;9
	push_node _cycle_in_spine 2
.o 3 0 
e_Data.Maybe_ea<*>;9
	jsr_eval 0
.o 3 0 
e_Data.Maybe_s<*>;9
.o 3 0 
s10
	jmp_ne_desc _None 0 0 case.86
	fillh _None 0 2
.d 1 0 
	pop_a_rtn 2
case.86
	repl_args 1 1
	push_jsr_eval 1
.d 3 0 
	put_a_jmp 2 s6
.export e_Data.Maybe_spure;8
.export e_Data.Maybe_eapure;8
.descexp e_Data.Maybe_dpure;8 e_Data.Maybe_npure;8 e_Data.Maybe_lpure;8 1 0 "pure;8"
.o 2 0 
e_Data.Maybe_ipure;8
	pop_a 1
	create 
	swap_a1 
.d 2 0 
	jmp s9
.ai 1 _ e_Data.Maybe_ipure;8
.o 2 0 
e_Data.Maybe_lpure;8
	update_a 1 0
	create 
.d 2 0 
	put_a_jmp 2 e_Data.Maybe_eapure;8
.n 1 e_Data.Maybe_dpure;8 e_Data.Maybe_eapure;8
.o 1 0 
e_Data.Maybe_npure;8
	push_node _cycle_in_spine 1
.o 2 0 
e_Data.Maybe_eapure;8
.o 2 0 
e_Data.Maybe_spure;8
.o 2 0 
s9
	push_a 0
	fillh _Just 1 2
.d 1 0 
	pop_a_rtn 1
.export e_Data.Maybe_spure;7
.export e_Data.Maybe_eapure;7
.descexp e_Data.Maybe_dpure;7 e_Data.Maybe_npure;7 e_Data.Maybe_lpure;7 1 0 "pure;7"
.o 2 0 
e_Data.Maybe_ipure;7
	pop_a 1
	create 
	jsr_eval 1
	swap_a1 
.d 2 0 
	jmp s8
.ai 1 _ e_Data.Maybe_ipure;7
.o 2 0 
e_Data.Maybe_lpure;7
	update_a 1 0
	create 
.d 2 0 
	put_a_jmp 2 e_Data.Maybe_eapure;7
.n 1 e_Data.Maybe_dpure;7 e_Data.Maybe_eapure;7
.o 1 0 
e_Data.Maybe_npure;7
	push_node _cycle_in_spine 1
.o 2 0 
e_Data.Maybe_spure;7
.o 2 0 
e_Data.Maybe_eapure;7
	jsr_eval 0
.o 2 0 
s8
	push_a 0
	fillh _Just 1 2
.d 1 0 
	pop_a_rtn 1
.export e_Data.Maybe_sfmap;6
.export e_Data.Maybe_eafmap;6
.descexp e_Data.Maybe_dfmap;6 e_Data.Maybe_nfmap;6 e_Data.Maybe_lfmap;6 2 0 "fmap;6"
.o 3 0 
e_Data.Maybe_ifmap;6
	pop_a 1
	create 
	jsr_eval 2
	push_a 1
	updates3pop_a 0 1 3 2
.d 3 0 
	jmp s7
.ai 2 e_Data.Maybe_eafmap;6 e_Data.Maybe_ifmap;6
.o 2 0 
e_Data.Maybe_lfmap;6
	push_args 0 1 1
	update_a 2 1
	create 
.d 3 0 
	put_a_jmp 3 e_Data.Maybe_eafmap;6
.n 2 e_Data.Maybe_dfmap;6 e_Data.Maybe_eafmap;6
.o 1 0 
e_Data.Maybe_nfmap;6
	push_node _cycle_in_spine 2
.o 3 0 
e_Data.Maybe_sfmap;6
.o 3 0 
e_Data.Maybe_eafmap;6
	jsr_eval 1
.o 3 0 
s7
.d 3 0 
	jmp e_StdMaybe_smapMaybe;17
.export e_Data.Maybe_sfmap;5
.export e_Data.Maybe_eafmap;5
.descexp e_Data.Maybe_dfmap;5 e_Data.Maybe_nfmap;5 e_Data.Maybe_lfmap;5 2 0 "fmap;5"
.o 3 0 
e_Data.Maybe_ifmap;5
	pop_a 1
	create 
	jsr_eval 2
	push_a 1
	updates3pop_a 0 1 3 2
.d 3 0 
	jmp s6
.ai 2 e_Data.Maybe_eafmap;5 e_Data.Maybe_ifmap;5
.o 2 0 
e_Data.Maybe_lfmap;5
	push_args 0 1 1
	update_a 2 1
	create 
.d 3 0 
	put_a_jmp 3 e_Data.Maybe_eafmap;5
.n 2 e_Data.Maybe_dfmap;5 e_Data.Maybe_eafmap;5
.o 1 0 
e_Data.Maybe_nfmap;5
	push_node _cycle_in_spine 2
.o 3 0 
e_Data.Maybe_sfmap;5
.o 3 0 
e_Data.Maybe_eafmap;5
	jsr_eval 1
.o 3 0 
s6
.d 3 0 
	jmp e_StdMaybe_smapMaybe;16
.export e_Data.Maybe_smapMaybeT
.export e_Data.Maybe_eamapMaybeT
.descexp e_Data.Maybe_dmapMaybeT e_Data.Maybe_nmapMaybeT e_Data.Maybe_lmapMaybeT 2 0 "mapMaybeT"
.a 2 e_Data.Maybe_eamapMaybeT
.o 2 0 
e_Data.Maybe_lmapMaybeT
	push_args 0 1 1
	update_a 2 1
	create 
.d 3 0 
	put_a_jmp 3 e_Data.Maybe_eamapMaybeT
.n 2 e_Data.Maybe_dmapMaybeT e_Data.Maybe_eamapMaybeT
.o 1 0 
e_Data.Maybe_nmapMaybeT
	push_node _cycle_in_spine 2
.o 3 0 
e_Data.Maybe_eamapMaybeT
	jsr_eval 1
	jsr_eval 0
.o 3 0 
e_Data.Maybe_smapMaybeT
.o 3 0 
s5
	buildo1 e_Data.Maybe_nrunMaybeT 1
	put_a 2
	jsr_ap 1
	fill_r e_Data.Maybe_kMaybeT 1 0 1 0 0
.d 1 0 
	pop_a_rtn 1
.export e_Data.Maybe_srunMaybeT
.descexp e_Data.Maybe_drunMaybeT e_Data.Maybe_nrunMaybeT e_Data.Maybe_lrunMaybeT 1 0 "runMaybeT"
.o 2 0 
e_Data.Maybe_lrunMaybeT
.d 1 0 
	pop_a_jmp 1 ea4
.n 1 e_Data.Maybe_drunMaybeT _
.o 1 0 
e_Data.Maybe_nrunMaybeT
	push_node _cycle_in_spine 1
.d 1 0 
	jsr ea4
.o 1 0 
.d 1 0 
	fill_a01_pop_rtn 
.o 1 0 
ea4
	jsr_eval 0
.o 1 0 
e_Data.Maybe_srunMaybeT
.o 1 0 
s4
	repl_args 1 1
.d 1 0 
	rtn 
.export e_Data.Maybe_sfromMaybe
.descexp e_Data.Maybe_dfromMaybe e_Data.Maybe_nfromMaybe e_Data.Maybe_lfromMaybe 3 0 "fromMaybe"
.a 0 ea3
.o 2 0 
e_Data.Maybe_lfromMaybe
	repl_args 2 2
.d 3 0 
	jmp ea3
.n 3 e_Data.Maybe_dfromMaybe _
.o 1 0 
e_Data.Maybe_nfromMaybe
	push_node _cycle_in_spine 3
.d 3 0 
	jsr ea3
.o 1 0 
.d 1 0 
	fill_a01_pop_rtn 
.o 3 0 
ea3
	jsr_eval 2
	jsr_eval 0
	repl_r_args 2 0
.o 4 0 
e_Data.Maybe_sfromMaybe
.o 4 0 
s3
	buildh e_StdFunctions_did 0
	push_update_a 1 2
	updates3pop_a 0 1 4 3
.d 5 0 
	jmp s1
.export e_Data.Maybe_smaybeSt
.descexp e_Data.Maybe_dmaybeSt e_Data.Maybe_nmaybeSt e_Data.Maybe_lmaybeSt 4 0 "maybeSt"
.a 0 ea2
.o 2 0 
e_Data.Maybe_lmaybeSt
	repl_args 3 3
.d 4 0 
	jmp ea2
.n 4 e_Data.Maybe_dmaybeSt _
.o 1 0 
e_Data.Maybe_nmaybeSt
	push_node _cycle_in_spine 4
.d 4 0 
	jsr ea2
.o 1 0 
.d 1 0 
	fill_a01_pop_rtn 
.o 4 0 
ea2
	jsr_eval 3
	jsr_eval 0
	repl_r_args 2 0
.o 5 0 
e_Data.Maybe_smaybeSt
.o 5 0 
s2
	jmp_ne_desc _None 0 4 case.88
	updatepop_a 2 4
	jmp_eval
case.88
	push_a2 4 1
.d 2 0 
	jsr_i 1
.o 1 0 
	buildh _Nil 0
	push_a 5
	updates2_a 5 1 7
	jsr_eval 0
	update_a 1 7
	update_a 2 6
	updatepop_a 0 5
	jmp_ap 2
.export e_Data.Maybe_smaybe
.descexp e_Data.Maybe_dmaybe e_Data.Maybe_nmaybe e_Data.Maybe_lmaybe 4 0 "maybe"
.a 0 ea1
.o 2 0 
e_Data.Maybe_lmaybe
	repl_args 3 3
.d 4 0 
	jmp ea1
.n 4 e_Data.Maybe_dmaybe _
.o 1 0 
e_Data.Maybe_nmaybe
	push_node _cycle_in_spine 4
.d 4 0 
	jsr ea1
.o 1 0 
.d 1 0 
	fill_a01_pop_rtn 
.o 5 0 
e_Data.Maybe_smaybe
	jsr_eval 4
.d 5 0 
	jmp s1
.o 4 0 
ea1
	jsr_eval 3
	jsr_eval 0
	repl_r_args 2 0
.o 5 0 
s1
	jmp_ne_desc _None 0 4 case.90
	updatepop_a 2 4
	jmp_eval
case.90
	push_a2 4 1
.d 2 0 
	jsr_i 1
.o 1 0 
	buildh _Nil 0
	updates2_a 5 0 6
	jsr_eval 0
	update2pop_a 0 5
	jmp_ap 1
