.comp 920 000011110011000
.start _nostart_
.depend "StdCharList" "20210613154827"
.depend "_SystemArray" "20210613154827"
.depend "StdArray" "20210613154827"
.depend "StdEnv" "20210613154827"
.depend "_SystemEnum" "20210613154827"
.depend "StdEnum" "20210613154827"
.depend "StdTuple" "20210613154827"
.depend "StdOrdList" "20210613154827"
.depend "StdFile" "20210613154827"
.depend "StdString" "20210613154827"
.depend "Control.Monad.Fail" "20210613154827"
.depend "Data.Traversable" "20210613154827"
.depend "StdMisc" "20210613154827"
.depend "StdOverloadedList" "20210613154827"
.depend "Data.List" "20210613154827"
.depend "Data.Foldable" "20210613154827"
.depend "StdFunctions" "20210613154827"
.depend "StdFunc" "20210613154827"
.depend "_SystemEnumStrict" "20210613154827"
.depend "_SystemStrictLists" "20210613154827"
.depend "StdStrictLists" "20210613154827"
.depend "StdGeneric" "20210613154827"
.depend "Data.GenEq" "20210613154827"
.depend "StdReal" "20210613154827"
.depend "StdChar" "20210613154827"
.depend "StdInt" "20210613154827"
.depend "StdBool" "20210613154827"
.depend "StdClass" "20210613154827"
.depend "StdList" "20210613154827"
.depend "Data.Monoid" "20210613154827"
.depend "Control.Applicative" "20210613154827"
.depend "Control.Monad" "20210613154827"
.depend "Data.Functor" "20210613154827"
.depend "StdOverloaded" "20210613154827"
.depend "_SystemDynamic" "20210613154827"
.depend "Data.Tree" "20210613154827"
.module m_Data.Tree "Data.Tree" "20210613154827"
.endinfo
.impmod _system
.implab _cycle_in_spine
.implab _type_error
.implab _hnf
.impdesc e_system_dind
.implab e_system_nind e_system_eaind
.impdesc e_system_dif
.implab e_system_nif e_system_eaif
.implab e_system_sif
.impdesc e_system_dAP
.implab e_system_nAP e_system_eaAP
.implab e_system_sAP
.impdesc ARRAY
.impdesc _Nil
.impdesc _Cons
.impdesc _Conss
.implab n_Conss ea_Conss
.impdesc _Consts
.implab n_Consts ea_Consts
.impdesc _Conssts
.implab n_Conssts ea_Conssts
.impdesc _Tuple
.impdesc d_S.1
.implab n_S.1 ea_S.1
.impdesc d_S.2
.implab n_S.2 ea_S.2
.impdesc d_S.3
.implab n_S.3 ea_S.3
.impdesc d_S.4
.implab n_S.4 ea_S.4
.impdesc d_S.5
.implab n_S.5 ea_S.5
.impdesc d_S.6
.implab n_S.6 ea_S.6
.implab _driver
.impmod StdString
.impdesc e_StdString_d+++;11
.implab e_StdString_s+++;11
.impmod StdMisc
.implab e_StdMisc_sabort
.impmod Data.List
.implab e_Data.List_sconcatMap
.implab e_Data.List_szipWith
.impmod StdBool
.implab e_StdBool_snot
.impmod StdList
.impdesc e_StdList_d++
.implab e_StdList_n++ e_StdList_ea++
.implab e_StdList_sisEmpty
.implab e_StdList_stakeWhile
.impdesc e_StdList_dmap
.implab e_StdList_smap
.implab e_StdList_nmap e_StdList_eamap
.implab e_StdList_siterate
.impdesc e_StdList_drepeat
.implab e_StdList_nrepeat e_StdList_earepeat
.impmod Control.Monad
.implab e_Control.Monad_smapM
.impmod Control.Applicative
.impdesc e_Control.Applicative_dApplicative;.pure
.implab e_Control.Applicative_nApplicative;.pure
.impmod Control.Monad
.impdesc e_Control.Monad_dMonad;.Applicative
.implab e_Control.Monad_nMonad;.Applicative
.impmod StdOverloaded
.impdesc e_StdOverloaded_d==;.==
.implab e_StdOverloaded_n==;.== e_StdOverloaded_ea==;.==
.export e_Data.Tree_dRNode
.desc e_Data.Tree_dRNode _hnf _add_arg 2 0 "RNode"
.export e_Data.Tree_sTD;RForest
.export e_Data.Tree_eaTD;RForest
.descexp e_Data.Tree_dTD;RForest e_Data.Tree_nTD;RForest e_Data.Tree_lTD;RForest 1 0 "TD;RForest"
.o 2 0
e_Data.Tree_lTD;RForest
	update_a 1 0
	create
	update_a 0 2
	pop_a 1
.d 2 0
	jmp e_Data.Tree_eaTD;RForest
.n 1 e_Data.Tree_dTD;RForest e_Data.Tree_eaTD;RForest
.o 1 0
e_Data.Tree_nTD;RForest
	push_node _cycle_in_spine 1
.o 2 0
e_Data.Tree_eaTD;RForest
.o 2 0
e_Data.Tree_sTD;RForest
.o 2 0
s23
	fillh _Nil 0 1
	pop_a 1
.d 1 0
	rtn
.export e_Data.Tree_sTD;RTree
.export e_Data.Tree_eaTD;RTree
.descexp e_Data.Tree_dTD;RTree e_Data.Tree_nTD;RTree e_Data.Tree_lTD;RTree 1 0 "TD;RTree"
.o 2 0
e_Data.Tree_lTD;RTree
	update_a 1 0
	create
	update_a 0 2
	pop_a 1
.d 2 0
	jmp e_Data.Tree_eaTD;RTree
.n 1 e_Data.Tree_dTD;RTree e_Data.Tree_eaTD;RTree
.o 1 0
e_Data.Tree_nTD;RTree
	push_node _cycle_in_spine 1
.o 2 0
e_Data.Tree_eaTD;RTree
.o 2 0
e_Data.Tree_sTD;RTree
.o 2 0
s22
	fillh _Nil 0 1
	pop_a 1
.d 1 0
	rtn
.export e_Data.Tree_d\;37;29;92.35
.desc e_Data.Tree_d\;37;29;92.35 _hnf l35 2 0 "\;37;29;92.35"
.a 2 ea35
.o 2 0
l35
	push_args 0 1 1
	update_a 2 1
	create
	update_a 0 3
	pop_a 1
.o 3 0
ea35
	jsr_eval 1
.o 3 0
s35
	push_a 0
	push_a 2
	update_a 1 3
	updatepop_a 0 2
.d 3 0
	jmp s21
.export e_Data.Tree_sbind;20
.export e_Data.Tree_eabind;20
.descexp e_Data.Tree_dbind;20 e_Data.Tree_nbind;20 e_Data.Tree_lbind;20 2 0 "bind;20"
.o 3 0
e_Data.Tree_ibind;20
	pop_a 1
	create
	push_a 2
	update_a 1 3
	update_a 2 1
	update_a 0 2
	pop_a 1
.d 3 0
	jmp s21
.ai 2 e_Data.Tree_eabind;20 e_Data.Tree_ibind;20
.o 2 0
e_Data.Tree_lbind;20
	push_args 0 1 1
	update_a 2 1
	create
	update_a 0 3
	pop_a 1
.d 3 0
	jmp e_Data.Tree_eabind;20
.n 2 e_Data.Tree_dbind;20 e_Data.Tree_eabind;20
.o 1 0
e_Data.Tree_nbind;20
	push_node _cycle_in_spine 2
.o 3 0
e_Data.Tree_eabind;20
	jsr_eval 0
.o 3 0
e_Data.Tree_sbind;20
.o 3 0
s21
	repl_args 2 2
	push_a 0
	push_a 3
	build e_system_dAP 2 e_system_nAP
	push_a 3
	buildh e_Data.Tree_d\;37;29;92.35 1
	push_a 3
	push_a 1
	update_a 1 2
	update_a 0 1
	pop_a 1
	build e_StdList_dmap 2 e_StdList_nmap
	push_a 1
	build d_S.2 -1 n_S.2
	build e_StdList_d++ 2 e_StdList_n++
	push_a 1
	build d_S.1 -1 n_S.1
	fillh e_Data.Tree_dRNode 2 6
	pop_a 4
.d 1 0
	rtn
.export e_Data.Tree_d\;32;54;91.34
.desc e_Data.Tree_d\;32;54;91.34 _hnf l34 2 0 "\;32;54;91.34"
.a 2 ea34
.o 2 0
l34
	push_args 0 1 1
	update_a 2 1
	create
	update_a 0 3
	pop_a 1
.o 3 0
ea34
	jsr_eval 1
.o 3 0
s34
	push_a 0
	push_a 2
	update_a 1 3
	updatepop_a 0 2
.d 3 0
	jmp s20
.export e_Data.Tree_s<*>;19
.export e_Data.Tree_ea<*>;19
.descexp e_Data.Tree_d<*>;19 e_Data.Tree_n<*>;19 e_Data.Tree_l<*>;19 2 0 "<*>;19"
.o 3 0
e_Data.Tree_i<*>;19
	pop_a 1
	create
	jsr_eval 2
	push_a 2
	update_a 1 3
	update_a 2 1
	update_a 0 2
	pop_a 1
.d 3 0
	jmp s20
.ai 2 e_Data.Tree_ea<*>;19 e_Data.Tree_i<*>;19
.o 2 0
e_Data.Tree_l<*>;19
	push_args 0 1 1
	update_a 2 1
	create
	update_a 0 3
	pop_a 1
.d 3 0
	jmp e_Data.Tree_ea<*>;19
.n 2 e_Data.Tree_d<*>;19 e_Data.Tree_ea<*>;19
.o 1 0
e_Data.Tree_n<*>;19
	push_node _cycle_in_spine 2
.d 3 0
	jmp e_Data.Tree_ea<*>;19
.o 3 0
e_Data.Tree_s<*>;19
	jsr_eval 1
.d 3 0
	jmp s20
.o 3 0
e_Data.Tree_ea<*>;19
	jsr_eval 1
	jsr_eval 0
.o 3 0
s20
	repl_args 2 2
	push_args 2 2 2
	push_a 4
	buildh e_Data.Tree_d\;32;54;91.34 1
	push_a 4
	push_a 1
	update_a 1 2
	update_a 0 1
	pop_a 1
	build e_StdList_dmap 2 e_StdList_nmap
	push_a 3
	buildh e_Data.Tree_d\;32;27;90.33 1
	push_a 3
	push_a 1
	update_a 1 2
	update_a 0 1
	pop_a 1
	build e_StdList_dmap 2 e_StdList_nmap
	build e_StdList_d++ 2 e_StdList_n++
	push_a 1
	push_a 4
	build e_system_dAP 2 e_system_nAP
	fillh e_Data.Tree_dRNode 2 7
	pop_a 5
.d 1 0
	rtn
.export e_Data.Tree_d\;32;27;90.33
.desc e_Data.Tree_d\;32;27;90.33 _hnf l33 2 0 "\;32;27;90.33"
.a 2 ea33
.o 2 0
l33
	push_args 0 1 1
	update_a 2 1
	create
	update_a 0 3
	pop_a 1
.o 3 0
ea33
	jsr_eval 1
.o 3 0
s33
	push_a 1
	push_a 1
	update_a 1 3
	updatepop_a 0 2
.d 3 0
	jmp s18
.export e_Data.Tree_spure;18
.export e_Data.Tree_eapure;18
.descexp e_Data.Tree_dpure;18 e_Data.Tree_npure;18 e_Data.Tree_lpure;18 1 0 "pure;18"
.o 2 0
e_Data.Tree_ipure;18
	pop_a 1
	create
	push_a 1
	update_a 1 2
	update_a 0 1
	pop_a 1
.d 2 0
	jmp s19
.ai 1 _ e_Data.Tree_ipure;18
.o 2 0
e_Data.Tree_lpure;18
	update_a 1 0
	create
	update_a 0 2
	pop_a 1
.d 2 0
	jmp e_Data.Tree_eapure;18
.n 1 e_Data.Tree_dpure;18 e_Data.Tree_eapure;18
.o 1 0
e_Data.Tree_npure;18
	push_node _cycle_in_spine 1
.o 2 0
e_Data.Tree_eapure;18
.o 2 0
e_Data.Tree_spure;18
.o 2 0
s19
	buildh _Nil 0
	push_a 1
	fillh e_Data.Tree_dRNode 2 3
	pop_a 1
.d 1 0
	rtn
.export e_Data.Tree_sfmap;17
.export e_Data.Tree_eafmap;17
.descexp e_Data.Tree_dfmap;17 e_Data.Tree_nfmap;17 e_Data.Tree_lfmap;17 2 0 "fmap;17"
.o 3 0
e_Data.Tree_ifmap;17
	pop_a 1
	create
	jsr_eval 2
	push_a 2
	update_a 1 3
	update_a 2 1
	update_a 0 2
	pop_a 1
.d 3 0
	jmp s18
.ai 2 e_Data.Tree_eafmap;17 e_Data.Tree_ifmap;17
.o 2 0
e_Data.Tree_lfmap;17
	push_args 0 1 1
	update_a 2 1
	create
	update_a 0 3
	pop_a 1
.d 3 0
	jmp e_Data.Tree_eafmap;17
.n 2 e_Data.Tree_dfmap;17 e_Data.Tree_eafmap;17
.o 1 0
e_Data.Tree_nfmap;17
	push_node _cycle_in_spine 2
.o 3 0
e_Data.Tree_eafmap;17
	jsr_eval 1
.o 3 0
e_Data.Tree_sfmap;17
.o 3 0
s18
	push_a 1
	push_a 1
	update_a 1 3
	updatepop_a 0 2
.d 3 0
	jmp s3
.export e_Data.Tree_sfoldTree
.descexp e_Data.Tree_dfoldTree e_Data.Tree_nfoldTree e_Data.Tree_lfoldTree 2 0 "foldTree"
.a 0 ea17
.o 2 0
e_Data.Tree_lfoldTree
	repl_args 1 1
.d 2 0
	jmp ea17
.n 2 e_Data.Tree_dfoldTree _
.o 1 0
e_Data.Tree_nfoldTree
	push_node _cycle_in_spine 2
.d 2 0
	jsr ea17
.o 1 0
	fill_a 0 1
	pop_a 1
.d 1 0
	rtn
.o 2 0
e_Data.Tree_sfoldTree
.o 2 0
ea17
	jsr_eval 1
	jsr_eval 0
.o 2 0
s17
	push_a 1
	push_a 1
	update_a 1 3
	updatepop_a 0 2
.d 2 0
	jmp s29
.export e_Data.Tree_dgo;31.29
.desc e_Data.Tree_dgo;31.29 _hnf l29 2 0 "go;31.29"
.a 0 ea29
.o 2 0
l29
	repl_args 1 1
.o 2 0
ea29
	jsr_eval 1
.o 2 0
s29
	push_args 1 2 2
	buildh _Nil 0
	update_a 0 4
	pop_a 1
	push_a 2
	buildh e_Data.Tree_dgo;31.29 1
	push_a 2
	push_a 1
	update_a 1 2
	update_a 0 1
	pop_a 1
	build e_StdList_dmap 2 e_StdList_nmap
	push_a 1
	push_a 4
	update_a 2 6
	update_a 1 5
	updatepop_a 0 4
	jmp_ap 2
.export e_Data.Tree_sunfoldRForestM
.descexp e_Data.Tree_dunfoldRForestM e_Data.Tree_nunfoldRForestM e_Data.Tree_lunfoldRForestM 3 0 "unfoldRForestM"
.a 0 ea16
.o 2 0
e_Data.Tree_lunfoldRForestM
	repl_args 2 2
.d 3 0
	jmp ea16
.n 3 e_Data.Tree_dunfoldRForestM _
.o 1 0
e_Data.Tree_nunfoldRForestM
	push_node _cycle_in_spine 3
.d 3 0
	jsr ea16
.o 1 0
	fill_a 0 1
	pop_a 1
.d 1 0
	rtn
.o 4 0
e_Data.Tree_sunfoldRForestM
	jsr_eval 3
.d 4 0
	jmp s16
.o 3 0
ea16
	jsr_eval 2
	jsr_eval 0
	repl_r_args 2 0
.o 4 0
s16
.impmod Control.Monad
.impdesc e_Control.Monad_rMonad;
	build_r e_Control.Monad_rMonad; 2 0 0 0
	push_a 3
	push_a 1
	update_a 1 2
	update_a 0 1
	pop_a 1
	buildh e_Data.Tree_dunfoldRTreeM 2
	push_a 4
	push_a 3
	push_a 3
	push_a 3
	update_a 3 4
	update_a 0 3
	pop_a 1
	update_a 3 7
	update_a 2 6
	update_a 1 5
	updatepop_a 0 4
.d 4 0
	jmp e_Control.Monad_smapM
.export e_Data.Tree_d\;111;7;30.28
.desc e_Data.Tree_d\;111;7;30.28 _hnf l28 3 0 "\;111;7;30.28"
.a 0 ea28
.o 2 0
l28
	repl_args 2 2
.o 3 0
ea28
	push_a 2
	jsr_eval 0
	repl_args 2 2
	jsr_eval 1
	push_r_args 2 2 0
	update_a 3 6
	update_a 1 3
	update_a 5 4
	update_a 2 5
	update_a 0 2
	pop_a 2
.o 5 0
s28
	push_a 1
	repl_r_args_a 3 0 2 1
.impmod Control.Applicative
.impdesc e_Control.Applicative_rpure;
	buildhr e_Control.Applicative_rpure; 1 0
	push_a 4
	push_a 1
	update_a 1 2
	update_a 0 1
	pop_a 1
	buildh e_Data.Tree_d\;112;7;29.27 2
	push_a 5
	push_a 4
	push_a 4
	push_a 4
	buildh _Nil 0
	update_a 0 8
	update_a 0 10
	update_a 0 9
	pop_a 1
.d 4 0
	jsr s16
.o 1 0
	push_a 2
	update_a 2 7
	update_a 1 6
	updatepop_a 0 5
.d 3 0
	jmp_i 2
.export e_Data.Tree_sunfoldRTreeM
.descexp e_Data.Tree_dunfoldRTreeM e_Data.Tree_nunfoldRTreeM e_Data.Tree_lunfoldRTreeM 3 0 "unfoldRTreeM"
.a 0 ea15
.o 2 0
e_Data.Tree_lunfoldRTreeM
	repl_args 2 2
.d 3 0
	jmp ea15
.n 3 e_Data.Tree_dunfoldRTreeM _
.o 1 0
e_Data.Tree_nunfoldRTreeM
	push_node _cycle_in_spine 3
.d 3 0
	jsr ea15
.o 1 0
	fill_a 0 1
	pop_a 1
.d 1 0
	rtn
.o 4 0
e_Data.Tree_sunfoldRTreeM
	jsr_eval 2
.d 4 0
	jmp s15
.o 3 0
ea15
	jsr_eval 1
	jsr_eval 0
	repl_r_args 2 0
.o 4 0
s15
	build_r e_Control.Monad_rMonad; 2 0 0 0
	push_a 3
	push_a 1
	update_a 1 2
	update_a 0 1
	pop_a 1
	buildh e_Data.Tree_d\;111;7;30.28 2
	push_a 4
	push_a 4
	buildh _Nil 0
	update_a 0 6
	update_a 0 7
	pop_a 1
	jsr_ap 1
	push_a 2
	update_a 2 6
	update_a 1 5
	updatepop_a 0 4
.d 3 0
	jmp_i 2
.export e_Data.Tree_d\;112;7;29.27
.desc e_Data.Tree_d\;112;7;29.27 _hnf l27 3 0 "\;112;7;29.27"
.a 0 ea27
.o 2 0
l27
	repl_args 2 2
.o 3 0
ea27
	repl_r_args 1 0
.o 3 0
s27
	push_a 2
	push_a 2
	buildh e_Data.Tree_dRNode 2
	push_a 1
	update_a 1 4
	updatepop_a 0 3
.d 2 0
	jmp_i 1
.export e_Data.Tree_sunfoldRForest
.export e_Data.Tree_eaunfoldRForest
.descexp e_Data.Tree_dunfoldRForest e_Data.Tree_nunfoldRForest e_Data.Tree_lunfoldRForest 2 0 "unfoldRForest"
.a 2 e_Data.Tree_eaunfoldRForest
.o 2 0
e_Data.Tree_lunfoldRForest
	push_args 0 1 1
	update_a 2 1
	create
	update_a 0 3
	pop_a 1
.d 3 0
	jmp e_Data.Tree_eaunfoldRForest
.n 2 e_Data.Tree_dunfoldRForest e_Data.Tree_eaunfoldRForest
.o 1 0
e_Data.Tree_nunfoldRForest
	push_node _cycle_in_spine 2
.o 3 0
e_Data.Tree_sunfoldRForest
.o 3 0
e_Data.Tree_eaunfoldRForest
	jsr_eval 1
.o 3 0
s14
	push_a 0
	buildh e_Data.Tree_dunfoldRTree 1
	push_a 2
	push_a 1
	update_a 1 2
	update_a 0 1
	pop_a 1
	update_a 1 3
	updatepop_a 0 2
.d 3 0
	jmp e_StdList_smap
.export e_Data.Tree_sunfoldRTree
.export e_Data.Tree_eaunfoldRTree
.descexp e_Data.Tree_dunfoldRTree e_Data.Tree_nunfoldRTree e_Data.Tree_lunfoldRTree 2 0 "unfoldRTree"
.a 2 e_Data.Tree_eaunfoldRTree
.o 2 0
e_Data.Tree_lunfoldRTree
	push_args 0 1 1
	update_a 2 1
	create
	update_a 0 3
	pop_a 1
.d 3 0
	jmp e_Data.Tree_eaunfoldRTree
.n 2 e_Data.Tree_dunfoldRTree e_Data.Tree_eaunfoldRTree
.o 1 0
e_Data.Tree_nunfoldRTree
	push_node _cycle_in_spine 2
.o 3 0
e_Data.Tree_eaunfoldRTree
.o 3 0
e_Data.Tree_sunfoldRTree
.o 3 0
s13
	push_a 1
	push_a 1
	build e_system_dAP 2 e_system_nAP
	push_a 0
	build d_S.2 -1 n_S.2
	push_a 2
	build e_Data.Tree_dunfoldRForest 2 e_Data.Tree_nunfoldRForest
	push_a 1
	build d_S.1 -1 n_S.1
	fillh e_Data.Tree_dRNode 2 5
	pop_a 3
.d 1 0
	rtn
.export e_Data.Tree_sleafs
.export e_Data.Tree_ealeafs
.descexp e_Data.Tree_dleafs e_Data.Tree_nleafs e_Data.Tree_lleafs 1 0 "leafs"
.o 2 0
e_Data.Tree_lleafs
	update_a 1 0
	create
	update_a 0 2
	pop_a 1
.d 2 0
	jmp e_Data.Tree_ealeafs
.n 1 e_Data.Tree_dleafs e_Data.Tree_ealeafs
.o 1 0
e_Data.Tree_nleafs
	push_node _cycle_in_spine 1
.o 2 0
e_Data.Tree_sleafs
.o 2 0
e_Data.Tree_ealeafs
	jsr_eval 0
.o 2 0
s12
	repl_args 2 2
	jsr_eval 1
	eq_desc _Nil 0 1
	jmp_true case.1
	jmp case.2
case.1
	buildh _Nil 0
	push_a 1
	fillh _Cons 2 4
	pop_a 2
.d 1 0
	rtn
case.2
	buildh e_Data.Tree_dleafs 0
	push_a 2
	push_a 1
	update_a 1 2
	update_a 0 1
	pop_a 1
	update_a 1 3
	updatepop_a 0 2
.d 3 0
	jmp e_Data.List_sconcatMap
.export e_Data.Tree_slevels
.export e_Data.Tree_ealevels
.descexp e_Data.Tree_dlevels e_Data.Tree_nlevels e_Data.Tree_llevels 1 0 "levels"
.o 2 0
e_Data.Tree_llevels
	update_a 1 0
	create
	update_a 0 2
	pop_a 1
.d 2 0
	jmp e_Data.Tree_ealevels
.n 1 e_Data.Tree_dlevels e_Data.Tree_ealevels
.o 1 0
e_Data.Tree_nlevels
	push_node _cycle_in_spine 1
.o 2 0
e_Data.Tree_ealevels
.o 2 0
e_Data.Tree_slevels
.o 2 0
s11
	buildh _Nil 0
	push_a 1
	buildh _Cons 2
	buildh e_Data.Tree_d_f1.71 0
	create
	push_a 2
	update_a 1 3
	update_a 2 1
	update_a 0 2
	pop_a 1
	update_a 2 3
	update_a 1 2
	updatepop_a 0 1
.d 3 0
	jsr e_StdList_siterate
.o 1 0
	buildh e_Data.Tree_d\;15;13;88.32 0
	create
	push_a 2
	update_a 1 3
	update_a 2 1
	update_a 0 2
	pop_a 1
.d 3 0
	jsr e_StdList_stakeWhile
.o 1 0
	buildh e_Data.Tree_d_f0.70 0
.d 3 0
	jmp e_StdList_smap
.export e_Data.Tree_d_f1.71
.desc e_Data.Tree_d_f1.71 _hnf l71 1 0 "_f1.71"
.o 2 0
l71
	update_a 1 0
	create
	update_a 0 2
	pop_a 1
.o 2 0
ea71
.o 2 0
s71
	push_a 0
	jsr_eval 0
	buildh e_Data.Tree_dsubRForest 0
	update_a 1 2
	updatepop_a 0 1
.d 3 0
	jmp e_Data.List_sconcatMap
.export e_Data.Tree_d_f0.70
.desc e_Data.Tree_d_f0.70 _hnf l70 1 0 "_f0.70"
.o 2 0
l70
	update_a 1 0
	create
	update_a 0 2
	pop_a 1
.o 2 0
ea70
.o 2 0
s70
	push_a 0
	jsr_eval 0
	buildh e_Data.Tree_drootLabel 0
	update_a 1 2
	updatepop_a 0 1
.d 3 0
	jmp e_StdList_smap
.export e_Data.Tree_d\;15;13;88.32
.desc e_Data.Tree_d\;15;13;88.32 _hnf l32 1 0 "\;15;13;88.32"
.o 2 0
l32
	pop_a 1
.d 1 0
	jsr ea32
.o 0 1 b
	buildB_b 0
	pop_b 1
.d 1 0
	rtn
.o 1 0
ea32
	jsr_eval 0
.o 1 0
s32
	push_a 0
	updatepop_a 0 1
.d 1 0
	jsr e_StdList_sisEmpty
.o 0 1 b
	notB
.d 0 1 b
	rtn
.export e_Data.Tree_sdrawRForest
.descexp e_Data.Tree_ddrawRForest e_Data.Tree_ndrawRForest e_Data.Tree_ldrawRForest 1 0 "drawRForest"
.o 2 0
e_Data.Tree_ldrawRForest
	pop_a 1
.d 1 0
	jsr ea9
.o 1 0
	buildh ARRAY 1
.d 1 0
	rtn
.n 1 e_Data.Tree_ddrawRForest
.o 1 0
e_Data.Tree_ndrawRForest
	push_node _cycle_in_spine 1
.d 1 0
	jsr ea9
.o 1 0
	fillh ARRAY 1 1
.d 1 0
	rtn
.o 1 0
e_Data.Tree_sdrawRForest
.o 1 0
ea9
	jsr_eval 0
.o 1 0
s9
	buildh e_Data.Tree_ddrawRTree 0
	create
	push_a 2
	push_a 2
	update_a 2 3
	update_a 1 2
	update_a 0 1
	pop_a 1
	update_a 2 3
	update_a 1 2
	updatepop_a 0 1
.d 3 0
	jsr e_StdList_smap
.o 1 0
.d 1 0
	jmp s7
.export e_Data.Tree_sdrawRTree
.descexp e_Data.Tree_ddrawRTree e_Data.Tree_ndrawRTree e_Data.Tree_ldrawRTree 1 0 "drawRTree"
.o 2 0
e_Data.Tree_ldrawRTree
	pop_a 1
.d 1 0
	jsr ea8
.o 1 0
	buildh ARRAY 1
.d 1 0
	rtn
.n 1 e_Data.Tree_ddrawRTree
.o 1 0
e_Data.Tree_ndrawRTree
	push_node _cycle_in_spine 1
.d 1 0
	jsr ea8
.o 1 0
	fillh ARRAY 1 1
.d 1 0
	rtn
.o 1 0
e_Data.Tree_sdrawRTree
.o 1 0
ea8
	jsr_eval 0
.o 1 0
s8
	create
	push_a 1
	update_a 1 2
	updatepop_a 0 1
.d 2 0
	jsr s10
.o 1 0
.d 1 0
	jmp s7
.export e_Data.Tree_ddrawSubRTrees;26.26
.export e_Data.Tree_ndrawSubRTrees;26.26
.descn e_Data.Tree_ddrawSubRTrees;26.26 e_Data.Tree_ndrawSubRTrees;26.26 1 0 "drawSubRTrees;26.26"
.n 1 e_Data.Tree_ddrawSubRTrees;26.26 ea26
.o 1 0
e_Data.Tree_ndrawSubRTrees;26.26
	push_node _cycle_in_spine 1
.o 2 0
ea26
	jsr_eval 0
.o 2 0
s26
	eq_desc _Nil 0 0
	jmp_true case.3
	jmp case.4
case.3
	fillh _Nil 0 1
	pop_a 1
.d 1 0
	rtn
case.4
	repl_args 2 2
	jsr_eval 1
	eq_desc _Nil 0 1
	jmp_true case.5
	jmp case.6
case.5
	push_a 0
	build e_Data.Tree_ddraw 1 e_Data.Tree_ndraw
	buildAC "   "
	buildh ARRAY 1
	buildAC "`- "
	buildh ARRAY 1
	build e_Data.Tree_dshift;86.31 3 e_Data.Tree_nshift;86.31
	buildAC "|"
	buildh ARRAY 1
	fillh _Cons 2 4
	pop_a 2
.d 1 0
	rtn
case.6
	push_a 1
	build e_Data.Tree_ddrawSubRTrees;26.26 1 e_Data.Tree_ndrawSubRTrees;26.26
	push_a 1
	build e_Data.Tree_ddraw 1 e_Data.Tree_ndraw
	buildAC "|  "
	buildh ARRAY 1
	buildAC "+- "
	buildh ARRAY 1
	build e_Data.Tree_dshift;86.31 3 e_Data.Tree_nshift;86.31
	build e_StdList_d++ 2 e_StdList_n++
	buildAC "|"
	buildh ARRAY 1
	fillh _Cons 2 4
	pop_a 2
.d 1 0
	rtn
.export e_Data.Tree_sdraw
.export e_Data.Tree_eadraw
.descexp e_Data.Tree_ddraw e_Data.Tree_ndraw e_Data.Tree_ldraw 1 0 "draw"
.o 2 0
e_Data.Tree_ldraw
	update_a 1 0
	create
	update_a 0 2
	pop_a 1
.d 2 0
	jmp e_Data.Tree_eadraw
.n 1 e_Data.Tree_ddraw e_Data.Tree_eadraw
.o 1 0
e_Data.Tree_ndraw
	push_node _cycle_in_spine 1
.o 2 0
e_Data.Tree_sdraw
.o 2 0
e_Data.Tree_eadraw
	jsr_eval 0
.o 2 0
s10
	repl_args 2 2
	push_a 1
	build e_Data.Tree_ddrawSubRTrees;26.26 1 e_Data.Tree_ndrawSubRTrees;26.26
	push_a 1
	fillh _Cons 2 4
	pop_a 2
.d 1 0
	rtn
.export e_Data.Tree_dshift;86.31
.export e_Data.Tree_nshift;86.31
.descn e_Data.Tree_dshift;86.31 e_Data.Tree_nshift;86.31 3 0 "shift;86.31"
.n 3 e_Data.Tree_dshift;86.31 ea31
.o 1 0
e_Data.Tree_nshift;86.31
	push_node _cycle_in_spine 3
.o 4 0
ea31
.o 4 0
s31
	push_a 1
	build e_StdList_drepeat 1 e_StdList_nrepeat
	push_a 1
	buildh _Cons 2
	buildh e_StdString_d+++;11 0
	push_a 4
	push_a 2
	update_a 1 3
	update_a 2 1
	update_a 0 2
	pop_a 1
	update_a 2 5
	update_a 1 4
	updatepop_a 0 3
.d 4 0
	jmp e_Data.List_szipWith
.export e_Data.Tree_sunlines
.descexp e_Data.Tree_dunlines e_Data.Tree_nunlines e_Data.Tree_lunlines 1 0 "unlines"
.o 2 0
e_Data.Tree_lunlines
	pop_a 1
.d 1 0
	jsr ea7
.o 1 0
	buildh ARRAY 1
.d 1 0
	rtn
.n 1 e_Data.Tree_dunlines
.o 1 0
e_Data.Tree_nunlines
	push_node _cycle_in_spine 1
.d 1 0
	jsr ea7
.o 1 0
	fillh ARRAY 1 1
.d 1 0
	rtn
.o 1 0
e_Data.Tree_sunlines
.o 1 0
ea7
	jsr_eval 0
.o 1 0
s7
	push_a 0
	buildAC ""
	update_a 1 2
	updatepop_a 0 1
.d 2 0
	jmp s30
.o 2 0
s30
	eq_desc _Nil 0 1
	jmp_true case.7
	jmp case.8
case.7
	updatepop_a 0 1
.d 1 0
	rtn
case.8
	push_args 1 2 2
	buildh _Nil 0
	update_a 0 4
	pop_a 1
	push_a 1
	jsr_eval 0
	push_a 3
	update_a 2 5
	update_a 1 4
	updatepop_a 0 3
.d 2 0
	jsr s30
.o 1 0
	push_a 1
	jsr_eval 0
	push_array 0
	updatepop_a 0 1
	update_a 1 2
	updatepop_a 0 1
.d 2 0
	jmp s25
.o 2 0
s25
	push_a 1
	buildAC "\n"
	update_a 2 3
	update_a 1 2
	updatepop_a 0 1
.d 2 0
	jsr catAC
.o 1 0
	push_a 1
	update_a 1 2
	updatepop_a 0 1
.d 2 0
	jsr catAC
.o 1 0
.d 1 0
	rtn
.export e_Data.Tree_smergeForests
.export e_Data.Tree_eamergeForests
.descexp e_Data.Tree_dmergeForests e_Data.Tree_nmergeForests e_Data.Tree_lmergeForests 3 0 "mergeForests"
.a 3 e_Data.Tree_eamergeForests
.o 2 0
e_Data.Tree_lmergeForests
	push_args 0 2 2
	update_a 3 2
	create
	update_a 0 4
	pop_a 1
.d 4 0
	jmp e_Data.Tree_eamergeForests
.n 3 e_Data.Tree_dmergeForests e_Data.Tree_eamergeForests
.o 1 0
e_Data.Tree_nmergeForests
	push_node _cycle_in_spine 3
.d 4 0
	jmp e_Data.Tree_eamergeForests
.o 4 0
e_Data.Tree_smergeForests
	jsr_eval 2
	jsr_eval 1
.d 4 0
	jmp s4
.o 4 0
e_Data.Tree_eamergeForests
	jsr_eval 2
	jsr_eval 1
	jsr_eval 0
	repl_r_args 1 0
.o 4 0
s4
	push_a 0
	push_a 3
	push_a 3
	push_a 2
	update_a 2 3
	update_a 1 2
	update_a 0 1
	pop_a 1
	update_a 2 5
	update_a 1 4
	updatepop_a 0 3
.d 4 0
	jmp s5
.export e_Data.Tree_smergeForestsBy
.export e_Data.Tree_eamergeForestsBy
.descexp e_Data.Tree_dmergeForestsBy e_Data.Tree_nmergeForestsBy e_Data.Tree_lmergeForestsBy 3 0 "mergeForestsBy"
.a 3 e_Data.Tree_eamergeForestsBy
.o 2 0
e_Data.Tree_lmergeForestsBy
	push_args 0 2 2
	update_a 3 2
	create
	update_a 0 4
	pop_a 1
.d 4 0
	jmp e_Data.Tree_eamergeForestsBy
.n 3 e_Data.Tree_dmergeForestsBy e_Data.Tree_eamergeForestsBy
.o 1 0
e_Data.Tree_nmergeForestsBy
	push_node _cycle_in_spine 3
.o 4 0
e_Data.Tree_smergeForestsBy
.o 4 0
e_Data.Tree_eamergeForestsBy
	jsr_eval 2
	jsr_eval 1
.o 4 0
s5
	buildh e_Data.Tree_d\;48;50;24.24 0
	push_a 3
	push_a 3
	push_a 3
	push_a 3
	update_a 3 4
	update_a 2 3
	update_a 0 2
	pop_a 1
	update_a 3 6
	update_a 2 5
	update_a 1 4
	updatepop_a 0 3
.d 5 0
	jmp s6
.export e_Data.Tree_d\;48;50;24.24
.desc e_Data.Tree_d\;48;50;24.24 _hnf l24 2 0 "\;48;50;24.24"
.a 0 ea24
.o 2 0
l24
	repl_args 1 1
.o 2 0
ea24
	jsr_eval 0
.o 2 0
s24
	updatepop_a 0 1
.d 1 0
	rtn
.export e_Data.Tree_smergeForestsByChoice
.export e_Data.Tree_eamergeForestsByChoice
.descexp e_Data.Tree_dmergeForestsByChoice e_Data.Tree_nmergeForestsByChoice e_Data.Tree_lmergeForestsByChoice 4 0 "mergeForestsByChoice"
.a 4 e_Data.Tree_eamergeForestsByChoice
.o 2 0
e_Data.Tree_lmergeForestsByChoice
	push_args 0 3 3
	update_a 4 3
	create
	update_a 0 5
	pop_a 1
.d 5 0
	jmp e_Data.Tree_eamergeForestsByChoice
.n 4 e_Data.Tree_dmergeForestsByChoice e_Data.Tree_eamergeForestsByChoice
.o 1 0
e_Data.Tree_nmergeForestsByChoice
	push_node _cycle_in_spine 4
.o 5 0
e_Data.Tree_smergeForestsByChoice
.o 5 0
e_Data.Tree_eamergeForestsByChoice
	jsr_eval 3
	jsr_eval 2
.o 5 0
s6
	eq_desc _Nil 0 2
	jmp_true case.9
	jmp case.10
case.9
	fill_a 3 4
	pop_a 4
.d 1 0
	rtn
case.10
	eq_desc _Nil 0 3
	jmp_true case.11
	jmp case.12
case.11
	fill_a 2 4
	pop_a 4
.d 1 0
	rtn
case.12
	push_args 3 2 2
	buildh _Nil 0
	update_a 0 6
	pop_a 1
	eq_desc _Cons 2 4
	jmp_true case.14
	pop_a 2
	jmp case.13
case.14
	push_args 4 2 2
	buildh _Nil 0
	update_a 0 7
	pop_a 1
	jsr_eval 0
	push_args 0 2 2
	jsr_eval 4
	push_args 4 2 2
	push_a 0
	push_a 9
	jsr_eval 0
	push_a 4
	push_a 1
	update_a 1 2
	update_a 0 1
	pop_a 1
	jsr_ap 2
	pushB_a 0
	pop_a 1
	jmp_false else.15
	push_a 7
	push_a 6
	push_a 11
	push_a 11
	build e_Data.Tree_dmergeForestsByChoice 4 e_Data.Tree_nmergeForestsByChoice
	push_a 2
	push_a 5
	push_a 12
	push_a 12
	build e_Data.Tree_dmergeForestsByChoice 4 e_Data.Tree_nmergeForestsByChoice
	push_a 2
	push_a 5
	push_a 13
	build e_Data.Tree_d_f2.72 3 e_Data.Tree_n_f2.72
	buildh e_Data.Tree_dRNode 2
	fillh _Cons 2 14
	pop_a 12
.d 1 0
	rtn
else.15
	push_a 7
	push_a 6
	push_a 11
	push_a 11
	build e_Data.Tree_dmergeForestsByChoice 4 e_Data.Tree_nmergeForestsByChoice
	push_a 7
	buildh _Cons 2
	push_a 5
	fillh _Cons 2 14
	pop_a 12
.d 1 0
	rtn
case.13
	buildAC "error in mergeForestsByChoice\n"
	updatepop_a 0 4
.d 1 0
	jsr print_string_
.o 0 0
	halt
	fill_a 0 1
	pop_a 1
.d 1 0
	rtn
.export e_Data.Tree_d_f2.72
.export e_Data.Tree_n_f2.72
.descn e_Data.Tree_d_f2.72 e_Data.Tree_n_f2.72 3 0 "_f2.72"
.n 3 e_Data.Tree_d_f2.72 ea72
.o 1 0
e_Data.Tree_n_f2.72
	push_node _cycle_in_spine 3
.o 4 0
ea72
.o 4 0
s72
	push_a 2
	push_a 1
	jsr_eval 0
	push_a 3
	push_a 1
	update_a 1 2
	update_a 0 1
	pop_a 1
	update_a 2 5
	update_a 1 4
	updatepop_a 0 3
	jsr_ap 2
	fill_a 0 1
	pop_a 1
.d 1 0
	rtn
.export e_Data.Tree_sfmapRTree
.export e_Data.Tree_eafmapRTree
.descexp e_Data.Tree_dfmapRTree e_Data.Tree_nfmapRTree e_Data.Tree_lfmapRTree 2 0 "fmapRTree"
.a 2 e_Data.Tree_eafmapRTree
.o 2 0
e_Data.Tree_lfmapRTree
	push_args 0 1 1
	update_a 2 1
	create
	update_a 0 3
	pop_a 1
.d 3 0
	jmp e_Data.Tree_eafmapRTree
.n 2 e_Data.Tree_dfmapRTree e_Data.Tree_eafmapRTree
.o 1 0
e_Data.Tree_nfmapRTree
	push_node _cycle_in_spine 2
.o 3 0
e_Data.Tree_eafmapRTree
	jsr_eval 1
.o 3 0
e_Data.Tree_sfmapRTree
.o 3 0
s3
	push_args 1 2 2
	buildh _Nil 0
	update_a 0 4
	pop_a 1
	push_a 2
	buildh e_Data.Tree_dfmapRTree 1
	push_a 2
	push_a 1
	update_a 1 2
	update_a 0 1
	pop_a 1
	build e_StdList_dmap 2 e_StdList_nmap
	push_a 1
	push_a 4
	build e_system_dAP 2 e_system_nAP
	fillh e_Data.Tree_dRNode 2 6
	pop_a 4
.d 1 0
	rtn
.export e_Data.Tree_ssubRForest
.export e_Data.Tree_easubRForest
.descexp e_Data.Tree_dsubRForest e_Data.Tree_nsubRForest e_Data.Tree_lsubRForest 1 0 "subRForest"
.o 2 0
e_Data.Tree_lsubRForest
	update_a 1 0
	create
	update_a 0 2
	pop_a 1
.d 2 0
	jmp e_Data.Tree_easubRForest
.n 1 e_Data.Tree_dsubRForest e_Data.Tree_easubRForest
.o 1 0
e_Data.Tree_nsubRForest
	push_node _cycle_in_spine 1
.o 2 0
e_Data.Tree_ssubRForest
.o 2 0
e_Data.Tree_easubRForest
	jsr_eval 0
.o 2 0
s2
	repl_args 2 2
	pop_a 1
	jmp_eval_upd
.export e_Data.Tree_srootLabel
.descexp e_Data.Tree_drootLabel e_Data.Tree_nrootLabel e_Data.Tree_lrootLabel 1 0 "rootLabel"
.o 2 0
e_Data.Tree_lrootLabel
	pop_a 1
.d 1 0
	jmp ea1
.n 1 e_Data.Tree_drootLabel _
.o 1 0
e_Data.Tree_nrootLabel
	push_node _cycle_in_spine 1
.d 1 0
	jsr ea1
.o 1 0
	fill_a 0 1
	pop_a 1
.d 1 0
	rtn
.o 1 0
e_Data.Tree_srootLabel
.o 1 0
ea1
	jsr_eval 0
.o 1 0
s1
	repl_args 2 2
	update_a 0 1
	pop_a 1
	jmp_eval
