.comp 920 000011110011000
.start _nostart_
.depend "StdCharList" "20210613122638"
.depend "_SystemArray" "20210613122638"
.depend "StdArray" "20210613122638"
.depend "StdEnv" "20210613122638"
.depend "_SystemEnum" "20210613122638"
.depend "StdEnum" "20210613122638"
.depend "StdTuple" "20210613122638"
.depend "StdOrdList" "20210613122638"
.depend "tcp_bytestreams" "20210613122630"
.depend "TCPDef" "20210613122630"
.depend "TCPChannels" "20210613122630"
.depend "StdFile" "20210613122638"
.depend "tcp" "20210613122630"
.depend "TCPChannelClass" "20210613122630"
.depend "StdString" "20210613122638"
.depend "StdMisc" "20210613122638"
.depend "StdFunctions" "20210613122638"
.depend "_SystemEnumStrict" "20210613122638"
.depend "_SystemStrictLists" "20210613122638"
.depend "StdStrictLists" "20210613122638"
.depend "StdReal" "20210613122638"
.depend "StdChar" "20210613122638"
.depend "StdInt" "20210613122638"
.depend "StdBool" "20210613122638"
.depend "StdClass" "20210613122638"
.depend "StdList" "20210613122638"
.depend "StdOverloaded" "20210613122638"
.depend "_SystemDynamic" "20210613122638"
.depend "TCPEvent" "20210613122630"
.module m_TCPEvent "TCPEvent" "20210613122630"
.endinfo
.impmod _system
.implab _cycle_in_spine
.implab _type_error
.implab _hnf
.impdesc e_system_dind
.implab e_system_nind e_system_eaind
.impdesc e_system_dif
.implab e_system_nif e_system_eaif
.implab e_system_sif
.impdesc e_system_dAP
.implab e_system_nAP e_system_eaAP
.implab e_system_sAP
.impdesc ARRAY
.impdesc _Nil
.impdesc _Cons
.impdesc _Conss
.implab n_Conss ea_Conss
.impdesc _Consts
.implab n_Consts ea_Consts
.impdesc _Conssts
.implab n_Conssts ea_Conssts
.impdesc _Tuple
.impdesc d_S.1
.implab n_S.1 ea_S.1
.impdesc d_S.2
.implab n_S.2 ea_S.2
.impdesc d_S.3
.implab n_S.3 ea_S.3
.impdesc d_S.4
.implab n_S.4 ea_S.4
.impdesc d_S.5
.implab n_S.5 ea_S.5
.impdesc d_S.6
.implab n_S.6 ea_S.6
.implab _driver
.impmod tcp_bytestreams
.impdesc e_tcp_bytestreams_rTCP_SCharStream_
.impdesc e_tcp_bytestreams_tTCP_SCharStream_
.implab e_tcp_bytestreams_cTCP_SCharStream_
.export e_TCPEvent_raccSChannel;
.record e_TCPEvent_raccSChannel; a 1 0 "accSChannel;"
.descexp e_TCPEvent_taccSChannel; e_TCPEvent_caccSChannel; _hnf 1 1 "accSChannel;"
.n 1 e_TCPEvent_taccSChannel;
.o 1 0
e_TCPEvent_caccSChannel;
	push_node _cycle_in_spine 1
	jsr_eval 0
.impmod TCPEvent
.impdesc e_TCPEvent_raccSChannel;
	fill_r e_TCPEvent_raccSChannel; 1 0 1 0 0
	pop_a 1
.d 1 0
	rtn
.export e_TCPEvent_daccSChannel;.accSChannel
.export e_TCPEvent_naccSChannel;.accSChannel
.export e_TCPEvent_eaaccSChannel;.accSChannel
.descs e_TCPEvent_daccSChannel;.accSChannel e_TCPEvent_naccSChannel;.accSChannel _ 1 0 "accSChannel;.accSChannel"
.n -4 e_TCPEvent_daccSChannel;.accSChannel e_TCPEvent_eaaccSChannel;.accSChannel
.o 1 0
e_TCPEvent_naccSChannel;.accSChannel
	push_node _cycle_in_spine 1
.o 2 0
e_TCPEvent_eaaccSChannel;.accSChannel
	jsr_eval 0
	repl_r_args_a 1 0 1 1
	fill_a 0 1
	pop_a 1
.d 1 0
	rtn
.export e_TCPEvent_sTD;accSChannel;
.export e_TCPEvent_eaTD;accSChannel;
.descexp e_TCPEvent_dTD;accSChannel; e_TCPEvent_nTD;accSChannel; e_TCPEvent_lTD;accSChannel; 1 0 "TD;accSChannel;"
.o 2 0
e_TCPEvent_lTD;accSChannel;
	update_a 1 0
	create
	update_a 0 2
	pop_a 1
.d 2 0
	jmp e_TCPEvent_eaTD;accSChannel;
.n 1 e_TCPEvent_dTD;accSChannel; e_TCPEvent_eaTD;accSChannel;
.o 1 0
e_TCPEvent_nTD;accSChannel;
	push_node _cycle_in_spine 1
.o 2 0
e_TCPEvent_eaTD;accSChannel;
.o 2 0
e_TCPEvent_sTD;accSChannel;
.o 2 0
s3
	fillh _Nil 0 1
	pop_a 1
.d 1 0
	rtn
.export e_TCPEvent_saccSChannel;1
.descexp e_TCPEvent_daccSChannel;1 e_TCPEvent_naccSChannel;1 e_TCPEvent_laccSChannel;1 2 0 "accSChannel;1"
.o 3 0
e_TCPEvent_iaccSChannel;1
	pop_a 1
	jsr_eval 1
	push_r_args 1 1 0
	jsr_eval 1
	update_a 0 2
	pop_a 1
.d 2 0
	jmp s2
.ai 0 a2 e_TCPEvent_iaccSChannel;1
.o 2 0
e_TCPEvent_laccSChannel;1
	repl_args 1 1
.o 2 0
a2
.d 2 0
	jsr ea2
.o 2 0
	push_a 1
	push_a 1
	buildh _Tuple 2
	updatepop_a 0 2
.d 1 0
	rtn
.n 2 e_TCPEvent_daccSChannel;1
.o 1 0
e_TCPEvent_naccSChannel;1
	push_node _cycle_in_spine 2
.d 2 0
	jsr ea2
.o 2 0
	push_a 1
	push_a 1
	fillh _Tuple 2 4
	pop_a 2
.d 1 0
	rtn
.o 2 0
e_TCPEvent_saccSChannel;1
.o 2 0
ea2
	jsr_eval 1
	jsr_eval 0
	push_r_args 1 1 0
	update_a 0 2
	pop_a 1
.o 2 0
s2
	push_a 1
	push_a 1
	update_a 1 2
	updatepop_a 0 1
	jsr_ap 1
	push_arg 0 2 2
	push_a 2
	pop_a 1
	build e_TCPEvent_d_upd0.9 1 e_TCPEvent_n_upd0.9
	push_arg 1 2 1
	update_a 1 3
	updatepop_a 0 2
.d 2 0
	rtn
.export e_TCPEvent_d_upd0.9
.export e_TCPEvent_n_upd0.9
.descn e_TCPEvent_d_upd0.9 e_TCPEvent_n_upd0.9 1 0 "_upd0.9"
.n 1 e_TCPEvent_d_upd0.9
.o 1 0
e_TCPEvent_n_upd0.9
	push_node _cycle_in_spine 1
.o 1 0
ea9
	push_a 0
	jsr_eval 0
	updatepop_a 0 1
	fill_r e_tcp_bytestreams_rTCP_SCharStream_ 1 0 1 0 0
	pop_a 1
.d 1 0
	rtn
.export e_TCPEvent_saccSChannel;0
.descexp e_TCPEvent_daccSChannel;0 e_TCPEvent_naccSChannel;0 e_TCPEvent_laccSChannel;0 2 0 "accSChannel;0"
.o 3 0
e_TCPEvent_iaccSChannel;0
	pop_a 1
	jsr_eval 0
.d 2 0
	jmp s1
.ai 0 a1 e_TCPEvent_iaccSChannel;0
.o 2 0
e_TCPEvent_laccSChannel;0
	repl_args 1 1
.o 2 0
a1
.d 2 0
	jsr ea1
.o 2 0
	push_a 1
	push_a 1
	buildh _Tuple 2
	updatepop_a 0 2
.d 1 0
	rtn
.n 2 e_TCPEvent_daccSChannel;0
.o 1 0
e_TCPEvent_naccSChannel;0
	push_node _cycle_in_spine 2
.d 2 0
	jsr ea1
.o 2 0
	push_a 1
	push_a 1
	fillh _Tuple 2 4
	pop_a 2
.d 1 0
	rtn
.o 2 0
e_TCPEvent_saccSChannel;0
.o 2 0
ea1
	jsr_eval 0
.o 2 0
s1
	push_a 1
	build e_TCPEvent_dCast.4 1 e_TCPEvent_nCast.4
	push_a 1
	update_a 1 3
	updatepop_a 0 2
	jsr_ap 1
	push_arg 0 2 2
	build e_TCPEvent_dCast.4 1 e_TCPEvent_nCast.4
	push_arg 1 2 1
	update_a 1 2
	updatepop_a 0 1
.d 2 0
	rtn
.export e_TCPEvent_dCast.4
.export e_TCPEvent_nCast.4
.descn e_TCPEvent_dCast.4 e_TCPEvent_nCast.4 1 0 "Cast.4"
.n 1 e_TCPEvent_dCast.4 _
.o 1 0
e_TCPEvent_nCast.4
	push_node _cycle_in_spine 1
.d 1 0
	jsr ea4
.o 1 0
	fill_a 0 1
	pop_a 1
.d 1 0
	rtn
.o 1 0
ea4
	jsr_eval 0
.o 1 0
s4
	pop_a 0
.d 1 0
	rtn
