.comp 920 000011110011000
.start _nostart_
.depend "iTasks.Internal.Util" "20210613154824"
.depend "StdTuple" "20210613154827"
.depend "System._Signal" "20210613154827"
.depend "System.Signal" "20210613154827"
.depend "_SystemStrictMaybes" "20210613154827"
.depend "Text.GenPrint" "20210613154827"
.depend "iTasks.Extensions.DateTime" "20210613154824"
.depend "iTasks.Internal.TaskServer" "20210613154824"
.depend "iTasks.Extensions.Document" "20210613154824"
.depend "System.File" "20210613154827"
.depend "iTasks.Util.DeferredJSON" "20210613154824"
.depend "iTasks.Internal.SDS" "20210613154824"
.depend "iTasks.Internal.TaskEval" "20210613154824"
.depend "iTasks.UI.Layout" "20210613154824"
.depend "iTasks.Internal.TaskState" "20210613154824"
.depend "iTasks.WF.Combinators.Core" "20210613154824"
.depend "Data.IntMap.Base" "20210613154827"
.depend "Data.IntMap.Strict" "20210613154827"
.depend "Data.CircularStack" "20210613154827"
.depend "System._Process" "20210613154827"
.depend "System.Process" "20210613154827"
.depend "System.OS" "20210613154827"
.depend "Data.GenHash" "20210613154827"
.depend "Data.Maybe.Ord" "20210613154827"
.depend "Control.GenBimap" "20210613154827"
.depend "ABC.Interpreter.JavaScript" "20210613154824"
.depend "ABC.Interpreter" "20210613154824"
.depend "iTasks.UI.Editor" "20210613154824"
.depend "iTasks.UI.Editor.Generic" "20210613154824"
.depend "iTasks.Internal.Generic.Defaults" "20210613154824"
.depend "Data.GenDefault" "20210613154827"
.depend "Data.Integer" "20210613154827"
.depend "Text.HTML" "20210613154827"
.depend "iTasks.Internal.Generic.Visualization" "20210613154824"
.depend "iTasks.SDS.Definition" "20210613154824"
.depend "TCPStringChannelsInternal" "20210613154827"
.depend "TCPStringChannels" "20210613154827"
.depend "TCPEvent" "20210613154827"
.depend "tcp_bytestreams" "20210613154827"
.depend "TCPDef" "20210613154827"
.depend "TCPChannels" "20210613154827"
.depend "TCPIP" "20210613154827"
.depend "iTasks.WF.Tasks.IO" "20210613154824"
.depend "iTasks.Internal.Task" "20210613154824"
.depend "iTasks.UI.Definition" "20210613154824"
.depend "Text.GenJSON" "20210613154827"
.depend "Data.Bifunctor" "20210613154827"
.depend "Data.Either" "20210613154827"
.depend "Data.Queue" "20210613154827"
.depend "StdFile" "20210613154827"
.depend "symbols_in_program" "20210613154824"
.depend "iTasks.Internal.IWorld" "20210613154824"
.depend "iTasks.WF.Definition" "20210613154824"
.depend "tcp" "20210613154827"
.depend "TCPChannelClass" "20210613154827"
.depend "System._Time" "20210613154827"
.depend "System.Time" "20210613154827"
.depend "System.GetOpt" "20210613154827"
.depend "System.OSError" "20210613154827"
.depend "System.FilePath" "20210613154827"
.depend "StdString" "20210613154827"
.depend "Internet.HTTP" "20210613154827"
.depend "Control.Monad.Fail" "20210613154827"
.depend "Data.Traversable" "20210613154827"
.depend "StdMisc" "20210613154827"
.depend "StdOverloadedList" "20210613154827"
.depend "Data.List" "20210613154827"
.depend "Data.Foldable" "20210613154827"
.depend "Data.Set" "20210613154827"
.depend "Data.GenLexOrd" "20210613154827"
.depend "StdFunctions" "20210613154827"
.depend "StdFunc" "20210613154827"
.depend "Data.Map" "20210613154827"
.depend "_SystemEnumStrict" "20210613154827"
.depend "_SystemStrictLists" "20210613154827"
.depend "StdStrictLists" "20210613154827"
.depend "StdGeneric" "20210613154827"
.depend "Data.GenEq" "20210613154827"
.depend "StdReal" "20210613154827"
.depend "StdChar" "20210613154827"
.depend "StdInt" "20210613154827"
.depend "StdBool" "20210613154827"
.depend "StdClass" "20210613154827"
.depend "StdList" "20210613154827"
.depend "Data.Monoid" "20210613154827"
.depend "Control.Applicative" "20210613154827"
.depend "Control.Monad" "20210613154827"
.depend "Data.Functor" "20210613154827"
.depend "Data.Error" "20210613154827"
.depend "iTasks.Engine" "20210613154824"
.depend "StdOverloaded" "20210613154827"
.depend "_SystemDynamic" "20210613154827"
.depend "iTasks.UI.Tune" "20210613154824"
.module m_iTasks.UI.Tune "iTasks.UI.Tune" "20210613154824"
.endinfo
.impmod _system
.implab _cycle_in_spine
.implab _type_error
.implab _hnf
.impdesc e_system_dind
.implab e_system_nind e_system_eaind
.impdesc e_system_dif
.implab e_system_nif e_system_eaif
.implab e_system_sif
.impdesc e_system_dAP
.implab e_system_nAP e_system_eaAP
.implab e_system_sAP
.impdesc ARRAY
.impdesc _Nil
.impdesc _Cons
.impdesc _Conss
.implab n_Conss ea_Conss
.impdesc _Consts
.implab n_Consts ea_Consts
.impdesc _Conssts
.implab n_Conssts ea_Conssts
.impdesc _Tuple
.impdesc d_S.1
.implab n_S.1 ea_S.1
.impdesc d_S.2
.implab n_S.2 ea_S.2
.impdesc d_S.3
.implab n_S.3 ea_S.3
.impdesc d_S.4
.implab n_S.4 ea_S.4
.impdesc d_S.5
.implab n_S.5 ea_S.5
.impdesc d_S.6
.implab n_S.6 ea_S.6
.implab _driver
.impmod iTasks.Internal.Util
.implab e_iTasks.Internal.Util_sisDestroyOrInterrupt
.impmod iTasks.UI.Layout
.impdesc e_iTasks.UI.Layout_dinitLUI
.implab e_iTasks.UI.Layout_ninitLUI e_iTasks.UI.Layout_eainitLUI
.impdesc e_iTasks.UI.Layout_dinitLUIMoves
.implab e_iTasks.UI.Layout_ninitLUIMoves e_iTasks.UI.Layout_eainitLUIMoves
.impdesc e_iTasks.UI.Layout_dextractResetChange
.implab e_iTasks.UI.Layout_nextractResetChange
.impdesc e_iTasks.UI.Layout_dapplyUpstreamChange
.implab e_iTasks.UI.Layout_napplyUpstreamChange
.impdesc e_iTasks.UI.Layout_dextractDownstreamChange
.implab e_iTasks.UI.Layout_nextractDownstreamChange
.impmod iTasks.UI.Definition
.impdesc e_iTasks.UI.Definition_dui
.implab e_iTasks.UI.Definition_nui e_iTasks.UI.Definition_eaui
.implab e_iTasks.UI.Definition_shintAttr
.implab e_iTasks.UI.Definition_stitleAttr
.impmod iTasks.WF.Definition
.implab e_iTasks.WF.Definition_sTask
.impdesc e_iTasks.WF.Definition_dapTask
.implab e_iTasks.WF.Definition_sapTask
.implab e_iTasks.WF.Definition_napTask
.impmod StdString
.impdesc e_StdString_d==;2
.impdesc e_StdString_d<;3
.impmod Data.Map
.implab e_Data.Map_sput
.impdesc e_Data.Map_dfoldrWithKey
.implab e_Data.Map_nfoldrWithKey _
.implab e_Data.Map_sunion
.impdesc e_Data.Map_dput;48
.implab e_Data.Map_nput;48 e_Data.Map_eaput;48
.implab e_Data.Map_sfromList;56
.impdesc e_Data.Map_dunion;84
.implab e_Data.Map_sunion;84
.implab e_Data.Map_nunion;84 e_Data.Map_eaunion;84
.impmod StdBool
.implab e_StdBool_snot
.impmod StdList
.impdesc e_StdList_dfilter
.implab e_StdList_nfilter e_StdList_eafilter
.implab e_StdList_sisMember
.impmod Data.Error
.impdesc e_Data.Error_dmapMaybeError
.implab e_Data.Error_nmapMaybeError e_Data.Error_eamapMaybeError
.impmod iTasks.UI.Editor
.impdesc e_iTasks.UI.Editor_rEditor
.impmod iTasks.UI.Definition
.impdesc e_iTasks.UI.Definition_kReplaceUI
.impdesc e_iTasks.UI.Definition_dChangeUI
.impdesc e_iTasks.UI.Definition_kSetAttribute
.impdesc e_iTasks.UI.Definition_kDelAttribute
.impdesc e_iTasks.UI.Definition_kUI
.impdesc e_iTasks.UI.Definition_dUI
.implab e_iTasks.UI.Definition_nUI e_iTasks.UI.Definition_eaUI
.impdesc e_iTasks.UI.Definition_dUIEmpty
.impdesc e_iTasks.UI.Definition_kTitle
.impdesc e_iTasks.UI.Definition_kHint
.impdesc e_iTasks.UI.Definition_kLabel
.impdesc e_iTasks.UI.Definition_kIcon
.impmod Text.GenJSON
.impdesc e_Text.GenJSON_kJSONString
.impmod iTasks.WF.Definition
.impdesc e_iTasks.WF.Definition_dResetEvent
.impdesc e_iTasks.WF.Definition_kValueResult
.impdesc e_iTasks.WF.Definition_dValueResult
.implab e_iTasks.WF.Definition_nValueResult e_iTasks.WF.Definition_eaValueResult
.impmod StdClass
.impdesc e_StdClass_rEq;
.impmod StdOverloaded
.impdesc e_StdOverloaded_r==;
.impdesc e_StdOverloaded_r<;
.export e_iTasks.UI.Tune_eaApplyLayout
.descexp e_iTasks.UI.Tune_dApplyLayout e_iTasks.UI.Tune_nApplyLayout e_iTasks.UI.Tune_lApplyLayout 1 0 "ApplyLayout"
.o 2 0
e_iTasks.UI.Tune_lApplyLayout
	update_a 1 0
	create
	update_a 0 2
	pop_a 1
.d 2 0
	jmp e_iTasks.UI.Tune_eaApplyLayout
.n 1 e_iTasks.UI.Tune_dApplyLayout e_iTasks.UI.Tune_eaApplyLayout
.o 1 0
e_iTasks.UI.Tune_nApplyLayout
	push_node _cycle_in_spine 1
.o 2 0
e_iTasks.UI.Tune_eaApplyLayout
	jsr_eval 0
	fill_r e_iTasks.UI.Tune_kApplyLayout 1 0 1 0 0
	pop_a 1
.d 1 0
	rtn
.export e_iTasks.UI.Tune_kApplyLayout
.record e_iTasks.UI.Tune_kApplyLayout da 1 0 "ApplyLayout"
.export e_iTasks.UI.Tune_rtune;
.record e_iTasks.UI.Tune_rtune; a 1 0 "tune;"
.descexp e_iTasks.UI.Tune_ttune; e_iTasks.UI.Tune_ctune; _hnf 1 1 "tune;"
.n 1 e_iTasks.UI.Tune_ttune;
.o 1 0
e_iTasks.UI.Tune_ctune;
	push_node _cycle_in_spine 1
	jsr_eval 0
.impmod iTasks.UI.Tune
.impdesc e_iTasks.UI.Tune_rtune;
	fill_r e_iTasks.UI.Tune_rtune; 1 0 1 0 0
	pop_a 1
.d 1 0
	rtn
.export e_iTasks.UI.Tune_dtune;.tune
.export e_iTasks.UI.Tune_ntune;.tune
.export e_iTasks.UI.Tune_eatune;.tune
.descs e_iTasks.UI.Tune_dtune;.tune e_iTasks.UI.Tune_ntune;.tune _ 1 0 "tune;.tune"
.n -4 e_iTasks.UI.Tune_dtune;.tune e_iTasks.UI.Tune_eatune;.tune
.o 1 0
e_iTasks.UI.Tune_ntune;.tune
	push_node _cycle_in_spine 1
.o 2 0
e_iTasks.UI.Tune_eatune;.tune
	jsr_eval 0
	repl_r_args_a 1 0 1 1
	fill_a 0 1
	pop_a 1
.d 1 0
	rtn
.export e_iTasks.UI.Tune_sTD;tune;
.export e_iTasks.UI.Tune_eaTD;tune;
.descexp e_iTasks.UI.Tune_dTD;tune; e_iTasks.UI.Tune_nTD;tune; e_iTasks.UI.Tune_lTD;tune; 1 0 "TD;tune;"
.o 2 0
e_iTasks.UI.Tune_lTD;tune;
	update_a 1 0
	create
	update_a 0 2
	pop_a 1
.d 2 0
	jmp e_iTasks.UI.Tune_eaTD;tune;
.n 1 e_iTasks.UI.Tune_dTD;tune; e_iTasks.UI.Tune_eaTD;tune;
.o 1 0
e_iTasks.UI.Tune_nTD;tune;
	push_node _cycle_in_spine 1
.o 2 0
e_iTasks.UI.Tune_eaTD;tune;
.o 2 0
e_iTasks.UI.Tune_sTD;tune;
.o 2 0
s17
	fillh _Nil 0 1
	pop_a 1
.d 1 0
	rtn
.export e_iTasks.UI.Tune_sTD;ApplyLayout
.export e_iTasks.UI.Tune_eaTD;ApplyLayout
.descexp e_iTasks.UI.Tune_dTD;ApplyLayout e_iTasks.UI.Tune_nTD;ApplyLayout e_iTasks.UI.Tune_lTD;ApplyLayout 1 0 "TD;ApplyLayout"
.o 2 0
e_iTasks.UI.Tune_lTD;ApplyLayout
	update_a 1 0
	create
	update_a 0 2
	pop_a 1
.d 2 0
	jmp e_iTasks.UI.Tune_eaTD;ApplyLayout
.n 1 e_iTasks.UI.Tune_dTD;ApplyLayout e_iTasks.UI.Tune_eaTD;ApplyLayout
.o 1 0
e_iTasks.UI.Tune_nTD;ApplyLayout
	push_node _cycle_in_spine 1
.o 2 0
e_iTasks.UI.Tune_eaTD;ApplyLayout
.o 2 0
e_iTasks.UI.Tune_sTD;ApplyLayout
.o 2 0
s16
	fillh _Nil 0 1
	pop_a 1
.d 1 0
	rtn
.export e_iTasks.UI.Tune_stune;14
.export e_iTasks.UI.Tune_eatune;14
.descexp e_iTasks.UI.Tune_dtune;14 e_iTasks.UI.Tune_ntune;14 e_iTasks.UI.Tune_ltune;14 2 0 "tune;14"
.o 3 0
e_iTasks.UI.Tune_itune;14
	pop_a 1
	create
	push_a 2
	update_a 1 3
	update_a 2 1
	update_a 0 2
	pop_a 1
.d 3 0
	jmp s15
.ai 2 e_iTasks.UI.Tune_eatune;14 e_iTasks.UI.Tune_itune;14
.o 2 0
e_iTasks.UI.Tune_ltune;14
	push_args 0 1 1
	update_a 2 1
	create
	update_a 0 3
	pop_a 1
.d 3 0
	jmp e_iTasks.UI.Tune_eatune;14
.n 2 e_iTasks.UI.Tune_dtune;14 e_iTasks.UI.Tune_eatune;14
.o 1 0
e_iTasks.UI.Tune_ntune;14
	push_node _cycle_in_spine 2
.o 3 0
e_iTasks.UI.Tune_eatune;14
	jsr_eval 1
	jsr_eval 0
.o 3 0
e_iTasks.UI.Tune_stune;14
.o 3 0
s15
	repl_args 1 1
	push_a 1
	push_a 1
	update_a 1 3
	updatepop_a 0 2
.d 3 0
	jmp s18
.o 3 0
s18
	buildh _Nil 0
	buildI 0
	buildh _Cons 2
	push_a 2
	push_a 2
	buildh e_iTasks.UI.Tune_devalinit;18.19 3
	updatepop_a 0 2
.d 2 0
	jmp e_iTasks.WF.Definition_sTask
.export e_iTasks.UI.Tune_devalinit;18.19
.desc e_iTasks.UI.Tune_devalinit;18.19 _hnf l19 4 0 "evalinit;18.19"
.a 4 ea19
.o 2 0
l19
	push_args 0 3 3
	update_a 4 3
	create
	update_a 0 5
	pop_a 1
.o 5 0
ea19
.o 5 0
s19
	buildh e_iTasks.WF.Definition_dResetEvent 0
	build e_iTasks.UI.Layout_dinitLUIMoves 0 e_iTasks.UI.Layout_ninitLUIMoves
	buildh e_iTasks.UI.Definition_dUIEmpty 0
	build e_iTasks.UI.Definition_dui 1 e_iTasks.UI.Definition_nui
	build e_iTasks.UI.Layout_dinitLUI 1 e_iTasks.UI.Layout_ninitLUI
	buildh _Tuple 2
	push_a 3
	push_a 5
	push_a 4
	push_a 3
	update_a 3 4
	update_a 0 3
	pop_a 1
	fillh e_iTasks.UI.Tune_deval;19.20 5 9
	pop_a 4
.d 1 0
	rtn
.export e_iTasks.UI.Tune_deval;19.20
.desc e_iTasks.UI.Tune_deval;19.20 _hnf l20 7 0 "eval;19.20"
.a 0 a20
.o 2 0
l20
	repl_args 6 6
.o 7 0
a20
.d 7 0
	jsr ea20
.o 2 0
	push_a 1
	push_a 1
	buildh _Tuple 2
	updatepop_a 0 2
.d 1 0
	rtn
.o 7 0
ea20
	jsr_eval 6
	jsr_eval 4
	jsr_eval 3
.o 7 0
s20
	push_a 4
.d 1 0
	jsr e_iTasks.Internal.Util_sisDestroyOrInterrupt
.o 0 1 b
	jmp_false else.2
	push_a 6
	push_a 6
	push_a 6
	push_a 6
	update_a 3 10
	update_a 2 9
	update_a 1 8
	updatepop_a 0 7
.d 4 0
	jmp e_iTasks.WF.Definition_sapTask
else.2
	jmp fail.1
fail.1
	eq_desc e_iTasks.WF.Definition_dResetEvent 0 4
	jmp_true case.3
	jmp case.4
case.3
	buildh e_iTasks.WF.Definition_dResetEvent 0
	push_a 7
	push_a 7
	push_a 6
	push_a 3
	update_a 3 4
	update_a 2 3
	update_a 0 2
	pop_a 1
	update_a 6 10
	update_a 5 9
	update_a 4 8
	update_a 3 7
	update_a 2 6
	update_a 1 5
	updatepop_a 0 4
.d 4 0
	jsr e_iTasks.WF.Definition_sapTask
.o 2 0
	jsr_eval 0
	push_a 4
	push_a 4
	push_a 4
	push_a 4
	update_a 3 5
	update_a 1 3
	update_a 4 1
	update_a 2 4
	update_a 0 2
	pop_a 1
	update_a 4 7
	update_a 3 6
	update_a 2 5
	update_a 1 4
	updatepop_a 0 3
.d 5 0
	jmp s33
case.4
	push_a 6
	push_a 6
	push_a 6
	push_a 6
	update_a 6 10
	update_a 5 9
	update_a 4 8
	update_a 3 7
	update_a 2 6
	update_a 1 5
	updatepop_a 0 4
.d 4 0
	jsr e_iTasks.WF.Definition_sapTask
.o 2 0
	jsr_eval 0
	push_a 4
	push_a 4
	push_a 4
	push_a 4
	update_a 3 5
	update_a 1 3
	update_a 4 1
	update_a 2 4
	update_a 0 2
	pop_a 1
	update_a 4 7
	update_a 3 6
	update_a 2 5
	update_a 1 4
	updatepop_a 0 3
.d 5 0
	jmp s36
.o 5 0
s36
	eq_desc e_iTasks.WF.Definition_kValueResult 0 0
	jmp_true case.5
	jmp case.6
case.5
	repl_args 4 4
	push_a 7
	push_a 3
	build e_iTasks.UI.Layout_dapplyUpstreamChange 2 e_iTasks.UI.Layout_napplyUpstreamChange
	push_a 7
	push_a 7
	build e_iTasks.UI.Tune_d_f4.251 3 e_iTasks.UI.Tune_n_f4.251
	build e_iTasks.UI.Layout_dextractDownstreamChange 1 e_iTasks.UI.Layout_nextractDownstreamChange
	push_a 0
	build d_S.2 -1 n_S.2
	push_a 1
	build d_S.1 -1 n_S.1
	push_a 6
	push_a 5
	push_a 5
	push_a 3
	update_a 3 4
	update_a 0 3
	pop_a 1
	build e_iTasks.WF.Definition_dValueResult 4 e_iTasks.WF.Definition_nValueResult
	push_a 9
	push_a 9
	push_a 2
	update_a 2 3
	update_a 1 2
	update_a 0 1
	pop_a 1
	build e_iTasks.UI.Tune_d_c;52;33;526.34 4 e_iTasks.UI.Tune_n_c;52;33;526.34
	push_a 6
	push_a 1
	update_a 1 2
	update_a 0 1
	pop_a 1
	update_a 1 10
	updatepop_a 0 9
.d 2 0
	rtn
case.6
	push_a 4
	push_a 4
	push_a 4
	push_a 3
	build e_iTasks.UI.Tune_d_c;52;33;527.35 4 e_iTasks.UI.Tune_n_c;52;33;527.35
	push_a 2
	push_a 1
	update_a 1 2
	update_a 0 1
	pop_a 1
	update_a 1 6
	updatepop_a 0 5
.d 2 0
	rtn
.export e_iTasks.UI.Tune_d_f4.251
.export e_iTasks.UI.Tune_n_f4.251
.descn e_iTasks.UI.Tune_d_f4.251 e_iTasks.UI.Tune_n_f4.251 3 0 "_f4.251"
.n 3 e_iTasks.UI.Tune_d_f4.251 ea251
.o 1 0
e_iTasks.UI.Tune_n_f4.251
	push_node _cycle_in_spine 3
.o 4 0
ea251
.o 4 0
s251
	push_a 2
	push_a 1
	jsr_eval 0
	push_a 3
	push_a 1
	update_a 1 2
	update_a 0 1
	pop_a 1
	update_a 2 5
	update_a 1 4
	updatepop_a 0 3
	jsr_ap 2
	fill_a 0 1
	pop_a 1
.d 1 0
	rtn
.export e_iTasks.UI.Tune_d_c;52;33;527.35
.export e_iTasks.UI.Tune_n_c;52;33;527.35
.descn e_iTasks.UI.Tune_d_c;52;33;527.35 e_iTasks.UI.Tune_n_c;52;33;527.35 4 0 "_c;52;33;527.35"
.n 4 e_iTasks.UI.Tune_d_c;52;33;527.35 ea35
.o 1 0
e_iTasks.UI.Tune_n_c;52;33;527.35
	push_node _cycle_in_spine 4
.o 5 0
ea35
.o 5 0
s35
	eq_desc e_iTasks.WF.Definition_kValueResult 0 0
	jmp_true case.7
	jmp case.8
case.7
	repl_args 4 4
	push_a 3
	push_a 7
	push_a 7
	push_a 7
	buildh e_iTasks.UI.Tune_deval;19.20 4
	create
	push_a 1
	update_a 1 2
	update_a 0 1
	pop_a 1
	update_a 4 8
	update_a 3 7
	update_a 2 6
	update_a 1 5
	updatepop_a 0 4
.d 2 0
	jsr e_iTasks.WF.Definition_sTask
.o 1 0
	push_a 3
	push_a 3
	push_a 3
	fill_r e_iTasks.WF.Definition_kValueResult 4 0 7 0 0
	pop_a 7
.d 1 0
	rtn
case.8
	fill_a 0 4
	pop_a 4
.d 1 0
	rtn
.export e_iTasks.UI.Tune_d_c;52;33;526.34
.export e_iTasks.UI.Tune_n_c;52;33;526.34
.descn e_iTasks.UI.Tune_d_c;52;33;526.34 e_iTasks.UI.Tune_n_c;52;33;526.34 4 0 "_c;52;33;526.34"
.n 4 e_iTasks.UI.Tune_d_c;52;33;526.34 ea34
.o 1 0
e_iTasks.UI.Tune_n_c;52;33;526.34
	push_node _cycle_in_spine 4
.o 5 0
ea34
	jsr_eval 0
.o 5 0
s34
	eq_desc e_iTasks.WF.Definition_kValueResult 0 0
	jmp_true case.9
	jmp case.10
case.9
	repl_args 4 4
	push_a 3
	push_a 7
	push_a 7
	push_a 7
	buildh e_iTasks.UI.Tune_deval;19.20 4
	create
	push_a 1
	update_a 1 2
	update_a 0 1
	pop_a 1
	update_a 4 8
	update_a 3 7
	update_a 2 6
	update_a 1 5
	updatepop_a 0 4
.d 2 0
	jsr e_iTasks.WF.Definition_sTask
.o 1 0
	push_a 3
	push_a 3
	push_a 3
	fill_r e_iTasks.WF.Definition_kValueResult 4 0 7 0 0
	pop_a 7
.d 1 0
	rtn
case.10
	fill_a 0 4
	pop_a 4
.d 1 0
	rtn
.o 5 0
s33
	eq_desc e_iTasks.WF.Definition_kValueResult 0 0
	jmp_true case.11
	jmp case.12
case.11
	push_args 0 4 4
	eq_desc e_iTasks.UI.Definition_kReplaceUI 0 2
	jmp_true case.13
	pop_a 4
	jmp case.12
case.13
	push_args 2 1 1
	buildh _Nil 0
	update_a 0 4
	pop_a 1
	build e_iTasks.UI.Layout_dinitLUIMoves 0 e_iTasks.UI.Layout_ninitLUIMoves
	push_a 1
	build e_iTasks.UI.Layout_dinitLUI 1 e_iTasks.UI.Layout_ninitLUI
	buildh _Tuple 2
	push_a 9
	push_a 9
	build e_iTasks.UI.Tune_d_f5.252 3 e_iTasks.UI.Tune_n_f5.252
	build e_iTasks.UI.Layout_dextractResetChange 1 e_iTasks.UI.Layout_nextractResetChange
	push_a 0
	build d_S.2 -1 n_S.2
	push_a 1
	build d_S.1 -1 n_S.1
	push_a 7
	push_a 6
	push_a 6
	push_a 3
	update_a 3 4
	update_a 0 3
	pop_a 1
	build e_iTasks.WF.Definition_dValueResult 4 e_iTasks.WF.Definition_nValueResult
	push_a 11
	push_a 11
	push_a 2
	update_a 2 3
	update_a 1 2
	update_a 0 1
	pop_a 1
	build e_iTasks.UI.Tune_d_c;52;33;523.31 4 e_iTasks.UI.Tune_n_c;52;33;523.31
	push_a 8
	push_a 1
	update_a 1 2
	update_a 0 1
	pop_a 1
	update_a 1 12
	updatepop_a 0 11
.d 2 0
	rtn
case.12
	push_a 4
	push_a 4
	push_a 4
	push_a 3
	build e_iTasks.UI.Tune_d_c;52;33;524.32 4 e_iTasks.UI.Tune_n_c;52;33;524.32
	push_a 2
	push_a 1
	update_a 1 2
	update_a 0 1
	pop_a 1
	update_a 1 6
	updatepop_a 0 5
.d 2 0
	rtn
.export e_iTasks.UI.Tune_d_f5.252
.export e_iTasks.UI.Tune_n_f5.252
.descn e_iTasks.UI.Tune_d_f5.252 e_iTasks.UI.Tune_n_f5.252 3 0 "_f5.252"
.n 3 e_iTasks.UI.Tune_d_f5.252 ea252
.o 1 0
e_iTasks.UI.Tune_n_f5.252
	push_node _cycle_in_spine 3
.o 4 0
ea252
.o 4 0
s252
	push_a 2
	push_a 1
	jsr_eval 0
	push_a 3
	push_a 1
	update_a 1 2
	update_a 0 1
	pop_a 1
	update_a 2 5
	update_a 1 4
	updatepop_a 0 3
	jsr_ap 2
	fill_a 0 1
	pop_a 1
.d 1 0
	rtn
.export e_iTasks.UI.Tune_d_c;52;33;524.32
.export e_iTasks.UI.Tune_n_c;52;33;524.32
.descn e_iTasks.UI.Tune_d_c;52;33;524.32 e_iTasks.UI.Tune_n_c;52;33;524.32 4 0 "_c;52;33;524.32"
.n 4 e_iTasks.UI.Tune_d_c;52;33;524.32 ea32
.o 1 0
e_iTasks.UI.Tune_n_c;52;33;524.32
	push_node _cycle_in_spine 4
.o 5 0
ea32
.o 5 0
s32
	eq_desc e_iTasks.WF.Definition_kValueResult 0 0
	jmp_true case.14
	jmp case.15
case.14
	repl_args 4 4
	push_a 3
	push_a 7
	push_a 7
	push_a 7
	buildh e_iTasks.UI.Tune_deval;19.20 4
	create
	push_a 1
	update_a 1 2
	update_a 0 1
	pop_a 1
	update_a 4 8
	update_a 3 7
	update_a 2 6
	update_a 1 5
	updatepop_a 0 4
.d 2 0
	jsr e_iTasks.WF.Definition_sTask
.o 1 0
	push_a 3
	push_a 3
	push_a 3
	fill_r e_iTasks.WF.Definition_kValueResult 4 0 7 0 0
	pop_a 7
.d 1 0
	rtn
case.15
	fill_a 0 4
	pop_a 4
.d 1 0
	rtn
.export e_iTasks.UI.Tune_d_c;52;33;523.31
.export e_iTasks.UI.Tune_n_c;52;33;523.31
.descn e_iTasks.UI.Tune_d_c;52;33;523.31 e_iTasks.UI.Tune_n_c;52;33;523.31 4 0 "_c;52;33;523.31"
.n 4 e_iTasks.UI.Tune_d_c;52;33;523.31 ea31
.o 1 0
e_iTasks.UI.Tune_n_c;52;33;523.31
	push_node _cycle_in_spine 4
.o 5 0
ea31
	jsr_eval 0
.o 5 0
s31
	eq_desc e_iTasks.WF.Definition_kValueResult 0 0
	jmp_true case.16
	jmp case.17
case.16
	repl_args 4 4
	push_a 3
	push_a 7
	push_a 7
	push_a 7
	buildh e_iTasks.UI.Tune_deval;19.20 4
	create
	push_a 1
	update_a 1 2
	update_a 0 1
	pop_a 1
	update_a 4 8
	update_a 3 7
	update_a 2 6
	update_a 1 5
	updatepop_a 0 4
.d 2 0
	jsr e_iTasks.WF.Definition_sTask
.o 1 0
	push_a 3
	push_a 3
	push_a 3
	fill_r e_iTasks.WF.Definition_kValueResult 4 0 7 0 0
	pop_a 7
.d 1 0
	rtn
case.17
	fill_a 0 4
	pop_a 4
.d 1 0
	rtn
.export e_iTasks.UI.Tune_stune;13
.descexp e_iTasks.UI.Tune_dtune;13 e_iTasks.UI.Tune_ntune;13 e_iTasks.UI.Tune_ltune;13 2 0 "tune;13"
.o 3 0
e_iTasks.UI.Tune_itune;13
	pop_a 1
	push_r_args 1 4 0
	update_a 3 5
	update_a 1 3
	update_a 4 1
	update_a 2 4
	update_a 0 2
	pop_a 1
.d 5 0
	jsr s14
.o 4 0
	buildhr e_iTasks.UI.Editor_rEditor 4 0
.d 1 0
	rtn
.ai 0 a14 e_iTasks.UI.Tune_itune;13
.o 2 0
e_iTasks.UI.Tune_ltune;13
	repl_args 1 1
.o 2 0
a14
.d 2 0
	jsr ea14
.o 4 0
	buildhr e_iTasks.UI.Editor_rEditor 4 0
.d 1 0
	rtn
.n 2 e_iTasks.UI.Tune_dtune;13
.o 1 0
e_iTasks.UI.Tune_ntune;13
	push_node _cycle_in_spine 2
.d 2 0
	jsr ea14
.o 4 0
	fill_r e_iTasks.UI.Editor_rEditor 4 0 4 0 0
	pop_a 4
.d 1 0
	rtn
.o 2 0
ea14
	jsr_eval 1
	jsr_eval 0
	push_r_args 1 4 0
	update_a 3 5
	update_a 1 3
	update_a 4 1
	update_a 2 4
	update_a 0 2
	pop_a 1
.o 5 0
e_iTasks.UI.Tune_stune;13
.o 5 0
s14
	repl_args 1 1
	buildh _Nil 0
	push_a 1
	buildhr e_Text.GenJSON_kJSONString 1 0
	buildAC "icon"
	buildh ARRAY 1
	buildh _Tuple 2
	buildh _Cons 2
	create
	push_a 1
	update_a 1 2
	update_a 0 1
	pop_a 1
	update_a 1 2
	updatepop_a 0 1
.d 2 0
	jsr e_Data.Map_sfromList;56
.o 1 0
	push_a 4
	push_a 4
	push_a 4
	push_a 4
	push_a 4
	update_a 4 5
	update_a 3 4
	update_a 2 3
	update_a 1 2
	update_a 0 1
	pop_a 1
	update_a 4 8
	update_a 3 7
	update_a 2 6
	update_a 1 5
	updatepop_a 0 4
.d 5 0
	jmp s6
.export e_iTasks.UI.Tune_stune;12
.descexp e_iTasks.UI.Tune_dtune;12 e_iTasks.UI.Tune_ntune;12 e_iTasks.UI.Tune_ltune;12 2 0 "tune;12"
.o 3 0
e_iTasks.UI.Tune_itune;12
	pop_a 1
	push_r_args 1 4 0
	update_a 3 5
	update_a 1 3
	update_a 4 1
	update_a 2 4
	update_a 0 2
	pop_a 1
.d 5 0
	jsr s13
.o 4 0
	buildhr e_iTasks.UI.Editor_rEditor 4 0
.d 1 0
	rtn
.ai 0 a13 e_iTasks.UI.Tune_itune;12
.o 2 0
e_iTasks.UI.Tune_ltune;12
	repl_args 1 1
.o 2 0
a13
.d 2 0
	jsr ea13
.o 4 0
	buildhr e_iTasks.UI.Editor_rEditor 4 0
.d 1 0
	rtn
.n 2 e_iTasks.UI.Tune_dtune;12
.o 1 0
e_iTasks.UI.Tune_ntune;12
	push_node _cycle_in_spine 2
.d 2 0
	jsr ea13
.o 4 0
	fill_r e_iTasks.UI.Editor_rEditor 4 0 4 0 0
	pop_a 4
.d 1 0
	rtn
.o 2 0
ea13
	jsr_eval 1
	jsr_eval 0
	push_r_args 1 4 0
	update_a 3 5
	update_a 1 3
	update_a 4 1
	update_a 2 4
	update_a 0 2
	pop_a 1
.o 5 0
e_iTasks.UI.Tune_stune;12
.o 5 0
s13
	repl_args 1 1
	buildh _Nil 0
	push_a 1
	buildhr e_Text.GenJSON_kJSONString 1 0
	buildAC "label"
	buildh ARRAY 1
	buildh _Tuple 2
	buildh _Cons 2
	create
	push_a 1
	update_a 1 2
	update_a 0 1
	pop_a 1
	update_a 1 2
	updatepop_a 0 1
.d 2 0
	jsr e_Data.Map_sfromList;56
.o 1 0
	push_a 4
	push_a 4
	push_a 4
	push_a 4
	push_a 4
	update_a 4 5
	update_a 3 4
	update_a 2 3
	update_a 1 2
	update_a 0 1
	pop_a 1
	update_a 4 8
	update_a 3 7
	update_a 2 6
	update_a 1 5
	updatepop_a 0 4
.d 5 0
	jmp s6
.export e_iTasks.UI.Tune_stune;11
.descexp e_iTasks.UI.Tune_dtune;11 e_iTasks.UI.Tune_ntune;11 e_iTasks.UI.Tune_ltune;11 2 0 "tune;11"
.o 3 0
e_iTasks.UI.Tune_itune;11
	pop_a 1
	push_r_args 1 4 0
	update_a 3 5
	update_a 1 3
	update_a 4 1
	update_a 2 4
	update_a 0 2
	pop_a 1
.d 5 0
	jsr s12
.o 4 0
	buildhr e_iTasks.UI.Editor_rEditor 4 0
.d 1 0
	rtn
.ai 0 a12 e_iTasks.UI.Tune_itune;11
.o 2 0
e_iTasks.UI.Tune_ltune;11
	repl_args 1 1
.o 2 0
a12
.d 2 0
	jsr ea12
.o 4 0
	buildhr e_iTasks.UI.Editor_rEditor 4 0
.d 1 0
	rtn
.n 2 e_iTasks.UI.Tune_dtune;11
.o 1 0
e_iTasks.UI.Tune_ntune;11
	push_node _cycle_in_spine 2
.d 2 0
	jsr ea12
.o 4 0
	fill_r e_iTasks.UI.Editor_rEditor 4 0 4 0 0
	pop_a 4
.d 1 0
	rtn
.o 2 0
ea12
	jsr_eval 1
	jsr_eval 0
	push_r_args 1 4 0
	update_a 3 5
	update_a 1 3
	update_a 4 1
	update_a 2 4
	update_a 0 2
	pop_a 1
.o 5 0
e_iTasks.UI.Tune_stune;11
.o 5 0
s12
	repl_args 1 1
	create
	push_a 1
	update_a 1 2
	updatepop_a 0 1
.d 2 0
	jsr e_iTasks.UI.Definition_shintAttr
.o 1 0
	push_a 4
	push_a 4
	push_a 4
	push_a 4
	push_a 4
	update_a 4 5
	update_a 3 4
	update_a 2 3
	update_a 1 2
	update_a 0 1
	pop_a 1
	update_a 4 8
	update_a 3 7
	update_a 2 6
	update_a 1 5
	updatepop_a 0 4
.d 5 0
	jmp s6
.export e_iTasks.UI.Tune_stune;10
.descexp e_iTasks.UI.Tune_dtune;10 e_iTasks.UI.Tune_ntune;10 e_iTasks.UI.Tune_ltune;10 2 0 "tune;10"
.o 3 0
e_iTasks.UI.Tune_itune;10
	pop_a 1
	push_r_args 1 4 0
	update_a 3 5
	update_a 1 3
	update_a 4 1
	update_a 2 4
	update_a 0 2
	pop_a 1
.d 5 0
	jsr s11
.o 4 0
	buildhr e_iTasks.UI.Editor_rEditor 4 0
.d 1 0
	rtn
.ai 0 a11 e_iTasks.UI.Tune_itune;10
.o 2 0
e_iTasks.UI.Tune_ltune;10
	repl_args 1 1
.o 2 0
a11
.d 2 0
	jsr ea11
.o 4 0
	buildhr e_iTasks.UI.Editor_rEditor 4 0
.d 1 0
	rtn
.n 2 e_iTasks.UI.Tune_dtune;10
.o 1 0
e_iTasks.UI.Tune_ntune;10
	push_node _cycle_in_spine 2
.d 2 0
	jsr ea11
.o 4 0
	fill_r e_iTasks.UI.Editor_rEditor 4 0 4 0 0
	pop_a 4
.d 1 0
	rtn
.o 2 0
ea11
	jsr_eval 1
	jsr_eval 0
	push_r_args 1 4 0
	update_a 3 5
	update_a 1 3
	update_a 4 1
	update_a 2 4
	update_a 0 2
	pop_a 1
.o 5 0
e_iTasks.UI.Tune_stune;10
.o 5 0
s11
	repl_args 1 1
	create
	push_a 1
	update_a 1 2
	updatepop_a 0 1
.d 2 0
	jsr e_iTasks.UI.Definition_stitleAttr
.o 1 0
	push_a 4
	push_a 4
	push_a 4
	push_a 4
	push_a 4
	update_a 4 5
	update_a 3 4
	update_a 2 3
	update_a 1 2
	update_a 0 1
	pop_a 1
	update_a 4 8
	update_a 3 7
	update_a 2 6
	update_a 1 5
	updatepop_a 0 4
.d 5 0
	jmp s6
.export e_iTasks.UI.Tune_stune;9
.export e_iTasks.UI.Tune_eatune;9
.descexp e_iTasks.UI.Tune_dtune;9 e_iTasks.UI.Tune_ntune;9 e_iTasks.UI.Tune_ltune;9 2 0 "tune;9"
.o 3 0
e_iTasks.UI.Tune_itune;9
	pop_a 1
	create
	push_a 2
	update_a 1 3
	update_a 2 1
	update_a 0 2
	pop_a 1
.d 3 0
	jmp s10
.ai 2 e_iTasks.UI.Tune_eatune;9 e_iTasks.UI.Tune_itune;9
.o 2 0
e_iTasks.UI.Tune_ltune;9
	push_args 0 1 1
	update_a 2 1
	create
	update_a 0 3
	pop_a 1
.d 3 0
	jmp e_iTasks.UI.Tune_eatune;9
.n 2 e_iTasks.UI.Tune_dtune;9 e_iTasks.UI.Tune_eatune;9
.o 1 0
e_iTasks.UI.Tune_ntune;9
	push_node _cycle_in_spine 2
.o 3 0
e_iTasks.UI.Tune_eatune;9
	jsr_eval 1
	jsr_eval 0
.o 3 0
e_iTasks.UI.Tune_stune;9
.o 3 0
s10
	repl_args 1 1
	buildh _Nil 0
	push_a 1
	buildhr e_Text.GenJSON_kJSONString 1 0
	buildAC "icon"
	buildh ARRAY 1
	buildh _Tuple 2
	buildh _Cons 2
	create
	push_a 1
	update_a 1 2
	update_a 0 1
	pop_a 1
	update_a 1 2
	updatepop_a 0 1
.d 2 0
	jsr e_Data.Map_sfromList;56
.o 1 0
	push_a 1
	push_a 1
	update_a 1 2
	update_a 0 1
	pop_a 1
	update_a 1 2
	updatepop_a 0 1
.d 3 0
	jmp s4
.export e_iTasks.UI.Tune_stune;8
.export e_iTasks.UI.Tune_eatune;8
.descexp e_iTasks.UI.Tune_dtune;8 e_iTasks.UI.Tune_ntune;8 e_iTasks.UI.Tune_ltune;8 2 0 "tune;8"
.o 3 0
e_iTasks.UI.Tune_itune;8
	pop_a 1
	create
	push_a 2
	update_a 1 3
	update_a 2 1
	update_a 0 2
	pop_a 1
.d 3 0
	jmp s9
.ai 2 e_iTasks.UI.Tune_eatune;8 e_iTasks.UI.Tune_itune;8
.o 2 0
e_iTasks.UI.Tune_ltune;8
	push_args 0 1 1
	update_a 2 1
	create
	update_a 0 3
	pop_a 1
.d 3 0
	jmp e_iTasks.UI.Tune_eatune;8
.n 2 e_iTasks.UI.Tune_dtune;8 e_iTasks.UI.Tune_eatune;8
.o 1 0
e_iTasks.UI.Tune_ntune;8
	push_node _cycle_in_spine 2
.o 3 0
e_iTasks.UI.Tune_eatune;8
	jsr_eval 1
	jsr_eval 0
.o 3 0
e_iTasks.UI.Tune_stune;8
.o 3 0
s9
	repl_args 1 1
	buildh _Nil 0
	push_a 1
	buildhr e_Text.GenJSON_kJSONString 1 0
	buildAC "label"
	buildh ARRAY 1
	buildh _Tuple 2
	buildh _Cons 2
	create
	push_a 1
	update_a 1 2
	update_a 0 1
	pop_a 1
	update_a 1 2
	updatepop_a 0 1
.d 2 0
	jsr e_Data.Map_sfromList;56
.o 1 0
	push_a 1
	push_a 1
	update_a 1 2
	update_a 0 1
	pop_a 1
	update_a 1 2
	updatepop_a 0 1
.d 3 0
	jmp s4
.export e_iTasks.UI.Tune_stune;7
.export e_iTasks.UI.Tune_eatune;7
.descexp e_iTasks.UI.Tune_dtune;7 e_iTasks.UI.Tune_ntune;7 e_iTasks.UI.Tune_ltune;7 2 0 "tune;7"
.o 3 0
e_iTasks.UI.Tune_itune;7
	pop_a 1
	create
	push_a 2
	update_a 1 3
	update_a 2 1
	update_a 0 2
	pop_a 1
.d 3 0
	jmp s8
.ai 2 e_iTasks.UI.Tune_eatune;7 e_iTasks.UI.Tune_itune;7
.o 2 0
e_iTasks.UI.Tune_ltune;7
	push_args 0 1 1
	update_a 2 1
	create
	update_a 0 3
	pop_a 1
.d 3 0
	jmp e_iTasks.UI.Tune_eatune;7
.n 2 e_iTasks.UI.Tune_dtune;7 e_iTasks.UI.Tune_eatune;7
.o 1 0
e_iTasks.UI.Tune_ntune;7
	push_node _cycle_in_spine 2
.o 3 0
e_iTasks.UI.Tune_eatune;7
	jsr_eval 1
	jsr_eval 0
.o 3 0
e_iTasks.UI.Tune_stune;7
.o 3 0
s8
	repl_args 1 1
	create
	push_a 1
	update_a 1 2
	updatepop_a 0 1
.d 2 0
	jsr e_iTasks.UI.Definition_shintAttr
.o 1 0
	push_a 1
	push_a 1
	update_a 1 2
	update_a 0 1
	pop_a 1
	update_a 1 2
	updatepop_a 0 1
.d 3 0
	jmp s4
.export e_iTasks.UI.Tune_stune;6
.export e_iTasks.UI.Tune_eatune;6
.descexp e_iTasks.UI.Tune_dtune;6 e_iTasks.UI.Tune_ntune;6 e_iTasks.UI.Tune_ltune;6 2 0 "tune;6"
.o 3 0
e_iTasks.UI.Tune_itune;6
	pop_a 1
	create
	push_a 2
	update_a 1 3
	update_a 2 1
	update_a 0 2
	pop_a 1
.d 3 0
	jmp s7
.ai 2 e_iTasks.UI.Tune_eatune;6 e_iTasks.UI.Tune_itune;6
.o 2 0
e_iTasks.UI.Tune_ltune;6
	push_args 0 1 1
	update_a 2 1
	create
	update_a 0 3
	pop_a 1
.d 3 0
	jmp e_iTasks.UI.Tune_eatune;6
.n 2 e_iTasks.UI.Tune_dtune;6 e_iTasks.UI.Tune_eatune;6
.o 1 0
e_iTasks.UI.Tune_ntune;6
	push_node _cycle_in_spine 2
.o 3 0
e_iTasks.UI.Tune_eatune;6
	jsr_eval 1
	jsr_eval 0
.o 3 0
e_iTasks.UI.Tune_stune;6
.o 3 0
s7
	repl_args 1 1
	create
	push_a 1
	update_a 1 2
	updatepop_a 0 1
.d 2 0
	jsr e_iTasks.UI.Definition_stitleAttr
.o 1 0
	push_a 1
	push_a 1
	update_a 1 2
	update_a 0 1
	pop_a 1
	update_a 1 2
	updatepop_a 0 1
.d 3 0
	jmp s4
.export e_iTasks.UI.Tune_stune;5
.descexp e_iTasks.UI.Tune_dtune;5 e_iTasks.UI.Tune_ntune;5 e_iTasks.UI.Tune_ltune;5 2 0 "tune;5"
.o 3 0
e_iTasks.UI.Tune_itune;5
	pop_a 1
	push_r_args 1 4 0
	update_a 3 5
	update_a 1 3
	update_a 4 1
	update_a 2 4
	update_a 0 2
	pop_a 1
.d 5 0
	jsr s6
.o 4 0
	buildhr e_iTasks.UI.Editor_rEditor 4 0
.d 1 0
	rtn
.ai 0 a6 e_iTasks.UI.Tune_itune;5
.o 2 0
e_iTasks.UI.Tune_ltune;5
	repl_args 1 1
.o 2 0
a6
.d 2 0
	jsr ea6
.o 4 0
	buildhr e_iTasks.UI.Editor_rEditor 4 0
.d 1 0
	rtn
.n 2 e_iTasks.UI.Tune_dtune;5
.o 1 0
e_iTasks.UI.Tune_ntune;5
	push_node _cycle_in_spine 2
.d 2 0
	jsr ea6
.o 4 0
	fill_r e_iTasks.UI.Editor_rEditor 4 0 4 0 0
	pop_a 4
.d 1 0
	rtn
.o 2 0
ea6
	jsr_eval 1
	jsr_eval 0
	push_r_args 1 4 0
	update_a 3 5
	update_a 1 3
	update_a 4 1
	update_a 2 4
	update_a 0 2
	pop_a 1
.o 5 0
e_iTasks.UI.Tune_stune;5
.o 5 0
s6
	push_a 0
	push_a 2
	buildh e_iTasks.UI.Tune_donReset;23.24 2
	push_a 5
	push_a 5
	push_a 5
	push_a 5
	update_a 4 0
	update_a 3 9
	update_a 2 8
	update_a 1 7
	updatepop_a 0 6
.d 4 0
	rtn
.export e_iTasks.UI.Tune_donReset;23.24
.desc e_iTasks.UI.Tune_donReset;23.24 _hnf l24 5 0 "onReset;23.24"
.a 0 a24
.o 2 0
l24
	repl_args 4 4
.o 5 0
a24
.o 5 0
ea24
	push_a 2
	push_a 2
	build e_iTasks.UI.Tune_d_f3.250 2 e_iTasks.UI.Tune_n_f3.250
	push_a 5
	push_a 5
	push_a 3
	push_a 3
	update_a 3 4
	update_a 2 3
	update_a 0 2
	pop_a 1
	build e_iTasks.UI.Tune_d_f2.249 4 e_iTasks.UI.Tune_n_f2.249
	push_a 0
	build d_S.2 -1 n_S.2
	push_a 1
	build d_S.1 -1 n_S.1
	push_a 4
	buildh e_iTasks.UI.Tune_d\;37;31;22.23 1
	build e_Data.Error_dmapMaybeError 2 e_Data.Error_nmapMaybeError
	update_a 1 7
	updatepop_a 0 6
	push_a 1
	push_a 1
	buildh _Tuple 2
	updatepop_a 0 2
.d 1 0
	rtn
.export e_iTasks.UI.Tune_d_f3.250
.export e_iTasks.UI.Tune_n_f3.250
.descn e_iTasks.UI.Tune_d_f3.250 e_iTasks.UI.Tune_n_f3.250 2 0 "_f3.250"
.n 2 e_iTasks.UI.Tune_d_f3.250 ea250
.o 1 0
e_iTasks.UI.Tune_n_f3.250
	push_node _cycle_in_spine 2
.o 3 0
ea250
.o 3 0
s250
	push_a 1
	jsr_eval 0
	push_a 1
	jsr_eval 0
	buildh e_StdString_d<;3 0
	update_a 2 4
	update_a 1 3
	updatepop_a 0 2
.d 4 0
	jmp e_Data.Map_sunion
.export e_iTasks.UI.Tune_d_f2.249
.export e_iTasks.UI.Tune_n_f2.249
.descn e_iTasks.UI.Tune_d_f2.249 e_iTasks.UI.Tune_n_f2.249 4 0 "_f2.249"
.n 4 e_iTasks.UI.Tune_d_f2.249 ea249
.o 1 0
e_iTasks.UI.Tune_n_f2.249
	push_node _cycle_in_spine 4
.o 5 0
ea249
.o 5 0
s249
	push_a 3
	push_a 3
	push_a 2
	jsr_eval 0
	push_a 4
	push_a 1
	update_a 1 2
	update_a 0 1
	pop_a 1
	update_a 3 7
	update_a 2 6
	update_a 1 5
	updatepop_a 0 4
	jsr_ap 3
	fill_a 0 1
	pop_a 1
.d 1 0
	rtn
.export e_iTasks.UI.Tune_d\;37;31;22.23
.desc e_iTasks.UI.Tune_d\;37;31;22.23 _hnf l23 2 0 "\;37;31;22.23"
.a 0 a23
.o 2 0
l23
	repl_args 1 1
.o 2 0
a23
.o 2 0
ea23
	push_a 1
	jsr_eval 0
	repl_args 3 3
	jsr_eval 0
	update_a 2 4
	update_a 0 2
	push_a 3
	update_a 2 4
	update_a 0 2
	pop_a 2
	push_args 1 3 3
	buildh _Nil 0
	update_a 0 5
	pop_a 1
	push_a 1
	push_a 4
	build e_Data.Map_dunion;84 2 e_Data.Map_nunion;84
	push_a 3
	push_a 2
	push_a 2
	update_a 2 3
	update_a 0 2
	pop_a 1
	build e_iTasks.UI.Definition_dUI 3 e_iTasks.UI.Definition_nUI
	push_a 7
	push_a 7
	push_a 2
	update_a 2 3
	update_a 1 2
	update_a 0 1
	pop_a 1
	update_a 2 9
	update_a 1 8
	updatepop_a 0 7
	push_a 2
	push_a 2
	push_a 2
	buildh _Tuple 3
	updatepop_a 0 3
.d 1 0
	rtn
.export e_iTasks.UI.Tune_stune;4
.descexp e_iTasks.UI.Tune_dtune;4 e_iTasks.UI.Tune_ntune;4 e_iTasks.UI.Tune_ltune;4 2 0 "tune;4"
.o 3 0
e_iTasks.UI.Tune_itune;4
	pop_a 1
	push_r_args 1 4 0
	push_args 4 2 2
	jsr_eval 1
	jsr_eval 0
	push_array 0
	update_a 6 8
	update_a 4 6
	update_a 2 4
	update_a 5 7
	update_a 3 5
	update_a 0 3
	pop_a 3
.d 6 0
	jsr s5
.o 4 0
	buildhr e_iTasks.UI.Editor_rEditor 4 0
.d 1 0
	rtn
.ai 0 a5 e_iTasks.UI.Tune_itune;4
.o 2 0
e_iTasks.UI.Tune_ltune;4
	repl_args 1 1
.o 2 0
a5
.d 2 0
	jsr ea5
.o 4 0
	buildhr e_iTasks.UI.Editor_rEditor 4 0
.d 1 0
	rtn
.n 2 e_iTasks.UI.Tune_dtune;4
.o 1 0
e_iTasks.UI.Tune_ntune;4
	push_node _cycle_in_spine 2
.d 2 0
	jsr ea5
.o 4 0
	fill_r e_iTasks.UI.Editor_rEditor 4 0 4 0 0
	pop_a 4
.d 1 0
	rtn
.o 2 0
ea5
	jsr_eval 1
	jsr_eval 0
	repl_args 2 2
	jsr_eval 1
	jsr_eval 0
	push_r_args 2 4 0
	push_array 4
	update_a 4 7
	update_a 1 4
	update_a 2 5
	update_a 0 2
	push_a 6
	update_a 4 7
	update_a 0 4
	pop_a 3
.o 6 0
e_iTasks.UI.Tune_stune;4
.o 6 0
s5
	push_a 1
	push_a 1
	buildh ARRAY 1
	push_a 4
	buildh e_iTasks.UI.Tune_donReset;21.22 3
	push_a 6
	push_a 6
	push_a 6
	push_a 6
	update_a 4 0
	update_a 3 10
	update_a 2 9
	update_a 1 8
	updatepop_a 0 7
.d 4 0
	rtn
.export e_iTasks.UI.Tune_donReset;21.22
.desc e_iTasks.UI.Tune_donReset;21.22 _hnf l22 6 0 "onReset;21.22"
.a 0 a22
.o 2 0
l22
	repl_args 5 5
.o 6 0
a22
.o 6 0
ea22
	push_a 3
	push_a 3
	push_a 3
	build e_iTasks.UI.Tune_d_f1.248 3 e_iTasks.UI.Tune_n_f1.248
	push_a 6
	push_a 6
	push_a 3
	push_a 3
	update_a 3 4
	update_a 2 3
	update_a 0 2
	pop_a 1
	build e_iTasks.UI.Tune_d_f0.247 4 e_iTasks.UI.Tune_n_f0.247
	push_a 0
	build d_S.2 -1 n_S.2
	push_a 1
	build d_S.1 -1 n_S.1
	push_a 5
	push_a 5
	buildh e_iTasks.UI.Tune_d\;29;31;20.21 2
	build e_Data.Error_dmapMaybeError 2 e_Data.Error_nmapMaybeError
	update_a 1 8
	updatepop_a 0 7
	push_a 1
	push_a 1
	buildh _Tuple 2
	updatepop_a 0 2
.d 1 0
	rtn
.export e_iTasks.UI.Tune_d_f1.248
.export e_iTasks.UI.Tune_n_f1.248
.descn e_iTasks.UI.Tune_d_f1.248 e_iTasks.UI.Tune_n_f1.248 3 0 "_f1.248"
.n 3 e_iTasks.UI.Tune_d_f1.248 ea248
.o 1 0
e_iTasks.UI.Tune_n_f1.248
	push_node _cycle_in_spine 3
.o 4 0
ea248
.o 4 0
s248
	push_a 2
	jsr_eval 0
	push_a 2
	jsr_eval 0
	push_a 2
	jsr_eval 0
	buildh e_StdString_d<;3 0
	update_a 3 6
	update_a 2 5
	update_a 1 4
	updatepop_a 0 3
.d 5 0
	jmp e_Data.Map_sput
.export e_iTasks.UI.Tune_d_f0.247
.export e_iTasks.UI.Tune_n_f0.247
.descn e_iTasks.UI.Tune_d_f0.247 e_iTasks.UI.Tune_n_f0.247 4 0 "_f0.247"
.n 4 e_iTasks.UI.Tune_d_f0.247 ea247
.o 1 0
e_iTasks.UI.Tune_n_f0.247
	push_node _cycle_in_spine 4
.o 5 0
ea247
.o 5 0
s247
	push_a 3
	push_a 3
	push_a 2
	jsr_eval 0
	push_a 4
	push_a 1
	update_a 1 2
	update_a 0 1
	pop_a 1
	update_a 3 7
	update_a 2 6
	update_a 1 5
	updatepop_a 0 4
	jsr_ap 3
	fill_a 0 1
	pop_a 1
.d 1 0
	rtn
.export e_iTasks.UI.Tune_d\;29;31;20.21
.desc e_iTasks.UI.Tune_d\;29;31;20.21 _hnf l21 3 0 "\;29;31;20.21"
.a 0 a21
.o 2 0
l21
	repl_args 2 2
.o 3 0
a21
.o 3 0
ea21
	push_a 2
	jsr_eval 0
	repl_args 3 3
	jsr_eval 0
	update_a 2 5
	update_a 4 2
	update_a 1 4
	update_a 3 1
	update_a 0 3
	pop_a 1
	push_args 2 3 3
	buildh _Nil 0
	update_a 0 6
	pop_a 1
	push_a 1
	push_a 5
	push_a 5
	build e_Data.Map_dput;48 3 e_Data.Map_nput;48
	push_a 3
	push_a 2
	push_a 2
	update_a 2 3
	update_a 0 2
	pop_a 1
	build e_iTasks.UI.Definition_dUI 3 e_iTasks.UI.Definition_nUI
	push_a 8
	push_a 8
	push_a 2
	update_a 2 3
	update_a 1 2
	update_a 0 1
	pop_a 1
	update_a 2 10
	update_a 1 9
	updatepop_a 0 8
	push_a 2
	push_a 2
	push_a 2
	buildh _Tuple 3
	updatepop_a 0 3
.d 1 0
	rtn
.export e_iTasks.UI.Tune_stune;2
.export e_iTasks.UI.Tune_eatune;2
.descexp e_iTasks.UI.Tune_dtune;2 e_iTasks.UI.Tune_ntune;2 e_iTasks.UI.Tune_ltune;2 2 0 "tune;2"
.o 3 0
e_iTasks.UI.Tune_itune;2
	pop_a 1
	create
	push_args 1 2 2
	jsr_eval 1
	jsr_eval 0
	push_array 0
	update_a 5 4
	update_a 3 5
	update_a 2 3
	update_a 0 2
	pop_a 2
.d 4 0
	jmp s3
.ai 2 e_iTasks.UI.Tune_eatune;2 e_iTasks.UI.Tune_itune;2
.o 2 0
e_iTasks.UI.Tune_ltune;2
	push_args 0 1 1
	update_a 2 1
	create
	update_a 0 3
	pop_a 1
.d 3 0
	jmp e_iTasks.UI.Tune_eatune;2
.n 2 e_iTasks.UI.Tune_dtune;2 e_iTasks.UI.Tune_eatune;2
.o 1 0
e_iTasks.UI.Tune_ntune;2
	push_node _cycle_in_spine 2
.o 3 0
e_iTasks.UI.Tune_eatune;2
	jsr_eval 1
	jsr_eval 0
	repl_args 2 2
	jsr_eval 1
	jsr_eval 0
	push_array 0
	update_a 0 1
	pop_a 1
.o 4 0
e_iTasks.UI.Tune_stune;2
.o 4 0
s3
	buildh _Nil 0
	push_a 2
	push_a 2
	buildh ARRAY 1
	buildh _Tuple 2
	buildh _Cons 2
	create
	push_a 1
	update_a 1 2
	update_a 0 1
	pop_a 1
	update_a 1 3
	updatepop_a 0 2
.d 2 0
	jsr e_Data.Map_sfromList;56
.o 1 0
	push_a 1
	push_a 1
	update_a 1 2
	update_a 0 1
	pop_a 1
	update_a 1 2
	updatepop_a 0 1
.d 3 0
	jmp s4
.export e_iTasks.UI.Tune_stune;3
.export e_iTasks.UI.Tune_eatune;3
.descexp e_iTasks.UI.Tune_dtune;3 e_iTasks.UI.Tune_ntune;3 e_iTasks.UI.Tune_ltune;3 2 0 "tune;3"
.o 3 0
e_iTasks.UI.Tune_itune;3
	pop_a 1
	create
	push_a 2
	update_a 1 3
	update_a 2 1
	update_a 0 2
	pop_a 1
.d 3 0
	jmp s4
.ai 2 e_iTasks.UI.Tune_eatune;3 e_iTasks.UI.Tune_itune;3
.o 2 0
e_iTasks.UI.Tune_ltune;3
	push_args 0 1 1
	update_a 2 1
	create
	update_a 0 3
	pop_a 1
.d 3 0
	jmp e_iTasks.UI.Tune_eatune;3
.n 2 e_iTasks.UI.Tune_dtune;3 e_iTasks.UI.Tune_eatune;3
.o 1 0
e_iTasks.UI.Tune_ntune;3
	push_node _cycle_in_spine 2
.o 3 0
e_iTasks.UI.Tune_eatune;3
	jsr_eval 1
	jsr_eval 0
.o 3 0
e_iTasks.UI.Tune_stune;3
.o 3 0
s4
	push_a 1
	push_a 1
	buildh e_iTasks.UI.Tune_deval;25.26 2
	updatepop_a 0 2
.d 2 0
	jmp e_iTasks.WF.Definition_sTask
.export e_iTasks.UI.Tune_deval;25.26
.desc e_iTasks.UI.Tune_deval;25.26 _hnf l26 5 0 "eval;25.26"
.a 0 a26
.o 2 0
l26
	repl_args 4 4
.o 5 0
a26
.o 5 0
ea26
	push_a 4
	push_a 4
	push_a 4
	push_a 4
	build e_iTasks.WF.Definition_dapTask 4 e_iTasks.WF.Definition_napTask
	push_a 0
	build d_S.2 -1 n_S.2
	push_a 1
	build d_S.1 -1 n_S.1
	push_a 3
	build e_iTasks.UI.Tune_dwithExtraAttributes;26.27 2 e_iTasks.UI.Tune_nwithExtraAttributes;26.27
	push_a 3
	push_a 1
	update_a 1 2
	update_a 0 1
	pop_a 1
	build e_iTasks.UI.Tune_d_c;52;33;522.30 2 e_iTasks.UI.Tune_n_c;52;33;522.30
	update_a 1 7
	updatepop_a 0 6
	push_a 1
	push_a 1
	buildh _Tuple 2
	updatepop_a 0 2
.d 1 0
	rtn
.export e_iTasks.UI.Tune_d_c;52;33;522.30
.export e_iTasks.UI.Tune_n_c;52;33;522.30
.descn e_iTasks.UI.Tune_d_c;52;33;522.30 e_iTasks.UI.Tune_n_c;52;33;522.30 2 0 "_c;52;33;522.30"
.n 2 e_iTasks.UI.Tune_d_c;52;33;522.30 ea30
.o 1 0
e_iTasks.UI.Tune_n_c;52;33;522.30
	push_node _cycle_in_spine 2
.o 3 0
ea30
	jsr_eval 0
.o 3 0
s30
	eq_desc e_iTasks.WF.Definition_kValueResult 0 0
	jmp_true case.18
	jmp case.19
case.18
	repl_args 4 4
	push_a 3
	push_a 5
	buildh e_iTasks.UI.Tune_deval;25.26 2
	create
	push_a 1
	update_a 1 2
	update_a 0 1
	pop_a 1
	buildh _Nil 0
	update_a 0 7
	update_a 0 6
	pop_a 1
.d 2 0
	jsr e_iTasks.WF.Definition_sTask
.o 1 0
	push_a 3
	push_a 3
	push_a 3
	fill_r e_iTasks.WF.Definition_kValueResult 4 0 9 0 0
	pop_a 9
.d 1 0
	rtn
case.19
	fill_a 0 2
	pop_a 2
.d 1 0
	rtn
.export e_iTasks.UI.Tune_dwithExtraAttributes;26.27
.export e_iTasks.UI.Tune_nwithExtraAttributes;26.27
.descn e_iTasks.UI.Tune_dwithExtraAttributes;26.27 e_iTasks.UI.Tune_nwithExtraAttributes;26.27 2 0 "withExtraAttributes;26.27"
.n 2 e_iTasks.UI.Tune_dwithExtraAttributes;26.27 ea27
.o 1 0
e_iTasks.UI.Tune_nwithExtraAttributes;26.27
	push_node _cycle_in_spine 2
.o 3 0
ea27
	jsr_eval 1
.o 3 0
s27
	eq_desc e_iTasks.WF.Definition_kValueResult 0 1
	jmp_true case.20
	jmp case.21
case.20
	push_args 1 4 4
	pushD_a 2
	jmpD ea e_iTasks.UI.Definition_kReplaceUI 0 case.22 case.23
	pop_a 4
	pop_b 1
	jmp case.21
case.22
	pop_b 1
	push_args 2 1 1
	buildh _Nil 0
	update_a 0 4
	pop_a 1
	repl_args 3 3
	push_a 7
	jsr_eval 0
	create
	push_a 3
	push_a 2
	update_a 2 3
	update_a 1 2
	update_a 0 1
	pop_a 1
	update_a 3 4
	update_a 2 3
	update_a 1 2
	updatepop_a 0 1
	buildh _Nil 0
	update_a 0 10
	pop_a 1
.d 3 0
	jsr e_Data.Map_sunion;84
.o 1 0
	push_a 2
	push_a 2
	push_a 2
	update_a 2 3
	update_a 0 2
	pop_a 1
	buildhr e_iTasks.UI.Definition_kUI 3 0
	buildhr e_iTasks.UI.Definition_kReplaceUI 1 0
	push_a 6
	push_a 5
	push_a 5
	push_a 3
	update_a 3 4
	update_a 0 3
	pop_a 1
	fill_r e_iTasks.WF.Definition_kValueResult 4 0 12 0 0
	pop_a 12
.d 1 0
	rtn
case.23
	pop_b 1
	push_args 2 2 2
	buildh _Nil 0
	update_a 0 5
	pop_a 1
	push_a 1
	buildh _Nil 0
	buildh e_iTasks.UI.Tune_d\;278;26;27.28 0
	push_a 9
	push_a 2
	update_a 1 3
	update_a 2 1
	update_a 0 2
	pop_a 1
	build e_Data.Map_dfoldrWithKey 3 e_Data.Map_nfoldrWithKey
	buildh e_iTasks.UI.Tune_d\;15;13;521.29 1
	push_a 2
	push_a 1
	update_a 1 2
	update_a 0 1
	pop_a 1
	build e_StdList_dfilter 2 e_StdList_nfilter
	buildh e_iTasks.UI.Definition_dChangeUI 2
	push_a 6
	push_a 5
	push_a 5
	push_a 3
	update_a 3 4
	update_a 0 3
	pop_a 1
	fill_r e_iTasks.WF.Definition_kValueResult 4 0 12 0 0
	pop_a 12
.d 1 0
	rtn
case.21
	fill_a 1 2
	pop_a 2
.d 1 0
	rtn
.export e_iTasks.UI.Tune_d\;278;26;27.28
.desc e_iTasks.UI.Tune_d\;278;26;27.28 _hnf l28 3 0 "\;278;26;27.28"
.a 3 ea28
.o 2 0
l28
	push_args 0 2 2
	update_a 3 2
	create
	update_a 0 4
	pop_a 1
.o 4 0
ea28
.o 4 0
s28
	push_a 2
	push_a 1
	fillh _Cons 2 5
	pop_a 3
.d 1 0
	rtn
.export e_iTasks.UI.Tune_d\;15;13;521.29
.desc e_iTasks.UI.Tune_d\;15;13;521.29 _hnf l29 2 0 "\;15;13;521.29"
.a 0 a29
.o 2 0
l29
	repl_args 1 1
.o 2 0
a29
.d 2 0
	jsr ea29
.o 0 1 b
	buildB_b 0
	pop_b 1
.d 1 0
	rtn
.o 2 0
ea29
	jsr_eval 1
	jsr_eval 0
.o 2 0
s29
	push_a 1
	push_a 1
	update_a 1 3
	updatepop_a 0 2
.d 2 0
	jsr s25
.o 0 1 b
	notB
.d 0 1 b
	rtn
.o 2 0
s25
	eq_desc e_iTasks.UI.Definition_kSetAttribute 0 1
	jmp_true case.24
	jmp case.25
case.24
	push_args 1 2 2
	buildh _Nil 0
	update_a 0 4
	pop_a 1
	update_a 0 1
	pop_a 1
	buildh e_StdString_d==;2 0
	push_a 2
	push_a 2
	buildh ARRAY 1
	push_a 2
	update_a 2 3
	update_a 1 2
	update_a 0 1
	pop_a 1
	update_a 2 5
	update_a 1 4
	updatepop_a 0 3
.d 3 0
	jmp e_StdList_sisMember
case.25
	push_args 1 1 1
	buildh _Nil 0
	update_a 0 3
	pop_a 1
	buildh e_StdString_d==;2 0
	push_a 2
	push_a 2
	buildh ARRAY 1
	push_a 2
	update_a 2 3
	update_a 1 2
	update_a 0 1
	pop_a 1
	update_a 2 5
	update_a 1 4
	updatepop_a 0 3
.d 3 0
	jmp e_StdList_sisMember
.export e_iTasks.UI.Tune_s@>>
.descexp e_iTasks.UI.Tune_d@>> e_iTasks.UI.Tune_n@>> e_iTasks.UI.Tune_l@>> 3 0 "@>>"
.a 0 ea2
.o 2 0
e_iTasks.UI.Tune_l@>>
	repl_args 2 2
.d 3 0
	jmp ea2
.n 3 e_iTasks.UI.Tune_d@>> _
.o 1 0
e_iTasks.UI.Tune_n@>>
	push_node _cycle_in_spine 3
.d 3 0
	jsr ea2
.o 1 0
	fill_a 0 1
	pop_a 1
.d 1 0
	rtn
.o 3 0
ea2
	jsr_eval 2
	jsr_eval 1
	jsr_eval 0
	repl_r_args 1 0
.o 3 0
e_iTasks.UI.Tune_s@>>
.o 3 0
s2
	push_a 2
	push_a 1
	push_a 3
	push_a 1
	update_a 1 2
	update_a 0 1
	pop_a 1
	update_a 2 5
	update_a 1 4
	updatepop_a 0 3
.d 3 0
	jmp_i 2
.export e_iTasks.UI.Tune_s<<@
.descexp e_iTasks.UI.Tune_d<<@ e_iTasks.UI.Tune_n<<@ e_iTasks.UI.Tune_l<<@ 3 0 "<<@"
.a 0 ea1
.o 2 0
e_iTasks.UI.Tune_l<<@
	repl_args 2 2
.d 3 0
	jmp ea1
.n 3 e_iTasks.UI.Tune_d<<@ _
.o 1 0
e_iTasks.UI.Tune_n<<@
	push_node _cycle_in_spine 3
.d 3 0
	jsr ea1
.o 1 0
	fill_a 0 1
	pop_a 1
.d 1 0
	rtn
.o 3 0
ea1
	jsr_eval 2
	jsr_eval 1
	jsr_eval 0
	repl_r_args 1 0
.o 3 0
e_iTasks.UI.Tune_s<<@
.o 3 0
s1
	push_a 1
	push_a 1
	push_a 4
	push_a 1
	update_a 1 2
	update_a 0 1
	pop_a 1
	update_a 2 5
	update_a 1 4
	updatepop_a 0 3
.d 3 0
	jmp_i 2
