.comp 920 000011110011000
.start _nostart_
.depend "ostcp" "20210613144732"
.depend "StdCharList" "20210613144732"
.depend "_SystemArray" "20210613144732"
.depend "StdArray" "20210613144732"
.depend "StdEnv" "20210613144732"
.depend "_SystemEnum" "20210613144732"
.depend "StdEnum" "20210613144732"
.depend "StdTuple" "20210613144732"
.depend "StdOrdList" "20210613144732"
.depend "StdMaybe" "20210613144732"
.depend "_SystemStrictMaybes" "20210613144732"
.depend "TCPDef" "20210613144732"
.depend "StdFile" "20210613144732"
.depend "tcp" "20210613144732"
.depend "StdString" "20210613144732"
.depend "StdMisc" "20210613144732"
.depend "StdFunctions" "20210613144732"
.depend "_SystemEnumStrict" "20210613144732"
.depend "_SystemStrictLists" "20210613144732"
.depend "StdStrictLists" "20210613144732"
.depend "StdReal" "20210613144732"
.depend "StdChar" "20210613144732"
.depend "StdInt" "20210613144732"
.depend "StdBool" "20210613144732"
.depend "StdClass" "20210613144732"
.depend "StdList" "20210613144732"
.depend "StdOverloaded" "20210613144732"
.depend "_SystemDynamic" "20210613144732"
.depend "TCPChannelClass" "20210613144732"
.module m_TCPChannelClass "TCPChannelClass" "20210613144732"
.endinfo
.impmod _system
.implab _cycle_in_spine
.implab _type_error
.implab _hnf
.impdesc e_system_dind
.implab e_system_nind e_system_eaind
.impdesc e_system_dif
.implab e_system_nif e_system_eaif
.implab e_system_sif
.impdesc e_system_dAP
.implab e_system_nAP e_system_eaAP
.implab e_system_sAP
.impdesc ARRAY
.impdesc _Nil
.impdesc _Cons
.impdesc _Conss
.implab n_Conss ea_Conss
.impdesc _Consts
.implab n_Consts ea_Consts
.impdesc _Conssts
.implab n_Conssts ea_Conssts
.impdesc _Tuple
.impdesc d_S.1
.implab n_S.1 ea_S.1
.impdesc d_S.2
.implab n_S.2 ea_S.2
.impdesc d_S.3
.implab n_S.3 ea_S.3
.impdesc d_S.4
.implab n_S.4 ea_S.4
.impdesc d_S.5
.implab n_S.5 ea_S.5
.impdesc d_S.6
.implab n_S.6 ea_S.6
.implab _driver
.impmod ostcp
.implab e_ostcp_stcp_getcurrenttick
.impmod StdMisc
.implab e_StdMisc_sabort
.impmod StdInt
.implab e_StdInt_s+;6
.impdesc e_StdInt_d-;7
.implab e_StdInt_s-;7
.implab e_StdInt_n-;7
.implab e_StdInt_sone;11
.implab e_StdInt_s==;16
.impmod StdBool
.implab e_StdBool_snot
.impmod StdList
.implab e_StdList_s++
.export e_TCPChannelClass_rDuplexChannel
.record e_TCPChannelClass_rDuplexChannel aa 2 0 "DuplexChannel"
.export e_TCPChannelClass_dDuplexChannel.sChannel
.export e_TCPChannelClass_nDuplexChannel.sChannel
.descs e_TCPChannelClass_dDuplexChannel.sChannel e_TCPChannelClass_nDuplexChannel.sChannel _ 1 0 "DuplexChannel.sChannel"
.n -4 e_TCPChannelClass_dDuplexChannel.sChannel _
.o 1 0 
e_TCPChannelClass_nDuplexChannel.sChannel
	push_node _cycle_in_spine 1
	jsr_eval 0
	repl_r_args_a 2 0 1 1
	jsr_eval 0
.d 1 0 
	fill_a01_pop_rtn 
.export e_TCPChannelClass_dDuplexChannel.rChannel
.export e_TCPChannelClass_nDuplexChannel.rChannel
.descs e_TCPChannelClass_dDuplexChannel.rChannel e_TCPChannelClass_nDuplexChannel.rChannel _ 2 0 "DuplexChannel.rChannel"
.n -4 e_TCPChannelClass_dDuplexChannel.rChannel _
.o 1 0 
e_TCPChannelClass_nDuplexChannel.rChannel
	push_node _cycle_in_spine 1
	jsr_eval 0
	repl_r_args_a 2 0 2 1
	jsr_eval 0
.d 1 0 
	fill_a01_pop_rtn 
.export e_TCPChannelClass_dTR_Expired
.desc0 e_TCPChannelClass_dTR_Expired 0 "TR_Expired"
.export e_TCPChannelClass_dTR_Success
.desc0 e_TCPChannelClass_dTR_Success 1 "TR_Success"
.export e_TCPChannelClass_dTR_NoSuccess
.desc0 e_TCPChannelClass_dTR_NoSuccess 2 "TR_NoSuccess"
.export e_TCPChannelClass_rReceive;
.record e_TCPChannelClass_rReceive; aaaa 4 0 "Receive;"
.descexp e_TCPChannelClass_tReceive; e_TCPChannelClass_cReceive; _hnf 4 1 "Receive;"
.n 4 e_TCPChannelClass_tReceive;
.o 1 0 
e_TCPChannelClass_cReceive;
	push_node _cycle_in_spine 4
	jsr_eval 3
	jsr_eval 2
	jsr_eval 1
	jsr_eval 0
.impmod TCPChannelClass
.impdesc e_TCPChannelClass_rReceive;
	fill_r e_TCPChannelClass_rReceive; 4 0 4 0 0
.d 1 0 
	pop_a_rtn 4
.export e_TCPChannelClass_dReceive;.available
.export e_TCPChannelClass_nReceive;.available
.export e_TCPChannelClass_eaReceive;.available
.descs e_TCPChannelClass_dReceive;.available e_TCPChannelClass_nReceive;.available _ 1 0 "Receive;.available"
.n -4 e_TCPChannelClass_dReceive;.available e_TCPChannelClass_eaReceive;.available
.o 1 0 
e_TCPChannelClass_nReceive;.available
	push_node _cycle_in_spine 1
.o 2 0 
e_TCPChannelClass_eaReceive;.available
	jsr_eval 0
	repl_r_args_a 4 0 1 1
.d 1 0 
	fill_a01_pop_rtn 
.export e_TCPChannelClass_dReceive;.eom
.export e_TCPChannelClass_nReceive;.eom
.export e_TCPChannelClass_eaReceive;.eom
.descs e_TCPChannelClass_dReceive;.eom e_TCPChannelClass_nReceive;.eom _ 3 0 "Receive;.eom"
.n -4 e_TCPChannelClass_dReceive;.eom e_TCPChannelClass_eaReceive;.eom
.o 1 0 
e_TCPChannelClass_nReceive;.eom
	push_node _cycle_in_spine 1
.o 2 0 
e_TCPChannelClass_eaReceive;.eom
	jsr_eval 0
	repl_r_args_a 4 0 2 1
.d 1 0 
	fill_a01_pop_rtn 
.export e_TCPChannelClass_dReceive;.receiveUpTo
.export e_TCPChannelClass_nReceive;.receiveUpTo
.export e_TCPChannelClass_eaReceive;.receiveUpTo
.descs e_TCPChannelClass_dReceive;.receiveUpTo e_TCPChannelClass_nReceive;.receiveUpTo _ 4 0 "Receive;.receiveUpTo"
.n -4 e_TCPChannelClass_dReceive;.receiveUpTo e_TCPChannelClass_eaReceive;.receiveUpTo
.o 1 0 
e_TCPChannelClass_nReceive;.receiveUpTo
	push_node _cycle_in_spine 1
.o 2 0 
e_TCPChannelClass_eaReceive;.receiveUpTo
	jsr_eval 0
	repl_r_args_a 4 0 3 1
.d 1 0 
	fill_a01_pop_rtn 
.export e_TCPChannelClass_dReceive;.receive_MT
.export e_TCPChannelClass_nReceive;.receive_MT
.export e_TCPChannelClass_eaReceive;.receive_MT
.descs e_TCPChannelClass_dReceive;.receive_MT e_TCPChannelClass_nReceive;.receive_MT _ 5 0 "Receive;.receive_MT"
.n -4 e_TCPChannelClass_dReceive;.receive_MT e_TCPChannelClass_eaReceive;.receive_MT
.o 1 0 
e_TCPChannelClass_nReceive;.receive_MT
	push_node _cycle_in_spine 1
.o 2 0 
e_TCPChannelClass_eaReceive;.receive_MT
	jsr_eval 0
	repl_r_args_a 4 0 4 1
.d 1 0 
	fill_a01_pop_rtn 
.export e_TCPChannelClass_rcloseRChannel;
.record e_TCPChannelClass_rcloseRChannel; a 1 0 "closeRChannel;"
.descexp e_TCPChannelClass_tcloseRChannel; e_TCPChannelClass_ccloseRChannel; _hnf 1 1 "closeRChannel;"
.n 1 e_TCPChannelClass_tcloseRChannel;
.o 1 0 
e_TCPChannelClass_ccloseRChannel;
	push_node _cycle_in_spine 1
	jsr_eval 0
.impdesc e_TCPChannelClass_rcloseRChannel;
	fill_r e_TCPChannelClass_rcloseRChannel; 1 0 1 0 0
.d 1 0 
	pop_a_rtn 1
.export e_TCPChannelClass_dcloseRChannel;.closeRChannel
.export e_TCPChannelClass_ncloseRChannel;.closeRChannel
.export e_TCPChannelClass_eacloseRChannel;.closeRChannel
.descs e_TCPChannelClass_dcloseRChannel;.closeRChannel e_TCPChannelClass_ncloseRChannel;.closeRChannel _ 1 0 "closeRChannel;.closeRChannel"
.n -4 e_TCPChannelClass_dcloseRChannel;.closeRChannel e_TCPChannelClass_eacloseRChannel;.closeRChannel
.o 1 0 
e_TCPChannelClass_ncloseRChannel;.closeRChannel
	push_node _cycle_in_spine 1
.o 2 0 
e_TCPChannelClass_eacloseRChannel;.closeRChannel
	jsr_eval 0
	repl_r_args_a 1 0 1 1
.d 1 0 
	fill_a01_pop_rtn 
.export e_TCPChannelClass_rSend;
.record e_TCPChannelClass_rSend; aaaaaaa 7 0 "Send;"
.descexp e_TCPChannelClass_tSend; e_TCPChannelClass_cSend; _hnf 7 1 "Send;"
.n 7 e_TCPChannelClass_tSend;
.o 1 0 
e_TCPChannelClass_cSend;
	push_node _cycle_in_spine 7
	jsr_eval 6
	jsr_eval 5
	jsr_eval 4
	jsr_eval 3
	jsr_eval 2
	jsr_eval 1
	jsr_eval 0
.impdesc e_TCPChannelClass_rSend;
	fill_r e_TCPChannelClass_rSend; 7 0 7 0 0
.d 1 0 
	pop_a_rtn 7
.export e_TCPChannelClass_dSend;.abortConnection
.export e_TCPChannelClass_nSend;.abortConnection
.export e_TCPChannelClass_eaSend;.abortConnection
.descs e_TCPChannelClass_dSend;.abortConnection e_TCPChannelClass_nSend;.abortConnection _ 1 0 "Send;.abortConnection"
.n -4 e_TCPChannelClass_dSend;.abortConnection e_TCPChannelClass_eaSend;.abortConnection
.o 1 0 
e_TCPChannelClass_nSend;.abortConnection
	push_node _cycle_in_spine 1
.o 2 0 
e_TCPChannelClass_eaSend;.abortConnection
	jsr_eval 0
	repl_r_args_a 7 0 1 1
.d 1 0 
	fill_a01_pop_rtn 
.export e_TCPChannelClass_dSend;.bufferSize
.export e_TCPChannelClass_nSend;.bufferSize
.export e_TCPChannelClass_eaSend;.bufferSize
.descs e_TCPChannelClass_dSend;.bufferSize e_TCPChannelClass_nSend;.bufferSize _ 3 0 "Send;.bufferSize"
.n -4 e_TCPChannelClass_dSend;.bufferSize e_TCPChannelClass_eaSend;.bufferSize
.o 1 0 
e_TCPChannelClass_nSend;.bufferSize
	push_node _cycle_in_spine 1
.o 2 0 
e_TCPChannelClass_eaSend;.bufferSize
	jsr_eval 0
	repl_r_args_a 7 0 2 1
.d 1 0 
	fill_a01_pop_rtn 
.export e_TCPChannelClass_dSend;.closeChannel_MT
.export e_TCPChannelClass_nSend;.closeChannel_MT
.export e_TCPChannelClass_eaSend;.closeChannel_MT
.descs e_TCPChannelClass_dSend;.closeChannel_MT e_TCPChannelClass_nSend;.closeChannel_MT _ 4 0 "Send;.closeChannel_MT"
.n -4 e_TCPChannelClass_dSend;.closeChannel_MT e_TCPChannelClass_eaSend;.closeChannel_MT
.o 1 0 
e_TCPChannelClass_nSend;.closeChannel_MT
	push_node _cycle_in_spine 1
.o 2 0 
e_TCPChannelClass_eaSend;.closeChannel_MT
	jsr_eval 0
	repl_r_args_a 7 0 3 1
.d 1 0 
	fill_a01_pop_rtn 
.export e_TCPChannelClass_dSend;.disconnected
.export e_TCPChannelClass_nSend;.disconnected
.export e_TCPChannelClass_eaSend;.disconnected
.descs e_TCPChannelClass_dSend;.disconnected e_TCPChannelClass_nSend;.disconnected _ 5 0 "Send;.disconnected"
.n -4 e_TCPChannelClass_dSend;.disconnected e_TCPChannelClass_eaSend;.disconnected
.o 1 0 
e_TCPChannelClass_nSend;.disconnected
	push_node _cycle_in_spine 1
.o 2 0 
e_TCPChannelClass_eaSend;.disconnected
	jsr_eval 0
	repl_r_args_a 7 0 4 1
.d 1 0 
	fill_a01_pop_rtn 
.export e_TCPChannelClass_dSend;.flushBuffer_MT
.export e_TCPChannelClass_nSend;.flushBuffer_MT
.export e_TCPChannelClass_eaSend;.flushBuffer_MT
.descs e_TCPChannelClass_dSend;.flushBuffer_MT e_TCPChannelClass_nSend;.flushBuffer_MT _ 6 0 "Send;.flushBuffer_MT"
.n -4 e_TCPChannelClass_dSend;.flushBuffer_MT e_TCPChannelClass_eaSend;.flushBuffer_MT
.o 1 0 
e_TCPChannelClass_nSend;.flushBuffer_MT
	push_node _cycle_in_spine 1
.o 2 0 
e_TCPChannelClass_eaSend;.flushBuffer_MT
	jsr_eval 0
	repl_r_args_a 7 0 5 1
.d 1 0 
	fill_a01_pop_rtn 
.export e_TCPChannelClass_dSend;.nsend_MT
.export e_TCPChannelClass_nSend;.nsend_MT
.export e_TCPChannelClass_eaSend;.nsend_MT
.descs e_TCPChannelClass_dSend;.nsend_MT e_TCPChannelClass_nSend;.nsend_MT _ 7 0 "Send;.nsend_MT"
.n -4 e_TCPChannelClass_dSend;.nsend_MT e_TCPChannelClass_eaSend;.nsend_MT
.o 1 0 
e_TCPChannelClass_nSend;.nsend_MT
	push_node _cycle_in_spine 1
.o 2 0 
e_TCPChannelClass_eaSend;.nsend_MT
	jsr_eval 0
	repl_r_args_a 7 0 6 1
.d 1 0 
	fill_a01_pop_rtn 
.export e_TCPChannelClass_dSend;.send_MT
.export e_TCPChannelClass_nSend;.send_MT
.export e_TCPChannelClass_eaSend;.send_MT
.descs e_TCPChannelClass_dSend;.send_MT e_TCPChannelClass_nSend;.send_MT _ 8 0 "Send;.send_MT"
.n -4 e_TCPChannelClass_dSend;.send_MT e_TCPChannelClass_eaSend;.send_MT
.o 1 0 
e_TCPChannelClass_nSend;.send_MT
	push_node _cycle_in_spine 1
.o 2 0 
e_TCPChannelClass_eaSend;.send_MT
	jsr_eval 0
	repl_r_args_a 7 0 7 1
.d 1 0 
	fill_a01_pop_rtn 
.export e_TCPChannelClass_rMaxSize;
.record e_TCPChannelClass_rMaxSize; aaa 3 0 "MaxSize;"
.descexp e_TCPChannelClass_tMaxSize; e_TCPChannelClass_cMaxSize; _hnf 3 1 "MaxSize;"
.n 3 e_TCPChannelClass_tMaxSize;
.o 1 0 
e_TCPChannelClass_cMaxSize;
	push_node _cycle_in_spine 3
	jsr_eval 2
	jsr_eval 1
	jsr_eval 0
.impdesc e_TCPChannelClass_rMaxSize;
	fill_r e_TCPChannelClass_rMaxSize; 3 0 3 0 0
.d 1 0 
	pop_a_rtn 3
.export e_TCPChannelClass_dMaxSize;.clearMaxSize
.export e_TCPChannelClass_nMaxSize;.clearMaxSize
.export e_TCPChannelClass_eaMaxSize;.clearMaxSize
.descs e_TCPChannelClass_dMaxSize;.clearMaxSize e_TCPChannelClass_nMaxSize;.clearMaxSize _ 1 0 "MaxSize;.clearMaxSize"
.n -4 e_TCPChannelClass_dMaxSize;.clearMaxSize e_TCPChannelClass_eaMaxSize;.clearMaxSize
.o 1 0 
e_TCPChannelClass_nMaxSize;.clearMaxSize
	push_node _cycle_in_spine 1
.o 2 0 
e_TCPChannelClass_eaMaxSize;.clearMaxSize
	jsr_eval 0
	repl_r_args_a 3 0 1 1
.d 1 0 
	fill_a01_pop_rtn 
.export e_TCPChannelClass_dMaxSize;.getMaxSize
.export e_TCPChannelClass_nMaxSize;.getMaxSize
.export e_TCPChannelClass_eaMaxSize;.getMaxSize
.descs e_TCPChannelClass_dMaxSize;.getMaxSize e_TCPChannelClass_nMaxSize;.getMaxSize _ 3 0 "MaxSize;.getMaxSize"
.n -4 e_TCPChannelClass_dMaxSize;.getMaxSize e_TCPChannelClass_eaMaxSize;.getMaxSize
.o 1 0 
e_TCPChannelClass_nMaxSize;.getMaxSize
	push_node _cycle_in_spine 1
.o 2 0 
e_TCPChannelClass_eaMaxSize;.getMaxSize
	jsr_eval 0
	repl_r_args_a 3 0 2 1
.d 1 0 
	fill_a01_pop_rtn 
.export e_TCPChannelClass_dMaxSize;.setMaxSize
.export e_TCPChannelClass_nMaxSize;.setMaxSize
.export e_TCPChannelClass_eaMaxSize;.setMaxSize
.descs e_TCPChannelClass_dMaxSize;.setMaxSize e_TCPChannelClass_nMaxSize;.setMaxSize _ 4 0 "MaxSize;.setMaxSize"
.n -4 e_TCPChannelClass_dMaxSize;.setMaxSize e_TCPChannelClass_eaMaxSize;.setMaxSize
.o 1 0 
e_TCPChannelClass_nMaxSize;.setMaxSize
	push_node _cycle_in_spine 1
.o 2 0 
e_TCPChannelClass_eaMaxSize;.setMaxSize
	jsr_eval 0
	repl_r_args_a 3 0 3 1
.d 1 0 
	fill_a01_pop_rtn 
.export e_TCPChannelClass_sTD;MaxSize;
.export e_TCPChannelClass_eaTD;MaxSize;
.descexp e_TCPChannelClass_dTD;MaxSize; e_TCPChannelClass_nTD;MaxSize; e_TCPChannelClass_lTD;MaxSize; 1 0 "TD;MaxSize;"
.o 2 0 
e_TCPChannelClass_lTD;MaxSize;
	update_a 1 0
	create 
.d 2 0 
	put_a_jmp 2 e_TCPChannelClass_eaTD;MaxSize;
.n 1 e_TCPChannelClass_dTD;MaxSize; e_TCPChannelClass_eaTD;MaxSize;
.o 1 0 
e_TCPChannelClass_nTD;MaxSize;
	push_node _cycle_in_spine 1
.o 2 0 
e_TCPChannelClass_eaTD;MaxSize;
.o 2 0 
e_TCPChannelClass_sTD;MaxSize;
.o 2 0 
s20
	fillh _Nil 0 1
.d 1 0 
	pop_a_rtn 1
.export e_TCPChannelClass_sTD;Send;
.export e_TCPChannelClass_eaTD;Send;
.descexp e_TCPChannelClass_dTD;Send; e_TCPChannelClass_nTD;Send; e_TCPChannelClass_lTD;Send; 1 0 "TD;Send;"
.o 2 0 
e_TCPChannelClass_lTD;Send;
	update_a 1 0
	create 
.d 2 0 
	put_a_jmp 2 e_TCPChannelClass_eaTD;Send;
.n 1 e_TCPChannelClass_dTD;Send; e_TCPChannelClass_eaTD;Send;
.o 1 0 
e_TCPChannelClass_nTD;Send;
	push_node _cycle_in_spine 1
.o 2 0 
e_TCPChannelClass_eaTD;Send;
.o 2 0 
e_TCPChannelClass_sTD;Send;
.o 2 0 
s19
	fillh _Nil 0 1
.d 1 0 
	pop_a_rtn 1
.export e_TCPChannelClass_sTD;closeRChannel;
.export e_TCPChannelClass_eaTD;closeRChannel;
.descexp e_TCPChannelClass_dTD;closeRChannel; e_TCPChannelClass_nTD;closeRChannel; e_TCPChannelClass_lTD;closeRChannel; 1 0 "TD;closeRChannel;"
.o 2 0 
e_TCPChannelClass_lTD;closeRChannel;
	update_a 1 0
	create 
.d 2 0 
	put_a_jmp 2 e_TCPChannelClass_eaTD;closeRChannel;
.n 1 e_TCPChannelClass_dTD;closeRChannel; e_TCPChannelClass_eaTD;closeRChannel;
.o 1 0 
e_TCPChannelClass_nTD;closeRChannel;
	push_node _cycle_in_spine 1
.o 2 0 
e_TCPChannelClass_eaTD;closeRChannel;
.o 2 0 
e_TCPChannelClass_sTD;closeRChannel;
.o 2 0 
s18
	fillh _Nil 0 1
.d 1 0 
	pop_a_rtn 1
.export e_TCPChannelClass_sTD;Receive;
.export e_TCPChannelClass_eaTD;Receive;
.descexp e_TCPChannelClass_dTD;Receive; e_TCPChannelClass_nTD;Receive; e_TCPChannelClass_lTD;Receive; 1 0 "TD;Receive;"
.o 2 0 
e_TCPChannelClass_lTD;Receive;
	update_a 1 0
	create 
.d 2 0 
	put_a_jmp 2 e_TCPChannelClass_eaTD;Receive;
.n 1 e_TCPChannelClass_dTD;Receive; e_TCPChannelClass_eaTD;Receive;
.o 1 0 
e_TCPChannelClass_nTD;Receive;
	push_node _cycle_in_spine 1
.o 2 0 
e_TCPChannelClass_eaTD;Receive;
.o 2 0 
e_TCPChannelClass_sTD;Receive;
.o 2 0 
s17
	fillh _Nil 0 1
.d 1 0 
	pop_a_rtn 1
.export e_TCPChannelClass_sTD;Timeout
.export e_TCPChannelClass_eaTD;Timeout
.descexp e_TCPChannelClass_dTD;Timeout e_TCPChannelClass_nTD;Timeout e_TCPChannelClass_lTD;Timeout 1 0 "TD;Timeout"
.o 2 0 
e_TCPChannelClass_lTD;Timeout
	update_a 1 0
	create 
.d 2 0 
	put_a_jmp 2 e_TCPChannelClass_eaTD;Timeout
.n 1 e_TCPChannelClass_dTD;Timeout e_TCPChannelClass_eaTD;Timeout
.o 1 0 
e_TCPChannelClass_nTD;Timeout
	push_node _cycle_in_spine 1
.o 2 0 
e_TCPChannelClass_eaTD;Timeout
.o 2 0 
e_TCPChannelClass_sTD;Timeout
.o 2 0 
s16
	fillh _Nil 0 1
.d 1 0 
	pop_a_rtn 1
.export e_TCPChannelClass_sTD;TimeoutReport
.export e_TCPChannelClass_eaTD;TimeoutReport
.descexp e_TCPChannelClass_dTD;TimeoutReport e_TCPChannelClass_nTD;TimeoutReport e_TCPChannelClass_lTD;TimeoutReport 1 0 "TD;TimeoutReport"
.o 2 0 
e_TCPChannelClass_lTD;TimeoutReport
	update_a 1 0
	create 
.d 2 0 
	put_a_jmp 2 e_TCPChannelClass_eaTD;TimeoutReport
.n 1 e_TCPChannelClass_dTD;TimeoutReport e_TCPChannelClass_eaTD;TimeoutReport
.o 1 0 
e_TCPChannelClass_nTD;TimeoutReport
	push_node _cycle_in_spine 1
.o 2 0 
e_TCPChannelClass_eaTD;TimeoutReport
.o 2 0 
e_TCPChannelClass_sTD;TimeoutReport
.o 2 0 
s15
	fillh _Nil 0 1
.d 1 0 
	pop_a_rtn 1
.export e_TCPChannelClass_sTD;DuplexChannel
.export e_TCPChannelClass_eaTD;DuplexChannel
.descexp e_TCPChannelClass_dTD;DuplexChannel e_TCPChannelClass_nTD;DuplexChannel e_TCPChannelClass_lTD;DuplexChannel 1 0 "TD;DuplexChannel"
.o 2 0 
e_TCPChannelClass_lTD;DuplexChannel
	update_a 1 0
	create 
.d 2 0 
	put_a_jmp 2 e_TCPChannelClass_eaTD;DuplexChannel
.n 1 e_TCPChannelClass_dTD;DuplexChannel e_TCPChannelClass_eaTD;DuplexChannel
.o 1 0 
e_TCPChannelClass_nTD;DuplexChannel
	push_node _cycle_in_spine 1
.o 2 0 
e_TCPChannelClass_eaTD;DuplexChannel
.o 2 0 
e_TCPChannelClass_sTD;DuplexChannel
.o 2 0 
s14
	fillh _Nil 0 1
.d 1 0 
	pop_a_rtn 1
.export e_TCPChannelClass_stoString;12
.descexp e_TCPChannelClass_dtoString;12 e_TCPChannelClass_ntoString;12 e_TCPChannelClass_ltoString;12 1 0 "toString;12"
.o 2 0 
e_TCPChannelClass_itoString;12
.d 1 0 
	pop_a_jmp 1 s13
.ai 1 _ e_TCPChannelClass_itoString;12
.o 2 0 
e_TCPChannelClass_ltoString;12
.d 1 0 
	pop_a_jsr 1 ea13
.o 1 0 
	buildh ARRAY 1
.d 1 0 
	rtn 
.n 1 e_TCPChannelClass_dtoString;12
.o 1 0 
e_TCPChannelClass_ntoString;12
	push_node _cycle_in_spine 1
.d 1 0 
	jsr ea13
.o 1 0 
	fillh ARRAY 1 1
.d 1 0 
	rtn 
.o 1 0 
ea13
	jsr_eval 0
.o 1 0 
e_TCPChannelClass_stoString;12
.o 1 0 
s13
	pushD_a 0
	jmpD ea e_TCPChannelClass_dTR_Success 0 case.2 case.3
case.1
	pop_b 1
	pop_a 1
	buildAC "TR_Expired"
.d 1 0 
	rtn 
case.2
	pop_b 1
	pop_a 1
	buildAC "TR_Success"
.d 1 0 
	rtn 
case.3
	pop_b 1
	pop_a 1
	buildAC "TR_NoSuccess"
.d 1 0 
	rtn 
.export e_TCPChannelClass_smb_close_inet_receiver_without_id;10
.export e_TCPChannelClass_eamb_close_inet_receiver_without_id;10
.descexp e_TCPChannelClass_dmb_close_inet_receiver_without_id;10 e_TCPChannelClass_nmb_close_inet_receiver_without_id;10 e_TCPChannelClass_lmb_close_inet_receiver_without_id;10 3 0 "mb_close_inet_receiver_without_id;10"
.o 2 3 bii
e_TCPChannelClass_imb_close_inet_receiver_without_id;10
	pop_a 1
	create 
	swap_a1 
.d 2 3 bii
	jmp s11
.ai 3 e_TCPChannelClass_eamb_close_inet_receiver_without_id;10 e_TCPChannelClass_imb_close_inet_receiver_without_id;10
.o 2 0 
e_TCPChannelClass_lmb_close_inet_receiver_without_id;10
	push_args 0 2 2
	update_a 3 2
	create 
.d 4 0 
	put_a_jmp 4 e_TCPChannelClass_eamb_close_inet_receiver_without_id;10
.n 3 e_TCPChannelClass_dmb_close_inet_receiver_without_id;10 e_TCPChannelClass_eamb_close_inet_receiver_without_id;10
.o 1 0 
e_TCPChannelClass_nmb_close_inet_receiver_without_id;10
	push_node _cycle_in_spine 3
.o 4 0 
e_TCPChannelClass_eamb_close_inet_receiver_without_id;10
	jsr_eval 2
	push_jsr_eval 1
	repl_args 2 2
	jsr_eval 1
	jsr_eval 0
	jsr_eval 2
	pushI_a 1
	pushI_a 0
	pushB_a 2
	pop_a 4
.o 2 3 bii
e_TCPChannelClass_smb_close_inet_receiver_without_id;10
.o 2 3 bii
s11
	pop_b 3
.d 1 0 
	fill_a01_pop_rtn 
.export e_TCPChannelClass_schannel_env_get_current_tick;9
.descexp e_TCPChannelClass_dchannel_env_get_current_tick;9 e_TCPChannelClass_nchannel_env_get_current_tick;9 e_TCPChannelClass_lchannel_env_get_current_tick;9 1 0 "channel_env_get_current_tick;9"
.o 2 0 
e_TCPChannelClass_ichannel_env_get_current_tick;9
.d 1 0 
	pop_a_jmp 1 s10
.ai 1 _ e_TCPChannelClass_ichannel_env_get_current_tick;9
.o 2 0 
e_TCPChannelClass_lchannel_env_get_current_tick;9
.d 1 0 
	pop_a_jsr 1 ea10
.o 1 1 i
	push_a 0
	buildI_b 0
	buildh _Tuple 2
	put_a 1
.d 1 0 
	pop_b_rtn 1
.n 1 e_TCPChannelClass_dchannel_env_get_current_tick;9
.o 1 0 
e_TCPChannelClass_nchannel_env_get_current_tick;9
	push_node _cycle_in_spine 1
.d 1 0 
	jsr ea10
.o 1 1 i
	push_a 0
	buildI_b 0
	fillh _Tuple 2 3
.d 1 0 
	pop_ab_rtn 1 1
.o 1 0 
ea10
	jsr_eval 0
.o 1 0 
e_TCPChannelClass_schannel_env_get_current_tick;9
.o 1 0 
s10
.d 1 0 
	jmp e_ostcp_stcp_getcurrenttick
.export e_TCPChannelClass_schannelEnvKind;8
.descexp e_TCPChannelClass_dchannelEnvKind;8 e_TCPChannelClass_nchannelEnvKind;8 e_TCPChannelClass_lchannelEnvKind;8 1 0 "channelEnvKind;8"
.o 2 0 
e_TCPChannelClass_ichannelEnvKind;8
.d 1 0 
	pop_a_jmp 1 s9
.ai 1 _ e_TCPChannelClass_ichannelEnvKind;8
.o 2 0 
e_TCPChannelClass_lchannelEnvKind;8
.d 1 0 
	pop_a_jsr 1 ea9
.o 1 1 i
	push_a 0
	buildI_b 0
	buildh _Tuple 2
	put_a 1
.d 1 0 
	pop_b_rtn 1
.n 1 e_TCPChannelClass_dchannelEnvKind;8
.o 1 0 
e_TCPChannelClass_nchannelEnvKind;8
	push_node _cycle_in_spine 1
.d 1 0 
	jsr ea9
.o 1 1 i
	push_a 0
	buildI_b 0
	fillh _Tuple 2 3
.d 1 0 
	pop_ab_rtn 1 1
.o 1 0 
ea9
	jsr_eval 0
.o 1 0 
e_TCPChannelClass_schannelEnvKind;8
.o 1 0 
s9
	pushI 0
.d 1 1 i
	rtn 
.export e_TCPChannelClass_sflushBuffer_NB
.descexp e_TCPChannelClass_dflushBuffer_NB e_TCPChannelClass_nflushBuffer_NB e_TCPChannelClass_lflushBuffer_NB 4 0 "flushBuffer_NB"
.a 0 a8
.o 2 0 
e_TCPChannelClass_lflushBuffer_NB
	repl_args 3 3
.o 4 0 
a8
.d 4 0 
	jsr ea8
.o 2 0 
	buildh _Tuple 2
.d 1 0 
	rtn 
.n 4 e_TCPChannelClass_dflushBuffer_NB
.o 1 0 
e_TCPChannelClass_nflushBuffer_NB
	push_node _cycle_in_spine 4
.d 4 0 
	jsr ea8
.o 2 0 
	fillh _Tuple 2 2
.d 1 0 
	rtn 
.o 4 0 
ea8
	jsr_eval 3
	jsr_eval 2
	jsr_eval 1
	jsr_eval 0
	push_r_args 1 7 0
	push_r_args 7 3 0
	update4_a 6 8
	update3_a 3 5
	update3pop_a 0 2
.o 12 0 
e_TCPChannelClass_sflushBuffer_NB
.o 12 0 
s8
	push2_a 11
	buildI 0
	buildh _Just 1
	update3_a 0 12
	update_a 5 11
	update_a 3 9
	updates2_a_pop_a 4 10 8 8
.d 7 0 
	jsr_i 4
.o 3 1 i
.d 2 0 
	pop_ab_rtn 1 1
.export e_TCPChannelClass_ssend_NB
.descexp e_TCPChannelClass_dsend_NB e_TCPChannelClass_nsend_NB e_TCPChannelClass_lsend_NB 5 0 "send_NB"
.a 0 a7
.o 2 0 
e_TCPChannelClass_lsend_NB
	repl_args 4 4
.o 5 0 
a7
.d 5 0 
	jsr ea7
.o 2 0 
	buildh _Tuple 2
.d 1 0 
	rtn 
.n 5 e_TCPChannelClass_dsend_NB
.o 1 0 
e_TCPChannelClass_nsend_NB
	push_node _cycle_in_spine 5
.d 5 0 
	jsr ea7
.o 2 0 
	fillh _Tuple 2 2
.d 1 0 
	rtn 
.o 5 0 
ea7
	jsr_eval 4
	jsr_eval 3
	jsr_eval 2
	jsr_eval 1
	jsr_eval 0
	push_r_args 1 7 0
	push_r_args 7 3 0
	update4_a 6 8
	update3_a 3 5
	update3pop_a 0 2
.o 13 0 
e_TCPChannelClass_ssend_NB
.o 13 0 
s7
	push3_a 12
	buildI 0
	buildh _Just 1
	update3_a 1 14
	update3_a 4 10
	updates2_a_pop_a 0 13 9 9
.d 8 0 
	jsr_i 5
.o 3 1 i
.d 2 0 
	pop_ab_rtn 1 1
.export e_TCPChannelClass_scloseChannel
.descexp e_TCPChannelClass_dcloseChannel e_TCPChannelClass_ncloseChannel e_TCPChannelClass_lcloseChannel 4 0 "closeChannel"
.a 0 ea6
.o 2 0 
e_TCPChannelClass_lcloseChannel
	repl_args 3 3
.d 4 0 
	jmp ea6
.n 4 e_TCPChannelClass_dcloseChannel _
.o 1 0 
e_TCPChannelClass_ncloseChannel
	push_node _cycle_in_spine 4
.d 4 0 
	jsr ea6
.o 1 0 
.d 1 0 
	fill_a01_pop_rtn 
.o 4 0 
ea6
	jsr_eval 3
	jsr_eval 2
	jsr_eval 1
	jsr_eval 0
	push_r_args 1 7 0
	push_r_args 7 3 0
	update4_a 6 8
	update3_a 3 5
	update3pop_a 0 2
.o 12 0 
e_TCPChannelClass_scloseChannel
.o 12 0 
s6
	push2_a 11
	update2_a 0 12
	buildh0_dup_a _None 12
	update3_a 3 9
	pop_a 8
.d 7 0 
	jsr_i 4
.o 2 1 i
	pop_ab_rtn 1 1
.export e_TCPChannelClass_snsend
.descexp e_TCPChannelClass_dnsend e_TCPChannelClass_nnsend e_TCPChannelClass_lnsend 5 0 "nsend"
.a 0 a5
.o 2 0 
e_TCPChannelClass_lnsend
	repl_args 4 4
.o 5 0 
a5
.d 5 0 
	jsr ea5
.o 2 0 
	buildh _Tuple 2
.d 1 0 
	rtn 
.n 5 e_TCPChannelClass_dnsend
.o 1 0 
e_TCPChannelClass_nnsend
	push_node _cycle_in_spine 5
.d 5 0 
	jsr ea5
.o 2 0 
	fillh _Tuple 2 2
.d 1 0 
	rtn 
.o 5 0 
ea5
	jsr_eval 4
	jsr_eval 3
	jsr_eval 2
	jsr_eval 1
	jsr_eval 0
	push_r_args 1 7 0
	push_r_args 7 3 0
	update4_a 6 8
	update3_a 3 5
	update3pop_a 0 2
.o 13 0 
e_TCPChannelClass_snsend
.o 13 0 
s5
	push3_a 12
	update3_a 0 13
	buildh0_dup_a _None 13
	update2_a 4 10
	updates2_a_pop_a 6 12 9 9
.d 8 0 
	jsr_i 5
.o 3 1 i
.d 2 0 
	pop_ab_rtn 1 1
.export e_TCPChannelClass_ssend
.descexp e_TCPChannelClass_dsend e_TCPChannelClass_nsend e_TCPChannelClass_lsend 5 0 "send"
.a 0 a4
.o 2 0 
e_TCPChannelClass_lsend
	repl_args 4 4
.o 5 0 
a4
.d 5 0 
	jsr ea4
.o 2 0 
	buildh _Tuple 2
.d 1 0 
	rtn 
.n 5 e_TCPChannelClass_dsend
.o 1 0 
e_TCPChannelClass_nsend
	push_node _cycle_in_spine 5
.d 5 0 
	jsr ea4
.o 2 0 
	fillh _Tuple 2 2
.d 1 0 
	rtn 
.o 5 0 
ea4
	jsr_eval 4
	jsr_eval 3
	jsr_eval 2
	jsr_eval 1
	jsr_eval 0
	push_r_args 1 7 0
	push_r_args 7 3 0
	update4_a 6 8
	update3_a 3 5
	update3pop_a 0 2
.o 13 0 
e_TCPChannelClass_ssend
.o 13 0 
s4
	push3_a 12
	update3_a 0 13
	update3_a 3 9
	update_a 12 8
	buildh0_dup_a _None 13
	pop_a 9
.d 8 0 
	jsr_i 5
.o 3 1 i
.d 2 0 
	pop_ab_rtn 1 1
.export e_TCPChannelClass_snreceive
.descexp e_TCPChannelClass_dnreceive e_TCPChannelClass_nnreceive e_TCPChannelClass_lnreceive 5 0 "nreceive"
.a 0 a3
.o 2 0 
e_TCPChannelClass_lnreceive
	repl_args 4 4
.o 5 0 
a3
.d 5 0 
	jsr ea3
.o 3 0 
	push3_a 2
	buildh _Tuple 3
	updatepop_a 0 3
.d 1 0 
	rtn 
.n 5 e_TCPChannelClass_dnreceive
.o 1 0 
e_TCPChannelClass_nnreceive
	push_node _cycle_in_spine 5
.d 5 0 
	jsr ea3
.o 3 0 
	fillh _Tuple 3 3
.d 1 0 
	rtn 
.o 5 0 
ea3
	jsr_eval 4
	jsr_eval 3
	jsr_eval 2
	jsr_eval 1
	jsr_eval 0
	pushI_a 2
	push_r_args 1 4 0
	push_r_args 4 3 0
	update4_a 3 6
	update3pop_a 0 3
.o 9 1 i
e_TCPChannelClass_snreceive
.o 9 1 i
s3
	buildh _None 0
	push_a2 8 0
	push3_a 5
	push3_a 12
	push_a 12
	update_a 18 9
	push_b 0
	buildh0_dup2_a _Nil 18
.d 10 1 i
	pop_a_jsr 1 s1
.o 4 0 
	buildh e_TCPChannelClass_dTR_NoSuccess 0
	swap_a1 
.d 2 0 
	jsr s12
.o 0 1 b
	jmp_false else.4
	push2_a 4
	push_a 9
	update_a 8 3
.d 6 0 
	jsr_i 3
.o 2 1 b
	jmp_b_false 0 else.5
	buildAC "\nStdChannels: nreceive failed"
	updatepop_a 0 11
.d 1 0 
	pop_b_jsr 2 print_string_
.o 0 0 
	halt
	repl_args 3 3
	jsr_eval 2
	jsr_eval 1
	jsr_eval 0
.d 3 0 
	rtn 
else.5
	update2_a 0 9
	pop_b 1
.d 9 1 i
	pop_a_jmp 2 s3
else.4
	update3pop_a 0 9
.d 3 0 
	pop_b_rtn 1
.export e_TCPChannelClass_sreceive
.descexp e_TCPChannelClass_dreceive e_TCPChannelClass_nreceive e_TCPChannelClass_lreceive 4 0 "receive"
.a 0 a2
.o 2 0 
e_TCPChannelClass_lreceive
	repl_args 3 3
.o 4 0 
a2
.d 4 0 
	jsr ea2
.o 3 0 
	push3_a 2
	buildh _Tuple 3
	updatepop_a 0 3
.d 1 0 
	rtn 
.n 4 e_TCPChannelClass_dreceive
.o 1 0 
e_TCPChannelClass_nreceive
	push_node _cycle_in_spine 4
.d 4 0 
	jsr ea2
.o 3 0 
	fillh _Tuple 3 3
.d 1 0 
	rtn 
.o 4 0 
ea2
	jsr_eval 3
	jsr_eval 2
	jsr_eval 1
	jsr_eval 0
	push_r_args 1 4 0
	push_r_args 4 3 0
	update4_a 3 5
	update3pop_a 0 2
.o 9 0 
e_TCPChannelClass_sreceive
.o 9 0 
s2
	push2_a 8
	buildh _None 0
	push3_a 5
	push_a 12
	buildh0_dup2_a _Nil 15
	pop_a 1
.d 7 0 
	jsr_i 4
.o 4 0 
	buildh e_TCPChannelClass_dTR_NoSuccess 0
	swap_a1 
.d 2 0 
	jsr s12
.o 0 1 b
	jmp_false else.6
	push2_a 4
	push_a 9
	update_a 8 3
.d 6 0 
	jsr_i 3
.o 2 1 b
	jmp_b_false 0 else.7
	buildAC "\nStdChannels: receive failed"
	updatepop_a 0 11
.d 1 0 
	pop_b_jsr 1 print_string_
.o 0 0 
	halt
	repl_args 3 3
	jsr_eval 2
	jsr_eval 1
	jsr_eval 0
.d 3 0 
	rtn 
else.7
	update2_a 0 9
	pop_b 1
.d 9 0 
	pop_a_jmp 2 s2
else.6
	push_a 0
	eq_desc _Just 1 0
	exit_false selector_m_error
	repl_arg 1 1
	update2_a 2 11
	updatepop_a 0 10
.d 3 0 
	rtn 
.export e_TCPChannelClass_snreceive_MT
.descexp e_TCPChannelClass_dnreceive_MT e_TCPChannelClass_nnreceive_MT e_TCPChannelClass_lnreceive_MT 6 0 "nreceive_MT"
.a 0 a1
.o 2 0 
e_TCPChannelClass_lnreceive_MT
	repl_args 5 5
.o 6 0 
a1
.d 6 0 
	jsr ea1
.o 4 0 
	push3_a 3
	push_a 3
	buildh _Tuple 4
	updatepop_a 0 4
.d 1 0 
	rtn 
.n 6 e_TCPChannelClass_dnreceive_MT
.o 1 0 
e_TCPChannelClass_nnreceive_MT
	push_node _cycle_in_spine 6
.d 6 0 
	jsr ea1
.o 4 0 
	fillh _Tuple 4 4
.d 1 0 
	rtn 
.o 6 0 
ea1
	jsr_eval 5
	jsr_eval 4
	jsr_eval 3
	jsr_eval 2
	jsr_eval 1
	jsr_eval 0
	pushI_a 3
	push_r_args 1 3 0
	push_r_args 3 4 0
	updates2_a 6 9 10
	update3_a 3 6
	update3pop_a 0 3
.o 10 1 i
e_TCPChannelClass_snreceive_MT
.o 10 1 i
s1
	push_a2 9 5
	buildh0_put_a _Nil 12
.d 2 0 
	jsr_i 1
.o 1 1 i
	push_a 9
	push3_a 8
	push_ab 7 1
	buildh0_put_a _Nil 15
.d 6 1 i
	jsr_i 4
.o 3 0 
.d 1 0 
	jsr s57
.o 1 1 i
	push_b2 2 0
	jmp_neI else.8
	jsr_eval 0
	push_a 0
	update2_a 2 12
	dup_a 11
	pop_a 11
	buildh e_TCPChannelClass_dTR_Success 0
.d 4 0 
	pop_b_rtn 3
else.8
	push3_a 10
	push2_a 10
	push_update_a 6 7
	updates2_a_pop_a 0 6 8 1
.d 7 0 
	jsr_i 4
.o 4 0 
	buildh e_TCPChannelClass_dTR_Success 0
.d 2 0 
	push_a_jsr 1 s12
.o 0 1 b
	jmp_true else.9
	push_jsr_eval 4
	update2_a 3 14
	dup_a 13
	updatepop_a 1 12
.d 4 0 
	pop_b_rtn 3
else.9
	push_b2 0 2
	subI
	jmp_neIi 1 else.10
	buildh _Nil 0
	buildo1 e_TCPChannelClass_n_match0.59 2
	buildh _Cons 2
	push_jsr_eval 5
	create 
	update2_a 5 16
	update_a 3 15
	dup_a 14
	update2pop_a 1 12
.d 3 0 
	jsr e_StdList_s++
.o 1 0 
	swap_a1 
.d 4 0 
	pop_b_rtn 3
else.10
	updates2pop_a 10 2 4
.d 2 0 
	jsr_i 1
.o 1 1 i
	push_b2 1 3
	subI
	decI
	buildI_b 3
	buildI_b 1
	build e_StdInt_d-;7 2 e_StdInt_n-;7
	create 
	push_a2 11 1
	updates2_a_pop_a 0 2 3 1
.d 3 0 
	buildh0_put_a_jsr _Nil 13 s25
.o 1 0 
	update_a 1 12
	update_a 2 11
	dup_a 10
	pop_a 3
	updatepop_b 0 4
.d 10 1 i
	jmp s1
.export e_TCPChannelClass_d_match0.59
.export e_TCPChannelClass_n_match0.59
.descn e_TCPChannelClass_d_match0.59 e_TCPChannelClass_n_match0.59 1 0 "_match0.59"
.n 1 e_TCPChannelClass_d_match0.59 ea59
.o 1 0 
e_TCPChannelClass_n_match0.59
	push_node _cycle_in_spine 1
.o 2 0 
ea59
	jsr_eval 0
.o 2 0 
s59
	jmp_ne_desc _Just 1 0 s59.1
	repl_args 1 1
.d 1 0 
	fill_a01_pop_rtn 
s59.1
	pushD m_TCPChannelClass
	pushD e_TCPChannelClass_d_match0.59
.d 0 2 ii
	pop_a_jmp 2 _match_error
.export e_TCPChannelClass_s==;11
.descexp e_TCPChannelClass_d==;11 e_TCPChannelClass_n==;11 e_TCPChannelClass_l==;11 2 0 "==;11"
.o 3 0 
e_TCPChannelClass_i==;11
.d 2 0 
	pop_a_jmp 1 s12
.ai 0 a12 e_TCPChannelClass_i==;11
.o 2 0 
e_TCPChannelClass_l==;11
	repl_args 1 1
.o 2 0 
a12
.d 2 0 
	jsr ea12
.o 0 1 b
	buildB_b 0
.d 1 0 
	pop_b_rtn 1
.n 2 e_TCPChannelClass_d==;11
.o 1 0 
e_TCPChannelClass_n==;11
	push_node _cycle_in_spine 2
.d 2 0 
	jsr ea12
.o 0 1 b
	fillB_b 0 0
.d 1 0 
	pop_b_rtn 1
.o 2 0 
ea12
	jsr_eval 1
	jsr_eval 0
.o 2 0 
e_TCPChannelClass_s==;11
.o 2 0 
s12
	pushD_a 0
	jmpD ea e_TCPChannelClass_dTR_Success 0 case.13 case.14
case.12
	pop_b 1
	pop_a 1
	eq_desc e_TCPChannelClass_dTR_Expired 0 0
.d 0 1 b
	pop_a_rtn 1
case.13
	pop_b 1
	pop_a 1
	eq_desc e_TCPChannelClass_dTR_Success 0 0
.d 0 1 b
	pop_a_rtn 1
case.14
	pop_b 1
	pop_a 1
	eq_desc e_TCPChannelClass_dTR_NoSuccess 0 0
.d 0 1 b
	pop_a_rtn 1
.o 3 0 
s25
	jmp_ne_desc _None 0 0 case.16
	fillh _None 0 2
.d 1 0 
	pop_a_rtn 2
case.16
	repl_args 1 1
	push_jsr_eval 1
	pushI_a 2
	pop_a 1
	pushI_a 0
	subI
	buildI_b 0
	pop_b 1
	fillh _Just 1 3
.d 1 0 
	pop_a_rtn 2
.export e_TCPChannelClass_du_reverse.21
.export e_TCPChannelClass_nu_reverse.21
.descn e_TCPChannelClass_du_reverse.21 e_TCPChannelClass_nu_reverse.21 1 0 "u_reverse.21"
.n 1 e_TCPChannelClass_du_reverse.21 ea21
.o 1 0 
e_TCPChannelClass_nu_reverse.21
	push_node _cycle_in_spine 1
.o 2 0 
ea21
.o 2 0 
s21
	buildh _Nil 0
	swap_a1 
s23
	jmp_ne_desc _Cons 2 0 case.18
	repl_args 2 2
	buildho2 _Cons 0 2
	push_jsr_eval 2
	update2pop_a 0 3
.d 3 0 
	jmp s23
case.18
	fill_a 1 2
.d 1 0 
	pop_a_rtn 2
.o 1 0 
s57
	buildh _Nil 0
	pushI 0
	swap_a1 
s58
	jmp_ne_desc _Nil 0 0 case.20
	buildo1 e_TCPChannelClass_nu_reverse.21 1
	updatepop_a 0 2
.d 1 1 i
	rtn 
case.20
	repl_args 2 2
	incI
	buildho2 _Cons 0 2
	push_jsr_eval 2
	update2pop_a 0 3
.d 2 1 i
	jmp s58
.impmod _system
.implab _match_error
.implab selector_m_error
