.comp 920 000011110011000
.start _nostart_
.depend "StdCharList" "20210613144732"
.depend "_SystemArray" "20210613144732"
.depend "StdArray" "20210613144732"
.depend "StdEnv" "20210613144732"
.depend "_SystemEnum" "20210613144732"
.depend "StdEnum" "20210613144732"
.depend "StdTuple" "20210613144732"
.depend "StdOrdList" "20210613144732"
.depend "StdMaybe" "20210613144732"
.depend "_SystemStrictMaybes" "20210613144732"
.depend "TCPStringChannelsInternal" "20210613144732"
.depend "TCPEvent" "20210613144732"
.depend "tcp_bytestreams" "20210613144732"
.depend "TCPDef" "20210613144732"
.depend "TCPChannels" "20210613144732"
.depend "StdFile" "20210613144732"
.depend "tcp" "20210613144732"
.depend "TCPChannelClass" "20210613144732"
.depend "StdString" "20210613144732"
.depend "StdMisc" "20210613144732"
.depend "StdFunctions" "20210613144732"
.depend "_SystemEnumStrict" "20210613144732"
.depend "_SystemStrictLists" "20210613144732"
.depend "StdStrictLists" "20210613144732"
.depend "StdReal" "20210613144732"
.depend "StdChar" "20210613144732"
.depend "StdInt" "20210613144732"
.depend "StdBool" "20210613144732"
.depend "StdClass" "20210613144732"
.depend "StdList" "20210613144732"
.depend "StdOverloaded" "20210613144732"
.depend "_SystemDynamic" "20210613144732"
.depend "TCPStringChannels" "20210613144732"
.module m_TCPStringChannels "TCPStringChannels" "20210613144732"
.endinfo
.impmod _system
.implab _cycle_in_spine
.implab _type_error
.implab _hnf
.impdesc e_system_dind
.implab e_system_nind e_system_eaind
.impdesc e_system_dif
.implab e_system_nif e_system_eaif
.implab e_system_sif
.impdesc e_system_dAP
.implab e_system_nAP e_system_eaAP
.implab e_system_sAP
.impdesc ARRAY
.impdesc _Nil
.impdesc _Cons
.impdesc _Conss
.implab n_Conss ea_Conss
.impdesc _Consts
.implab n_Consts ea_Consts
.impdesc _Conssts
.implab n_Conssts ea_Conssts
.impdesc _Tuple
.impdesc d_S.1
.implab n_S.1 ea_S.1
.impdesc d_S.2
.implab n_S.2 ea_S.2
.impdesc d_S.3
.implab n_S.3 ea_S.3
.impdesc d_S.4
.implab n_S.4 ea_S.4
.impdesc d_S.5
.implab n_S.5 ea_S.5
.impdesc d_S.6
.implab n_S.6 ea_S.6
.implab _driver
.impmod _SystemArray
.impmod TCPStringChannelsInternal
.implab e_TCPStringChannelsInternal_saddString
.impmod TCPDef
.implab e_TCPDef_stoByteSeq
.implab e_TCPDef_stoString;2
.impmod TCPChannels
.implab e_TCPChannels_sabortConnection;12
.implab e_TCPChannels_sbufferSize;13
.implab e_TCPChannels_scloseChannel_MT;14
.implab e_TCPChannels_sdisconnected;15
.implab e_TCPChannels_sflushBuffer_MT;16
.implab e_TCPChannels_snsend_MT;17
.impdesc e_TCPChannels_davailable;19
.implab e_TCPChannels_savailable;19
.impdesc e_TCPChannels_deom;20
.implab e_TCPChannels_seom;20
.impdesc e_TCPChannels_dreceiveUpTo;21
.impdesc e_TCPChannels_dreceive_MT;22
.implab e_TCPChannels_sreceive_MT;22
.implab e_TCPChannels_scloseRChannel;23
.impmod TCPChannelClass
.implab e_TCPChannelClass_sreceive
.implab e_TCPChannelClass_s==;11
.impmod StdString
.implab e_StdString_stoString;5
.impdesc e_StdString_dtoString;9
.implab e_StdString_s+++;11
.impmod StdInt
.implab e_StdInt_s+;6
.implab e_StdInt_s-;7
.implab e_StdInt_sone;11
.implab e_StdInt_s<;17
.impmod StdBool
.implab e_StdBool_snot
.impmod StdList
.impdesc e_StdList_d++
.implab e_StdList_n++ e_StdList_ea++
.implab e_StdList_sisEmpty
.implab e_StdList_shd
.implab e_StdList_stl
.implab e_StdList_ssplitAt
.implab e_StdList_smap
.implab e_StdList_sunzip
.impmod TCPStringChannelsInternal
.impdesc e_TCPStringChannelsInternal_kReadingLength
.impdesc e_TCPStringChannelsInternal_kReadingString
.impdesc e_TCPStringChannelsInternal_dEndOfMessages
.impdesc e_TCPStringChannelsInternal_rStringRChannel_
.impdesc e_TCPStringChannelsInternal_tStringRChannel_
.implab e_TCPStringChannelsInternal_cStringRChannel_
.impmod TCPDef
.impdesc e_TCPDef_dTCP_RCHANNEL
.impdesc e_TCPDef_dSR_Available
.impdesc e_TCPDef_dSR_EOM
.impmod TCPChannelClass
.impdesc e_TCPChannelClass_dTR_Expired
.impdesc e_TCPChannelClass_dTR_Success
.impdesc e_TCPChannelClass_dTR_NoSuccess
.impdesc e_TCPChannelClass_rReceive;
.impmod StdOverloaded
.impdesc e_StdOverloaded_rtoString;
.export e_TCPStringChannels_dStringRChannels
.desc e_TCPStringChannels_dStringRChannels _hnf _add_arg 1 0 "StringRChannels"
.export e_TCPStringChannels_dStringSChannel_
.desc e_TCPStringChannels_dStringSChannel_ _hnf _add_arg 1 0 "StringSChannel_"
.export e_TCPStringChannels_dStringSChannels
.desc e_TCPStringChannels_dStringSChannels _hnf _add_arg 1 0 "StringSChannels"
.export e_TCPStringChannels_sTD;StringSChannels
.export e_TCPStringChannels_eaTD;StringSChannels
.descexp e_TCPStringChannels_dTD;StringSChannels e_TCPStringChannels_nTD;StringSChannels e_TCPStringChannels_lTD;StringSChannels 1 0 "TD;StringSChannels"
.o 2 0
e_TCPStringChannels_lTD;StringSChannels
	update_a 1 0
	create
	update_a 0 2
	pop_a 1
.d 2 0
	jmp e_TCPStringChannels_eaTD;StringSChannels
.n 1 e_TCPStringChannels_dTD;StringSChannels e_TCPStringChannels_eaTD;StringSChannels
.o 1 0
e_TCPStringChannels_nTD;StringSChannels
	push_node _cycle_in_spine 1
.o 2 0
e_TCPStringChannels_eaTD;StringSChannels
.o 2 0
e_TCPStringChannels_sTD;StringSChannels
.o 2 0
s28
	fillh _Nil 0 1
	pop_a 1
.d 1 0
	rtn
.export e_TCPStringChannels_sTD;StringSChannel
.export e_TCPStringChannels_eaTD;StringSChannel
.descexp e_TCPStringChannels_dTD;StringSChannel e_TCPStringChannels_nTD;StringSChannel e_TCPStringChannels_lTD;StringSChannel 1 0 "TD;StringSChannel"
.o 2 0
e_TCPStringChannels_lTD;StringSChannel
	update_a 1 0
	create
	update_a 0 2
	pop_a 1
.d 2 0
	jmp e_TCPStringChannels_eaTD;StringSChannel
.n 1 e_TCPStringChannels_dTD;StringSChannel e_TCPStringChannels_eaTD;StringSChannel
.o 1 0
e_TCPStringChannels_nTD;StringSChannel
	push_node _cycle_in_spine 1
.o 2 0
e_TCPStringChannels_eaTD;StringSChannel
.o 2 0
e_TCPStringChannels_sTD;StringSChannel
.o 2 0
s27
	fillh _Nil 0 1
	pop_a 1
.d 1 0
	rtn
.export e_TCPStringChannels_sTD;StringSChannel_
.export e_TCPStringChannels_eaTD;StringSChannel_
.descexp e_TCPStringChannels_dTD;StringSChannel_ e_TCPStringChannels_nTD;StringSChannel_ e_TCPStringChannels_lTD;StringSChannel_ 1 0 "TD;StringSChannel_"
.o 2 0
e_TCPStringChannels_lTD;StringSChannel_
	update_a 1 0
	create
	update_a 0 2
	pop_a 1
.d 2 0
	jmp e_TCPStringChannels_eaTD;StringSChannel_
.n 1 e_TCPStringChannels_dTD;StringSChannel_ e_TCPStringChannels_eaTD;StringSChannel_
.o 1 0
e_TCPStringChannels_nTD;StringSChannel_
	push_node _cycle_in_spine 1
.o 2 0
e_TCPStringChannels_eaTD;StringSChannel_
.o 2 0
e_TCPStringChannels_sTD;StringSChannel_
.o 2 0
s26
	fillh _Nil 0 1
	pop_a 1
.d 1 0
	rtn
.export e_TCPStringChannels_sTD;StringRChannels
.export e_TCPStringChannels_eaTD;StringRChannels
.descexp e_TCPStringChannels_dTD;StringRChannels e_TCPStringChannels_nTD;StringRChannels e_TCPStringChannels_lTD;StringRChannels 1 0 "TD;StringRChannels"
.o 2 0
e_TCPStringChannels_lTD;StringRChannels
	update_a 1 0
	create
	update_a 0 2
	pop_a 1
.d 2 0
	jmp e_TCPStringChannels_eaTD;StringRChannels
.n 1 e_TCPStringChannels_dTD;StringRChannels e_TCPStringChannels_eaTD;StringRChannels
.o 1 0
e_TCPStringChannels_nTD;StringRChannels
	push_node _cycle_in_spine 1
.o 2 0
e_TCPStringChannels_eaTD;StringRChannels
.o 2 0
e_TCPStringChannels_sTD;StringRChannels
.o 2 0
s25
	fillh _Nil 0 1
	pop_a 1
.d 1 0
	rtn
.export e_TCPStringChannels_sTD;StringRChannel
.export e_TCPStringChannels_eaTD;StringRChannel
.descexp e_TCPStringChannels_dTD;StringRChannel e_TCPStringChannels_nTD;StringRChannel e_TCPStringChannels_lTD;StringRChannel 1 0 "TD;StringRChannel"
.o 2 0
e_TCPStringChannels_lTD;StringRChannel
	update_a 1 0
	create
	update_a 0 2
	pop_a 1
.d 2 0
	jmp e_TCPStringChannels_eaTD;StringRChannel
.n 1 e_TCPStringChannels_dTD;StringRChannel e_TCPStringChannels_eaTD;StringRChannel
.o 1 0
e_TCPStringChannels_nTD;StringRChannel
	push_node _cycle_in_spine 1
.o 2 0
e_TCPStringChannels_eaTD;StringRChannel
.o 2 0
e_TCPStringChannels_sTD;StringRChannel
.o 2 0
s24
	fillh _Nil 0 1
	pop_a 1
.d 1 0
	rtn
.export e_TCPStringChannels_sgetNrOfChannels;22
.descexp e_TCPStringChannels_dgetNrOfChannels;22 e_TCPStringChannels_ngetNrOfChannels;22 e_TCPStringChannels_lgetNrOfChannels;22 1 0 "getNrOfChannels;22"
.o 2 0
e_TCPStringChannels_igetNrOfChannels;22
	pop_a 1
.d 1 0
	jmp s23
.ai 1 _ e_TCPStringChannels_igetNrOfChannels;22
.o 2 0
e_TCPStringChannels_lgetNrOfChannels;22
	pop_a 1
.d 1 0
	jsr ea23
.o 1 1 i
	push_a 0
	buildI_b 0
	buildh _Tuple 2
	updatepop_a 0 1
	pop_b 1
.d 1 0
	rtn
.n 1 e_TCPStringChannels_dgetNrOfChannels;22
.o 1 0
e_TCPStringChannels_ngetNrOfChannels;22
	push_node _cycle_in_spine 1
.d 1 0
	jsr ea23
.o 1 1 i
	push_a 0
	buildI_b 0
	fillh _Tuple 2 3
	pop_a 1
	pop_b 1
.d 1 0
	rtn
.o 1 0
ea23
	jsr_eval 0
.o 1 0
e_TCPStringChannels_sgetNrOfChannels;22
.o 1 0
s23
	push_args_u 0 1 1
	push_a 0
	jsr_eval 0
	updatepop_a 0 1
.d 1 0
	jsr s60
.o 1 1 i
	push_a 0
	fill1 e_TCPStringChannels_dStringRChannels 1 2 01
	push_a 1
	push_b 0
	updatepop_a 0 2
	updatepop_b 0 1
.d 1 1 i
	rtn
.export e_TCPStringChannels_sgetRState;21
.descexp e_TCPStringChannels_dgetRState;21 e_TCPStringChannels_ngetRState;21 e_TCPStringChannels_lgetRState;21 4 0 "getRState;21"
.o 6 1 i
e_TCPStringChannels_igetRState;21
	pop_a 1
.d 5 1 i
	jmp s22
.ai 0 a22 e_TCPStringChannels_igetRState;21
.o 2 0
e_TCPStringChannels_lgetRState;21
	repl_args 3 3
.o 4 0
a22
.d 4 0
	jsr ea22
.o 3 0
	push_a 2
	push_a 2
	push_a 2
	buildh _Tuple 3
	updatepop_a 0 3
.d 1 0
	rtn
.n 4 e_TCPStringChannels_dgetRState;21
.o 1 0
e_TCPStringChannels_ngetRState;21
	push_node _cycle_in_spine 4
.d 4 0
	jsr ea22
.o 3 0
	push_a 2
	push_a 2
	push_a 2
	fillh _Tuple 3 6
	pop_a 3
.d 1 0
	rtn
.o 4 0
ea22
	jsr_eval 3
	jsr_eval 2
	jsr_eval 1
	jsr_eval 0
	pushI_a 1
	repl_r_args 3 0
	update_a 2 3
	update_a 1 2
	update_a 0 1
	pop_a 1
.o 5 1 i
e_TCPStringChannels_sgetRState;21
.o 5 1 i
s22
	push_args_u 3 1 1
	push_a 0
	push_b 0
	updatepop_b 0 1
	updatepop_a 0 1
.d 1 1 i
	jsr e_StdList_ssplitAt
.o 2 0
	push_a 1
	jsr_eval 0
	eq_desc _Cons 2 0
	exit_false selector_m_error
	repl_args 2 2
	jsr_eval 0
	repl_r_args 3 1
	push_a 10
	push_b 0
	push_a 3
	push_a 3
	push_a 3
	push_a 12
	push_a 12
	push_a 12
	updatepop_b 0 1
	update_a 16 17
	update_a 11 16
	update_a 10 15
	update_a 6 14
	update_a 5 13
	update_a 4 12
	update_a 3 11
	update_a 2 10
	update_a 1 9
	updatepop_a 0 8
.d 7 1 i
	jsr s59
.o 3 0
	push_a 3
	push_a 2
	buildh _Cons 2
	push_a 5
	build e_StdList_d++ 2 e_StdList_n++
	fill1 e_TCPStringChannels_dStringRChannels 1 6 01
	push_a 5
	push_a 3
	push_a 2
	push_a 2
	update_a 2 3
	update_a 0 2
	pop_a 1
	update_a 2 8
	update_a 1 7
	updatepop_a 0 6
.d 3 0
	rtn
.export e_TCPStringChannels_saccRChannels;20
.descexp e_TCPStringChannels_daccRChannels;20 e_TCPStringChannels_naccRChannels;20 e_TCPStringChannels_laccRChannels;20 2 0 "accRChannels;20"
.o 3 0
e_TCPStringChannels_iaccRChannels;20
	pop_a 1
.d 2 0
	jmp s21
.ai 0 a21 e_TCPStringChannels_iaccRChannels;20
.o 2 0
e_TCPStringChannels_laccRChannels;20
	repl_args 1 1
.o 2 0
a21
.d 2 0
	jsr ea21
.o 2 0
	push_a 1
	push_a 1
	buildh _Tuple 2
	updatepop_a 0 2
.d 1 0
	rtn
.n 2 e_TCPStringChannels_daccRChannels;20
.o 1 0
e_TCPStringChannels_naccRChannels;20
	push_node _cycle_in_spine 2
.d 2 0
	jsr ea21
.o 2 0
	push_a 1
	push_a 1
	fillh _Tuple 2 4
	pop_a 2
.d 1 0
	rtn
.o 2 0
ea21
	jsr_eval 1
.o 2 0
e_TCPStringChannels_saccRChannels;20
.o 2 0
s21
	push_args 1 1 1
	buildh _Nil 0
	update_a 0 3
	pop_a 1
	buildh _Nil 0
	push_a 1
	jsr_eval 0
	push_a 3
	update_a 2 5
	update_a 1 4
	updatepop_a 0 3
.d 3 0
	jmp s58
.export e_TCPStringChannels_sappDisconnected;19
.descexp e_TCPStringChannels_dappDisconnected;19 e_TCPStringChannels_nappDisconnected;19 e_TCPStringChannels_lappDisconnected;19 4 0 "appDisconnected;19"
.o 6 1 i
e_TCPStringChannels_iappDisconnected;19
	pop_a 1
.d 5 1 i
	jmp s20
.ai 0 a20 e_TCPStringChannels_iappDisconnected;19
.o 2 0
e_TCPStringChannels_lappDisconnected;19
	repl_args 3 3
.o 4 0
a20
.d 4 0
	jsr ea20
.o 2 1 b
	push_a 1
	push_a 1
	buildB_b 0
	buildh _Tuple 3
	updatepop_a 0 2
	pop_b 1
.d 1 0
	rtn
.n 4 e_TCPStringChannels_dappDisconnected;19
.o 1 0
e_TCPStringChannels_nappDisconnected;19
	push_node _cycle_in_spine 4
.d 4 0
	jsr ea20
.o 2 1 b
	push_a 1
	push_a 1
	buildB_b 0
	fillh _Tuple 3 5
	pop_a 2
	pop_b 1
.d 1 0
	rtn
.o 4 0
ea20
	jsr_eval 3
	jsr_eval 2
	jsr_eval 1
	jsr_eval 0
	pushI_a 1
	repl_r_args 3 0
	update_a 2 3
	update_a 1 2
	update_a 0 1
	pop_a 1
.o 5 1 i
e_TCPStringChannels_sappDisconnected;19
.o 5 1 i
s20
	push_args_u 3 1 1
	push_a 0
	push_b 0
	updatepop_b 0 1
	updatepop_a 0 1
.d 1 1 i
	jsr e_StdList_ssplitAt
.o 2 0
	push_a 1
	jsr_eval 0
	eq_desc _Cons 2 0
	exit_false selector_m_error
	repl_args 2 2
	jsr_eval 0
	push_a 8
	push_a 1
	push_a 8
	push_a 8
	push_a 8
	update_a 12 13
	update_a 7 12
	update_a 6 11
	update_a 4 10
	update_a 3 9
	update_a 2 8
	update_a 1 7
	updatepop_a 0 6
.d 5 0
	jsr s14
.o 2 1 b
	push_a 2
	push_a 1
	buildh _Cons 2
	push_a 4
	build e_StdList_d++ 2 e_StdList_n++
	fill1 e_TCPStringChannels_dStringSChannels 1 5 01
	push_a 4
	push_a 2
	push_b 0
	push_a 1
	update_a 1 2
	update_a 0 1
	pop_a 1
	update_a 1 6
	updatepop_a 0 5
	updatepop_b 0 1
.d 2 1 b
	rtn
.export e_TCPStringChannels_saccSChannels;18
.descexp e_TCPStringChannels_daccSChannels;18 e_TCPStringChannels_naccSChannels;18 e_TCPStringChannels_laccSChannels;18 2 0 "accSChannels;18"
.o 3 0
e_TCPStringChannels_iaccSChannels;18
	pop_a 1
.d 2 0
	jmp s19
.ai 0 a19 e_TCPStringChannels_iaccSChannels;18
.o 2 0
e_TCPStringChannels_laccSChannels;18
	repl_args 1 1
.o 2 0
a19
.d 2 0
	jsr ea19
.o 2 0
	push_a 1
	push_a 1
	buildh _Tuple 2
	updatepop_a 0 2
.d 1 0
	rtn
.n 2 e_TCPStringChannels_daccSChannels;18
.o 1 0
e_TCPStringChannels_naccSChannels;18
	push_node _cycle_in_spine 2
.d 2 0
	jsr ea19
.o 2 0
	push_a 1
	push_a 1
	fillh _Tuple 2 4
	pop_a 2
.d 1 0
	rtn
.o 2 0
ea19
	jsr_eval 1
.o 2 0
e_TCPStringChannels_saccSChannels;18
.o 2 0
s19
	push_args 1 1 1
	buildh _Nil 0
	update_a 0 3
	pop_a 1
	buildh _Nil 0
	push_a 1
	jsr_eval 0
	push_a 3
	update_a 2 5
	update_a 1 4
	updatepop_a 0 3
.d 3 0
	jmp s57
.export e_TCPStringChannels_saccSChannel;17
.descexp e_TCPStringChannels_daccSChannel;17 e_TCPStringChannels_naccSChannel;17 e_TCPStringChannels_laccSChannel;17 2 0 "accSChannel;17"
.o 3 0
e_TCPStringChannels_iaccSChannel;17
	pop_a 1
	jsr_eval 1
	jsr_eval 0
.d 2 0
	jmp s18
.ai 0 a18 e_TCPStringChannels_iaccSChannel;17
.o 2 0
e_TCPStringChannels_laccSChannel;17
	repl_args 1 1
.o 2 0
a18
.d 2 0
	jsr ea18
.o 2 0
	push_a 1
	push_a 1
	buildh _Tuple 2
	updatepop_a 0 2
.d 1 0
	rtn
.n 2 e_TCPStringChannels_daccSChannel;17
.o 1 0
e_TCPStringChannels_naccSChannel;17
	push_node _cycle_in_spine 2
.d 2 0
	jsr ea18
.o 2 0
	push_a 1
	push_a 1
	fillh _Tuple 2 4
	pop_a 2
.d 1 0
	rtn
.o 2 0
e_TCPStringChannels_saccSChannel;17
.o 2 0
ea18
	jsr_eval 1
	jsr_eval 0
.o 2 0
s18
	push_args_u 1 1 1
	push_a 0
	push_a 2
	update_a 1 3
	updatepop_a 0 2
	jsr_ap 1
	push_arg 0 2 2
	fill1 e_TCPStringChannels_dStringSChannel_ 1 2 01
	push_a 1
	push_arg 1 2 1
	update_a 1 3
	updatepop_a 0 2
.d 2 0
	rtn
.export e_TCPStringChannels_ssend_MT;16
.descexp e_TCPStringChannels_dsend_MT;16 e_TCPStringChannels_nsend_MT;16 e_TCPStringChannels_lsend_MT;16 5 0 "send_MT;16"
.o 8 0
e_TCPStringChannels_isend_MT;16
	pop_a 1
.d 7 0
	jmp s17
.ai 0 a17 e_TCPStringChannels_isend_MT;16
.o 2 0
e_TCPStringChannels_lsend_MT;16
	repl_args 4 4
.o 5 0
a17
.d 5 0
	jsr ea17
.o 3 1 i
	push_a 2
	push_a 2
	buildI_b 0
	push_a 3
	buildh _Tuple 4
	updatepop_a 0 3
	pop_b 1
.d 1 0
	rtn
.n 5 e_TCPStringChannels_dsend_MT;16
.o 1 0
e_TCPStringChannels_nsend_MT;16
	push_node _cycle_in_spine 5
.d 5 0
	jsr ea17
.o 3 1 i
	push_a 2
	push_a 2
	buildI_b 0
	push_a 3
	fillh _Tuple 4 7
	pop_a 3
	pop_b 1
.d 1 0
	rtn
.o 5 0
ea17
	jsr_eval 4
	jsr_eval 3
	jsr_eval 2
	jsr_eval 1
	jsr_eval 0
	repl_r_args 3 0
.o 7 0
e_TCPStringChannels_ssend_MT;16
.o 7 0
s17
	buildh _Nil 0
	push_a 5
	buildh _Cons 2
	push_a 7
	push_a 7
	push_a 6
	push_a 6
	push_a 6
	push_a 6
	push_a 6
	update_a 6 7
	update_a 5 6
	update_a 0 5
	pop_a 1
	update_a 6 13
	update_a 5 12
	update_a 4 11
	update_a 3 10
	update_a 2 9
	update_a 1 8
	updatepop_a 0 7
.d 7 0
	jmp s16
.export e_TCPStringChannels_snsend_MT;15
.descexp e_TCPStringChannels_dnsend_MT;15 e_TCPStringChannels_nnsend_MT;15 e_TCPStringChannels_lnsend_MT;15 5 0 "nsend_MT;15"
.o 8 0
e_TCPStringChannels_insend_MT;15
	pop_a 1
.d 7 0
	jmp s16
.ai 0 a16 e_TCPStringChannels_insend_MT;15
.o 2 0
e_TCPStringChannels_lnsend_MT;15
	repl_args 4 4
.o 5 0
a16
.d 5 0
	jsr ea16
.o 3 1 i
	push_a 2
	push_a 2
	buildI_b 0
	push_a 3
	buildh _Tuple 4
	updatepop_a 0 3
	pop_b 1
.d 1 0
	rtn
.n 5 e_TCPStringChannels_dnsend_MT;15
.o 1 0
e_TCPStringChannels_nnsend_MT;15
	push_node _cycle_in_spine 5
.d 5 0
	jsr ea16
.o 3 1 i
	push_a 2
	push_a 2
	buildI_b 0
	push_a 3
	fillh _Tuple 4 7
	pop_a 3
	pop_b 1
.d 1 0
	rtn
.o 5 0
ea16
	jsr_eval 4
	jsr_eval 3
	jsr_eval 2
	jsr_eval 1
	jsr_eval 0
	repl_r_args 3 0
.o 7 0
e_TCPStringChannels_snsend_MT;15
.o 7 0
s16
	push_args_u 5 1 1
	push_a 0
	jsr_eval 0
	create
	push_a 7
	buildh _Nil 0
	update_a 0 9
	update_a 0 4
	pop_a 1
.d 2 0
	jsr s32
.o 1 0
	buildh e_TCPStringChannels_dstringToByteSeq.29 0
	create
	push_a 2
	update_a 1 3
	update_a 2 1
	update_a 0 2
	pop_a 1
.d 3 0
	jsr e_StdList_smap
.o 1 0
	push_a 9
	push_a 7
	push_a 7
	push_a 7
	push_a 7
	push_a 6
	update_a 5 7
	update_a 6 5
	update_a 0 6
	pop_a 1
	update_a 13 14
	update_a 6 13
	update_a 5 12
	update_a 4 11
	update_a 3 10
	update_a 2 9
	update_a 1 8
	updatepop_a 0 7
.d 7 0
	jsr e_TCPChannels_snsend_MT;17
.o 3 1 i
	push_a 1
	fill1 e_TCPStringChannels_dStringSChannel_ 1 4 01
	push_a 3
	push_a 3
	push_b 0
	push_a 2
	push_a 2
	update_a 2 3
	update_a 0 2
	pop_a 1
	update_a 2 6
	update_a 1 5
	updatepop_a 0 4
	updatepop_b 0 1
.d 3 1 i
	rtn
.export e_TCPStringChannels_dstringToByteSeq.29
.desc e_TCPStringChannels_dstringToByteSeq.29 _hnf l29 1 0 "stringToByteSeq.29"
.o 2 0
l29
	update_a 1 0
	create
	update_a 0 2
	pop_a 1
.o 2 0
ea29
	jsr_eval 0
	push_array 0
	update_a 0 1
	pop_a 1
.o 2 0
s29
	buildAC "\r"
	push_a 1
.d 2 0
	jsr catAC
.o 1 0
	buildAC " "
.d 2 0
	jsr catAC
.o 1 0
	push_a 1
	buildh _Nil 0
	update_a 0 3
	pop_a 1
	push_arraysize CHAR 0 1
.d 0 1 i
	jsr ItoAC
.o 1 0
	update_a 1 2
	updatepop_a 0 1
.d 2 0
	jsr catAC
.o 1 0
	buildh ARRAY 1
	buildh e_StdString_dtoString;9 0
.d 3 0
	jmp e_TCPDef_stoByteSeq
.o 2 0
s32
	push_a 0
	updatepop_a 0 1
.d 1 0
	jsr s33
.o 1 0
	fill_a 0 1
	pop_a 1
.d 1 0
	rtn
.export e_TCPStringChannels_sflushBuffer_MT;14
.descexp e_TCPStringChannels_dflushBuffer_MT;14 e_TCPStringChannels_nflushBuffer_MT;14 e_TCPStringChannels_lflushBuffer_MT;14 4 0 "flushBuffer_MT;14"
.o 7 0
e_TCPStringChannels_iflushBuffer_MT;14
	pop_a 1
.d 6 0
	jmp s15
.ai 0 a15 e_TCPStringChannels_iflushBuffer_MT;14
.o 2 0
e_TCPStringChannels_lflushBuffer_MT;14
	repl_args 3 3
.o 4 0
a15
.d 4 0
	jsr ea15
.o 3 1 i
	push_a 2
	push_a 2
	buildI_b 0
	push_a 3
	buildh _Tuple 4
	updatepop_a 0 3
	pop_b 1
.d 1 0
	rtn
.n 4 e_TCPStringChannels_dflushBuffer_MT;14
.o 1 0
e_TCPStringChannels_nflushBuffer_MT;14
	push_node _cycle_in_spine 4
.d 4 0
	jsr ea15
.o 3 1 i
	push_a 2
	push_a 2
	buildI_b 0
	push_a 3
	fillh _Tuple 4 7
	pop_a 3
	pop_b 1
.d 1 0
	rtn
.o 4 0
ea15
	jsr_eval 3
	jsr_eval 2
	jsr_eval 1
	jsr_eval 0
	repl_r_args 3 0
.o 6 0
e_TCPStringChannels_sflushBuffer_MT;14
.o 6 0
s15
	push_args_u 4 1 1
	push_a 0
	jsr_eval 0
	push_a 7
	push_a 6
	push_a 6
	push_a 6
	push_a 6
	push_a 5
	update_a 5 6
	update_a 0 5
	pop_a 1
	update_a 11 12
	update_a 5 11
	update_a 4 10
	update_a 3 9
	update_a 2 8
	update_a 1 7
	updatepop_a 0 6
.d 6 0
	jsr e_TCPChannels_sflushBuffer_MT;16
.o 3 1 i
	push_a 1
	fill1 e_TCPStringChannels_dStringSChannel_ 1 4 01
	push_a 3
	push_a 3
	push_b 0
	push_a 2
	push_a 2
	update_a 2 3
	update_a 0 2
	pop_a 1
	update_a 2 6
	update_a 1 5
	updatepop_a 0 4
	updatepop_b 0 1
.d 3 1 i
	rtn
.export e_TCPStringChannels_sdisconnected;13
.descexp e_TCPStringChannels_ddisconnected;13 e_TCPStringChannels_ndisconnected;13 e_TCPStringChannels_ldisconnected;13 3 0 "disconnected;13"
.o 6 0
e_TCPStringChannels_idisconnected;13
	pop_a 1
.d 5 0
	jmp s14
.ai 0 a14 e_TCPStringChannels_idisconnected;13
.o 2 0
e_TCPStringChannels_ldisconnected;13
	repl_args 2 2
.o 3 0
a14
.d 3 0
	jsr ea14
.o 2 1 b
	push_a 1
	push_a 1
	buildB_b 0
	buildh _Tuple 3
	updatepop_a 0 2
	pop_b 1
.d 1 0
	rtn
.n 3 e_TCPStringChannels_ddisconnected;13
.o 1 0
e_TCPStringChannels_ndisconnected;13
	push_node _cycle_in_spine 3
.d 3 0
	jsr ea14
.o 2 1 b
	push_a 1
	push_a 1
	buildB_b 0
	fillh _Tuple 3 5
	pop_a 2
	pop_b 1
.d 1 0
	rtn
.o 3 0
ea14
	jsr_eval 2
	jsr_eval 1
	jsr_eval 0
	repl_r_args 3 0
.o 5 0
e_TCPStringChannels_sdisconnected;13
.o 5 0
s14
	push_args_u 3 1 1
	push_a 0
	jsr_eval 0
	push_a 6
	push_a 5
	push_a 5
	push_a 5
	push_a 4
	update_a 4 5
	update_a 0 4
	pop_a 1
	update_a 9 10
	update_a 4 9
	update_a 3 8
	update_a 2 7
	update_a 1 6
	updatepop_a 0 5
.d 5 0
	jsr e_TCPChannels_sdisconnected;15
.o 2 1 b
	push_a 0
	fill1 e_TCPStringChannels_dStringSChannel_ 1 3 01
	push_a 2
	push_a 2
	push_b 0
	push_a 1
	update_a 1 2
	update_a 0 1
	pop_a 1
	update_a 1 4
	updatepop_a 0 3
	updatepop_b 0 1
.d 2 1 b
	rtn
.export e_TCPStringChannels_scloseChannel_MT;12
.descexp e_TCPStringChannels_dcloseChannel_MT;12 e_TCPStringChannels_ncloseChannel_MT;12 e_TCPStringChannels_lcloseChannel_MT;12 4 0 "closeChannel_MT;12"
.o 7 0
e_TCPStringChannels_icloseChannel_MT;12
	pop_a 1
.d 6 0
	jmp s13
.ai 0 a13 e_TCPStringChannels_icloseChannel_MT;12
.o 2 0
e_TCPStringChannels_lcloseChannel_MT;12
	repl_args 3 3
.o 4 0
a13
.d 4 0
	jsr ea13
.o 2 1 i
	push_a 1
	buildI_b 0
	push_a 2
	buildh _Tuple 3
	updatepop_a 0 2
	pop_b 1
.d 1 0
	rtn
.n 4 e_TCPStringChannels_dcloseChannel_MT;12
.o 1 0
e_TCPStringChannels_ncloseChannel_MT;12
	push_node _cycle_in_spine 4
.d 4 0
	jsr ea13
.o 2 1 i
	push_a 1
	buildI_b 0
	push_a 2
	fillh _Tuple 3 5
	pop_a 2
	pop_b 1
.d 1 0
	rtn
.o 4 0
ea13
	jsr_eval 3
	jsr_eval 2
	jsr_eval 1
	jsr_eval 0
	repl_r_args 3 0
.o 6 0
e_TCPStringChannels_scloseChannel_MT;12
.o 6 0
s13
	push_args 4 1 1
	buildh _Nil 0
	update_a 0 6
	pop_a 1
	push_a 0
	jsr_eval 0
	push_a 7
	push_a 6
	push_a 6
	push_a 6
	push_a 6
	push_a 5
	update_a 5 6
	update_a 0 5
	pop_a 1
	update_a 5 12
	update_a 4 11
	update_a 3 10
	update_a 2 9
	update_a 1 8
	updatepop_a 0 7
.d 6 0
	jmp e_TCPChannels_scloseChannel_MT;14
.export e_TCPStringChannels_sbufferSize;11
.descexp e_TCPStringChannels_dbufferSize;11 e_TCPStringChannels_nbufferSize;11 e_TCPStringChannels_lbufferSize;11 1 0 "bufferSize;11"
.o 2 0
e_TCPStringChannels_ibufferSize;11
	pop_a 1
.d 1 0
	jmp s12
.ai 1 _ e_TCPStringChannels_ibufferSize;11
.o 2 0
e_TCPStringChannels_lbufferSize;11
	pop_a 1
.d 1 0
	jsr ea12
.o 1 1 i
	push_a 0
	buildI_b 0
	buildh _Tuple 2
	updatepop_a 0 1
	pop_b 1
.d 1 0
	rtn
.n 1 e_TCPStringChannels_dbufferSize;11
.o 1 0
e_TCPStringChannels_nbufferSize;11
	push_node _cycle_in_spine 1
.d 1 0
	jsr ea12
.o 1 1 i
	push_a 0
	buildI_b 0
	fillh _Tuple 2 3
	pop_a 1
	pop_b 1
.d 1 0
	rtn
.o 1 0
ea12
	jsr_eval 0
.o 1 0
e_TCPStringChannels_sbufferSize;11
.o 1 0
s12
	push_args_u 0 1 1
	push_a 0
	jsr_eval 0
	updatepop_a 0 1
.d 1 0
	jsr e_TCPChannels_sbufferSize;13
.o 1 1 i
	push_a 0
	fill1 e_TCPStringChannels_dStringSChannel_ 1 2 01
	push_a 1
	push_b 0
	updatepop_a 0 2
	updatepop_b 0 1
.d 1 1 i
	rtn
.export e_TCPStringChannels_sabortConnection;10
.descexp e_TCPStringChannels_dabortConnection;10 e_TCPStringChannels_nabortConnection;10 e_TCPStringChannels_labortConnection;10 3 0 "abortConnection;10"
.o 6 0
e_TCPStringChannels_iabortConnection;10
	pop_a 1
.d 5 0
	jmp s11
.ai 0 ea11 e_TCPStringChannels_iabortConnection;10
.o 2 0
e_TCPStringChannels_labortConnection;10
	repl_args 2 2
.d 3 0
	jmp ea11
.n 3 e_TCPStringChannels_dabortConnection;10 _
.o 1 0
e_TCPStringChannels_nabortConnection;10
	push_node _cycle_in_spine 3
.d 3 0
	jsr ea11
.o 1 0
	fill_a 0 1
	pop_a 1
.d 1 0
	rtn
.o 3 0
ea11
	jsr_eval 2
	jsr_eval 1
	jsr_eval 0
	repl_r_args 3 0
.o 5 0
e_TCPStringChannels_sabortConnection;10
.o 5 0
s11
	push_args 3 1 1
	buildh _Nil 0
	update_a 0 5
	pop_a 1
	push_a 0
	jsr_eval 0
	push_a 6
	push_a 5
	push_a 5
	push_a 5
	push_a 4
	update_a 4 5
	update_a 0 4
	pop_a 1
	update_a 4 10
	update_a 3 9
	update_a 2 8
	update_a 1 7
	updatepop_a 0 6
.d 5 0
	jmp e_TCPChannels_sabortConnection;12
.export e_TCPStringChannels_ssetMaxSize;9
.descexp e_TCPStringChannels_dsetMaxSize;9 e_TCPStringChannels_nsetMaxSize;9 e_TCPStringChannels_lsetMaxSize;9 2 0 "setMaxSize;9"
.o 2 1 i
e_TCPStringChannels_isetMaxSize;9
	pop_a 1
	push_r_args 0 3 1
	update_a 2 3
	update_a 1 2
	update_a 0 1
	pop_a 1
	push_b 1
	update_b 1 2
	update_b 0 1
	pop_b 1
.d 3 2 ii
	jsr s10
.o 3 1 i
	buildhr e_TCPStringChannelsInternal_rStringRChannel_ 3 1
.d 1 0
	rtn
.ai 0 a10 e_TCPStringChannels_isetMaxSize;9
.o 2 0
e_TCPStringChannels_lsetMaxSize;9
	repl_args 1 1
.o 2 0
a10
.d 2 0
	jsr ea10
.o 3 1 i
	buildhr e_TCPStringChannelsInternal_rStringRChannel_ 3 1
.d 1 0
	rtn
.n 2 e_TCPStringChannels_dsetMaxSize;9
.o 1 0
e_TCPStringChannels_nsetMaxSize;9
	push_node _cycle_in_spine 2
.d 2 0
	jsr ea10
.o 3 1 i
	fill_r e_TCPStringChannelsInternal_rStringRChannel_ 3 1 3 0 0
	pop_a 3
	pop_b 1
.d 1 0
	rtn
.o 2 0
ea10
	jsr_eval 1
	jsr_eval 0
	push_r_args 1 3 1
	pushI_a 3
	update_a 2 4
	update_a 0 2
	update_a 1 3
	pop_a 2
.o 3 2 ii
e_TCPStringChannels_ssetMaxSize;9
.o 3 2 ii
s10
	eq_desc e_TCPStringChannelsInternal_kReadingString 0 1
	jmp_true case.1
	jmp case.2
case.1
	push_r_args 1 1 2
	pop_a 1
	pop_b 1
	push_b 0
	push_b 3
	ltI
	jmp_false else.3
	push_b 2
	pushI 0
	ltI
	jmp_false else.3
	pushI 0
	push_b 0
	push_b 3
	ltI
	push_b 3
	push_b 2
	push_b 2
	update_b 2 3
	update_b 1 2
	update_b 0 1
	pop_b 1
	update_b 2 4
	update_b 1 3
	updatepop_b 0 2
.d 0 3 bii
	jsr s45
.o 0 1 i
	buildh e_TCPStringChannelsInternal_dEndOfMessages 0
	push_b 2
	push_a 3
	push_a 3
	push_a 3
	update_a 3 1
	update_b 1 0
	update_a 2 6
	update_a 1 5
	updatepop_a 0 4
	updatepop_b 0 3
.d 3 1 i
	rtn
else.3
	pop_b 1
	jmp case.2
case.2
	pushI 0
	push_b 0
	push_b 2
	ltI
	push_b 2
	push_b 2
	push_b 2
	update_b 2 3
	update_b 1 2
	update_b 0 1
	pop_b 1
	update_b 2 4
	update_b 1 3
	updatepop_b 0 2
.d 0 3 bii
	jsr s46
.o 0 1 i
	push_b 1
	push_a 2
	push_a 2
	push_a 2
	update_b 1 0
	update_a 2 5
	update_a 1 4
	updatepop_a 0 3
	updatepop_b 0 2
.d 3 1 i
	rtn
.o 0 3 bii
s46
	eqB_b TRUE 0
	jmp_true case.5
	jmp case.6
case.5
	update_b 1 2
	pop_b 2
.d 0 1 i
	rtn
case.6
	pop_b 2
.d 0 1 i
	rtn
.o 0 3 bii
s45
	eqB_b TRUE 0
	jmp_true case.7
	jmp case.8
case.7
	update_b 1 2
	pop_b 2
.d 0 1 i
	rtn
case.8
	pop_b 2
.d 0 1 i
	rtn
.export e_TCPStringChannels_sgetMaxSize;8
.descexp e_TCPStringChannels_dgetMaxSize;8 e_TCPStringChannels_ngetMaxSize;8 e_TCPStringChannels_lgetMaxSize;8 1 0 "getMaxSize;8"
.o 2 0
e_TCPStringChannels_igetMaxSize;8
	pop_a 1
	push_r_args 0 3 1
	update_a 2 3
	update_a 1 2
	update_a 0 1
	pop_a 1
.d 3 1 i
	jsr s9
.o 3 2 ii
	build_r e_TCPStringChannelsInternal_rStringRChannel_ 3 1 0 1
	update_a 0 3
	pop_a 3
	update_b 0 1
	pop_b 1
.d 1 1 i
	rtn
.ai 1 _ e_TCPStringChannels_igetMaxSize;8
.o 2 0
e_TCPStringChannels_lgetMaxSize;8
	pop_a 1
.d 1 0
	jsr ea9
.o 3 2 ii
	build_r e_TCPStringChannelsInternal_rStringRChannel_ 3 1 0 1
	buildI_b 0
	buildh _Tuple 2
	updatepop_a 0 3
	pop_b 2
.d 1 0
	rtn
.n 1 e_TCPStringChannels_dgetMaxSize;8
.o 1 0
e_TCPStringChannels_ngetMaxSize;8
	push_node _cycle_in_spine 1
.d 1 0
	jsr ea9
.o 3 2 ii
	build_r e_TCPStringChannelsInternal_rStringRChannel_ 3 1 0 1
	buildI_b 0
	fillh _Tuple 2 5
	pop_a 3
	pop_b 2
.d 1 0
	rtn
.o 1 0
ea9
	jsr_eval 0
	repl_r_args 3 1
.o 3 1 i
e_TCPStringChannels_sgetMaxSize;8
.o 3 1 i
s9
	push_b 0
	push_a 2
	push_a 2
	push_a 2
	push_b 1
	update_a 2 5
	update_a 1 4
	updatepop_a 0 3
	update_b 1 2
	updatepop_b 0 1
.d 3 2 ii
	rtn
.export e_TCPStringChannels_sclearMaxSize;7
.descexp e_TCPStringChannels_dclearMaxSize;7 e_TCPStringChannels_nclearMaxSize;7 e_TCPStringChannels_lclearMaxSize;7 1 0 "clearMaxSize;7"
.o 2 0
e_TCPStringChannels_iclearMaxSize;7
	pop_a 1
	push_r_args 0 3 1
	update_a 2 3
	update_a 1 2
	update_a 0 1
	pop_a 1
.d 3 1 i
	jsr s8
.o 3 1 i
	buildhr e_TCPStringChannelsInternal_rStringRChannel_ 3 1
.d 1 0
	rtn
.ai 1 _ e_TCPStringChannels_iclearMaxSize;7
.o 2 0
e_TCPStringChannels_lclearMaxSize;7
	pop_a 1
.d 1 0
	jsr ea8
.o 3 1 i
	buildhr e_TCPStringChannelsInternal_rStringRChannel_ 3 1
.d 1 0
	rtn
.n 1 e_TCPStringChannels_dclearMaxSize;7
.o 1 0
e_TCPStringChannels_nclearMaxSize;7
	push_node _cycle_in_spine 1
.d 1 0
	jsr ea8
.o 3 1 i
	fill_r e_TCPStringChannelsInternal_rStringRChannel_ 3 1 3 0 0
	pop_a 3
	pop_b 1
.d 1 0
	rtn
.o 1 0
ea8
	jsr_eval 0
	repl_r_args 3 1
.o 3 1 i
e_TCPStringChannels_sclearMaxSize;7
.o 3 1 i
s8
	pushI 0
	push_b 1
	push_a 2
	push_a 2
	push_a 2
	update_b 1 0
	update_a 2 5
	update_a 1 4
	updatepop_a 0 3
	updatepop_b 0 2
.d 3 1 i
	rtn
.export e_TCPStringChannels_scloseRChannel;6
.descexp e_TCPStringChannels_dcloseRChannel;6 e_TCPStringChannels_ncloseRChannel;6 e_TCPStringChannels_lcloseRChannel;6 3 0 "closeRChannel;6"
.o 6 0
e_TCPStringChannels_icloseRChannel;6
	pop_a 1
	push_r_args 3 3 1
	update_a 2 6
	update_a 4 2
	update_a 0 4
	push_a 5
	update_a 2 6
	update_a 4 2
	update_a 0 4
	pop_a 2
.d 7 1 i
	jmp s7
.ai 0 ea7 e_TCPStringChannels_icloseRChannel;6
.o 2 0
e_TCPStringChannels_lcloseRChannel;6
	repl_args 2 2
.d 3 0
	jmp ea7
.n 3 e_TCPStringChannels_dcloseRChannel;6 _
.o 1 0
e_TCPStringChannels_ncloseRChannel;6
	push_node _cycle_in_spine 3
.d 3 0
	jsr ea7
.o 1 0
	fill_a 0 1
	pop_a 1
.d 1 0
	rtn
.o 3 0
ea7
	jsr_eval 2
	jsr_eval 1
	jsr_eval 0
	push_r_args 1 3 1
	push_r_args 3 3 0
	update_a 5 7
	update_a 3 5
	update_a 1 3
	update_a 4 6
	update_a 2 4
	update_a 0 2
	pop_a 2
.o 7 1 i
e_TCPStringChannels_scloseRChannel;6
.o 7 1 i
s7
	push_a 6
	push_a 4
	push_a 4
	push_a 4
	push_a 4
	update_a 4 11
	update_a 3 10
	update_a 2 9
	update_a 1 8
	updatepop_a 0 7
	pop_b 1
.d 5 0
	jmp e_TCPChannels_scloseRChannel;23
.export e_TCPStringChannels_sreceiveUpTo;4
.descexp e_TCPStringChannels_dreceiveUpTo;4 e_TCPStringChannels_nreceiveUpTo;4 e_TCPStringChannels_lreceiveUpTo;4 4 0 "receiveUpTo;4"
.o 6 1 i
e_TCPStringChannels_ireceiveUpTo;4
	pop_a 1
	push_r_args 3 3 1
	update_a 2 6
	update_a 4 2
	update_a 0 4
	push_a 5
	update_a 2 6
	update_a 4 2
	update_a 0 4
	pop_a 2
	push_b 1
	update_b 1 2
	update_b 0 1
	pop_b 1
.d 7 2 ii
	jsr s5
.o 5 1 i
	build_r e_TCPStringChannelsInternal_rStringRChannel_ 3 1 1 0
	update_a 0 4
	update_a 1 3
	pop_a 3
	pop_b 1
.d 3 0
	rtn
.ai 0 a5 e_TCPStringChannels_ireceiveUpTo;4
.o 2 0
e_TCPStringChannels_lreceiveUpTo;4
	repl_args 3 3
.o 4 0
a5
.d 4 0
	jsr ea5
.o 5 1 i
	push_a 4
	build_r e_TCPStringChannelsInternal_rStringRChannel_ 3 1 2 0
	push_a 2
	buildh _Tuple 3
	updatepop_a 0 5
	pop_b 1
.d 1 0
	rtn
.n 4 e_TCPStringChannels_dreceiveUpTo;4
.o 1 0
e_TCPStringChannels_nreceiveUpTo;4
	push_node _cycle_in_spine 4
.d 4 0
	jsr ea5
.o 5 1 i
	push_a 4
	build_r e_TCPStringChannelsInternal_rStringRChannel_ 3 1 2 0
	push_a 2
	fillh _Tuple 3 8
	pop_a 5
	pop_b 1
.d 1 0
	rtn
.o 4 0
ea5
	jsr_eval 3
	jsr_eval 2
	jsr_eval 1
	jsr_eval 0
	push_r_args 2 3 1
	pushI_a 4
	push_r_args 3 3 0
	update_a 5 8
	update_a 2 5
	update_a 4 7
	update_a 1 4
	update_a 3 6
	update_a 0 3
	pop_a 3
.o 7 2 ii
e_TCPStringChannels_sreceiveUpTo;4
.o 7 2 ii
s5
	build_r e_TCPStringChannelsInternal_rStringRChannel_ 3 1 3 1
	buildh _Nil 0
	push_a 8
	push_b 0
	push_a 5
	push_a 5
	push_a 5
	push_a 5
	update_a 4 6
	update_a 5 4
	update_a 0 5
	pop_a 1
	update_a 5 12
	update_a 4 11
	update_a 3 10
	update_a 2 9
	update_a 1 8
	updatepop_a 0 7
	updatepop_b 0 2
.d 6 1 i
	jmp s56
.export e_TCPStringChannels_du_reverse.30
.export e_TCPStringChannels_nu_reverse.30
.descn e_TCPStringChannels_du_reverse.30 e_TCPStringChannels_nu_reverse.30 1 0 "u_reverse.30"
.n 1 e_TCPStringChannels_du_reverse.30 ea30
.o 1 0
e_TCPStringChannels_nu_reverse.30
	push_node _cycle_in_spine 1
.o 2 0
ea30
.o 2 0
s30
	buildh _Nil 0
	push_a 1
	update_a 1 2
	updatepop_a 0 1
.d 3 0
	jmp s34
.o 3 0
s34
	eq_desc _Cons 2 0
	jmp_true case.9
	jmp case.10
case.9
	repl_args 2 2
	push_a 2
	push_a 1
	buildh _Cons 2
	push_a 2
	jsr_eval 0
	update_a 1 4
	updatepop_a 0 3
.d 3 0
	jmp s34
case.10
	fill_a 1 2
	pop_a 2
.d 1 0
	rtn
.export e_TCPStringChannels_sreceive_MT;5
.descexp e_TCPStringChannels_dreceive_MT;5 e_TCPStringChannels_nreceive_MT;5 e_TCPStringChannels_lreceive_MT;5 4 0 "receive_MT;5"
.o 7 0
e_TCPStringChannels_ireceive_MT;5
	pop_a 1
	push_r_args 4 3 1
	update_a 2 7
	update_a 4 2
	update_a 6 4
	update_a 1 6
	update_a 3 1
	update_a 5 3
	update_a 0 5
	pop_a 1
.d 8 1 i
	jsr s6
.o 6 1 i
	build_r e_TCPStringChannelsInternal_rStringRChannel_ 3 1 2 0
	update_a 0 5
	update_a 2 4
	update_a 1 3
	pop_a 3
	pop_b 1
.d 4 0
	rtn
.ai 0 a6 e_TCPStringChannels_ireceive_MT;5
.o 2 0
e_TCPStringChannels_lreceive_MT;5
	repl_args 3 3
.o 4 0
a6
.d 4 0
	jsr ea6
.o 6 1 i
	push_a 5
	build_r e_TCPStringChannelsInternal_rStringRChannel_ 3 1 3 0
	push_a 3
	push_a 3
	buildh _Tuple 4
	updatepop_a 0 6
	pop_b 1
.d 1 0
	rtn
.n 4 e_TCPStringChannels_dreceive_MT;5
.o 1 0
e_TCPStringChannels_nreceive_MT;5
	push_node _cycle_in_spine 4
.d 4 0
	jsr ea6
.o 6 1 i
	push_a 5
	build_r e_TCPStringChannelsInternal_rStringRChannel_ 3 1 3 0
	push_a 3
	push_a 3
	fillh _Tuple 4 10
	pop_a 6
	pop_b 1
.d 1 0
	rtn
.o 4 0
ea6
	jsr_eval 3
	jsr_eval 2
	jsr_eval 1
	jsr_eval 0
	push_r_args 2 3 1
	push_r_args 3 3 0
	update_a 5 8
	update_a 7 5
	update_a 4 7
	update_a 2 4
	update_a 0 2
	update_a 3 6
	update_a 1 3
	pop_a 2
.o 8 1 i
e_TCPStringChannels_sreceive_MT;5
.o 8 1 i
s6
	push_a 3
	eq_desc _Just 1 0
	pop_a 1
	push_a 3
.d 1 1 b
	jsr s42
.o 0 1 b
	jmp_false else.11
	buildh _None 0
	buildh e_TCPChannelClass_dTR_Expired 0
	push_a 9
	push_b 0
	push_a 9
	push_a 9
	push_a 9
	push_a 5
	update_a 4 6
	update_a 2 4
	update_a 0 2
	update_a 5 0
	update_a 3 5
	update_a 1 3
	update_a 0 1
	pop_a 1
	update_a 5 13
	update_a 4 12
	update_a 3 11
	update_a 2 10
	update_a 1 9
	updatepop_a 0 8
	updatepop_b 0 1
.d 6 1 i
	rtn
else.11
	push_a 6
.d 1 0
	jsr e_StdList_sisEmpty
.o 0 1 b
	notB
	jmp_false else.12
	create
	push_a 7
	update_a 1 5
	updatepop_a 0 4
.d 2 0
	jsr e_StdList_stl
.o 1 0
	push_b 0
	push_a 3
	push_a 3
	push_a 3
	update_a 3 2
	update_a 2 3
	update_a 1 2
	updatepop_a 0 1
	push_a 5
	buildh _Nil 0
	update_a 0 7
	update_a 0 6
	update_a 0 5
	pop_a 1
.d 1 0
	jsr e_StdList_shd
.o 1 0
.d 1 0
	jsr s33
.o 1 0
	buildh _Just 1
	buildh e_TCPChannelClass_dTR_Success 0
	push_a 8
	push_a 5
	update_a 1 6
	update_a 2 1
	update_a 3 2
	update_a 4 3
	update_a 5 4
	update_a 0 5
	pop_a 1
	update_a 5 9
	update_a 4 8
	update_a 3 7
	update_a 2 6
	update_a 1 5
	updatepop_a 0 4
	updatepop_b 0 1
.d 6 1 i
	rtn
else.12
	push_a 1
	push_a 8
	push_a 1
	update_a 1 2
	update_a 0 1
	pop_a 1
	buildh _Nil 0
	update_a 0 10
	pop_a 1
.d 2 0
	jsr_i 1
.o 1 1 i
	push_a 5
	push_a 1
	push_a 6
	push_a 6
	push_a 6
	push_a 6
	push_a 5
	update_a 5 6
	update_a 0 5
	pop_a 1
	update_a 5 6
	update_a 4 5
	update_a 3 4
	update_a 2 3
	update_a 1 2
	updatepop_a 0 1
.d 6 0
	jsr e_TCPChannels_sreceive_MT;22
.o 4 0
	buildh e_TCPChannelClass_dTR_Expired 0
	push_a 1
.d 2 0
	jsr e_TCPChannelClass_s==;11
.o 0 1 b
	jmp_false else.13
	push_a 2
	push_b 1
	push_a 11
	push_a 11
	push_a 11
	update_a 3 0
	update_a 2 3
	update_a 1 2
	updatepop_a 0 1
	buildh _None 0
	push_a 7
	push_a 5
	push_a 5
	update_a 2 6
	update_a 3 2
	update_a 4 3
	update_a 5 4
	update_a 0 5
	pop_a 1
	update_a 5 17
	update_a 4 16
	update_a 3 15
	update_a 2 14
	update_a 1 13
	updatepop_a 0 12
	updatepop_b 0 2
.d 6 1 i
	rtn
else.13
	buildh e_TCPChannelClass_dTR_NoSuccess 0
	push_a 1
.d 2 0
	jsr e_TCPChannelClass_s==;11
.o 0 1 b
	jmp_false else.14
	buildh e_TCPStringChannelsInternal_dEndOfMessages 0
	push_a 3
	push_b 1
	push_a 12
	push_a 12
	push_a 12
	update_a 3 0
	update_a 4 1
	update_a 2 4
	update_a 1 3
	updatepop_a 0 2
	buildh _None 0
	push_a 7
	push_a 5
	push_a 5
	update_a 2 6
	update_a 3 2
	update_a 4 3
	update_a 5 4
	update_a 0 5
	pop_a 1
	update_a 5 17
	update_a 4 16
	update_a 3 15
	update_a 2 14
	update_a 1 13
	updatepop_a 0 12
	updatepop_b 0 2
.d 6 1 i
	rtn
else.14
	push_a 9
	push_a 2
	eq_desc _Just 1 0
	exit_false selector_m_error
	repl_arg 1 1
	buildh _Nil 0
	update_a 0 4
	pop_a 1
.d 1 0
	jsr e_TCPDef_stoString;2
.o 1 0
	pushI 0
	push_b 2
	push_b 1
	update_b 1 2
	update_b 0 1
	pop_b 1
	update_a 1 3
	updatepop_a 0 2
.d 2 2 ii
	jsr e_TCPStringChannelsInternal_saddString
.o 2 0
	push_a 0
.d 1 0
	jsr e_StdList_sisEmpty
.o 0 1 b
	notB
	jmp_false else.15
	create
	push_a 1
	pop_b 1
	update_a 5 9
	update_a 4 8
	update_a 3 7
	update_a 2 6
	update_a 1 5
	updatepop_a 0 4
.d 2 0
	jsr e_StdList_stl
.o 1 0
	push_a 2
	push_a 4
	push_b 0
	push_a 9
	push_a 9
	push_a 9
	update_a 3 0
	update_a 4 1
	update_a 5 2
	update_a 2 5
	update_a 1 4
	updatepop_a 0 3
	push_a 3
	buildh _Nil 0
	update_a 0 5
	update_a 0 11
	update_a 0 10
	update_a 0 9
	update_a 0 7
	update_a 0 6
	pop_a 1
.d 1 0
	jsr e_StdList_shd
.o 1 0
.d 1 0
	jsr s33
.o 1 0
	buildh _Just 1
	buildh e_TCPChannelClass_dTR_Success 0
	push_a 8
	push_a 5
	update_a 1 6
	update_a 2 1
	update_a 3 2
	update_a 4 3
	update_a 5 4
	update_a 0 5
	pop_a 1
	update_a 5 13
	update_a 4 12
	update_a 3 11
	update_a 2 10
	update_a 1 9
	updatepop_a 0 8
	updatepop_b 0 1
.d 6 1 i
	rtn
else.15
	push_a 5
	push_a 4
	push_a 1
	update_a 1 2
	update_a 0 1
	pop_a 1
	update_a 1 2
	updatepop_a 0 1
	buildh _Nil 0
	update_a 0 5
	pop_a 1
.d 2 0
	jsr_i 1
.o 1 1 i
	push_b 1
	push_b 1
	update_b 1 3
	updatepop_b 0 2
	subI
	push_a 7
	eq_desc _None 0 0
	pop_a 1
	create
	push_b 1
	push_a 8
	push_b 1
	update_b 1 2
	update_b 0 1
	pop_b 1
	update_b 1 2
	updatepop_b 0 1
	buildh _Nil 0
	update_a 0 10
	pop_a 1
.d 2 2 bi
	jsr s44
.o 1 0
	push_a 2
	push_a 4
	push_b 0
	push_a 13
	push_a 13
	push_a 13
	update_a 3 0
	update_a 4 1
	update_a 2 4
	update_a 1 3
	updatepop_a 0 2
	push_a 4
	push_a 4
	push_a 12
	push_a 12
	push_a 12
	push_a 7
	update_a 5 8
	update_a 6 5
	update_a 7 6
	update_a 0 7
	pop_a 1
	update_a 7 20
	update_a 6 19
	update_a 5 18
	update_a 4 17
	update_a 3 16
	update_a 2 15
	update_a 1 14
	updatepop_a 0 13
	updatepop_b 0 1
.d 8 1 i
	jmp s6
.o 2 2 bi
s44
	eqB_b TRUE 0
	jmp_true case.16
	jmp case.17
case.16
	pop_b 2
	fill_a 0 1
	pop_a 1
.d 1 0
	rtn
case.17
	push_a 0
	eq_desc _Just 1 0
	exit_false selector_m_error
	repl_arg 1 1
	pushI_a 0
	pop_a 1
	push_b 2
	push_b 1
	update_b 1 2
	update_b 0 1
	pop_b 1
	subI
	buildI_b 0
	pop_b 1
	fillh _Just 1 2
	pop_a 1
	pop_b 2
.d 1 0
	rtn
.o 1 1 b
s42
	eqB_b TRUE 0
	jmp_true case.18
	jmp case.19
case.18
	push_a 0
	eq_desc _Just 1 0
	exit_false selector_m_error
	repl_arg 1 1
	pushI_a 0
	pop_a 1
	pushI 0
	push_b 1
	update_b 1 2
	update_b 0 1
	pop_b 1
	update_b 1 2
	updatepop_b 0 1
	pop_a 1
	ltI
.d 0 1 b
	rtn
case.19
	pop_a 1
	pop_b 1
	pushB FALSE
.d 0 1 b
	rtn
.o 1 0
s33
	pop_a 0
.d 1 0
	rtn
.export e_TCPStringChannels_seom;3
.descexp e_TCPStringChannels_deom;3 e_TCPStringChannels_neom;3 e_TCPStringChannels_leom;3 3 0 "eom;3"
.o 6 0
e_TCPStringChannels_ieom;3
	pop_a 1
	push_r_args 3 3 1
	update_a 2 6
	update_a 4 2
	update_a 0 4
	push_a 5
	update_a 2 6
	update_a 4 2
	update_a 0 4
	pop_a 2
.d 7 1 i
	jsr s4
.o 4 2 bi
	build_r e_TCPStringChannelsInternal_rStringRChannel_ 3 1 0 1
	update_a 0 3
	pop_a 3
	update_b 0 1
	pop_b 1
.d 2 1 b
	rtn
.ai 0 a4 e_TCPStringChannels_ieom;3
.o 2 0
e_TCPStringChannels_leom;3
	repl_args 2 2
.o 3 0
a4
.d 3 0
	jsr ea4
.o 4 2 bi
	push_a 3
	build_r e_TCPStringChannelsInternal_rStringRChannel_ 3 1 1 1
	buildB_b 0
	buildh _Tuple 3
	updatepop_a 0 4
	pop_b 2
.d 1 0
	rtn
.n 3 e_TCPStringChannels_deom;3
.o 1 0
e_TCPStringChannels_neom;3
	push_node _cycle_in_spine 3
.d 3 0
	jsr ea4
.o 4 2 bi
	push_a 3
	build_r e_TCPStringChannelsInternal_rStringRChannel_ 3 1 1 1
	buildB_b 0
	fillh _Tuple 3 7
	pop_a 4
	pop_b 2
.d 1 0
	rtn
.o 3 0
ea4
	jsr_eval 2
	jsr_eval 1
	jsr_eval 0
	push_r_args 1 3 1
	push_r_args 3 3 0
	update_a 5 7
	update_a 3 5
	update_a 1 3
	update_a 4 6
	update_a 2 4
	update_a 0 2
	pop_a 2
.o 7 1 i
e_TCPStringChannels_seom;3
.o 7 1 i
s4
	push_a 5
.d 1 0
	jsr e_StdList_sisEmpty
.o 0 1 b
	notB
	jmp_false else.20
	push_a 6
	push_b 0
	push_a 6
	push_a 6
	push_a 6
	pushB FALSE
	update_a 3 10
	update_a 2 9
	update_a 1 8
	updatepop_a 0 7
	update_b 1 2
	updatepop_b 0 1
.d 4 2 bi
	rtn
else.20
	push_b 0
	push_a 5
	push_a 5
	push_a 5
	updatepop_b 0 1
	update_a 5 8
	update_a 4 7
	update_a 3 6
	update_a 2 5
	update_a 1 4
	updatepop_a 0 3
.d 3 1 i
	jsr s55
.o 1 1 b
	push_b 0
	jmp_false else.21
	push_a 0
	jsr_eval 0
	repl_r_args 3 1
	push_a 7
	pushB TRUE
	push_a 3
	update_a 1 4
	update_a 2 1
	update_a 3 2
	update_a 0 3
	pop_a 1
	update_a 3 8
	update_a 2 7
	update_a 1 6
	updatepop_a 0 5
	update_b 1 2
	updatepop_b 0 1
.d 4 2 bi
	rtn
else.21
	push_a 0
	jsr_eval 0
	repl_r_args 3 1
	push_a 0
	push_a 8
	push_a 8
	push_a 8
	push_a 8
	push_a 4
	update_a 4 5
	update_a 0 4
	pop_a 1
	update_a 7 12
	update_a 6 11
	update_a 5 10
	update_a 4 9
	update_a 3 8
	update_a 2 7
	update_a 1 6
	updatepop_a 0 5
.d 5 0
	jsr e_TCPChannels_seom;20
.o 2 1 b
	push_b 0
	jmp_false else.22
	buildh e_TCPStringChannelsInternal_dEndOfMessages 0
	push_a 1
	push_b 1
	push_a 6
	push_a 6
	push_a 6
	update_a 3 0
	update_a 4 1
	update_a 2 4
	update_a 1 3
	updatepop_a 0 2
	push_a 4
	push_b 1
	push_a 3
	update_a 1 4
	update_a 2 1
	update_a 3 2
	update_a 0 3
	pop_a 1
	update_a 3 8
	update_a 2 7
	update_a 1 6
	updatepop_a 0 5
	update_b 1 4
	updatepop_b 0 3
.d 4 2 bi
	rtn
else.22
	push_a 0
	push_b 1
	push_a 5
	push_a 5
	push_a 5
	update_a 3 0
	update_a 2 3
	update_a 1 2
	updatepop_a 0 1
	push_a 4
	push_b 1
	push_a 3
	update_a 1 4
	update_a 2 1
	update_a 3 2
	update_a 0 3
	pop_a 1
	update_a 3 8
	update_a 2 7
	update_a 1 6
	updatepop_a 0 5
	update_b 1 4
	updatepop_b 0 3
.d 4 2 bi
	rtn
.export e_TCPStringChannels_savailable;2
.descexp e_TCPStringChannels_davailable;2 e_TCPStringChannels_navailable;2 e_TCPStringChannels_lavailable;2 3 0 "available;2"
.o 6 0
e_TCPStringChannels_iavailable;2
	pop_a 1
	push_r_args 3 3 1
	update_a 2 6
	update_a 4 2
	update_a 0 4
	push_a 5
	update_a 2 6
	update_a 4 2
	update_a 0 4
	pop_a 2
.d 7 1 i
	jsr s3
.o 4 2 bi
	build_r e_TCPStringChannelsInternal_rStringRChannel_ 3 1 0 1
	update_a 0 3
	pop_a 3
	update_b 0 1
	pop_b 1
.d 2 1 b
	rtn
.ai 0 a3 e_TCPStringChannels_iavailable;2
.o 2 0
e_TCPStringChannels_lavailable;2
	repl_args 2 2
.o 3 0
a3
.d 3 0
	jsr ea3
.o 4 2 bi
	push_a 3
	build_r e_TCPStringChannelsInternal_rStringRChannel_ 3 1 1 1
	buildB_b 0
	buildh _Tuple 3
	updatepop_a 0 4
	pop_b 2
.d 1 0
	rtn
.n 3 e_TCPStringChannels_davailable;2
.o 1 0
e_TCPStringChannels_navailable;2
	push_node _cycle_in_spine 3
.d 3 0
	jsr ea3
.o 4 2 bi
	push_a 3
	build_r e_TCPStringChannelsInternal_rStringRChannel_ 3 1 1 1
	buildB_b 0
	fillh _Tuple 3 7
	pop_a 4
	pop_b 2
.d 1 0
	rtn
.o 3 0
ea3
	jsr_eval 2
	jsr_eval 1
	jsr_eval 0
	push_r_args 1 3 1
	push_r_args 3 3 0
	update_a 5 7
	update_a 3 5
	update_a 1 3
	update_a 4 6
	update_a 2 4
	update_a 0 2
	pop_a 2
.o 7 1 i
e_TCPStringChannels_savailable;2
.o 7 1 i
s3
	push_a 5
.d 1 0
	jsr e_StdList_sisEmpty
.o 0 1 b
	notB
	jmp_false else.23
	push_a 6
	push_b 0
	push_a 6
	push_a 6
	push_a 6
	pushB TRUE
	update_a 3 10
	update_a 2 9
	update_a 1 8
	updatepop_a 0 7
	update_b 1 2
	updatepop_b 0 1
.d 4 2 bi
	rtn
else.23
	push_a 3
	push_a 7
	push_a 4
	push_a 4
	push_a 4
	push_a 4
	update_a 4 5
	update_a 0 4
	pop_a 1
	buildh _Nil 0
	update_a 0 12
	pop_a 1
.d 5 0
	jsr e_TCPChannels_savailable;19
.o 2 1 b
	push_b 0
	notB
	jmp_false else.24
	push_a 0
	push_b 1
	push_a 8
	push_a 8
	push_a 8
	update_a 3 0
	update_a 2 3
	update_a 1 2
	updatepop_a 0 1
	push_a 4
	pushB FALSE
	push_a 3
	update_a 1 4
	update_a 2 1
	update_a 3 2
	update_a 0 3
	pop_a 1
	update_a 3 12
	update_a 2 11
	update_a 1 10
	updatepop_a 0 9
	update_b 1 3
	updatepop_b 0 2
.d 4 2 bi
	rtn
else.24
	buildh e_TCPChannels_dreceive_MT;22 0
	buildh e_TCPChannels_dreceiveUpTo;21 0
	buildh e_TCPChannels_deom;20 0
	buildh e_TCPChannels_davailable;19 0
	push_a 5
	push_a 5
	push_a 10
	push_a 10
	push_a 10
	push_a 8
	update_a 5 9
	update_a 7 5
	update_a 0 7
	update_a 8 0
	update_a 4 8
	update_a 6 4
	update_a 0 6
	pop_a 1
	pop_b 1
	update_a 8 13
	update_a 7 12
	update_a 6 11
	update_a 5 10
	update_a 4 9
	update_a 3 8
	update_a 2 7
	update_a 1 6
	updatepop_a 0 5
.d 9 0
	jsr e_TCPChannelClass_sreceive
.o 3 0
	push_a 0
	updatepop_a 0 1
.d 1 0
	jsr e_TCPDef_stoString;2
.o 1 0
	push_a 4
	pushI 0
	push_a 1
	push_b 1
	push_b 1
	update_b 1 2
	update_b 0 1
	pop_b 1
	update_a 1 2
	updatepop_a 0 1
.d 2 2 ii
	jsr e_TCPStringChannelsInternal_saddString
.o 2 0
	push_a 0
	push_a 2
	push_a 4
	push_b 0
	push_a 9
	push_a 9
	push_a 9
	update_a 3 0
	update_a 4 1
	update_a 5 2
	update_a 2 5
	update_a 1 4
	updatepop_a 0 3
	push_a 3
	buildh _Nil 0
	update_a 0 5
	update_a 0 11
	update_a 0 10
	update_a 0 9
	update_a 0 7
	update_a 0 6
	pop_a 1
.d 1 0
	jsr e_StdList_sisEmpty
.o 0 1 b
	notB
	push_a 6
	push_a 3
	update_a 1 4
	update_a 2 1
	update_a 3 2
	update_a 0 3
	pop_a 1
	update_a 3 11
	update_a 2 10
	update_a 1 9
	updatepop_a 0 8
	update_b 1 2
	updatepop_b 0 1
.d 4 2 bi
	rtn
.export e_TCPStringChannels_stoStringSChannel
.export e_TCPStringChannels_eatoStringSChannel
.descexp e_TCPStringChannels_dtoStringSChannel e_TCPStringChannels_ntoStringSChannel e_TCPStringChannels_ltoStringSChannel 1 0 "toStringSChannel"
.o 2 0
e_TCPStringChannels_ltoStringSChannel
	update_a 1 0
	create
	update_a 0 2
	pop_a 1
.d 2 0
	jmp e_TCPStringChannels_eatoStringSChannel
.n 1 e_TCPStringChannels_dtoStringSChannel e_TCPStringChannels_eatoStringSChannel
.o 1 0
e_TCPStringChannels_ntoStringSChannel
	push_node _cycle_in_spine 1
.o 2 0
e_TCPStringChannels_eatoStringSChannel
.o 2 0
e_TCPStringChannels_stoStringSChannel
.o 2 0
s2
	push_a 0
	fillh e_TCPStringChannels_dStringSChannel_ 1 2
	pop_a 1
.d 1 0
	rtn
.export e_TCPStringChannels_stoStringRChannel
.descexp e_TCPStringChannels_dtoStringRChannel e_TCPStringChannels_ntoStringRChannel e_TCPStringChannels_ltoStringRChannel 1 0 "toStringRChannel"
.o 2 0
e_TCPStringChannels_ltoStringRChannel
	pop_a 1
.d 1 0
	jsr ea1
.o 3 1 i
	buildhr e_TCPStringChannelsInternal_rStringRChannel_ 3 1
.d 1 0
	rtn
.n 1 e_TCPStringChannels_dtoStringRChannel
.o 1 0
e_TCPStringChannels_ntoStringRChannel
	push_node _cycle_in_spine 1
.d 1 0
	jsr ea1
.o 3 1 i
	fill_r e_TCPStringChannelsInternal_rStringRChannel_ 3 1 3 0 0
	pop_a 3
	pop_b 1
.d 1 0
	rtn
.o 1 0
e_TCPStringChannels_stoStringRChannel
.o 1 0
ea1
	jsr_eval 0
.o 1 0
s1
	buildh _Nil 0
	pushI 0
	buildhr e_TCPStringChannelsInternal_kReadingLength 0 1
	pushI 0
	push_a 2
	update_a 2 3
	update_a 1 2
	updatepop_a 0 1
.d 3 1 i
	rtn
.o 3 1 i
s55
	jmp case.25
case.25
	eq_desc e_TCPStringChannelsInternal_dEndOfMessages 0 1
	jmp_true case.27
	jmp case.26
case.27
	build_r e_TCPStringChannelsInternal_rStringRChannel_ 3 1 0 0
	pushB TRUE
	updatepop_a 0 3
	updatepop_b 0 1
.d 1 1 b
	rtn
case.26
	build_r e_TCPStringChannelsInternal_rStringRChannel_ 3 1 0 0
	pushB FALSE
	updatepop_a 0 3
	updatepop_b 0 1
.d 1 1 b
	rtn
.o 6 1 i
s56
	push_b 0
	pushI 0
	ltI
	notB
	jmp_false else.28
	push_r_args 4 3 1
	create
	push_a 7
	buildh _Nil 0
	update_a 0 9
	update_a 0 10
	update_a 0 6
	update_a 0 7
	update_a 0 8
	pop_a 1
.d 2 0
	jsr s30
.o 1 0
	push_a 9
	push_a 4
	update_a 1 5
	update_a 2 1
	update_a 3 2
	update_a 4 3
	update_a 0 4
	pop_a 1
	update_a 4 10
	update_a 3 9
	update_a 2 8
	update_a 1 7
	updatepop_a 0 6
	updatepop_b 0 1
.d 5 1 i
	rtn
else.28
	push_r_args 4 3 1
	buildI 0
	buildh _Just 1
	push_a 9
	push_a 7
	push_a 7
	push_a 7
	push_a 7
	update_a 4 8
	update_a 5 4
	update_a 6 5
	update_a 7 6
	update_a 0 7
	pop_a 1
	buildh _Nil 0
	update_a 0 14
	update_a 0 13
	pop_a 1
.d 8 1 i
	jsr s6
.o 6 1 i
	buildh e_TCPChannelClass_dTR_Success 0
	push_a 1
	update_a 1 2
	updatepop_a 0 1
.d 2 0
	jsr e_TCPChannelClass_s==;11
.o 0 1 b
	notB
	jmp_false else.29
	create
	push_a 9
	update_a 6 12
	update_a 5 11
	update_a 4 10
	update_a 3 9
	update_a 1 8
	updatepop_a 0 7
.d 2 0
	jsr s30
.o 1 0
	push_a 4
	push_b 0
	push_a 4
	push_a 4
	push_a 4
	push_a 4
	update_a 4 5
	update_a 3 4
	update_a 2 3
	update_a 1 2
	update_a 0 1
	pop_a 1
	update_a 4 8
	update_a 3 7
	update_a 2 6
	update_a 1 5
	updatepop_a 0 4
	updatepop_b 0 2
.d 5 1 i
	rtn
else.29
	build_r e_TCPStringChannelsInternal_rStringRChannel_ 3 1 1 0
	pushI 1
	push_b 2
	subI
	push_a 9
	push_a 2
	build e_TCPStringChannels_d_match0.62 1 e_TCPStringChannels_n_match0.62
	buildh _Cons 2
	push_a 6
	push_a 10
	push_a 10
	push_a 10
	push_a 5
	update_a 4 6
	update_a 5 4
	update_a 0 5
	pop_a 1
	update_a 5 16
	update_a 4 15
	update_a 3 14
	update_a 2 13
	update_a 1 12
	updatepop_a 0 11
	updatepop_b 0 2
.d 6 1 i
	jmp s56
.export e_TCPStringChannels_d_match0.62
.export e_TCPStringChannels_n_match0.62
.descn e_TCPStringChannels_d_match0.62 e_TCPStringChannels_n_match0.62 1 0 "_match0.62"
.n 1 e_TCPStringChannels_d_match0.62 ea62
.o 1 0
e_TCPStringChannels_n_match0.62
	push_node _cycle_in_spine 1
.o 2 0
ea62
	jsr_eval 0
.o 2 0
s62
	eq_desc _Just 1 0
	jmp_true case.30
	jmp s62.1
case.30
	repl_args 1 1
	fill_a 0 1
	pop_a 1
.d 1 0
	rtn
s62.1
	pop_a 2
	pushD m_TCPStringChannels
	pushD e_TCPStringChannels_d_match0.62
.d 0 2 ii
	jmp _match_error
.o 3 0
s57
	eq_desc _Nil 0 1
	jmp_true case.31
	jmp case.32
case.31
	push_a 2
	jsr_eval 0
	create
	push_a 1
	update_a 1 2
	update_a 0 1
	pop_a 1
	update_a 1 4
	updatepop_a 0 3
.d 2 0
	jsr s30
.o 1 0
.d 1 0
	jsr e_StdList_sunzip
.o 2 0
	push_a 1
	buildh e_TCPStringChannels_dStringSChannels 1
	push_a 1
	jsr_eval 0
	update_a 1 3
	updatepop_a 0 2
.d 2 0
	rtn
case.32
	push_args_u 1 2 2
	jsr_eval 0
	push_args_u 0 1 1
	push_a 3
	jsr_eval 0
	push_a 1
	push_a 1
	update_a 1 2
	update_a 0 1
	pop_a 1
	update_a 1 2
	updatepop_a 0 1
	jsr_ap 1
	push_a 5
	push_arg 1 2 2
	fill1 e_TCPStringChannels_dStringSChannel_ 1 3 01
	push_a 2
	push_arg 2 2 1
	buildh _Tuple 2
	fill1 _Cons 2 6 011
	push_a 4
	push_a 3
	jsr_eval 0
	push_a 5
	update_a 2 8
	update_a 1 7
	updatepop_a 0 6
.d 3 0
	jmp s57
.o 3 0
s58
	eq_desc _Nil 0 1
	jmp_true case.33
	jmp case.34
case.33
	create
	push_a 3
	update_a 1 4
	updatepop_a 0 3
.d 2 0
	jsr s30
.o 1 0
.d 1 0
	jsr e_StdList_sunzip
.o 2 0
	push_a 1
	buildh e_TCPStringChannels_dStringRChannels 1
	push_a 1
	jsr_eval 0
	update_a 1 3
	updatepop_a 0 2
.d 2 0
	rtn
case.34
	push_args_u 1 2 2
	jsr_eval 0
	push_r_args_u 0 3 1
	update_a 0 2
	pop_a 2
	pop_b 1
	push_a 0
	fill1 e_TCPDef_dTCP_RCHANNEL 1 5 11
	push_a 4
	push_a 4
	jsr_eval 0
	update_a 1 2
	updatepop_a 0 1
	buildh _Nil 0
	update_a 0 6
	pop_a 1
	jsr_ap 1
	push_a 5
	push_arg 1 2 2
	build e_TCPStringChannels_d_match1.64 1 e_TCPStringChannels_n_match1.64
	push_a 3
	build e_TCPStringChannels_d_upd0.63 2 e_TCPStringChannels_n_upd0.63
	push_arg 2 2 1
	buildh _Tuple 2
	buildh _Cons 2
	push_a 3
	jsr_eval 0
	push_a 5
	update_a 2 8
	update_a 1 7
	updatepop_a 0 6
.d 3 0
	jmp s58
.export e_TCPStringChannels_d_upd0.63
.export e_TCPStringChannels_n_upd0.63
.descn e_TCPStringChannels_d_upd0.63 e_TCPStringChannels_n_upd0.63 2 0 "_upd0.63"
.n 2 e_TCPStringChannels_d_upd0.63
.o 1 0
e_TCPStringChannels_n_upd0.63
	push_node _cycle_in_spine 2
.o 2 0
ea63
	jsr_eval 0
	push_a 1
	jsr_eval 0
	push_r_args 1 3 1
	update_a 3 0
	fill_r e_TCPStringChannelsInternal_rStringRChannel_ 3 1 6 0 0
	pop_a 6
	pop_b 1
.d 1 0
	rtn
.export e_TCPStringChannels_d_match1.64
.export e_TCPStringChannels_n_match1.64
.descn e_TCPStringChannels_d_match1.64 e_TCPStringChannels_n_match1.64 1 0 "_match1.64"
.n 1 e_TCPStringChannels_d_match1.64 _
.o 1 0
e_TCPStringChannels_n_match1.64
	push_node _cycle_in_spine 1
.d 1 0
	jsr ea64
.o 1 0
	fill_a 0 1
	pop_a 1
.d 1 0
	rtn
.o 1 0
ea64
	jsr_eval 0
.o 1 0
s64
	eq_desc e_TCPDef_dTCP_RCHANNEL 1 0
	jmp_true case.35
	jmp s64.1
case.35
	repl_args 1 1
	jmp_eval
s64.1
	pop_a 1
	pushD m_TCPStringChannels
	pushD e_TCPStringChannels_d_match1.64
.d 0 2 ii
	jmp _match_error
.o 7 1 i
s59
	push_a 6
	push_b 0
	push_a 6
	push_a 6
	push_a 6
	push_a 6
	push_a 6
	push_a 6
	updatepop_b 0 1
	update_a 9 13
	update_a 8 12
	update_a 7 11
	update_a 6 10
	update_a 5 9
	update_a 4 8
	update_a 3 7
	update_a 2 6
	update_a 1 5
	updatepop_a 0 4
.d 7 1 i
	jsr s3
.o 4 2 bi
	push_b 0
	jmp_false else.36
	build_r e_TCPStringChannelsInternal_rStringRChannel_ 3 1 0 1
	buildh e_TCPDef_dSR_Available 0
	buildh _Just 1
	push_a 5
	push_a 2
	update_a 1 3
	update_a 2 1
	update_a 0 2
	pop_a 1
	update_a 2 9
	update_a 1 8
	updatepop_a 0 7
	pop_b 2
.d 3 0
	rtn
else.36
	push_a 3
	push_b 1
	push_a 3
	push_a 3
	push_a 3
	push_a 10
	push_a 10
	push_a 10
	updatepop_b 0 2
	update_a 6 13
	update_a 5 12
	update_a 4 11
	update_a 3 10
	update_a 2 9
	update_a 1 8
	updatepop_a 0 7
.d 7 1 i
	jsr s4
.o 4 2 bi
	push_b 0
	jmp_false else.37
	build_r e_TCPStringChannelsInternal_rStringRChannel_ 3 1 0 1
	buildh e_TCPDef_dSR_EOM 0
	buildh _Just 1
	push_a 5
	push_a 2
	update_a 1 3
	update_a 2 1
	update_a 0 2
	pop_a 1
	update_a 2 6
	update_a 1 5
	updatepop_a 0 4
	pop_b 2
.d 3 0
	rtn
else.37
	build_r e_TCPStringChannelsInternal_rStringRChannel_ 3 1 0 1
	buildh _None 0
	push_a 5
	push_a 2
	update_a 1 3
	update_a 2 1
	update_a 0 2
	pop_a 1
	update_a 2 6
	update_a 1 5
	updatepop_a 0 4
	pop_b 2
.d 3 0
	rtn
.o 1 0
s60
	buildh _Nil 0
	pushI 0
	push_a 1
	update_a 1 2
	updatepop_a 0 1
.d 2 1 i
	jmp s61
.o 2 1 i
s61
	eq_desc _Nil 0 0
	jmp_true case.38
	jmp case.39
case.38
	push_a 1
	build e_TCPStringChannels_du_reverse.30 1 e_TCPStringChannels_nu_reverse.30
	push_b 0
	updatepop_a 0 2
	updatepop_b 0 1
.d 1 1 i
	rtn
case.39
	repl_args 2 2
	pushI 1
	push_b 1
	addI
	push_a 2
	push_a 1
	buildh _Cons 2
	push_a 2
	jsr_eval 0
	update_a 1 4
	updatepop_a 0 3
	updatepop_b 0 1
.d 2 1 i
	jmp s61
.impmod _system
.implab _match_error
.implab selector_m_error
