.comp 920 000011110011000
.start _nostart_
.depend "StdCharList" "20210613122638"
.depend "_SystemArray" "20210613122638"
.depend "StdArray" "20210613122638"
.depend "StdEnv" "20210613122638"
.depend "_SystemEnum" "20210613122638"
.depend "StdEnum" "20210613122638"
.depend "StdTuple" "20210613122638"
.depend "StdOrdList" "20210613122638"
.depend "StdFile" "20210613122638"
.depend "StdString" "20210613122638"
.depend "StdMisc" "20210613122638"
.depend "StdFunctions" "20210613122638"
.depend "_SystemEnumStrict" "20210613122638"
.depend "_SystemStrictLists" "20210613122638"
.depend "StdStrictLists" "20210613122638"
.depend "StdReal" "20210613122638"
.depend "StdChar" "20210613122638"
.depend "StdInt" "20210613122638"
.depend "StdBool" "20210613122638"
.depend "StdClass" "20210613122638"
.depend "StdList" "20210613122638"
.depend "Data.Functor" "20210613122637"
.depend "StdOverloaded" "20210613122638"
.depend "_SystemDynamic" "20210613122638"
.depend "Data.IntMap.Base" "20210613122637"
.module m_Data.IntMap.Base "Data.IntMap.Base" "20210613122637"
.endinfo
.impmod _system
.implab _cycle_in_spine
.implab _type_error
.implab _hnf
.impdesc e_system_dind
.implab e_system_nind e_system_eaind
.impdesc e_system_dif
.implab e_system_nif e_system_eaif
.implab e_system_sif
.impdesc e_system_dAP
.implab e_system_nAP e_system_eaAP
.implab e_system_sAP
.impdesc ARRAY
.impdesc _Nil
.impdesc _Cons
.impdesc _Conss
.implab n_Conss ea_Conss
.impdesc _Consts
.implab n_Consts ea_Consts
.impdesc _Conssts
.implab n_Conssts ea_Conssts
.impdesc _Tuple
.impdesc d_S.1
.implab n_S.1 ea_S.1
.impdesc d_S.2
.implab n_S.2 ea_S.2
.impdesc d_S.3
.implab n_S.3 ea_S.3
.impdesc d_S.4
.implab n_S.4 ea_S.4
.impdesc d_S.5
.implab n_S.5 ea_S.5
.impdesc d_S.6
.implab n_S.6 ea_S.6
.implab _driver
.impmod StdMisc
.implab e_StdMisc_sabort
.impmod StdFunctions
.impdesc e_StdFunctions_did
.impdesc e_StdFunctions_dconst
.impmod StdInt
.implab e_StdInt_sbitor
.implab e_StdInt_sbitand
.implab e_StdInt_sbitxor
.implab e_StdInt_s>>
.implab e_StdInt_sbitnot
.implab e_StdInt_s^;12
.implab e_StdInt_s~;15
.implab e_StdInt_s==;16
.implab e_StdInt_s<;17
.impmod StdBool
.implab e_StdBool_snot
.export e_Data.IntMap.Base_eaTip
.descexp e_Data.IntMap.Base_dTip e_Data.IntMap.Base_nTip e_Data.IntMap.Base_lTip 2 0 "Tip"
.a 2 e_Data.IntMap.Base_eaTip
.o 2 0 
e_Data.IntMap.Base_lTip
	push_args 0 1 1
	update_a 2 1
	create 
.d 3 0 
	put_a_jmp 3 e_Data.IntMap.Base_eaTip
.n 2 e_Data.IntMap.Base_dTip e_Data.IntMap.Base_eaTip
.o 1 0 
e_Data.IntMap.Base_nTip
	push_node _cycle_in_spine 2
.o 3 0 
e_Data.IntMap.Base_eaTip
	jsr_eval 0
	pushI0_pop_a1 
	fill_r e_Data.IntMap.Base_kTip 1 1 1 0 0
.d 1 0 
	pop_ab_rtn 1 1
.export e_Data.IntMap.Base_eaBin
.descexp e_Data.IntMap.Base_dBin e_Data.IntMap.Base_nBin e_Data.IntMap.Base_lBin 4 0 "Bin"
.a 4 e_Data.IntMap.Base_eaBin
.o 2 0 
e_Data.IntMap.Base_lBin
	push_args 0 3 3
	update_a 4 3
	create 
.d 5 0 
	put_a_jmp 5 e_Data.IntMap.Base_eaBin
.n 4 e_Data.IntMap.Base_dBin e_Data.IntMap.Base_eaBin
.o 1 0 
e_Data.IntMap.Base_nBin
	push_node _cycle_in_spine 4
.o 5 0 
e_Data.IntMap.Base_eaBin
	jsr_eval 3
	jsr_eval 2
	jsr_eval 1
	jsr_eval 0
	pushI_a 1
	pushI_a 0
	pop_a 2
	fill_r e_Data.IntMap.Base_kBin 2 2 2 0 0
.d 1 0 
	pop_ab_rtn 2 2
.export e_Data.IntMap.Base_dNil
.desc e_Data.IntMap.Base_dNil _hnf _hnf 0 0 "Nil"
.export e_Data.IntMap.Base_kTip
.record e_Data.IntMap.Base_kTip dia 1 1 "Tip"
.export e_Data.IntMap.Base_kBin
.record e_Data.IntMap.Base_kBin diiaa 2 2 "Bin"
.export e_Data.IntMap.Base_dPush
.export e_Data.IntMap.Base_nPush
.descn e_Data.IntMap.Base_dPush e_Data.IntMap.Base_nPush 3 0 "Push"
.a 3 ea66
.o 2 0 
l66
	push_args 0 2 2
	update_a 3 2
	create 
.d 4 0 
	put_a_jmp 4 ea66
.n 3 e_Data.IntMap.Base_dPush ea66
.o 1 0 
e_Data.IntMap.Base_nPush
	push_node _cycle_in_spine 3
.o 4 0 
ea66
	jsr_eval 2
	jsr_eval 1
	jsr_eval 0
	pushI0_pop_a1 
	fill_r e_Data.IntMap.Base_kPush 2 1 2 0 0
.d 1 0 
	pop_ab_rtn 2 1
.export e_Data.IntMap.Base_kPush
.record e_Data.IntMap.Base_kPush diaa 2 1 "Push"
.export e_Data.IntMap.Base_dNada
.desc e_Data.IntMap.Base_dNada _hnf _hnf 0 0 "Nada"
.export e_Data.IntMap.Base_sTD;Stack
.export e_Data.IntMap.Base_eaTD;Stack
.descexp e_Data.IntMap.Base_dTD;Stack e_Data.IntMap.Base_nTD;Stack e_Data.IntMap.Base_lTD;Stack 1 0 "TD;Stack"
.o 2 0 
e_Data.IntMap.Base_lTD;Stack
	update_a 1 0
	create 
.d 2 0 
	put_a_jmp 2 e_Data.IntMap.Base_eaTD;Stack
.n 1 e_Data.IntMap.Base_dTD;Stack e_Data.IntMap.Base_eaTD;Stack
.o 1 0 
e_Data.IntMap.Base_nTD;Stack
	push_node _cycle_in_spine 1
.o 2 0 
e_Data.IntMap.Base_eaTD;Stack
.o 2 0 
e_Data.IntMap.Base_sTD;Stack
.o 2 0 
s49
	fillh _Nil 0 1
.d 1 0 
	pop_a_rtn 1
.export e_Data.IntMap.Base_sTD;Mask
.export e_Data.IntMap.Base_eaTD;Mask
.descexp e_Data.IntMap.Base_dTD;Mask e_Data.IntMap.Base_nTD;Mask e_Data.IntMap.Base_lTD;Mask 1 0 "TD;Mask"
.o 2 0 
e_Data.IntMap.Base_lTD;Mask
	update_a 1 0
	create 
.d 2 0 
	put_a_jmp 2 e_Data.IntMap.Base_eaTD;Mask
.n 1 e_Data.IntMap.Base_dTD;Mask e_Data.IntMap.Base_eaTD;Mask
.o 1 0 
e_Data.IntMap.Base_nTD;Mask
	push_node _cycle_in_spine 1
.o 2 0 
e_Data.IntMap.Base_eaTD;Mask
.o 2 0 
e_Data.IntMap.Base_sTD;Mask
.o 2 0 
s19
	fillh _Nil 0 1
.d 1 0 
	pop_a_rtn 1
.export e_Data.IntMap.Base_sTD;Prefix
.export e_Data.IntMap.Base_eaTD;Prefix
.descexp e_Data.IntMap.Base_dTD;Prefix e_Data.IntMap.Base_nTD;Prefix e_Data.IntMap.Base_lTD;Prefix 1 0 "TD;Prefix"
.o 2 0 
e_Data.IntMap.Base_lTD;Prefix
	update_a 1 0
	create 
.d 2 0 
	put_a_jmp 2 e_Data.IntMap.Base_eaTD;Prefix
.n 1 e_Data.IntMap.Base_dTD;Prefix e_Data.IntMap.Base_eaTD;Prefix
.o 1 0 
e_Data.IntMap.Base_nTD;Prefix
	push_node _cycle_in_spine 1
.o 2 0 
e_Data.IntMap.Base_eaTD;Prefix
.o 2 0 
e_Data.IntMap.Base_sTD;Prefix
.o 2 0 
s18
	fillh _Nil 0 1
.d 1 0 
	pop_a_rtn 1
.export e_Data.IntMap.Base_sTD;IntMap
.export e_Data.IntMap.Base_eaTD;IntMap
.descexp e_Data.IntMap.Base_dTD;IntMap e_Data.IntMap.Base_nTD;IntMap e_Data.IntMap.Base_lTD;IntMap 1 0 "TD;IntMap"
.o 2 0 
e_Data.IntMap.Base_lTD;IntMap
	update_a 1 0
	create 
.d 2 0 
	put_a_jmp 2 e_Data.IntMap.Base_eaTD;IntMap
.n 1 e_Data.IntMap.Base_dTD;IntMap e_Data.IntMap.Base_eaTD;IntMap
.o 1 0 
e_Data.IntMap.Base_nTD;IntMap
	push_node _cycle_in_spine 1
.o 2 0 
e_Data.IntMap.Base_eaTD;IntMap
.o 2 0 
e_Data.IntMap.Base_sTD;IntMap
.o 2 0 
s17
	fillh _Nil 0 1
.d 1 0 
	pop_a_rtn 1
.export e_Data.IntMap.Base_sfmap;15
.export e_Data.IntMap.Base_eafmap;15
.descexp e_Data.IntMap.Base_dfmap;15 e_Data.IntMap.Base_nfmap;15 e_Data.IntMap.Base_lfmap;15 2 0 "fmap;15"
.o 3 0 
e_Data.IntMap.Base_ifmap;15
	pop_a 1
	create 
	jsr_eval 2
	push_a 1
	updates3pop_a 0 1 3 2
.d 3 0 
	jmp s16
.ai 2 e_Data.IntMap.Base_eafmap;15 e_Data.IntMap.Base_ifmap;15
.o 2 0 
e_Data.IntMap.Base_lfmap;15
	push_args 0 1 1
	update_a 2 1
	create 
.d 3 0 
	put_a_jmp 3 e_Data.IntMap.Base_eafmap;15
.n 2 e_Data.IntMap.Base_dfmap;15 e_Data.IntMap.Base_eafmap;15
.o 1 0 
e_Data.IntMap.Base_nfmap;15
	push_node _cycle_in_spine 2
.o 3 0 
e_Data.IntMap.Base_eafmap;15
	jsr_eval 1
.o 3 0 
e_Data.IntMap.Base_sfmap;15
.o 3 0 
s16
.d 3 0 
	jmp s29
.export e_Data.IntMap.Base_s==;14
.descexp e_Data.IntMap.Base_d==;14 e_Data.IntMap.Base_n==;14 e_Data.IntMap.Base_l==;14 3 0 "==;14"
.o 3 0 
e_Data.IntMap.Base_i==;14
	repl_args 1 1
	jsr_eval 0
	push_r_args 0 1 0
.d 3 0 
	put_a_jmp 1 s15
.ai 0 a15 e_Data.IntMap.Base_i==;14
.o 2 0 
e_Data.IntMap.Base_l==;14
	repl_args 2 2
.o 3 0 
a15
.d 3 0 
	jsr ea15
.o 0 1 b
	buildB_b 0
.d 1 0 
	pop_b_rtn 1
.n 3 e_Data.IntMap.Base_d==;14
.o 1 0 
e_Data.IntMap.Base_n==;14
	push_node _cycle_in_spine 3
.d 3 0 
	jsr ea15
.o 0 1 b
	fillB_b 0 0
.d 1 0 
	pop_b_rtn 1
.o 3 0 
ea15
	jsr_eval 2
	jsr_eval 1
	jsr_eval 0
	repl_r_args 1 0
.o 3 0 
e_Data.IntMap.Base_s==;14
.o 3 0 
s15
.d 3 0 
	jmp s1
.o 3 0 
s29
	swap_a1 
s58
	pushD_a 0
	jmpD eb e_Data.IntMap.Base_kTip 0 case.2 case.3
case.1
	pop_b 1
	repl_r_args 2 2
	create 
	push2_a 3
	updates3_a 0 2 3 4
.d 3 0 
	pop_a_jsr 1 s29
.o 1 0 
	create 
	push_a2 2 3
	buildh0_dup2_a _Nil 5
.d 3 0 
	pop_a_jsr 1 s29
.o 1 0 
	push2_b 1
	fill_r e_Data.IntMap.Base_kBin 2 2 4 0 0
.d 1 0 
	pop_ab_rtn 4 4
case.2
	pop_b 1
	repl_r_args 1 1
	push_a2 0 1
	build e_system_dAP 2 e_system_nAP
	push_b 0
	fill_r e_Data.IntMap.Base_kTip 1 1 3 0 0
.d 1 0 
	pop_ab_rtn 3 2
case.3
	pop_b 1
	fillh e_Data.IntMap.Base_dNil 0 2
.d 1 0 
	pop_a_rtn 2
.o 3 0 
s58.2
	pushD_a 0
	jmpD eb e_Data.IntMap.Base_kTip 0 case.5 case.6
case.4
	pop_b 1
	repl_r_args 2 2
	create 
	push2_a 3
	updates3_a 0 2 3 4
.d 3 0 
	pop_a_jsr 1 s29
.o 1 0 
	create 
	push_a2 2 3
	buildh0_dup2_a _Nil 5
.d 3 0 
	pop_a_jsr 1 s29
.o 1 0 
	push2_b 1
	fill_r e_Data.IntMap.Base_kBin 2 2 4 0 0
.d 1 0 
	pop_ab_rtn 4 4
case.5
	pop_b 1
	repl_r_args 1 1
	push_a2 0 1
	build e_system_dAP 2 e_system_nAP
	push_b 0
	fill_r e_Data.IntMap.Base_kTip 1 1 3 0 0
.d 1 0 
	pop_ab_rtn 3 2
case.6
	pop_b 1
	fillh e_Data.IntMap.Base_dNil 0 2
.d 1 0 
	pop_a_rtn 2
.export e_Data.IntMap.Base_slookup
.export e_Data.IntMap.Base_ealookup
.descexp e_Data.IntMap.Base_dlookup e_Data.IntMap.Base_nlookup e_Data.IntMap.Base_llookup 2 0 "lookup"
.a 2 e_Data.IntMap.Base_ealookup
.o 2 0 
e_Data.IntMap.Base_llookup
	push_args 0 1 1
	update_a 2 1
	create 
.d 3 0 
	put_a_jmp 3 e_Data.IntMap.Base_ealookup
.n 2 e_Data.IntMap.Base_dlookup e_Data.IntMap.Base_ealookup
.o 1 0 
e_Data.IntMap.Base_nlookup
	push_node _cycle_in_spine 2
.o 3 0 
e_Data.IntMap.Base_ealookup
	jsr_eval 1
	jsr_eval 0
	pushI0_pop_a1 
.o 2 1 i
e_Data.IntMap.Base_slookup
.o 2 1 i
s14
	pushD_a 0
	jmpD eb e_Data.IntMap.Base_kTip 0 case.8 case.9
case.7
	pop_b 1
	repl_r_args 2 2
	push_b2 0 2
	update_b 3 2
.d 0 3 iii
	jsr s3
.o 0 1 b
	jmp_false else.10
	fillh _Nothing 0 2
.d 1 0 
	pop_ab_rtn 2 2
else.10
.d 0 2 ii
	push_b_jsr 1 s31
.o 0 1 b
	jmp_false else.11
.d 2 1 i
	put_a_jmp 1 s14
else.11
.d 2 1 i
	pop_a_jmp 1 s14
case.8
	pop_b 1
	repl_r_args 1 1
	push_b2 0 1
	jmp_neI else.12
	jsr_eval 0
	push_a 0
	fillh _Just 1 2
.d 1 0 
	pop_ab_rtn 1 2
else.12
	fillh _Nothing 0 1
.d 1 0 
	pop_ab_rtn 1 2
case.9
	pop_b 1
	fillh _Nothing 0 1
.d 1 0 
	pop_ab_rtn 1 1
.export e_Data.IntMap.Base_smaxViewWithKey
.export e_Data.IntMap.Base_eamaxViewWithKey
.descexp e_Data.IntMap.Base_dmaxViewWithKey e_Data.IntMap.Base_nmaxViewWithKey e_Data.IntMap.Base_lmaxViewWithKey 1 0 "maxViewWithKey"
.o 2 0 
e_Data.IntMap.Base_lmaxViewWithKey
	update_a 1 0
	create 
.d 2 0 
	put_a_jmp 2 e_Data.IntMap.Base_eamaxViewWithKey
.n 1 e_Data.IntMap.Base_dmaxViewWithKey e_Data.IntMap.Base_eamaxViewWithKey
.o 1 0 
e_Data.IntMap.Base_nmaxViewWithKey
	push_node _cycle_in_spine 1
.o 2 0 
e_Data.IntMap.Base_eamaxViewWithKey
	jsr_eval 0
.o 2 0 
e_Data.IntMap.Base_smaxViewWithKey
.o 2 0 
s13
s55
	pushD_a 0
	jmpD ba e_Data.IntMap.Base_kTip 0 case.13 case.14
	pop_b_jmp 1 case.15
case.13
	pop_b 1
	fillh _Nothing 0 1
.d 1 0 
	pop_a_rtn 1
case.14
	pop_b 1
	push_r_args 0 2 2
	pushI 0
	jmp_o_geI 2 else.16
	buildo1 e_Data.IntMap.Base_ngo;42.43 0
	buildo1 n_S.2 0
	push_a 3
	buildI_b 1
	buildI_b 0
	exchange_a 3 2
	build e_Data.IntMap.Base_dbin 4 e_Data.IntMap.Base_nbin
	buildo1 n_S.1 1
	buildh _Tuple 2
	fillh _Just 1 5
.d 1 0 
	pop_ab_rtn 4 2
else.16
	pop_b 2
	pop_a_jmp 2 case.15
case.15
.d 1 0 
	jsr s43
.o 2 0 
	buildh _Tuple 2
	fillh _Just 1 1
.d 1 0 
	rtn 
.export e_Data.IntMap.Base_dgo;42.43
.export e_Data.IntMap.Base_ngo;42.43
.descn e_Data.IntMap.Base_dgo;42.43 e_Data.IntMap.Base_ngo;42.43 1 0 "go;42.43"
.n 1 e_Data.IntMap.Base_dgo;42.43
.o 1 0 
e_Data.IntMap.Base_ngo;42.43
	push_node _cycle_in_spine 1
.d 1 0 
	jsr ea43
.o 2 0 
	fillh _Tuple 2 2
.d 1 0 
	rtn 
.o 1 0 
ea43
.o 1 0 
s43
	pushD_a 0
	jmpD eb e_Data.IntMap.Base_kTip 0 case.18 case.19
case.17
	pop_b 1
	repl_r_args 2 2
	swap_a1 
.d 1 0 
	jsr s43
.o 2 0 
.d 3 2 ii
	jmp s54
case.18
	pop_b 1
	repl_r_args 1 1
	buildh e_Data.IntMap.Base_dNil 0
	push_a 1
	buildI_b 0
	buildh _Tuple 2
	update2pop_a 0 1
.d 2 0 
	pop_b_rtn 1
case.19
	pop_b 1
	buildAC "maxViewWithKey Nil\n"
	put_a 1
.d 1 0 
	jsr print_string_
.o 0 0 
	halt
	repl_args 2 2
.d 2 0 
	rtn 
.o 3 2 ii
s54
	push_a2 1 2
	buildI_b 1
	buildI_b 0
	build e_Data.IntMap.Base_dbin 4 e_Data.IntMap.Base_nbin
	dup_a 3
	updatepop_a 1 2
.d 2 0 
	pop_b_rtn 2
.export e_Data.IntMap.Base_sminViewWithKey
.export e_Data.IntMap.Base_eaminViewWithKey
.descexp e_Data.IntMap.Base_dminViewWithKey e_Data.IntMap.Base_nminViewWithKey e_Data.IntMap.Base_lminViewWithKey 1 0 "minViewWithKey"
.o 2 0 
e_Data.IntMap.Base_lminViewWithKey
	update_a 1 0
	create 
.d 2 0 
	put_a_jmp 2 e_Data.IntMap.Base_eaminViewWithKey
.n 1 e_Data.IntMap.Base_dminViewWithKey e_Data.IntMap.Base_eaminViewWithKey
.o 1 0 
e_Data.IntMap.Base_nminViewWithKey
	push_node _cycle_in_spine 1
.o 2 0 
e_Data.IntMap.Base_eaminViewWithKey
	jsr_eval 0
.o 2 0 
e_Data.IntMap.Base_sminViewWithKey
.o 2 0 
s12
s53
	pushD_a 0
	jmpD ba e_Data.IntMap.Base_kTip 0 case.20 case.21
	pop_b_jmp 1 case.22
case.20
	pop_b 1
	fillh _Nothing 0 1
.d 1 0 
	pop_a_rtn 1
case.21
	pop_b 1
	push_r_args 0 2 2
	pushI 0
	jmp_o_geI 2 else.23
	buildo1 e_Data.IntMap.Base_ngo;43.44 1
	buildo1 n_S.2 0
	push_a 2
	buildI_b 1
	buildI_b 0
	build e_Data.IntMap.Base_dbin 4 e_Data.IntMap.Base_nbin
	buildo1 n_S.1 1
	buildh _Tuple 2
	fillh _Just 1 5
.d 1 0 
	pop_ab_rtn 4 2
else.23
	pop_b 2
	pop_a_jmp 2 case.22
case.22
.d 1 0 
	jsr s44
.o 2 0 
	buildh _Tuple 2
	fillh _Just 1 1
.d 1 0 
	rtn 
.export e_Data.IntMap.Base_dgo;43.44
.export e_Data.IntMap.Base_ngo;43.44
.descn e_Data.IntMap.Base_dgo;43.44 e_Data.IntMap.Base_ngo;43.44 1 0 "go;43.44"
.n 1 e_Data.IntMap.Base_dgo;43.44
.o 1 0 
e_Data.IntMap.Base_ngo;43.44
	push_node _cycle_in_spine 1
.d 1 0 
	jsr ea44
.o 2 0 
	fillh _Tuple 2 2
.d 1 0 
	rtn 
.o 1 0 
ea44
	jsr_eval 0
.o 1 0 
s44
	pushD_a 0
	jmpD eb e_Data.IntMap.Base_kTip 0 case.25 case.26
case.24
	pop_b 1
	repl_r_args 2 2
	buildo1 e_Data.IntMap.Base_ngo;43.44 0
	buildo1 n_S.2 0
	push_a 3
	buildI_b 1
	buildI_b 0
	exchange_a 3 2
	build e_Data.IntMap.Base_dbin 4 e_Data.IntMap.Base_nbin
	buildo1 n_S.1 1
	update2pop_a 0 3
.d 2 0 
	pop_b_rtn 2
case.25
	pop_b 1
	repl_r_args 1 1
	buildh e_Data.IntMap.Base_dNil 0
	push_a 1
	buildI_b 0
	buildh _Tuple 2
	update2pop_a 0 1
.d 2 0 
	pop_b_rtn 1
case.26
	pop_b 1
	buildAC "minViewWithKey Nil\n"
	put_a 1
.d 1 0 
	jsr print_string_
.o 0 0 
	halt
	repl_args 2 2
.d 2 0 
	rtn 
.export e_Data.IntMap.Base_sunions
.export e_Data.IntMap.Base_eaunions
.descexp e_Data.IntMap.Base_dunions e_Data.IntMap.Base_nunions e_Data.IntMap.Base_lunions 1 0 "unions"
.o 2 0 
e_Data.IntMap.Base_lunions
	update_a 1 0
	create 
.d 2 0 
	put_a_jmp 2 e_Data.IntMap.Base_eaunions
.n 1 e_Data.IntMap.Base_dunions e_Data.IntMap.Base_eaunions
.o 1 0 
e_Data.IntMap.Base_nunions
	push_node _cycle_in_spine 1
.o 2 0 
e_Data.IntMap.Base_eaunions
	jsr_eval 0
.o 2 0 
e_Data.IntMap.Base_sunions
.o 2 0 
s8
	create 
.d 1 0 
	jsr s4
.o 1 0 
s51
	jmp_ne_desc _Nil 0 1 case.28
	fill_a 0 2
.d 1 0 
	pop_a_rtn 2
case.28
	push_args 1 2 2
	buildh _Nil 0
	updates2_a 2 0 4
	jsr_eval 0
	push_jsr_eval 1
	create 
	push_a2 5 1
	updates2_a_pop_a 0 2 3 1
	buildh0_dup3_a _Nil 5
.d 3 0 
	pop_a_jsr 1 s7
.o 1 0 
	update2pop_a 0 4
.d 3 0 
	jmp s51
.export e_Data.IntMap.Base_sunion
.export e_Data.IntMap.Base_eaunion
.descexp e_Data.IntMap.Base_dunion e_Data.IntMap.Base_nunion e_Data.IntMap.Base_lunion 2 0 "union"
.a 2 e_Data.IntMap.Base_eaunion
.o 2 0 
e_Data.IntMap.Base_lunion
	push_args 0 1 1
	update_a 2 1
	create 
.d 3 0 
	put_a_jmp 3 e_Data.IntMap.Base_eaunion
.n 2 e_Data.IntMap.Base_dunion e_Data.IntMap.Base_eaunion
.o 1 0 
e_Data.IntMap.Base_nunion
	push_node _cycle_in_spine 2
.o 3 0 
e_Data.IntMap.Base_eaunion
	jsr_eval 1
	jsr_eval 0
.o 3 0 
e_Data.IntMap.Base_sunion
.o 3 0 
s7
	buildh e_StdFunctions_did 0
	buildh e_StdFunctions_did 0
	buildh e_StdFunctions_dconst 0
	buildh e_Data.IntMap.Base_dBin 0
s28
	push_update_a 1 2
	updates3pop_a 0 1 4 3
.d 7 0 
	jmp s41
.o 9 3 iii
s38
	push3_b 2
.d 0 3 iii
	jsr s3
.o 0 1 b
	jmp_false else.29
	push_jsr_eval 3
	updates3_a 3 7 8 6
	updatepop_a 0 5
	jsr_ap 1
	push_jsr_eval 1
	push_update_a 0 3
	buildh0_dup2_a _Nil 4
	pop_a 1
	jsr_ap 1
	buildI_b 1
	buildI_b 0
	update_a 3 5
	update_a 1 4
	updates2pop_a 0 2 3
.d 5 0 
	pop_b_jmp 3 s42
else.29
	push_b 0
	update_b 3 1
.d 0 2 ii
	jsr s31
.o 0 1 b
	jmp_false else.30
	push_a2 5 3
	build e_system_dAP 2 e_system_nAP
	push_a2 5 7
	push_a 4
	push2_a 7
	push_a 6
	build e_Data.IntMap.Base_dgo;40.41 6 e_Data.IntMap.Base_ngo;40.41
	buildI_b 1
	push_jsr_eval 4
	buildI_b 0
	update3_a 2 10
	dup_a 9
	updatepop_a 1 8
	pop_b 2
	jsr_ap 4
.d 1 0 
	fill_a01_pop_rtn 
else.30
	push_a2 5 6
	push_a 3
	push2_a 6
	push_a 5
	build e_Data.IntMap.Base_dgo;40.41 6 e_Data.IntMap.Base_ngo;40.41
	push2_a 5
	build e_system_dAP 2 e_system_nAP
	buildI_b 1
	push_jsr_eval 4
	buildI_b 0
	update3_a 2 10
	dup_a 9
	updatepop_a 1 8
	pop_b 2
	jsr_ap 4
.d 1 0 
	fill_a01_pop_rtn 
.o 9 3 iii
s37
	push3_b 2
.d 0 3 iii
	jsr s3
.o 0 1 b
	jmp_false else.31
	push_jsr_eval 3
	updates3_a 3 7 8 6
	updatepop_a 0 5
	jsr_ap 1
	push_jsr_eval 1
	push_update_a 0 3
	buildh0_dup2_a _Nil 4
	pop_a 1
	jsr_ap 1
	buildI_b 0
	buildI_b 1
	update_a 3 5
	update_a 1 4
	updates2pop_a 0 2 3
.d 5 0 
	pop_b_jmp 3 s42
else.31
	push_b 0
	update_b 3 1
.d 0 2 ii
	jsr s31
.o 0 1 b
	jmp_false else.32
	push_a2 5 2
	build e_system_dAP 2 e_system_nAP
	push_a2 8 5
	push_a 4
	push2_a 7
	push_a 6
	build e_Data.IntMap.Base_dgo;40.41 6 e_Data.IntMap.Base_ngo;40.41
	buildI_b 1
	push_jsr_eval 4
	buildI_b 0
	update3_a 2 10
	dup_a 9
	updatepop_a 1 8
	pop_b 2
	jsr_ap 4
.d 1 0 
	fill_a01_pop_rtn 
else.32
	push_a2 7 5
	push_a 3
	push2_a 6
	push_a 5
	build e_Data.IntMap.Base_dgo;40.41 6 e_Data.IntMap.Base_ngo;40.41
	push_a2 5 3
	build e_system_dAP 2 e_system_nAP
	buildI_b 1
	push_jsr_eval 4
	buildI_b 0
	update3_a 2 10
	dup_a 9
	updatepop_a 1 8
	pop_b 2
	jsr_ap 4
.d 1 0 
	fill_a01_pop_rtn 
.export e_Data.IntMap.Base_dgo;40.41
.export e_Data.IntMap.Base_ngo;40.41
.descn e_Data.IntMap.Base_dgo;40.41 e_Data.IntMap.Base_ngo;40.41 6 0 "go;40.41"
.n 6 e_Data.IntMap.Base_dgo;40.41 ea41
.o 1 0 
e_Data.IntMap.Base_ngo;40.41
	push_node _cycle_in_spine 6
.o 7 0 
ea41
	jsr_eval 4
.o 7 0 
s41
	pushD_a 4
	jmpD eb e_Data.IntMap.Base_kTip 0 case.34 case.35
case.33
	pop_b 1
	push_r_args 4 2 2
	jsr_eval 7
	pushD_a 7
	jmpD eb e_Data.IntMap.Base_kTip 0 case.37 case.38
case.36
	pop_b 1
	push_r_args 7 2 2
	push_b2 1 3
.d 0 2 ii
	jsr s10
.o 0 1 b
	jmp_false else.39
	put_b 1
	push_update_a 4 5
	updates3_a 0 3 7 6
	exchange_a 8 4
.d 9 3 iii
	pop_a_jmp 3 s37
else.39
	push_b2 3 1
.d 0 2 ii
	jsr s10
.o 0 1 b
	jmp_false else.40
	updates3_b 0 2 1 3
	pop_b 1
	updates2_a 1 7 3
	updates4_a 0 6 5 4 2
.d 9 3 iii
	pop_a_jmp 2 s38
else.40
	push_b2 0 2
	jmp_neI else.41
	push_a2 1 3
	push3_a 9
	push_a 9
	build e_Data.IntMap.Base_dgo;40.41 6 e_Data.IntMap.Base_ngo;40.41
	push_a2 1 3
	push3_a 10
	push_a 10
	build e_Data.IntMap.Base_dgo;40.41 6 e_Data.IntMap.Base_ngo;40.41
	buildI_b 3
	push_jsr_eval 10
	buildI_b 2
	update3_a 2 12
	dup_a 11
	updatepop_a 1 10
	pop_b 4
	jsr_ap 4
.d 1 0 
	fill_a01_pop_rtn 
else.41
	push_jsr_eval 6
	updates3_a 6 9 10 8
	updatepop_a 0 7
	jsr_ap 1
	push_jsr_eval 1
	push_update_a 0 3
	buildh0_dup2_a _Nil 4
	pop_a 1
	jsr_ap 1
	buildI_b 0
	buildI_b 2
	update_a 3 5
	update_a 1 4
	updates2pop_a 0 2 3
.d 5 0 
	pop_b_jmp 4 s42
case.37
	pop_b 1
	push_r_args 7 1 1
	update_a 7 0
	buildI_b 0
	dup_a 8
	updates4_a 1 9 7 4 3
	pop_b 3
.d 8 0 
	pop_a_jmp 3 s39
case.38
	pop_b 1
	push_jsr_eval 3
	updates2pop_a 0 7 8
	pop_b 2
	jsr_ap 1
.d 1 0 
	fill_a01_pop_rtn 
case.34
	pop_b 1
	push_r_args 4 1 1
	update_a 6 0
	jsr_eval 0
	buildI_b 0
	updates4_a 6 5 2 1 7
	put_a 6
.d 8 0 
	pop_b_jmp 1 s40
case.35
	pop_b 1
	push_jsr_eval 2
	updatepop_a 0 5
	jsr_ap 1
.d 1 0 
	fill_a01_pop_rtn 
.export e_Data.IntMap.Base_dmerge;39.40
.export e_Data.IntMap.Base_nmerge;39.40
.descn e_Data.IntMap.Base_dmerge;39.40 e_Data.IntMap.Base_nmerge;39.40 7 0 "merge;39.40"
.n 7 e_Data.IntMap.Base_dmerge;39.40 ea40
.o 1 0 
e_Data.IntMap.Base_nmerge;39.40
	push_node _cycle_in_spine 7
.o 8 0 
ea40
	jsr_eval 6
.o 8 0 
s40
	pushD_a 6
	jmpD eb e_Data.IntMap.Base_kTip 0 case.43 case.44
case.42
	pop_b 1
	push_r_args 6 2 2
	push_jsr_eval 7
	pushI_a 8
	pop_a 1
	push2_b 1
	update_b 4 2
.d 0 3 iii
	jsr s3
.o 0 1 b
	jmp_false else.45
	push_jsr_eval 5
	updates2_a 9 5 6
	updatepop_a 0 4
	buildh0_put_a _Nil 6
	jsr_ap 1
	push_jsr_eval 1
	push_update_a 0 3
	buildh0_dup2_a _Nil 4
	pop_a 1
	jsr_ap 1
	buildI_b 0
	update_a 2 6
	update_a 1 4
	updates2_a 0 5 3
	pop_b 2
.d 5 0 
	pop_a_jmp 3 s42
else.45
	push_b 1
	pushI_a 7
.d 0 2 ii
	jsr s31
.o 0 1 b
	jmp_false else.46
	push_a2 1 5
	build e_system_dAP 2 e_system_nAP
	push_a 1
	push3_a 9
	push3_a 9
	build e_Data.IntMap.Base_dmerge;39.40 7 e_Data.IntMap.Base_nmerge;39.40
	buildI_b 1
	push_jsr_eval 6
	buildI_b 0
	update3_a 2 11
	dup_a 10
	updatepop_a 1 9
	pop_b 2
	jsr_ap 4
.d 1 0 
	fill_a01_pop_rtn 
else.46
	push_a 1
	push3_a 8
	push3_a 8
	build e_Data.IntMap.Base_dmerge;39.40 7 e_Data.IntMap.Base_nmerge;39.40
	push_a2 1 6
	build e_system_dAP 2 e_system_nAP
	buildI_b 1
	push_jsr_eval 6
	buildI_b 0
	update3_a 2 11
	dup_a 10
	updatepop_a 1 9
	pop_b 2
	jsr_ap 4
.d 1 0 
	fill_a01_pop_rtn 
case.43
	pop_b 1
	push_r_args 6 1 1
	update_a 6 0
	jsr_eval 0
	pushI_a 6
	pop_a 1
	push_b 0
	update_b 2 1
	jmp_neI else.47
	push_a2 6 0
	jsr_eval 0
	update_a 1 8
	updates2pop_a 0 6 7
	pop_b 1
	jsr_ap 2
.d 1 0 
	fill_a01_pop_rtn 
else.47
	push_jsr_eval 3
	updates2_a 7 3 4
	updatepop_a 0 2
	buildh0_put_a _Nil 6
	jsr_ap 1
	push_jsr_eval 1
	push_update_a 0 3
	buildh0_dup2_a _Nil 4
	pop_a 1
	jsr_ap 1
	buildI_b 0
	update_a 2 6
	update_a 1 4
	updates2_a 0 5 3
	pop_b 1
.d 5 0 
	pop_a_jmp 3 s42
case.44
	pop_b 1
	push_jsr_eval 2
	update_a 5 7
	updatepop_a 0 6
	jsr_ap 1
.d 1 0 
	fill_a01_pop_rtn 
.export e_Data.IntMap.Base_dmerge;38.39
.export e_Data.IntMap.Base_nmerge;38.39
.descn e_Data.IntMap.Base_dmerge;38.39 e_Data.IntMap.Base_nmerge;38.39 7 0 "merge;38.39"
.n 7 e_Data.IntMap.Base_dmerge;38.39 ea39
.o 1 0 
e_Data.IntMap.Base_nmerge;38.39
	push_node _cycle_in_spine 7
.o 8 0 
ea39
	jsr_eval 6
.o 8 0 
s39
	pushD_a 6
	jmpD eb e_Data.IntMap.Base_kTip 0 case.49 case.50
case.48
	pop_b 1
	push_r_args 6 2 2
	push_jsr_eval 7
	pushI_a 8
	pop_a 1
	push2_b 1
	update_b 4 2
.d 0 3 iii
	jsr s3
.o 0 1 b
	jmp_false else.51
	push_jsr_eval 5
	updates3pop_a 0 5 7 6
	jsr_ap 1
	push_jsr_eval 1
	push_update_a 0 4
	buildh0_dup_a _Nil 6
	put_a 4
	jsr_ap 1
	push_a 3
	buildI_b 0
	update_a 3 6
	update_a 1 5
	update_a 2 4
	updatepop_a 0 3
.d 5 0 
	pop_b_jmp 2 s42
else.51
	push_b 1
	pushI_a 7
.d 0 2 ii
	jsr s31
.o 0 1 b
	jmp_false else.52
	push_a2 1 4
	build e_system_dAP 2 e_system_nAP
	push_a 1
	push3_a 9
	push3_a 9
	build e_Data.IntMap.Base_dmerge;38.39 7 e_Data.IntMap.Base_nmerge;38.39
	buildI_b 1
	push_jsr_eval 6
	buildI_b 0
	update3_a 2 11
	dup_a 10
	updatepop_a 1 9
	pop_b 2
	jsr_ap 4
.d 1 0 
	fill_a01_pop_rtn 
else.52
	push_a 1
	push3_a 8
	push3_a 8
	build e_Data.IntMap.Base_dmerge;38.39 7 e_Data.IntMap.Base_nmerge;38.39
	push_a2 1 5
	build e_system_dAP 2 e_system_nAP
	buildI_b 1
	push_jsr_eval 6
	buildI_b 0
	update3_a 2 11
	dup_a 10
	updatepop_a 1 9
	pop_b 2
	jsr_ap 4
.d 1 0 
	fill_a01_pop_rtn 
case.49
	pop_b 1
	push_r_args 6 1 1
	update_a 6 0
	jsr_eval 0
	pushI_a 6
	pop_a 1
	push_b 1
	jmp_neI else.53
	push_a2 4 0
	jsr_eval 0
	updates2_a 1 8 7
	updatepop_a 0 6
	pop_b 1
	jsr_ap 2
.d 1 0 
	fill_a01_pop_rtn 
else.53
	push_jsr_eval 3
	updates3pop_a 0 3 5 4
	jsr_ap 1
	push_jsr_eval 1
	push_update_a 0 4
	buildh0_dup_a _Nil 6
	put_a 4
	jsr_ap 1
	push_a 3
	buildI_b 0
	update_a 3 6
	update_a 1 5
	update_a 2 4
	updatepop_a 0 3
.d 5 0 
	pop_b_jmp 1 s42
case.50
	pop_b 1
	push_jsr_eval 3
	update_a 5 7
	updatepop_a 0 6
	jsr_ap 1
.d 1 0 
	fill_a01_pop_rtn 
.o 5 0 
s42
	jmp_ne_desc e_Data.IntMap.Base_dNil 0 1 case.55
	fill_a 3 4
.d 1 0 
	pop_a_rtn 4
case.55
	jmp_ne_desc e_Data.IntMap.Base_dNil 0 3 case.57
	fill_a 1 4
.d 1 0 
	pop_a_rtn 4
case.57
	push_jsr_eval 2
	pushI_a 3
	pop_a 1
	jsr_eval 0
	pushI_a 0
	updatepop_a 1 2
.d 3 2 ii
	jmp s30
.export e_Data.IntMap.Base_sfromDistinctAscList
.export e_Data.IntMap.Base_eafromDistinctAscList
.descexp e_Data.IntMap.Base_dfromDistinctAscList e_Data.IntMap.Base_nfromDistinctAscList e_Data.IntMap.Base_lfromDistinctAscList 1 0 "fromDistinctAscList"
.o 2 0 
e_Data.IntMap.Base_lfromDistinctAscList
	update_a 1 0
	create 
.d 2 0 
	put_a_jmp 2 e_Data.IntMap.Base_eafromDistinctAscList
.n 1 e_Data.IntMap.Base_dfromDistinctAscList e_Data.IntMap.Base_eafromDistinctAscList
.o 1 0 
e_Data.IntMap.Base_nfromDistinctAscList
	push_node _cycle_in_spine 1
.o 2 0 
e_Data.IntMap.Base_eafromDistinctAscList
	jsr_eval 0
.o 2 0 
e_Data.IntMap.Base_sfromDistinctAscList
.o 2 0 
s6
	jmp_ne_desc _Nil 0 0 case.59
	fillh e_Data.IntMap.Base_dNil 0 1
.d 1 0 
	pop_a_rtn 1
case.59
	repl_args 2 2
	buildh e_Data.IntMap.Base_dNada 0
	push_jsr_eval 2
	push_jsr_eval 2
	repl_args 2 2
	jsr_eval 1
	jsr_eval 0
	pushI_a 0
	update3pop_a 1 3
.d 4 1 i
	jmp s46
.o 5 3 iii
s47
	jmp_ne_desc e_Data.IntMap.Base_dNada 0 3 case.61
	buildh e_Data.IntMap.Base_dNada 0
	push_ab 3 2
	buildhr e_Data.IntMap.Base_kPush 2 1
	dup_a 4
	update2pop_a 1 2
	updatepop_b 0 2
.d 4 1 i
	jmp s46
case.61
	push_r_args 3 2 1
.d 0 2 ii
	push_b_jsr 3 s11
.o 0 1 i
	push_b2 0 2
.d 0 2 ii
	jsr s10
.o 0 1 b
	jmp_false else.62
	push_b2 0 3
.d 0 2 ii
	buildh0_put_a_jsr _Nil 6 s9
.o 0 1 i
	push_a2 4 0
	push2_b 1
	buildhr e_Data.IntMap.Base_kBin 2 2
	update_a 2 6
	dup_a 5
	pop_a 3
	update_b 0 4
.d 5 3 iii
	pop_b_jmp 2 s47
else.62
	push2_a 5
	push_b 3
	buildhr e_Data.IntMap.Base_kPush 2 1
	dup_a 6
	update2pop_a 3 4
	updatepop_b 1 3
s46
	jmp_ne_desc _Nil 0 1 case.64
	push_ab 0 0
	buildhr e_Data.IntMap.Base_kTip 1 1
	updatepop_a 0 2
.d 3 1 i
	jmp s48
case.64
	push_args 1 2 2
	buildh0_put_a _Nil 4
	jsr_eval 0
	push_arg 0 2 1
	push_ab 3 0
	buildhr e_Data.IntMap.Base_kTip 1 1
	push_jsr_eval 1
	pushI_a 2
	pop_a 1
	push_b 1
	buildh0_dup_a _Nil 5
	put_a 2
.d 0 2 ii
	jsr s11
.o 0 1 i
	push_jsr_eval 3
	push_args 3 2 2
	jsr_eval 1
	jsr_eval 0
	pushI_a 0
	update3pop_a 1 6
.d 5 3 iii
	jmp s47
.export e_Data.IntMap.Base_sshorter
.descexp e_Data.IntMap.Base_dshorter e_Data.IntMap.Base_nshorter e_Data.IntMap.Base_lshorter 2 0 "shorter"
.a 0 a10
.o 2 0 
e_Data.IntMap.Base_lshorter
	repl_args 1 1
.o 2 0 
a10
.d 2 0 
	jsr ea10
.o 0 1 b
	buildB_b 0
.d 1 0 
	pop_b_rtn 1
.n 2 e_Data.IntMap.Base_dshorter
.o 1 0 
e_Data.IntMap.Base_nshorter
	push_node _cycle_in_spine 2
.d 2 0 
	jsr ea10
.o 0 1 b
	fillB_b 0 0
.d 1 0 
	pop_b_rtn 1
.o 2 0 
ea10
	jsr_eval 1
	jsr_eval 0
	pushI_a 1
	pushI_a 0
	pop_a 2
.o 0 2 ii
e_Data.IntMap.Base_sshorter
.o 0 2 ii
s10
.d 0 0 
	jsr s34
.o 0 1 i
	push_b 1
	xor%
.d 0 0 
	jsr s34
.o 0 1 i
	push_b 3
	xor%
	update2pop_b 0 2
	ltI
.d 0 1 b
	rtn 
.o 3 1 i
s48
	jmp_ne_desc e_Data.IntMap.Base_dNada 0 1 case.66
	pop_b 1
	fill_a 0 2
.d 1 0 
	pop_a_rtn 2
case.66
	push_r_args 1 2 1
	buildh0_put_a _Nil 4
	create 
	updates3_a 0 3 2 4
	pop_a 1
	push2_b 1
.d 3 2 ii
	jsr s30
.o 1 0 
.d 0 2 ii
	push_b_jsr 1 s11
.o 0 1 i
	swap_b1 
.d 0 2 ii
	jsr s9
.o 0 1 i
.d 3 1 i
	jmp s48
.o 3 2 ii
s30
	push2_b 1
.d 0 2 ii
	jsr s11
.o 0 1 i
	push_b2 0 1
.d 0 2 ii
	jsr s31
.o 0 1 b
	jmp_false else.67
	push_b2 0 1
.d 0 2 ii
	jsr s9
.o 0 1 i
	push2_a 1
	push_b 0
	update_b 2 1
	fill_r e_Data.IntMap.Base_kBin 2 2 4 0 0
.d 1 0 
	pop_ab_rtn 4 5
else.67
	push_b2 0 1
.d 0 2 ii
	jsr s9
.o 0 1 i
	push_a2 0 1
	push_b 0
	update_b 2 1
	fill_r e_Data.IntMap.Base_kBin 2 2 4 0 0
.d 1 0 
	pop_ab_rtn 4 5
.export e_Data.IntMap.Base_sbranchMask
.descexp e_Data.IntMap.Base_dbranchMask e_Data.IntMap.Base_nbranchMask e_Data.IntMap.Base_lbranchMask 2 0 "branchMask"
.a 0 a11
.o 2 0 
e_Data.IntMap.Base_lbranchMask
	repl_args 1 1
.o 2 0 
a11
.d 2 0 
	jsr ea11
.o 0 1 i
	buildI_b 0
.d 1 0 
	pop_b_rtn 1
.n 2 e_Data.IntMap.Base_dbranchMask
.o 1 0 
e_Data.IntMap.Base_nbranchMask
	push_node _cycle_in_spine 2
.d 2 0 
	jsr ea11
.o 0 1 i
	fillI_b 0 0
.d 1 0 
	pop_b_rtn 1
.o 2 0 
ea11
	jsr_eval 1
	jsr_eval 0
	pushI_a 1
	pushI_a 0
	pop_a 2
.o 0 2 ii
e_Data.IntMap.Base_sbranchMask
.o 0 2 ii
s11
	push2_b 1
	xor%
	updatepop_b 0 2
s33
	pushI 1
	push_b 1
	shiftr%
	or%
	pushI 2
	push_b 1
	shiftr%
	or%
	pushI 4
	push_b 1
	shiftr%
	or%
	pushI 8
	push_b 1
	shiftr%
	or%
	pushI 16
	push_b 1
	shiftr%
	or%
	pushI 32
	push_b 1
	shiftr%
	or%
	pushI 1
	push_b 1
	shiftr%
.d 0 0 
	jsr s35
.o 0 1 i
	and%
	swap_b1 
	xor%
.d 0 1 i
	rtn 
.o 0 0 
s35
	testcaf vallExceptSignBit
	jmp_false m.68
	pushcaf vallExceptSignBit 0 1
.d 0 1 i
	rtn 
.caf vallExceptSignBit 0 1
m.68
.d 0 0 
	jsr s35.1
.o 0 1 i
	fillcaf vallExceptSignBit 0 1
.d 0 1 i
	rtn 
.o 0 0 
s35.1
.d 0 0 
	jsr s34
.o 0 1 i
	not%
.d 0 1 i
	rtn 
.o 0 0 
s34
	testcaf vsignBitOnly
	jmp_false m.69
	pushcaf vsignBitOnly 0 1
.d 0 1 i
	rtn 
.caf vsignBitOnly 0 1
m.69
.d 0 0 
	jsr s34.1
.o 0 1 i
	fillcaf vsignBitOnly 0 1
.d 0 1 i
	rtn 
.o 0 0 
s34.1
	pushI 2
	negI
	pushI 63
	swap_b1 
.d 0 2 ii
	jmp e_StdInt_s^;12
.o 0 2 ii
s31
	push2_b 1
	and%
	pushI 0
	update_b 0 3
	updatepop_b 1 2
	eqI
.d 0 1 b
	rtn 
.export e_Data.IntMap.Base_sfoldrWithKey
.descexp e_Data.IntMap.Base_dfoldrWithKey e_Data.IntMap.Base_nfoldrWithKey e_Data.IntMap.Base_lfoldrWithKey 3 0 "foldrWithKey"
.a 0 ea5
.o 2 0 
e_Data.IntMap.Base_lfoldrWithKey
	repl_args 2 2
.d 3 0 
	jmp ea5
.n 3 e_Data.IntMap.Base_dfoldrWithKey _
.o 1 0 
e_Data.IntMap.Base_nfoldrWithKey
	push_node _cycle_in_spine 3
.d 3 0 
	jsr ea5
.o 1 0 
.d 1 0 
	fill_a01_pop_rtn 
.o 3 0 
ea5
	jsr_eval 2
.o 3 0 
e_Data.IntMap.Base_sfoldrWithKey
.o 3 0 
s5
	push_a 2
	update3pop_a 0 1
s52
	jmp_ne_desc e_Data.IntMap.Base_kBin 0 0 case.71
	repl_r_args 2 2
	pop_b 1
	pushI 0
	jmp_o_geI 1 else.72
	push_a 0
	push2_a 4
	build e_Data.IntMap.Base_dgo;44.45 3 e_Data.IntMap.Base_ngo;44.45
	updates3_a 0 3 2 4
	pop_b 1
.d 3 0 
	pop_a_jmp 2 s45
else.72
	push_a 1
	push2_a 4
	build e_Data.IntMap.Base_dgo;44.45 3 e_Data.IntMap.Base_ngo;44.45
	update_a 1 4
	updates2_a 0 3 2
	pop_b 1
.d 3 0 
	pop_a_jmp 2 s45
case.71
	push_a 1
	updates3pop_a 0 1 3 2
.d 3 0 
	jmp s45
.export e_Data.IntMap.Base_dgo;44.45
.export e_Data.IntMap.Base_ngo;44.45
.descn e_Data.IntMap.Base_dgo;44.45 e_Data.IntMap.Base_ngo;44.45 3 0 "go;44.45"
.n 3 e_Data.IntMap.Base_dgo;44.45 _
.o 1 0 
e_Data.IntMap.Base_ngo;44.45
	push_node _cycle_in_spine 3
.d 3 0 
	jsr ea45
.o 1 0 
.d 1 0 
	fill_a01_pop_rtn 
.o 3 0 
ea45
	jsr_eval 2
.o 3 0 
s45
	pushD_a 2
	jmpD ea e_Data.IntMap.Base_kTip 0 case.74 case.75
case.73
	pop_b 1
	updatepop_a 1 2
	jmp_eval
case.74
	pop_b 1
	push_r_args 2 1 1
	buildh _Nil 0
	push_a2 1 2
	updates2_a 5 2 6
	jsr_eval 0
	buildI_b 0
	update2_a 2 6
	dup_a 5
	updatepop_a 1 4
	pop_b 1
	jmp_ap 3
case.75
	pop_b 1
	push_r_args 2 2 2
	buildh _Nil 0
	push2_a 4
	updates2_a 4 2 7
	pop_b 2
	build e_Data.IntMap.Base_dgo;44.45 3 e_Data.IntMap.Base_ngo;44.45
	update2_a 0 4
.d 3 0 
	pop_a_jmp 3 s45
.export e_Data.IntMap.Base_sempty
.export e_Data.IntMap.Base_eaempty
.descexp e_Data.IntMap.Base_dempty e_Data.IntMap.Base_nempty e_Data.IntMap.Base_lempty 0 0 "empty"
.o 1 0 
e_Data.IntMap.Base_lempty
	halt
.n 0 e_Data.IntMap.Base_dempty e_Data.IntMap.Base_eaempty
.o 1 0 
e_Data.IntMap.Base_nempty
	push_node _cycle_in_spine 0
.o 1 0 
e_Data.IntMap.Base_eaempty
.o 1 0 
e_Data.IntMap.Base_sempty
.o 1 0 
s4
	fillh e_Data.IntMap.Base_dNil 0 0
.d 1 0 
	rtn 
.export e_Data.IntMap.Base_snomatch
.descexp e_Data.IntMap.Base_dnomatch e_Data.IntMap.Base_nnomatch e_Data.IntMap.Base_lnomatch 3 0 "nomatch"
.a 0 a3
.o 2 0 
e_Data.IntMap.Base_lnomatch
	repl_args 2 2
.o 3 0 
a3
.d 3 0 
	jsr ea3
.o 0 1 b
	buildB_b 0
.d 1 0 
	pop_b_rtn 1
.n 3 e_Data.IntMap.Base_dnomatch
.o 1 0 
e_Data.IntMap.Base_nnomatch
	push_node _cycle_in_spine 3
.d 3 0 
	jsr ea3
.o 0 1 b
	fillB_b 0 0
.d 1 0 
	pop_b_rtn 1
.o 3 0 
ea3
	jsr_eval 2
	jsr_eval 1
	jsr_eval 0
	pushI_a 2
	pushI_a 1
	pushI_a 0
	pop_a 3
.o 0 3 iii
e_Data.IntMap.Base_snomatch
.o 0 3 iii
s3
	push_b 0
	update_b 3 1
.d 0 2 ii
	jsr s9
.o 0 1 i
	push_b 0
	update_b 2 1
	eqI
	updatepop_b 0 2
	notB
.d 0 1 b
	rtn 
.export e_Data.IntMap.Base_smask
.descexp e_Data.IntMap.Base_dmask e_Data.IntMap.Base_nmask e_Data.IntMap.Base_lmask 2 0 "mask"
.a 0 a9
.o 2 0 
e_Data.IntMap.Base_lmask
	repl_args 1 1
.o 2 0 
a9
.d 2 0 
	jsr ea9
.o 0 1 i
	buildI_b 0
.d 1 0 
	pop_b_rtn 1
.n 2 e_Data.IntMap.Base_dmask
.o 1 0 
e_Data.IntMap.Base_nmask
	push_node _cycle_in_spine 2
.d 2 0 
	jsr ea9
.o 0 1 i
	fillI_b 0 0
.d 1 0 
	pop_b_rtn 1
.o 2 0 
ea9
	jsr_eval 1
	jsr_eval 0
	pushI_a 1
	pushI_a 0
	pop_a 2
.o 0 2 ii
e_Data.IntMap.Base_smask
.o 0 2 ii
s9
	push_b 1
	negI
	push_b 0
	update_b 3 1
	xor%
	put_b 2
	and%
.d 0 1 i
	rtn 
.export e_Data.IntMap.Base_sbin
.export e_Data.IntMap.Base_eabin
.descexp e_Data.IntMap.Base_dbin e_Data.IntMap.Base_nbin e_Data.IntMap.Base_lbin 4 0 "bin"
.a 4 e_Data.IntMap.Base_eabin
.o 2 0 
e_Data.IntMap.Base_lbin
	push_args 0 3 3
	update_a 4 3
	create 
.d 5 0 
	put_a_jmp 5 e_Data.IntMap.Base_eabin
.n 4 e_Data.IntMap.Base_dbin e_Data.IntMap.Base_eabin
.o 1 0 
e_Data.IntMap.Base_nbin
	push_node _cycle_in_spine 4
.o 5 0 
e_Data.IntMap.Base_eabin
	jsr_eval 3
	jsr_eval 2
	jsr_eval 1
	jsr_eval 0
	pushI_a 1
	pushI_a 0
	pop_a 2
.o 3 2 ii
e_Data.IntMap.Base_sbin
.o 3 2 ii
s2
	jmp_ne_desc e_Data.IntMap.Base_dNil 0 1 case.77
	pop_b 2
	fill_a 0 2
.d 1 0 
	pop_a_rtn 2
case.77
	jmp_ne_desc e_Data.IntMap.Base_dNil 0 0 case.79
	pop_b 2
	fill_a 1 2
.d 1 0 
	pop_a_rtn 2
case.79
	push2_a 1
	push2_b 1
	fill_r e_Data.IntMap.Base_kBin 2 2 4 0 0
.d 1 0 
	pop_ab_rtn 4 4
.export e_Data.IntMap.Base_sequal
.descexp e_Data.IntMap.Base_dequal e_Data.IntMap.Base_nequal e_Data.IntMap.Base_lequal 3 0 "equal"
.a 0 a1
.o 2 0 
e_Data.IntMap.Base_lequal
	repl_args 2 2
.o 3 0 
a1
.d 3 0 
	jsr ea1
.o 0 1 b
	buildB_b 0
.d 1 0 
	pop_b_rtn 1
.n 3 e_Data.IntMap.Base_dequal
.o 1 0 
e_Data.IntMap.Base_nequal
	push_node _cycle_in_spine 3
.d 3 0 
	jsr ea1
.o 0 1 b
	fillB_b 0 0
.d 1 0 
	pop_b_rtn 1
.o 3 0 
ea1
	jsr_eval 2
	jsr_eval 1
	jsr_eval 0
	repl_r_args 1 0
.o 3 0 
e_Data.IntMap.Base_sequal
.o 3 0 
s1
	pushD_a 1
	jmpD eb e_Data.IntMap.Base_kTip 0 case.81 case.82
case.80
	pop_b 1
	push_r_args 1 2 2
	buildh0_put_a _Nil 4
	jmp_eq_desc e_Data.IntMap.Base_kBin 0 4 case.84
	pop_b 2
	pop_a_jmp 2 case.83
case.84
	push_r_args 4 2 2
	buildh0_put_a _Nil 7
	push_b2 1 3
	jmp_neI else.85
	push_b2 0 2
	jmp_neI else.86
	push_a2 4 2
	updates3_a 0 2 3 4
	pop_b 4
.d 3 0 
	pop_a_jsr 1 s1
.o 0 1 b
	jmp_false else.87
	dup_a 4
	update_a 1 3
.d 3 0 
	pop_a_jmp 2 s1
else.87
	pushB FALSE
.d 0 1 b
	pop_a_rtn 5
else.86
	pop_b_pushB 4 FALSE
.d 0 1 b
	pop_a_rtn 7
else.85
	pop_b_pushB 4 FALSE
.d 0 1 b
	pop_a_rtn 7
case.81
	pop_b 1
	push_r_args 1 1 1
	buildh0_put_a _Nil 3
	jmp_eq_desc e_Data.IntMap.Base_kTip 0 3 case.88
	pop_b 1
	pop_a_jmp 1 case.83
case.88
	push_r_args 3 1 1
	buildh0_put_a _Nil 5
	push_b2 0 1
	jmp_neI else.89
	jsr_eval 0
	push_a2 0 1
	jsr_eval 0
	update2_a 0 5
	pop_a 4
	pop_b 2
.d 3 0 
	jmp_i 2
else.89
	pop_b_pushB 2 FALSE
.d 0 1 b
	pop_a_rtn 5
case.82
	pop_b 1
	jmp_ne_desc e_Data.IntMap.Base_dNil 0 2 case.83
	pushB TRUE
.d 0 1 b
	pop_a_rtn 3
case.83
	pushB FALSE
.d 0 1 b
	pop_a_rtn 3
