.comp 920 000111010010000
.start _nostart_
.depend "Text.Parsers.Simple.Core" "20210430140102"
.depend "StdCharList" "20210430140102"
.depend "StdArray" "20210430140102"
.depend "StdEnv" "20210430140102"
.depend "Data.Either" "20210430140102"
.depend "Data.Bifunctor" "20210430140102"
.depend "Control.Monad.Fail" "20210430140102"
.depend "Data.Traversable" "20210430140102"
.depend "Data.Foldable" "20210430140102"
.depend "StdOverloadedList" "20210430140102"
.depend "Data.List" "20210430140102"
.depend "Data.Func" "20210430140102"
.depend "_SystemEnumStrict" "20210430140102"
.depend "_SystemStrictLists" "20210430140102"
.depend "StdStrictLists" "20210430140102"
.depend "StdGeneric" "20210430140102"
.depend "Data.GenEq" "20210430140102"
.depend "StdReal" "20210430140102"
.depend "StdList" "20210430140102"
.depend "Data.Monoid" "20210430140102"
.depend "Data.Functor" "20210430140102"
.depend "Control.Monad" "20210430140102"
.depend "Control.Applicative" "20210430140102"
.depend "StdTuple" "20210430140102"
.depend "StdString" "20210430140102"
.depend "StdOrdList" "20210430140102"
.depend "StdMisc" "20210430140102"
.depend "StdFunctions" "20210430140102"
.depend "StdFunc" "20210430140102"
.depend "StdFile" "20210430140102"
.depend "StdChar" "20210430140102"
.depend "StdInt" "20210430140102"
.depend "StdClass" "20210430140102"
.depend "_SystemEnum" "20210430140102"
.depend "StdEnum" "20210430140102"
.depend "StdOverloaded" "20210430140102"
.depend "StdBool" "20210430140102"
.depend "_SystemArray" "20210430140102"
.depend "Text.Parsers.Simple.Chars" "20210430140102"
.module m_Text.Parsers.Simple.Chars "Text.Parsers.Simple.Chars" "20210430140102"
.endinfo
.impmod _system
.implab _cycle_in_spine
.implab _type_error
.implab _hnf
.impdesc e_system_dind
.implab e_system_nind e_system_eaind
.impdesc e_system_dif
.implab e_system_nif e_system_eaif
.implab e_system_sif
.impdesc e_system_dAP
.implab e_system_nAP e_system_eaAP
.implab e_system_sAP
.impdesc ARRAY
.impdesc _Nil
.impdesc _Cons
.impdesc _Conss
.implab n_Conss ea_Conss
.impdesc _Consts
.implab n_Consts ea_Consts
.impdesc _Conssts
.implab n_Conssts ea_Conssts
.impdesc _Tuple
.impdesc d_S.1
.implab n_S.1 ea_S.1
.impdesc d_S.2
.implab n_S.2 ea_S.2
.impdesc d_S.3
.implab n_S.3 ea_S.3
.impdesc d_S.4
.implab n_S.4 ea_S.4
.impdesc d_S.5
.implab n_S.5 ea_S.5
.impdesc d_S.6
.implab n_S.6 ea_S.6
.implab _driver
.impmod Text.Parsers.Simple.Core
.implab e_Text.Parsers.Simple.Core_spSatisfy
.implab e_Text.Parsers.Simple.Core_spToken
.impmod StdChar
.impdesc e_StdChar_disUpper
.impdesc e_StdChar_disLower
.impdesc e_StdChar_disAlpha
.impdesc e_StdChar_disAlphanum
.impdesc e_StdChar_disDigit
.impdesc e_StdChar_disOctDigit
.impdesc e_StdChar_disHexDigit
.impdesc e_StdChar_disSpace
.impdesc e_StdChar_disControl
.impdesc e_StdChar_disPrint
.impdesc e_StdChar_disAscii
.impdesc e_StdChar_d==;18
.impmod StdOverloaded
.impdesc e_StdOverloaded_r==;
.export e_Text.Parsers.Simple.Chars_spUnderscore
.export e_Text.Parsers.Simple.Chars_eapUnderscore
.descexp e_Text.Parsers.Simple.Chars_dpUnderscore e_Text.Parsers.Simple.Chars_npUnderscore e_Text.Parsers.Simple.Chars_lpUnderscore 0 0 "pUnderscore"
.o 1 0
e_Text.Parsers.Simple.Chars_lpUnderscore
	halt
.n 0 e_Text.Parsers.Simple.Chars_dpUnderscore e_Text.Parsers.Simple.Chars_eapUnderscore
.o 1 0
e_Text.Parsers.Simple.Chars_npUnderscore
	push_node _cycle_in_spine 0
.o 1 0
e_Text.Parsers.Simple.Chars_eapUnderscore
.o 1 0
e_Text.Parsers.Simple.Chars_spUnderscore
.o 1 0
s26
	buildh e_StdChar_d==;18 0
	buildC '_'
	push_a 1
	update_a 1 2
	update_a 0 1
	pop_a 1
.d 3 0
	jmp e_Text.Parsers.Simple.Core_spToken
.export e_Text.Parsers.Simple.Chars_spDash
.export e_Text.Parsers.Simple.Chars_eapDash
.descexp e_Text.Parsers.Simple.Chars_dpDash e_Text.Parsers.Simple.Chars_npDash e_Text.Parsers.Simple.Chars_lpDash 0 0 "pDash"
.o 1 0
e_Text.Parsers.Simple.Chars_lpDash
	halt
.n 0 e_Text.Parsers.Simple.Chars_dpDash e_Text.Parsers.Simple.Chars_eapDash
.o 1 0
e_Text.Parsers.Simple.Chars_npDash
	push_node _cycle_in_spine 0
.o 1 0
e_Text.Parsers.Simple.Chars_eapDash
.o 1 0
e_Text.Parsers.Simple.Chars_spDash
.o 1 0
s25
	buildh e_StdChar_d==;18 0
	buildC '-'
	push_a 1
	update_a 1 2
	update_a 0 1
	pop_a 1
.d 3 0
	jmp e_Text.Parsers.Simple.Core_spToken
.export e_Text.Parsers.Simple.Chars_spPipe
.export e_Text.Parsers.Simple.Chars_eapPipe
.descexp e_Text.Parsers.Simple.Chars_dpPipe e_Text.Parsers.Simple.Chars_npPipe e_Text.Parsers.Simple.Chars_lpPipe 0 0 "pPipe"
.o 1 0
e_Text.Parsers.Simple.Chars_lpPipe
	halt
.n 0 e_Text.Parsers.Simple.Chars_dpPipe e_Text.Parsers.Simple.Chars_eapPipe
.o 1 0
e_Text.Parsers.Simple.Chars_npPipe
	push_node _cycle_in_spine 0
.o 1 0
e_Text.Parsers.Simple.Chars_eapPipe
.o 1 0
e_Text.Parsers.Simple.Chars_spPipe
.o 1 0
s24
	buildh e_StdChar_d==;18 0
	buildC '|'
	push_a 1
	update_a 1 2
	update_a 0 1
	pop_a 1
.d 3 0
	jmp e_Text.Parsers.Simple.Core_spToken
.export e_Text.Parsers.Simple.Chars_spAmp
.export e_Text.Parsers.Simple.Chars_eapAmp
.descexp e_Text.Parsers.Simple.Chars_dpAmp e_Text.Parsers.Simple.Chars_npAmp e_Text.Parsers.Simple.Chars_lpAmp 0 0 "pAmp"
.o 1 0
e_Text.Parsers.Simple.Chars_lpAmp
	halt
.n 0 e_Text.Parsers.Simple.Chars_dpAmp e_Text.Parsers.Simple.Chars_eapAmp
.o 1 0
e_Text.Parsers.Simple.Chars_npAmp
	push_node _cycle_in_spine 0
.o 1 0
e_Text.Parsers.Simple.Chars_eapAmp
.o 1 0
e_Text.Parsers.Simple.Chars_spAmp
.o 1 0
s23
	buildh e_StdChar_d==;18 0
	buildC '&'
	push_a 1
	update_a 1 2
	update_a 0 1
	pop_a 1
.d 3 0
	jmp e_Text.Parsers.Simple.Core_spToken
.export e_Text.Parsers.Simple.Chars_spEq
.export e_Text.Parsers.Simple.Chars_eapEq
.descexp e_Text.Parsers.Simple.Chars_dpEq e_Text.Parsers.Simple.Chars_npEq e_Text.Parsers.Simple.Chars_lpEq 0 0 "pEq"
.o 1 0
e_Text.Parsers.Simple.Chars_lpEq
	halt
.n 0 e_Text.Parsers.Simple.Chars_dpEq e_Text.Parsers.Simple.Chars_eapEq
.o 1 0
e_Text.Parsers.Simple.Chars_npEq
	push_node _cycle_in_spine 0
.o 1 0
e_Text.Parsers.Simple.Chars_eapEq
.o 1 0
e_Text.Parsers.Simple.Chars_spEq
.o 1 0
s22
	buildh e_StdChar_d==;18 0
	buildC '='
	push_a 1
	update_a 1 2
	update_a 0 1
	pop_a 1
.d 3 0
	jmp e_Text.Parsers.Simple.Core_spToken
.export e_Text.Parsers.Simple.Chars_spGt
.export e_Text.Parsers.Simple.Chars_eapGt
.descexp e_Text.Parsers.Simple.Chars_dpGt e_Text.Parsers.Simple.Chars_npGt e_Text.Parsers.Simple.Chars_lpGt 0 0 "pGt"
.o 1 0
e_Text.Parsers.Simple.Chars_lpGt
	halt
.n 0 e_Text.Parsers.Simple.Chars_dpGt e_Text.Parsers.Simple.Chars_eapGt
.o 1 0
e_Text.Parsers.Simple.Chars_npGt
	push_node _cycle_in_spine 0
.o 1 0
e_Text.Parsers.Simple.Chars_eapGt
.o 1 0
e_Text.Parsers.Simple.Chars_spGt
.o 1 0
s21
	buildh e_StdChar_d==;18 0
	buildC '>'
	push_a 1
	update_a 1 2
	update_a 0 1
	pop_a 1
.d 3 0
	jmp e_Text.Parsers.Simple.Core_spToken
.export e_Text.Parsers.Simple.Chars_spLt
.export e_Text.Parsers.Simple.Chars_eapLt
.descexp e_Text.Parsers.Simple.Chars_dpLt e_Text.Parsers.Simple.Chars_npLt e_Text.Parsers.Simple.Chars_lpLt 0 0 "pLt"
.o 1 0
e_Text.Parsers.Simple.Chars_lpLt
	halt
.n 0 e_Text.Parsers.Simple.Chars_dpLt e_Text.Parsers.Simple.Chars_eapLt
.o 1 0
e_Text.Parsers.Simple.Chars_npLt
	push_node _cycle_in_spine 0
.o 1 0
e_Text.Parsers.Simple.Chars_eapLt
.o 1 0
e_Text.Parsers.Simple.Chars_spLt
.o 1 0
s20
	buildh e_StdChar_d==;18 0
	buildC '<'
	push_a 1
	update_a 1 2
	update_a 0 1
	pop_a 1
.d 3 0
	jmp e_Text.Parsers.Simple.Core_spToken
.export e_Text.Parsers.Simple.Chars_spSemiCol
.export e_Text.Parsers.Simple.Chars_eapSemiCol
.descexp e_Text.Parsers.Simple.Chars_dpSemiCol e_Text.Parsers.Simple.Chars_npSemiCol e_Text.Parsers.Simple.Chars_lpSemiCol 0 0 "pSemiCol"
.o 1 0
e_Text.Parsers.Simple.Chars_lpSemiCol
	halt
.n 0 e_Text.Parsers.Simple.Chars_dpSemiCol e_Text.Parsers.Simple.Chars_eapSemiCol
.o 1 0
e_Text.Parsers.Simple.Chars_npSemiCol
	push_node _cycle_in_spine 0
.o 1 0
e_Text.Parsers.Simple.Chars_eapSemiCol
.o 1 0
e_Text.Parsers.Simple.Chars_spSemiCol
.o 1 0
s19
	buildh e_StdChar_d==;18 0
	buildC ';'
	push_a 1
	update_a 1 2
	update_a 0 1
	pop_a 1
.d 3 0
	jmp e_Text.Parsers.Simple.Core_spToken
.export e_Text.Parsers.Simple.Chars_spComma
.export e_Text.Parsers.Simple.Chars_eapComma
.descexp e_Text.Parsers.Simple.Chars_dpComma e_Text.Parsers.Simple.Chars_npComma e_Text.Parsers.Simple.Chars_lpComma 0 0 "pComma"
.o 1 0
e_Text.Parsers.Simple.Chars_lpComma
	halt
.n 0 e_Text.Parsers.Simple.Chars_dpComma e_Text.Parsers.Simple.Chars_eapComma
.o 1 0
e_Text.Parsers.Simple.Chars_npComma
	push_node _cycle_in_spine 0
.o 1 0
e_Text.Parsers.Simple.Chars_eapComma
.o 1 0
e_Text.Parsers.Simple.Chars_spComma
.o 1 0
s18
	buildh e_StdChar_d==;18 0
	buildC ','
	push_a 1
	update_a 1 2
	update_a 0 1
	pop_a 1
.d 3 0
	jmp e_Text.Parsers.Simple.Core_spToken
.export e_Text.Parsers.Simple.Chars_spCClose
.export e_Text.Parsers.Simple.Chars_eapCClose
.descexp e_Text.Parsers.Simple.Chars_dpCClose e_Text.Parsers.Simple.Chars_npCClose e_Text.Parsers.Simple.Chars_lpCClose 0 0 "pCClose"
.o 1 0
e_Text.Parsers.Simple.Chars_lpCClose
	halt
.n 0 e_Text.Parsers.Simple.Chars_dpCClose e_Text.Parsers.Simple.Chars_eapCClose
.o 1 0
e_Text.Parsers.Simple.Chars_npCClose
	push_node _cycle_in_spine 0
.o 1 0
e_Text.Parsers.Simple.Chars_eapCClose
.o 1 0
e_Text.Parsers.Simple.Chars_spCClose
.o 1 0
s17
	buildh e_StdChar_d==;18 0
	buildC '}'
	push_a 1
	update_a 1 2
	update_a 0 1
	pop_a 1
.d 3 0
	jmp e_Text.Parsers.Simple.Core_spToken
.export e_Text.Parsers.Simple.Chars_spCOpen
.export e_Text.Parsers.Simple.Chars_eapCOpen
.descexp e_Text.Parsers.Simple.Chars_dpCOpen e_Text.Parsers.Simple.Chars_npCOpen e_Text.Parsers.Simple.Chars_lpCOpen 0 0 "pCOpen"
.o 1 0
e_Text.Parsers.Simple.Chars_lpCOpen
	halt
.n 0 e_Text.Parsers.Simple.Chars_dpCOpen e_Text.Parsers.Simple.Chars_eapCOpen
.o 1 0
e_Text.Parsers.Simple.Chars_npCOpen
	push_node _cycle_in_spine 0
.o 1 0
e_Text.Parsers.Simple.Chars_eapCOpen
.o 1 0
e_Text.Parsers.Simple.Chars_spCOpen
.o 1 0
s16
	buildh e_StdChar_d==;18 0
	buildC '{'
	push_a 1
	update_a 1 2
	update_a 0 1
	pop_a 1
.d 3 0
	jmp e_Text.Parsers.Simple.Core_spToken
.export e_Text.Parsers.Simple.Chars_spBClose
.export e_Text.Parsers.Simple.Chars_eapBClose
.descexp e_Text.Parsers.Simple.Chars_dpBClose e_Text.Parsers.Simple.Chars_npBClose e_Text.Parsers.Simple.Chars_lpBClose 0 0 "pBClose"
.o 1 0
e_Text.Parsers.Simple.Chars_lpBClose
	halt
.n 0 e_Text.Parsers.Simple.Chars_dpBClose e_Text.Parsers.Simple.Chars_eapBClose
.o 1 0
e_Text.Parsers.Simple.Chars_npBClose
	push_node _cycle_in_spine 0
.o 1 0
e_Text.Parsers.Simple.Chars_eapBClose
.o 1 0
e_Text.Parsers.Simple.Chars_spBClose
.o 1 0
s15
	buildh e_StdChar_d==;18 0
	buildC ']'
	push_a 1
	update_a 1 2
	update_a 0 1
	pop_a 1
.d 3 0
	jmp e_Text.Parsers.Simple.Core_spToken
.export e_Text.Parsers.Simple.Chars_spBOpen
.export e_Text.Parsers.Simple.Chars_eapBOpen
.descexp e_Text.Parsers.Simple.Chars_dpBOpen e_Text.Parsers.Simple.Chars_npBOpen e_Text.Parsers.Simple.Chars_lpBOpen 0 0 "pBOpen"
.o 1 0
e_Text.Parsers.Simple.Chars_lpBOpen
	halt
.n 0 e_Text.Parsers.Simple.Chars_dpBOpen e_Text.Parsers.Simple.Chars_eapBOpen
.o 1 0
e_Text.Parsers.Simple.Chars_npBOpen
	push_node _cycle_in_spine 0
.o 1 0
e_Text.Parsers.Simple.Chars_eapBOpen
.o 1 0
e_Text.Parsers.Simple.Chars_spBOpen
.o 1 0
s14
	buildh e_StdChar_d==;18 0
	buildC '['
	push_a 1
	update_a 1 2
	update_a 0 1
	pop_a 1
.d 3 0
	jmp e_Text.Parsers.Simple.Core_spToken
.export e_Text.Parsers.Simple.Chars_spPClose
.export e_Text.Parsers.Simple.Chars_eapPClose
.descexp e_Text.Parsers.Simple.Chars_dpPClose e_Text.Parsers.Simple.Chars_npPClose e_Text.Parsers.Simple.Chars_lpPClose 0 0 "pPClose"
.o 1 0
e_Text.Parsers.Simple.Chars_lpPClose
	halt
.n 0 e_Text.Parsers.Simple.Chars_dpPClose e_Text.Parsers.Simple.Chars_eapPClose
.o 1 0
e_Text.Parsers.Simple.Chars_npPClose
	push_node _cycle_in_spine 0
.o 1 0
e_Text.Parsers.Simple.Chars_eapPClose
.o 1 0
e_Text.Parsers.Simple.Chars_spPClose
.o 1 0
s13
	buildh e_StdChar_d==;18 0
	buildC ')'
	push_a 1
	update_a 1 2
	update_a 0 1
	pop_a 1
.d 3 0
	jmp e_Text.Parsers.Simple.Core_spToken
.export e_Text.Parsers.Simple.Chars_spPOpen
.export e_Text.Parsers.Simple.Chars_eapPOpen
.descexp e_Text.Parsers.Simple.Chars_dpPOpen e_Text.Parsers.Simple.Chars_npPOpen e_Text.Parsers.Simple.Chars_lpPOpen 0 0 "pPOpen"
.o 1 0
e_Text.Parsers.Simple.Chars_lpPOpen
	halt
.n 0 e_Text.Parsers.Simple.Chars_dpPOpen e_Text.Parsers.Simple.Chars_eapPOpen
.o 1 0
e_Text.Parsers.Simple.Chars_npPOpen
	push_node _cycle_in_spine 0
.o 1 0
e_Text.Parsers.Simple.Chars_eapPOpen
.o 1 0
e_Text.Parsers.Simple.Chars_spPOpen
.o 1 0
s12
	buildh e_StdChar_d==;18 0
	buildC '('
	push_a 1
	update_a 1 2
	update_a 0 1
	pop_a 1
.d 3 0
	jmp e_Text.Parsers.Simple.Core_spToken
.export e_Text.Parsers.Simple.Chars_spAscii
.export e_Text.Parsers.Simple.Chars_eapAscii
.descexp e_Text.Parsers.Simple.Chars_dpAscii e_Text.Parsers.Simple.Chars_npAscii e_Text.Parsers.Simple.Chars_lpAscii 0 0 "pAscii"
.o 1 0
e_Text.Parsers.Simple.Chars_lpAscii
	halt
.n 0 e_Text.Parsers.Simple.Chars_dpAscii e_Text.Parsers.Simple.Chars_eapAscii
.o 1 0
e_Text.Parsers.Simple.Chars_npAscii
	push_node _cycle_in_spine 0
.o 1 0
e_Text.Parsers.Simple.Chars_eapAscii
.o 1 0
e_Text.Parsers.Simple.Chars_spAscii
.o 1 0
s11
	buildh e_StdChar_disAscii 0
.d 2 0
	jmp e_Text.Parsers.Simple.Core_spSatisfy
.export e_Text.Parsers.Simple.Chars_spPrint
.export e_Text.Parsers.Simple.Chars_eapPrint
.descexp e_Text.Parsers.Simple.Chars_dpPrint e_Text.Parsers.Simple.Chars_npPrint e_Text.Parsers.Simple.Chars_lpPrint 0 0 "pPrint"
.o 1 0
e_Text.Parsers.Simple.Chars_lpPrint
	halt
.n 0 e_Text.Parsers.Simple.Chars_dpPrint e_Text.Parsers.Simple.Chars_eapPrint
.o 1 0
e_Text.Parsers.Simple.Chars_npPrint
	push_node _cycle_in_spine 0
.o 1 0
e_Text.Parsers.Simple.Chars_eapPrint
.o 1 0
e_Text.Parsers.Simple.Chars_spPrint
.o 1 0
s10
	buildh e_StdChar_disPrint 0
.d 2 0
	jmp e_Text.Parsers.Simple.Core_spSatisfy
.export e_Text.Parsers.Simple.Chars_spControl
.export e_Text.Parsers.Simple.Chars_eapControl
.descexp e_Text.Parsers.Simple.Chars_dpControl e_Text.Parsers.Simple.Chars_npControl e_Text.Parsers.Simple.Chars_lpControl 0 0 "pControl"
.o 1 0
e_Text.Parsers.Simple.Chars_lpControl
	halt
.n 0 e_Text.Parsers.Simple.Chars_dpControl e_Text.Parsers.Simple.Chars_eapControl
.o 1 0
e_Text.Parsers.Simple.Chars_npControl
	push_node _cycle_in_spine 0
.o 1 0
e_Text.Parsers.Simple.Chars_eapControl
.o 1 0
e_Text.Parsers.Simple.Chars_spControl
.o 1 0
s9
	buildh e_StdChar_disControl 0
.d 2 0
	jmp e_Text.Parsers.Simple.Core_spSatisfy
.export e_Text.Parsers.Simple.Chars_spSpace
.export e_Text.Parsers.Simple.Chars_eapSpace
.descexp e_Text.Parsers.Simple.Chars_dpSpace e_Text.Parsers.Simple.Chars_npSpace e_Text.Parsers.Simple.Chars_lpSpace 0 0 "pSpace"
.o 1 0
e_Text.Parsers.Simple.Chars_lpSpace
	halt
.n 0 e_Text.Parsers.Simple.Chars_dpSpace e_Text.Parsers.Simple.Chars_eapSpace
.o 1 0
e_Text.Parsers.Simple.Chars_npSpace
	push_node _cycle_in_spine 0
.o 1 0
e_Text.Parsers.Simple.Chars_eapSpace
.o 1 0
e_Text.Parsers.Simple.Chars_spSpace
.o 1 0
s8
	buildh e_StdChar_disSpace 0
.d 2 0
	jmp e_Text.Parsers.Simple.Core_spSatisfy
.export e_Text.Parsers.Simple.Chars_spHexDigit
.export e_Text.Parsers.Simple.Chars_eapHexDigit
.descexp e_Text.Parsers.Simple.Chars_dpHexDigit e_Text.Parsers.Simple.Chars_npHexDigit e_Text.Parsers.Simple.Chars_lpHexDigit 0 0 "pHexDigit"
.o 1 0
e_Text.Parsers.Simple.Chars_lpHexDigit
	halt
.n 0 e_Text.Parsers.Simple.Chars_dpHexDigit e_Text.Parsers.Simple.Chars_eapHexDigit
.o 1 0
e_Text.Parsers.Simple.Chars_npHexDigit
	push_node _cycle_in_spine 0
.o 1 0
e_Text.Parsers.Simple.Chars_eapHexDigit
.o 1 0
e_Text.Parsers.Simple.Chars_spHexDigit
.o 1 0
s7
	buildh e_StdChar_disHexDigit 0
.d 2 0
	jmp e_Text.Parsers.Simple.Core_spSatisfy
.export e_Text.Parsers.Simple.Chars_spOctDigit
.export e_Text.Parsers.Simple.Chars_eapOctDigit
.descexp e_Text.Parsers.Simple.Chars_dpOctDigit e_Text.Parsers.Simple.Chars_npOctDigit e_Text.Parsers.Simple.Chars_lpOctDigit 0 0 "pOctDigit"
.o 1 0
e_Text.Parsers.Simple.Chars_lpOctDigit
	halt
.n 0 e_Text.Parsers.Simple.Chars_dpOctDigit e_Text.Parsers.Simple.Chars_eapOctDigit
.o 1 0
e_Text.Parsers.Simple.Chars_npOctDigit
	push_node _cycle_in_spine 0
.o 1 0
e_Text.Parsers.Simple.Chars_eapOctDigit
.o 1 0
e_Text.Parsers.Simple.Chars_spOctDigit
.o 1 0
s6
	buildh e_StdChar_disOctDigit 0
.d 2 0
	jmp e_Text.Parsers.Simple.Core_spSatisfy
.export e_Text.Parsers.Simple.Chars_spDigit
.export e_Text.Parsers.Simple.Chars_eapDigit
.descexp e_Text.Parsers.Simple.Chars_dpDigit e_Text.Parsers.Simple.Chars_npDigit e_Text.Parsers.Simple.Chars_lpDigit 0 0 "pDigit"
.o 1 0
e_Text.Parsers.Simple.Chars_lpDigit
	halt
.n 0 e_Text.Parsers.Simple.Chars_dpDigit e_Text.Parsers.Simple.Chars_eapDigit
.o 1 0
e_Text.Parsers.Simple.Chars_npDigit
	push_node _cycle_in_spine 0
.o 1 0
e_Text.Parsers.Simple.Chars_eapDigit
.o 1 0
e_Text.Parsers.Simple.Chars_spDigit
.o 1 0
s5
	buildh e_StdChar_disDigit 0
.d 2 0
	jmp e_Text.Parsers.Simple.Core_spSatisfy
.export e_Text.Parsers.Simple.Chars_spAlphanum
.export e_Text.Parsers.Simple.Chars_eapAlphanum
.descexp e_Text.Parsers.Simple.Chars_dpAlphanum e_Text.Parsers.Simple.Chars_npAlphanum e_Text.Parsers.Simple.Chars_lpAlphanum 0 0 "pAlphanum"
.o 1 0
e_Text.Parsers.Simple.Chars_lpAlphanum
	halt
.n 0 e_Text.Parsers.Simple.Chars_dpAlphanum e_Text.Parsers.Simple.Chars_eapAlphanum
.o 1 0
e_Text.Parsers.Simple.Chars_npAlphanum
	push_node _cycle_in_spine 0
.o 1 0
e_Text.Parsers.Simple.Chars_eapAlphanum
.o 1 0
e_Text.Parsers.Simple.Chars_spAlphanum
.o 1 0
s4
	buildh e_StdChar_disAlphanum 0
.d 2 0
	jmp e_Text.Parsers.Simple.Core_spSatisfy
.export e_Text.Parsers.Simple.Chars_spAlpha
.export e_Text.Parsers.Simple.Chars_eapAlpha
.descexp e_Text.Parsers.Simple.Chars_dpAlpha e_Text.Parsers.Simple.Chars_npAlpha e_Text.Parsers.Simple.Chars_lpAlpha 0 0 "pAlpha"
.o 1 0
e_Text.Parsers.Simple.Chars_lpAlpha
	halt
.n 0 e_Text.Parsers.Simple.Chars_dpAlpha e_Text.Parsers.Simple.Chars_eapAlpha
.o 1 0
e_Text.Parsers.Simple.Chars_npAlpha
	push_node _cycle_in_spine 0
.o 1 0
e_Text.Parsers.Simple.Chars_eapAlpha
.o 1 0
e_Text.Parsers.Simple.Chars_spAlpha
.o 1 0
s3
	buildh e_StdChar_disAlpha 0
.d 2 0
	jmp e_Text.Parsers.Simple.Core_spSatisfy
.export e_Text.Parsers.Simple.Chars_spLower
.export e_Text.Parsers.Simple.Chars_eapLower
.descexp e_Text.Parsers.Simple.Chars_dpLower e_Text.Parsers.Simple.Chars_npLower e_Text.Parsers.Simple.Chars_lpLower 0 0 "pLower"
.o 1 0
e_Text.Parsers.Simple.Chars_lpLower
	halt
.n 0 e_Text.Parsers.Simple.Chars_dpLower e_Text.Parsers.Simple.Chars_eapLower
.o 1 0
e_Text.Parsers.Simple.Chars_npLower
	push_node _cycle_in_spine 0
.o 1 0
e_Text.Parsers.Simple.Chars_eapLower
.o 1 0
e_Text.Parsers.Simple.Chars_spLower
.o 1 0
s2
	buildh e_StdChar_disLower 0
.d 2 0
	jmp e_Text.Parsers.Simple.Core_spSatisfy
.export e_Text.Parsers.Simple.Chars_spUpper
.export e_Text.Parsers.Simple.Chars_eapUpper
.descexp e_Text.Parsers.Simple.Chars_dpUpper e_Text.Parsers.Simple.Chars_npUpper e_Text.Parsers.Simple.Chars_lpUpper 0 0 "pUpper"
.o 1 0
e_Text.Parsers.Simple.Chars_lpUpper
	halt
.n 0 e_Text.Parsers.Simple.Chars_dpUpper e_Text.Parsers.Simple.Chars_eapUpper
.o 1 0
e_Text.Parsers.Simple.Chars_npUpper
	push_node _cycle_in_spine 0
.o 1 0
e_Text.Parsers.Simple.Chars_eapUpper
.o 1 0
e_Text.Parsers.Simple.Chars_spUpper
.o 1 0
s1
	buildh e_StdChar_disUpper 0
.d 2 0
	jmp e_Text.Parsers.Simple.Core_spSatisfy
