.comp 920 000011110011000
.start _nostart_
.depend "iTasks.Internal.SDSService" "20210613122637"
.depend "iTasks.Internal.Serialization" "20210613122637"
.depend "_SystemEnum" "20210613122638"
.depend "StdEnum" "20210613122638"
.depend "StdTuple" "20210613122638"
.depend "StdOrdList" "20210613122638"
.depend "Control.Monad.Trans" "20210613122637"
.depend "StdMaybe" "20210613122638"
.depend "Data.Maybe" "20210613122637"
.depend "iTasks.Extensions.Admin.WorkflowAdmin" "20210613122637"
.depend "iTasks.Extensions.User" "20210613122637"
.depend "iTasks.Extensions.Admin.UserAdmin" "20210613122637"
.depend "iTasks.UI.Layout.Common" "20210613122637"
.depend "iTasks.UI.Editor.Modifiers" "20210613122637"
.depend "iTasks.UI.Editor.Containers" "20210613122637"
.depend "iTasks.UI.Tune" "20210613122637"
.depend "iTasks.Internal.Distributed.Domain" "20210613122637"
.depend "iTasks.WF.Combinators.Common" "20210613122637"
.depend "iTasks.WF.Combinators.SDS" "20210613122637"
.depend "iTasks.UI.Editor.Controls" "20210613122637"
.depend "iTasks.WF.Tasks.Interaction" "20210613122637"
.depend "iTasks.WF.Tasks.System" "20210613122637"
.depend "iTasks.WF.Tasks.SDS" "20210613122637"
.depend "iTasks.WF.Tasks.Core" "20210613122637"
.depend "System.Time.GenJSON" "20210613122637"
.depend "Text.HTML.GenJSON" "20210613122637"
.depend "Data.Map.GenJSON" "20210613122637"
.depend "Data.Error.GenJSON" "20210613122637"
.depend "Data.Either.GenJSON" "20210613122637"
.depend "iTasks.WF.Derives" "20210613122637"
.depend "iTasks.SDS.Combinators.Common" "20210613122637"
.depend "iTasks.SDS.Combinators.Core" "20210613122637"
.depend "iTasks.SDS.Sources.System" "20210613122637"
.depend "iTasks.SDS.Sources.Store" "20210613122637"
.depend "iTasks.SDS.Sources.Core" "20210613122637"
.depend "iTasks.Internal.TaskIO" "20210613122637"
.depend "System._Signal" "20210613122637"
.depend "System.Signal" "20210613122637"
.depend "_SystemStrictMaybes" "20210613122638"
.depend "Text.GenPrint" "20210613122637"
.depend "iTasks.Extensions.DateTime" "20210613122637"
.depend "iTasks.Internal.TaskServer" "20210613122637"
.depend "AsyncIO" "20210613122637"
.depend "System._Process" "20210613122637"
.depend "System.Process" "20210613122637"
.depend "System.OS" "20210613122637"
.depend "TCPStringChannelsInternal" "20210613122630"
.depend "TCPStringChannels" "20210613122630"
.depend "TCPEvent" "20210613122630"
.depend "tcp_bytestreams" "20210613122630"
.depend "TCPDef" "20210613122630"
.depend "TCPChannels" "20210613122630"
.depend "TCPIP" "20210613122630"
.depend "iTasks.WF.Tasks.IO" "20210613122637"
.depend "Data.IntMap.Base" "20210613122637"
.depend "Data.IntMap.Strict" "20210613122637"
.depend "Data.CircularStack" "20210613122637"
.depend "iTasks.Extensions.Document" "20210613122637"
.depend "System.File" "20210613122637"
.depend "iTasks.Util.DeferredJSON" "20210613122637"
.depend "iTasks.UI.Layout" "20210613122637"
.depend "iTasks.Internal.TaskState" "20210613122637"
.depend "iTasks.Internal.SDS" "20210613122637"
.depend "Data.GenHash" "20210613122637"
.depend "Data.Maybe.Ord" "20210613122637"
.depend "Control.GenBimap" "20210613122637"
.depend "ABC.Interpreter.JavaScript" "20210613122638"
.depend "ABC.Interpreter" "20210613122638"
.depend "iTasks.UI.Editor" "20210613122637"
.depend "iTasks.UI.Editor.Generic" "20210613122637"
.depend "iTasks.Internal.Generic.Defaults" "20210613122637"
.depend "Data.GenDefault" "20210613122637"
.depend "Data.Integer" "20210613122637"
.depend "Text.HTML" "20210613122638"
.depend "iTasks.Internal.Generic.Visualization" "20210613122637"
.depend "iTasks.SDS.Definition" "20210613122637"
.depend "iTasks.WF.Combinators.Core" "20210613122637"
.depend "iTasks.Internal.TaskEval" "20210613122637"
.depend "iTasks.WF.Definition" "20210613122637"
.depend "iTasks.Internal.Task" "20210613122637"
.depend "iTasks.UI.Definition" "20210613122637"
.depend "Text.GenJSON" "20210613122637"
.depend "Data.Bifunctor" "20210613122637"
.depend "Data.Either" "20210613122637"
.depend "Data.Queue" "20210613122637"
.depend "StdFile" "20210613122638"
.depend "symbols_in_program" "20210613122637"
.depend "iTasks.Internal.IWorld" "20210613122637"
.depend "iTasks.Internal.WebService" "20210613122637"
.depend "tcp" "20210613122630"
.depend "TCPChannelClass" "20210613122630"
.depend "System._Time" "20210613122637"
.depend "System.Time" "20210613122637"
.depend "System.GetOpt" "20210613122637"
.depend "System.OSError" "20210613122637"
.depend "System.FilePath" "20210613122637"
.depend "StdString" "20210613122638"
.depend "Internet.HTTP" "20210613122637"
.depend "Control.Monad.Fail" "20210613122637"
.depend "Data.Traversable" "20210613122637"
.depend "StdMisc" "20210613122638"
.depend "StdOverloadedList" "20210613122638"
.depend "Data.List" "20210613122637"
.depend "Data.Foldable" "20210613122637"
.depend "Data.Set" "20210613122637"
.depend "Data.GenLexOrd" "20210613122637"
.depend "StdFunctions" "20210613122638"
.depend "StdFunc" "20210613122638"
.depend "Data.Map" "20210613122637"
.depend "_SystemEnumStrict" "20210613122638"
.depend "_SystemStrictLists" "20210613122638"
.depend "StdStrictLists" "20210613122638"
.depend "StdGeneric" "20210613122638"
.depend "Data.GenEq" "20210613122637"
.depend "StdReal" "20210613122638"
.depend "StdChar" "20210613122638"
.depend "StdInt" "20210613122638"
.depend "StdBool" "20210613122638"
.depend "StdClass" "20210613122638"
.depend "StdList" "20210613122638"
.depend "Data.Monoid" "20210613122637"
.depend "Control.Applicative" "20210613122637"
.depend "Control.Monad" "20210613122637"
.depend "Data.Functor" "20210613122637"
.depend "Data.Error" "20210613122637"
.depend "iTasks.Engine" "20210613122637"
.depend "iTasks" "20210613122637"
.depend "StdOverloaded" "20210613122638"
.depend "_SystemDynamic" "20210613122638"
.depend "BasicAPIExamples.SequentialExamples.CalculateSumStepwise" "20210613122630"
.module m_BasicAPIExamples.SequentialExamples.CalculateSumStepwise "BasicAPIExamples.SequentialExamples.CalculateSumStepwise" "20210613122630"
.endinfo
.impmod _system
.implab _cycle_in_spine
.implab _type_error
.implab _hnf
.impdesc e_system_dind
.implab e_system_nind e_system_eaind
.impdesc e_system_dif
.implab e_system_nif e_system_eaif
.implab e_system_sif
.impdesc e_system_dAP
.implab e_system_nAP e_system_eaAP
.implab e_system_sAP
.impdesc ARRAY
.impdesc _Nil
.impdesc _Cons
.impdesc _Conss
.implab n_Conss ea_Conss
.impdesc _Consts
.implab n_Consts ea_Consts
.impdesc _Conssts
.implab n_Conssts ea_Conssts
.impdesc _Tuple
.impdesc d_S.1
.implab n_S.1 ea_S.1
.impdesc d_S.2
.implab n_S.2 ea_S.2
.impdesc d_S.3
.implab n_S.3 ea_S.3
.impdesc d_S.4
.implab n_S.4 ea_S.4
.impdesc d_S.5
.implab n_S.5 ea_S.5
.impdesc d_S.6
.implab n_S.6 ea_S.6
.implab _driver
.impmod iTasks.Extensions.Admin.WorkflowAdmin
.implab e_iTasks.Extensions.Admin.WorkflowAdmin_sworkflow
.impdesc e_iTasks.Extensions.Admin.WorkflowAdmin_dtoWorkflow;13
.impmod iTasks.UI.Tune
.implab e_iTasks.UI.Tune_s@>>
.impdesc e_iTasks.UI.Tune_dtune;6
.impdesc e_iTasks.UI.Tune_dtune;7
.impmod iTasks.WF.Combinators.Common
.implab e_iTasks.WF.Combinators.Common_s>>!
.implab e_iTasks.WF.Combinators.Common_s@!
.impmod iTasks.WF.Tasks.Interaction
.implab e_iTasks.WF.Tasks.Interaction_senterInformation
.implab e_iTasks.WF.Tasks.Interaction_sviewInformation
.impmod iTasks.WF.Tasks.Core
.impdesc e_iTasks.WF.Tasks.Core_dreturn
.impmod iTasks.UI.Editor.Generic
.impdesc e_iTasks.UI.Editor.Generic_dgEditor_Int;7
.impmod iTasks.Internal.Generic.Visualization
.impdesc e_iTasks.Internal.Generic.Visualization_dgText_Int;12
.impmod Text.GenJSON
.impdesc e_Text.GenJSON_dJSONEncode_Int;12
.impdesc e_Text.GenJSON_dJSONDecode_Int;42
.impmod Data.GenEq
.impdesc e_Data.GenEq_dgEq_Int;7
.impmod StdInt
.implab e_StdInt_s+;6
.impmod iTasks.Extensions.Admin.WorkflowAdmin
.impdesc e_iTasks.Extensions.Admin.WorkflowAdmin_rtoWorkflow;
.impmod iTasks.UI.Tune
.impdesc e_iTasks.UI.Tune_rtune;
.impmod iTasks.WF.Definition
.impdesc e_iTasks.WF.Definition_riTask;
.impmod iTasks.UI.Definition
.impdesc e_iTasks.UI.Definition_kTitle
.impdesc e_iTasks.UI.Definition_kHint
.impmod _SystemDynamic
.impdesc e__SystemDynamic_kTypeCons
.impdesc e__SystemDynamic_rTypeCodeConstructor
.impdesc e__SystemDynamic_dTC_Int
.export e_BasicAPIExamples.SequentialExamples.CalculateSumStepwise_rgEditor_s;
.record e_BasicAPIExamples.SequentialExamples.CalculateSumStepwise_rgEditor_s; a 1 0 "gEditor_s;"
.export e_BasicAPIExamples.SequentialExamples.CalculateSumStepwise_tgEditor_s;
.export e_BasicAPIExamples.SequentialExamples.CalculateSumStepwise_cgEditor_s;
.descn e_BasicAPIExamples.SequentialExamples.CalculateSumStepwise_tgEditor_s; e_BasicAPIExamples.SequentialExamples.CalculateSumStepwise_cgEditor_s; 1 1 "gEditor_s;"
.n 1 e_BasicAPIExamples.SequentialExamples.CalculateSumStepwise_tgEditor_s;
.o 1 0
e_BasicAPIExamples.SequentialExamples.CalculateSumStepwise_cgEditor_s;
	push_node _cycle_in_spine 1
	jsr_eval 0
.impmod BasicAPIExamples.SequentialExamples.CalculateSumStepwise
.impdesc e_BasicAPIExamples.SequentialExamples.CalculateSumStepwise_rgEditor_s;
	fill_r e_BasicAPIExamples.SequentialExamples.CalculateSumStepwise_rgEditor_s; 1 0 1 0 0
	pop_a 1
.d 1 0
	rtn
.export e_BasicAPIExamples.SequentialExamples.CalculateSumStepwise_rgText_s;
.record e_BasicAPIExamples.SequentialExamples.CalculateSumStepwise_rgText_s; a 1 0 "gText_s;"
.export e_BasicAPIExamples.SequentialExamples.CalculateSumStepwise_tgText_s;
.export e_BasicAPIExamples.SequentialExamples.CalculateSumStepwise_cgText_s;
.descn e_BasicAPIExamples.SequentialExamples.CalculateSumStepwise_tgText_s; e_BasicAPIExamples.SequentialExamples.CalculateSumStepwise_cgText_s; 1 1 "gText_s;"
.n 1 e_BasicAPIExamples.SequentialExamples.CalculateSumStepwise_tgText_s;
.o 1 0
e_BasicAPIExamples.SequentialExamples.CalculateSumStepwise_cgText_s;
	push_node _cycle_in_spine 1
	jsr_eval 0
.impdesc e_BasicAPIExamples.SequentialExamples.CalculateSumStepwise_rgText_s;
	fill_r e_BasicAPIExamples.SequentialExamples.CalculateSumStepwise_rgText_s; 1 0 1 0 0
	pop_a 1
.d 1 0
	rtn
.export e_BasicAPIExamples.SequentialExamples.CalculateSumStepwise_rJSONEncode_s;
.record e_BasicAPIExamples.SequentialExamples.CalculateSumStepwise_rJSONEncode_s; a 1 0 "JSONEncode_s;"
.export e_BasicAPIExamples.SequentialExamples.CalculateSumStepwise_tJSONEncode_s;
.export e_BasicAPIExamples.SequentialExamples.CalculateSumStepwise_cJSONEncode_s;
.descn e_BasicAPIExamples.SequentialExamples.CalculateSumStepwise_tJSONEncode_s; e_BasicAPIExamples.SequentialExamples.CalculateSumStepwise_cJSONEncode_s; 1 1 "JSONEncode_s;"
.n 1 e_BasicAPIExamples.SequentialExamples.CalculateSumStepwise_tJSONEncode_s;
.o 1 0
e_BasicAPIExamples.SequentialExamples.CalculateSumStepwise_cJSONEncode_s;
	push_node _cycle_in_spine 1
	jsr_eval 0
.impdesc e_BasicAPIExamples.SequentialExamples.CalculateSumStepwise_rJSONEncode_s;
	fill_r e_BasicAPIExamples.SequentialExamples.CalculateSumStepwise_rJSONEncode_s; 1 0 1 0 0
	pop_a 1
.d 1 0
	rtn
.export e_BasicAPIExamples.SequentialExamples.CalculateSumStepwise_rJSONDecode_s;
.record e_BasicAPIExamples.SequentialExamples.CalculateSumStepwise_rJSONDecode_s; a 1 0 "JSONDecode_s;"
.export e_BasicAPIExamples.SequentialExamples.CalculateSumStepwise_tJSONDecode_s;
.export e_BasicAPIExamples.SequentialExamples.CalculateSumStepwise_cJSONDecode_s;
.descn e_BasicAPIExamples.SequentialExamples.CalculateSumStepwise_tJSONDecode_s; e_BasicAPIExamples.SequentialExamples.CalculateSumStepwise_cJSONDecode_s; 1 1 "JSONDecode_s;"
.n 1 e_BasicAPIExamples.SequentialExamples.CalculateSumStepwise_tJSONDecode_s;
.o 1 0
e_BasicAPIExamples.SequentialExamples.CalculateSumStepwise_cJSONDecode_s;
	push_node _cycle_in_spine 1
	jsr_eval 0
.impdesc e_BasicAPIExamples.SequentialExamples.CalculateSumStepwise_rJSONDecode_s;
	fill_r e_BasicAPIExamples.SequentialExamples.CalculateSumStepwise_rJSONDecode_s; 1 0 1 0 0
	pop_a 1
.d 1 0
	rtn
.export e_BasicAPIExamples.SequentialExamples.CalculateSumStepwise_rgEq_s;
.record e_BasicAPIExamples.SequentialExamples.CalculateSumStepwise_rgEq_s; a 1 0 "gEq_s;"
.export e_BasicAPIExamples.SequentialExamples.CalculateSumStepwise_tgEq_s;
.export e_BasicAPIExamples.SequentialExamples.CalculateSumStepwise_cgEq_s;
.descn e_BasicAPIExamples.SequentialExamples.CalculateSumStepwise_tgEq_s; e_BasicAPIExamples.SequentialExamples.CalculateSumStepwise_cgEq_s; 1 1 "gEq_s;"
.n 1 e_BasicAPIExamples.SequentialExamples.CalculateSumStepwise_tgEq_s;
.o 1 0
e_BasicAPIExamples.SequentialExamples.CalculateSumStepwise_cgEq_s;
	push_node _cycle_in_spine 1
	jsr_eval 0
.impdesc e_BasicAPIExamples.SequentialExamples.CalculateSumStepwise_rgEq_s;
	fill_r e_BasicAPIExamples.SequentialExamples.CalculateSumStepwise_rgEq_s; 1 0 1 0 0
	pop_a 1
.d 1 0
	rtn
.export e_BasicAPIExamples.SequentialExamples.CalculateSumStepwise_smain
.export e_BasicAPIExamples.SequentialExamples.CalculateSumStepwise_eamain
.descexp e_BasicAPIExamples.SequentialExamples.CalculateSumStepwise_dmain e_BasicAPIExamples.SequentialExamples.CalculateSumStepwise_nmain e_BasicAPIExamples.SequentialExamples.CalculateSumStepwise_lmain 0 0 "main"
.o 1 0
e_BasicAPIExamples.SequentialExamples.CalculateSumStepwise_lmain
	halt
.n 0 e_BasicAPIExamples.SequentialExamples.CalculateSumStepwise_dmain e_BasicAPIExamples.SequentialExamples.CalculateSumStepwise_eamain
.o 1 0
e_BasicAPIExamples.SequentialExamples.CalculateSumStepwise_nmain
	push_node _cycle_in_spine 0
.o 1 0
e_BasicAPIExamples.SequentialExamples.CalculateSumStepwise_eamain
.o 1 0
e_BasicAPIExamples.SequentialExamples.CalculateSumStepwise_smain
.o 1 0
s2
	buildh e__predef_d_Unit 0
	create
.d 1 0
	jsr s3
.o 1 0
.d 3 0
	jmp e_iTasks.WF.Combinators.Common_s@!
.export e_BasicAPIExamples.SequentialExamples.CalculateSumStepwise_swf
.descexp e_BasicAPIExamples.SequentialExamples.CalculateSumStepwise_dwf e_BasicAPIExamples.SequentialExamples.CalculateSumStepwise_nwf e_BasicAPIExamples.SequentialExamples.CalculateSumStepwise_lwf 1 0 "wf"
.o 2 0
e_BasicAPIExamples.SequentialExamples.CalculateSumStepwise_lwf
	pop_a 1
.d 1 0
	jsr ea1
.o 6 0
.impmod iTasks.Extensions.Admin.WorkflowAdmin
.impdesc e_iTasks.Extensions.Admin.WorkflowAdmin_rWorkflow
	buildhr e_iTasks.Extensions.Admin.WorkflowAdmin_rWorkflow 6 0
.d 1 0
	rtn
.n 1 e_BasicAPIExamples.SequentialExamples.CalculateSumStepwise_dwf
.o 1 0
e_BasicAPIExamples.SequentialExamples.CalculateSumStepwise_nwf
	push_node _cycle_in_spine 1
.d 1 0
	jsr ea1
.o 6 0
	fill_r e_iTasks.Extensions.Admin.WorkflowAdmin_rWorkflow 6 0 6 0 0
	pop_a 6
.d 1 0
	rtn
.o 1 0
ea1
.o 1 0
e_BasicAPIExamples.SequentialExamples.CalculateSumStepwise_swf
.o 1 0
s1
	build e_BasicAPIExamples.SequentialExamples.CalculateSumStepwise_dcalculateSumStepwise.3 0 e_BasicAPIExamples.SequentialExamples.CalculateSumStepwise_ncalculateSumStepwise.3
	buildh e__SystemDynamic_dTC_Int 0
	buildhr e__SystemDynamic_kTypeCons 1 0
	buildh e_Data.GenEq_dgEq_Int;7 0
	buildh e_Text.GenJSON_dJSONDecode_Int;42 0
	buildh e_Text.GenJSON_dJSONEncode_Int;12 0
	buildh e_iTasks.Internal.Generic.Visualization_dgText_Int;12 0
	buildh e_iTasks.UI.Editor.Generic_dgEditor_Int;7 0
	buildhr e_iTasks.WF.Definition_riTask; 6 0
	buildh e_iTasks.Extensions.Admin.WorkflowAdmin_dtoWorkflow;13 1
	buildAC "Calculate the Sum Stepwise"
	buildh ARRAY 1
	push_a 3
	push_a 2
	update_a 2 3
	update_a 1 2
	update_a 0 1
	pop_a 1
	update_a 3 4
	update_a 2 3
	update_a 1 2
	updatepop_a 0 1
.d 4 0
	jmp e_iTasks.Extensions.Admin.WorkflowAdmin_sworkflow
.export e_BasicAPIExamples.SequentialExamples.CalculateSumStepwise_dcalculateSumStepwise.3
.export e_BasicAPIExamples.SequentialExamples.CalculateSumStepwise_ncalculateSumStepwise.3
.descn e_BasicAPIExamples.SequentialExamples.CalculateSumStepwise_dcalculateSumStepwise.3 e_BasicAPIExamples.SequentialExamples.CalculateSumStepwise_ncalculateSumStepwise.3 0 0 "calculateSumStepwise.3"
.n 0 e_BasicAPIExamples.SequentialExamples.CalculateSumStepwise_dcalculateSumStepwise.3 ea3
.o 1 0
e_BasicAPIExamples.SequentialExamples.CalculateSumStepwise_ncalculateSumStepwise.3
	push_node _cycle_in_spine 0
.o 1 0
ea3
.o 1 0
s3
	buildh e_BasicAPIExamples.SequentialExamples.CalculateSumStepwise_d\;16;9;540.8 0
	buildh _Nil 0
	buildh e__SystemDynamic_dTC_Int 0
	buildhr e__SystemDynamic_kTypeCons 1 0
	buildh e_Data.GenEq_dgEq_Int;7 0
	buildh e_Text.GenJSON_dJSONDecode_Int;42 0
	buildh e_Text.GenJSON_dJSONEncode_Int;12 0
	buildh e_iTasks.Internal.Generic.Visualization_dgText_Int;12 0
	buildh e_iTasks.UI.Editor.Generic_dgEditor_Int;7 0
	create
	push_a 7
	update_a 1 8
	update_a 2 1
	update_a 3 2
	update_a 4 3
	update_a 5 4
	update_a 6 5
	update_a 7 6
	update_a 0 7
	pop_a 1
.d 8 0
	jsr e_iTasks.WF.Tasks.Interaction_senterInformation
.o 1 0
	buildAC "Enter a number"
	buildhr e_iTasks.UI.Definition_kHint 1 0
	buildh e_iTasks.UI.Tune_dtune;7 0
.d 3 0
	jsr e_iTasks.UI.Tune_s@>>
.o 1 0
	buildAC "Number 1"
	buildhr e_iTasks.UI.Definition_kTitle 1 0
	buildh e_iTasks.UI.Tune_dtune;6 0
.d 3 0
	jsr e_iTasks.UI.Tune_s@>>
.o 1 0
	buildh e_Text.GenJSON_dJSONEncode_Int;12 0
	buildh e__SystemDynamic_dTC_Int 0
	buildhr e__SystemDynamic_kTypeCons 1 0
.d 5 0
	jmp e_iTasks.WF.Combinators.Common_s>>!
.export e_BasicAPIExamples.SequentialExamples.CalculateSumStepwise_d\;16;9;540.8
.desc e_BasicAPIExamples.SequentialExamples.CalculateSumStepwise_d\;16;9;540.8 _hnf l8 1 0 "\;16;9;540.8"
.o 2 0
l8
	update_a 1 0
	create
	update_a 0 2
	pop_a 1
.o 2 0
ea8
.o 2 0
s8
	push_a 0
	buildh e_BasicAPIExamples.SequentialExamples.CalculateSumStepwise_d\;17;9;541.9 1
	buildh _Nil 0
	buildh e__SystemDynamic_dTC_Int 0
	buildhr e__SystemDynamic_kTypeCons 1 0
	buildh e_Data.GenEq_dgEq_Int;7 0
	buildh e_Text.GenJSON_dJSONDecode_Int;42 0
	buildh e_Text.GenJSON_dJSONEncode_Int;12 0
	buildh e_iTasks.Internal.Generic.Visualization_dgText_Int;12 0
	buildh e_iTasks.UI.Editor.Generic_dgEditor_Int;7 0
	create
	push_a 7
	update_a 1 8
	update_a 2 1
	update_a 3 2
	update_a 4 3
	update_a 5 4
	update_a 6 5
	update_a 7 6
	update_a 0 7
	pop_a 1
	buildh _Nil 0
	update_a 0 10
	pop_a 1
.d 8 0
	jsr e_iTasks.WF.Tasks.Interaction_senterInformation
.o 1 0
	buildAC "Enter another number"
	buildhr e_iTasks.UI.Definition_kHint 1 0
	buildh e_iTasks.UI.Tune_dtune;7 0
.d 3 0
	jsr e_iTasks.UI.Tune_s@>>
.o 1 0
	buildAC "Number 2"
	buildhr e_iTasks.UI.Definition_kTitle 1 0
	buildh e_iTasks.UI.Tune_dtune;6 0
.d 3 0
	jsr e_iTasks.UI.Tune_s@>>
.o 1 0
	buildh e_Text.GenJSON_dJSONEncode_Int;12 0
	buildh e__SystemDynamic_dTC_Int 0
	buildhr e__SystemDynamic_kTypeCons 1 0
	update_a 3 4
	update_a 2 3
	update_a 1 2
	updatepop_a 0 1
.d 5 0
	jmp e_iTasks.WF.Combinators.Common_s>>!
.export e_BasicAPIExamples.SequentialExamples.CalculateSumStepwise_d\;17;9;541.9
.desc e_BasicAPIExamples.SequentialExamples.CalculateSumStepwise_d\;17;9;541.9 _hnf l9 2 0 "\;17;9;541.9"
.a 2 ea9
.o 2 0
l9
	push_args 0 1 1
	update_a 2 1
	create
	update_a 0 3
	pop_a 1
.o 3 0
ea9
	jsr_eval 1
	jsr_eval 0
	pushI_a 1
	pushI_a 0
	pop_a 2
.o 1 2 ii
s9
	buildh e_iTasks.WF.Tasks.Core_dreturn 0
	push_b 1
	push_b 1
	addI
	buildI_b 0
	pop_b 1
	buildh _Nil 0
	buildh e__SystemDynamic_dTC_Int 0
	buildhr e__SystemDynamic_kTypeCons 1 0
	buildh e_Data.GenEq_dgEq_Int;7 0
	buildh e_Text.GenJSON_dJSONDecode_Int;42 0
	buildh e_Text.GenJSON_dJSONEncode_Int;12 0
	buildh e_iTasks.Internal.Generic.Visualization_dgText_Int;12 0
	buildh e_iTasks.UI.Editor.Generic_dgEditor_Int;7 0
	create
	push_a 8
	update_a 1 9
	update_a 2 1
	update_a 3 2
	update_a 4 3
	update_a 5 4
	update_a 6 5
	update_a 7 6
	update_a 8 7
	update_a 0 8
	pop_a 1
	pop_b 2
.d 9 0
	jsr e_iTasks.WF.Tasks.Interaction_sviewInformation
.o 1 0
	buildAC "The sum of those numbers is:"
	buildhr e_iTasks.UI.Definition_kHint 1 0
	buildh e_iTasks.UI.Tune_dtune;7 0
.d 3 0
	jsr e_iTasks.UI.Tune_s@>>
.o 1 0
	buildAC "Sum"
	buildhr e_iTasks.UI.Definition_kTitle 1 0
	buildh e_iTasks.UI.Tune_dtune;6 0
.d 3 0
	jsr e_iTasks.UI.Tune_s@>>
.o 1 0
	buildh e_Text.GenJSON_dJSONEncode_Int;12 0
	buildh e__SystemDynamic_dTC_Int 0
	buildhr e__SystemDynamic_kTypeCons 1 0
.d 5 0
	jmp e_iTasks.WF.Combinators.Common_s>>!
