.comp 920 000011110011000
.start _nostart_
.depend "iTasks.Extensions.Currency" "20210613122637"
.depend "iTasks.Internal.SDSService" "20210613122637"
.depend "iTasks.Internal.Serialization" "20210613122637"
.depend "_SystemEnum" "20210613122638"
.depend "StdEnum" "20210613122638"
.depend "StdTuple" "20210613122638"
.depend "StdOrdList" "20210613122638"
.depend "Control.Monad.Trans" "20210613122637"
.depend "StdMaybe" "20210613122638"
.depend "Data.Maybe" "20210613122637"
.depend "iTasks.Extensions.Admin.WorkflowAdmin" "20210613122637"
.depend "iTasks.Extensions.User" "20210613122637"
.depend "iTasks.Extensions.Admin.UserAdmin" "20210613122637"
.depend "iTasks.UI.Layout.Common" "20210613122637"
.depend "iTasks.UI.Editor.Modifiers" "20210613122637"
.depend "iTasks.UI.Editor.Containers" "20210613122637"
.depend "iTasks.UI.Tune" "20210613122637"
.depend "iTasks.Internal.Distributed.Domain" "20210613122637"
.depend "iTasks.WF.Combinators.Common" "20210613122637"
.depend "iTasks.WF.Combinators.SDS" "20210613122637"
.depend "iTasks.UI.Editor.Controls" "20210613122637"
.depend "iTasks.WF.Tasks.Interaction" "20210613122637"
.depend "iTasks.WF.Tasks.System" "20210613122637"
.depend "iTasks.WF.Tasks.SDS" "20210613122637"
.depend "iTasks.WF.Tasks.Core" "20210613122637"
.depend "System.Time.GenJSON" "20210613122637"
.depend "Text.HTML.GenJSON" "20210613122637"
.depend "Data.Map.GenJSON" "20210613122637"
.depend "Data.Error.GenJSON" "20210613122637"
.depend "Data.Either.GenJSON" "20210613122637"
.depend "iTasks.WF.Derives" "20210613122637"
.depend "iTasks.SDS.Combinators.Common" "20210613122637"
.depend "iTasks.SDS.Combinators.Core" "20210613122637"
.depend "iTasks.SDS.Sources.System" "20210613122637"
.depend "iTasks.SDS.Sources.Store" "20210613122637"
.depend "iTasks.SDS.Sources.Core" "20210613122637"
.depend "iTasks.Internal.TaskIO" "20210613122637"
.depend "System._Signal" "20210613122637"
.depend "System.Signal" "20210613122637"
.depend "_SystemStrictMaybes" "20210613122638"
.depend "Text.GenPrint" "20210613122637"
.depend "iTasks.Extensions.DateTime" "20210613122637"
.depend "iTasks.Internal.TaskServer" "20210613122637"
.depend "AsyncIO" "20210613122637"
.depend "System._Process" "20210613122637"
.depend "System.Process" "20210613122637"
.depend "System.OS" "20210613122637"
.depend "TCPStringChannelsInternal" "20210613122630"
.depend "TCPStringChannels" "20210613122630"
.depend "TCPEvent" "20210613122630"
.depend "tcp_bytestreams" "20210613122630"
.depend "TCPDef" "20210613122630"
.depend "TCPChannels" "20210613122630"
.depend "TCPIP" "20210613122630"
.depend "iTasks.WF.Tasks.IO" "20210613122637"
.depend "Data.IntMap.Base" "20210613122637"
.depend "Data.IntMap.Strict" "20210613122637"
.depend "Data.CircularStack" "20210613122637"
.depend "iTasks.Extensions.Document" "20210613122637"
.depend "System.File" "20210613122637"
.depend "iTasks.Util.DeferredJSON" "20210613122637"
.depend "iTasks.UI.Layout" "20210613122637"
.depend "iTasks.Internal.TaskState" "20210613122637"
.depend "iTasks.Internal.SDS" "20210613122637"
.depend "Data.GenHash" "20210613122637"
.depend "Data.Maybe.Ord" "20210613122637"
.depend "Control.GenBimap" "20210613122637"
.depend "ABC.Interpreter.JavaScript" "20210613122638"
.depend "ABC.Interpreter" "20210613122638"
.depend "iTasks.UI.Editor" "20210613122637"
.depend "iTasks.UI.Editor.Generic" "20210613122637"
.depend "iTasks.Internal.Generic.Defaults" "20210613122637"
.depend "Data.GenDefault" "20210613122637"
.depend "Data.Integer" "20210613122637"
.depend "Text.HTML" "20210613122638"
.depend "iTasks.Internal.Generic.Visualization" "20210613122637"
.depend "iTasks.SDS.Definition" "20210613122637"
.depend "iTasks.WF.Combinators.Core" "20210613122637"
.depend "iTasks.Internal.TaskEval" "20210613122637"
.depend "iTasks.WF.Definition" "20210613122637"
.depend "iTasks.Internal.Task" "20210613122637"
.depend "iTasks.UI.Definition" "20210613122637"
.depend "Text.GenJSON" "20210613122637"
.depend "Data.Bifunctor" "20210613122637"
.depend "Data.Either" "20210613122637"
.depend "Data.Queue" "20210613122637"
.depend "StdFile" "20210613122638"
.depend "symbols_in_program" "20210613122637"
.depend "iTasks.Internal.IWorld" "20210613122637"
.depend "iTasks.Internal.WebService" "20210613122637"
.depend "tcp" "20210613122630"
.depend "TCPChannelClass" "20210613122630"
.depend "System._Time" "20210613122637"
.depend "System.Time" "20210613122637"
.depend "System.GetOpt" "20210613122637"
.depend "System.OSError" "20210613122637"
.depend "System.FilePath" "20210613122637"
.depend "StdString" "20210613122638"
.depend "Internet.HTTP" "20210613122637"
.depend "Control.Monad.Fail" "20210613122637"
.depend "Data.Traversable" "20210613122637"
.depend "StdMisc" "20210613122638"
.depend "StdOverloadedList" "20210613122638"
.depend "Data.List" "20210613122637"
.depend "Data.Foldable" "20210613122637"
.depend "Data.Set" "20210613122637"
.depend "Data.GenLexOrd" "20210613122637"
.depend "StdFunctions" "20210613122638"
.depend "StdFunc" "20210613122638"
.depend "Data.Map" "20210613122637"
.depend "_SystemEnumStrict" "20210613122638"
.depend "_SystemStrictLists" "20210613122638"
.depend "StdStrictLists" "20210613122638"
.depend "StdGeneric" "20210613122638"
.depend "Data.GenEq" "20210613122637"
.depend "StdReal" "20210613122638"
.depend "StdChar" "20210613122638"
.depend "StdInt" "20210613122638"
.depend "StdBool" "20210613122638"
.depend "StdClass" "20210613122638"
.depend "StdList" "20210613122638"
.depend "Data.Monoid" "20210613122637"
.depend "Control.Applicative" "20210613122637"
.depend "Control.Monad" "20210613122637"
.depend "Data.Functor" "20210613122637"
.depend "Data.Error" "20210613122637"
.depend "iTasks.Engine" "20210613122637"
.depend "iTasks" "20210613122637"
.depend "StdOverloaded" "20210613122638"
.depend "_SystemDynamic" "20210613122638"
.depend "BasicAPIExamples.SequentialExamples.CoffeeMachine" "20210613122630"
.module m_BasicAPIExamples.SequentialExamples.CoffeeMachine "BasicAPIExamples.SequentialExamples.CoffeeMachine" "20210613122630"
.endinfo
.impmod _system
.implab _cycle_in_spine
.implab _type_error
.implab _hnf
.impdesc e_system_dind
.implab e_system_nind e_system_eaind
.impdesc e_system_dif
.implab e_system_nif e_system_eaif
.implab e_system_sif
.impdesc e_system_dAP
.implab e_system_nAP e_system_eaAP
.implab e_system_sAP
.impdesc ARRAY
.impdesc _Nil
.impdesc _Cons
.impdesc _Conss
.implab n_Conss ea_Conss
.impdesc _Consts
.implab n_Consts ea_Consts
.impdesc _Conssts
.implab n_Conssts ea_Conssts
.impdesc _Tuple
.impdesc d_S.1
.implab n_S.1 ea_S.1
.impdesc d_S.2
.implab n_S.2 ea_S.2
.impdesc d_S.3
.implab n_S.3 ea_S.3
.impdesc d_S.4
.implab n_S.4 ea_S.4
.impdesc d_S.5
.implab n_S.5 ea_S.5
.impdesc d_S.6
.implab n_S.6 ea_S.6
.implab _driver
.impmod iTasks.Extensions.Currency
.impdesc e_iTasks.Extensions.Currency_d+;2
.implab e_iTasks.Extensions.Currency_n+;2 e_iTasks.Extensions.Currency_ea+;2
.impdesc e_iTasks.Extensions.Currency_d-;4
.implab e_iTasks.Extensions.Currency_s-;4
.implab e_iTasks.Extensions.Currency_n-;4 e_iTasks.Extensions.Currency_ea-;4
.implab e_iTasks.Extensions.Currency_s<;8
.impdesc e_iTasks.Extensions.Currency_dJSONEncode_EUR;14
.impdesc e_iTasks.Extensions.Currency_dJSONDecode_EUR;16
.impdesc e_iTasks.Extensions.Currency_dgEq_EUR;20
.impdesc e_iTasks.Extensions.Currency_dgText_EUR;22
.impdesc e_iTasks.Extensions.Currency_dgEditor_EUR;24
.impdesc e_iTasks.Extensions.Currency_dTD;EUR
.impmod iTasks.Extensions.Admin.WorkflowAdmin
.implab e_iTasks.Extensions.Admin.WorkflowAdmin_sworkflow
.impdesc e_iTasks.Extensions.Admin.WorkflowAdmin_dtoWorkflow;13
.impmod iTasks.UI.Tune
.implab e_iTasks.UI.Tune_s@>>
.impdesc e_iTasks.UI.Tune_dtune;6
.impdesc e_iTasks.UI.Tune_dtune;7
.impmod iTasks.WF.Combinators.Common
.implab e_iTasks.WF.Combinators.Common_s>>*
.implab e_iTasks.WF.Combinators.Common_s>>!
.implab e_iTasks.WF.Combinators.Common_s@!
.implab e_iTasks.WF.Combinators.Common_sforever
.implab e_iTasks.WF.Combinators.Common_s||-
.impdesc e_iTasks.WF.Combinators.Common_dalways
.impdesc e_iTasks.WF.Combinators.Common_dhasValue
.impmod iTasks.WF.Tasks.Interaction
.implab e_iTasks.WF.Tasks.Interaction_sviewInformation
.implab e_iTasks.WF.Tasks.Interaction_senterChoice
.impmod iTasks.WF.Tasks.Core
.impdesc e_iTasks.WF.Tasks.Core_dreturn
.impmod Text.HTML.GenJSON
.impdesc e_Text.HTML.GenJSON_dJSONEncode_HtmlTag;0
.impdesc e_Text.HTML.GenJSON_dJSONDecode_HtmlTag;24
.impmod iTasks.UI.Editor.Generic
.impdesc e_iTasks.UI.Editor.Generic_dgEditor__String;11
.implab e_iTasks.UI.Editor.Generic_sgEditor__List;12
.implab e_iTasks.UI.Editor.Generic_sgEditor__Tuple2;14
.impdesc e_iTasks.UI.Editor.Generic_dgEditor_HtmlTag;28
.impmod Text.HTML
.impdesc e_Text.HTML_dgEq_HtmlTag;32
.impdesc e_Text.HTML_dTD;HtmlTag
.impmod iTasks.Internal.Generic.Visualization
.implab e_iTasks.Internal.Generic.Visualization_s<+++
.impdesc e_iTasks.Internal.Generic.Visualization_dgText__String;16
.implab e_iTasks.Internal.Generic.Visualization_sgText__List;17
.implab e_iTasks.Internal.Generic.Visualization_sgText__Tuple2;19
.impdesc e_iTasks.Internal.Generic.Visualization_dgText_HtmlTag;35
.impmod Text.GenJSON
.impdesc e_Text.GenJSON_dJSONEncode__String;16
.implab e_Text.GenJSON_sJSONEncode__List;17
.implab e_Text.GenJSON_sJSONEncode__Tuple2;24
.impdesc e_Text.GenJSON_dJSONDecode__String;46
.implab e_Text.GenJSON_sJSONDecode__List;47
.implab e_Text.GenJSON_sJSONDecode__Tuple2;54
.impmod StdFunctions
.impdesc e_StdFunctions_did
.impmod Data.GenEq
.impdesc e_Data.GenEq_dgEq__String;11
.implab e_Data.GenEq_sgEq__List;14
.implab e_Data.GenEq_sgEq__Tuple2;21
.impmod _SystemDynamic
.implab e__SystemDynamic_s_initial_unification_environment
.implab e__SystemDynamic_s_bind_global_type_pattern_var
.implab e__SystemDynamic_s_normalise
.impmod iTasks.Extensions.Currency
.impdesc e_iTasks.Extensions.Currency_kEUR
.impmod iTasks.Extensions.Admin.WorkflowAdmin
.impdesc e_iTasks.Extensions.Admin.WorkflowAdmin_rtoWorkflow;
.impmod iTasks.UI.Tune
.impdesc e_iTasks.UI.Tune_rtune;
.impmod iTasks.WF.Tasks.Interaction
.impdesc e_iTasks.WF.Tasks.Interaction_kViewAs
.impdesc e_iTasks.WF.Tasks.Interaction_kChooseFromCheckGroup
.impmod Text.HTML
.impdesc e_Text.HTML_kText
.impdesc e_Text.HTML_kBrTag
.impdesc e_Text.HTML_kDivTag
.impmod iTasks.WF.Combinators.Core
.impdesc e_iTasks.WF.Combinators.Core_kAction
.impdesc e_iTasks.WF.Combinators.Core_dOnAction
.impmod iTasks.WF.Definition
.impdesc e_iTasks.WF.Definition_riTask;
.impmod iTasks.UI.Definition
.impdesc e_iTasks.UI.Definition_kTitle
.impdesc e_iTasks.UI.Definition_kHint
.impmod _SystemDynamic
.impdesc e__SystemDynamic_kTypeVar
.impdesc e__SystemDynamic_kTypeCons
.impdesc e__SystemDynamic_kTypeApp
.impdesc e__SystemDynamic_rTypeCodeConstructor
.impdesc e__SystemDynamic_dTC_Char
.impdesc e__SystemDynamic_dTC__List
.impdesc e__SystemDynamic_dTC__Tuple2
.impdesc e__SystemDynamic_dTC__UnboxedArray
.export e_BasicAPIExamples.SequentialExamples.CoffeeMachine_rgEditor_s;
.record e_BasicAPIExamples.SequentialExamples.CoffeeMachine_rgEditor_s; a 1 0 "gEditor_s;"
.export e_BasicAPIExamples.SequentialExamples.CoffeeMachine_tgEditor_s;
.export e_BasicAPIExamples.SequentialExamples.CoffeeMachine_cgEditor_s;
.descn e_BasicAPIExamples.SequentialExamples.CoffeeMachine_tgEditor_s; e_BasicAPIExamples.SequentialExamples.CoffeeMachine_cgEditor_s; 1 1 "gEditor_s;"
.n 1 e_BasicAPIExamples.SequentialExamples.CoffeeMachine_tgEditor_s;
.o 1 0 
e_BasicAPIExamples.SequentialExamples.CoffeeMachine_cgEditor_s;
	push_node _cycle_in_spine 1
	jsr_eval 0
.impmod BasicAPIExamples.SequentialExamples.CoffeeMachine
.impdesc e_BasicAPIExamples.SequentialExamples.CoffeeMachine_rgEditor_s;
	fill_r e_BasicAPIExamples.SequentialExamples.CoffeeMachine_rgEditor_s; 1 0 1 0 0
.d 1 0 
	pop_a_rtn 1
.export e_BasicAPIExamples.SequentialExamples.CoffeeMachine_rgText_s;
.record e_BasicAPIExamples.SequentialExamples.CoffeeMachine_rgText_s; a 1 0 "gText_s;"
.export e_BasicAPIExamples.SequentialExamples.CoffeeMachine_tgText_s;
.export e_BasicAPIExamples.SequentialExamples.CoffeeMachine_cgText_s;
.descn e_BasicAPIExamples.SequentialExamples.CoffeeMachine_tgText_s; e_BasicAPIExamples.SequentialExamples.CoffeeMachine_cgText_s; 1 1 "gText_s;"
.n 1 e_BasicAPIExamples.SequentialExamples.CoffeeMachine_tgText_s;
.o 1 0 
e_BasicAPIExamples.SequentialExamples.CoffeeMachine_cgText_s;
	push_node _cycle_in_spine 1
	jsr_eval 0
.impdesc e_BasicAPIExamples.SequentialExamples.CoffeeMachine_rgText_s;
	fill_r e_BasicAPIExamples.SequentialExamples.CoffeeMachine_rgText_s; 1 0 1 0 0
.d 1 0 
	pop_a_rtn 1
.export e_BasicAPIExamples.SequentialExamples.CoffeeMachine_rJSONEncode_s;
.record e_BasicAPIExamples.SequentialExamples.CoffeeMachine_rJSONEncode_s; a 1 0 "JSONEncode_s;"
.export e_BasicAPIExamples.SequentialExamples.CoffeeMachine_tJSONEncode_s;
.export e_BasicAPIExamples.SequentialExamples.CoffeeMachine_cJSONEncode_s;
.descn e_BasicAPIExamples.SequentialExamples.CoffeeMachine_tJSONEncode_s; e_BasicAPIExamples.SequentialExamples.CoffeeMachine_cJSONEncode_s; 1 1 "JSONEncode_s;"
.n 1 e_BasicAPIExamples.SequentialExamples.CoffeeMachine_tJSONEncode_s;
.o 1 0 
e_BasicAPIExamples.SequentialExamples.CoffeeMachine_cJSONEncode_s;
	push_node _cycle_in_spine 1
	jsr_eval 0
.impdesc e_BasicAPIExamples.SequentialExamples.CoffeeMachine_rJSONEncode_s;
	fill_r e_BasicAPIExamples.SequentialExamples.CoffeeMachine_rJSONEncode_s; 1 0 1 0 0
.d 1 0 
	pop_a_rtn 1
.export e_BasicAPIExamples.SequentialExamples.CoffeeMachine_rJSONDecode_s;
.record e_BasicAPIExamples.SequentialExamples.CoffeeMachine_rJSONDecode_s; a 1 0 "JSONDecode_s;"
.export e_BasicAPIExamples.SequentialExamples.CoffeeMachine_tJSONDecode_s;
.export e_BasicAPIExamples.SequentialExamples.CoffeeMachine_cJSONDecode_s;
.descn e_BasicAPIExamples.SequentialExamples.CoffeeMachine_tJSONDecode_s; e_BasicAPIExamples.SequentialExamples.CoffeeMachine_cJSONDecode_s; 1 1 "JSONDecode_s;"
.n 1 e_BasicAPIExamples.SequentialExamples.CoffeeMachine_tJSONDecode_s;
.o 1 0 
e_BasicAPIExamples.SequentialExamples.CoffeeMachine_cJSONDecode_s;
	push_node _cycle_in_spine 1
	jsr_eval 0
.impdesc e_BasicAPIExamples.SequentialExamples.CoffeeMachine_rJSONDecode_s;
	fill_r e_BasicAPIExamples.SequentialExamples.CoffeeMachine_rJSONDecode_s; 1 0 1 0 0
.d 1 0 
	pop_a_rtn 1
.export e_BasicAPIExamples.SequentialExamples.CoffeeMachine_rgEq_s;
.record e_BasicAPIExamples.SequentialExamples.CoffeeMachine_rgEq_s; a 1 0 "gEq_s;"
.export e_BasicAPIExamples.SequentialExamples.CoffeeMachine_tgEq_s;
.export e_BasicAPIExamples.SequentialExamples.CoffeeMachine_cgEq_s;
.descn e_BasicAPIExamples.SequentialExamples.CoffeeMachine_tgEq_s; e_BasicAPIExamples.SequentialExamples.CoffeeMachine_cgEq_s; 1 1 "gEq_s;"
.n 1 e_BasicAPIExamples.SequentialExamples.CoffeeMachine_tgEq_s;
.o 1 0 
e_BasicAPIExamples.SequentialExamples.CoffeeMachine_cgEq_s;
	push_node _cycle_in_spine 1
	jsr_eval 0
.impdesc e_BasicAPIExamples.SequentialExamples.CoffeeMachine_rgEq_s;
	fill_r e_BasicAPIExamples.SequentialExamples.CoffeeMachine_rgEq_s; 1 0 1 0 0
.d 1 0 
	pop_a_rtn 1
.export e_BasicAPIExamples.SequentialExamples.CoffeeMachine_smain
.export e_BasicAPIExamples.SequentialExamples.CoffeeMachine_eamain
.descexp e_BasicAPIExamples.SequentialExamples.CoffeeMachine_dmain e_BasicAPIExamples.SequentialExamples.CoffeeMachine_nmain e_BasicAPIExamples.SequentialExamples.CoffeeMachine_lmain 0 0 "main"
.o 1 0 
e_BasicAPIExamples.SequentialExamples.CoffeeMachine_lmain
	halt
.n 0 e_BasicAPIExamples.SequentialExamples.CoffeeMachine_dmain e_BasicAPIExamples.SequentialExamples.CoffeeMachine_eamain
.o 1 0 
e_BasicAPIExamples.SequentialExamples.CoffeeMachine_nmain
	push_node _cycle_in_spine 0
.o 1 0 
e_BasicAPIExamples.SequentialExamples.CoffeeMachine_eamain
.o 1 0 
e_BasicAPIExamples.SequentialExamples.CoffeeMachine_smain
.o 1 0 
s2
	buildh e__predef_d_Unit 0
	create 
.d 1 0 
	jsr s3
.o 1 0 
.d 3 0 
	jmp e_iTasks.WF.Combinators.Common_s@!
.export e_BasicAPIExamples.SequentialExamples.CoffeeMachine_swf
.descexp e_BasicAPIExamples.SequentialExamples.CoffeeMachine_dwf e_BasicAPIExamples.SequentialExamples.CoffeeMachine_nwf e_BasicAPIExamples.SequentialExamples.CoffeeMachine_lwf 1 0 "wf"
.o 2 0 
e_BasicAPIExamples.SequentialExamples.CoffeeMachine_lwf
.d 1 0 
	pop_a_jsr 1 ea1
.o 6 0 
.impmod iTasks.Extensions.Admin.WorkflowAdmin
.impdesc e_iTasks.Extensions.Admin.WorkflowAdmin_rWorkflow
	buildhr e_iTasks.Extensions.Admin.WorkflowAdmin_rWorkflow 6 0
.d 1 0 
	rtn 
.n 1 e_BasicAPIExamples.SequentialExamples.CoffeeMachine_dwf
.o 1 0 
e_BasicAPIExamples.SequentialExamples.CoffeeMachine_nwf
	push_node _cycle_in_spine 1
.d 1 0 
	jsr ea1
.o 6 0 
	fill_r e_iTasks.Extensions.Admin.WorkflowAdmin_rWorkflow 6 0 6 0 0
.d 1 0 
	pop_a_rtn 6
.o 1 0 
ea1
.o 1 0 
e_BasicAPIExamples.SequentialExamples.CoffeeMachine_swf
.o 1 0 
s1
	build e_BasicAPIExamples.SequentialExamples.CoffeeMachine_dcoffeemachine.3 0 e_BasicAPIExamples.SequentialExamples.CoffeeMachine_ncoffeemachine.3
	buildh e_iTasks.Extensions.Currency_dTD;EUR 0
	buildhr e__SystemDynamic_kTypeCons 1 0
	buildh e__SystemDynamic_dTC_Char 0
	buildhr e__SystemDynamic_kTypeCons 1 0
	buildh e__SystemDynamic_dTC__UnboxedArray 0
	buildhr e__SystemDynamic_kTypeCons 1 0
	buildhr e__SystemDynamic_kTypeApp 2 0
	buildh e__SystemDynamic_dTC__Tuple2 0
	buildhr e__SystemDynamic_kTypeCons 1 0
	buildhr e__SystemDynamic_kTypeApp 2 0
	buildhr e__SystemDynamic_kTypeApp 2 0
	buildh e_BasicAPIExamples.SequentialExamples.CoffeeMachine_dgEq_s;564.42 0
	buildh e_BasicAPIExamples.SequentialExamples.CoffeeMachine_dJSONDecode_s;563.41 0
	buildh e_BasicAPIExamples.SequentialExamples.CoffeeMachine_dJSONEncode_s;562.40 0
	buildh e_BasicAPIExamples.SequentialExamples.CoffeeMachine_dgText_s;561.39 0
	buildh e_BasicAPIExamples.SequentialExamples.CoffeeMachine_dgEditor_s;567.45 0
	buildhr e_iTasks.WF.Definition_riTask; 6 0
	buildh e_iTasks.Extensions.Admin.WorkflowAdmin_dtoWorkflow;13 1
	buildAC "Calculator"
	buildh ARRAY 1
	push_update_a 1 3
	updates3pop_a 0 1 3 4
.d 4 0 
	jmp e_iTasks.Extensions.Admin.WorkflowAdmin_sworkflow
.export e_BasicAPIExamples.SequentialExamples.CoffeeMachine_dcoffeemachine.3
.export e_BasicAPIExamples.SequentialExamples.CoffeeMachine_ncoffeemachine.3
.descn e_BasicAPIExamples.SequentialExamples.CoffeeMachine_dcoffeemachine.3 e_BasicAPIExamples.SequentialExamples.CoffeeMachine_ncoffeemachine.3 0 0 "coffeemachine.3"
.n 0 e_BasicAPIExamples.SequentialExamples.CoffeeMachine_dcoffeemachine.3 ea3
.o 1 0 
e_BasicAPIExamples.SequentialExamples.CoffeeMachine_ncoffeemachine.3
	push_node _cycle_in_spine 0
.o 1 0 
ea3
.o 1 0 
s3
	pushI 0
	buildhr e_iTasks.Extensions.Currency_kEUR 0 1
	buildh e_BasicAPIExamples.SequentialExamples.CoffeeMachine_dgetCoins.4 1
	buildh _Nil 0
	pushI 100
	buildhr e_iTasks.Extensions.Currency_kEUR 0 1
	buildAC "Chocolate"
	buildh ARRAY 1
	buildh _Tuple 2
	buildh _Cons 2
	pushI 50
	buildhr e_iTasks.Extensions.Currency_kEUR 0 1
	buildAC "Tea"
	buildh ARRAY 1
	buildh _Tuple 2
	buildh _Cons 2
	pushI 150
	buildhr e_iTasks.Extensions.Currency_kEUR 0 1
	buildAC "Cappucino"
	buildh ARRAY 1
	buildh _Tuple 2
	buildh _Cons 2
	pushI 100
	buildhr e_iTasks.Extensions.Currency_kEUR 0 1
	buildAC "Coffee"
	buildh ARRAY 1
	buildh _Tuple 2
	buildh _Cons 2
	buildh e_iTasks.Extensions.Currency_dTD;EUR 0
	buildhr e__SystemDynamic_kTypeCons 1 0
	buildh e__SystemDynamic_dTC_Char 0
	buildhr e__SystemDynamic_kTypeCons 1 0
	buildh e__SystemDynamic_dTC__UnboxedArray 0
	buildhr e__SystemDynamic_kTypeCons 1 0
	buildhr e__SystemDynamic_kTypeApp 2 0
	buildh e__SystemDynamic_dTC__Tuple2 0
	buildhr e__SystemDynamic_kTypeCons 1 0
	buildhr e__SystemDynamic_kTypeApp 2 0
	buildhr e__SystemDynamic_kTypeApp 2 0
	build e_BasicAPIExamples.SequentialExamples.CoffeeMachine_d_f4.259 2 e_BasicAPIExamples.SequentialExamples.CoffeeMachine_n_f4.259
	buildAC "Choose your product:"
	buildhr e_iTasks.UI.Definition_kHint 1 0
	build e_BasicAPIExamples.SequentialExamples.CoffeeMachine_d_f3.258 2 e_BasicAPIExamples.SequentialExamples.CoffeeMachine_n_f3.258
	buildAC "Product"
	buildhr e_iTasks.UI.Definition_kTitle 1 0
	build e_BasicAPIExamples.SequentialExamples.CoffeeMachine_d_f2.257 2 e_BasicAPIExamples.SequentialExamples.CoffeeMachine_n_f2.257
	buildh e_iTasks.Extensions.Currency_dTD;EUR 0
	buildhr e__SystemDynamic_kTypeCons 1 0
	buildh e__SystemDynamic_dTC_Char 0
	buildhr e__SystemDynamic_kTypeCons 1 0
	buildh e__SystemDynamic_dTC__UnboxedArray 0
	buildhr e__SystemDynamic_kTypeCons 1 0
	buildhr e__SystemDynamic_kTypeApp 2 0
	buildh e__SystemDynamic_dTC__Tuple2 0
	buildhr e__SystemDynamic_kTypeCons 1 0
	buildhr e__SystemDynamic_kTypeApp 2 0
	buildhr e__SystemDynamic_kTypeApp 2 0
	build e_BasicAPIExamples.SequentialExamples.CoffeeMachine_d_f1.256 3 e_BasicAPIExamples.SequentialExamples.CoffeeMachine_n_f1.256
	buildh e_iTasks.Extensions.Currency_dTD;EUR 0
	buildhr e__SystemDynamic_kTypeCons 1 0
	buildh e__SystemDynamic_dTC_Char 0
	buildhr e__SystemDynamic_kTypeCons 1 0
	buildh e__SystemDynamic_dTC__UnboxedArray 0
	buildhr e__SystemDynamic_kTypeCons 1 0
	buildhr e__SystemDynamic_kTypeApp 2 0
	buildh e__SystemDynamic_dTC__Tuple2 0
	buildhr e__SystemDynamic_kTypeCons 1 0
	buildhr e__SystemDynamic_kTypeApp 2 0
	buildhr e__SystemDynamic_kTypeApp 2 0
	build e_BasicAPIExamples.SequentialExamples.CoffeeMachine_d_f0.255 2 e_BasicAPIExamples.SequentialExamples.CoffeeMachine_n_f0.255
	buildh e_iTasks.Extensions.Currency_dTD;EUR 0
	buildhr e__SystemDynamic_kTypeCons 1 0
	buildh e__SystemDynamic_dTC_Char 0
	buildhr e__SystemDynamic_kTypeCons 1 0
	buildh e__SystemDynamic_dTC__UnboxedArray 0
	buildhr e__SystemDynamic_kTypeCons 1 0
	buildhr e__SystemDynamic_kTypeApp 2 0
	buildh e__SystemDynamic_dTC__Tuple2 0
	buildhr e__SystemDynamic_kTypeCons 1 0
	buildhr e__SystemDynamic_kTypeApp 2 0
	buildhr e__SystemDynamic_kTypeApp 2 0
	buildh e_BasicAPIExamples.SequentialExamples.CoffeeMachine_dgEq_s;564.42 0
	buildh e_BasicAPIExamples.SequentialExamples.CoffeeMachine_dJSONDecode_s;563.41 0
	buildh e_BasicAPIExamples.SequentialExamples.CoffeeMachine_dJSONEncode_s;562.40 0
	buildh e_BasicAPIExamples.SequentialExamples.CoffeeMachine_dgText_s;561.39 0
	buildh e_BasicAPIExamples.SequentialExamples.CoffeeMachine_dgEditor_s;567.45 0
.d 8 0 
	jmp e_iTasks.WF.Combinators.Common_sforever
.export e_BasicAPIExamples.SequentialExamples.CoffeeMachine_d_f4.259
.export e_BasicAPIExamples.SequentialExamples.CoffeeMachine_n_f4.259
.descn e_BasicAPIExamples.SequentialExamples.CoffeeMachine_d_f4.259 e_BasicAPIExamples.SequentialExamples.CoffeeMachine_n_f4.259 2 0 "_f4.259"
.n 2 e_BasicAPIExamples.SequentialExamples.CoffeeMachine_d_f4.259 ea259
.o 1 0 
e_BasicAPIExamples.SequentialExamples.CoffeeMachine_n_f4.259
	push_node _cycle_in_spine 2
.o 3 0 
ea259
.o 3 0 
s259
	buildh _Nil 0
	push_jsr_eval 1
	buildh e_BasicAPIExamples.SequentialExamples.CoffeeMachine_dgEq_s;564.42 0
	buildh e_BasicAPIExamples.SequentialExamples.CoffeeMachine_dJSONDecode_s;563.41 0
	update4_a 0 1
	buildh0_dup_a e_BasicAPIExamples.SequentialExamples.CoffeeMachine_dJSONEncode_s;562.40 1
	buildh0_put_a e_BasicAPIExamples.SequentialExamples.CoffeeMachine_dgText_s;561.39 1
	buildh e_BasicAPIExamples.SequentialExamples.CoffeeMachine_dgEditor_s;567.45 0
.d 9 0 
	jmp e_iTasks.WF.Tasks.Interaction_senterChoice
.export e_BasicAPIExamples.SequentialExamples.CoffeeMachine_d_f3.258
.export e_BasicAPIExamples.SequentialExamples.CoffeeMachine_n_f3.258
.descn e_BasicAPIExamples.SequentialExamples.CoffeeMachine_d_f3.258 e_BasicAPIExamples.SequentialExamples.CoffeeMachine_n_f3.258 2 0 "_f3.258"
.n 2 e_BasicAPIExamples.SequentialExamples.CoffeeMachine_d_f3.258 ea258
.o 1 0 
e_BasicAPIExamples.SequentialExamples.CoffeeMachine_n_f3.258
	push_node _cycle_in_spine 2
.o 3 0 
ea258
.o 3 0 
s258
	push_jsr_eval 1
	push_jsr_eval 1
	update2_a 0 2
	pop_a 2
	buildh e_iTasks.UI.Tune_dtune;7 0
.d 3 0 
	jsr e_iTasks.UI.Tune_s@>>
.o 1 0 
.d 1 0 
	fill_a01_pop_rtn 
.export e_BasicAPIExamples.SequentialExamples.CoffeeMachine_d_f2.257
.export e_BasicAPIExamples.SequentialExamples.CoffeeMachine_n_f2.257
.descn e_BasicAPIExamples.SequentialExamples.CoffeeMachine_d_f2.257 e_BasicAPIExamples.SequentialExamples.CoffeeMachine_n_f2.257 2 0 "_f2.257"
.n 2 e_BasicAPIExamples.SequentialExamples.CoffeeMachine_d_f2.257 ea257
.o 1 0 
e_BasicAPIExamples.SequentialExamples.CoffeeMachine_n_f2.257
	push_node _cycle_in_spine 2
.o 3 0 
ea257
.o 3 0 
s257
	push_jsr_eval 1
	push_jsr_eval 1
	update2_a 0 2
	pop_a 2
	buildh e_iTasks.UI.Tune_dtune;6 0
.d 3 0 
	jsr e_iTasks.UI.Tune_s@>>
.o 1 0 
.d 1 0 
	fill_a01_pop_rtn 
.export e_BasicAPIExamples.SequentialExamples.CoffeeMachine_d_f1.256
.export e_BasicAPIExamples.SequentialExamples.CoffeeMachine_n_f1.256
.descn e_BasicAPIExamples.SequentialExamples.CoffeeMachine_d_f1.256 e_BasicAPIExamples.SequentialExamples.CoffeeMachine_n_f1.256 3 0 "_f1.256"
.n 3 e_BasicAPIExamples.SequentialExamples.CoffeeMachine_d_f1.256 ea256
.o 1 0 
e_BasicAPIExamples.SequentialExamples.CoffeeMachine_n_f1.256
	push_node _cycle_in_spine 3
.o 4 0 
ea256
.o 4 0 
s256
	push_jsr_eval 1
	buildh e_BasicAPIExamples.SequentialExamples.CoffeeMachine_dJSONEncode_s;562.40 0
	push_jsr_eval 2
	update3pop_a 0 2
.d 5 0 
	jmp e_iTasks.WF.Combinators.Common_s>>!
.export e_BasicAPIExamples.SequentialExamples.CoffeeMachine_d_f0.255
.export e_BasicAPIExamples.SequentialExamples.CoffeeMachine_n_f0.255
.descn e_BasicAPIExamples.SequentialExamples.CoffeeMachine_d_f0.255 e_BasicAPIExamples.SequentialExamples.CoffeeMachine_n_f0.255 2 0 "_f0.255"
.n 2 e_BasicAPIExamples.SequentialExamples.CoffeeMachine_d_f0.255 ea255
.o 1 0 
e_BasicAPIExamples.SequentialExamples.CoffeeMachine_n_f0.255
	push_node _cycle_in_spine 2
.o 3 0 
ea255
.o 3 0 
s255
	buildh e_iTasks.WF.Tasks.Core_dreturn 0
	push_jsr_eval 2
	buildh e_BasicAPIExamples.SequentialExamples.CoffeeMachine_dJSONEncode_s;562.40 0
	push_jsr_eval 3
	update_a 3 5
	update3pop_a 0 2
.d 5 0 
	jmp e_iTasks.WF.Combinators.Common_s>>!
.export e_BasicAPIExamples.SequentialExamples.CoffeeMachine_dhandleMoney;4.5
.desc e_BasicAPIExamples.SequentialExamples.CoffeeMachine_dhandleMoney;4.5 _hnf l5 4 0 "handleMoney;4.5"
.a 4 ea5
.o 2 0 
l5
	push_args 0 3 3
	update_a 4 3
	create 
	put_a 5
.o 5 0 
ea5
	jsr_eval 3
.o 5 0 
s5
	push_a2 2 3
.d 2 0 
	jsr e_iTasks.Extensions.Currency_s<;8
.o 0 1 b
	jmp_false else.1
	create 
	push2_a 4
.d 3 0 
	buildh0_put_a_jsr _Nil 6 e_iTasks.Extensions.Currency_s-;4
.o 1 0 
	push_a2 2 4
	push_a 3
	build e_iTasks.Extensions.Currency_d+;2 2 e_iTasks.Extensions.Currency_n+;2
	update3pop_a 0 4
.d 4 0 
	jmp s4
else.1
	push_a2 2 3
	build e_iTasks.Extensions.Currency_d-;4 2 e_iTasks.Extensions.Currency_n-;4
	dup_a 4
	updatepop_a 2 3
.d 3 0 
	jmp s37
.export e_BasicAPIExamples.SequentialExamples.CoffeeMachine_dgetCoins.4
.desc e_BasicAPIExamples.SequentialExamples.CoffeeMachine_dgetCoins.4 _hnf l4 2 0 "getCoins.4"
.a 2 ea4
.o 2 0 
l4
	push_args 0 1 1
	update_a 2 1
	create 
	put_a 3
.o 3 0 
ea4
	push_jsr_eval 1
	repl_args 2 2
	jsr_eval 1
	updates3_a 0 2 1 3
	pop_a 1
.o 4 0 
s4
	buildh _Nil 0
	push3_a 3
	buildh e_BasicAPIExamples.SequentialExamples.CoffeeMachine_dhandleMoney;4.5 3
	buildh e_iTasks.WF.Combinators.Common_dhasValue 1
	buildAC "Insert"
	buildhr e_iTasks.WF.Combinators.Core_kAction 1 0
	buildh e_iTasks.WF.Combinators.Core_dOnAction 2
	buildh _Cons 2
	buildo1 e_BasicAPIExamples.SequentialExamples.CoffeeMachine_n_f5.260 1
	buildh e_iTasks.WF.Combinators.Common_dalways 1
	buildAC "Cancel"
	buildhr e_iTasks.WF.Combinators.Core_kAction 1 0
	buildh e_iTasks.WF.Combinators.Core_dOnAction 2
	buildh _Cons 2
	buildh _Nil 0
	pushI 200
	buildhr e_iTasks.Extensions.Currency_kEUR 0 1
	buildh _Cons 2
	pushI 100
	buildhr e_iTasks.Extensions.Currency_kEUR 0 1
	buildh _Cons 2
	pushI 50
	buildhr e_iTasks.Extensions.Currency_kEUR 0 1
	buildh _Cons 2
	pushI 20
	buildhr e_iTasks.Extensions.Currency_kEUR 0 1
	buildh _Cons 2
	pushI 10
	buildhr e_iTasks.Extensions.Currency_kEUR 0 1
	buildh _Cons 2
	pushI 5
	buildhr e_iTasks.Extensions.Currency_kEUR 0 1
	buildh _Cons 2
	buildh _Nil 0
	buildh e_StdFunctions_did 0
	buildh e_iTasks.Extensions.Currency_dTD;EUR 0
	buildhr e__SystemDynamic_kTypeCons 1 0
	buildh e_iTasks.Extensions.Currency_dgEq_EUR;20 0
	buildh e_iTasks.Extensions.Currency_dJSONDecode_EUR;16 0
	buildh e_iTasks.Extensions.Currency_dJSONEncode_EUR;14 0
	buildh e_iTasks.Extensions.Currency_dgText_EUR;22 0
	buildh e_iTasks.Extensions.Currency_dgEditor_EUR;24 0
	buildhr e_iTasks.WF.Definition_riTask; 6 0
	buildhr e_iTasks.WF.Tasks.Interaction_kChooseFromCheckGroup 2 0
	buildh _Cons 2
	buildh e_iTasks.Extensions.Currency_dTD;EUR 0
	buildhr e__SystemDynamic_kTypeCons 1 0
	buildh e_iTasks.Extensions.Currency_dgEq_EUR;20 0
	buildh e_iTasks.Extensions.Currency_dJSONDecode_EUR;16 0
	buildh e_iTasks.Extensions.Currency_dJSONEncode_EUR;14 0
	buildh e_iTasks.Extensions.Currency_dgText_EUR;22 0
	buildh e_iTasks.Extensions.Currency_dgEditor_EUR;24 0
	create 
	push_update_a 1 2
	updates4_a 7 6 5 4 3
	update_a 8 7
	updates3pop_a 0 1 9 8
.d 9 0 
	buildh0_put_a_jsr _Nil 11 e_iTasks.WF.Tasks.Interaction_senterChoice
.o 1 0 
	buildAC "Please insert a coin..."
	buildhr e_iTasks.UI.Definition_kHint 1 0
	buildh e_iTasks.UI.Tune_dtune;7 0
.d 3 0 
	jsr e_iTasks.UI.Tune_s@>>
.o 1 0 
	buildAC "Insert coins"
	buildhr e_iTasks.UI.Definition_kTitle 1 0
	buildh e_iTasks.UI.Tune_dtune;6 0
.d 3 0 
	jsr e_iTasks.UI.Tune_s@>>
.o 1 0 
	buildh _Nil 0
	push_a 4
	buildh e_BasicAPIExamples.SequentialExamples.CoffeeMachine_dview1;558.36 1
	buildh e_Text.HTML_dTD;HtmlTag 0
	buildhr e__SystemDynamic_kTypeCons 1 0
	buildh e__SystemDynamic_dTC__List 0
	buildhr e__SystemDynamic_kTypeCons 1 0
	buildhr e__SystemDynamic_kTypeApp 2 0
	buildh e_BasicAPIExamples.SequentialExamples.CoffeeMachine_dgEq_s;545.23 0
	buildh e_BasicAPIExamples.SequentialExamples.CoffeeMachine_dJSONDecode_s;544.22 0
	buildh e_BasicAPIExamples.SequentialExamples.CoffeeMachine_dJSONEncode_s;543.21 0
	buildh e_BasicAPIExamples.SequentialExamples.CoffeeMachine_dgText_s;542.20 0
	buildh e_BasicAPIExamples.SequentialExamples.CoffeeMachine_dgEditor_s;547.25 0
	buildhr e_iTasks.WF.Definition_riTask; 6 0
	buildhr e_iTasks.WF.Tasks.Interaction_kViewAs 2 0
	buildh _Cons 2
	buildh e_iTasks.Extensions.Currency_dTD;EUR 0
	buildhr e__SystemDynamic_kTypeCons 1 0
	buildh e_iTasks.Extensions.Currency_dgEq_EUR;20 0
	buildh e_iTasks.Extensions.Currency_dJSONDecode_EUR;16 0
	buildh e_iTasks.Extensions.Currency_dJSONEncode_EUR;14 0
	buildh e_iTasks.Extensions.Currency_dgText_EUR;22 0
	buildh e_iTasks.Extensions.Currency_dgEditor_EUR;24 0
	create 
	push_update_a 1 3
	updates4_a 3 1 8 6 4
	updates3_a 13 7 5 3
	buildh0_dup2_a _Nil 13
.d 9 0 
	pop_a_jsr 1 e_iTasks.WF.Tasks.Interaction_sviewInformation
.o 1 0 
	buildAC "Coffee Machine"
	buildhr e_iTasks.UI.Definition_kTitle 1 0
	buildh e_iTasks.UI.Tune_dtune;6 0
.d 3 0 
	jsr e_iTasks.UI.Tune_s@>>
.o 1 0 
	buildh e_iTasks.Extensions.Currency_dTD;EUR 0
	buildhr e__SystemDynamic_kTypeCons 1 0
	buildh e_iTasks.Extensions.Currency_dgEq_EUR;20 0
	buildh e_iTasks.Extensions.Currency_dJSONDecode_EUR;16 0
	buildh e_iTasks.Extensions.Currency_dJSONEncode_EUR;14 0
	buildh e_iTasks.Extensions.Currency_dgText_EUR;22 0
	buildh e_iTasks.Extensions.Currency_dgEditor_EUR;24 0
	buildh e_iTasks.Extensions.Currency_dTD;EUR 0
	buildhr e__SystemDynamic_kTypeCons 1 0
	buildh e_iTasks.Extensions.Currency_dgEq_EUR;20 0
	buildh e_iTasks.Extensions.Currency_dJSONDecode_EUR;16 0
	buildh e_iTasks.Extensions.Currency_dJSONEncode_EUR;14 0
	buildh e_iTasks.Extensions.Currency_dgText_EUR;22 0
	buildh e_iTasks.Extensions.Currency_dgEditor_EUR;24 0
	create 
	push_update_a 1 2
	updates4_a 7 6 5 4 3
	updates4_a 11 10 9 8 7
	updates3_a 14 13 12 11
	updates3pop_a 0 1 15 14
.d 15 0 
	jsr e_iTasks.WF.Combinators.Common_s||-
.o 1 0 
	buildh e_iTasks.Extensions.Currency_dJSONEncode_EUR;14 0
	buildh e_iTasks.Extensions.Currency_dTD;EUR 0
	buildhr e__SystemDynamic_kTypeCons 1 0
	update_a 3 6
	update3pop_a 0 3
.d 5 0 
	jmp e_iTasks.WF.Combinators.Common_s>>*
.export e_BasicAPIExamples.SequentialExamples.CoffeeMachine_d_f5.260
.export e_BasicAPIExamples.SequentialExamples.CoffeeMachine_n_f5.260
.descn e_BasicAPIExamples.SequentialExamples.CoffeeMachine_d_f5.260 e_BasicAPIExamples.SequentialExamples.CoffeeMachine_n_f5.260 1 0 "_f5.260"
.n 1 e_BasicAPIExamples.SequentialExamples.CoffeeMachine_d_f5.260 ea260
.o 1 0 
e_BasicAPIExamples.SequentialExamples.CoffeeMachine_n_f5.260
	push_node _cycle_in_spine 1
.o 2 0 
ea260
.o 2 0 
s260
	push_a 0
	buildAC "Product Cancelled"
	buildh ARRAY 1
	update2pop_a 0 1
.d 3 0 
	jmp s37
.export e_BasicAPIExamples.SequentialExamples.CoffeeMachine_dview1;558.36
.desc e_BasicAPIExamples.SequentialExamples.CoffeeMachine_dview1;558.36 _hnf l36 2 0 "view1;558.36"
.a 2 ea36
.o 2 0 
l36
	push_args 0 1 1
	update_a 2 1
	create 
	put_a 3
.o 3 0 
ea36
.o 3 0 
s36
	buildh _Nil 0
	buildh _Nil 0
	buildo1 e_BasicAPIExamples.SequentialExamples.CoffeeMachine_n_f9.264 3
	buildh _Cons 2
	buildh _Nil 0
	buildhr e_Text.HTML_kBrTag 1 0
	buildh _Cons 2
	buildo1 e_BasicAPIExamples.SequentialExamples.CoffeeMachine_n_f8.263 2
	buildh _Cons 2
	buildh _Nil 0
	buildhr e_Text.HTML_kDivTag 2 0
	fillh _Cons 2 4
.d 1 0 
	pop_a_rtn 2
.export e_BasicAPIExamples.SequentialExamples.CoffeeMachine_d_f9.264
.export e_BasicAPIExamples.SequentialExamples.CoffeeMachine_n_f9.264
.descn e_BasicAPIExamples.SequentialExamples.CoffeeMachine_d_f9.264 e_BasicAPIExamples.SequentialExamples.CoffeeMachine_n_f9.264 1 0 "_f9.264"
.n 1 e_BasicAPIExamples.SequentialExamples.CoffeeMachine_d_f9.264 ea264
.o 1 0 
e_BasicAPIExamples.SequentialExamples.CoffeeMachine_n_f9.264
	push_node _cycle_in_spine 1
.o 2 0 
ea264
.o 2 0 
s264
	jsr_eval 0
	push_a 0
	buildh e_iTasks.Extensions.Currency_dgText_EUR;22 0
	buildAC "To pay: "
	updates2_a 0 2 3
.d 3 0 
	pop_a_jsr 1 e_iTasks.Internal.Generic.Visualization_s<+++
.o 1 0 
	fill_r e_Text.HTML_kText 1 0 1 0 0
.d 1 0 
	pop_a_rtn 1
.export e_BasicAPIExamples.SequentialExamples.CoffeeMachine_d_f8.263
.export e_BasicAPIExamples.SequentialExamples.CoffeeMachine_n_f8.263
.descn e_BasicAPIExamples.SequentialExamples.CoffeeMachine_d_f8.263 e_BasicAPIExamples.SequentialExamples.CoffeeMachine_n_f8.263 1 0 "_f8.263"
.n 1 e_BasicAPIExamples.SequentialExamples.CoffeeMachine_d_f8.263 ea263
.o 1 0 
e_BasicAPIExamples.SequentialExamples.CoffeeMachine_n_f8.263
	push_node _cycle_in_spine 1
.o 2 0 
ea263
.o 2 0 
s263
	jsr_eval 0
	push_a 0
	buildh e_iTasks.Internal.Generic.Visualization_dgText__String;16 0
	buildAC "Chosen product: "
	updates2_a 0 2 3
.d 3 0 
	pop_a_jsr 1 e_iTasks.Internal.Generic.Visualization_s<+++
.o 1 0 
	fill_r e_Text.HTML_kText 1 0 1 0 0
.d 1 0 
	pop_a_rtn 1
.o 3 0 
s37
s48
	buildho2 _Tuple 0 1
	buildh _Nil 0
	buildh e_BasicAPIExamples.SequentialExamples.CoffeeMachine_dview2;565.43 0
	buildh e_Text.HTML_dTD;HtmlTag 0
	buildhr e__SystemDynamic_kTypeCons 1 0
	buildh e__SystemDynamic_dTC__List 0
	buildhr e__SystemDynamic_kTypeCons 1 0
	buildhr e__SystemDynamic_kTypeApp 2 0
	buildh e_BasicAPIExamples.SequentialExamples.CoffeeMachine_dgEq_s;545.23 0
	buildh e_BasicAPIExamples.SequentialExamples.CoffeeMachine_dJSONDecode_s;544.22 0
	buildh e_BasicAPIExamples.SequentialExamples.CoffeeMachine_dJSONEncode_s;543.21 0
	buildh e_BasicAPIExamples.SequentialExamples.CoffeeMachine_dgText_s;542.20 0
	buildh e_BasicAPIExamples.SequentialExamples.CoffeeMachine_dgEditor_s;547.25 0
	buildhr e_iTasks.WF.Definition_riTask; 6 0
	buildhr e_iTasks.WF.Tasks.Interaction_kViewAs 2 0
	buildh _Cons 2
	pushI 1
	buildhr e__SystemDynamic_kTypeVar 0 1
	pushI 0
	buildhr e__SystemDynamic_kTypeVar 0 1
	buildh e__SystemDynamic_dTC__Tuple2 0
	buildhr e__SystemDynamic_kTypeCons 1 0
	buildhr e__SystemDynamic_kTypeApp 2 0
	buildhr e__SystemDynamic_kTypeApp 2 0
	create 
	pushI 0
	pushI 2
	buildh0_dup2_a _Nil 5
.d 1 2 ii
	pop_a_jsr 1 e__SystemDynamic_s_initial_unification_environment
.o 1 0 
	buildh e__SystemDynamic_dTC_Char 0
	buildhr e__SystemDynamic_kTypeCons 1 0
	buildh e__SystemDynamic_dTC__UnboxedArray 0
	buildhr e__SystemDynamic_kTypeCons 1 0
	buildhr e__SystemDynamic_kTypeApp 2 0
	pushI 0
	buildhr e__SystemDynamic_kTypeVar 0 1
	create 
	push_update_a 1 2
	updates3pop_a 0 1 4 3
.d 4 0 
	jsr e__SystemDynamic_s_bind_global_type_pattern_var
.o 1 0 
	buildh e_iTasks.Extensions.Currency_dTD;EUR 0
	buildhr e__SystemDynamic_kTypeCons 1 0
	pushI 1
	buildhr e__SystemDynamic_kTypeVar 0 1
	create 
	push_update_a 1 2
	updates3pop_a 0 1 4 3
.d 4 0 
	jsr e__SystemDynamic_s_bind_global_type_pattern_var
.o 1 0 
	create 
	push_a 1
	updates3pop_a 0 1 3 2
.d 3 0 
	jsr e__SystemDynamic_s_normalise
.o 1 0 
	buildh e_BasicAPIExamples.SequentialExamples.CoffeeMachine_dgEq_s;564.42 0
	buildh e_BasicAPIExamples.SequentialExamples.CoffeeMachine_dJSONDecode_s;563.41 0
	buildh e_BasicAPIExamples.SequentialExamples.CoffeeMachine_dJSONEncode_s;562.40 0
	buildh e_BasicAPIExamples.SequentialExamples.CoffeeMachine_dgText_s;561.39 0
	buildh e_BasicAPIExamples.SequentialExamples.CoffeeMachine_dgEditor_s;567.45 0
	create 
	dup_a 10
	update4_a 5 6
	update_a 4 5
	update3pop_a 1 2
.d 9 0 
	jsr e_iTasks.WF.Tasks.Interaction_sviewInformation
.o 1 0 
	buildAC "Coffee Machine"
	buildhr e_iTasks.UI.Definition_kTitle 1 0
	buildh e_iTasks.UI.Tune_dtune;6 0
.d 3 0 
	jsr e_iTasks.UI.Tune_s@>>
.o 1 0 
.d 1 0 
	fill_a01_pop_rtn 
.export e_BasicAPIExamples.SequentialExamples.CoffeeMachine_dgEditor_s;567.45
.desc e_BasicAPIExamples.SequentialExamples.CoffeeMachine_dgEditor_s;567.45 _hnf l45 1 0 "gEditor_s;567.45"
.o 2 0 
i45
.d 1 0 
	pop_a_jmp 1 s45
.ai 1 _ i45
.o 2 0 
l45
.d 1 0 
	pop_a_jsr 1 ea45
.o 4 0 
.impmod iTasks.UI.Editor
.impdesc e_iTasks.UI.Editor_rEditor
	buildhr e_iTasks.UI.Editor_rEditor 4 0
.d 1 0 
	rtn 
.o 1 0 
ea45
	jsr_eval 0
.o 1 0 
s45
	buildh e_iTasks.Extensions.Currency_dgEq_EUR;20 0
	buildh e_iTasks.Extensions.Currency_dgText_EUR;22 0
	buildh e_iTasks.Extensions.Currency_dgEditor_EUR;24 0
	buildh e_Data.GenEq_dgEq__String;11 0
	buildh e_iTasks.Internal.Generic.Visualization_dgText__String;16 0
	buildh e_iTasks.UI.Editor.Generic_dgEditor__String;11 0
.d 7 0 
	jmp e_iTasks.UI.Editor.Generic_sgEditor__Tuple2;14
.export e_BasicAPIExamples.SequentialExamples.CoffeeMachine_dgText_s;561.39
.desc e_BasicAPIExamples.SequentialExamples.CoffeeMachine_dgText_s;561.39 _hnf l39 2 0 "gText_s;561.39"
.o 4 0 
i39
.d 3 0 
	pop_a_jmp 1 s39
.ai 2 ea39 i39
.o 2 0 
l39
	push_args 0 1 1
	update_a 2 1
	create 
	put_a 3
.o 3 0 
ea39
	jsr_eval 0
.o 3 0 
s39
	buildh e_iTasks.Extensions.Currency_dgText_EUR;22 0
	buildh e_iTasks.Internal.Generic.Visualization_dgText__String;16 0
.d 5 0 
	jmp e_iTasks.Internal.Generic.Visualization_sgText__Tuple2;19
.export e_BasicAPIExamples.SequentialExamples.CoffeeMachine_dJSONEncode_s;562.40
.desc e_BasicAPIExamples.SequentialExamples.CoffeeMachine_dJSONEncode_s;562.40 _hnf l40 2 0 "JSONEncode_s;562.40"
.o 3 1 b
i40
	pop_a 1
	push_args 0 2 2
	update2pop_a 0 1
.d 3 1 b
	jmp s40
.ai 2 ea40 i40
.o 2 0 
l40
	push_args 0 1 1
	update_a 2 1
	create 
	put_a 3
.o 3 0 
ea40
	push_jsr_eval 1
	repl_args 2 2
	jsr_eval 2
	pushB_a 2
	update2pop_a 0 2
.o 3 1 b
s40
	buildh e_iTasks.Extensions.Currency_dJSONEncode_EUR;14 0
	buildh e_Text.GenJSON_dJSONEncode__String;16 0
.d 5 1 b
	jmp e_Text.GenJSON_sJSONEncode__Tuple2;24
.export e_BasicAPIExamples.SequentialExamples.CoffeeMachine_dJSONDecode_s;563.41
.desc e_BasicAPIExamples.SequentialExamples.CoffeeMachine_dJSONDecode_s;563.41 _hnf l41 2 0 "JSONDecode_s;563.41"
.o 2 1 b
i41
.d 1 1 b
	pop_a_jmp 1 s41
.ai 0 a41 i41
.o 2 0 
l41
	repl_args 1 1
.o 2 0 
a41
.d 2 0 
	jsr ea41
.o 2 0 
	buildh _Tuple 2
.d 1 0 
	rtn 
.o 2 0 
ea41
	jsr_eval 1
	jsr_eval 0
	pushB0_pop_a1 
.o 1 1 b
s41
	buildh e_iTasks.Extensions.Currency_dJSONDecode_EUR;16 0
	buildh e_Text.GenJSON_dJSONDecode__String;46 0
.d 3 1 b
	jmp e_Text.GenJSON_sJSONDecode__Tuple2;54
.export e_BasicAPIExamples.SequentialExamples.CoffeeMachine_dgEq_s;564.42
.desc e_BasicAPIExamples.SequentialExamples.CoffeeMachine_dgEq_s;564.42 _hnf l42 2 0 "gEq_s;564.42"
.o 3 0 
i42
	pop_a 1
	push_args 1 2 2
	push_args 2 2 2
	update_a 3 5
	update3pop_a 0 2
.d 4 0 
	jmp s42
.ai 0 a42 i42
.o 2 0 
l42
	repl_args 1 1
.o 2 0 
a42
.d 2 0 
	jsr ea42
.o 0 1 b
	buildB_b 0
.d 1 0 
	pop_b_rtn 1
.o 2 0 
ea42
	push_jsr_eval 1
	repl_args 2 2
	push_jsr_eval 2
	repl_args 2 2
	update_a 3 5
	update3pop_a 0 2
.o 4 0 
s42
	buildh e_iTasks.Extensions.Currency_dgEq_EUR;20 0
	buildh e_Data.GenEq_dgEq__String;11 0
.d 6 0 
	jmp e_Data.GenEq_sgEq__Tuple2;21
.export e_BasicAPIExamples.SequentialExamples.CoffeeMachine_dview2;565.43
.desc e_BasicAPIExamples.SequentialExamples.CoffeeMachine_dview2;565.43 _hnf l43 1 0 "view2;565.43"
.o 2 0 
l43
	update_a 1 0
	create 
	put_a 2
.o 2 0 
ea43
	jsr_eval 0
	repl_args 2 2
.o 3 0 
s43
	buildh _Nil 0
	buildh _Nil 0
	buildo1 e_BasicAPIExamples.SequentialExamples.CoffeeMachine_n_f7.262 3
	buildh _Cons 2
	buildh _Nil 0
	buildhr e_Text.HTML_kBrTag 1 0
	buildh _Cons 2
	buildo1 e_BasicAPIExamples.SequentialExamples.CoffeeMachine_n_f6.261 2
	buildh _Cons 2
	buildh _Nil 0
	buildhr e_Text.HTML_kDivTag 2 0
	fillh _Cons 2 4
.d 1 0 
	pop_a_rtn 2
.export e_BasicAPIExamples.SequentialExamples.CoffeeMachine_d_f7.262
.export e_BasicAPIExamples.SequentialExamples.CoffeeMachine_n_f7.262
.descn e_BasicAPIExamples.SequentialExamples.CoffeeMachine_d_f7.262 e_BasicAPIExamples.SequentialExamples.CoffeeMachine_n_f7.262 1 0 "_f7.262"
.n 1 e_BasicAPIExamples.SequentialExamples.CoffeeMachine_d_f7.262 ea262
.o 1 0 
e_BasicAPIExamples.SequentialExamples.CoffeeMachine_n_f7.262
	push_node _cycle_in_spine 1
.o 2 0 
ea262
.o 2 0 
s262
	jsr_eval 0
	push_a 0
	buildh e_iTasks.Extensions.Currency_dgText_EUR;22 0
	buildAC "Money returned: "
	updates2_a 0 2 3
.d 3 0 
	pop_a_jsr 1 e_iTasks.Internal.Generic.Visualization_s<+++
.o 1 0 
	fill_r e_Text.HTML_kText 1 0 1 0 0
.d 1 0 
	pop_a_rtn 1
.export e_BasicAPIExamples.SequentialExamples.CoffeeMachine_d_f6.261
.export e_BasicAPIExamples.SequentialExamples.CoffeeMachine_n_f6.261
.descn e_BasicAPIExamples.SequentialExamples.CoffeeMachine_d_f6.261 e_BasicAPIExamples.SequentialExamples.CoffeeMachine_n_f6.261 1 0 "_f6.261"
.n 1 e_BasicAPIExamples.SequentialExamples.CoffeeMachine_d_f6.261 ea261
.o 1 0 
e_BasicAPIExamples.SequentialExamples.CoffeeMachine_n_f6.261
	push_node _cycle_in_spine 1
.o 2 0 
ea261
.o 2 0 
s261
	jsr_eval 0
	push_a 0
	buildh e_iTasks.Internal.Generic.Visualization_dgText__String;16 0
	buildAC "Enjoy your: "
	updates2_a 0 2 3
.d 3 0 
	pop_a_jsr 1 e_iTasks.Internal.Generic.Visualization_s<+++
.o 1 0 
	fill_r e_Text.HTML_kText 1 0 1 0 0
.d 1 0 
	pop_a_rtn 1
.export e_BasicAPIExamples.SequentialExamples.CoffeeMachine_dgEditor_s;547.25
.desc e_BasicAPIExamples.SequentialExamples.CoffeeMachine_dgEditor_s;547.25 _hnf l25 1 0 "gEditor_s;547.25"
.o 2 0 
i25
.d 1 0 
	pop_a_jmp 1 s25
.ai 1 _ i25
.o 2 0 
l25
.d 1 0 
	pop_a_jsr 1 ea25
.o 4 0 
	buildhr e_iTasks.UI.Editor_rEditor 4 0
.d 1 0 
	rtn 
.o 1 0 
ea25
	jsr_eval 0
.o 1 0 
s25
	buildh e_Text.HTML_dgEq_HtmlTag;32 0
	buildh e_iTasks.Internal.Generic.Visualization_dgText_HtmlTag;35 0
	buildh e_iTasks.UI.Editor.Generic_dgEditor_HtmlTag;28 0
.d 4 0 
	jmp e_iTasks.UI.Editor.Generic_sgEditor__List;12
.export e_BasicAPIExamples.SequentialExamples.CoffeeMachine_dgText_s;542.20
.desc e_BasicAPIExamples.SequentialExamples.CoffeeMachine_dgText_s;542.20 _hnf l20 2 0 "gText_s;542.20"
.o 4 0 
i20
.d 3 0 
	pop_a_jmp 1 s20
.ai 2 ea20 i20
.o 2 0 
l20
	push_args 0 1 1
	update_a 2 1
	create 
	put_a 3
.o 3 0 
ea20
	jsr_eval 0
.o 3 0 
s20
	buildh e_iTasks.Internal.Generic.Visualization_dgText_HtmlTag;35 0
.d 4 0 
	jmp e_iTasks.Internal.Generic.Visualization_sgText__List;17
.export e_BasicAPIExamples.SequentialExamples.CoffeeMachine_dJSONEncode_s;543.21
.desc e_BasicAPIExamples.SequentialExamples.CoffeeMachine_dJSONEncode_s;543.21 _hnf l21 2 0 "JSONEncode_s;543.21"
.o 3 1 b
i21
.d 2 1 b
	pop_a_jmp 1 s21
.ai 2 ea21 i21
.o 2 0 
l21
	push_args 0 1 1
	update_a 2 1
	create 
	put_a 3
.o 3 0 
ea21
	jsr_eval 1
	jsr_eval 0
	pushB0_pop_a1 
.o 2 1 b
s21
	buildh e_Text.HTML.GenJSON_dJSONEncode_HtmlTag;0 0
.d 3 1 b
	jmp e_Text.GenJSON_sJSONEncode__List;17
.export e_BasicAPIExamples.SequentialExamples.CoffeeMachine_dJSONDecode_s;544.22
.desc e_BasicAPIExamples.SequentialExamples.CoffeeMachine_dJSONDecode_s;544.22 _hnf l22 2 0 "JSONDecode_s;544.22"
.o 2 1 b
i22
.d 1 1 b
	pop_a_jmp 1 s22
.ai 0 a22 i22
.o 2 0 
l22
	repl_args 1 1
.o 2 0 
a22
.d 2 0 
	jsr ea22
.o 2 0 
	buildh _Tuple 2
.d 1 0 
	rtn 
.o 2 0 
ea22
	jsr_eval 1
	jsr_eval 0
	pushB0_pop_a1 
.o 1 1 b
s22
	buildh e_Text.HTML.GenJSON_dJSONDecode_HtmlTag;24 0
.d 2 1 b
	jmp e_Text.GenJSON_sJSONDecode__List;47
.export e_BasicAPIExamples.SequentialExamples.CoffeeMachine_dgEq_s;545.23
.desc e_BasicAPIExamples.SequentialExamples.CoffeeMachine_dgEq_s;545.23 _hnf l23 2 0 "gEq_s;545.23"
.o 3 0 
i23
.d 2 0 
	pop_a_jmp 1 s23
.ai 0 a23 i23
.o 2 0 
l23
	repl_args 1 1
.o 2 0 
a23
.d 2 0 
	jsr ea23
.o 0 1 b
	buildB_b 0
.d 1 0 
	pop_b_rtn 1
.o 2 0 
ea23
	jsr_eval 1
	jsr_eval 0
.o 2 0 
s23
	buildh e_Text.HTML_dgEq_HtmlTag;32 0
.d 3 0 
	jmp e_Data.GenEq_sgEq__List;14
