.comp 920 000011110011000
.start _nostart_
.depend "Text" "20210430140248"
.depend "iTasks.Internal.TaskIO" "20210430140248"
.depend "iTasks.Internal.WebService" "20210430140248"
.depend "iTasks.Internal.SDSService" "20210430140248"
.depend "iTasks.Internal.Serialization" "20210430140248"
.depend "_SystemEnum" "20210430140248"
.depend "StdEnum" "20210430140248"
.depend "StdTuple" "20210430140248"
.depend "StdOrdList" "20210430140248"
.depend "Control.Monad.Trans" "20210430140248"
.depend "StdMaybe" "20210430140248"
.depend "Data.Maybe" "20210430140248"
.depend "iTasks.Extensions.Admin.WorkflowAdmin" "20210430140248"
.depend "iTasks.Extensions.User" "20210430140248"
.depend "iTasks.Extensions.Admin.UserAdmin" "20210430140248"
.depend "iTasks.UI.Layout.Common" "20210430140248"
.depend "iTasks.UI.Editor.Modifiers" "20210430140248"
.depend "iTasks.UI.Editor.Containers" "20210430140248"
.depend "iTasks.UI.Tune" "20210430140248"
.depend "iTasks.Internal.Distributed.Domain" "20210430140248"
.depend "iTasks.WF.Combinators.Common" "20210430140248"
.depend "iTasks.WF.Combinators.SDS" "20210430140248"
.depend "iTasks.UI.Editor.Controls" "20210430140248"
.depend "iTasks.WF.Tasks.Interaction" "20210430140248"
.depend "iTasks.WF.Tasks.System" "20210430140248"
.depend "iTasks.WF.Tasks.SDS" "20210430140248"
.depend "iTasks.WF.Tasks.Core" "20210430140248"
.depend "System.Time.GenJSON" "20210430140248"
.depend "Text.HTML.GenJSON" "20210430140248"
.depend "Data.Map.GenJSON" "20210430140248"
.depend "Data.Error.GenJSON" "20210430140248"
.depend "Data.Either.GenJSON" "20210430140248"
.depend "iTasks.WF.Derives" "20210430140248"
.depend "iTasks.SDS.Combinators.Common" "20210430140248"
.depend "iTasks.SDS.Combinators.Core" "20210430140248"
.depend "iTasks.SDS.Sources.System" "20210430140248"
.depend "iTasks.SDS.Sources.Store" "20210430140248"
.depend "iTasks.SDS.Sources.Core" "20210430140248"
.depend "System._Signal" "20210430140248"
.depend "System.Signal" "20210430140248"
.depend "_SystemStrictMaybes" "20210430140248"
.depend "Text.GenPrint" "20210430140248"
.depend "iTasks.Extensions.DateTime" "20210430140248"
.depend "iTasks.Internal.TaskServer" "20210430140248"
.depend "iTasks.Extensions.Document" "20210430140248"
.depend "System.File" "20210430140248"
.depend "iTasks.Util.DeferredJSON" "20210430140248"
.depend "iTasks.Internal.SDS" "20210430140248"
.depend "iTasks.Internal.TaskEval" "20210430140248"
.depend "iTasks.UI.Layout" "20210430140248"
.depend "iTasks.Internal.TaskState" "20210430140248"
.depend "iTasks.WF.Combinators.Core" "20210430140248"
.depend "Data.IntMap.Base" "20210430140248"
.depend "Data.IntMap.Strict" "20210430140248"
.depend "Data.CircularStack" "20210430140248"
.depend "System._Process" "20210430140248"
.depend "System.Process" "20210430140248"
.depend "System.OS" "20210430140248"
.depend "Data.GenHash" "20210430140248"
.depend "Data.Maybe.Ord" "20210430140248"
.depend "Control.GenBimap" "20210430140248"
.depend "ABC.Interpreter.JavaScript" "20210430140248"
.depend "ABC.Interpreter" "20210430140248"
.depend "iTasks.UI.Editor" "20210430140248"
.depend "iTasks.UI.Editor.Generic" "20210430140248"
.depend "iTasks.Internal.Generic.Defaults" "20210430140248"
.depend "Data.GenDefault" "20210430140248"
.depend "Data.Integer" "20210430140248"
.depend "Text.HTML" "20210430140248"
.depend "iTasks.Internal.Generic.Visualization" "20210430140248"
.depend "iTasks.SDS.Definition" "20210430140248"
.depend "TCPStringChannelsInternal" "20210430140248"
.depend "TCPStringChannels" "20210430140248"
.depend "TCPEvent" "20210430140248"
.depend "tcp_bytestreams" "20210430140248"
.depend "TCPDef" "20210430140248"
.depend "TCPChannels" "20210430140248"
.depend "TCPIP" "20210430140248"
.depend "iTasks.WF.Tasks.IO" "20210430140248"
.depend "iTasks.Internal.Task" "20210430140248"
.depend "iTasks.UI.Definition" "20210430140248"
.depend "Text.GenJSON" "20210430140248"
.depend "Data.Bifunctor" "20210430140248"
.depend "Data.Either" "20210430140248"
.depend "Data.Queue" "20210430140248"
.depend "StdFile" "20210430140248"
.depend "symbols_in_program" "20210430140248"
.depend "iTasks.Internal.IWorld" "20210430140248"
.depend "iTasks.WF.Definition" "20210430140248"
.depend "tcp" "20210430140248"
.depend "TCPChannelClass" "20210430140248"
.depend "System._Time" "20210430140248"
.depend "System.Time" "20210430140248"
.depend "System.GetOpt" "20210430140248"
.depend "System.OSError" "20210430140248"
.depend "System.FilePath" "20210430140248"
.depend "StdString" "20210430140248"
.depend "Internet.HTTP" "20210430140248"
.depend "Control.Monad.Fail" "20210430140248"
.depend "Data.Traversable" "20210430140248"
.depend "StdMisc" "20210430140248"
.depend "StdOverloadedList" "20210430140248"
.depend "Data.List" "20210430140248"
.depend "Data.Foldable" "20210430140248"
.depend "Data.Set" "20210430140248"
.depend "Data.GenLexOrd" "20210430140248"
.depend "StdFunctions" "20210430140248"
.depend "StdFunc" "20210430140248"
.depend "Data.Map" "20210430140248"
.depend "_SystemEnumStrict" "20210430140248"
.depend "_SystemStrictLists" "20210430140248"
.depend "StdStrictLists" "20210430140248"
.depend "StdGeneric" "20210430140248"
.depend "Data.GenEq" "20210430140248"
.depend "StdReal" "20210430140248"
.depend "StdChar" "20210430140248"
.depend "StdInt" "20210430140248"
.depend "StdBool" "20210430140248"
.depend "StdClass" "20210430140248"
.depend "StdList" "20210430140248"
.depend "Data.Monoid" "20210430140248"
.depend "Control.Applicative" "20210430140248"
.depend "Control.Monad" "20210430140248"
.depend "Data.Functor" "20210430140248"
.depend "Data.Error" "20210430140248"
.depend "iTasks.Engine" "20210430140248"
.depend "iTasks" "20210430140248"
.depend "StdOverloaded" "20210430140248"
.depend "_SystemDynamic" "20210430140248"
.depend "BasicAPIExamples.ParallelExamples.TinyTextEditor" "20210430140249"
.module m_BasicAPIExamples.ParallelExamples.TinyTextEditor "BasicAPIExamples.ParallelExamples.TinyTextEditor" "20210430140249"
.endinfo
.impmod _system
.implab _cycle_in_spine
.implab _type_error
.implab _hnf
.impdesc e_system_dind
.implab e_system_nind e_system_eaind
.impdesc e_system_dif
.implab e_system_nif e_system_eaif
.implab e_system_sif
.impdesc e_system_dAP
.implab e_system_nAP e_system_eaAP
.implab e_system_sAP
.impdesc ARRAY
.impdesc _Nil
.impdesc _Cons
.impdesc _Conss
.implab n_Conss ea_Conss
.impdesc _Consts
.implab n_Consts ea_Consts
.impdesc _Conssts
.implab n_Conssts ea_Conssts
.impdesc _Tuple
.impdesc d_S.1
.implab n_S.1 ea_S.1
.impdesc d_S.2
.implab n_S.2 ea_S.2
.impdesc d_S.3
.implab n_S.3 ea_S.3
.impdesc d_S.4
.implab n_S.4 ea_S.4
.impdesc d_S.5
.implab n_S.5 ea_S.5
.impdesc d_S.6
.implab n_S.6 ea_S.6
.implab _driver
.impmod Text
.impdesc e_Text_dreplaceSubString;13
.implab e_Text_sreplaceSubString;13
.implab e_Text_ssplit;16
.impmod Data.Maybe
.implab e_Data.Maybe_sgEq__!Maybe;69
.impmod iTasks.Extensions.Admin.WorkflowAdmin
.implab e_iTasks.Extensions.Admin.WorkflowAdmin_sworkflow
.impdesc e_iTasks.Extensions.Admin.WorkflowAdmin_dtoWorkflow;13
.impmod iTasks.UI.Layout.Common
.implab e_iTasks.UI.Layout.Common_sarrangeHorizontal
.impmod iTasks.UI.Tune
.implab e_iTasks.UI.Tune_s<<@
.implab e_iTasks.UI.Tune_s@>>
.impdesc e_iTasks.UI.Tune_dtune;7
.impdesc e_iTasks.UI.Tune_dtune;14
.impmod iTasks.WF.Combinators.Common
.implab e_iTasks.WF.Combinators.Common_s>>*
.implab e_iTasks.WF.Combinators.Common_s>>!
.implab e_iTasks.WF.Combinators.Common_s>>-
.implab e_iTasks.WF.Combinators.Common_s@!
.implab e_iTasks.WF.Combinators.Common_s-||-
.impdesc e_iTasks.WF.Combinators.Common_dalways
.impdesc e_iTasks.WF.Combinators.Common_dhasValue
.impmod iTasks.UI.Editor.Controls
.impdesc e_iTasks.UI.Editor.Controls_dtextArea
.implab e_iTasks.UI.Editor.Controls_ntextArea
.impmod iTasks.WF.Tasks.Interaction
.implab e_iTasks.WF.Tasks.Interaction_senterInformation
.implab e_iTasks.WF.Tasks.Interaction_supdateInformation
.implab e_iTasks.WF.Tasks.Interaction_supdateSharedInformation
.implab e_iTasks.WF.Tasks.Interaction_sviewSharedInformation
.impmod iTasks.WF.Tasks.SDS
.implab e_iTasks.WF.Tasks.SDS_supd
.impmod iTasks.WF.Tasks.Core
.impdesc e_iTasks.WF.Tasks.Core_dreturn
.implab e_iTasks.WF.Tasks.Core_nreturn e_iTasks.WF.Tasks.Core_eareturn
.impmod iTasks.SDS.Sources.Store
.implab e_iTasks.SDS.Sources.Store_ssharedStore
.impmod iTasks.Internal.SDS
.impdesc e_iTasks.Internal.SDS_dsdsIdentity;17
.impdesc e_iTasks.Internal.SDS_dreadSDS;18
.impdesc e_iTasks.Internal.SDS_dwriteSDS;19
.impdesc e_iTasks.Internal.SDS_dmodifySDS;20
.impdesc e_iTasks.Internal.SDS_dreadRegisterSDS;21
.impmod iTasks.UI.Editor
.implab e_iTasks.UI.Editor_sbinumap_Editor;15
.impmod iTasks.UI.Editor.Generic
.impdesc e_iTasks.UI.Editor.Generic_dgEditor_PAIR;2
.impdesc e_iTasks.UI.Editor.Generic_dgEditor_RECORD;5
.implab e_iTasks.UI.Editor.Generic_ngEditor_RECORD;5
.impdesc e_iTasks.UI.Editor.Generic_dgEditor_FIELD;6
.impdesc e_iTasks.UI.Editor.Generic_dgEditor_Int;7
.impdesc e_iTasks.UI.Editor.Generic_dgEditor__String;11
.impdesc e_iTasks.UI.Editor.Generic_dgEditor__Unit;13
.implab e_iTasks.UI.Editor.Generic_sgEditor__!Maybe;23
.impmod iTasks.Internal.Generic.Visualization
.impdesc e_iTasks.Internal.Generic.Visualization_dgText_PAIR;6
.implab e_iTasks.Internal.Generic.Visualization_sgText_RECORD;10
.impdesc e_iTasks.Internal.Generic.Visualization_dgText_FIELD;11
.impdesc e_iTasks.Internal.Generic.Visualization_dgText_Int;12
.impdesc e_iTasks.Internal.Generic.Visualization_dgText__String;16
.impdesc e_iTasks.Internal.Generic.Visualization_dgText__Unit;18
.implab e_iTasks.Internal.Generic.Visualization_sgText__!Maybe;30
.impmod Text.GenJSON
.implab e_Text.GenJSON_sJSONEncode_Int;12
.impdesc e_Text.GenJSON_dJSONEncode__String;16
.implab e_Text.GenJSON_sJSONEncode__String;16
.impdesc e_Text.GenJSON_dJSONEncode__Unit;23
.implab e_Text.GenJSON_sJSONEncode__!Maybe;33
.implab e_Text.GenJSON_sJSONDecode_Int;42
.impdesc e_Text.GenJSON_dJSONDecode__String;46
.implab e_Text.GenJSON_sJSONDecode__String;46
.impdesc e_Text.GenJSON_dJSONDecode__Unit;53
.implab e_Text.GenJSON_sJSONDecode__!Maybe;63
.impmod StdString
.implab e_StdString_s==;2
.implab e_StdString_s+++;11
.impmod StdMisc
.implab e_StdMisc_sabort
.impmod Data.List
.implab e_Data.List_s!?
.impmod StdFunctions
.impdesc e_StdFunctions_did
.implab e_StdFunctions_sconst
.impmod Data.GenEq
.implab e_Data.GenEq_sgEq_Int;7
.impdesc e_Data.GenEq_dgEq__String;11
.implab e_Data.GenEq_sgEq__String;11
.impdesc e_Data.GenEq_dgEq__Unit;20
.impmod StdList
.implab e_StdList_slength;47
.impmod iTasks.Extensions.Admin.WorkflowAdmin
.impdesc e_iTasks.Extensions.Admin.WorkflowAdmin_rtoWorkflow;
.impmod iTasks.UI.Tune
.impdesc e_iTasks.UI.Tune_kApplyLayout
.impdesc e_iTasks.UI.Tune_rtune;
.impmod iTasks.WF.Tasks.Interaction
.impdesc e_iTasks.WF.Tasks.Interaction_kViewAs
.impdesc e_iTasks.WF.Tasks.Interaction_dUpdateSharedUsing
.impmod iTasks.WF.Combinators.Core
.impdesc e_iTasks.WF.Combinators.Core_kAction
.impdesc e_iTasks.WF.Combinators.Core_dOnAction
.impmod iTasks.SDS.Definition
.impdesc e_iTasks.SDS.Definition_rIdentifiable;
.impdesc e_iTasks.SDS.Definition_rReadable;
.impdesc e_iTasks.SDS.Definition_rRegistrable;
.impdesc e_iTasks.SDS.Definition_rWriteable;
.impdesc e_iTasks.SDS.Definition_rModifiable;
.impdesc e_iTasks.SDS.Definition_rRWShared;
.impmod iTasks.UI.Definition
.impdesc e_iTasks.UI.Definition_kHint
.impmod Text.GenJSON
.impdesc e_Text.GenJSON_dJSONNull
.impdesc e_Text.GenJSON_kJSONArray
.impdesc e_Text.GenJSON_kJSONObject
.impdesc e_Text.GenJSON_dJSONObject
.implab e_Text.GenJSON_nJSONObject e_Text.GenJSON_eaJSONObject
.impmod iTasks.WF.Definition
.impdesc e_iTasks.WF.Definition_riTask;
.impmod StdGeneric
.impdesc e_StdGeneric_dPAIR
.impdesc e_StdGeneric_dRECORD
.impmod _SystemDynamic
.impdesc e__SystemDynamic_kTypeCons
.impdesc e__SystemDynamic_kTypeApp
.impdesc e__SystemDynamic_rTypeCodeConstructor
.impdesc e__SystemDynamic_dTC_Char
.impdesc e__SystemDynamic_dTC__UnboxedArray
.impdesc e__SystemDynamic_dTC__Unit
.export e_BasicAPIExamples.ParallelExamples.TinyTextEditor_rStatistics
.record e_BasicAPIExamples.ParallelExamples.TinyTextEditor_rStatistics aa 2 0 "Statistics"
.export e_BasicAPIExamples.ParallelExamples.TinyTextEditor_rReplace
.record e_BasicAPIExamples.ParallelExamples.TinyTextEditor_rReplace aa 2 0 "Replace"
.export e_BasicAPIExamples.ParallelExamples.TinyTextEditor_dReplace.search
.export e_BasicAPIExamples.ParallelExamples.TinyTextEditor_nReplace.search
.descs e_BasicAPIExamples.ParallelExamples.TinyTextEditor_dReplace.search e_BasicAPIExamples.ParallelExamples.TinyTextEditor_nReplace.search _ 1 0 "Replace.search"
.n -4 e_BasicAPIExamples.ParallelExamples.TinyTextEditor_dReplace.search
.o 1 0
e_BasicAPIExamples.ParallelExamples.TinyTextEditor_nReplace.search
	push_node _cycle_in_spine 1
	jsr_eval 0
	repl_r_args_a 2 0 1 1
	jsr_eval 0
	fill_a 0 1
	pop_a 1
.d 1 0
	rtn
.export e_BasicAPIExamples.ParallelExamples.TinyTextEditor_dReplace.replaceBy
.export e_BasicAPIExamples.ParallelExamples.TinyTextEditor_nReplace.replaceBy
.export e_BasicAPIExamples.ParallelExamples.TinyTextEditor_eaReplace.replaceBy
.descs e_BasicAPIExamples.ParallelExamples.TinyTextEditor_dReplace.replaceBy e_BasicAPIExamples.ParallelExamples.TinyTextEditor_nReplace.replaceBy _ 2 0 "Replace.replaceBy"
.n -4 e_BasicAPIExamples.ParallelExamples.TinyTextEditor_dReplace.replaceBy e_BasicAPIExamples.ParallelExamples.TinyTextEditor_eaReplace.replaceBy
.o 1 0
e_BasicAPIExamples.ParallelExamples.TinyTextEditor_nReplace.replaceBy
	push_node _cycle_in_spine 1
.o 2 0
e_BasicAPIExamples.ParallelExamples.TinyTextEditor_eaReplace.replaceBy
	jsr_eval 0
	repl_r_args_a 2 0 2 1
	jmp_eval_upd
.export e_BasicAPIExamples.ParallelExamples.TinyTextEditor_rgEditor_s;
.record e_BasicAPIExamples.ParallelExamples.TinyTextEditor_rgEditor_s; a 1 0 "gEditor_s;"
.export e_BasicAPIExamples.ParallelExamples.TinyTextEditor_tgEditor_s;
.export e_BasicAPIExamples.ParallelExamples.TinyTextEditor_cgEditor_s;
.descn e_BasicAPIExamples.ParallelExamples.TinyTextEditor_tgEditor_s; e_BasicAPIExamples.ParallelExamples.TinyTextEditor_cgEditor_s; 1 1 "gEditor_s;"
.n 1 e_BasicAPIExamples.ParallelExamples.TinyTextEditor_tgEditor_s;
.o 1 0
e_BasicAPIExamples.ParallelExamples.TinyTextEditor_cgEditor_s;
	push_node _cycle_in_spine 1
	jsr_eval 0
.impmod BasicAPIExamples.ParallelExamples.TinyTextEditor
.impdesc e_BasicAPIExamples.ParallelExamples.TinyTextEditor_rgEditor_s;
	fill_r e_BasicAPIExamples.ParallelExamples.TinyTextEditor_rgEditor_s; 1 0 1 0 0
	pop_a 1
.d 1 0
	rtn
.export e_BasicAPIExamples.ParallelExamples.TinyTextEditor_rgText_s;
.record e_BasicAPIExamples.ParallelExamples.TinyTextEditor_rgText_s; a 1 0 "gText_s;"
.export e_BasicAPIExamples.ParallelExamples.TinyTextEditor_tgText_s;
.export e_BasicAPIExamples.ParallelExamples.TinyTextEditor_cgText_s;
.descn e_BasicAPIExamples.ParallelExamples.TinyTextEditor_tgText_s; e_BasicAPIExamples.ParallelExamples.TinyTextEditor_cgText_s; 1 1 "gText_s;"
.n 1 e_BasicAPIExamples.ParallelExamples.TinyTextEditor_tgText_s;
.o 1 0
e_BasicAPIExamples.ParallelExamples.TinyTextEditor_cgText_s;
	push_node _cycle_in_spine 1
	jsr_eval 0
.impdesc e_BasicAPIExamples.ParallelExamples.TinyTextEditor_rgText_s;
	fill_r e_BasicAPIExamples.ParallelExamples.TinyTextEditor_rgText_s; 1 0 1 0 0
	pop_a 1
.d 1 0
	rtn
.export e_BasicAPIExamples.ParallelExamples.TinyTextEditor_rJSONEncode_s;
.record e_BasicAPIExamples.ParallelExamples.TinyTextEditor_rJSONEncode_s; a 1 0 "JSONEncode_s;"
.export e_BasicAPIExamples.ParallelExamples.TinyTextEditor_tJSONEncode_s;
.export e_BasicAPIExamples.ParallelExamples.TinyTextEditor_cJSONEncode_s;
.descn e_BasicAPIExamples.ParallelExamples.TinyTextEditor_tJSONEncode_s; e_BasicAPIExamples.ParallelExamples.TinyTextEditor_cJSONEncode_s; 1 1 "JSONEncode_s;"
.n 1 e_BasicAPIExamples.ParallelExamples.TinyTextEditor_tJSONEncode_s;
.o 1 0
e_BasicAPIExamples.ParallelExamples.TinyTextEditor_cJSONEncode_s;
	push_node _cycle_in_spine 1
	jsr_eval 0
.impdesc e_BasicAPIExamples.ParallelExamples.TinyTextEditor_rJSONEncode_s;
	fill_r e_BasicAPIExamples.ParallelExamples.TinyTextEditor_rJSONEncode_s; 1 0 1 0 0
	pop_a 1
.d 1 0
	rtn
.export e_BasicAPIExamples.ParallelExamples.TinyTextEditor_rJSONDecode_s;
.record e_BasicAPIExamples.ParallelExamples.TinyTextEditor_rJSONDecode_s; a 1 0 "JSONDecode_s;"
.export e_BasicAPIExamples.ParallelExamples.TinyTextEditor_tJSONDecode_s;
.export e_BasicAPIExamples.ParallelExamples.TinyTextEditor_cJSONDecode_s;
.descn e_BasicAPIExamples.ParallelExamples.TinyTextEditor_tJSONDecode_s; e_BasicAPIExamples.ParallelExamples.TinyTextEditor_cJSONDecode_s; 1 1 "JSONDecode_s;"
.n 1 e_BasicAPIExamples.ParallelExamples.TinyTextEditor_tJSONDecode_s;
.o 1 0
e_BasicAPIExamples.ParallelExamples.TinyTextEditor_cJSONDecode_s;
	push_node _cycle_in_spine 1
	jsr_eval 0
.impdesc e_BasicAPIExamples.ParallelExamples.TinyTextEditor_rJSONDecode_s;
	fill_r e_BasicAPIExamples.ParallelExamples.TinyTextEditor_rJSONDecode_s; 1 0 1 0 0
	pop_a 1
.d 1 0
	rtn
.export e_BasicAPIExamples.ParallelExamples.TinyTextEditor_rgEq_s;
.record e_BasicAPIExamples.ParallelExamples.TinyTextEditor_rgEq_s; a 1 0 "gEq_s;"
.export e_BasicAPIExamples.ParallelExamples.TinyTextEditor_tgEq_s;
.export e_BasicAPIExamples.ParallelExamples.TinyTextEditor_cgEq_s;
.descn e_BasicAPIExamples.ParallelExamples.TinyTextEditor_tgEq_s; e_BasicAPIExamples.ParallelExamples.TinyTextEditor_cgEq_s; 1 1 "gEq_s;"
.n 1 e_BasicAPIExamples.ParallelExamples.TinyTextEditor_tgEq_s;
.o 1 0
e_BasicAPIExamples.ParallelExamples.TinyTextEditor_cgEq_s;
	push_node _cycle_in_spine 1
	jsr_eval 0
.impdesc e_BasicAPIExamples.ParallelExamples.TinyTextEditor_rgEq_s;
	fill_r e_BasicAPIExamples.ParallelExamples.TinyTextEditor_rgEq_s; 1 0 1 0 0
	pop_a 1
.d 1 0
	rtn
.export e_BasicAPIExamples.ParallelExamples.TinyTextEditor_sTD;Replace
.export e_BasicAPIExamples.ParallelExamples.TinyTextEditor_eaTD;Replace
.descexp e_BasicAPIExamples.ParallelExamples.TinyTextEditor_dTD;Replace e_BasicAPIExamples.ParallelExamples.TinyTextEditor_nTD;Replace e_BasicAPIExamples.ParallelExamples.TinyTextEditor_lTD;Replace 1 0 "TD;Replace"
.o 2 0
e_BasicAPIExamples.ParallelExamples.TinyTextEditor_lTD;Replace
	update_a 1 0
	create
	update_a 0 2
	pop_a 1
.d 2 0
	jmp e_BasicAPIExamples.ParallelExamples.TinyTextEditor_eaTD;Replace
.n 1 e_BasicAPIExamples.ParallelExamples.TinyTextEditor_dTD;Replace e_BasicAPIExamples.ParallelExamples.TinyTextEditor_eaTD;Replace
.o 1 0
e_BasicAPIExamples.ParallelExamples.TinyTextEditor_nTD;Replace
	push_node _cycle_in_spine 1
.o 2 0
e_BasicAPIExamples.ParallelExamples.TinyTextEditor_eaTD;Replace
.o 2 0
e_BasicAPIExamples.ParallelExamples.TinyTextEditor_sTD;Replace
.o 2 0
s24
	fillh _Nil 0 1
	pop_a 1
.d 1 0
	rtn
.export e_BasicAPIExamples.ParallelExamples.TinyTextEditor_sTD;Statistics
.export e_BasicAPIExamples.ParallelExamples.TinyTextEditor_eaTD;Statistics
.descexp e_BasicAPIExamples.ParallelExamples.TinyTextEditor_dTD;Statistics e_BasicAPIExamples.ParallelExamples.TinyTextEditor_nTD;Statistics e_BasicAPIExamples.ParallelExamples.TinyTextEditor_lTD;Statistics 1 0 "TD;Statistics"
.o 2 0
e_BasicAPIExamples.ParallelExamples.TinyTextEditor_lTD;Statistics
	update_a 1 0
	create
	update_a 0 2
	pop_a 1
.d 2 0
	jmp e_BasicAPIExamples.ParallelExamples.TinyTextEditor_eaTD;Statistics
.n 1 e_BasicAPIExamples.ParallelExamples.TinyTextEditor_dTD;Statistics e_BasicAPIExamples.ParallelExamples.TinyTextEditor_eaTD;Statistics
.o 1 0
e_BasicAPIExamples.ParallelExamples.TinyTextEditor_nTD;Statistics
	push_node _cycle_in_spine 1
.o 2 0
e_BasicAPIExamples.ParallelExamples.TinyTextEditor_eaTD;Statistics
.o 2 0
e_BasicAPIExamples.ParallelExamples.TinyTextEditor_sTD;Statistics
.o 2 0
s23
	fillh _Nil 0 1
	pop_a 1
.d 1 0
	rtn
.export e_BasicAPIExamples.ParallelExamples.TinyTextEditor_smain
.export e_BasicAPIExamples.ParallelExamples.TinyTextEditor_eamain
.descexp e_BasicAPIExamples.ParallelExamples.TinyTextEditor_dmain e_BasicAPIExamples.ParallelExamples.TinyTextEditor_nmain e_BasicAPIExamples.ParallelExamples.TinyTextEditor_lmain 0 0 "main"
.o 1 0
e_BasicAPIExamples.ParallelExamples.TinyTextEditor_lmain
	halt
.n 0 e_BasicAPIExamples.ParallelExamples.TinyTextEditor_dmain e_BasicAPIExamples.ParallelExamples.TinyTextEditor_eamain
.o 1 0
e_BasicAPIExamples.ParallelExamples.TinyTextEditor_nmain
	push_node _cycle_in_spine 0
.o 1 0
e_BasicAPIExamples.ParallelExamples.TinyTextEditor_eamain
.o 1 0
e_BasicAPIExamples.ParallelExamples.TinyTextEditor_smain
.o 1 0
s2
	buildh e__predef_d_Unit 0
	create
.d 1 0
	jsr s4
.o 1 0
.d 3 0
	jmp e_iTasks.WF.Combinators.Common_s@!
.export e_BasicAPIExamples.ParallelExamples.TinyTextEditor_swf
.descexp e_BasicAPIExamples.ParallelExamples.TinyTextEditor_dwf e_BasicAPIExamples.ParallelExamples.TinyTextEditor_nwf e_BasicAPIExamples.ParallelExamples.TinyTextEditor_lwf 1 0 "wf"
.o 2 0
e_BasicAPIExamples.ParallelExamples.TinyTextEditor_lwf
	pop_a 1
.d 1 0
	jsr ea1
.o 6 0
.impmod iTasks.Extensions.Admin.WorkflowAdmin
.impdesc e_iTasks.Extensions.Admin.WorkflowAdmin_rWorkflow
	buildhr e_iTasks.Extensions.Admin.WorkflowAdmin_rWorkflow 6 0
.d 1 0
	rtn
.n 1 e_BasicAPIExamples.ParallelExamples.TinyTextEditor_dwf
.o 1 0
e_BasicAPIExamples.ParallelExamples.TinyTextEditor_nwf
	push_node _cycle_in_spine 1
.d 1 0
	jsr ea1
.o 6 0
	fill_r e_iTasks.Extensions.Admin.WorkflowAdmin_rWorkflow 6 0 6 0 0
	pop_a 6
.d 1 0
	rtn
.o 1 0
ea1
.o 1 0
e_BasicAPIExamples.ParallelExamples.TinyTextEditor_swf
.o 1 0
s1
	build e_BasicAPIExamples.ParallelExamples.TinyTextEditor_deditWithStatistics.4 0 e_BasicAPIExamples.ParallelExamples.TinyTextEditor_neditWithStatistics.4
	buildh e__SystemDynamic_dTC__Unit 0
	buildhr e__SystemDynamic_kTypeCons 1 0
	buildh e_Data.GenEq_dgEq__Unit;20 0
	buildh e_Text.GenJSON_dJSONDecode__Unit;53 0
	buildh e_Text.GenJSON_dJSONEncode__Unit;23 0
	buildh e_iTasks.Internal.Generic.Visualization_dgText__Unit;18 0
	buildh e_iTasks.UI.Editor.Generic_dgEditor__Unit;13 0
	buildhr e_iTasks.WF.Definition_riTask; 6 0
	buildh e_iTasks.Extensions.Admin.WorkflowAdmin_dtoWorkflow;13 1
	buildAC "Tiny text editor"
	buildh ARRAY 1
	push_a 3
	push_a 2
	update_a 2 3
	update_a 1 2
	update_a 0 1
	pop_a 1
	update_a 3 4
	update_a 2 3
	update_a 1 2
	updatepop_a 0 1
.d 4 0
	jmp e_iTasks.Extensions.Admin.WorkflowAdmin_sworkflow
.export e_BasicAPIExamples.ParallelExamples.TinyTextEditor_deditWithStatistics.4
.export e_BasicAPIExamples.ParallelExamples.TinyTextEditor_neditWithStatistics.4
.descn e_BasicAPIExamples.ParallelExamples.TinyTextEditor_deditWithStatistics.4 e_BasicAPIExamples.ParallelExamples.TinyTextEditor_neditWithStatistics.4 0 0 "editWithStatistics.4"
.n 0 e_BasicAPIExamples.ParallelExamples.TinyTextEditor_deditWithStatistics.4 ea4
.o 1 0
e_BasicAPIExamples.ParallelExamples.TinyTextEditor_neditWithStatistics.4
	push_node _cycle_in_spine 0
.o 1 0
ea4
.o 1 0
s4
	buildh e_BasicAPIExamples.ParallelExamples.TinyTextEditor_d\;28;9;7.8 0
	buildh _Nil 0
	buildh e__SystemDynamic_dTC_Char 0
	buildhr e__SystemDynamic_kTypeCons 1 0
	buildh e__SystemDynamic_dTC__UnboxedArray 0
	buildhr e__SystemDynamic_kTypeCons 1 0
	buildhr e__SystemDynamic_kTypeApp 2 0
	buildh e_Data.GenEq_dgEq__String;11 0
	buildh e_Text.GenJSON_dJSONDecode__String;46 0
	buildh e_Text.GenJSON_dJSONEncode__String;16 0
	buildh e_iTasks.Internal.Generic.Visualization_dgText__String;16 0
	buildh e_iTasks.UI.Editor.Generic_dgEditor__String;11 0
	create
	push_a 7
	update_a 1 8
	update_a 2 1
	update_a 3 2
	update_a 4 3
	update_a 5 4
	update_a 6 5
	update_a 7 6
	update_a 0 7
	pop_a 1
.d 8 0
	jsr e_iTasks.WF.Tasks.Interaction_senterInformation
.o 1 0
	buildAC "Give name of text file you want to edit..."
	buildhr e_iTasks.UI.Definition_kHint 1 0
	buildh e_iTasks.UI.Tune_dtune;7 0
.d 3 0
	jsr e_iTasks.UI.Tune_s@>>
.o 1 0
	buildh e_Text.GenJSON_dJSONEncode__String;16 0
	buildh e__SystemDynamic_dTC_Char 0
	buildhr e__SystemDynamic_kTypeCons 1 0
	buildh e__SystemDynamic_dTC__UnboxedArray 0
	buildhr e__SystemDynamic_kTypeCons 1 0
	buildhr e__SystemDynamic_kTypeApp 2 0
.d 5 0
	jmp e_iTasks.WF.Combinators.Common_s>>!
.export e_BasicAPIExamples.ParallelExamples.TinyTextEditor_d\;28;9;7.8
.desc e_BasicAPIExamples.ParallelExamples.TinyTextEditor_d\;28;9;7.8 _hnf l8 1 0 "\;28;9;7.8"
.o 2 0
l8
	update_a 1 0
	create
	update_a 0 2
	pop_a 1
.o 2 0
ea8
	jsr_eval 0
	push_array 0
	update_a 0 1
	pop_a 1
.o 2 0
s8
	buildh e__SystemDynamic_dTC_Char 0
	buildhr e__SystemDynamic_kTypeCons 1 0
	buildh e__SystemDynamic_dTC__UnboxedArray 0
	buildhr e__SystemDynamic_kTypeCons 1 0
	buildhr e__SystemDynamic_kTypeApp 2 0
	buildh e_Text.GenJSON_dJSONDecode__String;46 0
	buildh e_Text.GenJSON_dJSONEncode__String;16 0
	create
	buildAC ""
	buildh ARRAY 1
	push_a 5
	push_a 5
	update_a 3 6
	update_a 0 3
	update_a 5 0
	update_a 2 5
	update_a 0 2
	update_a 4 0
	update_a 1 4
	update_a 0 1
	pop_a 1
.d 6 0
	jsr e_iTasks.SDS.Sources.Store_ssharedStore
.o 1 0
	buildh _Nil 0
	buildh e__predef_d_Unit 0
	build e_iTasks.WF.Tasks.Core_dreturn 1 e_iTasks.WF.Tasks.Core_nreturn
	buildh e_iTasks.WF.Combinators.Common_dalways 1
	buildAC "Quit"
	buildhr e_iTasks.WF.Combinators.Core_kAction 1 0
	buildh e_iTasks.WF.Combinators.Core_dOnAction 2
	buildh _Cons 2
	create
.d 1 0
	jsr e_iTasks.UI.Layout.Common_sarrangeHorizontal
.o 1 0
	buildhr e_iTasks.UI.Tune_kApplyLayout 1 0
	build e_BasicAPIExamples.ParallelExamples.TinyTextEditor_dinitReplace.3 0 e_BasicAPIExamples.ParallelExamples.TinyTextEditor_ninitReplace.3
	create
	push_a 4
	push_a 2
	update_a 2 3
	update_a 1 2
	update_a 0 1
	pop_a 1
.d 3 0
	jsr s98
.o 1 0
	create
	push_a 4
.d 2 0
	jsr s97
.o 1 0
	buildh e__SystemDynamic_dTC__Unit 0
	buildhr e__SystemDynamic_kTypeCons 1 0
	buildh e_Data.GenEq_dgEq__Unit;20 0
	buildh e_Text.GenJSON_dJSONDecode__Unit;53 0
	buildh e_Text.GenJSON_dJSONEncode__Unit;23 0
	buildh e_iTasks.Internal.Generic.Visualization_dgText__Unit;18 0
	buildh e_iTasks.UI.Editor.Generic_dgEditor__Unit;13 0
	create
	push_a 8
	update_a 1 9
	update_a 2 1
	update_a 3 2
	update_a 4 3
	update_a 5 4
	update_a 6 5
	update_a 7 6
	update_a 8 7
	update_a 0 8
	pop_a 1
.d 9 0
	jsr e_iTasks.WF.Combinators.Common_s-||-
.o 1 0
	buildh e_iTasks.UI.Tune_dtune;14 0
.d 3 0
	jsr e_iTasks.UI.Tune_s<<@
.o 1 0
	create
	push_a 3
	push_a 5
	buildh _Nil 0
	update_a 0 7
	update_a 0 6
	pop_a 1
.d 3 0
	jsr s96
.o 1 0
	buildh e__SystemDynamic_dTC__Unit 0
	buildhr e__SystemDynamic_kTypeCons 1 0
	buildh e_Data.GenEq_dgEq__Unit;20 0
	buildh e_Text.GenJSON_dJSONDecode__Unit;53 0
	buildh e_Text.GenJSON_dJSONEncode__Unit;23 0
	buildh e_iTasks.Internal.Generic.Visualization_dgText__Unit;18 0
	buildh e_iTasks.UI.Editor.Generic_dgEditor__Unit;13 0
	create
	push_a 8
	update_a 1 9
	update_a 2 1
	update_a 3 2
	update_a 4 3
	update_a 5 4
	update_a 6 5
	update_a 7 6
	update_a 8 7
	update_a 0 8
	pop_a 1
.d 9 0
	jsr e_iTasks.WF.Combinators.Common_s-||-
.o 1 0
	buildh e_Text.GenJSON_dJSONEncode__Unit;23 0
	buildh e__SystemDynamic_dTC__Unit 0
	buildhr e__SystemDynamic_kTypeCons 1 0
	update_a 3 5
	update_a 2 4
	update_a 1 3
	updatepop_a 0 2
.d 5 0
	jmp e_iTasks.WF.Combinators.Common_s>>*
.o 3 0
s96
	buildh e__predef_d_Unit 0
	buildh _Nil 0
	build e_iTasks.UI.Editor.Controls_dtextArea 0 e_iTasks.UI.Editor.Controls_ntextArea
	buildh e_BasicAPIExamples.ParallelExamples.TinyTextEditor_dflip;635.95 0
	buildh e_StdFunctions_did 0
	buildh e_iTasks.WF.Tasks.Interaction_dUpdateSharedUsing 3
	buildh _Cons 2
	buildh e_iTasks.Internal.SDS_dsdsIdentity;17 0
	buildh e_iTasks.Internal.SDS_dreadSDS;18 0
	buildhr e_iTasks.SDS.Definition_rReadable; 2 0
	buildh e_iTasks.Internal.SDS_dreadRegisterSDS;21 0
	buildhr e_iTasks.SDS.Definition_rRegistrable; 2 0
	buildh e_iTasks.Internal.SDS_dsdsIdentity;17 0
	buildh e_iTasks.Internal.SDS_dwriteSDS;19 0
	buildhr e_iTasks.SDS.Definition_rWriteable; 2 0
	buildh e_iTasks.Internal.SDS_dsdsIdentity;17 0
	buildh e_iTasks.Internal.SDS_dreadSDS;18 0
	buildhr e_iTasks.SDS.Definition_rReadable; 2 0
	buildh e_iTasks.Internal.SDS_dmodifySDS;20 0
	buildhr e_iTasks.SDS.Definition_rModifiable; 3 0
	buildh e__SystemDynamic_dTC_Char 0
	buildhr e__SystemDynamic_kTypeCons 1 0
	buildh e__SystemDynamic_dTC__UnboxedArray 0
	buildhr e__SystemDynamic_kTypeCons 1 0
	buildhr e__SystemDynamic_kTypeApp 2 0
	buildh e_Data.GenEq_dgEq__String;11 0
	buildh e_Text.GenJSON_dJSONDecode__String;46 0
	buildh e_Text.GenJSON_dJSONEncode__String;16 0
	buildh e_iTasks.Internal.Generic.Visualization_dgText__String;16 0
	buildh e_iTasks.UI.Editor.Generic_dgEditor__String;11 0
	buildh e__SystemDynamic_dTC_Char 0
	buildhr e__SystemDynamic_kTypeCons 1 0
	buildh e__SystemDynamic_dTC__UnboxedArray 0
	buildhr e__SystemDynamic_kTypeCons 1 0
	buildhr e__SystemDynamic_kTypeApp 2 0
	buildh e_Data.GenEq_dgEq__String;11 0
	buildh e_Text.GenJSON_dJSONDecode__String;46 0
	buildh e_Text.GenJSON_dJSONEncode__String;16 0
	buildh e_iTasks.Internal.Generic.Visualization_dgText__String;16 0
	buildh e_iTasks.UI.Editor.Generic_dgEditor__String;11 0
	create
	push_a 18
	push_a 16
	update_a 2 17
	update_a 4 2
	update_a 6 4
	update_a 8 6
	update_a 10 8
	update_a 12 10
	update_a 14 12
	update_a 16 14
	update_a 1 16
	update_a 3 1
	update_a 5 3
	update_a 7 5
	update_a 9 7
	update_a 11 9
	update_a 13 11
	update_a 15 13
	update_a 0 15
	pop_a 1
	buildh _Nil 0
	update_a 0 20
	pop_a 1
.d 17 0
	jsr e_iTasks.WF.Tasks.Interaction_supdateSharedInformation
.o 1 0
	push_a 2
	buildAC "edit "
	buildh _Nil 0
	update_a 0 5
	pop_a 1
.d 2 0
	jsr catAC
.o 1 0
	buildhr e_iTasks.UI.Definition_kHint 1 0
	buildh e_iTasks.UI.Tune_dtune;7 0
.d 3 0
	jsr e_iTasks.UI.Tune_s@>>
.o 1 0
	update_a 1 3
	updatepop_a 0 2
.d 3 0
	jmp e_iTasks.WF.Combinators.Common_s@!
.o 2 0
s97
	buildh e__predef_d_Unit 0
	buildh _Nil 0
	buildh e_BasicAPIExamples.ParallelExamples.TinyTextEditor_dstat;10.11 0
	buildh e_BasicAPIExamples.ParallelExamples.TinyTextEditor_dTD;Statistics 0
	buildhr e__SystemDynamic_kTypeCons 1 0
	buildh e_BasicAPIExamples.ParallelExamples.TinyTextEditor_dgEq_Statistics;16.17 0
	buildh e_BasicAPIExamples.ParallelExamples.TinyTextEditor_dJSONDecode_Statistics;15.16 0
	buildh e_BasicAPIExamples.ParallelExamples.TinyTextEditor_dJSONEncode_Statistics;14.15 0
	buildh e_BasicAPIExamples.ParallelExamples.TinyTextEditor_dgText_Statistics;13.14 0
	buildh e_BasicAPIExamples.ParallelExamples.TinyTextEditor_dgEditor_Statistics;12.13 0
	buildhr e_iTasks.WF.Definition_riTask; 6 0
	buildhr e_iTasks.WF.Tasks.Interaction_kViewAs 2 0
	buildh _Cons 2
	buildh e_iTasks.Internal.SDS_dsdsIdentity;17 0
	buildh e_iTasks.Internal.SDS_dreadSDS;18 0
	buildhr e_iTasks.SDS.Definition_rReadable; 2 0
	buildh e_iTasks.Internal.SDS_dreadRegisterSDS;21 0
	buildhr e_iTasks.SDS.Definition_rRegistrable; 2 0
	buildh e_iTasks.Internal.SDS_dsdsIdentity;17 0
	buildh e_iTasks.Internal.SDS_dwriteSDS;19 0
	buildhr e_iTasks.SDS.Definition_rWriteable; 2 0
	buildh e_iTasks.Internal.SDS_dsdsIdentity;17 0
	buildh e_iTasks.Internal.SDS_dreadSDS;18 0
	buildhr e_iTasks.SDS.Definition_rReadable; 2 0
	buildh e_iTasks.Internal.SDS_dmodifySDS;20 0
	buildhr e_iTasks.SDS.Definition_rModifiable; 3 0
	buildh e__SystemDynamic_dTC_Char 0
	buildhr e__SystemDynamic_kTypeCons 1 0
	buildh e__SystemDynamic_dTC__UnboxedArray 0
	buildhr e__SystemDynamic_kTypeCons 1 0
	buildhr e__SystemDynamic_kTypeApp 2 0
	buildh e__SystemDynamic_dTC_Char 0
	buildhr e__SystemDynamic_kTypeCons 1 0
	buildh e__SystemDynamic_dTC__UnboxedArray 0
	buildhr e__SystemDynamic_kTypeCons 1 0
	buildhr e__SystemDynamic_kTypeApp 2 0
	buildh e_Data.GenEq_dgEq__String;11 0
	buildh e_Text.GenJSON_dJSONDecode__String;46 0
	buildh e_Text.GenJSON_dJSONEncode__String;16 0
	buildh e_iTasks.Internal.Generic.Visualization_dgText__String;16 0
	buildh e_iTasks.UI.Editor.Generic_dgEditor__String;11 0
	create
	push_a 12
	push_a 11
	update_a 2 12
	update_a 4 2
	update_a 6 4
	update_a 8 6
	update_a 10 8
	update_a 0 10
	update_a 11 0
	update_a 1 11
	update_a 3 1
	update_a 5 3
	update_a 7 5
	update_a 9 7
	update_a 0 9
	pop_a 1
	buildh _Nil 0
	update_a 0 14
	pop_a 1
.d 12 0
	jsr e_iTasks.WF.Tasks.Interaction_sviewSharedInformation
.o 1 0
	buildAC "Statistics:"
	buildhr e_iTasks.UI.Definition_kHint 1 0
	buildh e_iTasks.UI.Tune_dtune;7 0
.d 3 0
	jsr e_iTasks.UI.Tune_s@>>
.o 1 0
	update_a 1 2
	updatepop_a 0 1
.d 3 0
	jmp e_iTasks.WF.Combinators.Common_s@!
.export e_BasicAPIExamples.ParallelExamples.TinyTextEditor_dsubstitute;639.99
.desc e_BasicAPIExamples.ParallelExamples.TinyTextEditor_dsubstitute;639.99 _hnf l99 2 0 "substitute;639.99"
.a 2 ea99
.o 2 0
l99
	push_args 0 1 1
	update_a 2 1
	create
	update_a 0 3
	pop_a 1
.o 3 0
ea99
	jsr_eval 1
	jsr_eval 0
	push_r_args 1 2 0
	update_a 1 3
	update_a 2 1
	update_a 0 2
	pop_a 1
.o 4 0
s99
.impmod BasicAPIExamples.ParallelExamples.TinyTextEditor
.impdesc e_BasicAPIExamples.ParallelExamples.TinyTextEditor_rReplace
	build_r e_BasicAPIExamples.ParallelExamples.TinyTextEditor_rReplace 2 0 1 0
	push_a 1
	push_a 1
	update_a 1 2
	update_a 0 1
	pop_a 1
	build e_BasicAPIExamples.ParallelExamples.TinyTextEditor_dreplace;638.98 2 e_BasicAPIExamples.ParallelExamples.TinyTextEditor_nreplace;638.98
	buildh e_BasicAPIExamples.ParallelExamples.TinyTextEditor_d\;77;21;25.26 1
	build_r e_BasicAPIExamples.ParallelExamples.TinyTextEditor_rReplace 2 0 2 0
	push_a 4
	build e_BasicAPIExamples.ParallelExamples.TinyTextEditor_d_f0.346 2 e_BasicAPIExamples.ParallelExamples.TinyTextEditor_n_f0.346
	push_a 3
	buildh e_Text_dreplaceSubString;13 2
	buildh e_iTasks.Internal.SDS_dsdsIdentity;17 0
	buildh e_iTasks.Internal.SDS_dreadSDS;18 0
	buildhr e_iTasks.SDS.Definition_rReadable; 2 0
	buildh e_iTasks.Internal.SDS_dreadRegisterSDS;21 0
	buildhr e_iTasks.SDS.Definition_rRegistrable; 2 0
	buildh e_iTasks.Internal.SDS_dsdsIdentity;17 0
	buildh e_iTasks.Internal.SDS_dwriteSDS;19 0
	buildhr e_iTasks.SDS.Definition_rWriteable; 2 0
	buildh e_iTasks.Internal.SDS_dsdsIdentity;17 0
	buildh e_iTasks.Internal.SDS_dreadSDS;18 0
	buildhr e_iTasks.SDS.Definition_rReadable; 2 0
	buildh e_iTasks.Internal.SDS_dmodifySDS;20 0
	buildhr e_iTasks.SDS.Definition_rModifiable; 3 0
	buildh e__SystemDynamic_dTC_Char 0
	buildhr e__SystemDynamic_kTypeCons 1 0
	buildh e__SystemDynamic_dTC__UnboxedArray 0
	buildhr e__SystemDynamic_kTypeCons 1 0
	buildhr e__SystemDynamic_kTypeApp 2 0
	buildh e__SystemDynamic_dTC_Char 0
	buildhr e__SystemDynamic_kTypeCons 1 0
	buildh e__SystemDynamic_dTC__UnboxedArray 0
	buildhr e__SystemDynamic_kTypeCons 1 0
	buildhr e__SystemDynamic_kTypeApp 2 0
	create
	push_a 7
	push_a 6
	update_a 2 7
	update_a 4 2
	update_a 6 4
	update_a 1 6
	update_a 3 1
	update_a 5 3
	update_a 0 5
	pop_a 1
	buildh _Nil 0
	update_a 0 9
	update_a 0 10
	update_a 0 11
	pop_a 1
.d 7 0
	jsr e_iTasks.WF.Tasks.SDS_supd
.o 1 0
	buildh e_Text.GenJSON_dJSONEncode__String;16 0
	buildh e__SystemDynamic_dTC_Char 0
	buildhr e__SystemDynamic_kTypeCons 1 0
	buildh e__SystemDynamic_dTC__UnboxedArray 0
	buildhr e__SystemDynamic_kTypeCons 1 0
	buildhr e__SystemDynamic_kTypeApp 2 0
	update_a 3 6
	update_a 2 5
	update_a 1 4
	updatepop_a 0 3
.d 5 0
	jmp e_iTasks.WF.Combinators.Common_s>>-
.export e_BasicAPIExamples.ParallelExamples.TinyTextEditor_d_f0.346
.export e_BasicAPIExamples.ParallelExamples.TinyTextEditor_n_f0.346
.descn e_BasicAPIExamples.ParallelExamples.TinyTextEditor_d_f0.346 e_BasicAPIExamples.ParallelExamples.TinyTextEditor_n_f0.346 2 0 "_f0.346"
.n 2 e_BasicAPIExamples.ParallelExamples.TinyTextEditor_d_f0.346 ea346
.o 1 0
e_BasicAPIExamples.ParallelExamples.TinyTextEditor_n_f0.346
	push_node _cycle_in_spine 2
.o 3 0
ea346
.o 3 0
s346
	push_a 0
	jsr_eval 0
	updatepop_a 0 1
	eq_desc _None 0 0
	pop_a 1
	push_a 0
	updatepop_a 0 1
.d 1 1 b
	jsr s119
.o 1 0
	fillh ARRAY 1 1
.d 1 0
	rtn
.export e_BasicAPIExamples.ParallelExamples.TinyTextEditor_dreplace;638.98
.export e_BasicAPIExamples.ParallelExamples.TinyTextEditor_nreplace;638.98
.descn e_BasicAPIExamples.ParallelExamples.TinyTextEditor_dreplace;638.98 e_BasicAPIExamples.ParallelExamples.TinyTextEditor_nreplace;638.98 2 0 "replace;638.98"
.n 2 e_BasicAPIExamples.ParallelExamples.TinyTextEditor_dreplace;638.98 ea98
.o 1 0
e_BasicAPIExamples.ParallelExamples.TinyTextEditor_nreplace;638.98
	push_node _cycle_in_spine 2
.o 3 0
ea98
.o 3 0
s98
	buildh _Nil 0
	push_a 2
	buildh e_BasicAPIExamples.ParallelExamples.TinyTextEditor_dsubstitute;639.99 1
	buildh e_iTasks.WF.Combinators.Common_dhasValue 1
	buildAC "Replace"
	buildhr e_iTasks.WF.Combinators.Core_kAction 1 0
	buildh e_iTasks.WF.Combinators.Core_dOnAction 2
	buildh _Cons 2
	buildh _Nil 0
	buildh e_BasicAPIExamples.ParallelExamples.TinyTextEditor_dTD;Replace 0
	buildhr e__SystemDynamic_kTypeCons 1 0
	buildh e_BasicAPIExamples.ParallelExamples.TinyTextEditor_dgEq_Replace;21.22 0
	buildh e_BasicAPIExamples.ParallelExamples.TinyTextEditor_dJSONDecode_Replace;20.21 0
	buildh e_BasicAPIExamples.ParallelExamples.TinyTextEditor_dJSONEncode_Replace;19.20 0
	buildh e_BasicAPIExamples.ParallelExamples.TinyTextEditor_dgText_Replace;18.19 0
	buildh e_BasicAPIExamples.ParallelExamples.TinyTextEditor_dgEditor_Replace;17.18 0
	create
	push_a 9
	push_a 8
	update_a 2 9
	update_a 4 2
	update_a 6 4
	update_a 8 6
	update_a 1 8
	update_a 3 1
	update_a 5 3
	update_a 7 5
	update_a 0 7
	pop_a 1
	buildh _Nil 0
	update_a 0 11
	update_a 0 12
	pop_a 1
.d 9 0
	jsr e_iTasks.WF.Tasks.Interaction_supdateInformation
.o 1 0
	buildAC "Replace:"
	buildhr e_iTasks.UI.Definition_kHint 1 0
	buildh e_iTasks.UI.Tune_dtune;7 0
.d 3 0
	jsr e_iTasks.UI.Tune_s@>>
.o 1 0
	buildh e_BasicAPIExamples.ParallelExamples.TinyTextEditor_dJSONEncode_Replace;19.20 0
	buildh e_BasicAPIExamples.ParallelExamples.TinyTextEditor_dTD;Replace 0
	buildhr e__SystemDynamic_kTypeCons 1 0
	update_a 3 5
	update_a 2 4
	update_a 1 3
	updatepop_a 0 2
.d 5 0
	jmp e_iTasks.WF.Combinators.Common_s>>*
.o 1 1 b
s119
	eqB_b TRUE 0
	jmp_true case.1
	jmp case.2
case.1
	pop_a 1
	pop_b 1
	buildAC ""
.d 1 0
	rtn
case.2
	push_r_args_a 0 2 0 2 1
	jsr_eval 0
	updatepop_a 0 1
	pop_b 1
.d 1 0
	jmp s118
.o 1 0
s118
	eq_desc _Just 1 0
	jmp_true case.3
	jmp case.4
case.3
	repl_args 1 1
	push_array 0
	updatepop_a 0 1
.d 1 0
	rtn
case.4
	buildAC "fromJust: Nothing\n"
	updatepop_a 0 1
.d 1 0
	jsr print_string_
.o 0 0
	halt
	push_array 0
	updatepop_a 0 1
.d 1 0
	rtn
.export e_BasicAPIExamples.ParallelExamples.TinyTextEditor_dflip;635.95
.desc e_BasicAPIExamples.ParallelExamples.TinyTextEditor_dflip;635.95 _hnf l95 2 0 "flip;635.95"
.a 0 ea95
.o 2 0
l95
	repl_args 1 1
.o 2 0
ea95
	jsr_eval 1
.o 2 0
s95
	push_a 0
	push_a 2
	update_a 1 3
	updatepop_a 0 2
.d 2 0
	jmp e_StdFunctions_sconst
.export e_BasicAPIExamples.ParallelExamples.TinyTextEditor_dgEq_Statistics;16.17
.desc e_BasicAPIExamples.ParallelExamples.TinyTextEditor_dgEq_Statistics;16.17 _hnf l17 2 0 "gEq_Statistics;16.17"
.o 3 0
i17
	pop_a 1
	push_r_args 1 2 0
	push_r_args 2 2 0
	update_a 3 5
	update_a 1 3
	update_a 2 4
	update_a 0 2
	pop_a 2
.d 4 0
	jmp s17
.ai 0 a17 i17
.o 2 0
l17
	repl_args 1 1
.o 2 0
a17
.d 2 0
	jsr ea17
.o 0 1 b
	buildB_b 0
	pop_b 1
.d 1 0
	rtn
.o 2 0
ea17
	jsr_eval 1
	jsr_eval 0
	push_r_args 1 2 0
	push_r_args 2 2 0
	update_a 3 5
	update_a 1 3
	update_a 2 4
	update_a 0 2
	pop_a 2
.o 4 0
s17
	create
	push_a 4
	push_a 4
	update_a 4 6
	update_a 3 5
	update_a 2 4
	update_a 1 3
	updatepop_a 0 2
.d 3 0
	jsr s29
.o 1 0
	create
	push_a 3
	push_a 3
	buildh _Nil 0
	update_a 0 5
	update_a 0 6
	pop_a 1
.d 3 0
	jsr s29
.o 1 0
	update_a 1 3
	updatepop_a 0 2
.d 2 0
	jmp s93
.o 2 0
s93
	repl_args 1 1
	push_args 1 1 1
	buildh _Nil 0
	update_a 0 3
	pop_a 1
	push_a 0
	jsr_eval 0
	push_a 2
	jsr_eval 0
	update_a 1 4
	updatepop_a 0 3
.d 2 0
	jmp s94
.o 2 0
s94
	repl_args 2 2
	push_args 2 2 2
	buildh _Nil 0
	update_a 0 5
	pop_a 1
	push_a 0
	jsr_eval 0
	pushI_a 1
	pop_a 1
	push_a 2
	jsr_eval 0
	pushI_a 3
	pop_a 1
	update_a 3 4
	update_a 1 3
	pop_a 3
.d 0 2 ii
	jsr s90
.o 0 1 b
	jmp_false else.5
	push_a 0
	jsr_eval 0
	pushI_a 1
	pop_a 1
	push_a 1
	jsr_eval 0
	pushI_a 2
	pop_a 1
	pop_a 2
.d 0 2 ii
	jmp s90
else.5
	pop_a 2
	pushB FALSE
.d 0 1 b
	rtn
.o 0 2 ii
s90
	push_b 1
	push_b 1
	update_b 1 3
	updatepop_b 0 2
.d 0 2 ii
	jmp e_Data.GenEq_sgEq_Int;7
.export e_BasicAPIExamples.ParallelExamples.TinyTextEditor_dJSONDecode_Statistics;15.16
.desc e_BasicAPIExamples.ParallelExamples.TinyTextEditor_dJSONDecode_Statistics;15.16 _hnf l16 2 0 "JSONDecode_Statistics;15.16"
.o 2 1 b
i16
	pop_a 1
.d 1 1 b
	jmp s16
.ai 0 a16 i16
.o 2 0
l16
	repl_args 1 1
.o 2 0
a16
.d 2 0
	jsr ea16
.o 2 0
	push_a 1
	push_a 1
	buildh _Tuple 2
	updatepop_a 0 2
.d 1 0
	rtn
.o 2 0
ea16
	jsr_eval 1
	jsr_eval 0
	pushB_a 0
	pop_a 1
.o 1 1 b
s16
	push_a 0
	push_b 0
	buildI 1
	buildAC "wordCount"
	buildh ARRAY 1
	buildI 0
	buildAC "lineCount"
	buildh ARRAY 1
	updatepop_b 0 1
	update_a 4 5
	update_a 3 4
	update_a 2 3
	update_a 1 2
	updatepop_a 0 1
.d 5 1 b
	jsr s87
.o 2 0
.d 2 0
	jmp s341
.o 5 1 b
s87
	eq_desc _Cons 2 4
	jmp_true case.6
	jmp case.7
case.6
	push_args 4 2 2
	jsr_eval 0
	pushD_a 0
	eqD_b e_Text.GenJSON_kJSONObject 0
	jmp_true case.8
	eqD_b e_Text.GenJSON_kJSONArray 0
	jmp_true case.9
	pop_a 2
	pop_b 1
	jmp case.7
case.8
	pop_b 1
	push_args 0 1 1
	pop_a 1
	push_a 1
	jsr_eval 0
	buildh _Nil 0
	push_a 2
	buildh _Cons 2
	pushB FALSE
	push_a 7
	push_a 7
	push_a 7
	push_a 7
	updatepop_b 0 1
	buildh _Nil 0
	update_a 0 9
	update_a 0 10
	update_a 0 11
	update_a 0 12
	update_a 0 7
	update_a 0 8
	pop_a 1
.d 5 1 b
	jsr s88
.o 2 0
	push_a 9
	push_a 3
	update_a 1 4
	update_a 2 1
	update_a 3 2
	update_a 0 3
	pop_a 1
	update_a 3 10
	update_a 2 9
	update_a 1 8
	updatepop_a 0 7
.d 4 0
	jmp s43
case.9
	pop_b 1
	push_args 0 1 1
	pop_a 1
	push_a 1
	jsr_eval 0
	buildh _Nil 0
	push_a 2
	buildh _Cons 2
	pushB FALSE
	push_a 7
	push_a 7
	push_a 7
	push_a 7
	updatepop_b 0 1
	buildh _Nil 0
	update_a 0 9
	update_a 0 10
	update_a 0 11
	update_a 0 12
	update_a 0 7
	update_a 0 8
	pop_a 1
.d 5 1 b
	jsr s88
.o 2 0
	push_a 9
	push_a 3
	update_a 1 4
	update_a 2 1
	update_a 3 2
	update_a 0 3
	pop_a 1
	update_a 3 10
	update_a 2 9
	update_a 1 8
	updatepop_a 0 7
.d 4 0
	jmp s44
case.7
	buildh _None 0
	push_a 5
	push_a 1
	update_a 1 2
	update_a 0 1
	pop_a 1
	update_a 1 6
	updatepop_a 0 5
	pop_b 1
.d 2 0
	rtn
.o 5 1 b
s88
	push_a 4
	pushB FALSE
	push_a 2
	push_a 2
	updatepop_b 0 1
	update_a 2 4
	update_a 1 3
	updatepop_a 0 2
.d 3 1 b
	jsr s84
.o 2 0
	push_a 4
	push_a 4
	push_a 4
	push_a 4
	update_a 3 5
	update_a 4 3
	update_a 0 4
	pop_a 1
	update_a 4 7
	update_a 3 6
	update_a 2 5
	update_a 1 4
	updatepop_a 0 3
.d 5 0
	jmp s89
.o 5 0
s89
	eq_desc _Just 1 2
	jmp_true case.10
	jmp case.11
case.10
	push_args 2 1 1
	buildh _Nil 0
	update_a 0 4
	pop_a 1
	push_a 4
	pushB FALSE
	push_a 3
	push_a 3
	update_a 3 7
	update_a 2 6
	update_a 1 5
	updatepop_a 0 4
.d 3 1 b
	jsr s84
.o 2 0
	push_a 3
	push_a 3
	push_a 3
	update_a 2 4
	update_a 3 2
	update_a 0 3
	pop_a 1
	update_a 3 5
	update_a 2 4
	update_a 1 3
	updatepop_a 0 2
.d 4 0
	jmp s47
case.11
	buildh _None 0
	push_a 5
	push_a 1
	update_a 1 2
	update_a 0 1
	pop_a 1
	update_a 1 6
	updatepop_a 0 5
.d 2 0
	rtn
.o 3 1 b
s84
	eq_desc _Cons 2 2
	jmp_true case.12
	jmp case.13
case.12
	push_args 2 2 2
	jsr_eval 0
	pushD_a 0
	eqD_b e_Text.GenJSON_kJSONObject 0
	jmp_true case.14
	eqD_b e_Text.GenJSON_kJSONArray 0
	jmp_true case.15
	pop_a 2
	pop_b 1
	jmp case.13
case.14
	pop_b 1
	repl_args 1 1
	jsr_eval 1
	eq_desc _Nil 0 1
	jmp_true case.16
	pop_a 2
	jmp case.13
case.16
	create
	push_a 1
	push_array 4
	pop_b 1
	update_a 2 6
	update_a 1 5
	updatepop_a 0 4
.d 3 0
	jsr s49
.o 1 0
	push_a 0
	pushB TRUE
	updatepop_a 0 1
.d 1 1 b
	jsr e_Text.GenJSON_sJSONDecode_Int;42
.o 2 0
	push_a 2
	push_a 2
	update_a 1 3
	update_a 2 1
	update_a 0 2
	pop_a 1
	update_a 2 3
	update_a 1 2
	updatepop_a 0 1
.d 3 0
	jmp s340
case.15
	pop_b 1
	repl_args 1 1
	jsr_eval 1
	eq_desc _Nil 0 1
	jmp_true case.17
	pop_a 2
	jmp case.13
case.17
	create
	pushI_a 4
	push_a 1
	updatepop_b 0 1
	update_a 1 5
	updatepop_a 0 4
.d 2 1 i
	jsr e_Data.List_s!?
.o 1 0
	push_a 1
	push_a 1
	update_a 1 2
	update_a 0 1
	pop_a 1
	update_a 1 2
	updatepop_a 0 1
.d 2 0
	jmp s339
case.13
	buildh _None 0
	push_a 3
	push_a 1
	update_a 1 2
	update_a 0 1
	pop_a 1
	update_a 1 4
	updatepop_a 0 3
	pop_b 1
.d 2 0
	rtn
.o 2 0
s50
	eq_desc _Just 1 0
	jmp_true case.18
	jmp case.19
case.18
	repl_args 1 1
	push_a 0
	updatepop_a 0 1
.d 1 0
	jsr s28
.o 2 0
.impdesc e_BasicAPIExamples.ParallelExamples.TinyTextEditor_rStatistics
	buildhr e_BasicAPIExamples.ParallelExamples.TinyTextEditor_rStatistics 2 0
	fillh _Just 1 1
.d 1 0
	rtn
case.19
	fillh _None 0 1
	pop_a 1
.d 1 0
	rtn
.export e_BasicAPIExamples.ParallelExamples.TinyTextEditor_dJSONEncode_Statistics;14.15
.desc e_BasicAPIExamples.ParallelExamples.TinyTextEditor_dJSONEncode_Statistics;14.15 _hnf l15 2 0 "JSONEncode_Statistics;14.15"
.o 3 1 b
i15
	pop_a 1
	push_r_args 0 2 0
	update_a 1 2
	update_a 0 1
	pop_a 1
.d 3 1 b
	jmp s15
.ai 2 ea15 i15
.o 2 0
l15
	push_args 0 1 1
	update_a 2 1
	create
	update_a 0 3
	pop_a 1
.o 3 0
ea15
	jsr_eval 1
	jsr_eval 0
	push_r_args 1 2 0
	pushB_a 2
	update_a 1 3
	update_a 0 2
	pop_a 2
.o 3 1 b
s15
	create
	push_a 2
	push_a 2
	update_a 2 4
	update_a 1 3
	updatepop_a 0 2
.d 3 0
	jsr s29
.o 1 0
	build e_BasicAPIExamples.ParallelExamples.TinyTextEditor_dfli__Statistics;27.27 0 e_BasicAPIExamples.ParallelExamples.TinyTextEditor_nfli__Statistics;27.27
	push_b 0
	updatepop_b 0 1
.d 3 1 b
	jmp s82
.o 3 1 b
s82
	push_args 1 1 1
	buildh _Nil 0
	update_a 0 3
	pop_a 1
	buildh _Nil 0
	push_a 1
	buildB FALSE
	build e_BasicAPIExamples.ParallelExamples.TinyTextEditor_dJSONEncode_PAIR;623.83 2 e_BasicAPIExamples.ParallelExamples.TinyTextEditor_nJSONEncode_PAIR;623.83
	push_a 3
	push_a 1
	update_a 1 2
	update_a 0 1
	pop_a 1
	build e_BasicAPIExamples.ParallelExamples.TinyTextEditor_dc;172;49;44.37 2 e_BasicAPIExamples.ParallelExamples.TinyTextEditor_nc;172;49;44.37
	build e_Text.GenJSON_dJSONObject 1 e_Text.GenJSON_nJSONObject
	fillh _Cons 2 5
	pop_a 3
	pop_b 1
.d 1 0
	rtn
.export e_BasicAPIExamples.ParallelExamples.TinyTextEditor_dJSONEncode_PAIR;623.83
.export e_BasicAPIExamples.ParallelExamples.TinyTextEditor_nJSONEncode_PAIR;623.83
.descn e_BasicAPIExamples.ParallelExamples.TinyTextEditor_dJSONEncode_PAIR;623.83 e_BasicAPIExamples.ParallelExamples.TinyTextEditor_nJSONEncode_PAIR;623.83 2 0 "JSONEncode_PAIR;623.83"
.n 2 e_BasicAPIExamples.ParallelExamples.TinyTextEditor_dJSONEncode_PAIR;623.83 ea83
.o 1 0
e_BasicAPIExamples.ParallelExamples.TinyTextEditor_nJSONEncode_PAIR;623.83
	push_node _cycle_in_spine 2
.o 3 0
ea83
	jsr_eval 1
	pushB_a 0
	pop_a 1
.o 2 1 b
s83
	repl_args 2 2
	push_a 1
	jsr_eval 0
	pushI_a 2
	pop_a 1
	create
	pushB FALSE
	update_b 1 2
	updatepop_b 0 1
	update_a 1 2
	updatepop_a 0 1
.d 1 2 bi
	jsr s79
.o 1 0
	push_a 1
	jsr_eval 0
	pushI_a 2
	pop_a 1
	create
	pushB FALSE
	buildh _Nil 0
	update_a 0 3
	pop_a 1
.d 1 2 bi
	jsr s79
.o 1 0
	update_a 1 2
	updatepop_a 0 1
.d 3 0
	jmp s40
.o 1 2 bi
s79
	push_b 1
	pushB TRUE
	update_b 1 3
	updatepop_b 0 2
.d 1 2 bi
	jmp e_Text.GenJSON_sJSONEncode_Int;12
.export e_BasicAPIExamples.ParallelExamples.TinyTextEditor_dfli__Statistics;27.27
.export e_BasicAPIExamples.ParallelExamples.TinyTextEditor_nfli__Statistics;27.27
.descn e_BasicAPIExamples.ParallelExamples.TinyTextEditor_dfli__Statistics;27.27 e_BasicAPIExamples.ParallelExamples.TinyTextEditor_nfli__Statistics;27.27 0 0 "fli__Statistics;27.27"
.n 0 e_BasicAPIExamples.ParallelExamples.TinyTextEditor_dfli__Statistics;27.27 ea27
.o 1 0
e_BasicAPIExamples.ParallelExamples.TinyTextEditor_nfli__Statistics;27.27
	push_node _cycle_in_spine 0
.o 1 0
ea27
.o 1 0
s27
	buildh _Nil 0
	buildAC "wordCount"
	buildh ARRAY 1
	buildh _Cons 2
	buildAC "lineCount"
	buildh ARRAY 1
	fillh _Cons 2 2
.d 1 0
	rtn
.export e_BasicAPIExamples.ParallelExamples.TinyTextEditor_dgText_Statistics;13.14
.desc e_BasicAPIExamples.ParallelExamples.TinyTextEditor_dgText_Statistics;13.14 _hnf l14 2 0 "gText_Statistics;13.14"
.o 4 0
i14
	pop_a 1
.d 3 0
	jmp s14
.ai 2 ea14 i14
.o 2 0
l14
	push_args 0 1 1
	update_a 2 1
	create
	update_a 0 3
	pop_a 1
.o 3 0
ea14
	jsr_eval 0
.o 3 0
s14
	push_a 1
	build e_BasicAPIExamples.ParallelExamples.TinyTextEditor_dbimapToGeneric;42.35 1 e_BasicAPIExamples.ParallelExamples.TinyTextEditor_nbimapToGeneric;42.35
	buildh e_iTasks.Internal.Generic.Visualization_dgText_Int;12 0
	buildAC "wordCount"
	buildh ARRAY 1
	buildh e_iTasks.Internal.Generic.Visualization_dgText_FIELD;11 2
	buildh e_iTasks.Internal.Generic.Visualization_dgText_Int;12 0
	buildAC "lineCount"
	buildh ARRAY 1
	buildh e_iTasks.Internal.Generic.Visualization_dgText_FIELD;11 2
	buildh e_iTasks.Internal.Generic.Visualization_dgText_PAIR;6 2
	push_a 2
	push_a 1
	update_a 1 2
	update_a 0 1
	pop_a 1
	update_a 2 4
	update_a 1 3
	updatepop_a 0 2
.d 4 0
	jmp e_iTasks.Internal.Generic.Visualization_sgText_RECORD;10
.export e_BasicAPIExamples.ParallelExamples.TinyTextEditor_dbimapToGeneric;42.35
.export e_BasicAPIExamples.ParallelExamples.TinyTextEditor_nbimapToGeneric;42.35
.descn e_BasicAPIExamples.ParallelExamples.TinyTextEditor_dbimapToGeneric;42.35 e_BasicAPIExamples.ParallelExamples.TinyTextEditor_nbimapToGeneric;42.35 1 0 "bimapToGeneric;42.35"
.n 1 e_BasicAPIExamples.ParallelExamples.TinyTextEditor_dbimapToGeneric;42.35 ea35
.o 1 0
e_BasicAPIExamples.ParallelExamples.TinyTextEditor_nbimapToGeneric;42.35
	push_node _cycle_in_spine 1
.o 2 0
ea35
	jsr_eval 0
.o 2 0
s35
	eq_desc _Just 1 0
	jmp_true case.20
	jmp case.21
case.20
	repl_args 1 1
	create
	push_r_args 1 2 0
	update_a 2 3
	update_a 1 2
	updatepop_a 0 1
.d 3 0
	jsr s29
.o 1 0
	fillh _Just 1 1
.d 1 0
	rtn
case.21
	fillh _None 0 1
	pop_a 1
.d 1 0
	rtn
.export e_BasicAPIExamples.ParallelExamples.TinyTextEditor_dgEditor_Statistics;12.13
.desc e_BasicAPIExamples.ParallelExamples.TinyTextEditor_dgEditor_Statistics;12.13 _hnf l13 1 0 "gEditor_Statistics;12.13"
.o 2 0
i13
	pop_a 1
.d 1 0
	jmp s13
.ai 1 _ i13
.o 2 0
l13
	pop_a 1
.d 1 0
	jsr ea13
.o 4 0
.impmod iTasks.UI.Editor
.impdesc e_iTasks.UI.Editor_rEditor
	buildhr e_iTasks.UI.Editor_rEditor 4 0
.d 1 0
	rtn
.o 1 0
ea13
	jsr_eval 0
.o 1 0
s13
	buildh e_iTasks.UI.Editor.Generic_dgEditor_Int;7 0
	buildAC "wordCount"
	buildh ARRAY 1
	buildh e_iTasks.UI.Editor.Generic_dgEditor_FIELD;6 2
	buildh e_iTasks.UI.Editor.Generic_dgEditor_Int;7 0
	buildAC "lineCount"
	buildh ARRAY 1
	buildh e_iTasks.UI.Editor.Generic_dgEditor_FIELD;6 2
	buildh e_iTasks.UI.Editor.Generic_dgEditor_PAIR;2 2
	push_a 1
	buildI 2
	push_a 2
	update_a 2 3
	update_a 0 2
	pop_a 1
	build e_iTasks.UI.Editor.Generic_dgEditor_RECORD;5 3 e_iTasks.UI.Editor.Generic_ngEditor_RECORD;5
	buildh e_BasicAPIExamples.ParallelExamples.TinyTextEditor_dbimapToGeneric;41.34 0
	buildh e_BasicAPIExamples.ParallelExamples.TinyTextEditor_dbimapFromGeneric;40.33 0
	buildh e_BasicAPIExamples.ParallelExamples.TinyTextEditor_dtoGenericStatistics;32.29 0
	buildh e_BasicAPIExamples.ParallelExamples.TinyTextEditor_dfromGenericStatistics;31.28 0
	update_a 4 5
	update_a 3 4
	update_a 2 3
	update_a 1 2
	updatepop_a 0 1
.d 5 0
	jmp e_iTasks.UI.Editor_sbinumap_Editor;15
.export e_BasicAPIExamples.ParallelExamples.TinyTextEditor_dbimapFromGeneric;40.33
.desc e_BasicAPIExamples.ParallelExamples.TinyTextEditor_dbimapFromGeneric;40.33 _hnf l33 1 0 "bimapFromGeneric;40.33"
.o 2 0
l33
	update_a 1 0
	create
	update_a 0 2
	pop_a 1
.o 2 0
ea33
	jsr_eval 0
.o 2 0
s33
	eq_desc _Just 1 0
	jmp_true case.22
	jmp case.23
case.22
	repl_args 1 1
	push_a 0
	updatepop_a 0 1
.d 1 0
	jsr s28
.o 2 0
	buildhr e_BasicAPIExamples.ParallelExamples.TinyTextEditor_rStatistics 2 0
	fillh _Just 1 1
.d 1 0
	rtn
case.23
	fillh _None 0 1
	pop_a 1
.d 1 0
	rtn
.export e_BasicAPIExamples.ParallelExamples.TinyTextEditor_dfromGenericStatistics;31.28
.desc e_BasicAPIExamples.ParallelExamples.TinyTextEditor_dfromGenericStatistics;31.28 _hnf l28 1 0 "fromGenericStatistics;31.28"
.o 2 0
l28
	pop_a 1
.d 1 0
	jsr ea28
.o 2 0
	buildhr e_BasicAPIExamples.ParallelExamples.TinyTextEditor_rStatistics 2 0
.d 1 0
	rtn
.o 1 0
ea28
	jsr_eval 0
.o 1 0
s28
	repl_args 1 1
	jsr_eval 0
	repl_args 2 2
	push_a 1
	push_a 1
	update_a 1 3
	updatepop_a 0 2
.d 2 0
	rtn
.export e_BasicAPIExamples.ParallelExamples.TinyTextEditor_dbimapToGeneric;41.34
.desc e_BasicAPIExamples.ParallelExamples.TinyTextEditor_dbimapToGeneric;41.34 _hnf l34 1 0 "bimapToGeneric;41.34"
.o 2 0
l34
	update_a 1 0
	create
	update_a 0 2
	pop_a 1
.o 2 0
ea34
	jsr_eval 0
.o 2 0
s34
	eq_desc _Just 1 0
	jmp_true case.24
	jmp case.25
case.24
	repl_args 1 1
	create
	push_r_args 1 2 0
	update_a 2 3
	update_a 1 2
	updatepop_a 0 1
.d 3 0
	jsr s29
.o 1 0
	fillh _Just 1 1
.d 1 0
	rtn
case.25
	fillh _None 0 1
	pop_a 1
.d 1 0
	rtn
.export e_BasicAPIExamples.ParallelExamples.TinyTextEditor_dtoGenericStatistics;32.29
.desc e_BasicAPIExamples.ParallelExamples.TinyTextEditor_dtoGenericStatistics;32.29 _hnf l29 1 0 "toGenericStatistics;32.29"
.o 2 0
l29
	update_a 1 0
	create
	update_a 0 2
	pop_a 1
.o 2 0
ea29
	jsr_eval 0
	repl_r_args 2 0
.o 3 0
s29
	push_a 1
	push_a 1
	buildh e_StdGeneric_dPAIR 2
	fillh e_StdGeneric_dRECORD 1 3
	pop_a 2
.d 1 0
	rtn
.export e_BasicAPIExamples.ParallelExamples.TinyTextEditor_dstat;10.11
.desc e_BasicAPIExamples.ParallelExamples.TinyTextEditor_dstat;10.11 _hnf l11 1 0 "stat;10.11"
.o 2 0
l11
	pop_a 1
.o 1 0
ea11
	push_a 0
	build e_BasicAPIExamples.ParallelExamples.TinyTextEditor_dlengthWords;9.10 1 e_BasicAPIExamples.ParallelExamples.TinyTextEditor_nlengthWords;9.10
	push_a 1
	build e_BasicAPIExamples.ParallelExamples.TinyTextEditor_dlengthLines;8.9 1 e_BasicAPIExamples.ParallelExamples.TinyTextEditor_nlengthLines;8.9
	update_a 1 2
	updatepop_a 0 1
	buildhr e_BasicAPIExamples.ParallelExamples.TinyTextEditor_rStatistics 2 0
.d 1 0
	rtn
.export e_BasicAPIExamples.ParallelExamples.TinyTextEditor_dlengthWords;9.10
.export e_BasicAPIExamples.ParallelExamples.TinyTextEditor_nlengthWords;9.10
.descn e_BasicAPIExamples.ParallelExamples.TinyTextEditor_dlengthWords;9.10 e_BasicAPIExamples.ParallelExamples.TinyTextEditor_nlengthWords;9.10 1 0 "lengthWords;9.10"
.n 1 e_BasicAPIExamples.ParallelExamples.TinyTextEditor_dlengthWords;9.10
.o 1 0
e_BasicAPIExamples.ParallelExamples.TinyTextEditor_nlengthWords;9.10
	push_node _cycle_in_spine 1
.d 1 0
	jsr ea10
.o 0 1 i
	fillI_b 0 0
	pop_b 1
.d 1 0
	rtn
.o 1 0
ea10
	jsr_eval 0
	push_array 0
	update_a 0 1
	pop_a 1
.o 1 0
s10
	push_a 0
	eqAC_a ""
	jmp_true case.26
	jmp case.27
case.26
	pop_a 1
	pushI 0
.d 0 1 i
	rtn
case.27
	push_a 0
	buildAC " "
	buildAC "\n"
	update_a 2 3
	update_a 1 2
	updatepop_a 0 1
.d 3 0
	jsr e_Text_sreplaceSubString;13
.o 1 0
	create
	buildAC " "
	push_a 2
	update_a 2 3
	update_a 0 2
	pop_a 1
.d 3 0
	jsr e_Text_ssplit;16
.o 1 0
.d 1 0
	jmp e_StdList_slength;47
.export e_BasicAPIExamples.ParallelExamples.TinyTextEditor_dlengthLines;8.9
.export e_BasicAPIExamples.ParallelExamples.TinyTextEditor_nlengthLines;8.9
.descn e_BasicAPIExamples.ParallelExamples.TinyTextEditor_dlengthLines;8.9 e_BasicAPIExamples.ParallelExamples.TinyTextEditor_nlengthLines;8.9 1 0 "lengthLines;8.9"
.n 1 e_BasicAPIExamples.ParallelExamples.TinyTextEditor_dlengthLines;8.9
.o 1 0
e_BasicAPIExamples.ParallelExamples.TinyTextEditor_nlengthLines;8.9
	push_node _cycle_in_spine 1
.d 1 0
	jsr ea9
.o 0 1 i
	fillI_b 0 0
	pop_b 1
.d 1 0
	rtn
.o 1 0
ea9
	jsr_eval 0
	push_array 0
	update_a 0 1
	pop_a 1
.o 1 0
s9
	push_a 0
	eqAC_a ""
	jmp_true case.28
	jmp case.29
case.28
	pop_a 1
	pushI 0
.d 0 1 i
	rtn
case.29
	create
	push_a 1
	buildAC "\n"
	update_a 2 3
	update_a 1 2
	updatepop_a 0 1
.d 3 0
	jsr e_Text_ssplit;16
.o 1 0
.d 1 0
	jmp e_StdList_slength;47
.export e_BasicAPIExamples.ParallelExamples.TinyTextEditor_dgEq_Replace;21.22
.desc e_BasicAPIExamples.ParallelExamples.TinyTextEditor_dgEq_Replace;21.22 _hnf l22 2 0 "gEq_Replace;21.22"
.o 3 0
i22
	pop_a 1
	push_r_args 1 2 0
	push_r_args 2 2 0
	update_a 3 5
	update_a 1 3
	update_a 2 4
	update_a 0 2
	pop_a 2
.d 4 0
	jmp s22
.ai 0 a22 i22
.o 2 0
l22
	repl_args 1 1
.o 2 0
a22
.d 2 0
	jsr ea22
.o 0 1 b
	buildB_b 0
	pop_b 1
.d 1 0
	rtn
.o 2 0
ea22
	jsr_eval 1
	jsr_eval 0
	push_r_args 1 2 0
	push_r_args 2 2 0
	update_a 3 5
	update_a 1 3
	update_a 2 4
	update_a 0 2
	pop_a 2
.o 4 0
s22
	create
	push_a 4
	push_a 4
	update_a 4 6
	update_a 3 5
	update_a 2 4
	update_a 1 3
	updatepop_a 0 2
.d 3 0
	jsr s32
.o 1 0
	create
	push_a 3
	push_a 3
	buildh _Nil 0
	update_a 0 5
	update_a 0 6
	pop_a 1
.d 3 0
	jsr s32
.o 1 0
	buildh e_Data.GenEq_dgEq__String;11 0
	update_a 2 4
	update_a 1 3
	updatepop_a 0 2
.d 3 0
	jmp s77
.o 3 0
s77
	push_args 1 1 1
	buildh _Nil 0
	update_a 0 3
	pop_a 1
	push_args 3 1 1
	buildh _Nil 0
	update_a 0 5
	pop_a 1
	push_a 0
	jsr_eval 0
	push_a 2
	jsr_eval 0
	push_a 4
	update_a 2 7
	update_a 1 6
	updatepop_a 0 5
.d 3 0
	jmp s78
.o 3 0
s78
	push_args 1 2 2
	buildh _Nil 0
	update_a 0 4
	pop_a 1
	push_args 4 2 2
	buildh _Nil 0
	update_a 0 7
	pop_a 1
	push_a 0
	jsr_eval 0
	push_array 0
	updatepop_a 0 1
	push_a 3
	jsr_eval 0
	push_array 0
	updatepop_a 0 1
	update_a 3 4
	update_a 1 3
	updatepop_a 0 2
.d 2 0
	jsr s73
.o 0 1 b
	jmp_false else.30
	push_a 0
	jsr_eval 0
	push_a 2
	jsr_eval 0
	push_a 4
	update_a 2 7
	update_a 1 6
	updatepop_a 0 5
.d 3 0
	jmp s74
else.30
	pop_a 5
	pushB FALSE
.d 0 1 b
	rtn
.o 2 0
s73
	push_a 1
	push_a 1
	update_a 1 3
	updatepop_a 0 2
.d 2 0
	jmp e_Data.GenEq_sgEq__String;11
.o 3 0
s74
	push_a 2
	push_a 2
	push_a 2
	update_a 2 5
	update_a 1 4
	updatepop_a 0 3
.d 3 0
	jmp e_Data.Maybe_sgEq__!Maybe;69
.export e_BasicAPIExamples.ParallelExamples.TinyTextEditor_dJSONDecode_Replace;20.21
.desc e_BasicAPIExamples.ParallelExamples.TinyTextEditor_dJSONDecode_Replace;20.21 _hnf l21 2 0 "JSONDecode_Replace;20.21"
.o 2 1 b
i21
	pop_a 1
.d 1 1 b
	jmp s21
.ai 0 a21 i21
.o 2 0
l21
	repl_args 1 1
.o 2 0
a21
.d 2 0
	jsr ea21
.o 2 0
	push_a 1
	push_a 1
	buildh _Tuple 2
	updatepop_a 0 2
.d 1 0
	rtn
.o 2 0
ea21
	jsr_eval 1
	jsr_eval 0
	pushB_a 0
	pop_a 1
.o 1 1 b
s21
	buildh e_Text.GenJSON_dJSONDecode__String;46 0
	push_a 1
	push_b 0
	buildI 1
	buildAC "replaceBy"
	buildh ARRAY 1
	buildI 0
	buildAC "search"
	buildh ARRAY 1
	push_a 5
	update_a 5 6
	update_a 0 5
	pop_a 1
	updatepop_b 0 1
	update_a 5 6
	update_a 4 5
	update_a 3 4
	update_a 2 3
	update_a 1 2
	updatepop_a 0 1
.d 6 1 b
	jsr s70
.o 2 0
.d 2 0
	jmp s338
.o 6 1 b
s70
	eq_desc _Cons 2 5
	jmp_true case.31
	jmp case.32
case.31
	push_args 5 2 2
	jsr_eval 0
	pushD_a 0
	eqD_b e_Text.GenJSON_kJSONObject 0
	jmp_true case.33
	eqD_b e_Text.GenJSON_kJSONArray 0
	jmp_true case.34
	pop_a 2
	pop_b 1
	jmp case.32
case.33
	pop_b 1
	push_args 0 1 1
	pop_a 1
	push_a 1
	jsr_eval 0
	buildh _Nil 0
	push_a 2
	buildh _Cons 2
	pushB FALSE
	push_a 8
	push_a 8
	push_a 8
	push_a 8
	push_a 8
	updatepop_b 0 1
	buildh _Nil 0
	update_a 0 10
	update_a 0 11
	update_a 0 12
	update_a 0 13
	update_a 0 14
	update_a 0 8
	update_a 0 9
	pop_a 1
.d 6 1 b
	jsr s71
.o 2 0
	push_a 10
	push_a 3
	update_a 1 4
	update_a 2 1
	update_a 3 2
	update_a 0 3
	pop_a 1
	update_a 3 11
	update_a 2 10
	update_a 1 9
	updatepop_a 0 8
.d 4 0
	jmp s43
case.34
	pop_b 1
	push_args 0 1 1
	pop_a 1
	push_a 1
	jsr_eval 0
	buildh _Nil 0
	push_a 2
	buildh _Cons 2
	pushB FALSE
	push_a 8
	push_a 8
	push_a 8
	push_a 8
	push_a 8
	updatepop_b 0 1
	buildh _Nil 0
	update_a 0 10
	update_a 0 11
	update_a 0 12
	update_a 0 13
	update_a 0 14
	update_a 0 8
	update_a 0 9
	pop_a 1
.d 6 1 b
	jsr s71
.o 2 0
	push_a 10
	push_a 3
	update_a 1 4
	update_a 2 1
	update_a 3 2
	update_a 0 3
	pop_a 1
	update_a 3 11
	update_a 2 10
	update_a 1 9
	updatepop_a 0 8
.d 4 0
	jmp s44
case.32
	buildh _None 0
	push_a 6
	push_a 1
	update_a 1 2
	update_a 0 1
	pop_a 1
	update_a 1 7
	updatepop_a 0 6
	pop_b 1
.d 2 0
	rtn
.o 6 1 b
s71
	push_a 5
	pushB FALSE
	push_a 2
	push_a 2
	updatepop_b 0 1
	update_a 2 4
	update_a 1 3
	updatepop_a 0 2
.d 3 1 b
	jsr s66
.o 2 0
	push_a 5
	push_a 5
	push_a 5
	push_a 5
	push_a 5
	update_a 4 6
	update_a 5 4
	update_a 0 5
	pop_a 1
	update_a 5 9
	update_a 4 8
	update_a 3 7
	update_a 2 6
	update_a 1 5
	updatepop_a 0 4
.d 6 0
	jmp s72
.o 6 0
s72
	eq_desc _Just 1 3
	jmp_true case.35
	jmp case.36
case.35
	push_args 3 1 1
	buildh _Nil 0
	update_a 0 5
	pop_a 1
	push_a 5
	pushB FALSE
	push_a 4
	push_a 4
	push_a 4
	update_a 4 9
	update_a 3 8
	update_a 2 7
	update_a 1 6
	updatepop_a 0 5
.d 4 1 b
	jsr s67
.o 2 0
	push_a 3
	push_a 3
	push_a 3
	update_a 2 4
	update_a 3 2
	update_a 0 3
	pop_a 1
	update_a 3 5
	update_a 2 4
	update_a 1 3
	updatepop_a 0 2
.d 4 0
	jmp s47
case.36
	buildh _None 0
	push_a 6
	push_a 1
	update_a 1 2
	update_a 0 1
	pop_a 1
	update_a 1 7
	updatepop_a 0 6
.d 2 0
	rtn
.o 3 1 b
s66
	eq_desc _Cons 2 2
	jmp_true case.37
	jmp case.38
case.37
	push_args 2 2 2
	jsr_eval 0
	pushD_a 0
	eqD_b e_Text.GenJSON_kJSONObject 0
	jmp_true case.39
	eqD_b e_Text.GenJSON_kJSONArray 0
	jmp_true case.40
	pop_a 2
	pop_b 1
	jmp case.38
case.39
	pop_b 1
	repl_args 1 1
	jsr_eval 1
	eq_desc _Nil 0 1
	jmp_true case.41
	pop_a 2
	jmp case.38
case.41
	create
	push_a 1
	push_array 4
	pop_b 1
	update_a 2 6
	update_a 1 5
	updatepop_a 0 4
.d 3 0
	jsr s49
.o 1 0
	push_a 0
	pushB TRUE
	updatepop_a 0 1
.d 1 1 b
	jsr e_Text.GenJSON_sJSONDecode__String;46
.o 2 0
	push_a 2
	push_a 2
	update_a 1 3
	update_a 2 1
	update_a 0 2
	pop_a 1
	update_a 2 3
	update_a 1 2
	updatepop_a 0 1
.d 3 0
	jmp s337
case.40
	pop_b 1
	repl_args 1 1
	jsr_eval 1
	eq_desc _Nil 0 1
	jmp_true case.42
	pop_a 2
	jmp case.38
case.42
	create
	pushI_a 4
	push_a 1
	updatepop_b 0 1
	update_a 1 5
	updatepop_a 0 4
.d 2 1 i
	jsr e_Data.List_s!?
.o 1 0
	push_a 1
	push_a 1
	update_a 1 2
	update_a 0 1
	pop_a 1
	update_a 1 2
	updatepop_a 0 1
.d 2 0
	jmp s336
case.38
	buildh _None 0
	push_a 3
	push_a 1
	update_a 1 2
	update_a 0 1
	pop_a 1
	update_a 1 4
	updatepop_a 0 3
	pop_b 1
.d 2 0
	rtn
.o 4 1 b
s67
	eq_desc _Cons 2 3
	jmp_true case.43
	jmp case.44
case.43
	push_args 3 2 2
	jsr_eval 0
	pushD_a 0
	eqD_b e_Text.GenJSON_kJSONObject 0
	jmp_true case.45
	eqD_b e_Text.GenJSON_kJSONArray 0
	jmp_true case.46
	pop_a 2
	pop_b 1
	jmp case.44
case.45
	pop_b 1
	repl_args 1 1
	jsr_eval 1
	eq_desc _Nil 0 1
	jmp_true case.47
	pop_a 2
	jmp case.44
case.47
	create
	push_a 1
	push_array 4
	pop_b 1
	update_a 2 6
	update_a 1 5
	updatepop_a 0 4
.d 3 0
	jsr s49
.o 1 0
	push_a 0
	pushB TRUE
	push_a 2
	update_a 1 3
	updatepop_a 0 2
.d 2 1 b
	jsr e_Text.GenJSON_sJSONDecode__!Maybe;63
.o 2 0
	push_a 2
	push_a 2
	update_a 1 3
	update_a 2 1
	update_a 0 2
	pop_a 1
	update_a 2 3
	update_a 1 2
	updatepop_a 0 1
.d 3 0
	jmp s335
case.46
	pop_b 1
	repl_args 1 1
	jsr_eval 1
	eq_desc _Nil 0 1
	jmp_true case.48
	pop_a 2
	jmp case.44
case.48
	create
	pushI_a 4
	push_a 1
	updatepop_b 0 1
	update_a 1 5
	updatepop_a 0 4
.d 2 1 i
	jsr e_Data.List_s!?
.o 1 0
	push_a 1
	push_a 3
	push_a 2
	update_a 2 3
	update_a 1 2
	update_a 0 1
	pop_a 1
	update_a 2 4
	update_a 1 3
	updatepop_a 0 2
.d 3 0
	jmp s334
case.44
	buildh _None 0
	push_a 4
	push_a 1
	update_a 1 2
	update_a 0 1
	pop_a 1
	update_a 1 5
	updatepop_a 0 4
	pop_b 1
.d 2 0
	rtn
.o 2 0
s58
	eq_desc _Just 1 0
	jmp_true case.49
	jmp case.50
case.49
	repl_args 1 1
	push_a 0
	updatepop_a 0 1
.d 1 0
	jsr s31
.o 2 0
	buildhr e_BasicAPIExamples.ParallelExamples.TinyTextEditor_rReplace 2 0
	fillh _Just 1 1
.d 1 0
	rtn
case.50
	fillh _None 0 1
	pop_a 1
.d 1 0
	rtn
.o 4 0
s44
	eq_desc _Just 1 0
	jmp_true case.51
	jmp case.52
case.51
	repl_args 1 1
	push_a 0
	buildh e_StdGeneric_dRECORD 1
	buildh _Just 1
	push_a 3
	push_a 1
	update_a 1 2
	update_a 0 1
	pop_a 1
	update_a 1 5
	updatepop_a 0 4
.d 2 0
	rtn
case.52
	buildh _None 0
	push_a 4
	push_a 1
	update_a 1 2
	update_a 0 1
	pop_a 1
	update_a 1 5
	updatepop_a 0 4
.d 2 0
	rtn
.o 4 0
s43
	eq_desc _Just 1 0
	jmp_true case.53
	jmp case.54
case.53
	repl_args 1 1
	push_a 0
	buildh e_StdGeneric_dRECORD 1
	buildh _Just 1
	push_a 3
	push_a 1
	update_a 1 2
	update_a 0 1
	pop_a 1
	update_a 1 5
	updatepop_a 0 4
.d 2 0
	rtn
case.54
	buildh _None 0
	push_a 4
	push_a 1
	update_a 1 2
	update_a 0 1
	pop_a 1
	update_a 1 5
	updatepop_a 0 4
.d 2 0
	rtn
.o 4 0
s47
	eq_desc _Just 1 1
	jmp_true case.55
	jmp case.56
case.55
	push_args 1 1 1
	buildh _Nil 0
	update_a 0 3
	pop_a 1
	push_a 0
	push_a 2
	buildh e_StdGeneric_dPAIR 2
	buildh _Just 1
	push_a 4
	push_a 1
	update_a 1 2
	update_a 0 1
	pop_a 1
	update_a 1 6
	updatepop_a 0 5
.d 2 0
	rtn
case.56
	buildh _None 0
	push_a 4
	push_a 1
	update_a 1 2
	update_a 0 1
	pop_a 1
	update_a 1 5
	updatepop_a 0 4
.d 2 0
	rtn
.o 3 0
s49
	eq_desc _Cons 2 1
	jmp_true case.57
	jmp case.58
case.57
	push_args 1 2 2
	buildh _Nil 0
	update_a 0 4
	pop_a 1
	jsr_eval 0
	repl_args 2 2
	push_a 0
	jsr_eval 0
	push_array 0
	updatepop_a 0 1
	push_a 4
	push_a 1
	update_a 1 2
	update_a 0 1
	pop_a 1
	update_a 1 2
	updatepop_a 0 1
.d 2 0
	jsr eqAC
.o 0 1 b
	jmp_false else.59
	buildh _Nil 0
	push_a 1
	fillh _Cons 2 6
	pop_a 4
.d 1 0
	rtn
else.59
	push_a 1
	jsr_eval 0
	push_a 3
	update_a 1 5
	updatepop_a 0 4
.d 3 0
	jmp s49
case.58
	fillh _Nil 0 2
	pop_a 2
.d 1 0
	rtn
.export e_BasicAPIExamples.ParallelExamples.TinyTextEditor_dJSONEncode_Replace;19.20
.desc e_BasicAPIExamples.ParallelExamples.TinyTextEditor_dJSONEncode_Replace;19.20 _hnf l20 2 0 "JSONEncode_Replace;19.20"
.o 3 1 b
i20
	pop_a 1
	push_r_args 0 2 0
	update_a 1 2
	update_a 0 1
	pop_a 1
.d 3 1 b
	jmp s20
.ai 2 ea20 i20
.o 2 0
l20
	push_args 0 1 1
	update_a 2 1
	create
	update_a 0 3
	pop_a 1
.o 3 0
ea20
	jsr_eval 1
	jsr_eval 0
	push_r_args 1 2 0
	pushB_a 2
	update_a 1 3
	update_a 0 2
	pop_a 2
.o 3 1 b
s20
	create
	push_a 2
	push_a 2
	update_a 2 4
	update_a 1 3
	updatepop_a 0 2
.d 3 0
	jsr s32
.o 1 0
	buildh e_Text.GenJSON_dJSONEncode__String;16 0
	build e_BasicAPIExamples.ParallelExamples.TinyTextEditor_dfli__Replace;34.30 0 e_BasicAPIExamples.ParallelExamples.TinyTextEditor_nfli__Replace;34.30
	push_b 0
	updatepop_b 0 1
.d 4 1 b
	jmp s64
.o 4 1 b
s64
	push_args 2 1 1
	buildh _Nil 0
	update_a 0 4
	pop_a 1
	buildh _Nil 0
	push_a 1
	buildB FALSE
	push_a 5
	build e_BasicAPIExamples.ParallelExamples.TinyTextEditor_dJSONEncode_PAIR;605.65 3 e_BasicAPIExamples.ParallelExamples.TinyTextEditor_nJSONEncode_PAIR;605.65
	push_a 3
	push_a 1
	update_a 1 2
	update_a 0 1
	pop_a 1
	build e_BasicAPIExamples.ParallelExamples.TinyTextEditor_dc;172;49;44.37 2 e_BasicAPIExamples.ParallelExamples.TinyTextEditor_nc;172;49;44.37
	build e_Text.GenJSON_dJSONObject 1 e_Text.GenJSON_nJSONObject
	fillh _Cons 2 6
	pop_a 4
	pop_b 1
.d 1 0
	rtn
.export e_BasicAPIExamples.ParallelExamples.TinyTextEditor_dJSONEncode_PAIR;605.65
.export e_BasicAPIExamples.ParallelExamples.TinyTextEditor_nJSONEncode_PAIR;605.65
.descn e_BasicAPIExamples.ParallelExamples.TinyTextEditor_dJSONEncode_PAIR;605.65 e_BasicAPIExamples.ParallelExamples.TinyTextEditor_nJSONEncode_PAIR;605.65 3 0 "JSONEncode_PAIR;605.65"
.n 3 e_BasicAPIExamples.ParallelExamples.TinyTextEditor_dJSONEncode_PAIR;605.65 ea65
.o 1 0
e_BasicAPIExamples.ParallelExamples.TinyTextEditor_nJSONEncode_PAIR;605.65
	push_node _cycle_in_spine 3
.o 4 0
ea65
	jsr_eval 2
	pushB_a 1
	update_a 0 1
	pop_a 1
.o 3 1 b
s65
	push_args 1 2 2
	buildh _Nil 0
	update_a 0 4
	pop_a 1
	push_a 1
	jsr_eval 0
	create
	pushB FALSE
	push_a 4
	push_a 2
	update_a 2 3
	update_a 0 2
	pop_a 1
	updatepop_b 0 1
	update_a 3 6
	update_a 2 5
	update_a 1 4
	updatepop_a 0 3
.d 3 1 b
	jsr s61
.o 1 0
	push_a 1
	jsr_eval 0
	push_array 0
	updatepop_a 0 1
	create
	pushB FALSE
	push_a 1
	update_a 1 2
	update_a 0 1
	pop_a 1
	buildh _Nil 0
	update_a 0 4
	pop_a 1
.d 2 1 b
	jsr s60
.o 1 0
	update_a 1 2
	updatepop_a 0 1
.d 3 0
	jmp s40
.o 2 1 b
s60
	push_a 0
	pushB TRUE
	updatepop_a 0 1
	updatepop_b 0 1
.d 2 1 b
	jmp e_Text.GenJSON_sJSONEncode__String;16
.o 3 1 b
s61
	push_a 1
	pushB TRUE
	push_a 1
	update_a 1 3
	updatepop_a 0 2
	updatepop_b 0 1
.d 3 1 b
	jmp e_Text.GenJSON_sJSONEncode__!Maybe;33
.export e_BasicAPIExamples.ParallelExamples.TinyTextEditor_dc;172;49;44.37
.export e_BasicAPIExamples.ParallelExamples.TinyTextEditor_nc;172;49;44.37
.descn e_BasicAPIExamples.ParallelExamples.TinyTextEditor_dc;172;49;44.37 e_BasicAPIExamples.ParallelExamples.TinyTextEditor_nc;172;49;44.37 2 0 "c;172;49;44.37"
.n 2 e_BasicAPIExamples.ParallelExamples.TinyTextEditor_dc;172;49;44.37 ea37
.o 1 0
e_BasicAPIExamples.ParallelExamples.TinyTextEditor_nc;172;49;44.37
	push_node _cycle_in_spine 2
.o 3 0
ea37
	jsr_eval 0
.o 3 0
s37
	push_a 1
	push_a 1
	update_a 1 3
	updatepop_a 0 2
.d 3 0
	jmp s101
.o 3 0
s101
	eq_desc _Cons 2 0
	jmp_true case.60
	jmp case.61
case.60
	repl_args 2 2
	push_a 2
	jsr_eval 0
	push_a 2
	push_a 2
	push_a 2
	update_a 2 3
	update_a 1 2
	update_a 0 1
	pop_a 1
	update_a 2 5
	update_a 1 4
	updatepop_a 0 3
.d 4 0
	jmp s100
case.61
	fillh _Nil 0 2
	pop_a 2
.d 1 0
	rtn
.o 4 0
s100
	eq_desc _Cons 2 0
	jmp_true case.62
	jmp case.63
case.62
	repl_args 2 2
	push_a 2
	jsr_eval 0
.d 1 0
	jsr s38
.o 0 1 b
	jmp_false else.64
	push_a 1
	push_a 4
	build e_BasicAPIExamples.ParallelExamples.TinyTextEditor_dc;172;49;44.37 2 e_BasicAPIExamples.ParallelExamples.TinyTextEditor_nc;172;49;44.37
	push_a 3
	push_a 2
	buildh _Tuple 2
	fillh _Cons 2 6
	pop_a 4
.d 1 0
	rtn
else.64
	push_a 3
	jsr_eval 0
	push_a 2
	push_a 1
	update_a 1 2
	update_a 0 1
	pop_a 1
	update_a 1 5
	updatepop_a 0 4
.d 3 0
	jmp s37
case.63
	fillh _Nil 0 3
	pop_a 3
.d 1 0
	rtn
.o 1 0
s38
	eq_desc e_Text.GenJSON_dJSONNull 0 0
	jmp_true case.65
	jmp case.66
case.65
	pop_a 1
	pushB FALSE
.d 0 1 b
	rtn
case.66
	pop_a 1
	pushB TRUE
.d 0 1 b
	rtn
.export e_BasicAPIExamples.ParallelExamples.TinyTextEditor_dfli__Replace;34.30
.export e_BasicAPIExamples.ParallelExamples.TinyTextEditor_nfli__Replace;34.30
.descn e_BasicAPIExamples.ParallelExamples.TinyTextEditor_dfli__Replace;34.30 e_BasicAPIExamples.ParallelExamples.TinyTextEditor_nfli__Replace;34.30 0 0 "fli__Replace;34.30"
.n 0 e_BasicAPIExamples.ParallelExamples.TinyTextEditor_dfli__Replace;34.30 ea30
.o 1 0
e_BasicAPIExamples.ParallelExamples.TinyTextEditor_nfli__Replace;34.30
	push_node _cycle_in_spine 0
.o 1 0
ea30
.o 1 0
s30
	buildh _Nil 0
	buildAC "replaceBy"
	buildh ARRAY 1
	buildh _Cons 2
	buildAC "search"
	buildh ARRAY 1
	fillh _Cons 2 2
.d 1 0
	rtn
.export e_BasicAPIExamples.ParallelExamples.TinyTextEditor_d++;47.40
.export e_BasicAPIExamples.ParallelExamples.TinyTextEditor_n++;47.40
.descn e_BasicAPIExamples.ParallelExamples.TinyTextEditor_d++;47.40 e_BasicAPIExamples.ParallelExamples.TinyTextEditor_n++;47.40 2 0 "++;47.40"
.n 2 e_BasicAPIExamples.ParallelExamples.TinyTextEditor_d++;47.40 ea40
.o 1 0
e_BasicAPIExamples.ParallelExamples.TinyTextEditor_n++;47.40
	push_node _cycle_in_spine 2
.o 3 0
ea40
	jsr_eval 0
.o 3 0
s40
	eq_desc _Cons 2 0
	jmp_true case.67
	jmp case.68
case.67
	repl_args 2 2
	push_a 2
	push_a 2
	build e_BasicAPIExamples.ParallelExamples.TinyTextEditor_d++;47.40 2 e_BasicAPIExamples.ParallelExamples.TinyTextEditor_n++;47.40
	push_a 1
	fillh _Cons 2 5
	pop_a 3
.d 1 0
	rtn
case.68
	fill_a 1 2
	pop_a 2
.d 1 0
	rtn
.export e_BasicAPIExamples.ParallelExamples.TinyTextEditor_dgText_Replace;18.19
.desc e_BasicAPIExamples.ParallelExamples.TinyTextEditor_dgText_Replace;18.19 _hnf l19 2 0 "gText_Replace;18.19"
.o 4 0
i19
	pop_a 1
.d 3 0
	jmp s19
.ai 2 ea19 i19
.o 2 0
l19
	push_args 0 1 1
	update_a 2 1
	create
	update_a 0 3
	pop_a 1
.o 3 0
ea19
	jsr_eval 0
.o 3 0
s19
	push_a 1
	build e_BasicAPIExamples.ParallelExamples.TinyTextEditor_dbimapToGeneric;64.57 1 e_BasicAPIExamples.ParallelExamples.TinyTextEditor_nbimapToGeneric;64.57
	buildh e_BasicAPIExamples.ParallelExamples.TinyTextEditor_d_f1.347 0
	buildAC "replaceBy"
	buildh ARRAY 1
	buildh e_iTasks.Internal.Generic.Visualization_dgText_FIELD;11 2
	buildh e_iTasks.Internal.Generic.Visualization_dgText__String;16 0
	buildAC "search"
	buildh ARRAY 1
	buildh e_iTasks.Internal.Generic.Visualization_dgText_FIELD;11 2
	buildh e_iTasks.Internal.Generic.Visualization_dgText_PAIR;6 2
	push_a 2
	push_a 1
	update_a 1 2
	update_a 0 1
	pop_a 1
	update_a 2 4
	update_a 1 3
	updatepop_a 0 2
.d 4 0
	jmp e_iTasks.Internal.Generic.Visualization_sgText_RECORD;10
.export e_BasicAPIExamples.ParallelExamples.TinyTextEditor_d_f1.347
.desc e_BasicAPIExamples.ParallelExamples.TinyTextEditor_d_f1.347 _hnf l347 2 0 "_f1.347"
.a 2 ea347
.o 2 0
l347
	push_args 0 1 1
	update_a 2 1
	create
	update_a 0 3
	pop_a 1
.o 3 0
ea347
.o 3 0
s347
	push_a 0
	jsr_eval 0
	buildh e_iTasks.Internal.Generic.Visualization_dgText__String;16 0
	push_a 3
	push_a 2
	update_a 1 3
	update_a 2 1
	update_a 0 2
	pop_a 1
	update_a 2 4
	update_a 1 3
	updatepop_a 0 2
.d 4 0
	jmp e_iTasks.Internal.Generic.Visualization_sgText__!Maybe;30
.export e_BasicAPIExamples.ParallelExamples.TinyTextEditor_dbimapToGeneric;64.57
.export e_BasicAPIExamples.ParallelExamples.TinyTextEditor_nbimapToGeneric;64.57
.descn e_BasicAPIExamples.ParallelExamples.TinyTextEditor_dbimapToGeneric;64.57 e_BasicAPIExamples.ParallelExamples.TinyTextEditor_nbimapToGeneric;64.57 1 0 "bimapToGeneric;64.57"
.n 1 e_BasicAPIExamples.ParallelExamples.TinyTextEditor_dbimapToGeneric;64.57 ea57
.o 1 0
e_BasicAPIExamples.ParallelExamples.TinyTextEditor_nbimapToGeneric;64.57
	push_node _cycle_in_spine 1
.o 2 0
ea57
	jsr_eval 0
.o 2 0
s57
	eq_desc _Just 1 0
	jmp_true case.69
	jmp case.70
case.69
	repl_args 1 1
	create
	push_r_args 1 2 0
	update_a 2 3
	update_a 1 2
	updatepop_a 0 1
.d 3 0
	jsr s32
.o 1 0
	fillh _Just 1 1
.d 1 0
	rtn
case.70
	fillh _None 0 1
	pop_a 1
.d 1 0
	rtn
.export e_BasicAPIExamples.ParallelExamples.TinyTextEditor_dgEditor_Replace;17.18
.desc e_BasicAPIExamples.ParallelExamples.TinyTextEditor_dgEditor_Replace;17.18 _hnf l18 1 0 "gEditor_Replace;17.18"
.o 2 0
i18
	pop_a 1
.d 1 0
	jmp s18
.ai 1 _ i18
.o 2 0
l18
	pop_a 1
.d 1 0
	jsr ea18
.o 4 0
	buildhr e_iTasks.UI.Editor_rEditor 4 0
.d 1 0
	rtn
.o 1 0
ea18
	jsr_eval 0
.o 1 0
s18
	buildh e_BasicAPIExamples.ParallelExamples.TinyTextEditor_d_f2.348 0
	buildAC "replaceBy"
	buildh ARRAY 1
	buildh e_iTasks.UI.Editor.Generic_dgEditor_FIELD;6 2
	buildh e_iTasks.UI.Editor.Generic_dgEditor__String;11 0
	buildAC "search"
	buildh ARRAY 1
	buildh e_iTasks.UI.Editor.Generic_dgEditor_FIELD;6 2
	buildh e_iTasks.UI.Editor.Generic_dgEditor_PAIR;2 2
	push_a 1
	buildI 2
	push_a 2
	update_a 2 3
	update_a 0 2
	pop_a 1
	build e_iTasks.UI.Editor.Generic_dgEditor_RECORD;5 3 e_iTasks.UI.Editor.Generic_ngEditor_RECORD;5
	buildh e_BasicAPIExamples.ParallelExamples.TinyTextEditor_dbimapToGeneric;63.56 0
	buildh e_BasicAPIExamples.ParallelExamples.TinyTextEditor_dbimapFromGeneric;62.55 0
	buildh e_BasicAPIExamples.ParallelExamples.TinyTextEditor_dtoGenericReplace;39.32 0
	buildh e_BasicAPIExamples.ParallelExamples.TinyTextEditor_dfromGenericReplace;38.31 0
	update_a 4 5
	update_a 3 4
	update_a 2 3
	update_a 1 2
	updatepop_a 0 1
.d 5 0
	jmp e_iTasks.UI.Editor_sbinumap_Editor;15
.export e_BasicAPIExamples.ParallelExamples.TinyTextEditor_d_f2.348
.desc e_BasicAPIExamples.ParallelExamples.TinyTextEditor_d_f2.348 _hnf l348 1 0 "_f2.348"
.o 2 0
l348
	update_a 1 0
	create
	update_a 0 2
	pop_a 1
.o 2 0
ea348
.o 2 0
s348
	push_a 0
	jsr_eval 0
	buildh e_Data.GenEq_dgEq__String;11 0
	buildh e_iTasks.Internal.Generic.Visualization_dgText__String;16 0
	buildh e_iTasks.UI.Editor.Generic_dgEditor__String;11 0
	update_a 3 4
	update_a 2 3
	update_a 1 2
	updatepop_a 0 1
.d 4 0
	jsr e_iTasks.UI.Editor.Generic_sgEditor__!Maybe;23
.o 4 0
	fill_r e_iTasks.UI.Editor_rEditor 4 0 4 0 0
	pop_a 4
.d 1 0
	rtn
.export e_BasicAPIExamples.ParallelExamples.TinyTextEditor_dbimapFromGeneric;62.55
.desc e_BasicAPIExamples.ParallelExamples.TinyTextEditor_dbimapFromGeneric;62.55 _hnf l55 1 0 "bimapFromGeneric;62.55"
.o 2 0
l55
	update_a 1 0
	create
	update_a 0 2
	pop_a 1
.o 2 0
ea55
	jsr_eval 0
.o 2 0
s55
	eq_desc _Just 1 0
	jmp_true case.71
	jmp case.72
case.71
	repl_args 1 1
	push_a 0
	updatepop_a 0 1
.d 1 0
	jsr s31
.o 2 0
	buildhr e_BasicAPIExamples.ParallelExamples.TinyTextEditor_rReplace 2 0
	fillh _Just 1 1
.d 1 0
	rtn
case.72
	fillh _None 0 1
	pop_a 1
.d 1 0
	rtn
.export e_BasicAPIExamples.ParallelExamples.TinyTextEditor_dfromGenericReplace;38.31
.desc e_BasicAPIExamples.ParallelExamples.TinyTextEditor_dfromGenericReplace;38.31 _hnf l31 1 0 "fromGenericReplace;38.31"
.o 2 0
l31
	pop_a 1
.d 1 0
	jsr ea31
.o 2 0
	buildhr e_BasicAPIExamples.ParallelExamples.TinyTextEditor_rReplace 2 0
.d 1 0
	rtn
.o 1 0
ea31
	jsr_eval 0
.o 1 0
s31
	repl_args 1 1
	jsr_eval 0
	repl_args 2 2
	push_a 1
	push_a 1
	update_a 1 3
	updatepop_a 0 2
.d 2 0
	rtn
.export e_BasicAPIExamples.ParallelExamples.TinyTextEditor_dbimapToGeneric;63.56
.desc e_BasicAPIExamples.ParallelExamples.TinyTextEditor_dbimapToGeneric;63.56 _hnf l56 1 0 "bimapToGeneric;63.56"
.o 2 0
l56
	update_a 1 0
	create
	update_a 0 2
	pop_a 1
.o 2 0
ea56
	jsr_eval 0
.o 2 0
s56
	eq_desc _Just 1 0
	jmp_true case.73
	jmp case.74
case.73
	repl_args 1 1
	create
	push_r_args 1 2 0
	update_a 2 3
	update_a 1 2
	updatepop_a 0 1
.d 3 0
	jsr s32
.o 1 0
	fillh _Just 1 1
.d 1 0
	rtn
case.74
	fillh _None 0 1
	pop_a 1
.d 1 0
	rtn
.export e_BasicAPIExamples.ParallelExamples.TinyTextEditor_dtoGenericReplace;39.32
.desc e_BasicAPIExamples.ParallelExamples.TinyTextEditor_dtoGenericReplace;39.32 _hnf l32 1 0 "toGenericReplace;39.32"
.o 2 0
l32
	update_a 1 0
	create
	update_a 0 2
	pop_a 1
.o 2 0
ea32
	jsr_eval 0
	repl_r_args 2 0
.o 3 0
s32
	push_a 1
	push_a 1
	buildh e_StdGeneric_dPAIR 2
	fillh e_StdGeneric_dRECORD 1 3
	pop_a 2
.d 1 0
	rtn
.export e_BasicAPIExamples.ParallelExamples.TinyTextEditor_d\;77;21;25.26
.desc e_BasicAPIExamples.ParallelExamples.TinyTextEditor_d\;77;21;25.26 _hnf l26 2 0 "\;77;21;25.26"
.a 0 ea26
.o 2 0
l26
	repl_args 1 1
.o 2 0
ea26
	jsr_eval 0
.o 2 0
s26
	updatepop_a 0 1
.d 1 0
	rtn
.export e_BasicAPIExamples.ParallelExamples.TinyTextEditor_dinitReplace.3
.export e_BasicAPIExamples.ParallelExamples.TinyTextEditor_ninitReplace.3
.descn e_BasicAPIExamples.ParallelExamples.TinyTextEditor_dinitReplace.3 e_BasicAPIExamples.ParallelExamples.TinyTextEditor_ninitReplace.3 0 0 "initReplace.3"
.n 0 e_BasicAPIExamples.ParallelExamples.TinyTextEditor_dinitReplace.3
.o 1 0
e_BasicAPIExamples.ParallelExamples.TinyTextEditor_ninitReplace.3
	push_node _cycle_in_spine 0
.o 0 0
ea3
	buildh _None 0
	buildAC ""
	buildh ARRAY 1
	fill_r e_BasicAPIExamples.ParallelExamples.TinyTextEditor_rReplace 2 0 2 0 0
	pop_a 2
.d 1 0
	rtn
.o 3 0
s334
	eq_desc _None 0 0
	jmp_true case.75
	jmp case.76
case.75
	buildh _None 0
	push_a 2
	push_a 1
	update_a 1 2
	update_a 0 1
	pop_a 1
	update_a 1 4
	updatepop_a 0 3
.d 2 0
	rtn
case.76
	repl_args 1 1
	buildh _Nil 0
	push_a 1
	buildh _Cons 2
	pushB TRUE
	push_a 3
	update_a 3 4
	update_a 1 3
	updatepop_a 0 2
.d 2 1 b
	jsr e_Text.GenJSON_sJSONDecode__!Maybe;63
.o 2 0
	push_a 2
	push_a 2
	update_a 1 3
	update_a 2 1
	update_a 0 2
	pop_a 1
	update_a 2 3
	update_a 1 2
	updatepop_a 0 1
.d 3 0
	jmp s344
.o 3 0
s335
	eq_desc _Just 1 0
	jmp_true case.77
	jmp case.78
case.77
	repl_args 1 1
	push_a 0
	buildh _Just 1
	push_a 3
	push_a 1
	update_a 1 2
	update_a 0 1
	pop_a 1
	update_a 1 4
	updatepop_a 0 3
.d 2 0
	rtn
case.78
	buildh _None 0
	push_a 3
	push_a 1
	update_a 1 2
	update_a 0 1
	pop_a 1
	update_a 1 4
	updatepop_a 0 3
.d 2 0
	rtn
.o 2 0
s336
	eq_desc _None 0 0
	jmp_true case.79
	jmp case.80
case.79
	buildh _None 0
	push_a 2
	push_a 1
	update_a 1 2
	update_a 0 1
	pop_a 1
	update_a 1 3
	updatepop_a 0 2
.d 2 0
	rtn
case.80
	repl_args 1 1
	buildh _Nil 0
	push_a 1
	buildh _Cons 2
	pushB TRUE
	updatepop_a 0 1
.d 1 1 b
	jsr e_Text.GenJSON_sJSONDecode__String;46
.o 2 0
	push_a 2
	push_a 2
	update_a 1 3
	update_a 2 1
	update_a 0 2
	pop_a 1
	update_a 2 3
	update_a 1 2
	updatepop_a 0 1
.d 3 0
	jmp s343
.o 3 0
s337
	eq_desc _Just 1 0
	jmp_true case.81
	jmp case.82
case.81
	repl_args 1 1
	push_a 0
	buildh _Just 1
	push_a 3
	push_a 1
	update_a 1 2
	update_a 0 1
	pop_a 1
	update_a 1 4
	updatepop_a 0 3
.d 2 0
	rtn
case.82
	buildh _None 0
	push_a 3
	push_a 1
	update_a 1 2
	update_a 0 1
	pop_a 1
	update_a 1 4
	updatepop_a 0 3
.d 2 0
	rtn
.o 2 0
s338
	create
	push_a 1
	update_a 1 2
	updatepop_a 0 1
.d 2 0
	jsr s58
.o 1 0
	push_a 1
	push_a 1
	update_a 1 2
	update_a 0 1
	pop_a 1
	update_a 1 2
	updatepop_a 0 1
.d 2 0
	rtn
.o 2 0
s339
	eq_desc _None 0 0
	jmp_true case.83
	jmp case.84
case.83
	buildh _None 0
	push_a 2
	push_a 1
	update_a 1 2
	update_a 0 1
	pop_a 1
	update_a 1 3
	updatepop_a 0 2
.d 2 0
	rtn
case.84
	repl_args 1 1
	buildh _Nil 0
	push_a 1
	buildh _Cons 2
	pushB TRUE
	updatepop_a 0 1
.d 1 1 b
	jsr e_Text.GenJSON_sJSONDecode_Int;42
.o 2 0
	push_a 2
	push_a 2
	update_a 1 3
	update_a 2 1
	update_a 0 2
	pop_a 1
	update_a 2 3
	update_a 1 2
	updatepop_a 0 1
.d 3 0
	jmp s342
.o 3 0
s340
	eq_desc _Just 1 0
	jmp_true case.85
	jmp case.86
case.85
	repl_args 1 1
	push_a 0
	buildh _Just 1
	push_a 3
	push_a 1
	update_a 1 2
	update_a 0 1
	pop_a 1
	update_a 1 4
	updatepop_a 0 3
.d 2 0
	rtn
case.86
	buildh _None 0
	push_a 3
	push_a 1
	update_a 1 2
	update_a 0 1
	pop_a 1
	update_a 1 4
	updatepop_a 0 3
.d 2 0
	rtn
.o 2 0
s341
	create
	push_a 1
	update_a 1 2
	updatepop_a 0 1
.d 2 0
	jsr s50
.o 1 0
	push_a 1
	push_a 1
	update_a 1 2
	update_a 0 1
	pop_a 1
	update_a 1 2
	updatepop_a 0 1
.d 2 0
	rtn
.o 3 0
s342
	eq_desc _Just 1 0
	jmp_true case.87
	jmp case.88
case.87
	repl_args 1 1
	push_a 0
	buildh _Just 1
	push_a 3
	push_a 1
	update_a 1 2
	update_a 0 1
	pop_a 1
	update_a 1 4
	updatepop_a 0 3
.d 2 0
	rtn
case.88
	buildh _None 0
	push_a 3
	push_a 1
	update_a 1 2
	update_a 0 1
	pop_a 1
	update_a 1 4
	updatepop_a 0 3
.d 2 0
	rtn
.o 3 0
s343
	eq_desc _Just 1 0
	jmp_true case.89
	jmp case.90
case.89
	repl_args 1 1
	push_a 0
	buildh _Just 1
	push_a 3
	push_a 1
	update_a 1 2
	update_a 0 1
	pop_a 1
	update_a 1 4
	updatepop_a 0 3
.d 2 0
	rtn
case.90
	buildh _None 0
	push_a 3
	push_a 1
	update_a 1 2
	update_a 0 1
	pop_a 1
	update_a 1 4
	updatepop_a 0 3
.d 2 0
	rtn
.o 3 0
s344
	eq_desc _Just 1 0
	jmp_true case.91
	jmp case.92
case.91
	repl_args 1 1
	push_a 0
	buildh _Just 1
	push_a 3
	push_a 1
	update_a 1 2
	update_a 0 1
	pop_a 1
	update_a 1 4
	updatepop_a 0 3
.d 2 0
	rtn
case.92
	buildh _None 0
	push_a 3
	push_a 1
	update_a 1 2
	update_a 0 1
	pop_a 1
	update_a 1 4
	updatepop_a 0 3
.d 2 0
	rtn
