.comp 920 000011110011000
.start _nostart_
.depend "iTasks.Internal.AsyncSDS" "20210609153501"
.depend "Data.Tuple" "20210609153506"
.depend "iTasks.Internal.Util" "20210609153501"
.depend "Data.Func" "20210609153506"
.depend "iTasks.Internal.TaskIO" "20210609153501"
.depend "Control.Monad.Trans" "20210609153506"
.depend "StdMaybe" "20210609153507"
.depend "_SystemStrictMaybes" "20210609153507"
.depend "Data.Maybe" "20210609153506"
.depend "System.Time.GenJSON" "20210609153506"
.depend "Text.HTML.GenJSON" "20210609153506"
.depend "Data.Map.GenJSON" "20210609153506"
.depend "Data.Error.GenJSON" "20210609153506"
.depend "Data.Either.GenJSON" "20210609153506"
.depend "iTasks.WF.Derives" "20210609153501"
.depend "iTasks.SDS.Sources.System" "20210609153501"
.depend "iTasks.SDS.Sources.Core" "20210609153501"
.depend "System._Signal" "20210609153506"
.depend "System.Signal" "20210609153506"
.depend "Text.GenPrint" "20210609153507"
.depend "iTasks.Extensions.DateTime" "20210609153500"
.depend "iTasks.Internal.TaskServer" "20210609153501"
.depend "iTasks.Extensions.Document" "20210609153500"
.depend "System.File" "20210609153506"
.depend "iTasks.Util.DeferredJSON" "20210609153501"
.depend "iTasks.Internal.SDS" "20210609153501"
.depend "iTasks.Internal.TaskEval" "20210609153501"
.depend "iTasks.UI.Layout" "20210609153501"
.depend "iTasks.Internal.TaskState" "20210609153501"
.depend "iTasks.WF.Combinators.Core" "20210609153501"
.depend "Data.IntMap.Base" "20210609153506"
.depend "Data.IntMap.Strict" "20210609153506"
.depend "Data.CircularStack" "20210609153506"
.depend "System._Process" "20210609153506"
.depend "System.Process" "20210609153506"
.depend "System.OS" "20210609153506"
.depend "Data.GenHash" "20210609153506"
.depend "Data.Maybe.Ord" "20210609153506"
.depend "Control.GenBimap" "20210609153506"
.depend "ABC.Interpreter.JavaScript" "20210609153507"
.depend "ABC.Interpreter" "20210609153507"
.depend "iTasks.UI.Editor" "20210609153501"
.depend "iTasks.UI.Editor.Generic" "20210609153501"
.depend "iTasks.Internal.Generic.Defaults" "20210609153501"
.depend "Data.GenDefault" "20210609153506"
.depend "Data.Integer" "20210609153506"
.depend "Text.HTML" "20210609153506"
.depend "iTasks.Internal.Generic.Visualization" "20210609153501"
.depend "iTasks.SDS.Definition" "20210609153501"
.depend "TCPStringChannelsInternal" "20210609153507"
.depend "TCPStringChannels" "20210609153507"
.depend "TCPEvent" "20210609153507"
.depend "tcp_bytestreams" "20210609153507"
.depend "TCPDef" "20210609153507"
.depend "TCPChannels" "20210609153507"
.depend "TCPIP" "20210609153507"
.depend "iTasks.WF.Tasks.IO" "20210609153501"
.depend "iTasks.Internal.Task" "20210609153501"
.depend "iTasks.UI.Definition" "20210609153501"
.depend "Text.GenJSON" "20210609153506"
.depend "Data.Bifunctor" "20210609153506"
.depend "Data.Either" "20210609153506"
.depend "Data.Queue" "20210609153506"
.depend "StdFile" "20210609153507"
.depend "symbols_in_program" "20210609153507"
.depend "iTasks.Internal.IWorld" "20210609153501"
.depend "iTasks.WF.Definition" "20210609153501"
.depend "tcp" "20210609153507"
.depend "TCPChannelClass" "20210609153507"
.depend "Control.Monad.Fail" "20210609153506"
.depend "Data.Traversable" "20210609153506"
.depend "StdMisc" "20210609153507"
.depend "StdOverloadedList" "20210609153507"
.depend "Data.List" "20210609153506"
.depend "Data.Foldable" "20210609153506"
.depend "Data.Set" "20210609153506"
.depend "Data.GenLexOrd" "20210609153506"
.depend "StdFunctions" "20210609153507"
.depend "StdFunc" "20210609153507"
.depend "Data.Map" "20210609153506"
.depend "StdString" "20210609153507"
.depend "Internet.HTTP" "20210609153506"
.depend "System._Time" "20210609153506"
.depend "System.Time" "20210609153506"
.depend "System.OSError" "20210609153506"
.depend "System.FilePath" "20210609153506"
.depend "_SystemEnumStrict" "20210609153507"
.depend "_SystemStrictLists" "20210609153507"
.depend "StdStrictLists" "20210609153507"
.depend "StdGeneric" "20210609153507"
.depend "Data.GenEq" "20210609153506"
.depend "StdReal" "20210609153507"
.depend "StdChar" "20210609153507"
.depend "StdInt" "20210609153507"
.depend "StdBool" "20210609153507"
.depend "StdClass" "20210609153507"
.depend "StdList" "20210609153507"
.depend "Data.Monoid" "20210609153506"
.depend "Control.Applicative" "20210609153506"
.depend "Control.Monad" "20210609153506"
.depend "Data.Functor" "20210609153506"
.depend "Data.Error" "20210609153506"
.depend "iTasks.Engine" "20210609153501"
.depend "StdOverloaded" "20210609153507"
.depend "_SystemDynamic" "20210609153507"
.depend "iTasks.WF.Tasks.Core" "20210609153501"
.module m_iTasks.WF.Tasks.Core "iTasks.WF.Tasks.Core" "20210609153501"
.endinfo
.impmod _system
.implab _cycle_in_spine
.implab _type_error
.implab _hnf
.impdesc e_system_dind
.implab e_system_nind e_system_eaind
.impdesc e_system_dif
.implab e_system_nif e_system_eaif
.implab e_system_sif
.impdesc e_system_dAP
.implab e_system_nAP e_system_eaAP
.implab e_system_sAP
.impdesc ARRAY
.impdesc _Nil
.impdesc _Cons
.impdesc _Conss
.implab n_Conss ea_Conss
.impdesc _Consts
.implab n_Consts ea_Consts
.impdesc _Conssts
.implab n_Conssts ea_Conssts
.impdesc _Tuple
.impdesc d_S.1
.implab n_S.1 ea_S.1
.impdesc d_S.2
.implab n_S.2 ea_S.2
.impdesc d_S.3
.implab n_S.3 ea_S.3
.impdesc d_S.4
.implab n_S.4 ea_S.4
.impdesc d_S.5
.implab n_S.5 ea_S.5
.impdesc d_S.6
.implab n_S.6 ea_S.6
.implab _driver
.impmod iTasks.Internal.AsyncSDS
.implab e_iTasks.Internal.AsyncSDS_sasyncSDSLoaderUI
.implab e_iTasks.Internal.AsyncSDS_swriteCompletely
.impdesc e_iTasks.Internal.AsyncSDS_dreadRegisterCompletely
.implab e_iTasks.Internal.AsyncSDS_sreadRegisterCompletely
.impmod Data.Tuple
.implab e_Data.Tuple_stuple
.implab e_Data.Tuple_sappFst
.impmod iTasks.Internal.Util
.impdesc e_iTasks.Internal.Util_dmkTaskEvalInfo
.implab e_iTasks.Internal.Util_nmkTaskEvalInfo
.implab e_iTasks.Internal.Util_smkUIIfReset
.impmod Data.Maybe
.impdesc e_Data.Maybe_dfmap;5
.impdesc e_Data.Maybe_dmaybe;63
.implab e_Data.Maybe_nmaybe;63 _
.impmod iTasks.UI.Editor
.implab e_iTasks.UI.Editor_swithVSt
.impdesc e_iTasks.UI.Editor_dzero;11
.implab e_iTasks.UI.Editor_nzero;11
.impdesc e_iTasks.UI.Editor_dfromString;14
.implab e_iTasks.UI.Editor_nfromString;14
.impmod iTasks.Internal.Task
.implab e_iTasks.Internal.Task_smkInstantTask
.impmod iTasks.UI.Definition
.impdesc e_iTasks.UI.Definition_dui
.implab e_iTasks.UI.Definition_nui e_iTasks.UI.Definition_eaui
.impdesc e_iTasks.UI.Definition_daddClassAttr
.implab e_iTasks.UI.Definition_saddClassAttr
.implab e_iTasks.UI.Definition_naddClassAttr e_iTasks.UI.Definition_eaaddClassAttr
.impdesc e_iTasks.UI.Definition_dmergeUIChanges
.implab e_iTasks.UI.Definition_nmergeUIChanges e_iTasks.UI.Definition_eamergeUIChanges
.impmod iTasks.WF.Definition
.impdesc e_iTasks.WF.Definition_dTask
.implab e_iTasks.WF.Definition_sTask
.implab e_iTasks.WF.Definition_nTask e_iTasks.WF.Definition_eaTask
.impdesc e_iTasks.WF.Definition_dexception
.implab e_iTasks.WF.Definition_sexception
.implab e_iTasks.WF.Definition_nexception
.implab e_iTasks.WF.Definition_s==;8
.impdesc e_iTasks.WF.Definition_d<;9
.impmod Data.Set
.implab e_Data.Set_smember
.impdesc e_Data.Set_dsingleton
.implab e_Data.Set_nsingleton e_Data.Set_easingleton
.impmod StdFunctions
.impdesc e_StdFunctions_did
.impdesc e_StdFunctions_dconst
.impmod Data.Map
.impdesc e_Data.Map_dnewMap
.implab e_Data.Map_nnewMap e_Data.Map_eanewMap
.impmod StdString
.impdesc e_StdString_dtoString;9
.implab e_StdString_ntoString;9
.implab e_StdString_s+++;11
.impmod _SystemDynamic
.impdesc e__SystemDynamic_d_initial_unification_environment
.implab e__SystemDynamic_s_initial_unification_environment
.implab e__SystemDynamic_n_initial_unification_environment e__SystemDynamic_ea_initial_unification_environment
.impdesc e__SystemDynamic_d_bind_global_type_pattern_var
.implab e__SystemDynamic_s_bind_global_type_pattern_var
.implab e__SystemDynamic_n_bind_global_type_pattern_var e__SystemDynamic_ea_bind_global_type_pattern_var
.impdesc e__SystemDynamic_d_normalise
.implab e__SystemDynamic_s_normalise
.implab e__SystemDynamic_n_normalise e__SystemDynamic_ea_normalise
.impmod iTasks.Internal.AsyncSDS
.impdesc e_iTasks.Internal.AsyncSDS_dRead
.impmod iTasks.SDS.Definition
.impdesc e_iTasks.SDS.Definition_dModifiable;.Writeable
.implab e_iTasks.SDS.Definition_nModifiable;.Writeable
.impdesc e_iTasks.SDS.Definition_dRWShared;.Modifiable
.implab e_iTasks.SDS.Definition_nRWShared;.Modifiable
.impdesc e_iTasks.SDS.Definition_dRWShared;.Registrable
.implab e_iTasks.SDS.Definition_nRWShared;.Registrable
.impmod iTasks.UI.Definition
.impdesc e_iTasks.UI.Definition_dNoChange
.impdesc e_iTasks.UI.Definition_kReplaceUI
.impdesc e_iTasks.UI.Definition_dReplaceUI
.implab e_iTasks.UI.Definition_nReplaceUI e_iTasks.UI.Definition_eaReplaceUI
.impdesc e_iTasks.UI.Definition_kUI
.impdesc e_iTasks.UI.Definition_dUI
.implab e_iTasks.UI.Definition_nUI e_iTasks.UI.Definition_eaUI
.impdesc e_iTasks.UI.Definition_dUIEmpty
.impdesc e_iTasks.UI.Definition_dUILoader
.impmod iTasks.Internal.IWorld
.impdesc e_iTasks.Internal.IWorld_rIWorld
.impdesc e_iTasks.Internal.IWorld_tIWorld
.implab e_iTasks.Internal.IWorld_cIWorld
.impmod iTasks.WF.Definition
.impdesc e_iTasks.WF.Definition_kEditEvent
.impdesc e_iTasks.WF.Definition_kRefreshEvent
.impdesc e_iTasks.WF.Definition_dRefreshEvent
.implab e_iTasks.WF.Definition_nRefreshEvent e_iTasks.WF.Definition_eaRefreshEvent
.impdesc e_iTasks.WF.Definition_dResetEvent
.impdesc e_iTasks.WF.Definition_dServerInterruptedEvent
.impdesc e_iTasks.WF.Definition_dDestroyEvent
.impdesc e_iTasks.WF.Definition_kValueResult
.impdesc e_iTasks.WF.Definition_dValueResult
.implab e_iTasks.WF.Definition_nValueResult e_iTasks.WF.Definition_eaValueResult
.impdesc e_iTasks.WF.Definition_kExceptionResult
.impdesc e_iTasks.WF.Definition_dDestroyedResult
.impdesc e_iTasks.WF.Definition_dNoValue
.impdesc e_iTasks.WF.Definition_kValue
.impdesc e_iTasks.WF.Definition_diTask;.TC
.implab e_iTasks.WF.Definition_niTask;.TC e_iTasks.WF.Definition_eaiTask;.TC
.impmod Data.Error
.impdesc e_Data.Error_dError
.impdesc e_Data.Error_dOk
.impmod StdOverloaded
.impdesc e_StdOverloaded_r<;
.impdesc e_StdOverloaded_rtoString;
.impdesc e_StdOverloaded_dtoString;.toString
.implab e_StdOverloaded_ntoString;.toString e_StdOverloaded_eatoString;.toString
.impmod _SystemDynamic
.impdesc e__SystemDynamic_rDynamicTemp
.impdesc e__SystemDynamic_kTypeVar
.impdesc e__SystemDynamic_kTypeCons
.impdesc e__SystemDynamic_kTypeApp
.impdesc e__SystemDynamic_rTypeCodeConstructor
.impdesc e__SystemDynamic_dTC_Int
.impdesc e__SystemDynamic_dTC_Char
.impdesc e__SystemDynamic_dTC__StrictMaybe
.impdesc e__SystemDynamic_dTC__Tuple2
.impdesc e__SystemDynamic_dTC__UnboxedArray
.export e_iTasks.WF.Tasks.Core_eaOSException
.descexp e_iTasks.WF.Tasks.Core_dOSException e_iTasks.WF.Tasks.Core_nOSException e_iTasks.WF.Tasks.Core_lOSException 1 0 "OSException"
.o 2 0
e_iTasks.WF.Tasks.Core_lOSException
	update_a 1 0
	create
	update_a 0 2
	pop_a 1
.d 2 0
	jmp e_iTasks.WF.Tasks.Core_eaOSException
.n 1 e_iTasks.WF.Tasks.Core_dOSException e_iTasks.WF.Tasks.Core_eaOSException
.o 1 0
e_iTasks.WF.Tasks.Core_nOSException
	push_node _cycle_in_spine 1
.o 2 0
e_iTasks.WF.Tasks.Core_eaOSException
	jsr_eval 0
	repl_args 2 2
	fill_r e_iTasks.WF.Tasks.Core_kOSException 2 0 2 0 0
	pop_a 2
.d 1 0
	rtn
.export e_iTasks.WF.Tasks.Core_kOSException
.record e_iTasks.WF.Tasks.Core_kOSException d(a,a) 2 0 "OSException"
.export e_iTasks.WF.Tasks.Core_sTD;OSException
.export e_iTasks.WF.Tasks.Core_eaTD;OSException
.descexp e_iTasks.WF.Tasks.Core_dTD;OSException e_iTasks.WF.Tasks.Core_nTD;OSException e_iTasks.WF.Tasks.Core_lTD;OSException 1 0 "TD;OSException"
.o 2 0
e_iTasks.WF.Tasks.Core_lTD;OSException
	update_a 1 0
	create
	update_a 0 2
	pop_a 1
.d 2 0
	jmp e_iTasks.WF.Tasks.Core_eaTD;OSException
.n 1 e_iTasks.WF.Tasks.Core_dTD;OSException e_iTasks.WF.Tasks.Core_eaTD;OSException
.o 1 0
e_iTasks.WF.Tasks.Core_nTD;OSException
	push_node _cycle_in_spine 1
.o 2 0
e_iTasks.WF.Tasks.Core_eaTD;OSException
.o 2 0
e_iTasks.WF.Tasks.Core_sTD;OSException
.o 2 0
s11
	fillh _Nil 0 1
	pop_a 1
.d 1 0
	rtn
.export e_iTasks.WF.Tasks.Core_sinteractR
.export e_iTasks.WF.Tasks.Core_eainteractR
.descexp e_iTasks.WF.Tasks.Core_dinteractR e_iTasks.WF.Tasks.Core_ninteractR e_iTasks.WF.Tasks.Core_linteractR 6 0 "interactR"
.a 6 e_iTasks.WF.Tasks.Core_eainteractR
.o 2 0
e_iTasks.WF.Tasks.Core_linteractR
	push_args 0 5 5
	update_a 6 5
	create
	update_a 0 7
	pop_a 1
.d 7 0
	jmp e_iTasks.WF.Tasks.Core_eainteractR
.n 6 e_iTasks.WF.Tasks.Core_dinteractR e_iTasks.WF.Tasks.Core_eainteractR
.o 1 0
e_iTasks.WF.Tasks.Core_ninteractR
	push_node _cycle_in_spine 6
.o 7 0
e_iTasks.WF.Tasks.Core_eainteractR
	jsr_eval 3
	jsr_eval 2
	jsr_eval 1
	jsr_eval 0
	push_r_args 3 2 0
	push_r_args 2 6 0
	update_a 7 11
	update_a 5 7
	update_a 3 5
	update_a 1 3
	update_a 9 8
	update_a 10 9
	update_a 6 10
	update_a 4 6
	update_a 2 4
	update_a 0 2
	pop_a 2
.o 13 0
e_iTasks.WF.Tasks.Core_sinteractR
.o 13 0
s9
	buildh e_iTasks.WF.Tasks.Core_ddontWrite;21.22 0
	buildh _Justs 0
	buildh e_Data.Maybe_dfmap;5 1
.impmod iTasks.SDS.Definition
.impdesc e_iTasks.SDS.Definition_rRegistrable;
	build_r e_iTasks.SDS.Definition_rRegistrable; 2 0 10 0
.impmod iTasks.WF.Definition
.impdesc e_iTasks.WF.Definition_riTask;
	build_r e_iTasks.WF.Definition_riTask; 6 0 3 0
	push_a 14
	push_a 16
	push_a 13
	push_a 4
	update_a 3 5
	update_a 0 3
	update_a 4 0
	update_a 2 4
	update_a 1 2
	update_a 0 1
	pop_a 1
	buildh e_iTasks.WF.Tasks.Core_devalInteractInit.12 7
	buildh e_iTasks.WF.Tasks.Core_d\;71;10;20.21 0
	buildh e_iTasks.WF.Definition_dNoValue 0
	build_r e_iTasks.SDS.Definition_rRegistrable; 2 0 11 0
	pushI 0
	buildhr e__SystemDynamic_kTypeVar 0 1
	buildh e__SystemDynamic_dTC__StrictMaybe 0
	buildhr e__SystemDynamic_kTypeCons 1 0
	buildhr e__SystemDynamic_kTypeApp 2 0
	buildI 0
	buildI 1
	build e__SystemDynamic_d_initial_unification_environment 2 e__SystemDynamic_n_initial_unification_environment
	push_a 11
	pushI 0
	buildhr e__SystemDynamic_kTypeVar 0 1
	build e__SystemDynamic_d_bind_global_type_pattern_var 3 e__SystemDynamic_n_bind_global_type_pattern_var
	build e__SystemDynamic_d_normalise 2 e__SystemDynamic_n_normalise
	push_a 16
	push_a 13
	push_a 3
	update_a 2 4
	update_a 1 2
	update_a 3 1
	update_a 0 3
	pop_a 1
	buildh e_iTasks.Internal.AsyncSDS_dreadRegisterCompletely 7
	updatepop_a 0 12
.d 2 0
	jmp e_iTasks.WF.Definition_sTask
.export e_iTasks.WF.Tasks.Core_d\;71;10;20.21
.desc e_iTasks.WF.Tasks.Core_d\;71;10;20.21 _hnf l21 1 0 "\;71;10;20.21"
.o 2 0
l21
	update_a 1 0
	create
	update_a 0 2
	pop_a 1
.o 2 0
ea21
	jsr_eval 0
.o 2 0
s21
	buildh e_iTasks.Internal.AsyncSDS_dRead 0
	create
	push_a 1
	update_a 1 2
	update_a 0 1
	pop_a 1
.d 2 0
	jsr e_iTasks.Internal.AsyncSDS_sasyncSDSLoaderUI
.o 1 0
	push_a 1
	update_a 1 2
	updatepop_a 0 1
.d 3 0
	jmp e_iTasks.Internal.Util_smkUIIfReset
.export e_iTasks.WF.Tasks.Core_ddontWrite;21.22
.desc e_iTasks.WF.Tasks.Core_ddontWrite;21.22 _hnf l22 7 0 "dontWrite;21.22"
.a 0 ea22
.o 2 0
l22
	repl_args 6 6
.o 7 0
ea22
	jsr_eval 3
.o 7 0
s22
	push_a 6
	push_a 6
	push_a 6
	push_a 6
	update_a 3 10
	update_a 2 9
	update_a 1 8
	updatepop_a 0 7
	jmp_ap 3
.export e_iTasks.WF.Tasks.Core_sinteractRW
.export e_iTasks.WF.Tasks.Core_eainteractRW
.descexp e_iTasks.WF.Tasks.Core_dinteractRW e_iTasks.WF.Tasks.Core_ninteractRW e_iTasks.WF.Tasks.Core_linteractRW 6 0 "interactRW"
.a 6 e_iTasks.WF.Tasks.Core_eainteractRW
.o 2 0
e_iTasks.WF.Tasks.Core_linteractRW
	push_args 0 5 5
	update_a 6 5
	create
	update_a 0 7
	pop_a 1
.d 7 0
	jmp e_iTasks.WF.Tasks.Core_eainteractRW
.n 6 e_iTasks.WF.Tasks.Core_dinteractRW e_iTasks.WF.Tasks.Core_eainteractRW
.o 1 0
e_iTasks.WF.Tasks.Core_ninteractRW
	push_node _cycle_in_spine 6
.o 7 0
e_iTasks.WF.Tasks.Core_eainteractRW
	jsr_eval 5
	jsr_eval 3
	jsr_eval 2
	jsr_eval 1
	jsr_eval 0
	push_r_args 3 2 0
	push_r_args 2 6 0
	update_a 7 11
	update_a 5 7
	update_a 3 5
	update_a 1 3
	update_a 9 8
	update_a 10 9
	update_a 6 10
	update_a 4 6
	update_a 2 4
	update_a 0 2
	pop_a 2
.o 13 0
e_iTasks.WF.Tasks.Core_sinteractRW
.o 13 0
s8
	buildI 0
	buildI 2
	build e__SystemDynamic_d_initial_unification_environment 2 e__SystemDynamic_n_initial_unification_environment
	push_a 6
	pushI 1
	buildhr e__SystemDynamic_kTypeVar 0 1
	build e__SystemDynamic_d_bind_global_type_pattern_var 3 e__SystemDynamic_n_bind_global_type_pattern_var
	push_a 6
	pushI 0
	buildhr e__SystemDynamic_kTypeVar 0 1
	build e__SystemDynamic_d_bind_global_type_pattern_var 3 e__SystemDynamic_n_bind_global_type_pattern_var
	pushI 1
	buildhr e__SystemDynamic_kTypeVar 0 1
	buildh e__SystemDynamic_dTC__StrictMaybe 0
	buildhr e__SystemDynamic_kTypeCons 1 0
	buildhr e__SystemDynamic_kTypeApp 2 0
	push_a 1
	build e__SystemDynamic_d_normalise 2 e__SystemDynamic_n_normalise
	push_a 10
	repl_r_args_a 3 0 3 1
	push_a 10
	push_a 2
	update_a 1 3
	update_a 2 1
	update_a 0 2
	pop_a 1
	buildh e_iTasks.WF.Tasks.Core_dwriteCompletely`;19.20 3
	buildh _Justs 0
	buildh _Justs 0
	buildh e_iTasks.WF.Tasks.Core_d\;15;13;34.35 2
	buildh _Nothing 0
	buildh _Just 1
	buildh e_Data.Maybe_dmaybe;63 2
	push_a 12
	build_r e_iTasks.WF.Definition_riTask; 6 0 4 0
	push_a 15
	push_a 17
	push_a 14
	push_a 4
	update_a 3 5
	update_a 0 3
	update_a 4 0
	update_a 2 4
	update_a 1 2
	update_a 0 1
	pop_a 1
	buildh e_iTasks.WF.Tasks.Core_devalInteractInit.12 7
	buildh e_iTasks.WF.Tasks.Core_d\;61;10;18.19 0
	buildh e_iTasks.WF.Definition_dNoValue 0
	push_a 13
	pushI 0
	buildhr e__SystemDynamic_kTypeVar 0 1
	buildh e__SystemDynamic_dTC__StrictMaybe 0
	buildhr e__SystemDynamic_kTypeCons 1 0
	buildhr e__SystemDynamic_kTypeApp 2 0
	push_a 5
	build e__SystemDynamic_d_normalise 2 e__SystemDynamic_n_normalise
	push_a 17
	push_a 14
	push_a 3
	update_a 2 4
	update_a 1 2
	update_a 3 1
	update_a 0 3
	pop_a 1
	buildh e_iTasks.Internal.AsyncSDS_dreadRegisterCompletely 7
	updatepop_a 0 13
.d 2 0
	jmp e_iTasks.WF.Definition_sTask
.export e_iTasks.WF.Tasks.Core_d\;61;10;18.19
.desc e_iTasks.WF.Tasks.Core_d\;61;10;18.19 _hnf l19 1 0 "\;61;10;18.19"
.o 2 0
l19
	update_a 1 0
	create
	update_a 0 2
	pop_a 1
.o 2 0
ea19
	jsr_eval 0
.o 2 0
s19
	buildh e_iTasks.Internal.AsyncSDS_dRead 0
	create
	push_a 1
	update_a 1 2
	update_a 0 1
	pop_a 1
.d 2 0
	jsr e_iTasks.Internal.AsyncSDS_sasyncSDSLoaderUI
.o 1 0
	push_a 1
	update_a 1 2
	updatepop_a 0 1
.d 3 0
	jmp e_iTasks.Internal.Util_smkUIIfReset
.export e_iTasks.WF.Tasks.Core_devalInteractInit.12
.desc e_iTasks.WF.Tasks.Core_devalInteractInit.12 _hnf l12 11 0 "evalInteractInit.12"
.a 0 a12
.o 2 0
l12
	repl_args 10 10
.o 11 0
a12
.d 11 0
	jsr ea12
.o 2 0
	push_a 1
	push_a 1
	buildh _Tuple 2
	updatepop_a 0 2
.d 1 0
	rtn
.o 11 0
ea12
	jsr_eval 9
	jsr_eval 5
	jsr_eval 2
	jsr_eval 1
	jsr_eval 0
	push_r_args 9 1 2
	push_r_args 3 2 0
	push_r_args 3 6 0
	update_a 8 18
	update_a 5 8
	update_a 2 5
	update_a 7 11
	update_a 4 7
	update_a 1 4
	update_a 10 9
	update_a 6 10
	update_a 3 6
	update_a 0 3
	pop_a 3
.o 17 2 bi
s12
.impmod iTasks.Internal.TaskEval
.impdesc e_iTasks.Internal.TaskEval_rTaskEvalOpts
	build_r e_iTasks.Internal.TaskEval_rTaskEvalOpts 1 2 15 0
	buildh e_iTasks.WF.Definition_dResetEvent 0
	build e_iTasks.UI.Editor_dzero;11 0 e_iTasks.UI.Editor_nzero;11
	buildh _Nothing 0
	buildh e_iTasks.UI.Definition_dNoChange 0
	push_a 10
	push_a 22
	push_a 19
	push_a 19
	push_a 19
	push_a 19
	push_a 24
	push_a 20
	push_a 20
	push_a 20
	push_a 20
	push_a 20
	push_a 20
	push_a 20
	push_a 20
	push_a 20
	push_a 20
	update_a 15 21
	update_a 11 15
	update_a 17 11
	update_a 13 17
	update_a 18 13
	update_a 14 18
	update_a 19 14
	update_a 20 19
	update_a 0 20
	update_a 16 0
	update_a 12 16
	update_a 10 12
	update_a 9 10
	update_a 8 9
	update_a 7 8
	update_a 0 7
	pop_a 1
	update_a 20 37
	update_a 19 36
	update_a 18 35
	update_a 17 34
	update_a 16 33
	update_a 15 32
	update_a 14 31
	update_a 13 30
	update_a 12 29
	update_a 11 28
	update_a 10 27
	update_a 9 26
	update_a 8 25
	update_a 7 24
	update_a 6 23
	update_a 5 22
	update_a 4 21
	update_a 3 20
	update_a 2 19
	update_a 1 18
	updatepop_a 0 17
	pop_b 2
.d 21 0
	jmp s13
.export e_iTasks.WF.Tasks.Core_d\;185;14;30.31
.desc e_iTasks.WF.Tasks.Core_d\;185;14;30.31 _hnf l31 16 0 "\;185;14;30.31"
.a 0 a31
.o 2 0
l31
	repl_args 15 15
.o 16 0
a31
.d 16 0
	jsr ea31
.o 2 0
	push_a 1
	push_a 1
	buildh _Tuple 2
	updatepop_a 0 2
.d 1 0
	rtn
.o 16 0
ea31
	jsr_eval 15
	jsr_eval 12
	jsr_eval 10
	pushI_a 10
	push_r_args 2 2 0
	push_r_args 2 6 0
	update_a 17 18
	update_a 16 17
	update_a 15 16
	update_a 14 15
	update_a 13 14
	update_a 12 13
	update_a 11 12
	update_a 7 11
	update_a 4 7
	update_a 1 4
	update_a 6 10
	update_a 3 6
	update_a 0 3
	update_a 5 8
	update_a 2 5
	pop_a 3
.o 21 1 i
s31
	push_a 20
	push_a 17
	push_a 17
	push_b 0
	push_a 17
	push_a 21
	updatepop_b 0 1
	buildh _Nil 0
	update_a 0 20
	update_a 0 22
	update_a 0 26
	pop_a 1
.d 5 1 i
	jsr s50
.o 2 1 i
	push_a 11
	push_a 22
	push_a 22
	push_a 16
	push_a 21
	push_a 24
	push_a 16
	push_a 16
	push_a 16
	push_a 16
	push_a 16
	push_a 16
	push_a 16
	push_a 16
	push_a 16
	push_a 27
	push_a 30
	push_a 32
	push_a 19
	update_a 18 20
	update_a 16 18
	update_a 14 16
	update_a 12 14
	update_a 10 12
	update_a 8 10
	update_a 6 8
	update_a 4 6
	update_a 2 4
	update_a 0 2
	update_a 19 0
	update_a 17 19
	update_a 15 17
	update_a 13 15
	update_a 11 13
	update_a 9 11
	update_a 7 9
	update_a 5 7
	update_a 3 5
	update_a 1 3
	update_a 0 1
	pop_a 1
	update_a 19 40
	update_a 18 39
	update_a 17 38
	update_a 16 37
	update_a 15 36
	update_a 14 35
	update_a 13 34
	update_a 12 33
	update_a 11 32
	update_a 10 31
	update_a 9 30
	update_a 8 29
	update_a 7 28
	update_a 6 27
	update_a 5 26
	update_a 4 25
	update_a 3 24
	update_a 2 23
	update_a 1 22
	updatepop_a 0 21
.d 20 1 i
	jmp s54
.export e_iTasks.WF.Tasks.Core_d\;122;18;23.24
.desc e_iTasks.WF.Tasks.Core_d\;122;18;23.24 _hnf l24 15 0 "\;122;18;23.24"
.a 0 a24
.o 2 0
l24
	repl_args 14 14
.o 15 0
a24
.o 15 0
ea24
	jsr_eval 13
	push_r_args 13 1 2
	push_r_args 3 2 0
	push_r_args 3 6 0
	update_a 8 22
	update_a 5 8
	update_a 2 5
	update_a 7 11
	update_a 4 7
	update_a 1 4
	update_a 10 9
	update_a 6 10
	update_a 3 6
	update_a 0 3
	pop_a 3
	push_a 17
	build _Justs 1 n_Justs
	buildh e_iTasks.UI.Definition_dNoChange 0
	build_r e_iTasks.SDS.Definition_rRegistrable; 2 0 9 0
	push_a 8
	build_r e_iTasks.WF.Definition_riTask; 6 0 4 0
	push_a 19
	push_a 19
	push_a 19
	push_a 19
	push_a 24
	push_a 20
	push_a 17
	push_a 11
	update_a 7 12
	update_a 0 7
	update_a 11 0
	update_a 6 11
	update_a 2 6
	update_a 9 2
	update_a 4 9
	update_a 10 4
	update_a 5 10
	update_a 0 5
	update_a 8 0
	update_a 3 8
	update_a 1 3
	update_a 0 1
	pop_a 1
	buildh e_iTasks.WF.Tasks.Core_devalInteract.13 12
	build e_iTasks.WF.Definition_dTask 1 e_iTasks.WF.Definition_nTask
	push_a 17
	push_a 11
	build e_iTasks.UI.Definition_dmergeUIChanges 2 e_iTasks.UI.Definition_nmergeUIChanges
	buildI_b 1
	build e_iTasks.Internal.Util_dmkTaskEvalInfo 1 e_iTasks.Internal.Util_nmkTaskEvalInfo
	buildh e_iTasks.WF.Tasks.Core_d\;124;41;22.23 0
	buildh e_iTasks.WF.Definition_dNoValue 0
	push_a 15
	push_a 2
	update_a 1 3
	update_a 2 1
	update_a 0 2
	pop_a 1
	build e_Data.Maybe_dmaybe;63 3 e_Data.Maybe_nmaybe;63
	build e_iTasks.WF.Definition_dValueResult 4 e_iTasks.WF.Definition_nValueResult
	push_a 21
	push_a 1
	update_a 1 2
	update_a 0 1
	pop_a 1
	update_a 1 22
	updatepop_a 0 21
	pop_b 2
	push_a 1
	push_a 1
	buildh _Tuple 2
	updatepop_a 0 2
.d 1 0
	rtn
.export e_iTasks.WF.Tasks.Core_devalInteract.13
.desc e_iTasks.WF.Tasks.Core_devalInteract.13 _hnf l13 15 0 "evalInteract.13"
.a 0 a13
.o 2 0
l13
	repl_args 14 14
.o 15 0
a13
.d 15 0
	jsr ea13
.o 2 0
	push_a 1
	push_a 1
	buildh _Tuple 2
	updatepop_a 0 2
.d 1 0
	rtn
.o 15 0
ea13
	jsr_eval 12
	jsr_eval 3
	jsr_eval 2
	jsr_eval 1
	jsr_eval 0
	push_r_args 3 2 0
	push_r_args 2 6 0
	update_a 7 11
	update_a 5 7
	update_a 3 5
	update_a 1 3
	update_a 9 8
	update_a 10 9
	update_a 6 10
	update_a 4 6
	update_a 2 4
	update_a 0 2
	pop_a 2
.o 21 0
s13
	pushD_a 18
	jmpD ea e_iTasks.WF.Definition_dServerInterruptedEvent 0 case.1 case.2
	eqD_b e_iTasks.WF.Definition_kEditEvent 0
	jmp_true case.3
	jmpD ae e_iTasks.WF.Definition_kRefreshEvent 0 case.4 case.5
	pop_b 1
	jmp case.6
case.1
	pop_b 1
	buildh e_iTasks.WF.Definition_dDestroyedResult 0
	push_a 21
	push_a 1
	update_a 1 2
	update_a 0 1
	pop_a 1
	update_a 1 22
	updatepop_a 0 21
.d 2 0
	rtn
case.2
	pop_b 1
	jsr_eval 19
	push_r_args 19 1 2
	buildh _Nil 0
	update_a 0 21
	pop_a 1
	pop_b 1
	buildh e_iTasks.WF.Definition_dDestroyedResult 0
	push_a 22
	push_a 1
	update_a 1 2
	update_a 0 1
	pop_a 1
	update_a 1 23
	updatepop_a 0 22
	pop_b 1
.d 2 0
	rtn
case.3
	pop_b 1
	push_args 18 3 3
	jsr_eval 15
	eq_desc _Nothing 0 15
	jmp_true case.7
	jmp case.8
case.7
	jsr_eval 22
	push_r_args 22 1 2
	buildh _Nil 0
	update_a 0 24
	pop_a 1
	pop_b 1
	buildh e__SystemDynamic_dTC_Char 0
	buildhr e__SystemDynamic_kTypeCons 1 0
	buildh e__SystemDynamic_dTC__UnboxedArray 0
	buildhr e__SystemDynamic_kTypeCons 1 0
	buildhr e__SystemDynamic_kTypeApp 2 0
	build e_iTasks.WF.Tasks.Core_d_f2.265 1 e_iTasks.WF.Tasks.Core_n_f2.265
	push_a 25
	push_a 1
	update_a 1 2
	update_a 0 1
	pop_a 1
	update_a 1 26
	updatepop_a 0 25
	pop_b 1
.d 2 0
	rtn
case.8
	push_args 15 1 1
	jsr_eval 23
	push_r_args 23 1 2
	pop_b 1
	push_a 0
	push_a 3
	buildh _Nil 0
	update_a 0 5
	pop_a 1
.d 2 0
	jsr e_iTasks.WF.Definition_s==;8
.o 0 1 b
	jmp_false else.9
	push_a 25
	jsr_eval 0
	push_a 2
	push_a 5
	buildh ARRAY 1
	build e_iTasks.UI.Editor_dfromString;14 1 e_iTasks.UI.Editor_nfromString;14
	push_a 7
	push_a 1
	update_a 1 2
	update_a 0 1
	pop_a 1
	buildh _Tuple 2
	jsr_eval 23
	push_r_args_a 23 4 0 2 1
	jsr_eval 0
	buildh _Nil 0
	update_a 0 9
	update_a 0 8
	pop_a 1
	jsr_ap 2
	push_a 20
	jsr_eval 0
	pushI_a 21
	pop_a 1
	push_a 2
.d 3 1 i
	jsr e_iTasks.UI.Editor_swithVSt
.o 2 1 i
	push_a 3
	push_b 1
	push_a 2
	push_a 28
	push_a 28
	push_b 1
	push_a 27
	push_a 27
	push_a 24
	push_a 24
	push_a 24
	push_a 24
	push_a 24
	push_a 23
	push_a 23
	push_a 23
	push_a 23
	push_a 23
	push_a 23
	push_a 38
	push_a 42
	push_a 19
	update_a 19 47
	update_a 18 46
	update_a 17 45
	update_a 16 44
	update_a 15 43
	update_a 14 42
	update_a 13 41
	update_a 12 40
	update_a 11 39
	update_a 10 38
	update_a 9 37
	update_a 8 36
	update_a 7 35
	update_a 6 34
	update_a 5 33
	update_a 4 32
	update_a 3 31
	update_a 2 30
	update_a 1 29
	updatepop_a 0 28
	update_b 1 3
	updatepop_b 0 2
.d 20 2 ii
	jmp s46
else.9
	pop_a 5
	pop_b 1
	jmp case.6
case.4
	pop_b 1
	jsr_eval 19
	push_r_args 19 1 2
	pop_b 1
	push_a 17
	jsr_eval 0
	push_a 13
	push_a 1
	update_a 1 2
	update_a 0 1
	pop_a 1
	buildh _Nil 0
	update_a 0 14
	update_a 0 22
	pop_a 1
	jsr_ap 1
	push_a 14
	push_b 0
	push_a 22
	push_a 20
	push_a 16
	push_a 15
	push_a 15
	push_a 15
	push_a 14
	push_a 14
	push_a 14
	push_a 14
	push_a 14
	push_a 14
	push_a 29
	push_a 33
	push_a 37
	push_a 33
	push_a 32
	push_a 19
	push_a 19
	update_a 19 20
	update_a 18 19
	update_a 17 18
	update_a 16 17
	update_a 15 16
	update_a 14 15
	update_a 13 14
	update_a 12 13
	update_a 11 12
	update_a 10 11
	update_a 9 10
	update_a 8 9
	update_a 7 8
	update_a 6 7
	update_a 5 6
	update_a 4 5
	update_a 3 4
	update_a 2 3
	update_a 1 2
	update_a 0 1
	pop_a 1
	update_a 19 41
	update_a 18 40
	update_a 17 39
	update_a 16 38
	update_a 15 37
	update_a 14 36
	update_a 13 35
	update_a 12 34
	update_a 11 33
	update_a 10 32
	update_a 9 31
	update_a 8 30
	update_a 7 29
	update_a 6 28
	update_a 5 27
	update_a 4 26
	update_a 3 25
	update_a 2 24
	update_a 1 23
	updatepop_a 0 22
	updatepop_b 0 1
.d 20 1 i
	jmp s49
case.5
	pop_b 1
	push_args 18 1 1
	jsr_eval 13
	eq_desc _Nothing 0 13
	jmp_true case.10
	jmp case.11
case.10
	buildh e__SystemDynamic_dTC_Char 0
	buildhr e__SystemDynamic_kTypeCons 1 0
	buildh e__SystemDynamic_dTC__UnboxedArray 0
	buildhr e__SystemDynamic_kTypeCons 1 0
	buildhr e__SystemDynamic_kTypeApp 2 0
	build e_iTasks.WF.Tasks.Core_d_f3.266 1 e_iTasks.WF.Tasks.Core_n_f3.266
	push_a 22
	push_a 1
	update_a 1 2
	update_a 0 1
	pop_a 1
	update_a 1 23
	updatepop_a 0 22
.d 2 0
	rtn
case.11
	push_args 13 1 1
	jsr_eval 21
	push_r_args 21 1 2
	pop_b 1
	buildh e_iTasks.WF.Definition_d<;9 0
	push_a 3
	push_a 2
	push_a 2
	update_a 2 3
	update_a 1 2
	update_a 0 1
	pop_a 1
	buildh _Nil 0
	update_a 0 6
	pop_a 1
.d 3 0
	jsr e_Data.Set_smember
.o 0 1 b
	jmp_false else.12
	push_a 23
	jsr_eval 0
	build_r e_iTasks.SDS.Definition_rRegistrable; 2 0 12 0
	build_r e_iTasks.WF.Definition_riTask; 6 0 5 0
	push_a 4
	push_a 20
	push_a 23
	push_a 6
	push_a 20
	push_a 28
	push_a 28
	push_a 27
	buildI_b 0
	push_a 22
	push_a 11
	update_a 10 12
	update_a 8 10
	update_a 6 8
	update_a 4 6
	update_a 2 4
	update_a 1 2
	update_a 11 1
	update_a 9 11
	update_a 7 9
	update_a 5 7
	update_a 3 5
	update_a 0 3
	pop_a 1
	buildh e_iTasks.WF.Tasks.Core_d\;185;14;30.31 12
	buildh e_iTasks.WF.Tasks.Core_d\;184;81;28.29 0
	buildh e_iTasks.WF.Tasks.Core_d\;184;54;27.28 0
	buildh e_iTasks.WF.Definition_dNoValue 0
	push_a 19
	push_a 2
	update_a 1 3
	update_a 2 1
	update_a 0 2
	pop_a 1
	build e_Data.Maybe_dmaybe;63 3 e_Data.Maybe_nmaybe;63
	pushI 0
	buildhr e__SystemDynamic_kTypeVar 0 1
	buildh e__SystemDynamic_dTC__StrictMaybe 0
	buildhr e__SystemDynamic_kTypeCons 1 0
	buildhr e__SystemDynamic_kTypeApp 2 0
	create
	pushI 0
	pushI 1
	buildh _Nil 0
	update_a 0 7
	update_a 0 8
	pop_a 1
.d 1 2 ii
	jsr e__SystemDynamic_s_initial_unification_environment
.o 1 0
	push_a 14
	pushI 0
	buildhr e__SystemDynamic_kTypeVar 0 1
	create
	push_a 3
	update_a 1 4
	update_a 2 1
	update_a 3 2
	update_a 0 3
	pop_a 1
.d 4 0
	jsr e__SystemDynamic_s_bind_global_type_pattern_var
.o 1 0
	create
	push_a 2
	update_a 1 3
	update_a 2 1
	update_a 0 2
	pop_a 1
.d 3 0
	jsr e__SystemDynamic_s_normalise
.o 1 0
	push_a 27
	push_a 27
	push_a 24
	push_a 20
	push_a 20
	push_a 20
	push_a 9
	update_a 6 10
	update_a 8 6
	update_a 0 8
	update_a 9 0
	update_a 5 9
	update_a 4 5
	update_a 3 4
	update_a 2 3
	update_a 1 2
	update_a 7 1
	update_a 0 7
	pop_a 1
	update_a 10 34
	update_a 9 33
	update_a 8 32
	update_a 7 31
	update_a 6 30
	update_a 5 29
	update_a 4 28
	update_a 3 27
	update_a 2 26
	update_a 1 25
	updatepop_a 0 24
	pop_b 1
.d 11 0
	jmp e_iTasks.Internal.AsyncSDS_sreadRegisterCompletely
else.12
	pop_a 3
	pop_b 1
	jmp case.6
case.6
	jsr_eval 19
	push_r_args 19 1 2
	buildh _Nil 0
	update_a 0 21
	pop_a 1
	pop_a 1
	pop_b 1
	buildh e_iTasks.UI.Definition_dNoChange 0
	build_r e_iTasks.SDS.Definition_rRegistrable; 2 0 9 0
	push_a 7
	build_r e_iTasks.WF.Definition_riTask; 6 0 3 0
	push_a 21
	push_a 21
	push_a 21
	push_a 21
	push_a 21
	push_a 21
	push_a 21
	push_a 18
	push_a 11
	update_a 8 12
	update_a 4 8
	update_a 11 4
	update_a 7 11
	update_a 3 7
	update_a 1 3
	update_a 9 1
	update_a 5 9
	update_a 0 5
	update_a 10 0
	update_a 6 10
	update_a 2 6
	update_a 0 2
	pop_a 1
	buildh e_iTasks.WF.Tasks.Core_devalInteract.13 12
	build e_iTasks.WF.Definition_dTask 1 e_iTasks.WF.Definition_nTask
	buildI_b 0
	build e_iTasks.Internal.Util_dmkTaskEvalInfo 1 e_iTasks.Internal.Util_nmkTaskEvalInfo
	buildh e_iTasks.WF.Tasks.Core_d\;213;25;31.32 0
	buildh e_iTasks.WF.Definition_dNoValue 0
	push_a 15
	push_a 2
	update_a 1 3
	update_a 2 1
	update_a 0 2
	pop_a 1
	build e_Data.Maybe_dmaybe;63 3 e_Data.Maybe_nmaybe;63
	push_a 13
	push_a 2
	update_a 1 3
	update_a 2 1
	update_a 0 2
	pop_a 1
	build e_iTasks.WF.Definition_dValueResult 4 e_iTasks.WF.Definition_nValueResult
	push_a 21
	push_a 1
	update_a 1 2
	update_a 0 1
	pop_a 1
	update_a 1 22
	updatepop_a 0 21
	pop_b 1
.d 2 0
	rtn
.export e_iTasks.WF.Tasks.Core_d_f3.266
.export e_iTasks.WF.Tasks.Core_n_f3.266
.descn e_iTasks.WF.Tasks.Core_d_f3.266 e_iTasks.WF.Tasks.Core_n_f3.266 1 0 "_f3.266"
.n 1 e_iTasks.WF.Tasks.Core_d_f3.266 ea266
.o 1 0
e_iTasks.WF.Tasks.Core_n_f3.266
	push_node _cycle_in_spine 1
.o 2 0
ea266
.o 2 0
s266
	buildh e_StdString_dtoString;9 0
	push_a 1
	jsr_eval 0
	buildAC "corrupt editor state"
	buildh ARRAY 1
	push_a 2
	update_a 1 3
	update_a 2 1
	update_a 0 2
	pop_a 1
	update_a 2 3
	update_a 1 2
	updatepop_a 0 1
.d 3 0
	jsr e_iTasks.WF.Definition_sexception
.o 3 0
	fill_r e_iTasks.WF.Definition_kExceptionResult 3 0 3 0 0
	pop_a 3
.d 1 0
	rtn
.export e_iTasks.WF.Tasks.Core_d_f2.265
.export e_iTasks.WF.Tasks.Core_n_f2.265
.descn e_iTasks.WF.Tasks.Core_d_f2.265 e_iTasks.WF.Tasks.Core_n_f2.265 1 0 "_f2.265"
.n 1 e_iTasks.WF.Tasks.Core_d_f2.265 ea265
.o 1 0
e_iTasks.WF.Tasks.Core_n_f2.265
	push_node _cycle_in_spine 1
.o 2 0
ea265
.o 2 0
s265
	buildh e_StdString_dtoString;9 0
	push_a 1
	jsr_eval 0
	buildAC "corrupt editor state"
	buildh ARRAY 1
	push_a 2
	update_a 1 3
	update_a 2 1
	update_a 0 2
	pop_a 1
	update_a 2 3
	update_a 1 2
	updatepop_a 0 1
.d 3 0
	jsr e_iTasks.WF.Definition_sexception
.o 3 0
	fill_r e_iTasks.WF.Definition_kExceptionResult 3 0 3 0 0
	pop_a 3
.d 1 0
	rtn
.o 20 1 i
s54
	eq_desc e_Data.Error_dOk 1 0
	jmp_true case.13
	jmp case.14
case.13
	repl_args 1 1
	jsr_eval 0
	repl_args 3 3
	push_a 2
	jsr_eval 0
	push_a 22
	push_a 5
	push_a 23
	push_a 23
	push_a 23
	push_a 23
	push_b 0
	push_a 8
	push_a 24
	push_a 24
	push_a 24
	push_a 24
	push_a 24
	push_a 24
	push_a 24
	push_a 24
	push_a 24
	push_a 24
	push_a 24
	push_a 24
	push_a 20
	push_a 25
	push_a 21
	update_a 21 22
	update_a 20 21
	update_a 19 20
	update_a 18 19
	update_a 17 18
	update_a 16 17
	update_a 15 16
	update_a 14 15
	update_a 13 14
	update_a 12 13
	update_a 11 12
	update_a 10 11
	update_a 9 10
	update_a 8 9
	update_a 7 8
	update_a 6 7
	update_a 5 6
	update_a 4 5
	update_a 3 4
	update_a 2 3
	update_a 1 2
	update_a 0 1
	pop_a 1
	update_a 21 43
	update_a 20 42
	update_a 19 41
	update_a 18 40
	update_a 17 39
	update_a 16 38
	update_a 15 37
	update_a 14 36
	update_a 13 35
	update_a 12 34
	update_a 11 33
	update_a 10 32
	update_a 9 31
	update_a 8 30
	update_a 7 29
	update_a 6 28
	update_a 5 27
	update_a 4 26
	update_a 3 25
	update_a 2 24
	update_a 1 23
	updatepop_a 0 22
	updatepop_b 0 1
.d 22 1 i
	jmp s53
case.14
	repl_args 1 1
	buildh e__SystemDynamic_dTC_Char 0
	buildhr e__SystemDynamic_kTypeCons 1 0
	buildh e__SystemDynamic_dTC__UnboxedArray 0
	buildhr e__SystemDynamic_kTypeCons 1 0
	buildhr e__SystemDynamic_kTypeApp 2 0
	push_a 1
	push_a 1
	update_a 1 2
	update_a 0 1
	pop_a 1
	build e_iTasks.WF.Tasks.Core_d_f4.267 2 e_iTasks.WF.Tasks.Core_n_f4.267
	push_a 2
	push_a 1
	update_a 1 2
	update_a 0 1
	pop_a 1
	update_a 1 21
	updatepop_a 0 20
	pop_b 1
.d 2 0
	rtn
.export e_iTasks.WF.Tasks.Core_d_f4.267
.export e_iTasks.WF.Tasks.Core_n_f4.267
.descn e_iTasks.WF.Tasks.Core_d_f4.267 e_iTasks.WF.Tasks.Core_n_f4.267 2 0 "_f4.267"
.n 2 e_iTasks.WF.Tasks.Core_d_f4.267 ea267
.o 1 0
e_iTasks.WF.Tasks.Core_n_f4.267
	push_node _cycle_in_spine 2
.o 3 0
ea267
.o 3 0
s267
	push_a 1
	jsr_eval 0
	buildh e_StdString_dtoString;9 0
	push_a 2
	jsr_eval 0
	update_a 2 4
	update_a 1 3
	updatepop_a 0 2
.d 3 0
	jsr e_iTasks.WF.Definition_sexception
.o 3 0
	fill_r e_iTasks.WF.Definition_kExceptionResult 3 0 3 0 0
	pop_a 3
.d 1 0
	rtn
.o 22 1 i
s53
	eq_desc _Just 1 0
	jmp_true case.15
	jmp case.16
case.15
	repl_args 1 1
	push_a 20
	push_a 20
	push_a 20
	push_a 18
	build _Justs 1 n_Justs
	push_a 6
	push_a 6
	build e_iTasks.UI.Definition_dmergeUIChanges 2 e_iTasks.UI.Definition_nmergeUIChanges
	build e_iTasks.WF.Tasks.Core_d_c;192;36;579.51 1 e_iTasks.WF.Tasks.Core_n_c;192;36;579.51
	build_r e_iTasks.SDS.Definition_rRegistrable; 2 0 17 0
	push_a 16
	build_r e_iTasks.WF.Definition_riTask; 6 0 12 0
	push_a 11
	push_a 26
	push_a 26
	push_a 15
	buildI_b 0
	push_a 27
	push_a 25
	push_a 11
	update_a 7 12
	update_a 0 7
	update_a 11 0
	update_a 6 11
	update_a 2 6
	update_a 9 2
	update_a 4 9
	update_a 10 4
	update_a 5 10
	update_a 0 5
	update_a 8 0
	update_a 3 8
	update_a 1 3
	update_a 0 1
	pop_a 1
	buildh e_iTasks.WF.Tasks.Core_devalInteract.13 12
	buildh e_iTasks.WF.Definition_dNoValue 0
	push_a 9
	push_a 9
	jsr_eval 0
	push_a 7
	push_a 1
	update_a 1 2
	update_a 0 1
	pop_a 1
	update_a 7 29
	update_a 6 28
	update_a 5 27
	update_a 4 26
	update_a 3 25
	update_a 2 24
	update_a 1 23
	updatepop_a 0 22
	pop_b 1
	jsr_ap 7
	repl_args 2 2
.d 2 0
	rtn
case.16
	push_a 15
	build _Justs 1 n_Justs
	buildh e_iTasks.UI.Definition_dNoChange 0
	build_r e_iTasks.SDS.Definition_rRegistrable; 2 0 14 0
	push_a 13
	build_r e_iTasks.WF.Definition_riTask; 6 0 9 0
	push_a 8
	push_a 23
	push_a 23
	push_a 12
	buildI_b 0
	push_a 24
	push_a 22
	push_a 11
	update_a 7 12
	update_a 0 7
	update_a 11 0
	update_a 6 11
	update_a 2 6
	update_a 9 2
	update_a 4 9
	update_a 10 4
	update_a 5 10
	update_a 0 5
	update_a 8 0
	update_a 3 8
	update_a 1 3
	update_a 0 1
	pop_a 1
	buildh e_iTasks.WF.Tasks.Core_devalInteract.13 12
	build e_iTasks.WF.Definition_dTask 1 e_iTasks.WF.Definition_nTask
	push_a 3
	push_a 3
	build e_iTasks.UI.Definition_dmergeUIChanges 2 e_iTasks.UI.Definition_nmergeUIChanges
	build e_iTasks.WF.Tasks.Core_d_c;192;36;580.52 1 e_iTasks.WF.Tasks.Core_n_c;192;36;580.52
	push_a 23
	build e_iTasks.Internal.Util_dmkTaskEvalInfo 1 e_iTasks.Internal.Util_nmkTaskEvalInfo
	buildh e_iTasks.WF.Tasks.Core_d\;201;53;29.30 0
	buildh e_iTasks.WF.Definition_dNoValue 0
	push_a 19
	push_a 2
	update_a 1 3
	update_a 2 1
	update_a 0 2
	pop_a 1
	build e_Data.Maybe_dmaybe;63 3 e_Data.Maybe_nmaybe;63
	build e_iTasks.WF.Definition_dValueResult 4 e_iTasks.WF.Definition_nValueResult
	push_a 21
	push_a 1
	update_a 1 2
	update_a 0 1
	pop_a 1
	update_a 1 23
	updatepop_a 0 22
	pop_b 1
.d 2 0
	rtn
.export e_iTasks.WF.Tasks.Core_d_c;192;36;580.52
.export e_iTasks.WF.Tasks.Core_n_c;192;36;580.52
.descn e_iTasks.WF.Tasks.Core_d_c;192;36;580.52 e_iTasks.WF.Tasks.Core_n_c;192;36;580.52 1 0 "_c;192;36;580.52"
.n 1 e_iTasks.WF.Tasks.Core_d_c;192;36;580.52 ea52
.o 1 0
e_iTasks.WF.Tasks.Core_n_c;192;36;580.52
	push_node _cycle_in_spine 1
.o 2 0
ea52
	jsr_eval 0
.o 2 0
s52
	eq_desc e_iTasks.UI.Definition_kReplaceUI 0 0
	jmp_true case.17
	jmp case.18
case.17
	push_args 0 1 1
	repl_args 3 3
	create
	push_a 2
	buildAC "interact"
	update_a 3 4
	update_a 2 3
	update_a 1 2
	updatepop_a 0 1
.d 3 0
	jsr e_iTasks.UI.Definition_saddClassAttr
.o 1 0
	push_a 2
	push_a 2
	push_a 2
	update_a 2 3
	update_a 0 2
	pop_a 1
	buildhr e_iTasks.UI.Definition_kUI 3 0
	fill_r e_iTasks.UI.Definition_kReplaceUI 1 0 4 0 0
	pop_a 4
.d 1 0
	rtn
case.18
	fill_a 0 1
	pop_a 1
.d 1 0
	rtn
.export e_iTasks.WF.Tasks.Core_d_c;192;36;579.51
.export e_iTasks.WF.Tasks.Core_n_c;192;36;579.51
.descn e_iTasks.WF.Tasks.Core_d_c;192;36;579.51 e_iTasks.WF.Tasks.Core_n_c;192;36;579.51 1 0 "_c;192;36;579.51"
.n 1 e_iTasks.WF.Tasks.Core_d_c;192;36;579.51 ea51
.o 1 0
e_iTasks.WF.Tasks.Core_n_c;192;36;579.51
	push_node _cycle_in_spine 1
.o 2 0
ea51
	jsr_eval 0
.o 2 0
s51
	eq_desc e_iTasks.UI.Definition_kReplaceUI 0 0
	jmp_true case.19
	jmp case.20
case.19
	push_args 0 1 1
	repl_args 3 3
	create
	push_a 2
	buildAC "interact"
	update_a 3 4
	update_a 2 3
	update_a 1 2
	updatepop_a 0 1
.d 3 0
	jsr e_iTasks.UI.Definition_saddClassAttr
.o 1 0
	push_a 2
	push_a 2
	push_a 2
	update_a 2 3
	update_a 0 2
	pop_a 1
	buildhr e_iTasks.UI.Definition_kUI 3 0
	fill_r e_iTasks.UI.Definition_kReplaceUI 1 0 4 0 0
	pop_a 4
.d 1 0
	rtn
case.20
	fill_a 0 1
	pop_a 1
.d 1 0
	rtn
.o 5 1 i
s50
	eq_desc _Just 1 0
	jmp_true case.21
	jmp case.22
case.21
	repl_args 1 1
	push_a 3
	jsr_eval 3
	push_r_args_a 3 4 0 3 1
	jsr_eval 0
	push_a 2
	push_a 1
	update_a 1 2
	update_a 0 1
	pop_a 1
	update_a 4 6
	update_a 2 5
	update_a 1 4
	updatepop_a 0 3
	jsr_ap 2
	push_a 1
	jsr_eval 0
	push_a 3
	push_b 0
	push_a 2
	update_a 1 3
	update_a 2 1
	update_a 0 2
	pop_a 1
	update_a 2 4
	update_a 1 3
	updatepop_a 0 2
	updatepop_b 0 1
.d 3 1 i
	jmp e_iTasks.UI.Editor_swithVSt
case.22
	buildh _Nothing 0
	buildh e_iTasks.UI.Definition_dNoChange 0
	push_a 5
	push_a 1
	update_a 1 2
	update_a 0 1
	pop_a 1
	buildh _Tuple 3
	buildh e_Data.Error_dOk 1
	push_a 5
	push_b 0
	push_a 1
	update_a 1 2
	update_a 0 1
	pop_a 1
	update_a 1 6
	updatepop_a 0 5
	updatepop_b 0 1
.d 2 1 i
	rtn
.o 20 1 i
s49
	eq_desc _Just 1 0
	jmp_true case.23
	jmp case.24
case.23
	repl_args 1 1
	push_a 4
	jsr_eval 0
	push_a 1
	build e_Data.Map_dnewMap 0 e_Data.Map_nnewMap
	jsr_eval 6
	push_r_args_a 6 4 0 1 1
	buildh _Nil 0
	update_a 0 5
	update_a 0 9
	update_a 0 24
	pop_a 1
	jsr_ap 2
	push_a 4
	jsr_eval 0
	pushI_a 5
	pop_a 1
	push_a 3
	update_a 6 7
	update_a 4 6
	update_a 2 5
	update_a 1 4
	updatepop_a 0 3
.d 3 1 i
	jsr e_iTasks.UI.Editor_swithVSt
.o 2 1 i
	push_b 1
	push_a 17
	push_a 3
	push_a 18
	push_a 6
	push_a 19
	push_a 19
	push_a 19
	push_a 19
	push_a 19
	push_a 19
	push_a 19
	push_a 19
	push_a 19
	push_a 19
	push_a 19
	push_a 19
	push_a 17
	update_a 16 18
	update_a 14 16
	update_a 12 14
	update_a 10 12
	update_a 8 10
	update_a 6 8
	update_a 4 6
	update_a 2 4
	update_a 0 2
	update_a 17 0
	update_a 15 17
	update_a 13 15
	update_a 11 13
	update_a 9 11
	update_a 7 9
	update_a 5 7
	update_a 3 5
	update_a 1 3
	update_a 0 1
	pop_a 1
	push_b 1
	update_b 1 2
	update_b 0 1
	pop_b 1
	update_a 17 34
	update_a 16 33
	update_a 15 32
	update_a 14 31
	update_a 13 30
	update_a 12 29
	update_a 11 28
	update_a 10 27
	update_a 9 26
	update_a 8 25
	update_a 7 24
	update_a 6 23
	update_a 5 22
	update_a 4 21
	update_a 3 20
	update_a 2 19
	update_a 1 18
	updatepop_a 0 17
	update_b 1 2
	updatepop_b 0 1
.d 18 2 ii
	jmp s48
case.24
	buildh _Nothing 0
	buildh e_iTasks.UI.Definition_dNoChange 0
	build_r e_iTasks.SDS.Definition_rRegistrable; 2 0 16 0
	push_a 15
	build_r e_iTasks.WF.Definition_riTask; 6 0 11 0
	push_a 10
	push_a 23
	push_a 10
	push_a 14
	push_a 11
	push_a 29
	push_a 24
	push_a 11
	update_a 7 12
	update_a 2 7
	update_a 9 2
	update_a 4 9
	update_a 10 4
	update_a 5 10
	update_a 11 5
	update_a 6 11
	update_a 0 6
	update_a 8 0
	update_a 3 8
	update_a 1 3
	update_a 0 1
	pop_a 1
	buildh e_iTasks.WF.Tasks.Core_devalInteract.13 12
	build e_iTasks.WF.Definition_dTask 1 e_iTasks.WF.Definition_nTask
	buildh _Nil 0
	build e_Data.Map_dnewMap 0 e_Data.Map_nnewMap
	buildAC "interact"
	buildh ARRAY 1
	build e_iTasks.UI.Definition_daddClassAttr 2 e_iTasks.UI.Definition_naddClassAttr
	buildh e_iTasks.UI.Definition_dUIEmpty 0
	build e_iTasks.UI.Definition_dUI 3 e_iTasks.UI.Definition_nUI
	build e_iTasks.UI.Definition_dReplaceUI 1 e_iTasks.UI.Definition_nReplaceUI
	buildI_b 0
	build e_iTasks.Internal.Util_dmkTaskEvalInfo 1 e_iTasks.Internal.Util_nmkTaskEvalInfo
	buildh e_iTasks.WF.Definition_dNoValue 0
	build e_iTasks.WF.Definition_dValueResult 4 e_iTasks.WF.Definition_nValueResult
	push_a 5
	push_a 1
	update_a 1 2
	update_a 0 1
	pop_a 1
	update_a 1 21
	updatepop_a 0 20
	pop_b 1
.d 2 0
	rtn
.o 18 2 ii
s48
	eq_desc e_Data.Error_dError 1 0
	jmp_true case.25
	jmp case.26
case.25
	repl_args 1 1
	buildh e__SystemDynamic_dTC_Char 0
	buildhr e__SystemDynamic_kTypeCons 1 0
	buildh e__SystemDynamic_dTC__UnboxedArray 0
	buildhr e__SystemDynamic_kTypeCons 1 0
	buildhr e__SystemDynamic_kTypeApp 2 0
	push_a 1
	push_a 1
	update_a 1 2
	update_a 0 1
	pop_a 1
	build e_iTasks.WF.Tasks.Core_d_f5.268 2 e_iTasks.WF.Tasks.Core_n_f5.268
	push_a 2
	push_a 1
	update_a 1 2
	update_a 0 1
	pop_a 1
	update_a 1 19
	updatepop_a 0 18
	pop_b 2
.d 2 0
	rtn
case.26
	repl_args 1 1
	jsr_eval 0
	repl_args 3 3
	jsr_eval 0
	repl_args 3 3
	push_a 4
	jsr_eval 0
	push_b 1
	push_a 6
	push_a 23
	push_a 23
	push_a 23
	push_a 23
	push_b 1
	push_a 9
	push_a 24
	push_a 10
	push_a 10
	push_a 10
	push_a 27
	push_a 27
	push_a 27
	push_a 27
	push_a 27
	push_a 27
	push_a 27
	push_a 27
	push_a 27
	push_a 27
	push_a 27
	push_a 21
	update_a 21 22
	update_a 20 21
	update_a 19 20
	update_a 18 19
	update_a 17 18
	update_a 16 17
	update_a 15 16
	update_a 14 15
	update_a 13 14
	update_a 12 13
	update_a 11 12
	update_a 10 11
	update_a 9 10
	update_a 8 9
	update_a 7 8
	update_a 6 7
	update_a 5 6
	update_a 4 5
	update_a 3 4
	update_a 2 3
	update_a 1 2
	update_a 0 1
	pop_a 1
	update_a 21 43
	update_a 20 42
	update_a 19 41
	update_a 18 40
	update_a 17 39
	update_a 16 38
	update_a 15 37
	update_a 14 36
	update_a 13 35
	update_a 12 34
	update_a 11 33
	update_a 10 32
	update_a 9 31
	update_a 8 30
	update_a 7 29
	update_a 6 28
	update_a 5 27
	update_a 4 26
	update_a 3 25
	update_a 2 24
	update_a 1 23
	updatepop_a 0 22
	update_b 1 3
	updatepop_b 0 2
.d 22 2 ii
	jmp s47
.export e_iTasks.WF.Tasks.Core_d_f5.268
.export e_iTasks.WF.Tasks.Core_n_f5.268
.descn e_iTasks.WF.Tasks.Core_d_f5.268 e_iTasks.WF.Tasks.Core_n_f5.268 2 0 "_f5.268"
.n 2 e_iTasks.WF.Tasks.Core_d_f5.268 ea268
.o 1 0
e_iTasks.WF.Tasks.Core_n_f5.268
	push_node _cycle_in_spine 2
.o 3 0
ea268
.o 3 0
s268
	push_a 1
	jsr_eval 0
	buildh e_StdString_dtoString;9 0
	push_a 2
	jsr_eval 0
	update_a 2 4
	update_a 1 3
	updatepop_a 0 2
.d 3 0
	jsr e_iTasks.WF.Definition_sexception
.o 3 0
	fill_r e_iTasks.WF.Definition_kExceptionResult 3 0 3 0 0
	pop_a 3
.d 1 0
	rtn
.o 22 2 ii
s47
	eq_desc _Just 1 0
	jmp_true case.27
	jmp case.28
case.27
	repl_args 1 1
	push_a 21
	push_a 21
	push_a 21
	build e_Data.Set_dsingleton 1 e_Data.Set_nsingleton
	build e_iTasks.WF.Definition_dRefreshEvent 1 e_iTasks.WF.Definition_nRefreshEvent
	push_a 19
	build _Justs 1 n_Justs
	push_a 17
	buildAC "interact"
	buildh ARRAY 1
	build e_iTasks.UI.Definition_daddClassAttr 2 e_iTasks.UI.Definition_naddClassAttr
	push_a 19
	push_a 18
	push_a 2
	update_a 2 3
	update_a 0 2
	pop_a 1
	build e_iTasks.UI.Definition_dUI 3 e_iTasks.UI.Definition_nUI
	build e_iTasks.UI.Definition_dReplaceUI 1 e_iTasks.UI.Definition_nReplaceUI
	build_r e_iTasks.SDS.Definition_rRegistrable; 2 0 15 0
	push_a 14
	build_r e_iTasks.WF.Definition_riTask; 6 0 10 0
	push_a 9
	push_a 27
	push_a 27
	push_a 13
	buildI_b 0
	push_a 28
	push_a 23
	push_a 11
	update_a 7 12
	update_a 0 7
	update_a 11 0
	update_a 6 11
	update_a 2 6
	update_a 9 2
	update_a 4 9
	update_a 10 4
	update_a 5 10
	update_a 0 5
	update_a 8 0
	update_a 3 8
	update_a 1 3
	update_a 0 1
	pop_a 1
	buildh e_iTasks.WF.Tasks.Core_devalInteract.13 12
	buildh e_iTasks.WF.Definition_dNoValue 0
	push_a 7
	push_a 7
	jsr_eval 0
	push_a 7
	push_a 1
	update_a 1 2
	update_a 0 1
	pop_a 1
	update_a 7 29
	update_a 6 28
	update_a 5 27
	update_a 4 26
	update_a 3 25
	update_a 2 24
	update_a 1 23
	updatepop_a 0 22
	pop_b 2
	jsr_ap 7
	repl_args 2 2
.d 2 0
	rtn
case.28
	push_a 16
	build _Justs 1 n_Justs
	buildh e_iTasks.UI.Definition_dNoChange 0
	build_r e_iTasks.SDS.Definition_rRegistrable; 2 0 12 0
	push_a 11
	build_r e_iTasks.WF.Definition_riTask; 6 0 7 0
	push_a 6
	push_a 24
	push_a 24
	push_a 10
	buildI_b 0
	push_a 25
	push_a 20
	push_a 11
	update_a 7 12
	update_a 0 7
	update_a 11 0
	update_a 6 11
	update_a 2 6
	update_a 9 2
	update_a 4 9
	update_a 10 4
	update_a 5 10
	update_a 0 5
	update_a 8 0
	update_a 3 8
	update_a 1 3
	update_a 0 1
	pop_a 1
	buildh e_iTasks.WF.Tasks.Core_devalInteract.13 12
	build e_iTasks.WF.Definition_dTask 1 e_iTasks.WF.Definition_nTask
	push_a 14
	buildAC "interact"
	buildh ARRAY 1
	build e_iTasks.UI.Definition_daddClassAttr 2 e_iTasks.UI.Definition_naddClassAttr
	push_a 16
	push_a 15
	push_a 2
	update_a 2 3
	update_a 0 2
	pop_a 1
	build e_iTasks.UI.Definition_dUI 3 e_iTasks.UI.Definition_nUI
	build e_iTasks.UI.Definition_dReplaceUI 1 e_iTasks.UI.Definition_nReplaceUI
	buildI_b 1
	build e_iTasks.Internal.Util_dmkTaskEvalInfo 1 e_iTasks.Internal.Util_nmkTaskEvalInfo
	buildh e_iTasks.WF.Tasks.Core_d\;167;49;26.27 0
	buildh e_iTasks.WF.Definition_dNoValue 0
	push_a 20
	push_a 2
	update_a 1 3
	update_a 2 1
	update_a 0 2
	pop_a 1
	build e_Data.Maybe_dmaybe;63 3 e_Data.Maybe_nmaybe;63
	build e_iTasks.WF.Definition_dValueResult 4 e_iTasks.WF.Definition_nValueResult
	push_a 22
	push_a 1
	update_a 1 2
	update_a 0 1
	pop_a 1
	update_a 1 23
	updatepop_a 0 22
	pop_b 2
.d 2 0
	rtn
.o 20 2 ii
s46
	eq_desc e_Data.Error_dOk 1 0
	jmp_true case.29
	jmp case.30
case.29
	repl_args 1 1
	jsr_eval 0
	eq_desc _Just 1 0
	jmp_true case.31
	jmp case.32
case.31
	repl_args 1 1
	repl_args 3 3
	push_a 2
	jsr_eval 0
	push_b 1
	push_a 21
	push_a 21
	push_a 21
	push_a 5
	push_a 5
	push_b 1
	push_a 23
	push_a 23
	push_a 23
	push_a 23
	push_a 23
	push_a 23
	push_a 23
	push_a 23
	push_a 23
	push_a 23
	push_a 23
	push_a 23
	push_a 23
	push_a 23
	push_a 23
	push_a 20
	update_a 20 21
	update_a 19 20
	update_a 18 19
	update_a 17 18
	update_a 16 17
	update_a 15 16
	update_a 14 15
	update_a 13 14
	update_a 12 13
	update_a 11 12
	update_a 10 11
	update_a 9 10
	update_a 8 9
	update_a 7 8
	update_a 6 7
	update_a 5 6
	update_a 4 5
	update_a 3 4
	update_a 2 3
	update_a 1 2
	update_a 0 1
	pop_a 1
	update_a 20 42
	update_a 19 41
	update_a 18 40
	update_a 17 39
	update_a 16 38
	update_a 15 37
	update_a 14 36
	update_a 13 35
	update_a 12 34
	update_a 11 33
	update_a 10 32
	update_a 9 31
	update_a 8 30
	update_a 7 29
	update_a 6 28
	update_a 5 27
	update_a 4 26
	update_a 3 25
	update_a 2 24
	update_a 1 23
	updatepop_a 0 22
	update_b 1 3
	updatepop_b 0 2
.d 21 2 ii
	jmp s45
case.32
	push_a 19
	buildh _Just 1
	buildh e_iTasks.UI.Definition_dNoChange 0
	build_r e_iTasks.SDS.Definition_rRegistrable; 2 0 12 0
	push_a 11
	build_r e_iTasks.WF.Definition_riTask; 6 0 7 0
	push_a 6
	push_a 21
	push_a 21
	push_a 10
	buildI_b 0
	push_a 23
	push_a 20
	push_a 11
	update_a 7 12
	update_a 0 7
	update_a 11 0
	update_a 6 11
	update_a 2 6
	update_a 9 2
	update_a 4 9
	update_a 10 4
	update_a 5 10
	update_a 0 5
	update_a 8 0
	update_a 3 8
	update_a 1 3
	update_a 0 1
	pop_a 1
	buildh e_iTasks.WF.Tasks.Core_devalInteract.13 12
	build e_iTasks.WF.Definition_dTask 1 e_iTasks.WF.Definition_nTask
	buildI_b 1
	build e_iTasks.Internal.Util_dmkTaskEvalInfo 1 e_iTasks.Internal.Util_nmkTaskEvalInfo
	buildh e_iTasks.WF.Tasks.Core_d\;141;33;25.26 0
	buildh e_iTasks.WF.Definition_dNoValue 0
	push_a 17
	push_a 2
	update_a 1 3
	update_a 2 1
	update_a 0 2
	pop_a 1
	build e_Data.Maybe_dmaybe;63 3 e_Data.Maybe_nmaybe;63
	push_a 15
	push_a 2
	update_a 1 3
	update_a 2 1
	update_a 0 2
	pop_a 1
	build e_iTasks.WF.Definition_dValueResult 4 e_iTasks.WF.Definition_nValueResult
	push_a 19
	push_a 1
	update_a 1 2
	update_a 0 1
	pop_a 1
	update_a 1 21
	updatepop_a 0 20
	pop_b 2
.d 2 0
	rtn
case.30
	repl_args 1 1
	buildh e__SystemDynamic_dTC_Char 0
	buildhr e__SystemDynamic_kTypeCons 1 0
	buildh e__SystemDynamic_dTC__UnboxedArray 0
	buildhr e__SystemDynamic_kTypeCons 1 0
	buildhr e__SystemDynamic_kTypeApp 2 0
	push_a 1
	push_a 1
	update_a 1 2
	update_a 0 1
	pop_a 1
	build e_iTasks.WF.Tasks.Core_d_f6.269 2 e_iTasks.WF.Tasks.Core_n_f6.269
	push_a 19
	push_a 1
	update_a 1 2
	update_a 0 1
	pop_a 1
	update_a 1 21
	updatepop_a 0 20
	pop_b 2
.d 2 0
	rtn
.export e_iTasks.WF.Tasks.Core_d_f6.269
.export e_iTasks.WF.Tasks.Core_n_f6.269
.descn e_iTasks.WF.Tasks.Core_d_f6.269 e_iTasks.WF.Tasks.Core_n_f6.269 2 0 "_f6.269"
.n 2 e_iTasks.WF.Tasks.Core_d_f6.269 ea269
.o 1 0
e_iTasks.WF.Tasks.Core_n_f6.269
	push_node _cycle_in_spine 2
.o 3 0
ea269
.o 3 0
s269
	push_a 1
	jsr_eval 0
	buildh e_StdString_dtoString;9 0
	push_a 2
	jsr_eval 0
	update_a 2 4
	update_a 1 3
	updatepop_a 0 2
.d 3 0
	jsr e_iTasks.WF.Definition_sexception
.o 3 0
	fill_r e_iTasks.WF.Definition_kExceptionResult 3 0 3 0 0
	pop_a 3
.d 1 0
	rtn
.o 21 2 ii
s45
	eq_desc _Just 1 0
	jmp_true case.33
	jmp case.34
case.33
	repl_args 1 1
	push_a 20
	push_a 20
	push_a 20
	build_r e_iTasks.SDS.Definition_rRegistrable; 2 0 13 0
	build_r e_iTasks.WF.Definition_riTask; 6 0 7 0
	push_a 22
	push_a 22
	buildI_b 0
	push_a 9
	push_a 24
	push_a 24
	push_a 13
	push_a 25
	push_a 25
	push_a 23
	push_a 11
	update_a 10 12
	update_a 8 10
	update_a 6 8
	update_a 4 6
	update_a 2 4
	update_a 1 2
	update_a 11 1
	update_a 9 11
	update_a 7 9
	update_a 5 7
	update_a 3 5
	update_a 0 3
	pop_a 1
	buildh e_iTasks.WF.Tasks.Core_d\;122;18;23.24 12
	buildh e_iTasks.WF.Definition_dNoValue 0
	push_a 7
	push_a 7
	jsr_eval 0
	push_a 7
	push_a 1
	update_a 1 2
	update_a 0 1
	pop_a 1
	update_a 7 28
	update_a 6 27
	update_a 5 26
	update_a 4 25
	update_a 3 24
	update_a 2 23
	update_a 1 22
	updatepop_a 0 21
	pop_b 2
	jsr_ap 7
	repl_args 2 2
.d 2 0
	rtn
case.34
	push_a 17
	build _Justs 1 n_Justs
	buildh e_iTasks.UI.Definition_dNoChange 0
	build_r e_iTasks.SDS.Definition_rRegistrable; 2 0 12 0
	push_a 11
	build_r e_iTasks.WF.Definition_riTask; 6 0 7 0
	push_a 6
	push_a 21
	push_a 21
	push_a 10
	buildI_b 0
	push_a 23
	push_a 20
	push_a 11
	update_a 7 12
	update_a 0 7
	update_a 11 0
	update_a 6 11
	update_a 2 6
	update_a 9 2
	update_a 4 9
	update_a 10 4
	update_a 5 10
	update_a 0 5
	update_a 8 0
	update_a 3 8
	update_a 1 3
	update_a 0 1
	pop_a 1
	buildh e_iTasks.WF.Tasks.Core_devalInteract.13 12
	build e_iTasks.WF.Definition_dTask 1 e_iTasks.WF.Definition_nTask
	push_a 17
	push_a 14
	build e_iTasks.UI.Definition_dmergeUIChanges 2 e_iTasks.UI.Definition_nmergeUIChanges
	buildI_b 1
	build e_iTasks.Internal.Util_dmkTaskEvalInfo 1 e_iTasks.Internal.Util_nmkTaskEvalInfo
	buildh e_iTasks.WF.Tasks.Core_d\;133;37;24.25 0
	buildh e_iTasks.WF.Definition_dNoValue 0
	push_a 18
	push_a 2
	update_a 1 3
	update_a 2 1
	update_a 0 2
	pop_a 1
	build e_Data.Maybe_dmaybe;63 3 e_Data.Maybe_nmaybe;63
	build e_iTasks.WF.Definition_dValueResult 4 e_iTasks.WF.Definition_nValueResult
	push_a 21
	push_a 1
	update_a 1 2
	update_a 0 1
	pop_a 1
	update_a 1 22
	updatepop_a 0 21
	pop_b 2
.d 2 0
	rtn
.export e_iTasks.WF.Tasks.Core_d\;213;25;31.32
.desc e_iTasks.WF.Tasks.Core_d\;213;25;31.32 _hnf l32 1 0 "\;213;25;31.32"
.o 2 0
l32
	update_a 1 0
	create
	update_a 0 2
	pop_a 1
.o 2 0
ea32
	jsr_eval 0
.o 2 0
s32
	pushB FALSE
	push_a 0
	fill_r e_iTasks.WF.Definition_kValue 1 1 2 0 0
	pop_a 2
	pop_b 1
.d 1 0
	rtn
.export e_iTasks.WF.Tasks.Core_d\;184;54;27.28
.desc e_iTasks.WF.Tasks.Core_d\;184;54;27.28 _hnf l28 1 0 "\;184;54;27.28"
.o 2 0
l28
	update_a 1 0
	create
	update_a 0 2
	pop_a 1
.o 2 0
ea28
	jsr_eval 0
.o 2 0
s28
	pushB FALSE
	push_a 0
	fill_r e_iTasks.WF.Definition_kValue 1 1 2 0 0
	pop_a 2
	pop_b 1
.d 1 0
	rtn
.export e_iTasks.WF.Tasks.Core_d\;184;81;28.29
.desc e_iTasks.WF.Tasks.Core_d\;184;81;28.29 _hnf l29 1 0 "\;184;81;28.29"
.o 2 0
l29
	update_a 1 0
	create
	update_a 0 2
	pop_a 1
.o 2 0
ea29
	jsr_eval 0
.o 2 0
s29
	buildh e_iTasks.Internal.AsyncSDS_dRead 0
	create
	push_a 1
	update_a 1 2
	update_a 0 1
	pop_a 1
.d 2 0
	jsr e_iTasks.Internal.AsyncSDS_sasyncSDSLoaderUI
.o 1 0
	push_a 1
	update_a 1 2
	updatepop_a 0 1
.d 3 0
	jmp e_iTasks.Internal.Util_smkUIIfReset
.export e_iTasks.WF.Tasks.Core_d\;201;53;29.30
.desc e_iTasks.WF.Tasks.Core_d\;201;53;29.30 _hnf l30 1 0 "\;201;53;29.30"
.o 2 0
l30
	update_a 1 0
	create
	update_a 0 2
	pop_a 1
.o 2 0
ea30
	jsr_eval 0
.o 2 0
s30
	pushB FALSE
	push_a 0
	fill_r e_iTasks.WF.Definition_kValue 1 1 2 0 0
	pop_a 2
	pop_b 1
.d 1 0
	rtn
.export e_iTasks.WF.Tasks.Core_d\;167;49;26.27
.desc e_iTasks.WF.Tasks.Core_d\;167;49;26.27 _hnf l27 1 0 "\;167;49;26.27"
.o 2 0
l27
	update_a 1 0
	create
	update_a 0 2
	pop_a 1
.o 2 0
ea27
	jsr_eval 0
.o 2 0
s27
	pushB FALSE
	push_a 0
	fill_r e_iTasks.WF.Definition_kValue 1 1 2 0 0
	pop_a 2
	pop_b 1
.d 1 0
	rtn
.export e_iTasks.WF.Tasks.Core_d\;124;41;22.23
.desc e_iTasks.WF.Tasks.Core_d\;124;41;22.23 _hnf l23 1 0 "\;124;41;22.23"
.o 2 0
l23
	update_a 1 0
	create
	update_a 0 2
	pop_a 1
.o 2 0
ea23
	jsr_eval 0
.o 2 0
s23
	pushB FALSE
	push_a 0
	fill_r e_iTasks.WF.Definition_kValue 1 1 2 0 0
	pop_a 2
	pop_b 1
.d 1 0
	rtn
.export e_iTasks.WF.Tasks.Core_d\;133;37;24.25
.desc e_iTasks.WF.Tasks.Core_d\;133;37;24.25 _hnf l25 1 0 "\;133;37;24.25"
.o 2 0
l25
	update_a 1 0
	create
	update_a 0 2
	pop_a 1
.o 2 0
ea25
	jsr_eval 0
.o 2 0
s25
	pushB FALSE
	push_a 0
	fill_r e_iTasks.WF.Definition_kValue 1 1 2 0 0
	pop_a 2
	pop_b 1
.d 1 0
	rtn
.export e_iTasks.WF.Tasks.Core_d\;141;33;25.26
.desc e_iTasks.WF.Tasks.Core_d\;141;33;25.26 _hnf l26 1 0 "\;141;33;25.26"
.o 2 0
l26
	update_a 1 0
	create
	update_a 0 2
	pop_a 1
.o 2 0
ea26
	jsr_eval 0
.o 2 0
s26
	pushB FALSE
	push_a 0
	fill_r e_iTasks.WF.Definition_kValue 1 1 2 0 0
	pop_a 2
	pop_b 1
.d 1 0
	rtn
.export e_iTasks.WF.Tasks.Core_dwriteCompletely`;19.20
.desc e_iTasks.WF.Tasks.Core_dwriteCompletely`;19.20 _hnf l20 10 0 "writeCompletely`;19.20"
.a 0 a20
.o 2 0
l20
	repl_args 9 9
.o 10 0
a20
.d 10 0
	jsr ea20
.o 2 0
	push_a 1
	push_a 1
	buildh _Tuple 2
	updatepop_a 0 2
.d 1 0
	rtn
.o 10 0
ea20
	jsr_eval 9
	jsr_eval 1
	repl_r_args 2 0
.o 11 0
s20
	buildh e_iTasks.UI.Definition_dUILoader 0
	build e_iTasks.UI.Definition_dui 1 e_iTasks.UI.Definition_nui
	build e_iTasks.UI.Definition_dReplaceUI 1 e_iTasks.UI.Definition_nReplaceUI
	buildh e_StdFunctions_dconst 1
	push_a 11
	push_a 11
	push_a 11
	push_a 11
	push_a 11
	push_a 11
	push_a 11
	push_a 11
	push_a 11
	push_a 11
	push_a 11
	push_a 11
	update_a 11 12
	update_a 10 11
	update_a 9 10
	update_a 8 9
	update_a 0 8
	pop_a 1
	update_a 11 22
	update_a 10 21
	update_a 9 20
	update_a 8 19
	update_a 7 18
	update_a 6 17
	update_a 5 16
	update_a 4 15
	update_a 3 14
	update_a 2 13
	update_a 1 12
	updatepop_a 0 11
.d 12 0
	jmp e_iTasks.Internal.AsyncSDS_swriteCompletely
.export e_iTasks.WF.Tasks.Core_d\;15;13;34.35
.desc e_iTasks.WF.Tasks.Core_d\;15;13;34.35 _hnf l35 3 0 "\;15;13;34.35"
.a 0 ea35
.o 2 0
l35
	repl_args 2 2
.o 3 0
ea35
	jsr_eval 0
.o 3 0
s35
	push_a 2
	push_a 2
	build e_system_dAP 2 e_system_nAP
	push_a 1
	update_a 1 4
	updatepop_a 0 3
	jmp_ap 1
.export e_iTasks.WF.Tasks.Core_saccWorldOSError
.export e_iTasks.WF.Tasks.Core_eaaccWorldOSError
.descexp e_iTasks.WF.Tasks.Core_daccWorldOSError e_iTasks.WF.Tasks.Core_naccWorldOSError e_iTasks.WF.Tasks.Core_laccWorldOSError 1 0 "accWorldOSError"
.o 2 0
e_iTasks.WF.Tasks.Core_laccWorldOSError
	update_a 1 0
	create
	update_a 0 2
	pop_a 1
.d 2 0
	jmp e_iTasks.WF.Tasks.Core_eaaccWorldOSError
.n 1 e_iTasks.WF.Tasks.Core_daccWorldOSError e_iTasks.WF.Tasks.Core_eaaccWorldOSError
.o 1 0
e_iTasks.WF.Tasks.Core_naccWorldOSError
	push_node _cycle_in_spine 1
.o 2 0
e_iTasks.WF.Tasks.Core_eaaccWorldOSError
	jsr_eval 0
.o 2 0
e_iTasks.WF.Tasks.Core_saccWorldOSError
.o 2 0
s7
	buildh e_iTasks.WF.Tasks.Core_dOSException 0
	buildh e__SystemDynamic_dTC_Char 0
	buildhr e__SystemDynamic_kTypeCons 1 0
	buildh e__SystemDynamic_dTC__UnboxedArray 0
	buildhr e__SystemDynamic_kTypeCons 1 0
	buildhr e__SystemDynamic_kTypeApp 2 0
	buildh e__SystemDynamic_dTC_Int 0
	buildhr e__SystemDynamic_kTypeCons 1 0
	buildh e__SystemDynamic_dTC__Tuple2 0
	buildhr e__SystemDynamic_kTypeCons 1 0
	buildhr e__SystemDynamic_kTypeApp 2 0
	buildhr e__SystemDynamic_kTypeApp 2 0
	push_a 2
	push_a 1
	update_a 1 2
	update_a 0 1
	pop_a 1
	update_a 2 3
	update_a 1 2
	updatepop_a 0 1
.d 4 0
	jmp s40
.o 4 0
s40
	push_a 1
	push_a 3
	push_a 2
	buildh e_iTasks.WF.Tasks.Core_deval;569.41 3
	updatepop_a 0 3
.d 2 0
	jmp e_iTasks.Internal.Task_smkInstantTask
.export e_iTasks.WF.Tasks.Core_deval;569.41
.desc e_iTasks.WF.Tasks.Core_deval;569.41 _hnf l41 5 0 "eval;569.41"
.a 0 a41
.o 2 0
l41
	repl_args 4 4
.o 5 0
a41
.d 5 0
	jsr ea41
.o 2 0
	push_a 1
	push_a 1
	buildh _Tuple 2
	updatepop_a 0 2
.d 1 0
	rtn
.o 5 0
ea41
	jsr_eval 4
.o 5 0
s41
	push_r_args 4 18 1
	update_a 15 17
	pop_a 17
	pop_b 1
	push_a 0
	push_a 4
	update_a 4 6
	update_a 3 5
	update_a 1 4
	updatepop_a 0 3
	jsr_ap 1
	push_arg 0 2 2
	push_arg 1 2 1
	jsr_eval 0
	push_a 5
	push_a 5
	push_a 5
	push_a 3
	update_a 3 4
	update_a 2 3
	update_a 1 2
	update_a 0 1
	pop_a 1
	update_a 4 8
	update_a 3 7
	update_a 2 6
	update_a 1 5
	updatepop_a 0 4
.d 5 0
	jmp s44
.o 5 0
s44
	eq_desc e_Data.Error_dError 1 0
	jmp_true case.35
	jmp case.36
case.35
	repl_args 1 1
	push_a 4
	push_a 4
	build e_iTasks.WF.Tasks.Core_d_upd0.270 2 e_iTasks.WF.Tasks.Core_n_upd0.270
	push_a 1
	push_a 4
	build e_iTasks.WF.Tasks.Core_d_f1.264 2 e_iTasks.WF.Tasks.Core_n_f1.264
	pushI 0
	buildhr e__SystemDynamic_kTypeVar 0 1
	buildI 0
	buildI 1
	build e__SystemDynamic_d_initial_unification_environment 2 e__SystemDynamic_n_initial_unification_environment
	pushI 0
	buildhr e__SystemDynamic_kTypeVar 0 1
	push_a 6
	push_a 1
	update_a 1 2
	update_a 0 1
	pop_a 1
	build e__SystemDynamic_d_bind_global_type_pattern_var 3 e__SystemDynamic_n_bind_global_type_pattern_var
	build e__SystemDynamic_d_normalise 2 e__SystemDynamic_n_normalise
	push_a 3
	buildhr e__SystemDynamic_rDynamicTemp 2 0
	buildh _Tuple 2
	buildh e_Data.Error_dError 1
	update_a 1 6
	updatepop_a 0 5
.d 2 0
	rtn
case.36
	repl_args 1 1
	push_a 4
	push_a 4
	build e_iTasks.WF.Tasks.Core_d_upd1.271 2 e_iTasks.WF.Tasks.Core_n_upd1.271
	push_a 1
	buildh e_Data.Error_dOk 1
	update_a 1 6
	updatepop_a 0 5
.d 2 0
	rtn
.export e_iTasks.WF.Tasks.Core_d_upd0.270
.export e_iTasks.WF.Tasks.Core_n_upd0.270
.descn e_iTasks.WF.Tasks.Core_d_upd0.270 e_iTasks.WF.Tasks.Core_n_upd0.270 2 0 "_upd0.270"
.n 2 e_iTasks.WF.Tasks.Core_d_upd0.270 ea270
.o 1 0
e_iTasks.WF.Tasks.Core_n_upd0.270
	push_node _cycle_in_spine 2
.o 3 0
ea270
.o 3 0
s270
	push_a 1
	jsr_eval 0
	push_r_args 1 18 1
	update_a 18 15
	fill_r e_iTasks.Internal.IWorld_rIWorld 18 1 21 0 0
	pop_a 21
	pop_b 1
.d 1 0
	rtn
.export e_iTasks.WF.Tasks.Core_d_upd1.271
.export e_iTasks.WF.Tasks.Core_n_upd1.271
.descn e_iTasks.WF.Tasks.Core_d_upd1.271 e_iTasks.WF.Tasks.Core_n_upd1.271 2 0 "_upd1.271"
.n 2 e_iTasks.WF.Tasks.Core_d_upd1.271 ea271
.o 1 0
e_iTasks.WF.Tasks.Core_n_upd1.271
	push_node _cycle_in_spine 2
.o 3 0
ea271
.o 3 0
s271
	push_a 1
	jsr_eval 0
	push_r_args 1 18 1
	update_a 18 15
	fill_r e_iTasks.Internal.IWorld_rIWorld 18 1 21 0 0
	pop_a 21
	pop_b 1
.d 1 0
	rtn
.export e_iTasks.WF.Tasks.Core_d_f1.264
.export e_iTasks.WF.Tasks.Core_n_f1.264
.descn e_iTasks.WF.Tasks.Core_d_f1.264 e_iTasks.WF.Tasks.Core_n_f1.264 2 0 "_f1.264"
.n 2 e_iTasks.WF.Tasks.Core_d_f1.264 ea264
.o 1 0
e_iTasks.WF.Tasks.Core_n_f1.264
	push_node _cycle_in_spine 2
.o 3 0
ea264
.o 3 0
s264
	push_a 0
	jsr_eval 0
	push_a 2
	push_a 1
	update_a 1 2
	update_a 0 1
	pop_a 1
	update_a 1 3
	updatepop_a 0 2
	jsr_ap 1
.d 1 0
	jsr s10
.o 1 0
	fillh ARRAY 1 1
.d 1 0
	rtn
.export e_iTasks.WF.Tasks.Core_stoString;9
.descexp e_iTasks.WF.Tasks.Core_dtoString;9 e_iTasks.WF.Tasks.Core_ntoString;9 e_iTasks.WF.Tasks.Core_ltoString;9 1 0 "toString;9"
.o 2 0
e_iTasks.WF.Tasks.Core_itoString;9
	pop_a 1
.d 1 0
	jmp s10
.ai 1 _ e_iTasks.WF.Tasks.Core_itoString;9
.o 2 0
e_iTasks.WF.Tasks.Core_ltoString;9
	pop_a 1
.d 1 0
	jsr ea10
.o 1 0
	buildh ARRAY 1
.d 1 0
	rtn
.n 1 e_iTasks.WF.Tasks.Core_dtoString;9
.o 1 0
e_iTasks.WF.Tasks.Core_ntoString;9
	push_node _cycle_in_spine 1
.d 1 0
	jsr ea10
.o 1 0
	fillh ARRAY 1 1
.d 1 0
	rtn
.o 1 0
ea10
	jsr_eval 0
.o 1 0
e_iTasks.WF.Tasks.Core_stoString;9
.o 1 0
s10
	repl_args 2 2
	pop_a 1
	push_a 0
	jsr_eval 0
	push_array 0
	updatepop_a 0 1
	buildAC "Error performing OS operation: "
	update_a 1 2
	updatepop_a 0 1
.d 2 0
	jsr catAC
.o 1 0
.d 1 0
	rtn
.export e_iTasks.WF.Tasks.Core_sappWorld
.export e_iTasks.WF.Tasks.Core_eaappWorld
.descexp e_iTasks.WF.Tasks.Core_dappWorld e_iTasks.WF.Tasks.Core_nappWorld e_iTasks.WF.Tasks.Core_lappWorld 1 0 "appWorld"
.o 2 0
e_iTasks.WF.Tasks.Core_lappWorld
	update_a 1 0
	create
	update_a 0 2
	pop_a 1
.d 2 0
	jmp e_iTasks.WF.Tasks.Core_eaappWorld
.n 1 e_iTasks.WF.Tasks.Core_dappWorld e_iTasks.WF.Tasks.Core_eaappWorld
.o 1 0
e_iTasks.WF.Tasks.Core_nappWorld
	push_node _cycle_in_spine 1
.o 2 0
e_iTasks.WF.Tasks.Core_eaappWorld
	jsr_eval 0
.o 2 0
e_iTasks.WF.Tasks.Core_sappWorld
.o 2 0
s4
	buildh e__predef_d_Unit 0
	push_a 1
	push_a 1
	update_a 1 2
	update_a 0 1
	pop_a 1
	buildh e_iTasks.WF.Tasks.Core_d\;15;13;567.39 2
	updatepop_a 0 1
.d 2 0
	jmp s5
.export e_iTasks.WF.Tasks.Core_d\;15;13;567.39
.desc e_iTasks.WF.Tasks.Core_d\;15;13;567.39 _hnf l39 3 0 "\;15;13;567.39"
.a 0 a39
.o 2 0
l39
	repl_args 2 2
.o 3 0
a39
.d 3 0
	jsr ea39
.o 2 0
	push_a 1
	push_a 1
	buildh _Tuple 2
	updatepop_a 0 2
.d 1 0
	rtn
.o 3 0
ea39
.o 3 0
s39
	push_a 2
	push_a 2
	build e_system_dAP 2 e_system_nAP
	push_a 1
	update_a 1 4
	updatepop_a 0 3
.d 2 0
	jmp e_Data.Tuple_stuple
.export e_iTasks.WF.Tasks.Core_saccWorld
.export e_iTasks.WF.Tasks.Core_eaaccWorld
.descexp e_iTasks.WF.Tasks.Core_daccWorld e_iTasks.WF.Tasks.Core_naccWorld e_iTasks.WF.Tasks.Core_laccWorld 1 0 "accWorld"
.o 2 0
e_iTasks.WF.Tasks.Core_laccWorld
	update_a 1 0
	create
	update_a 0 2
	pop_a 1
.d 2 0
	jmp e_iTasks.WF.Tasks.Core_eaaccWorld
.n 1 e_iTasks.WF.Tasks.Core_daccWorld e_iTasks.WF.Tasks.Core_eaaccWorld
.o 1 0
e_iTasks.WF.Tasks.Core_naccWorld
	push_node _cycle_in_spine 1
.o 2 0
e_iTasks.WF.Tasks.Core_eaaccWorld
	jsr_eval 0
.o 2 0
e_iTasks.WF.Tasks.Core_saccWorld
.o 2 0
s5
	buildh e_StdFunctions_did 0
	buildh e_iTasks.WF.Tasks.Core_dok;16.17 0
	push_a 2
	push_a 1
	update_a 1 2
	update_a 0 1
	pop_a 1
	buildh e_iTasks.WF.Tasks.Core_d\;15;13;564.36 2
	buildh e__SystemDynamic_dTC_Char 0
	buildhr e__SystemDynamic_kTypeCons 1 0
	buildh e__SystemDynamic_dTC__UnboxedArray 0
	buildhr e__SystemDynamic_kTypeCons 1 0
	buildhr e__SystemDynamic_kTypeApp 2 0
	update_a 2 3
	update_a 1 2
	updatepop_a 0 1
.d 4 0
	jmp s37
.o 4 0
s37
	push_a 1
	push_a 3
	push_a 2
	buildh e_iTasks.WF.Tasks.Core_deval;566.38 3
	updatepop_a 0 3
.d 2 0
	jmp e_iTasks.Internal.Task_smkInstantTask
.export e_iTasks.WF.Tasks.Core_deval;566.38
.desc e_iTasks.WF.Tasks.Core_deval;566.38 _hnf l38 5 0 "eval;566.38"
.a 0 a38
.o 2 0
l38
	repl_args 4 4
.o 5 0
a38
.d 5 0
	jsr ea38
.o 2 0
	push_a 1
	push_a 1
	buildh _Tuple 2
	updatepop_a 0 2
.d 1 0
	rtn
.o 5 0
ea38
	jsr_eval 4
.o 5 0
s38
	push_r_args 4 18 1
	update_a 15 17
	pop_a 17
	pop_b 1
	push_a 0
	push_a 4
	update_a 4 6
	update_a 3 5
	update_a 1 4
	updatepop_a 0 3
	jsr_ap 1
	push_arg 0 2 2
	push_arg 1 2 1
	jsr_eval 0
	push_a 5
	push_a 5
	push_a 5
	push_a 3
	update_a 3 4
	update_a 2 3
	update_a 1 2
	update_a 0 1
	pop_a 1
	update_a 4 8
	update_a 3 7
	update_a 2 6
	update_a 1 5
	updatepop_a 0 4
.d 5 0
	jmp s43
.o 5 0
s43
	eq_desc e_Data.Error_dError 1 0
	jmp_true case.37
	jmp case.38
case.37
	repl_args 1 1
	push_a 4
	push_a 4
	build e_iTasks.WF.Tasks.Core_d_upd2.272 2 e_iTasks.WF.Tasks.Core_n_upd2.272
	push_a 1
	push_a 4
	build e_system_dAP 2 e_system_nAP
	build e_StdString_dtoString;9 1 e_StdString_ntoString;9
	pushI 0
	buildhr e__SystemDynamic_kTypeVar 0 1
	buildI 0
	buildI 1
	build e__SystemDynamic_d_initial_unification_environment 2 e__SystemDynamic_n_initial_unification_environment
	pushI 0
	buildhr e__SystemDynamic_kTypeVar 0 1
	push_a 6
	push_a 1
	update_a 1 2
	update_a 0 1
	pop_a 1
	build e__SystemDynamic_d_bind_global_type_pattern_var 3 e__SystemDynamic_n_bind_global_type_pattern_var
	build e__SystemDynamic_d_normalise 2 e__SystemDynamic_n_normalise
	push_a 3
	buildhr e__SystemDynamic_rDynamicTemp 2 0
	buildh _Tuple 2
	buildh e_Data.Error_dError 1
	update_a 1 6
	updatepop_a 0 5
.d 2 0
	rtn
case.38
	repl_args 1 1
	push_a 4
	push_a 4
	build e_iTasks.WF.Tasks.Core_d_upd3.273 2 e_iTasks.WF.Tasks.Core_n_upd3.273
	push_a 1
	buildh e_Data.Error_dOk 1
	update_a 1 6
	updatepop_a 0 5
.d 2 0
	rtn
.export e_iTasks.WF.Tasks.Core_d_upd2.272
.export e_iTasks.WF.Tasks.Core_n_upd2.272
.descn e_iTasks.WF.Tasks.Core_d_upd2.272 e_iTasks.WF.Tasks.Core_n_upd2.272 2 0 "_upd2.272"
.n 2 e_iTasks.WF.Tasks.Core_d_upd2.272 ea272
.o 1 0
e_iTasks.WF.Tasks.Core_n_upd2.272
	push_node _cycle_in_spine 2
.o 3 0
ea272
.o 3 0
s272
	push_a 1
	jsr_eval 0
	push_r_args 1 18 1
	update_a 18 15
	fill_r e_iTasks.Internal.IWorld_rIWorld 18 1 21 0 0
	pop_a 21
	pop_b 1
.d 1 0
	rtn
.export e_iTasks.WF.Tasks.Core_d_upd3.273
.export e_iTasks.WF.Tasks.Core_n_upd3.273
.descn e_iTasks.WF.Tasks.Core_d_upd3.273 e_iTasks.WF.Tasks.Core_n_upd3.273 2 0 "_upd3.273"
.n 2 e_iTasks.WF.Tasks.Core_d_upd3.273 ea273
.o 1 0
e_iTasks.WF.Tasks.Core_n_upd3.273
	push_node _cycle_in_spine 2
.o 3 0
ea273
.o 3 0
s273
	push_a 1
	jsr_eval 0
	push_r_args 1 18 1
	update_a 18 15
	fill_r e_iTasks.Internal.IWorld_rIWorld 18 1 21 0 0
	pop_a 21
	pop_b 1
.d 1 0
	rtn
.export e_iTasks.WF.Tasks.Core_d\;15;13;564.36
.desc e_iTasks.WF.Tasks.Core_d\;15;13;564.36 _hnf l36 3 0 "\;15;13;564.36"
.a 0 a36
.o 2 0
l36
	repl_args 2 2
.o 3 0
a36
.d 3 0
	jsr ea36
.o 2 0
	push_a 1
	push_a 1
	buildh _Tuple 2
	updatepop_a 0 2
.d 1 0
	rtn
.o 3 0
ea36
.o 3 0
s36
	push_a 2
	push_a 2
	update_a 2 4
	update_a 1 3
	updatepop_a 0 2
	jsr_ap 1
	repl_args 2 2
	push_a 2
	update_a 2 3
	update_a 1 2
	updatepop_a 0 1
.d 3 0
	jmp e_Data.Tuple_sappFst
.export e_iTasks.WF.Tasks.Core_saccWorldError
.export e_iTasks.WF.Tasks.Core_eaaccWorldError
.descexp e_iTasks.WF.Tasks.Core_daccWorldError e_iTasks.WF.Tasks.Core_naccWorldError e_iTasks.WF.Tasks.Core_laccWorldError 4 0 "accWorldError"
.a 4 e_iTasks.WF.Tasks.Core_eaaccWorldError
.o 2 0
e_iTasks.WF.Tasks.Core_laccWorldError
	push_args 0 3 3
	update_a 4 3
	create
	update_a 0 5
	pop_a 1
.d 5 0
	jmp e_iTasks.WF.Tasks.Core_eaaccWorldError
.n 4 e_iTasks.WF.Tasks.Core_daccWorldError e_iTasks.WF.Tasks.Core_eaaccWorldError
.o 1 0
e_iTasks.WF.Tasks.Core_naccWorldError
	push_node _cycle_in_spine 4
.o 5 0
e_iTasks.WF.Tasks.Core_eaaccWorldError
	jsr_eval 3
	jsr_eval 2
	jsr_eval 1
	jsr_eval 0
	push_r_args 1 1 0
	update_a 0 2
	pop_a 1
.o 5 0
e_iTasks.WF.Tasks.Core_saccWorldError
.o 5 0
s6
	build_r e_StdOverloaded_rtoString; 1 0 1 0
	push_a 3
	push_a 5
	push_a 3
	push_a 3
	update_a 3 4
	update_a 2 3
	update_a 0 2
	pop_a 1
	buildh e_iTasks.WF.Tasks.Core_deval;17.18 4
	updatepop_a 0 4
.d 2 0
	jmp e_iTasks.Internal.Task_smkInstantTask
.export e_iTasks.WF.Tasks.Core_deval;17.18
.desc e_iTasks.WF.Tasks.Core_deval;17.18 _hnf l18 6 0 "eval;17.18"
.a 0 a18
.o 2 0
l18
	repl_args 5 5
.o 6 0
a18
.d 6 0
	jsr ea18
.o 2 0
	push_a 1
	push_a 1
	buildh _Tuple 2
	updatepop_a 0 2
.d 1 0
	rtn
.o 6 0
ea18
	jsr_eval 5
	push_r_args 1 1 0
	update_a 0 2
	pop_a 1
.o 6 0
s18
	push_r_args 5 18 1
	update_a 15 17
	pop_a 17
	pop_b 1
	push_a 0
	push_a 5
	update_a 1 2
	updatepop_a 0 1
	buildh _Nil 0
	update_a 0 6
	pop_a 1
	jsr_ap 1
	push_arg 0 2 2
	push_arg 1 2 1
	jsr_eval 0
	push_a 8
	push_a 6
	push_a 6
	push_a 6
	push_a 4
	update_a 4 5
	update_a 3 4
	update_a 2 3
	update_a 1 2
	update_a 0 1
	pop_a 1
	update_a 5 12
	update_a 4 11
	update_a 3 10
	update_a 2 9
	update_a 1 8
	updatepop_a 0 7
.d 6 0
	jmp s42
.o 6 0
s42
	eq_desc e_Data.Error_dError 1 0
	jmp_true case.39
	jmp case.40
case.39
	repl_args 1 1
	push_a 5
	push_a 5
	build e_iTasks.WF.Tasks.Core_d_upd4.274 2 e_iTasks.WF.Tasks.Core_n_upd4.274
	push_a 3
	push_a 2
	push_a 6
	push_a 2
	update_a 2 3
	update_a 1 2
	update_a 0 1
	pop_a 1
	build e_iTasks.WF.Tasks.Core_d_f0.263 3 e_iTasks.WF.Tasks.Core_n_f0.263
	pushI 0
	buildhr e__SystemDynamic_kTypeVar 0 1
	buildI 0
	buildI 1
	build e__SystemDynamic_d_initial_unification_environment 2 e__SystemDynamic_n_initial_unification_environment
	pushI 0
	buildhr e__SystemDynamic_kTypeVar 0 1
	push_a 6
	push_a 1
	update_a 1 2
	update_a 0 1
	pop_a 1
	build e__SystemDynamic_d_bind_global_type_pattern_var 3 e__SystemDynamic_n_bind_global_type_pattern_var
	build e__SystemDynamic_d_normalise 2 e__SystemDynamic_n_normalise
	push_a 3
	buildhr e__SystemDynamic_rDynamicTemp 2 0
	buildh _Tuple 2
	buildh e_Data.Error_dError 1
	update_a 1 7
	updatepop_a 0 6
.d 2 0
	rtn
case.40
	repl_args 1 1
	push_a 5
	push_a 5
	build e_iTasks.WF.Tasks.Core_d_upd5.275 2 e_iTasks.WF.Tasks.Core_n_upd5.275
	push_a 1
	buildh e_Data.Error_dOk 1
	update_a 1 7
	updatepop_a 0 6
.d 2 0
	rtn
.export e_iTasks.WF.Tasks.Core_d_upd4.274
.export e_iTasks.WF.Tasks.Core_n_upd4.274
.descn e_iTasks.WF.Tasks.Core_d_upd4.274 e_iTasks.WF.Tasks.Core_n_upd4.274 2 0 "_upd4.274"
.n 2 e_iTasks.WF.Tasks.Core_d_upd4.274 ea274
.o 1 0
e_iTasks.WF.Tasks.Core_n_upd4.274
	push_node _cycle_in_spine 2
.o 3 0
ea274
.o 3 0
s274
	push_a 1
	jsr_eval 0
	push_r_args 1 18 1
	update_a 18 15
	fill_r e_iTasks.Internal.IWorld_rIWorld 18 1 21 0 0
	pop_a 21
	pop_b 1
.d 1 0
	rtn
.export e_iTasks.WF.Tasks.Core_d_upd5.275
.export e_iTasks.WF.Tasks.Core_n_upd5.275
.descn e_iTasks.WF.Tasks.Core_d_upd5.275 e_iTasks.WF.Tasks.Core_n_upd5.275 2 0 "_upd5.275"
.n 2 e_iTasks.WF.Tasks.Core_d_upd5.275 ea275
.o 1 0
e_iTasks.WF.Tasks.Core_n_upd5.275
	push_node _cycle_in_spine 2
.o 3 0
ea275
.o 3 0
s275
	push_a 1
	jsr_eval 0
	push_r_args 1 18 1
	update_a 18 15
	fill_r e_iTasks.Internal.IWorld_rIWorld 18 1 21 0 0
	pop_a 21
	pop_b 1
.d 1 0
	rtn
.export e_iTasks.WF.Tasks.Core_d_f0.263
.export e_iTasks.WF.Tasks.Core_n_f0.263
.descn e_iTasks.WF.Tasks.Core_d_f0.263 e_iTasks.WF.Tasks.Core_n_f0.263 3 0 "_f0.263"
.n 3 e_iTasks.WF.Tasks.Core_d_f0.263 ea263
.o 1 0
e_iTasks.WF.Tasks.Core_n_f0.263
	push_node _cycle_in_spine 3
.o 4 0
ea263
.o 4 0
s263
	push_a 1
	jsr_eval 0
	push_a 3
	push_a 1
	update_a 1 2
	update_a 0 1
	pop_a 1
	update_a 2 4
	update_a 1 3
	updatepop_a 0 2
	jsr_ap 1
	push_a 1
	jsr_eval 0
	update_a 1 2
	updatepop_a 0 1
.d 2 0
	jsr_i 1
.o 1 0
	fillh ARRAY 1 1
.d 1 0
	rtn
.export e_iTasks.WF.Tasks.Core_dok;16.17
.desc e_iTasks.WF.Tasks.Core_dok;16.17 _hnf l17 1 0 "ok;16.17"
.o 2 0
l17
	update_a 1 0
	create
	update_a 0 2
	pop_a 1
.o 2 0
ea17
	jsr_eval 0
.o 2 0
s17
	push_a 0
	fillh e_Data.Error_dOk 1 2
	pop_a 1
.d 1 0
	rtn
.export e_iTasks.WF.Tasks.Core_sthrowWithString
.export e_iTasks.WF.Tasks.Core_eathrowWithString
.descexp e_iTasks.WF.Tasks.Core_dthrowWithString e_iTasks.WF.Tasks.Core_nthrowWithString e_iTasks.WF.Tasks.Core_lthrowWithString 3 0 "throwWithString"
.a 3 e_iTasks.WF.Tasks.Core_eathrowWithString
.o 2 0
e_iTasks.WF.Tasks.Core_lthrowWithString
	push_args 0 2 2
	update_a 3 2
	create
	update_a 0 4
	pop_a 1
.d 4 0
	jmp e_iTasks.WF.Tasks.Core_eathrowWithString
.n 3 e_iTasks.WF.Tasks.Core_dthrowWithString e_iTasks.WF.Tasks.Core_eathrowWithString
.o 1 0
e_iTasks.WF.Tasks.Core_nthrowWithString
	push_node _cycle_in_spine 3
.o 4 0
e_iTasks.WF.Tasks.Core_eathrowWithString
	jsr_eval 2
	jsr_eval 1
	jsr_eval 0
	push_array 1
	update_a 0 2
	pop_a 1
.o 4 0
e_iTasks.WF.Tasks.Core_sthrowWithString
.o 4 0
s3
	push_a 2
	push_a 2
	buildh ARRAY 1
	push_a 2
	buildh e_iTasks.WF.Tasks.Core_d\;31;37;15.16 3
	updatepop_a 0 3
.d 2 0
	jmp e_iTasks.Internal.Task_smkInstantTask
.export e_iTasks.WF.Tasks.Core_d\;31;37;15.16
.desc e_iTasks.WF.Tasks.Core_d\;31;37;15.16 _hnf l16 5 0 "\;31;37;15.16"
.a 0 a16
.o 2 0
l16
	repl_args 4 4
.o 5 0
a16
.o 5 0
ea16
	pushI 0
	buildhr e__SystemDynamic_kTypeVar 0 1
	buildI 0
	buildI 1
	build e__SystemDynamic_d_initial_unification_environment 2 e__SystemDynamic_n_initial_unification_environment
	pushI 0
	buildhr e__SystemDynamic_kTypeVar 0 1
	push_a 3
	push_a 1
	update_a 1 2
	update_a 0 1
	pop_a 1
	build e__SystemDynamic_d_bind_global_type_pattern_var 3 e__SystemDynamic_n_bind_global_type_pattern_var
	build e__SystemDynamic_d_normalise 2 e__SystemDynamic_n_normalise
	push_a 3
	buildhr e__SystemDynamic_rDynamicTemp 2 0
	push_a 2
	push_a 1
	update_a 1 2
	update_a 0 1
	pop_a 1
	buildh _Tuple 2
	buildh e_Data.Error_dError 1
	push_a 5
	push_a 1
	update_a 1 2
	update_a 0 1
	pop_a 1
	update_a 1 6
	updatepop_a 0 5
	push_a 1
	push_a 1
	buildh _Tuple 2
	updatepop_a 0 2
.d 1 0
	rtn
.export e_iTasks.WF.Tasks.Core_sthrow
.export e_iTasks.WF.Tasks.Core_eathrow
.descexp e_iTasks.WF.Tasks.Core_dthrow e_iTasks.WF.Tasks.Core_nthrow e_iTasks.WF.Tasks.Core_lthrow 3 0 "throw"
.a 3 e_iTasks.WF.Tasks.Core_eathrow
.o 2 0
e_iTasks.WF.Tasks.Core_lthrow
	push_args 0 2 2
	update_a 3 2
	create
	update_a 0 4
	pop_a 1
.d 4 0
	jmp e_iTasks.WF.Tasks.Core_eathrow
.n 3 e_iTasks.WF.Tasks.Core_dthrow e_iTasks.WF.Tasks.Core_eathrow
.o 1 0
e_iTasks.WF.Tasks.Core_nthrow
	push_node _cycle_in_spine 3
.o 4 0
e_iTasks.WF.Tasks.Core_eathrow
	jsr_eval 2
	jsr_eval 1
	jsr_eval 0
	push_r_args 1 1 0
	update_a 0 2
	pop_a 1
.o 4 0
e_iTasks.WF.Tasks.Core_sthrow
.o 4 0
s2
	build_r e_StdOverloaded_rtoString; 1 0 1 0
	push_a 3
	push_a 2
	push_a 2
	update_a 2 3
	update_a 0 2
	pop_a 1
	buildh e_iTasks.WF.Tasks.Core_d\;28;26;14.15 3
	updatepop_a 0 3
.d 2 0
	jmp e_iTasks.Internal.Task_smkInstantTask
.export e_iTasks.WF.Tasks.Core_d\;28;26;14.15
.desc e_iTasks.WF.Tasks.Core_d\;28;26;14.15 _hnf l15 5 0 "\;28;26;14.15"
.a 0 a15
.o 2 0
l15
	repl_args 4 4
.o 5 0
a15
.o 5 0
ea15
	push_r_args 1 1 0
	update_a 0 2
	pop_a 1
	build_r e_StdOverloaded_rtoString; 1 0 1 0
	push_a 3
	push_a 2
	push_a 2
	update_a 2 3
	update_a 0 2
	pop_a 1
	build e_iTasks.WF.Definition_dexception 3 e_iTasks.WF.Definition_nexception
	buildh e_Data.Error_dError 1
	push_a 5
	push_a 1
	update_a 1 2
	update_a 0 1
	pop_a 1
	update_a 1 6
	updatepop_a 0 5
	push_a 1
	push_a 1
	buildh _Tuple 2
	updatepop_a 0 2
.d 1 0
	rtn
.export e_iTasks.WF.Tasks.Core_sreturn
.export e_iTasks.WF.Tasks.Core_eareturn
.descexp e_iTasks.WF.Tasks.Core_dreturn e_iTasks.WF.Tasks.Core_nreturn e_iTasks.WF.Tasks.Core_lreturn 1 0 "return"
.o 2 0
e_iTasks.WF.Tasks.Core_lreturn
	update_a 1 0
	create
	update_a 0 2
	pop_a 1
.d 2 0
	jmp e_iTasks.WF.Tasks.Core_eareturn
.n 1 e_iTasks.WF.Tasks.Core_dreturn e_iTasks.WF.Tasks.Core_eareturn
.o 1 0
e_iTasks.WF.Tasks.Core_nreturn
	push_node _cycle_in_spine 1
.o 2 0
e_iTasks.WF.Tasks.Core_eareturn
	jsr_eval 0
.o 2 0
e_iTasks.WF.Tasks.Core_sreturn
.o 2 0
s1
	push_a 0
	buildh e_iTasks.WF.Tasks.Core_d\;25;28;13.14 1
	updatepop_a 0 1
.d 2 0
	jmp e_iTasks.Internal.Task_smkInstantTask
.export e_iTasks.WF.Tasks.Core_d\;25;28;13.14
.desc e_iTasks.WF.Tasks.Core_d\;25;28;13.14 _hnf l14 3 0 "\;25;28;13.14"
.a 0 a14
.o 2 0
l14
	repl_args 2 2
.o 3 0
a14
.o 3 0
ea14
	push_a 0
	buildh e_Data.Error_dOk 1
	push_a 3
	push_a 1
	update_a 1 2
	update_a 0 1
	pop_a 1
	update_a 1 4
	updatepop_a 0 3
	push_a 1
	push_a 1
	buildh _Tuple 2
	updatepop_a 0 2
.d 1 0
	rtn
