.comp 920 000011110011000
.start _nostart_
.depend "StdCharList" "20210613144732"
.depend "_SystemArray" "20210613144732"
.depend "StdArray" "20210613144732"
.depend "StdEnv" "20210613144732"
.depend "_SystemEnum" "20210613144732"
.depend "StdEnum" "20210613144732"
.depend "StdTuple" "20210613144732"
.depend "StdOrdList" "20210613144732"
.depend "Data.GenDefault" "20210613144732"
.depend "Data.Integer" "20210613144732"
.depend "StdFile" "20210613144732"
.depend "StdString" "20210613144732"
.depend "StdMisc" "20210613144732"
.depend "Data.GenLexOrd" "20210613144732"
.depend "StdFunctions" "20210613144732"
.depend "_SystemEnumStrict" "20210613144732"
.depend "_SystemStrictLists" "20210613144732"
.depend "StdStrictLists" "20210613144732"
.depend "StdGeneric" "20210613144732"
.depend "Data.GenEq" "20210613144732"
.depend "StdReal" "20210613144732"
.depend "StdChar" "20210613144732"
.depend "StdInt" "20210613144732"
.depend "StdBool" "20210613144732"
.depend "StdClass" "20210613144732"
.depend "StdList" "20210613144732"
.depend "StdOverloaded" "20210613144732"
.depend "_SystemDynamic" "20210613144732"
.depend "Data.Integer.ToString" "20210613144732"
.module m_Data.Integer.ToString "Data.Integer.ToString" "20210613144732"
.endinfo
.impmod _system
.implab _cycle_in_spine
.implab _type_error
.implab _hnf
.impdesc e_system_dind
.implab e_system_nind e_system_eaind
.impdesc e_system_dif
.implab e_system_nif e_system_eaif
.implab e_system_sif
.impdesc e_system_dAP
.implab e_system_nAP e_system_eaAP
.implab e_system_sAP
.impdesc ARRAY
.impdesc _Nil
.impdesc _Cons
.impdesc _Conss
.implab n_Conss ea_Conss
.impdesc _Consts
.implab n_Consts ea_Consts
.impdesc _Conssts
.implab n_Conssts ea_Conssts
.impdesc _Tuple
.impdesc d_S.1
.implab n_S.1 ea_S.1
.impdesc d_S.2
.implab n_S.2 ea_S.2
.impdesc d_S.3
.implab n_S.3 ea_S.3
.impdesc d_S.4
.implab n_S.4 ea_S.4
.impdesc d_S.5
.implab n_S.5 ea_S.5
.impdesc d_S.6
.implab n_S.6 ea_S.6
.implab _driver
.impmod _SystemArray
.impmod StdString
.implab e_StdString_stoString;5
.implab e_StdString_s%;10
.implab e_StdString_s+++;11
.impmod StdChar
.implab e_StdChar_s==;18
.implab e_StdChar_stoChar;21
.impmod StdInt
.implab e_StdInt_sbitor
.implab e_StdInt_sbitand
.implab e_StdInt_sbitxor
.implab e_StdInt_s<<
.implab e_StdInt_s>>
.implab e_StdInt_sbitnot
.implab e_StdInt_s+;6
.implab e_StdInt_s-;7
.implab e_StdInt_s*;9
.implab e_StdInt_s/;10
.implab e_StdInt_sone;11
.implab e_StdInt_s==;16
.implab e_StdInt_s<;17
.impmod StdBool
.implab e_StdBool_snot
.impmod Data.Integer
.impdesc e_Data.Integer_rInteger
.export e_Data.Integer.ToString_su_integer_to_string
.descexp e_Data.Integer.ToString_du_integer_to_string e_Data.Integer.ToString_nu_integer_to_string e_Data.Integer.ToString_lu_integer_to_string 1 0 "u_integer_to_string"
.o 2 0 
e_Data.Integer.ToString_lu_integer_to_string
.d 1 0 
	pop_a_jsr 1 ea2
.o 1 0 
	buildh ARRAY 1
.d 1 0 
	rtn 
.n 1 e_Data.Integer.ToString_du_integer_to_string
.o 1 0 
e_Data.Integer.ToString_nu_integer_to_string
	push_node _cycle_in_spine 1
.d 1 0 
	jsr ea2
.o 1 0 
	fillh ARRAY 1 1
.d 1 0 
	rtn 
.o 1 0 
ea2
	jsr_eval 0
	repl_r_args 1 1
.o 1 1 i
e_Data.Integer.ToString_su_integer_to_string
.o 1 1 i
s2
	push_arraysize_a INT 0 1 0
	jmp_neIi 0 else.1
.d 0 1 i
	pop_a_jsr 1 ItoAC
.o 1 0 
.d 1 0 
	rtn 
else.1
.d 1 1 i
	jmp s8
.export e_Data.Integer.ToString_sinteger_to_string
.descexp e_Data.Integer.ToString_dinteger_to_string e_Data.Integer.ToString_ninteger_to_string e_Data.Integer.ToString_linteger_to_string 1 0 "integer_to_string"
.o 2 0 
e_Data.Integer.ToString_linteger_to_string
.d 1 0 
	pop_a_jsr 1 ea1
.o 1 0 
	buildh ARRAY 1
.d 1 0 
	rtn 
.n 1 e_Data.Integer.ToString_dinteger_to_string
.o 1 0 
e_Data.Integer.ToString_ninteger_to_string
	push_node _cycle_in_spine 1
.d 1 0 
	jsr ea1
.o 1 0 
	fillh ARRAY 1 1
.d 1 0 
	rtn 
.o 1 0 
ea1
	jsr_eval 0
	repl_r_args 1 1
.o 1 1 i
e_Data.Integer.ToString_sinteger_to_string
.o 1 1 i
s1
	push_arraysize_a INT 0 1 0
	jmp_neIi 0 else.2
.d 0 1 i
	pop_a_jsr 1 ItoAC
.o 1 0 
.d 1 0 
	rtn 
else.2
	push_arraysize_a INT 0 1 0
	decI
	push_b_incI 0
	create_array_ INT 0 1
	pushI 0
.d 2 2 ii
	jsr s20
.o 1 0 
.d 1 1 i
	jmp s8
.o 2 2 ii
s20
	push_b2 0 1
	jmp_ltI else.3
	push_ab 1 0
	exchange_a 2 1
	select INT 0 1
	push_b_incI 1
	push_b2 1 2
	swap_a1 
	update INT 0 1
	updatepop_b 0 2
.d 2 2 ii
	jmp s20
else.3
	put_a 1
.d 1 0 
	pop_b_rtn 2
.o 1 1 i
s8
	pushI 0
	push_b 1
	jmp_ltI else.4
	push_a 0
	pop_b 1
	push_arraysize INT 0 1
	pushI 20
	push_b 1
	mulI
	pushC ' '
	push_b 1
	create_array CHAR 0 1
	push_b_decI 0
	push_b_decI 2
	swap_a1 
	update_b 1 2
	pushI 0
	put_b 2
	pushI 0
.d 2 4 iiii
	jsr s16
.o 1 0 
	pop_b 1
	pushI 0
.d 1 1 i
	jmp s14
else.4
	push_a 0
	pop_b 1
	push_arraysize INT 0 1
	pushI 20
	push_b 1
	mulI
	incI
	pushC ' '
	push_b 1
	create_array CHAR 0 1
	push_b_decI 0
	push_b_decI 2
	swap_a1 
	update_b 1 2
	pushI 0
	put_b 2
	pushI 0
.d 2 4 iiii
	jsr s16
.o 1 0 
	pop_b 1
	pushI 0
.d 1 1 i
	jmp s15
.o 1 1 i
s14
	selectoo CHAR 0 1 0 0
	jmp_neCc ' ' else.5
	incI
.d 1 1 i
	jmp s14
else.5
	jmp_neI_b 0 0 else.6
.d 1 0 
	pop_b_rtn 1
else.6
	push_arraysize_a CHAR 0 1 0
	decI
	swap_b1 
.d 1 2 ii
	jsr sliceAC
.o 1 0 
.d 1 0 
	rtn 
.o 1 1 i
s15
	selectoo CHAR 0 1 0 0
	jmp_neCc ' ' else.7
	incI
.d 1 1 i
	jmp s15
else.7
	jmp_neI_b 0 0 else.8
	push_a 0
	buildAC "-"
	update2pop_a 0 1
.d 2 0 
	pop_b_jsr 1 catAC
.o 1 0 
.d 1 0 
	rtn 
else.8
	push_arraysize_a CHAR 0 1 0
	push_b_decI 1
	push_b_decI 1
	push_b 1
	pushC '-'
	push_b 3
	update CHAR 0 1
	update2pop_b 0 3
.d 1 2 ii
	jsr sliceAC
.o 1 0 
.d 1 0 
	rtn 
.o 2 4 iiii
s16
	push_b2 0 1
	jmp_geI else.9
.d 1 0 
	pop_ab_rtn 1 4
else.9
.d 1 2 ii
	push_b_jsr 2 s18
.o 1 3 iii
	push_b 2
	pushI 0
.d 1 3 iii
	push_b_jsr 5 s7
.o 1 1 i
	selectoo INT 0 1 0 3
	push_b 3
	pushI 1
	shiftl%
	decI
	push_b 1
	and%
	pushI -3545582879861895366
	push_b 1
	mulUUL
	push_b 0
	updates2_b 5 2 1
	addLU
.d 0 3 iii
	push_b_jsr 6 s17
.o 0 2 ii
	buildI_b 0
	updates2_b 5 1 0
	addI
	push_b2 1 2
	xor%
	push_b 7
	swap_a1 
	update INT 0 1
	push2_b 7
.d 1 2 ii
	jsr s6
.o 1 1 i
	push_b2 7 0
	jmp_geI else.10
	push_ab 2 10
	push_b 2
	pushI_a 2
	updatepop_a 0 3
	update3pop_b 0 11
.d 1 3 iii
	jmp s9
else.10
	pushI 26
	push_b 11
	subI
	push_ab 2 2
	pushI_a 2
	update2pop_a 0 2
.d 1 3 iii
	jsr s12
.o 1 0 
	pushI 27
	push_b 11
	subI
	swap_a1 
	update_b 0 11
	update_b 7 10
	update_b 1 9
.d 2 4 iiii
	pop_b_jmp 8 s16
.o 1 3 iii
s9
	jmp_neI_b 0 0 else.11
	pushI 0
	push_b 2
	jmp_ltI else.11
	jmp_neI_b 0 1 else.13
.d 1 0 
	pop_b_rtn 3
else.13
.d 0 1 i
	pop_b_jsr 1 ItoAC
.o 1 0 
	push_arraysize_a CHAR 0 1 0
	decI
.d 2 2 ii
	jmp s13
else.11
.d 0 2 ii
	jsr s107
.o 0 2 ii
.d 0 1 i
	push_b_jsr 1 ItoAC
.o 1 0 
	pushI 17
	push_b 3
	subI
	swap_a1 
	push_b2 0 1
.d 1 2 ii
	jsr s11
.o 1 0 
	push_b_decI 0
	push_arraysize_a CHAR 0 1 1
	decI
	swap_a1 
	update2pop_b 0 4
s13
	pushI 0
	push_b 1
	jmp_ltI else.14
	selectoo CHAR 0 1 0 0
	push_b 2
	swap_a1 
	update CHAR 0 1
	push_b_decI 1
	push_b_decI 1
	swap_a1 
	update2pop_b 0 2
.d 2 2 ii
	jmp s13
else.14
.d 1 0 
	pop_ab_rtn 1 2
.o 1 3 iii
s12
	pushI 60
	push_b 2
	shiftrU
	pushI 4
	push_b 2
	shiftl%
	update2pop_b 0 1
	addI
	pushI 4
	push_b 2
	shiftl%
	pushI 63
	push_b 1
	shiftr%
	push_b2 0 2
	subI
	pushI 2820903858849102350
	mulUUL
	pushI -2446744073709551616
	push_b 3
	and%
	push_b 4
	addI
	push_b_incI 5
	push_b 2
	addI
	update_b 1 6
	update_b 3 5
	updatepop_b 0 4
	addLU
	put_b 1
	pushI -1000000000000000000
	push_b 1
	mulI
	push_b 2
	addI
	pushI 63
	push_b 1
	shiftr%
	push_b2 0 2
	addI
	push_b 1
	pushI 1000000000000000000
	and%
	push_b 3
	addI
	pushI 9
	push_b 7
	addI
	swap_b1 
.d 1 2 ii
	jsr s11
.o 1 0 
	updatepop_b 0 4
s10
	pushI 2882303762
	push_b 1
	mulI
	pushI 30
	put_b 2
	shiftrU
	incI
	andIio 268435455 0
	pushI 5
	swap_b1 
	mulI
	andIio 134217727 0
	pushI 5
	swap_b1 
	mulI
	andIio 67108863 0
	pushI 5
	swap_b1 
	mulI
	andIio 33554431 0
	pushI 5
	swap_b1 
	mulI
	andIio 16777215 0
	pushI 5
	swap_b1 
	mulI
	andIio 8388607 0
	pushI 5
	swap_b1 
	mulI
	andIio 4194303 0
	pushI 5
	swap_b1 
	mulI
	andIio 2097151 0
	pushI 5
	swap_b1 
	mulI
	pushI 20
	swap_b1 
	shiftrU
	pushI 48
	addI
	ItoC
	pushI 8
	push_b 10
	addI
	pushI 21
	push_b 3
	shiftrU
	pushI 48
	addI
	ItoC
	pushI 7
	push_b 12
	addI
	pushI 22
	push_b 6
	shiftrU
	pushI 48
	addI
	ItoC
	pushI 6
	push_b 14
	addI
	pushI 23
	push_b 9
	shiftrU
	pushI 48
	addI
	ItoC
	pushI 5
	push_b 16
	addI
	pushI 24
	push_b 12
	shiftrU
	pushI 48
	addI
	ItoC
	pushI 4
	push_b 18
	addI
	pushI 25
	push_b 15
	shiftrU
	pushI 48
	addI
	ItoC
	pushI 3
	push_b 20
	addI
	pushI 26
	push_b 18
	shiftrU
	pushI 48
	addI
	ItoC
	push_b_incI 21
	incI
	pushI 27
	push_b 21
	shiftrU
	pushI 48
	addI
	ItoC
	push_b_incI 23
	pushI 28
	push_b 24
	shiftrU
	pushI 48
	addI
	ItoC
	push_b 25
	update CHAR 0 1
	update CHAR 0 1
	update CHAR 0 1
	update CHAR 0 1
	update CHAR 0 1
	update CHAR 0 1
	update CHAR 0 1
	update CHAR 0 1
	update2pop_b 0 9
	update CHAR 0 1
.d 1 0 
	rtn 
.o 1 2 ii
s11
	pushI 1000000000
	push_b 1
	divI
	pushI 2882303762
	push_b 1
	mulI
	pushI 30
	swap_b1 
	shiftrU
	incI
	pushI 32
	swap_b1 
	shiftl%
	pushI 1000000000
	push_b 2
	mulI
	push_b 3
	subI
	pushI 2882303762
	swap_b1 
	mulI
	pushI 30
	swap_b1 
	shiftrU
	incI
	update2pop_b 0 2
	addI
	pushI 1152921500580315135
	push_b 1
	and%
	pushI 5
	swap_b1 
	mulI
	andIio 576460748142673919 0
	pushI 5
	swap_b1 
	mulI
	andIio 288230371923853311 0
	pushI 5
	swap_b1 
	mulI
	andIio 144115183814443007 0
	pushI 5
	swap_b1 
	mulI
	andIio 72057589759737855 0
	pushI 5
	swap_b1 
	mulI
	andIio 36028792732385279 0
	pushI 5
	swap_b1 
	mulI
	andIio 18014394218708991 0
	pushI 5
	swap_b1 
	mulI
	andIio 9007194961870847 0
	pushI 5
	swap_b1 
	mulI
	pushI 20
	push_b 1
	shiftrU
	andIi 15
	pushI 48
	addI
	ItoC
	pushI 17
	push_b 11
	addI
	pushI 52
	push_b 3
	shiftrU
	pushI 48
	addI
	ItoC
	pushI 8
	push_b 13
	addI
	pushI 21
	push_b 6
	shiftrU
	andIi 15
	pushI 48
	addI
	ItoC
	pushI 16
	push_b 15
	addI
	pushI 53
	push_b 8
	shiftrU
	pushI 48
	addI
	ItoC
	pushI 7
	push_b 17
	addI
	pushI 22
	push_b 11
	shiftrU
	andIi 15
	pushI 48
	addI
	ItoC
	pushI 15
	push_b 19
	addI
	pushI 54
	push_b 13
	shiftrU
	pushI 48
	addI
	ItoC
	pushI 6
	push_b 21
	addI
	pushI 23
	push_b 16
	shiftrU
	andIi 15
	pushI 48
	addI
	ItoC
	pushI 14
	push_b 23
	addI
	pushI 55
	push_b 18
	shiftrU
	pushI 48
	addI
	ItoC
	pushI 5
	push_b 25
	addI
	pushI 24
	push_b 21
	shiftrU
	andIi 15
	pushI 48
	addI
	ItoC
	pushI 13
	push_b 27
	addI
	pushI 56
	push_b 23
	shiftrU
	pushI 48
	addI
	ItoC
	pushI 4
	push_b 29
	addI
	pushI 25
	push_b 26
	shiftrU
	andIi 15
	pushI 48
	addI
	ItoC
	pushI 12
	push_b 31
	addI
	pushI 57
	push_b 28
	shiftrU
	pushI 48
	addI
	ItoC
	pushI 3
	push_b 33
	addI
	pushI 26
	push_b 31
	shiftrU
	andIi 15
	pushI 48
	addI
	ItoC
	pushI 11
	push_b 35
	addI
	pushI 58
	push_b 33
	shiftrU
	pushI 48
	addI
	ItoC
	push_b_incI 36
	incI
	pushI 27
	push_b 36
	shiftrU
	andIi 15
	pushI 48
	addI
	ItoC
	pushI 10
	push_b 39
	addI
	pushI 59
	push_b 38
	shiftrU
	pushI 48
	addI
	ItoC
	push_b_incI 40
	pushI 28
	push_b 41
	shiftrU
	andIi 15
	pushI 48
	addI
	ItoC
	pushI 9
	push_b 43
	addI
	pushI 60
	push_b 43
	shiftrU
	pushI 48
	addI
	ItoC
	push_b 44
	update CHAR 0 1
	update CHAR 0 1
	update CHAR 0 1
	update CHAR 0 1
	update CHAR 0 1
	update CHAR 0 1
	update CHAR 0 1
	update CHAR 0 1
	update CHAR 0 1
	update CHAR 0 1
	update CHAR 0 1
	update CHAR 0 1
	update CHAR 0 1
	update CHAR 0 1
	update CHAR 0 1
	update CHAR 0 1
	update CHAR 0 1
	update2pop_b 0 10
	update CHAR 0 1
.d 1 0 
	rtn 
.o 0 3 iii
s17
	pushI 26
	jmp_o_geI 1 else.15
	push_b 0
	pushI 26
	subI
	push_b2 0 3
	shiftl%
	push_b 2
	pushI 38
	addI
	push_b 5
	shiftrU
	push_b2 2 4
	shiftl%
	or%
	update2pop_b 0 4
.d 0 2 ii
	rtn 
else.15
	jmp_neI_b 26 0 else.16
.d 0 2 ii
	pop_b_rtn 1
else.16
	pushI 26
	push_b 1
	subI
	push_b 1
	pushI 90
	subI
	push_b 3
	shiftl%
	push_b2 1 4
	shiftrU
	or%
	push_b2 1 3
	shiftrU
	update2pop_b 0 4
.d 0 2 ii
	rtn 
.o 1 2 ii
s6
	push_b2 0 1
	jmp_ltI else.17
	selectoo INT 0 1 0 1
	jmp_neIi 0 else.17
	push_b_decI 1
.d 1 2 ii
	put_b_jmp 2 s6
else.17
.d 1 1 i
	pop_b_rtn 1
.o 1 3 iii
s7
	push_b2 2 0
	jmp_geI else.19
	updatepop_b 1 2
.d 1 1 i
	rtn 
else.19
	selectoo INT 0 1 0 0
	pushI -3545582879861895366
	pushI 63
	push_b 2
	shiftr%
	push_b2 0 4
	subI
	pushI 4389219009585806480
	mulUUL
	push2_b 3
	and%
	push_b 5
	addI
	push_b2 7 1
	addI
	update_b 1 4
	updatepop_b 0 2
	addLU
	put_b 1
	not%
	push2_b 1
	mulUUL
	push_b2 3 6
	subI
	push_b 0
	update_b 2 1
	addI
	update_b 5 1
	addLU
	push_b2 2 0
	subI
	push_b2 1 4
	and%
	push_b 3
	addI
	push_b2 1 7
	update INT 0 1
	push_b_decI 7
	update2pop_b 0 8
.d 1 3 iii
	jmp s7
.o 0 3 iii
s4
.inline addLU
	addLU
.end
.d 0 2 ii
	rtn 
.o 0 2 ii
s3
.inline mulud
	mulUUL
.end
.d 0 2 ii
	rtn 
.o 1 2 ii
s18
	pushI 38
	jmp_o_geI 1 else.20
	selectoo INT 0 1 0 1
	pushI 26
	push_b 2
	addI
	pushI -1
	shiftl%
	push_b 1
	and%
	push_b 3
	update INT 0 1
	pushI 26
	push_b 2
	addI
	push2_b 2
	shiftrU
	andIi 67108863
	update2pop_b 0 2
.d 1 3 iii
	rtn 
else.20
	jmp_neI_b 38 0 else.21
	update_b 1 0
	push_a 0
	select INT 0 1
	pushI 0
	push_b 2
	update INT 0 1
	push_b_incI 1
	pushI 38
	push_b 2
	shiftrU
	update_b 1 3
	pushI 0
	update_b 0 3
	updatepop_b 1 2
.d 1 3 iii
	rtn 
else.21
	selectoo INT 0 1 0 1
	push_b_incI 2
	push_a 0
	select INT 0 1
	pushI 38
	push_b 3
	subI
	push_b 0
	pushI -1
	shiftl%
	push_b 2
	and%
	push_b_incI 5
	pushI 0
	push_b 7
	update INT 0 1
	update INT 0 1
	push_b_incI 4
	push_b 4
	pushI 64
	subI
	push_b 3
	shiftl%
	push2_b 5
	shiftrU
	addI
	andIi 67108863
	update_b 1 6
	update_b 2 5
	updatepop_b 0 4
.d 1 3 iii
	rtn 
.o 0 2 ii
s5
.inline ushiftr
	shiftrU
.end
.d 0 1 i
	rtn 
.o 0 2 ii
s107
	pushI 60
	push_b 2
	shiftrU
	pushI 4
	push_b 2
	shiftl%
	update2pop_b 0 1
	addI
	pushI 4
	push_b 2
	shiftl%
	pushI 63
	push_b 1
	shiftr%
	push_b2 0 2
	subI
	pushI 2820903858849102350
	mulUUL
	pushI -2446744073709551616
	push_b 3
	and%
	push_b 4
	addI
	push_b_incI 5
	push_b 2
	addI
	update_b 1 6
	update_b 3 5
	updatepop_b 0 4
	addLU
	put_b 1
	pushI -1000000000000000000
	push_b 1
	mulI
	push_b 2
	addI
	pushI 63
	push_b 1
	shiftr%
	push_b2 0 2
	addI
	push_b 1
	pushI 1000000000000000000
	and%
	push_b 3
	addI
	update2pop_b 0 4
.d 0 2 ii
	rtn 
