.comp 920 000011110011000
.start _nostart_
.depend "_SystemArray" "20210613122638"
.depend "StdArray" "20210613122638"
.depend "_SystemEnum" "20210613122638"
.depend "StdEnum" "20210613122638"
.depend "StdString" "20210613122638"
.depend "StdMisc" "20210613122638"
.depend "StdReal" "20210613122638"
.depend "StdChar" "20210613122638"
.depend "StdInt" "20210613122638"
.depend "StdBool" "20210613122638"
.depend "StdClass" "20210613122638"
.depend "StdList" "20210613122638"
.depend "StdOverloaded" "20210613122638"
.depend "_SystemDynamic" "20210613122638"
.depend "Math.Random" "20210613122637"
.module m_Math.Random "Math.Random" "20210613122637"
.endinfo
.impmod _system
.implab _cycle_in_spine
.implab _type_error
.implab _hnf
.impdesc e_system_dind
.implab e_system_nind e_system_eaind
.impdesc e_system_dif
.implab e_system_nif e_system_eaif
.implab e_system_sif
.impdesc e_system_dAP
.implab e_system_nAP e_system_eaAP
.implab e_system_sAP
.impdesc ARRAY
.impdesc _Nil
.impdesc _Cons
.impdesc _Conss
.implab n_Conss ea_Conss
.impdesc _Consts
.implab n_Consts ea_Consts
.impdesc _Conssts
.implab n_Conssts ea_Conssts
.impdesc _Tuple
.impdesc d_S.1
.implab n_S.1 ea_S.1
.impdesc d_S.2
.implab n_S.2 ea_S.2
.impdesc d_S.3
.implab n_S.3 ea_S.3
.impdesc d_S.4
.implab n_S.4 ea_S.4
.impdesc d_S.5
.implab n_S.5 ea_S.5
.impdesc d_S.6
.implab n_S.6 ea_S.6
.implab _driver
.impmod _SystemArray
.impmod StdMisc
.implab e_StdMisc_sabort
.impmod StdReal
.implab e_StdReal_s+;1
.implab e_StdReal_s/;5
.implab e_StdReal_stoReal;13
.impmod StdInt
.implab e_StdInt_sbitor
.implab e_StdInt_sbitand
.implab e_StdInt_sbitxor
.implab e_StdInt_s<<
.implab e_StdInt_s>>
.implab e_StdInt_s+;6
.implab e_StdInt_s-;7
.implab e_StdInt_s*;9
.implab e_StdInt_sone;11
.implab e_StdInt_s==;16
.implab e_StdInt_s<;17
.implab e_StdInt_srem;28
.impmod StdBool
.implab e_StdBool_snot
.impmod StdList
.implab e_StdList_smap
.export e_Math.Random_sgenRandReal
.export e_Math.Random_eagenRandReal
.descexp e_Math.Random_dgenRandReal e_Math.Random_ngenRandReal e_Math.Random_lgenRandReal 1 0 "genRandReal"
.o 2 0 
e_Math.Random_lgenRandReal
	update_a 1 0
	create 
.d 2 0 
	put_a_jmp 2 e_Math.Random_eagenRandReal
.n 1 e_Math.Random_dgenRandReal e_Math.Random_eagenRandReal
.o 1 0 
e_Math.Random_ngenRandReal
	push_node _cycle_in_spine 1
.o 2 0 
e_Math.Random_eagenRandReal
	jsr_eval 0
	pushI0_pop_a1 
.o 1 1 i
e_Math.Random_sgenRandReal
.o 1 1 i
s1
	create 
.d 1 1 i
	jsr s2
.o 1 0 
	buildh e_Math.Random_d\;115;25;7.8 0
.d 3 0 
	jmp e_StdList_smap
.export e_Math.Random_d\;115;25;7.8
.desc e_Math.Random_d\;115;25;7.8 _hnf l8 1 0 "\;115;25;7.8"
.o 2 0 
l8
.d 1 0 
	pop_a_jsr 1 ea8
.o 0 1 r
	buildR_b 0
.d 1 0 
	pop_b_rtn 1
.o 1 0 
ea8
	jsr_eval 0
	pushI0_pop_a1 
.o 0 1 i
s8
	pushI 0
	push_b 1
	ltI
	notB
.d 0 2 bi
	jsr s15
.o 0 1 r
	pushR 4294967295.0
	swap_b1 
	divR
.d 0 1 r
	rtn 
.o 0 2 bi
s15
	eqB_b TRUE 0
	jmp_false case.2
	pop_b 1
	ItoR
.d 0 1 r
	rtn 
case.2
	push_b 1
	ItoR
	pushR 4294967296.0
	update2pop_b 0 2
	addR
.d 0 1 r
	rtn 
.export e_Math.Random_sgenRandInt
.export e_Math.Random_eagenRandInt
.descexp e_Math.Random_dgenRandInt e_Math.Random_ngenRandInt e_Math.Random_lgenRandInt 1 0 "genRandInt"
.o 2 0 
e_Math.Random_lgenRandInt
	update_a 1 0
	create 
.d 2 0 
	put_a_jmp 2 e_Math.Random_eagenRandInt
.n 1 e_Math.Random_dgenRandInt e_Math.Random_eagenRandInt
.o 1 0 
e_Math.Random_ngenRandInt
	push_node _cycle_in_spine 1
.o 2 0 
e_Math.Random_eagenRandInt
	jsr_eval 0
	pushI0_pop_a1 
.o 1 1 i
e_Math.Random_sgenRandInt
.o 1 1 i
s2
	pushI 0
	pushI 624
	create_array INT 0 1
.d 1 1 i
	jsr s3
.o 1 0 
	pushI 0
.d 1 1 i
	jsr s7
.o 1 0 
	pushI 0
s6
	jmp_neI_b 624 0 else.3
	pop_b 1
	pushI 0
.d 1 1 i
	jsr s7
.o 1 0 
	pushI 0
.d 2 1 i
	jmp s6
else.3
	selectoo INT 0 1 0 0
	pushI 11
	push_b_decI 0
	pushI 2147483647
	shiftr%
	push_b2 1 2
	shiftr%
	and%
	updates2_b 2 0 1
	xor%
	pushI 7
	push_b 1
	shiftl%
	andIi 2636928640
	swap_b1 
	xor%
	pushI 15
	push_b 1
	shiftl%
	andIi 4022730752
	swap_b1 
	xor%
	pushI 18
	push_b_decI 0
	pushI 2147483647
	shiftr%
	push_b2 1 2
	shiftr%
	and%
	updates2_b 0 2 1
	pop_b 1
	xor%
	push_a 0
	buildh ARRAY 1
	push_b 2
	build_u e_Math.Random_d_f0.18 1 1 e_Math.Random_n_f0.18
	buildI_b 0
	fillh _Cons 2 3
.d 1 0 
	pop_ab_rtn 1 3
.export e_Math.Random_d_f0.18
.export e_Math.Random_n_f0.18
.descn e_Math.Random_d_f0.18 e_Math.Random_n_f0.18 2 0 "_f0.18"
.nu 1 1 e_Math.Random_d_f0.18 _
.o 1 0 
e_Math.Random_n_f0.18
	push_node_u _cycle_in_spine 1 1
.o 2 1 i
ea18
.o 2 1 i
s18
	jsr_eval 0
	push_a 0
	push_array 0
	put_a 1
	incI
.d 2 1 i
	put_a_jmp 1 s6
.o 1 1 i
s7
	jmp_neI_b 624 0 else.4
.d 1 0 
	pop_b_rtn 1
else.4
	selectoo INT 0 1 0 0
	push_b_incI 1
	pushI 624
	swap_b1 
	remI
	push_a 0
	select INT 0 1
.d 0 1 i
	push_b_jsr 2 s5
.o 0 1 i
	push_a 0
	select INT 0 1
	andIio 2147483647 1
	andIio 2147483648 3
	or%
	pushI 1
	andIio 1 1
	pushI 2567483615
	swap_b1 
	mulI
	push_b_decI 1
	pushI 2147483647
	shiftr%
	push_b2 2 3
	shiftr%
	and%
	push_b 4
	xor%
	update2pop_b 0 5
	xor%
	push_b 1
	update INT 0 1
	incI
.d 1 1 i
	jmp s7
.o 0 1 i
s5
	pushI 397
	pushI 624
	subI
	jmp_o_geI 1 else.5
	pushI 397
	addI
.d 0 1 i
	rtn 
else.5
	pushI 397
	push_b 1
	addI
	pushI 624
	put_b 2
	subI
.d 0 1 i
	rtn 
.o 1 1 i
s3
	jmp_neI_b 0 0 else.6
	buildAC "initrand: seed must not be 0\n"
	put_a 1
.d 1 0 
	pop_b_jsr 1 print_string_
.o 0 0 
	halt
	push_array 0
	put_a 1
.d 1 0 
	rtn 
else.6
	andIio 4294967295 0
	put_b 1
	pushI 0
	update INT 0 1
	pushI 0
s14
	push_b_incI 0
	selectoo INT 0 1 0 1
	jmp_neI_b 624 1 else.7
.d 1 0 
	pop_b_rtn 3
else.7
	push_b 0
	pushI 69069
	mulI
	andIi 4294967295
	updates2_b 2 0 1
	update INT 0 1
.d 1 1 i
	put_b_jmp 1 s14
