.comp 920 000011110011000
.start _nostart_
.depend "StdCharList" "20210613154827"
.depend "_SystemArray" "20210613154827"
.depend "StdArray" "20210613154827"
.depend "StdEnv" "20210613154827"
.depend "_SystemEnum" "20210613154827"
.depend "StdEnum" "20210613154827"
.depend "StdTuple" "20210613154827"
.depend "StdOrdList" "20210613154827"
.depend "StdFile" "20210613154827"
.depend "StdString" "20210613154827"
.depend "StdMisc" "20210613154827"
.depend "StdFunctions" "20210613154827"
.depend "_SystemEnumStrict" "20210613154827"
.depend "_SystemStrictLists" "20210613154827"
.depend "StdStrictLists" "20210613154827"
.depend "StdReal" "20210613154827"
.depend "StdChar" "20210613154827"
.depend "StdInt" "20210613154827"
.depend "StdBool" "20210613154827"
.depend "StdClass" "20210613154827"
.depend "StdList" "20210613154827"
.depend "StdOverloaded" "20210613154827"
.depend "_SystemDynamic" "20210613154827"
.depend "tcp" "20210613154827"
.module m_tcp "tcp" "20210613154827"
.endinfo
.impmod _system
.implab _cycle_in_spine
.implab _type_error
.implab _hnf
.impdesc e_system_dind
.implab e_system_nind e_system_eaind
.impdesc e_system_dif
.implab e_system_nif e_system_eaif
.implab e_system_sif
.impdesc e_system_dAP
.implab e_system_nAP e_system_eaAP
.implab e_system_sAP
.impdesc ARRAY
.impdesc _Nil
.impdesc _Cons
.impdesc _Conss
.implab n_Conss ea_Conss
.impdesc _Consts
.implab n_Consts ea_Consts
.impdesc _Conssts
.implab n_Conssts ea_Conssts
.impdesc _Tuple
.impdesc d_S.1
.implab n_S.1 ea_S.1
.impdesc d_S.2
.implab n_S.2 ea_S.2
.impdesc d_S.3
.implab n_S.3 ea_S.3
.impdesc d_S.4
.implab n_S.4 ea_S.4
.impdesc d_S.5
.implab n_S.5 ea_S.5
.impdesc d_S.6
.implab n_S.6 ea_S.6
.implab _driver
.impmod StdString
.implab e_StdString_stoString;5
.implab e_StdString_s+++;11
.impmod StdInt
.implab e_StdInt_sbitand
.implab e_StdInt_s>>
.implab e_StdInt_s-;7
.implab e_StdInt_sone;11
.implab e_StdInt_s==;16
.impmod StdBool
.implab e_StdBool_snot
.export e_tcp_dTCP_SChannel_
.desc e_tcp_dTCP_SChannel_ _hnf _add_arg 1 0 "TCP_SChannel_"
.export e_tcp_dTCP_RChannel_
.export e_tcp_nTCP_RChannel_
.descn e_tcp_dTCP_RChannel_ e_tcp_nTCP_RChannel_ 1 0 "TCP_RChannel_"
.o 2 0 
l54
	update_a 1 0
	create 
.d 2 0 
	put_a_jmp 2 ea54
.n 1 e_tcp_dTCP_RChannel_ ea54
.o 1 0 
e_tcp_nTCP_RChannel_
	push_node _cycle_in_spine 1
.o 2 0 
ea54
	jsr_eval 0
	repl_args 2 2
	jsr_eval 1
	jsr_eval 0
	pushI_a 1
	pushI_a 0
	pop_a 2
	fill_r e_tcp_kTCP_RChannel_ 0 2 0 0 0
.d 1 0 
	pop_b_rtn 2
.export e_tcp_kTCP_RChannel_
.record e_tcp_kTCP_RChannel_ d(i,i) 0 2 "TCP_RChannel_"
.export e_tcp_dTCP_Listener_
.export e_tcp_nTCP_Listener_
.descn e_tcp_dTCP_Listener_ e_tcp_nTCP_Listener_ 1 0 "TCP_Listener_"
.o 2 0 
l56
	update_a 1 0
	create 
.d 2 0 
	put_a_jmp 2 ea56
.n 1 e_tcp_dTCP_Listener_ ea56
.o 1 0 
e_tcp_nTCP_Listener_
	push_node _cycle_in_spine 1
.o 2 0 
ea56
	jsr_eval 0
	pushI0_pop_a1 
	fill_r e_tcp_kTCP_Listener_ 0 1 0 0 0
.d 1 0 
	pop_b_rtn 1
.export e_tcp_kTCP_Listener_
.record e_tcp_kTCP_Listener_ di 0 1 "TCP_Listener_"
.export e_tcp_rBuffered_SChan
.record e_tcp_rBuffered_SChan iaii 1 3 "Buffered_SChan"
.descexp e_tcp_tBuffered_SChan e_tcp_cBuffered_SChan _hnf 4 1 "Buffered_SChan"
.n 4 e_tcp_tBuffered_SChan
.o 1 0 
e_tcp_cBuffered_SChan
	push_node _cycle_in_spine 4
	jsr_eval 3
	jsr_eval 2
	jsr_eval 1
	jsr_eval 0
	pushI_a 3
	pushI_a 2
	pushI_a 0
	updatepop_a 1 3
.impmod tcp
.impdesc e_tcp_rBuffered_SChan
	fill_r e_tcp_rBuffered_SChan 1 3 1 0 0
.d 1 0 
	pop_ab_rtn 1 3
.export e_tcp_dBuffered_SChan.bEndpointRef
.export e_tcp_nBuffered_SChan.bEndpointRef
.descs e_tcp_dBuffered_SChan.bEndpointRef e_tcp_nBuffered_SChan.bEndpointRef INT 3 0 "Buffered_SChan.bEndpointRef"
.n -3 e_tcp_dBuffered_SChan.bEndpointRef
.o 1 0 
e_tcp_nBuffered_SChan.bEndpointRef
	push_node _cycle_in_spine 1
	jsr_eval 0
	push_r_args_b 0 1 3 1 1
	pop_a 1
	fillI_b 0 0
.d 1 0 
	pop_b_rtn 1
.export e_tcp_dBuffered_SChan.bNormal
.export e_tcp_nBuffered_SChan.bNormal
.descs e_tcp_dBuffered_SChan.bNormal e_tcp_nBuffered_SChan.bNormal _ 1 0 "Buffered_SChan.bNormal"
.n -4 e_tcp_dBuffered_SChan.bNormal
.o 1 0 
e_tcp_nBuffered_SChan.bNormal
	push_node _cycle_in_spine 1
	jsr_eval 0
	repl_r_args_a 1 3 1 1
.d 1 0 
	fill_a01_pop_rtn 
.export e_tcp_dBuffered_SChan.bUnsent
.export e_tcp_nBuffered_SChan.bUnsent
.descs e_tcp_dBuffered_SChan.bUnsent e_tcp_nBuffered_SChan.bUnsent INT 4 0 "Buffered_SChan.bUnsent"
.n -3 e_tcp_dBuffered_SChan.bUnsent
.o 1 0 
e_tcp_nBuffered_SChan.bUnsent
	push_node _cycle_in_spine 1
	jsr_eval 0
	push_r_args_b 0 1 3 2 1
	pop_a 1
	fillI_b 0 0
.d 1 0 
	pop_b_rtn 1
.export e_tcp_dBuffered_SChan.bId
.export e_tcp_nBuffered_SChan.bId
.descs e_tcp_dBuffered_SChan.bId e_tcp_nBuffered_SChan.bId INT 5 0 "Buffered_SChan.bId"
.n -3 e_tcp_dBuffered_SChan.bId
.o 1 0 
e_tcp_nBuffered_SChan.bId
	push_node _cycle_in_spine 1
	jsr_eval 0
	push_r_args_b 0 1 3 3 1
	pop_a 1
	fillI_b 0 0
.d 1 0 
	pop_b_rtn 1
.export e_tcp_rBuffer
.record e_tcp_rBuffer ai 1 1 "Buffer"
.descexp e_tcp_tBuffer e_tcp_cBuffer _hnf 2 1 "Buffer"
.n 2 e_tcp_tBuffer
.o 1 0 
e_tcp_cBuffer
	push_node _cycle_in_spine 2
	jsr_eval 1
	jsr_eval 0
	pushI_a 1
	put_a 1
.impdesc e_tcp_rBuffer
	fill_r e_tcp_rBuffer 1 1 1 0 0
.d 1 0 
	pop_ab_rtn 1 1
.export e_tcp_dBuffer.bPackets
.export e_tcp_nBuffer.bPackets
.export e_tcp_eaBuffer.bPackets
.descs e_tcp_dBuffer.bPackets e_tcp_nBuffer.bPackets _ 1 0 "Buffer.bPackets"
.n -4 e_tcp_dBuffer.bPackets e_tcp_eaBuffer.bPackets
.o 1 0 
e_tcp_nBuffer.bPackets
	push_node _cycle_in_spine 1
.o 2 0 
e_tcp_eaBuffer.bPackets
	jsr_eval 0
	repl_r_args_a 1 1 1 1
.d 1 0 
	fill_a01_pop_rtn 
.export e_tcp_dBuffer.bBegin
.export e_tcp_nBuffer.bBegin
.descs e_tcp_dBuffer.bBegin e_tcp_nBuffer.bBegin INT 2 0 "Buffer.bBegin"
.n -3 e_tcp_dBuffer.bBegin
.o 1 0 
e_tcp_nBuffer.bBegin
	push_node _cycle_in_spine 1
	jsr_eval 0
	push_r_args_b 0 1 1 1 1
	pop_a 1
	fillI_b 0 0
.d 1 0 
	pop_b_rtn 1
.export e_tcp_rChannelEnv;
.record e_tcp_rChannelEnv; aaa 3 0 "ChannelEnv;"
.descexp e_tcp_tChannelEnv; e_tcp_cChannelEnv; _hnf 3 1 "ChannelEnv;"
.n 3 e_tcp_tChannelEnv;
.o 1 0 
e_tcp_cChannelEnv;
	push_node _cycle_in_spine 3
	jsr_eval 2
	jsr_eval 1
	jsr_eval 0
.impdesc e_tcp_rChannelEnv;
	fill_r e_tcp_rChannelEnv; 3 0 3 0 0
.d 1 0 
	pop_a_rtn 3
.export e_tcp_dChannelEnv;.channelEnvKind
.export e_tcp_nChannelEnv;.channelEnvKind
.export e_tcp_eaChannelEnv;.channelEnvKind
.descs e_tcp_dChannelEnv;.channelEnvKind e_tcp_nChannelEnv;.channelEnvKind _ 1 0 "ChannelEnv;.channelEnvKind"
.n -4 e_tcp_dChannelEnv;.channelEnvKind e_tcp_eaChannelEnv;.channelEnvKind
.o 1 0 
e_tcp_nChannelEnv;.channelEnvKind
	push_node _cycle_in_spine 1
.o 2 0 
e_tcp_eaChannelEnv;.channelEnvKind
	jsr_eval 0
	repl_r_args_a 3 0 1 1
.d 1 0 
	fill_a01_pop_rtn 
.export e_tcp_dChannelEnv;.channel_env_get_current_tick
.export e_tcp_nChannelEnv;.channel_env_get_current_tick
.export e_tcp_eaChannelEnv;.channel_env_get_current_tick
.descs e_tcp_dChannelEnv;.channel_env_get_current_tick e_tcp_nChannelEnv;.channel_env_get_current_tick _ 3 0 "ChannelEnv;.channel_env_get_current_tick"
.n -4 e_tcp_dChannelEnv;.channel_env_get_current_tick e_tcp_eaChannelEnv;.channel_env_get_current_tick
.o 1 0 
e_tcp_nChannelEnv;.channel_env_get_current_tick
	push_node _cycle_in_spine 1
.o 2 0 
e_tcp_eaChannelEnv;.channel_env_get_current_tick
	jsr_eval 0
	repl_r_args_a 3 0 2 1
.d 1 0 
	fill_a01_pop_rtn 
.export e_tcp_dChannelEnv;.mb_close_inet_receiver_without_id
.export e_tcp_nChannelEnv;.mb_close_inet_receiver_without_id
.export e_tcp_eaChannelEnv;.mb_close_inet_receiver_without_id
.descs e_tcp_dChannelEnv;.mb_close_inet_receiver_without_id e_tcp_nChannelEnv;.mb_close_inet_receiver_without_id _ 4 0 "ChannelEnv;.mb_close_inet_receiver_without_id"
.n -4 e_tcp_dChannelEnv;.mb_close_inet_receiver_without_id e_tcp_eaChannelEnv;.mb_close_inet_receiver_without_id
.o 1 0 
e_tcp_nChannelEnv;.mb_close_inet_receiver_without_id
	push_node _cycle_in_spine 1
.o 2 0 
e_tcp_eaChannelEnv;.mb_close_inet_receiver_without_id
	jsr_eval 0
	repl_r_args_a 3 0 3 1
.d 1 0 
	fill_a01_pop_rtn 
.export e_tcp_sTD;ChannelEnv;
.export e_tcp_eaTD;ChannelEnv;
.descexp e_tcp_dTD;ChannelEnv; e_tcp_nTD;ChannelEnv; e_tcp_lTD;ChannelEnv; 1 0 "TD;ChannelEnv;"
.o 2 0 
e_tcp_lTD;ChannelEnv;
	update_a 1 0
	create 
.d 2 0 
	put_a_jmp 2 e_tcp_eaTD;ChannelEnv;
.n 1 e_tcp_dTD;ChannelEnv; e_tcp_eaTD;ChannelEnv;
.o 1 0 
e_tcp_nTD;ChannelEnv;
	push_node _cycle_in_spine 1
.o 2 0 
e_tcp_eaTD;ChannelEnv;
.o 2 0 
e_tcp_sTD;ChannelEnv;
.o 2 0 
s35
	fillh _Nil 0 1
.d 1 0 
	pop_a_rtn 1
.export e_tcp_sTD;InetReceiverCategory
.export e_tcp_eaTD;InetReceiverCategory
.descexp e_tcp_dTD;InetReceiverCategory e_tcp_nTD;InetReceiverCategory e_tcp_lTD;InetReceiverCategory 1 0 "TD;InetReceiverCategory"
.o 2 0 
e_tcp_lTD;InetReceiverCategory
	update_a 1 0
	create 
.d 2 0 
	put_a_jmp 2 e_tcp_eaTD;InetReceiverCategory
.n 1 e_tcp_dTD;InetReceiverCategory e_tcp_eaTD;InetReceiverCategory
.o 1 0 
e_tcp_nTD;InetReceiverCategory
	push_node _cycle_in_spine 1
.o 2 0 
e_tcp_eaTD;InetReceiverCategory
.o 2 0 
e_tcp_sTD;InetReceiverCategory
.o 2 0 
s34
	fillh _Nil 0 1
.d 1 0 
	pop_a_rtn 1
.export e_tcp_sTD;IPAddress
.export e_tcp_eaTD;IPAddress
.descexp e_tcp_dTD;IPAddress e_tcp_nTD;IPAddress e_tcp_lTD;IPAddress 1 0 "TD;IPAddress"
.o 2 0 
e_tcp_lTD;IPAddress
	update_a 1 0
	create 
.d 2 0 
	put_a_jmp 2 e_tcp_eaTD;IPAddress
.n 1 e_tcp_dTD;IPAddress e_tcp_eaTD;IPAddress
.o 1 0 
e_tcp_nTD;IPAddress
	push_node _cycle_in_spine 1
.o 2 0 
e_tcp_eaTD;IPAddress
.o 2 0 
e_tcp_sTD;IPAddress
.o 2 0 
s33
	fillh _Nil 0 1
.d 1 0 
	pop_a_rtn 1
.export e_tcp_sTD;Buffer
.export e_tcp_eaTD;Buffer
.descexp e_tcp_dTD;Buffer e_tcp_nTD;Buffer e_tcp_lTD;Buffer 1 0 "TD;Buffer"
.o 2 0 
e_tcp_lTD;Buffer
	update_a 1 0
	create 
.d 2 0 
	put_a_jmp 2 e_tcp_eaTD;Buffer
.n 1 e_tcp_dTD;Buffer e_tcp_eaTD;Buffer
.o 1 0 
e_tcp_nTD;Buffer
	push_node _cycle_in_spine 1
.o 2 0 
e_tcp_eaTD;Buffer
.o 2 0 
e_tcp_sTD;Buffer
.o 2 0 
s32
	fillh _Nil 0 1
.d 1 0 
	pop_a_rtn 1
.export e_tcp_sTD;Buffered_SChan
.export e_tcp_eaTD;Buffered_SChan
.descexp e_tcp_dTD;Buffered_SChan e_tcp_nTD;Buffered_SChan e_tcp_lTD;Buffered_SChan 1 0 "TD;Buffered_SChan"
.o 2 0 
e_tcp_lTD;Buffered_SChan
	update_a 1 0
	create 
.d 2 0 
	put_a_jmp 2 e_tcp_eaTD;Buffered_SChan
.n 1 e_tcp_dTD;Buffered_SChan e_tcp_eaTD;Buffered_SChan
.o 1 0 
e_tcp_nTD;Buffered_SChan
	push_node _cycle_in_spine 1
.o 2 0 
e_tcp_eaTD;Buffered_SChan
.o 2 0 
e_tcp_sTD;Buffered_SChan
.o 2 0 
s31
	fillh _Nil 0 1
.d 1 0 
	pop_a_rtn 1
.export e_tcp_sTD;TCP_Listener_
.export e_tcp_eaTD;TCP_Listener_
.descexp e_tcp_dTD;TCP_Listener_ e_tcp_nTD;TCP_Listener_ e_tcp_lTD;TCP_Listener_ 1 0 "TD;TCP_Listener_"
.o 2 0 
e_tcp_lTD;TCP_Listener_
	update_a 1 0
	create 
.d 2 0 
	put_a_jmp 2 e_tcp_eaTD;TCP_Listener_
.n 1 e_tcp_dTD;TCP_Listener_ e_tcp_eaTD;TCP_Listener_
.o 1 0 
e_tcp_nTD;TCP_Listener_
	push_node _cycle_in_spine 1
.o 2 0 
e_tcp_eaTD;TCP_Listener_
.o 2 0 
e_tcp_sTD;TCP_Listener_
.o 2 0 
s30
	fillh _Nil 0 1
.d 1 0 
	pop_a_rtn 1
.export e_tcp_sTD;TCP_RChannel_
.export e_tcp_eaTD;TCP_RChannel_
.descexp e_tcp_dTD;TCP_RChannel_ e_tcp_nTD;TCP_RChannel_ e_tcp_lTD;TCP_RChannel_ 1 0 "TD;TCP_RChannel_"
.o 2 0 
e_tcp_lTD;TCP_RChannel_
	update_a 1 0
	create 
.d 2 0 
	put_a_jmp 2 e_tcp_eaTD;TCP_RChannel_
.n 1 e_tcp_dTD;TCP_RChannel_ e_tcp_eaTD;TCP_RChannel_
.o 1 0 
e_tcp_nTD;TCP_RChannel_
	push_node _cycle_in_spine 1
.o 2 0 
e_tcp_eaTD;TCP_RChannel_
.o 2 0 
e_tcp_sTD;TCP_RChannel_
.o 2 0 
s29
	fillh _Nil 0 1
.d 1 0 
	pop_a_rtn 1
.export e_tcp_sTD;TCP_SChannel_
.export e_tcp_eaTD;TCP_SChannel_
.descexp e_tcp_dTD;TCP_SChannel_ e_tcp_nTD;TCP_SChannel_ e_tcp_lTD;TCP_SChannel_ 1 0 "TD;TCP_SChannel_"
.o 2 0 
e_tcp_lTD;TCP_SChannel_
	update_a 1 0
	create 
.d 2 0 
	put_a_jmp 2 e_tcp_eaTD;TCP_SChannel_
.n 1 e_tcp_dTD;TCP_SChannel_ e_tcp_eaTD;TCP_SChannel_
.o 1 0 
e_tcp_nTD;TCP_SChannel_
	push_node _cycle_in_spine 1
.o 2 0 
e_tcp_eaTD;TCP_SChannel_
.o 2 0 
e_tcp_sTD;TCP_SChannel_
.o 2 0 
s28
	fillh _Nil 0 1
.d 1 0 
	pop_a_rtn 1
.export e_tcp_sTD;InetErrCode
.export e_tcp_eaTD;InetErrCode
.descexp e_tcp_dTD;InetErrCode e_tcp_nTD;InetErrCode e_tcp_lTD;InetErrCode 1 0 "TD;InetErrCode"
.o 2 0 
e_tcp_lTD;InetErrCode
	update_a 1 0
	create 
.d 2 0 
	put_a_jmp 2 e_tcp_eaTD;InetErrCode
.n 1 e_tcp_dTD;InetErrCode e_tcp_eaTD;InetErrCode
.o 1 0 
e_tcp_nTD;InetErrCode
	push_node _cycle_in_spine 1
.o 2 0 
e_tcp_eaTD;InetErrCode
.o 2 0 
e_tcp_sTD;InetErrCode
.o 2 0 
s27
	fillh _Nil 0 1
.d 1 0 
	pop_a_rtn 1
.export e_tcp_sTD;EndpointRef
.export e_tcp_eaTD;EndpointRef
.descexp e_tcp_dTD;EndpointRef e_tcp_nTD;EndpointRef e_tcp_lTD;EndpointRef 1 0 "TD;EndpointRef"
.o 2 0 
e_tcp_lTD;EndpointRef
	update_a 1 0
	create 
.d 2 0 
	put_a_jmp 2 e_tcp_eaTD;EndpointRef
.n 1 e_tcp_dTD;EndpointRef e_tcp_eaTD;EndpointRef
.o 1 0 
e_tcp_nTD;EndpointRef
	push_node _cycle_in_spine 1
.o 2 0 
e_tcp_eaTD;EndpointRef
.o 2 0 
e_tcp_sTD;EndpointRef
.o 2 0 
s26
	fillh _Nil 0 1
.d 1 0 
	pop_a_rtn 1
.export e_tcp_sTD;InetEvent
.export e_tcp_eaTD;InetEvent
.descexp e_tcp_dTD;InetEvent e_tcp_nTD;InetEvent e_tcp_lTD;InetEvent 1 0 "TD;InetEvent"
.o 2 0 
e_tcp_lTD;InetEvent
	update_a 1 0
	create 
.d 2 0 
	put_a_jmp 2 e_tcp_eaTD;InetEvent
.n 1 e_tcp_dTD;InetEvent e_tcp_eaTD;InetEvent
.o 1 0 
e_tcp_nTD;InetEvent
	push_node _cycle_in_spine 1
.o 2 0 
e_tcp_eaTD;InetEvent
.o 2 0 
e_tcp_sTD;InetEvent
.o 2 0 
s25
	fillh _Nil 0 1
.d 1 0 
	pop_a_rtn 1
.export e_tcp_stcpPossibleC
.descexp e_tcp_dtcpPossibleC e_tcp_ntcpPossibleC e_tcp_ltcpPossibleC 1 0 "tcpPossibleC"
.o 2 0 
e_tcp_ltcpPossibleC
.d 1 0 
	pop_a_jsr 1 ea24
.o 1 1 b
	push_a 0
	buildB_b 0
	buildh _Tuple 2
	put_a 1
.d 1 0 
	pop_b_rtn 1
.n 1 e_tcp_dtcpPossibleC
.o 1 0 
e_tcp_ntcpPossibleC
	push_node _cycle_in_spine 1
.d 1 0 
	jsr ea24
.o 1 1 b
	push_a 0
	buildB_b 0
	fillh _Tuple 2 3
.d 1 0 
	pop_ab_rtn 1 1
.o 1 0 
ea24
	jsr_eval 0
.o 1 0 
e_tcp_stcpPossibleC
.o 1 0 
s24
.d 1 0 
	jsr s46
.o 1 1 i
	eqI_b 0 0
	notB
	put_b 1
.d 1 1 b
	rtn 
.o 1 0 
s46
	ccall tcpPossibleC ":I:A"
.d 1 1 i
	rtn 
.export e_tcp_sselectChC
.descexp e_tcp_dselectChC e_tcp_nselectChC e_tcp_lselectChC 7 0 "selectChC"
.a 0 a23
.o 2 0 
e_tcp_lselectChC
	repl_args 6 6
.o 7 0 
a23
.d 7 0 
	jsr ea23
.o 1 1 i
	push_a 0
	buildI_b 0
	buildh _Tuple 2
	put_a 1
.d 1 0 
	pop_b_rtn 1
.n 7 e_tcp_dselectChC
.o 1 0 
e_tcp_nselectChC
	push_node _cycle_in_spine 7
.d 7 0 
	jsr ea23
.o 1 1 i
	push_a 0
	buildI_b 0
	fillh _Tuple 2 3
.d 1 0 
	pop_ab_rtn 1 1
.o 7 0 
ea23
	jsr_eval 6
	jsr_eval 5
	jsr_eval 4
	jsr_eval 3
	push_jsr_eval 2
	repl_args 2 2
	jsr_eval 1
	jsr_eval 0
	jsr_eval 3
	jsr_eval 2
	push_array 7
	push_array 7
	push_array 7
	pushI_a 4
	pushB_a 3
	pushB_a 6
	pushI_a 5
	update3pop_a 0 8
.o 4 4 ibbi
e_tcp_sselectChC
.o 4 4 ibbi
s23
	ccall selectChC "IIIIAAA:VI:A"
.d 1 1 i
	rtn 
.export e_tcp_sacceptC
.descexp e_tcp_dacceptC e_tcp_nacceptC e_tcp_lacceptC 2 0 "acceptC"
.a 0 a17
.o 2 0 
e_tcp_lacceptC
	repl_args 1 1
.o 2 0 
a17
.d 2 0 
	jsr ea17
.o 1 3 iii
	push_a 0
	buildI_b 2
	buildI_b 1
	buildI_b 0
	buildh _Tuple 3
	buildh _Tuple 2
	put_a 1
.d 1 0 
	pop_b_rtn 3
.n 2 e_tcp_dacceptC
.o 1 0 
e_tcp_nacceptC
	push_node _cycle_in_spine 2
.d 2 0 
	jsr ea17
.o 1 3 iii
	push_a 0
	buildI_b 2
	buildI_b 1
	buildI_b 0
	buildh _Tuple 3
	fillh _Tuple 2 3
.d 1 0 
	pop_ab_rtn 1 3
.o 2 0 
ea17
	jsr_eval 1
	jsr_eval 0
	pushI0_pop_a1 
.o 1 1 i
e_tcp_sacceptC
.o 1 1 i
s17
	ccall acceptC "p:VIII:A"
.d 1 3 iii
	rtn 
.o 1 1 i
s39
.inline acceptC64
	ccall acceptC "p:VIII:A"
.end
.d 1 3 iii
	rtn 
.export e_tcp_sreceiveC
.descexp e_tcp_dreceiveC e_tcp_nreceiveC e_tcp_lreceiveC 3 0 "receiveC"
.a 0 a16
.o 2 0 
e_tcp_lreceiveC
	repl_args 2 2
.o 3 0 
a16
.d 3 0 
	jsr ea16
.o 2 0 
	push2_a 1
	buildh ARRAY 1
	buildh _Tuple 2
	updatepop_a 0 2
.d 1 0 
	rtn 
.n 3 e_tcp_dreceiveC
.o 1 0 
e_tcp_nreceiveC
	push_node _cycle_in_spine 3
.d 3 0 
	jsr ea16
.o 2 0 
	push2_a 1
	buildh ARRAY 1
	fillh _Tuple 2 4
.d 1 0 
	pop_a_rtn 2
.o 3 0 
ea16
	jsr_eval 2
	jsr_eval 1
	jsr_eval 0
	pushI_a 1
	pushI_a 0
	pop_a 2
.o 1 2 ii
e_tcp_sreceiveC
.o 1 2 ii
s16
s38
	ccall receiveC "pI:VS:A"
.d 2 0 
	rtn 
.export e_tcp_ssendC
.descexp e_tcp_dsendC e_tcp_nsendC e_tcp_lsendC 5 0 "sendC"
.a 0 a15
.o 2 0 
e_tcp_lsendC
	repl_args 4 4
.o 5 0 
a15
.d 5 0 
	jsr ea15
.o 1 2 ii
	push_a 0
	buildI_b 1
	buildI_b 0
	buildh _Tuple 2
	buildh _Tuple 2
	put_a 1
.d 1 0 
	pop_b_rtn 2
.n 5 e_tcp_dsendC
.o 1 0 
e_tcp_nsendC
	push_node _cycle_in_spine 5
.d 5 0 
	jsr ea15
.o 1 2 ii
	push_a 0
	buildI_b 1
	buildI_b 0
	buildh _Tuple 2
	fillh _Tuple 2 3
.d 1 0 
	pop_ab_rtn 1 2
.o 5 0 
ea15
	jsr_eval 4
	jsr_eval 3
	jsr_eval 2
	jsr_eval 1
	jsr_eval 0
	pushI_a 3
	pushI_a 2
	push_array 1
	pushI_a 1
	updatepop_a 0 4
.o 2 3 iii
e_tcp_ssendC
.o 2 3 iii
s15
	ccall sendC "pSII:VII:A"
.d 1 2 ii
	rtn 
.o 2 3 iii
s37
.inline sendC64
	ccall sendC "pSII:VII:A"
.end
.d 1 2 ii
	rtn 
.export e_tcp_sdata_availableC
.descexp e_tcp_ddata_availableC e_tcp_ndata_availableC e_tcp_ldata_availableC 2 0 "data_availableC"
.a 0 a14
.o 2 0 
e_tcp_ldata_availableC
	repl_args 1 1
.o 2 0 
a14
.d 2 0 
	jsr ea14
.o 1 1 b
	push_a 0
	buildB_b 0
	buildh _Tuple 2
	put_a 1
.d 1 0 
	pop_b_rtn 1
.n 2 e_tcp_ddata_availableC
.o 1 0 
e_tcp_ndata_availableC
	push_node _cycle_in_spine 2
.d 2 0 
	jsr ea14
.o 1 1 b
	push_a 0
	buildB_b 0
	fillh _Tuple 2 3
.d 1 0 
	pop_ab_rtn 1 1
.o 2 0 
ea14
	jsr_eval 1
	jsr_eval 0
	pushI0_pop_a1 
.o 1 1 i
e_tcp_sdata_availableC
.o 1 1 i
s14
.d 1 1 i
	jsr s44
.o 1 1 i
	eqI_b 0 0
	notB
	put_b 1
.d 1 1 b
	rtn 
.o 1 1 i
s44
	ccall data_availableC "p:I:A"
.d 1 1 i
	rtn 
.export e_tcp_sopenTCP_ListenerC
.descexp e_tcp_dopenTCP_ListenerC e_tcp_nopenTCP_ListenerC e_tcp_lopenTCP_ListenerC 2 0 "openTCP_ListenerC"
.a 0 a13
.o 2 0 
e_tcp_lopenTCP_ListenerC
	repl_args 1 1
.o 2 0 
a13
.d 2 0 
	jsr ea13
.o 1 2 ii
	push_a 0
	buildI_b 1
	buildI_b 0
	buildh _Tuple 2
	buildh _Tuple 2
	put_a 1
.d 1 0 
	pop_b_rtn 2
.n 2 e_tcp_dopenTCP_ListenerC
.o 1 0 
e_tcp_nopenTCP_ListenerC
	push_node _cycle_in_spine 2
.d 2 0 
	jsr ea13
.o 1 2 ii
	push_a 0
	buildI_b 1
	buildI_b 0
	buildh _Tuple 2
	fillh _Tuple 2 3
.d 1 0 
	pop_ab_rtn 1 2
.o 2 0 
ea13
	jsr_eval 1
	jsr_eval 0
	pushI0_pop_a1 
.o 1 1 i
e_tcp_sopenTCP_ListenerC
.o 1 1 i
s13
	ccall openTCP_ListenerC "I:VII:A"
.d 1 2 ii
	rtn 
.o 1 1 i
s36
.inline openTCP_ListenerC64
	ccall openTCP_ListenerC "I:VII:A"
.end
.d 1 2 ii
	rtn 
.export e_tcp_sclose_tcprchan
.descexp e_tcp_dclose_tcprchan e_tcp_nclose_tcprchan e_tcp_lclose_tcprchan 2 0 "close_tcprchan"
.a 0 ea12
.o 2 0 
e_tcp_lclose_tcprchan
	repl_args 1 1
.d 2 0 
	jmp ea12
.n 2 e_tcp_dclose_tcprchan _
.o 1 0 
e_tcp_nclose_tcprchan
	push_node _cycle_in_spine 2
.d 2 0 
	jsr ea12
.o 1 0 
.d 1 0 
	fill_a01_pop_rtn 
.o 2 0 
ea12
	jsr_eval 1
	jsr_eval 0
	pushI0_pop_a1 
.o 1 1 i
e_tcp_sclose_tcprchan
.o 1 1 i
s12
.d 1 1 i
	push_b_jsr 0 s22
.o 1 4 ibbb
	push2_b 3
	buildB_b 3
	push_b 2
	buildB_b 2
	push3_b 2
	push_b2 10 3
	put_a 1
.d 2 5 iiibb
	jsr s48
.o 1 0 
.d 1 1 i
	pop_b_jmp 7 s20
.o 2 5 iiibb
s48
case.1
	jmp_neI_b 1 0 case.2
	jsr_eval 0
	pushB0_pop_a1 
.d 1 5 biibb
	put_b_jmp 1 s47
case.2
	push_b_decI 2
	pop_a 1
	push2_b 5
	update2_b 0 6
	pushB FALSE
	update_b 0 6
	updates2_b 3 5 4
.d 1 5 iibbb
	pop_b_jmp 4 s21
.o 1 5 biibb
s47
	eqB_b FALSE 0
	jmp_false case.5
	push_b_decI 2
	push2_b 5
	update_b 1 3
	pushB FALSE
	updates2_b 5 0 2
	push_b 3
	updates2_b 0 2 4
.d 1 5 iibbb
	pop_b_jsr 1 s21
.o 1 0 
	updatepop_b 0 3
.d 1 1 i
	jmp s18
case.5
	push_b_decI 2
	push2_b 5
	update_b 1 3
	pushB FALSE
	updates2_b 5 0 2
	push_b 3
	updates2_b 0 2 4
.d 1 5 iibbb
	pop_b_jsr 1 s21
.o 1 0 
	updatepop_b 0 3
.d 1 1 i
	jmp s19
.export e_tcp_sdisconnectGracefulC
.descexp e_tcp_ddisconnectGracefulC e_tcp_ndisconnectGracefulC e_tcp_ldisconnectGracefulC 2 0 "disconnectGracefulC"
.a 0 ea18
.o 2 0 
e_tcp_ldisconnectGracefulC
	repl_args 1 1
.d 2 0 
	jmp ea18
.n 2 e_tcp_ddisconnectGracefulC _
.o 1 0 
e_tcp_ndisconnectGracefulC
	push_node _cycle_in_spine 2
.d 2 0 
	jsr ea18
.o 1 0 
.d 1 0 
	fill_a01_pop_rtn 
.o 2 0 
ea18
	jsr_eval 1
	jsr_eval 0
	pushI0_pop_a1 
.o 1 1 i
e_tcp_sdisconnectGracefulC
.o 1 1 i
s18
	ccall disconnectGracefulC "p:V:A"
.d 1 0 
	rtn 
.o 1 1 i
s40
.inline disconnectGracefulC64
	ccall disconnectGracefulC "p:V:A"
.end
.d 1 0 
	rtn 
.export e_tcp_sdisconnectBrutalC
.descexp e_tcp_ddisconnectBrutalC e_tcp_ndisconnectBrutalC e_tcp_ldisconnectBrutalC 2 0 "disconnectBrutalC"
.a 0 ea19
.o 2 0 
e_tcp_ldisconnectBrutalC
	repl_args 1 1
.d 2 0 
	jmp ea19
.n 2 e_tcp_ddisconnectBrutalC _
.o 1 0 
e_tcp_ndisconnectBrutalC
	push_node _cycle_in_spine 2
.d 2 0 
	jsr ea19
.o 1 0 
.d 1 0 
	fill_a01_pop_rtn 
.o 2 0 
ea19
	jsr_eval 1
	jsr_eval 0
	pushI0_pop_a1 
.o 1 1 i
e_tcp_sdisconnectBrutalC
.o 1 1 i
s19
	ccall disconnectBrutalC "p:V:A"
.d 1 0 
	rtn 
.o 1 1 i
s41
.inline disconnectBrutalC64
	ccall disconnectBrutalC "p:V:A"
.end
.d 1 0 
	rtn 
.export e_tcp_sgetEndpointDataC
.descexp e_tcp_dgetEndpointDataC e_tcp_ngetEndpointDataC e_tcp_lgetEndpointDataC 2 0 "getEndpointDataC"
.a 0 a22
.o 2 0 
e_tcp_lgetEndpointDataC
	repl_args 1 1
.o 2 0 
a22
.d 2 0 
	jsr ea22
.o 1 4 ibbb
	push_a 0
	buildB_b 3
	buildB_b 2
	buildB_b 1
	buildI_b 0
	buildh _Tuple 4
	buildh _Tuple 2
	put_a 1
.d 1 0 
	pop_b_rtn 4
.n 2 e_tcp_dgetEndpointDataC
.o 1 0 
e_tcp_ngetEndpointDataC
	push_node _cycle_in_spine 2
.d 2 0 
	jsr ea22
.o 1 4 ibbb
	push_a 0
	buildB_b 3
	buildB_b 2
	buildB_b 1
	buildI_b 0
	buildh _Tuple 4
	fillh _Tuple 2 3
.d 1 0 
	pop_ab_rtn 1 4
.o 2 0 
ea22
	jsr_eval 1
	jsr_eval 0
	pushI0_pop_a1 
.o 1 1 i
e_tcp_sgetEndpointDataC
.o 1 1 i
s22
.d 1 1 i
	jsr s45
.o 1 4 iiii
	push3_b 3
	push_b 3
	eqI_b 0 3
	notB
	eqI_b 0 3
	notB
	eqI_b 0 3
	notB
	update3_b 0 8
	updatepop_b 3 7
.d 1 4 ibbb
	rtn 
.o 1 1 i
s45
	ccall getEndpointDataC "p:VIIII:A"
.d 1 4 iiii
	rtn 
.export e_tcp_sclose_listener
.descexp e_tcp_dclose_listener e_tcp_nclose_listener e_tcp_lclose_listener 2 0 "close_listener"
.a 0 ea11
.o 2 0 
e_tcp_lclose_listener
	repl_args 1 1
.d 2 0 
	jmp ea11
.n 2 e_tcp_dclose_listener _
.o 1 0 
e_tcp_nclose_listener
	push_node _cycle_in_spine 2
.d 2 0 
	jsr ea11
.o 1 0 
.d 1 0 
	fill_a01_pop_rtn 
.o 2 0 
ea11
	jsr_eval 1
	jsr_eval 0
	pushI0_pop_a1 
.o 1 1 i
e_tcp_sclose_listener
.o 1 1 i
s11
	pushB TRUE
	pushB FALSE
	pushB FALSE
	pushI 0
.d 1 5 iibbb
	push_b_jsr 4 s21
.o 1 0 
.d 1 1 i
	jmp s20
.export e_tcp_sgarbageCollectEndpointC
.descexp e_tcp_dgarbageCollectEndpointC e_tcp_ngarbageCollectEndpointC e_tcp_lgarbageCollectEndpointC 2 0 "garbageCollectEndpointC"
.a 0 ea20
.o 2 0 
e_tcp_lgarbageCollectEndpointC
	repl_args 1 1
.d 2 0 
	jmp ea20
.n 2 e_tcp_dgarbageCollectEndpointC _
.o 1 0 
e_tcp_ngarbageCollectEndpointC
	push_node _cycle_in_spine 2
.d 2 0 
	jsr ea20
.o 1 0 
.d 1 0 
	fill_a01_pop_rtn 
.o 2 0 
ea20
	jsr_eval 1
	jsr_eval 0
	pushI0_pop_a1 
.o 1 1 i
e_tcp_sgarbageCollectEndpointC
.o 1 1 i
s20
	ccall garbageCollectEndpointC "p:V:A"
.d 1 0 
	rtn 
.o 1 1 i
s42
.inline garbageCollectEndpointC64
	ccall garbageCollectEndpointC "p:V:A"
.end
.d 1 0 
	rtn 
.export e_tcp_ssetEndpointData_no_new_notifiersC
.descexp e_tcp_dsetEndpointData_no_new_notifiersC e_tcp_nsetEndpointData_no_new_notifiersC e_tcp_lsetEndpointData_no_new_notifiersC 6 0 "setEndpointData_no_new_notifiersC"
.a 0 ea21
.o 2 0 
e_tcp_lsetEndpointData_no_new_notifiersC
	repl_args 5 5
.d 6 0 
	jmp ea21
.n 6 e_tcp_dsetEndpointData_no_new_notifiersC _
.o 1 0 
e_tcp_nsetEndpointData_no_new_notifiersC
	push_node _cycle_in_spine 6
.d 6 0 
	jsr ea21
.o 1 0 
.d 1 0 
	fill_a01_pop_rtn 
.o 6 0 
ea21
	jsr_eval 5
	jsr_eval 4
	jsr_eval 3
	jsr_eval 2
	jsr_eval 1
	jsr_eval 0
	pushB_a 4
	pushB_a 3
	pushB_a 2
	pushI_a 1
	pushI_a 0
	pop_a 5
.o 1 5 iibbb
e_tcp_ssetEndpointData_no_new_notifiersC
.o 1 5 iibbb
s21
	ccall setEndpointData_no_new_notifiersC "pIIII:V:A"
.d 1 0 
	rtn 
.o 1 5 iibbb
s43
.inline setEndpointData_no_new_notifiersC64
	ccall setEndpointData_no_new_notifiersC "pIIII:V:A"
.end
.d 1 0 
	rtn 
.export e_tcp_slookupHost_syncC
.descexp e_tcp_dlookupHost_syncC e_tcp_nlookupHost_syncC e_tcp_llookupHost_syncC 2 0 "lookupHost_syncC"
.a 0 a10
.o 2 0 
e_tcp_llookupHost_syncC
	repl_args 1 1
.o 2 0 
a10
.d 2 0 
	jsr ea10
.o 1 2 ii
	push_a 0
	buildI_b 1
	buildI_b 0
	buildh _Tuple 2
	buildh _Tuple 2
	put_a 1
.d 1 0 
	pop_b_rtn 2
.n 2 e_tcp_dlookupHost_syncC
.o 1 0 
e_tcp_nlookupHost_syncC
	push_node _cycle_in_spine 2
.d 2 0 
	jsr ea10
.o 1 2 ii
	push_a 0
	buildI_b 1
	buildI_b 0
	buildh _Tuple 2
	fillh _Tuple 2 3
.d 1 0 
	pop_ab_rtn 1 2
.o 2 0 
ea10
	jsr_eval 1
	jsr_eval 0
	push_array 0
	put_a 1
.o 2 0 
e_tcp_slookupHost_syncC
.o 2 0 
s10
	ccall lookupHost_syncC "S:VII:A"
.d 1 2 ii
	rtn 
.export e_tcp_stoDottedDecimal
.descexp e_tcp_dtoDottedDecimal e_tcp_ntoDottedDecimal e_tcp_ltoDottedDecimal 1 0 "toDottedDecimal"
.o 2 0 
e_tcp_ltoDottedDecimal
.d 1 0 
	pop_a_jsr 1 ea9
.o 1 0 
	buildh ARRAY 1
.d 1 0 
	rtn 
.n 1 e_tcp_dtoDottedDecimal
.o 1 0 
e_tcp_ntoDottedDecimal
	push_node _cycle_in_spine 1
.d 1 0 
	jsr ea9
.o 1 0 
	fillh ARRAY 1 1
.d 1 0 
	rtn 
.o 1 0 
ea9
	jsr_eval 0
	pushI0_pop_a1 
.o 0 1 i
e_tcp_stoDottedDecimal
.o 0 1 i
s9
	andIio 255 0
.d 0 1 i
	jsr ItoAC
.o 1 0 
	buildAC "."
.d 2 0 
	jsr catAC
.o 1 0 
	pushI 8
	push_b 1
	shiftr%
	andIi 255
.d 0 1 i
	jsr ItoAC
.o 1 0 
.d 2 0 
	jsr catAC
.o 1 0 
	buildAC "."
.d 2 0 
	jsr catAC
.o 1 0 
	pushI 16
	push_b 1
	shiftr%
	andIi 255
.d 0 1 i
	jsr ItoAC
.o 1 0 
.d 2 0 
	jsr catAC
.o 1 0 
	buildAC "."
.d 2 0 
	jsr catAC
.o 1 0 
	pushI 24
	push_b 1
	shiftr%
	andIi 255
	put_b 1
.d 0 1 i
	jsr ItoAC
.o 1 0 
.d 2 0 
	jsr catAC
.o 1 0 
.d 1 0 
	rtn 
.export e_tcp_sunpack_ipaddr
.descexp e_tcp_dunpack_ipaddr e_tcp_nunpack_ipaddr e_tcp_lunpack_ipaddr 1 0 "unpack_ipaddr"
.o 2 0 
e_tcp_lunpack_ipaddr
.d 1 0 
	pop_a_jsr 1 ea8
.o 0 1 i
	buildI_b 0
.d 1 0 
	pop_b_rtn 1
.n 1 e_tcp_dunpack_ipaddr
.o 1 0 
e_tcp_nunpack_ipaddr
	push_node _cycle_in_spine 1
.d 1 0 
	jsr ea8
.o 0 1 i
	fillI_b 0 0
.d 1 0 
	pop_b_rtn 1
.o 1 0 
e_tcp_sunpack_ipaddr
	pushI0_pop_a1 
.d 0 1 i
	jmp s8
.o 1 0 
ea8
	jsr_eval 0
	pushI0_pop_a1 
.o 0 1 i
s8
.d 0 1 i
	rtn 
.export e_tcp_sunpack_tcprchan
.descexp e_tcp_dunpack_tcprchan e_tcp_nunpack_tcprchan e_tcp_lunpack_tcprchan 1 0 "unpack_tcprchan"
.o 2 0 
e_tcp_lunpack_tcprchan
.d 1 0 
	pop_a_jsr 1 ea7
.o 0 2 ii
	buildI_b 1
	buildI_b 0
	buildh _Tuple 2
.d 1 0 
	pop_b_rtn 2
.n 1 e_tcp_dunpack_tcprchan
.o 1 0 
e_tcp_nunpack_tcprchan
	push_node _cycle_in_spine 1
.d 1 0 
	jsr ea7
.o 0 2 ii
	buildI_b 1
	buildI_b 0
	fillh _Tuple 2 2
.d 1 0 
	pop_b_rtn 2
.o 1 0 
ea7
	jsr_eval 0
.o 1 0 
e_tcp_sunpack_tcprchan
.o 1 0 
s7
	repl_r_args 0 2
.d 0 2 ii
	rtn 
.export e_tcp_sunpack_tcpschan
.descexp e_tcp_dunpack_tcpschan e_tcp_nunpack_tcpschan e_tcp_lunpack_tcpschan 1 0 "unpack_tcpschan"
.o 2 0 
e_tcp_lunpack_tcpschan
.d 1 0 
	pop_a_jsr 1 ea6
.o 1 3 iii
	buildhr e_tcp_rBuffered_SChan 1 3
.d 1 0 
	rtn 
.n 1 e_tcp_dunpack_tcpschan
.o 1 0 
e_tcp_nunpack_tcpschan
	push_node _cycle_in_spine 1
.d 1 0 
	jsr ea6
.o 1 3 iii
	fill_r e_tcp_rBuffered_SChan 1 3 1 0 0
.d 1 0 
	pop_ab_rtn 1 3
.o 1 0 
ea6
	jsr_eval 0
.o 1 0 
e_tcp_sunpack_tcpschan
.o 1 0 
s6
	repl_args 1 1
	jsr_eval 0
	repl_r_args 1 3
.d 1 3 iii
	rtn 
.export e_tcp_sunpack_tcplistener
.descexp e_tcp_dunpack_tcplistener e_tcp_nunpack_tcplistener e_tcp_lunpack_tcplistener 1 0 "unpack_tcplistener"
.o 2 0 
e_tcp_lunpack_tcplistener
.d 1 0 
	pop_a_jsr 1 ea5
.o 0 1 i
	buildI_b 0
.d 1 0 
	pop_b_rtn 1
.n 1 e_tcp_dunpack_tcplistener
.o 1 0 
e_tcp_nunpack_tcplistener
	push_node _cycle_in_spine 1
.d 1 0 
	jsr ea5
.o 0 1 i
	fillI_b 0 0
.d 1 0 
	pop_b_rtn 1
.o 1 0 
ea5
	jsr_eval 0
.o 1 0 
e_tcp_sunpack_tcplistener
.o 1 0 
s5
	repl_r_args 0 1
.d 0 1 i
	rtn 
.export e_tcp_spack_ipaddr
.export e_tcp_eapack_ipaddr
.descexp e_tcp_dpack_ipaddr e_tcp_npack_ipaddr e_tcp_lpack_ipaddr 1 0 "pack_ipaddr"
.o 2 0 
e_tcp_lpack_ipaddr
.d 1 0 
	pop_a_jsr 1 ea4
.o 0 1 i
	buildI_b 0
.d 1 0 
	pop_b_rtn 1
.n 1 e_tcp_dpack_ipaddr e_tcp_eapack_ipaddr
.o 1 0 
e_tcp_npack_ipaddr
	push_node _cycle_in_spine 1
.o 1 0 
m.6
.d 1 0 
	jsr ea4
.o 0 1 i
	fillI_b 0 0
.d 1 0 
	pop_b_rtn 1
.o 2 0 
e_tcp_eapack_ipaddr
.d 1 0 
	jmp m.6
.o 1 1 i
e_tcp_spack_ipaddr
.d 0 1 i
	jsr s4
.o 0 1 i
	fillI_b 0 0
.d 1 0 
	pop_b_rtn 1
.o 1 0 
ea4
	jsr_eval 0
	pushI0_pop_a1 
.o 0 1 i
s4
.d 0 1 i
	rtn 
.export e_tcp_spack_tcprchan
.export e_tcp_eapack_tcprchan
.descexp e_tcp_dpack_tcprchan e_tcp_npack_tcprchan e_tcp_lpack_tcprchan 1 0 "pack_tcprchan"
.o 2 0 
e_tcp_lpack_tcprchan
	update_a 1 0
	create 
.d 2 0 
	put_a_jmp 2 e_tcp_eapack_tcprchan
.n 1 e_tcp_dpack_tcprchan e_tcp_eapack_tcprchan
.o 1 0 
e_tcp_npack_tcprchan
	push_node _cycle_in_spine 1
.o 2 0 
e_tcp_eapack_tcprchan
	jsr_eval 0
	repl_args 2 2
	jsr_eval 1
	jsr_eval 0
	pushI_a 1
	pushI_a 0
	pop_a 2
.o 1 2 ii
e_tcp_spack_tcprchan
.o 1 2 ii
s3
	push2_b 1
	fill_r e_tcp_kTCP_RChannel_ 0 2 0 0 0
.d 1 0 
	pop_b_rtn 4
.export e_tcp_spack_tcpschan
.export e_tcp_eapack_tcpschan
.descexp e_tcp_dpack_tcpschan e_tcp_npack_tcpschan e_tcp_lpack_tcpschan 1 0 "pack_tcpschan"
.o 2 0 
e_tcp_lpack_tcpschan
	update_a 1 0
	create 
.d 2 0 
	put_a_jmp 2 e_tcp_eapack_tcpschan
.n 1 e_tcp_dpack_tcpschan e_tcp_eapack_tcpschan
.o 1 0 
e_tcp_npack_tcpschan
	push_node _cycle_in_spine 1
.o 2 0 
e_tcp_eapack_tcpschan
	jsr_eval 0
	repl_r_args 1 3
.o 2 3 iii
e_tcp_spack_tcpschan
.o 2 3 iii
s2
	build_r e_tcp_rBuffered_SChan 1 3 0 0
	fillh e_tcp_dTCP_SChannel_ 1 2
.d 1 0 
	pop_ab_rtn 1 3
.export e_tcp_spack_tcplistener
.export e_tcp_eapack_tcplistener
.descexp e_tcp_dpack_tcplistener e_tcp_npack_tcplistener e_tcp_lpack_tcplistener 1 0 "pack_tcplistener"
.o 2 0 
e_tcp_lpack_tcplistener
	update_a 1 0
	create 
.d 2 0 
	put_a_jmp 2 e_tcp_eapack_tcplistener
.n 1 e_tcp_dpack_tcplistener e_tcp_eapack_tcplistener
.o 1 0 
e_tcp_npack_tcplistener
	push_node _cycle_in_spine 1
.o 2 0 
e_tcp_eapack_tcplistener
	jsr_eval 0
	pushI0_pop_a1 
.o 1 1 i
e_tcp_spack_tcplistener
.o 1 1 i
s1
	push_b 0
	fill_r e_tcp_kTCP_Listener_ 0 1 0 0 0
.d 1 0 
	pop_b_rtn 2
