.comp 920 000011110011000
.start _nostart_
.depend "StdCharList" "20210609153507"
.depend "_SystemArray" "20210609153507"
.depend "StdArray" "20210609153507"
.depend "StdEnv" "20210609153507"
.depend "_SystemEnum" "20210609153507"
.depend "StdEnum" "20210609153507"
.depend "StdTuple" "20210609153507"
.depend "StdOrdList" "20210609153507"
.depend "Data.GenDefault" "20210609153506"
.depend "Data.Integer" "20210609153506"
.depend "StdFile" "20210609153507"
.depend "StdMisc" "20210609153507"
.depend "Data.GenLexOrd" "20210609153506"
.depend "StdFunctions" "20210609153507"
.depend "StdString" "20210609153507"
.depend "_SystemEnumStrict" "20210609153507"
.depend "_SystemStrictLists" "20210609153507"
.depend "StdStrictLists" "20210609153507"
.depend "StdGeneric" "20210609153507"
.depend "Data.GenEq" "20210609153506"
.depend "StdReal" "20210609153507"
.depend "StdChar" "20210609153507"
.depend "StdInt" "20210609153507"
.depend "StdBool" "20210609153507"
.depend "StdClass" "20210609153507"
.depend "StdList" "20210609153507"
.depend "StdOverloaded" "20210609153507"
.depend "_SystemDynamic" "20210609153507"
.depend "Data.Integer.ToString" "20210609153506"
.module m_Data.Integer.ToString "Data.Integer.ToString" "20210609153506"
.endinfo
.impmod _system
.implab _cycle_in_spine
.implab _type_error
.implab _hnf
.impdesc e_system_dind
.implab e_system_nind e_system_eaind
.impdesc e_system_dif
.implab e_system_nif e_system_eaif
.implab e_system_sif
.impdesc e_system_dAP
.implab e_system_nAP e_system_eaAP
.implab e_system_sAP
.impdesc ARRAY
.impdesc _Nil
.impdesc _Cons
.impdesc _Conss
.implab n_Conss ea_Conss
.impdesc _Consts
.implab n_Consts ea_Consts
.impdesc _Conssts
.implab n_Conssts ea_Conssts
.impdesc _Tuple
.impdesc d_S.1
.implab n_S.1 ea_S.1
.impdesc d_S.2
.implab n_S.2 ea_S.2
.impdesc d_S.3
.implab n_S.3 ea_S.3
.impdesc d_S.4
.implab n_S.4 ea_S.4
.impdesc d_S.5
.implab n_S.5 ea_S.5
.impdesc d_S.6
.implab n_S.6 ea_S.6
.implab _driver
.impmod _SystemArray
.impmod StdString
.implab e_StdString_stoString;5
.implab e_StdString_s%;10
.implab e_StdString_s+++;11
.impmod StdChar
.implab e_StdChar_s==;18
.implab e_StdChar_stoChar;21
.impmod StdInt
.implab e_StdInt_sbitor
.implab e_StdInt_sbitand
.implab e_StdInt_sbitxor
.implab e_StdInt_s<<
.implab e_StdInt_s>>
.implab e_StdInt_sbitnot
.implab e_StdInt_s+;6
.implab e_StdInt_s-;7
.implab e_StdInt_s*;9
.implab e_StdInt_s/;10
.implab e_StdInt_sone;11
.implab e_StdInt_s==;16
.implab e_StdInt_s<;17
.impmod StdBool
.implab e_StdBool_snot
.impmod Data.Integer
.impdesc e_Data.Integer_rInteger
.export e_Data.Integer.ToString_su_integer_to_string
.descexp e_Data.Integer.ToString_du_integer_to_string e_Data.Integer.ToString_nu_integer_to_string e_Data.Integer.ToString_lu_integer_to_string 1 0 "u_integer_to_string"
.o 2 0
e_Data.Integer.ToString_lu_integer_to_string
	pop_a 1
.d 1 0
	jsr ea2
.o 1 0
	buildh ARRAY 1
.d 1 0
	rtn
.n 1 e_Data.Integer.ToString_du_integer_to_string
.o 1 0
e_Data.Integer.ToString_nu_integer_to_string
	push_node _cycle_in_spine 1
.d 1 0
	jsr ea2
.o 1 0
	fillh ARRAY 1 1
.d 1 0
	rtn
.o 1 0
ea2
	jsr_eval 0
	repl_r_args 1 1
.o 1 1 i
e_Data.Integer.ToString_su_integer_to_string
.o 1 1 i
s2
	push_a 0
	push_arraysize INT 0 1
	pushI 0
	push_b 1
	update_b 1 2
	update_b 0 1
	pop_b 1
	eqI
	jmp_false else.1
	push_b 0
	updatepop_b 0 1
	pop_a 1
.d 0 1 i
	jsr ItoAC
.o 1 0
.d 1 0
	rtn
else.1
	push_a 0
	push_b 0
	updatepop_a 0 1
	updatepop_b 0 1
.d 1 1 i
	jmp s20
.export e_Data.Integer.ToString_sinteger_to_string
.descexp e_Data.Integer.ToString_dinteger_to_string e_Data.Integer.ToString_ninteger_to_string e_Data.Integer.ToString_linteger_to_string 1 0 "integer_to_string"
.o 2 0
e_Data.Integer.ToString_linteger_to_string
	pop_a 1
.d 1 0
	jsr ea1
.o 1 0
	buildh ARRAY 1
.d 1 0
	rtn
.n 1 e_Data.Integer.ToString_dinteger_to_string
.o 1 0
e_Data.Integer.ToString_ninteger_to_string
	push_node _cycle_in_spine 1
.d 1 0
	jsr ea1
.o 1 0
	fillh ARRAY 1 1
.d 1 0
	rtn
.o 1 0
ea1
	jsr_eval 0
	repl_r_args 1 1
.o 1 1 i
e_Data.Integer.ToString_sinteger_to_string
.o 1 1 i
s1
	push_a 0
	push_arraysize INT 0 1
	pushI 0
	push_b 1
	update_b 1 2
	update_b 0 1
	pop_b 1
	eqI
	jmp_false else.2
	push_b 0
	updatepop_b 0 1
	pop_a 1
.d 0 1 i
	jsr ItoAC
.o 1 0
.d 1 0
	rtn
else.2
	push_a 0
	updatepop_a 0 1
	push_a 0
	push_arraysize INT 0 1
	pushI 1
	push_b 1
	update_b 1 2
	updatepop_b 0 1
	subI
	pushI 1
	push_b 1
	addI
	create_array_ INT 0 1
	push_a 1
	push_b 0
	pushI 0
	push_a 1
	update_a 1 2
	update_a 0 1
	pop_a 1
	update_b 1 2
	updatepop_b 0 1
	update_a 1 2
	updatepop_a 0 1
.d 2 2 ii
	jsr s37
.o 1 0
	push_b 0
	updatepop_b 0 1
.d 1 1 i
	jmp s20
.o 2 2 ii
s37
	push_b 0
	push_b 2
	ltI
	notB
	jmp_false else.3
	push_b 0
	push_a 1
	update_a 1 2
	updatepop_a 0 1
	push_a 0
	select INT 0 1
	pushI 1
	push_b 2
	addI
	push_b 1
	push_b 3
	push_a 1
	update_a 1 2
	updatepop_a 0 1
	update INT 0 1
	push_a 1
	push_b 3
	push_a 1
	update_a 1 2
	update_a 0 1
	pop_a 1
	push_b 1
	update_b 1 2
	update_b 0 1
	pop_b 1
	update_a 1 2
	updatepop_a 0 1
	update_b 1 4
	updatepop_b 0 3
.d 2 2 ii
	jmp s37
else.3
	updatepop_a 0 1
	pop_b 2
.d 1 0
	rtn
.o 1 1 i
s20
	pushI 0
	push_b 1
	ltI
	notB
	jmp_false else.4
	push_a 0
	pop_b 1
	updatepop_a 0 1
	push_a 0
	push_arraysize INT 0 1
	pushI 20
	push_b 1
	mulI
	pushC ' '
	push_b 1
	create_array CHAR 0 1
	pushI 1
	push_b 1
	subI
	pushI 1
	push_b 3
	subI
	push_a 1
	pushI 0
	pushI 0
	push_b 2
	update_b 2 3
	update_b 0 2
	pop_b 1
	update_b 3 4
	update_b 2 3
	update_b 1 2
	updatepop_b 0 1
	update_a 1 2
	updatepop_a 0 1
.d 2 4 iiii
	jsr s31
.o 1 0
	pushI 0
	updatepop_b 0 1
.d 1 1 i
	jmp s27
else.4
	push_a 0
	pop_b 1
	updatepop_a 0 1
	push_a 0
	push_arraysize INT 0 1
	pushI 20
	push_b 1
	mulI
	pushI 1
	push_b 1
	update_b 1 2
	update_b 0 1
	pop_b 1
	addI
	pushC ' '
	push_b 1
	create_array CHAR 0 1
	pushI 1
	push_b 1
	subI
	pushI 1
	push_b 3
	subI
	push_a 1
	pushI 0
	pushI 0
	push_b 2
	update_b 2 3
	update_b 0 2
	pop_b 1
	update_b 3 4
	update_b 2 3
	update_b 1 2
	updatepop_b 0 1
	update_a 1 2
	updatepop_a 0 1
.d 2 4 iiii
	jsr s31
.o 1 0
	pushI 0
	updatepop_b 0 1
.d 1 1 i
	jmp s28
.o 1 1 i
s28
	push_b 0
	push_a 0
	select CHAR 0 1
	pushC ' '
	push_b 1
	update_b 1 2
	update_b 0 1
	pop_b 1
	eqC
	jmp_false else.5
	pushI 1
	push_b 1
	addI
	push_a 0
	updatepop_a 0 1
	updatepop_b 0 1
.d 1 1 i
	jmp s28
else.5
	pushI 0
	push_b 1
	eqI
	jmp_false else.6
	push_a 0
	buildAC "-"
	update_a 1 2
	updatepop_a 0 1
	pop_b 1
.d 2 0
	jsr catAC
.o 1 0
.d 1 0
	rtn
else.6
	push_a 0
	updatepop_a 0 1
	push_a 0
	push_arraysize CHAR 0 1
	pushI 1
	push_b 2
	subI
	pushI 1
	push_b 2
	subI
	push_b 1
	pushC '-'
	push_b 3
	push_a 0
	updatepop_a 0 1
	update CHAR 0 1
	update_b 1 4
	updatepop_b 0 3
.d 1 2 ii
	jsr sliceAC
.o 1 0
.d 1 0
	rtn
.o 1 1 i
s27
	push_b 0
	push_a 0
	select CHAR 0 1
	pushC ' '
	push_b 1
	update_b 1 2
	update_b 0 1
	pop_b 1
	eqC
	jmp_false else.7
	pushI 1
	push_b 1
	addI
	push_a 0
	updatepop_a 0 1
	updatepop_b 0 1
.d 1 1 i
	jmp s27
else.7
	pushI 0
	push_b 1
	eqI
	jmp_false else.8
	pop_b 1
.d 1 0
	rtn
else.8
	push_a 0
	push_arraysize CHAR 0 1
	pushI 1
	push_b 1
	update_b 1 2
	update_b 0 1
	pop_b 1
	subI
	push_b 1
	push_a 0
	updatepop_a 0 1
	update_b 1 2
	updatepop_b 0 1
.d 1 2 ii
	jsr sliceAC
.o 1 0
.d 1 0
	rtn
.o 2 4 iiii
s31
	push_b 0
	push_b 2
	ltI
	jmp_false else.9
	pop_a 1
	pop_b 4
.d 1 0
	rtn
else.9
	push_a 0
	push_b 0
	push_b 3
	update_b 1 2
	updatepop_b 0 1
	updatepop_a 0 1
.d 1 2 ii
	jsr s33
.o 1 3 iii
	push_a 0
	push_b 2
	pushI 0
	push_b 5
	updatepop_a 0 1
.d 1 3 iii
	jsr s19
.o 1 1 i
	push_b 3
	push_a 0
	updatepop_a 0 1
	push_a 0
	select INT 0 1
	push_b 3
	pushI 1
	shiftl%
	pushI 1
	push_b 1
	update_b 1 2
	update_b 0 1
	pop_b 1
	subI
	push_b 1
	and%
	pushI -3545582879861895366
	push_b 1
	mulUUL
	push_b 4
	push_b 2
	push_b 2
	update_b 2 4
	update_b 1 3
	updatepop_b 0 2
	addLU
	push_b 1
	push_b 1
	push_b 8
	update_b 2 4
	update_b 1 3
	updatepop_b 0 2
.d 0 3 iii
	jsr s32
.o 0 2 ii
	buildI_b 0
	push_b 5
	push_b 2
	update_b 1 3
	updatepop_b 0 2
	addI
	push_b 1
	push_b 3
	xor%
	push_b 7
	push_a 1
	update_a 1 2
	updatepop_a 0 1
	update INT 0 1
	push_b 7
	push_b 7
.d 1 2 ii
	jsr s16
.o 1 1 i
	push_b 7
	push_b 1
	ltI
	jmp_false else.10
	push_a 2
	push_b 10
	push_b 2
	pushI_a 2
	updatepop_a 0 3
	update_b 2 13
	update_b 1 12
	updatepop_b 0 11
.d 1 3 iii
	jmp s21
else.10
	pushI 26
	push_b 11
	subI
	push_a 2
	push_b 2
	pushI_a 2
	update_a 1 3
	updatepop_a 0 2
.d 1 3 iii
	jsr s25
.o 1 0
	pushI 27
	push_b 11
	subI
	push_a 1
	push_b 7
	push_b 2
	push_b 10
	update_a 1 2
	updatepop_a 0 1
	update_b 3 14
	update_b 2 13
	update_b 1 12
	updatepop_b 0 11
.d 2 4 iiii
	jmp s31
.o 1 3 iii
s25
	pushI 60
	push_b 2
	shiftrU
	pushI 4
	push_b 2
	shiftl%
	update_b 1 2
	updatepop_b 0 1
	addI
	pushI 4
	push_b 2
	shiftl%
	pushI 63
	push_b 1
	shiftr%
	push_b 0
	push_b 3
	subI
	pushI 2820903858849102350
	mulUUL
	pushI -2446744073709551616
	push_b 3
	and%
	push_b 4
	addI
	pushI 1
	push_b 6
	addI
	push_b 2
	addI
	push_b 3
	push_b 1
	update_b 1 2
	update_b 0 1
	pop_b 1
	update_b 2 7
	update_b 1 6
	updatepop_b 0 5
	addLU
	update_b 0 1
	pop_b 1
	pushI -1000000000000000000
	push_b 1
	mulI
	push_b 2
	addI
	pushI 63
	push_b 1
	shiftr%
	push_b 0
	push_b 3
	addI
	push_b 1
	pushI 1000000000000000000
	and%
	push_b 3
	addI
	pushI 9
	push_b 7
	addI
	push_a 0
	push_b 1
	update_b 1 2
	updatepop_b 0 1
	updatepop_a 0 1
.d 1 2 ii
	jsr s23
.o 1 0
	push_b 5
	push_b 1
	update_b 1 7
	updatepop_b 0 6
.d 1 2 ii
	jmp s22
.o 1 3 iii
s21
	pushI 0
	push_b 1
	eqI
	jmp_false else.11
	pushI 0
	push_b 2
	ltI
	notB
	jmp_false else.11
	pushI 0
	push_b 2
	eqI
	jmp_false else.13
	pop_b 3
.d 1 0
	rtn
else.13
	push_b 1
	updatepop_b 0 2
.d 0 1 i
	jsr ItoAC
.o 1 0
	push_a 0
	push_arraysize CHAR 0 1
	pushI 1
	push_b 1
	update_b 1 2
	update_b 0 1
	pop_b 1
	subI
	push_a 1
	push_b 1
	push_a 1
	push_b 1
	update_b 1 2
	update_b 0 1
	pop_b 1
	update_a 1 3
	updatepop_a 0 2
	update_b 1 2
	updatepop_b 0 1
.d 2 2 ii
	jmp s26
else.11
	push_b 1
	push_b 1
	update_b 1 3
	updatepop_b 0 2
.d 0 2 ii
	jsr s126
.o 0 2 ii
	push_b 1
.d 0 1 i
	jsr ItoAC
.o 1 0
	pushI 17
	push_b 3
	subI
	push_a 1
	push_b 0
	push_b 2
	update_a 1 2
	updatepop_a 0 1
.d 1 2 ii
	jsr s23
.o 1 0
	pushI 1
	push_b 1
	subI
	push_a 1
	push_arraysize CHAR 0 1
	pushI 1
	push_b 1
	update_b 1 2
	update_b 0 1
	pop_b 1
	subI
	push_a 1
	update_a 1 2
	updatepop_a 0 1
	update_b 1 5
	updatepop_b 0 4
.d 2 2 ii
	jmp s26
.o 1 2 ii
s23
	pushI 1000000000
	push_b 1
	divI
	pushI 2882303762
	push_b 1
	mulI
	pushI 30
	push_b 1
	update_b 1 2
	update_b 0 1
	pop_b 1
	shiftrU
	pushI 1
	addI
	pushI 32
	push_b 1
	update_b 1 2
	update_b 0 1
	pop_b 1
	shiftl%
	pushI 1000000000
	push_b 2
	mulI
	push_b 3
	subI
	pushI 2882303762
	push_b 1
	update_b 1 2
	update_b 0 1
	pop_b 1
	mulI
	pushI 30
	push_b 1
	update_b 1 2
	update_b 0 1
	pop_b 1
	shiftrU
	pushI 1
	addI
	update_b 1 3
	updatepop_b 0 2
	addI
	pushI 1152921500580315135
	push_b 1
	and%
	pushI 5
	push_b 1
	update_b 1 2
	update_b 0 1
	pop_b 1
	mulI
	pushI 576460748142673919
	push_b 1
	and%
	pushI 5
	push_b 1
	update_b 1 2
	update_b 0 1
	pop_b 1
	mulI
	pushI 288230371923853311
	push_b 1
	and%
	pushI 5
	push_b 1
	update_b 1 2
	update_b 0 1
	pop_b 1
	mulI
	pushI 144115183814443007
	push_b 1
	and%
	pushI 5
	push_b 1
	update_b 1 2
	update_b 0 1
	pop_b 1
	mulI
	pushI 72057589759737855
	push_b 1
	and%
	pushI 5
	push_b 1
	update_b 1 2
	update_b 0 1
	pop_b 1
	mulI
	pushI 36028792732385279
	push_b 1
	and%
	pushI 5
	push_b 1
	update_b 1 2
	update_b 0 1
	pop_b 1
	mulI
	pushI 18014394218708991
	push_b 1
	and%
	pushI 5
	push_b 1
	update_b 1 2
	update_b 0 1
	pop_b 1
	mulI
	pushI 9007194961870847
	push_b 1
	and%
	pushI 5
	push_b 1
	update_b 1 2
	update_b 0 1
	pop_b 1
	mulI
	pushI 20
	push_b 1
	shiftrU
	pushI 15
	push_b 1
	update_b 1 2
	update_b 0 1
	pop_b 1
	and%
	pushI 48
	push_b 1
	update_b 1 2
	update_b 0 1
	pop_b 1
	addI
	ItoC
	pushI 17
	push_b 11
	addI
	pushI 52
	push_b 3
	shiftrU
	pushI 48
	push_b 1
	update_b 1 2
	update_b 0 1
	pop_b 1
	addI
	ItoC
	pushI 8
	push_b 13
	addI
	pushI 21
	push_b 6
	shiftrU
	pushI 15
	push_b 1
	update_b 1 2
	update_b 0 1
	pop_b 1
	and%
	pushI 48
	push_b 1
	update_b 1 2
	update_b 0 1
	pop_b 1
	addI
	ItoC
	pushI 16
	push_b 15
	addI
	pushI 53
	push_b 8
	shiftrU
	pushI 48
	push_b 1
	update_b 1 2
	update_b 0 1
	pop_b 1
	addI
	ItoC
	pushI 7
	push_b 17
	addI
	pushI 22
	push_b 11
	shiftrU
	pushI 15
	push_b 1
	update_b 1 2
	update_b 0 1
	pop_b 1
	and%
	pushI 48
	push_b 1
	update_b 1 2
	update_b 0 1
	pop_b 1
	addI
	ItoC
	pushI 15
	push_b 19
	addI
	pushI 54
	push_b 13
	shiftrU
	pushI 48
	push_b 1
	update_b 1 2
	update_b 0 1
	pop_b 1
	addI
	ItoC
	pushI 6
	push_b 21
	addI
	pushI 23
	push_b 16
	shiftrU
	pushI 15
	push_b 1
	update_b 1 2
	update_b 0 1
	pop_b 1
	and%
	pushI 48
	push_b 1
	update_b 1 2
	update_b 0 1
	pop_b 1
	addI
	ItoC
	pushI 14
	push_b 23
	addI
	pushI 55
	push_b 18
	shiftrU
	pushI 48
	push_b 1
	update_b 1 2
	update_b 0 1
	pop_b 1
	addI
	ItoC
	pushI 5
	push_b 25
	addI
	pushI 24
	push_b 21
	shiftrU
	pushI 15
	push_b 1
	update_b 1 2
	update_b 0 1
	pop_b 1
	and%
	pushI 48
	push_b 1
	update_b 1 2
	update_b 0 1
	pop_b 1
	addI
	ItoC
	pushI 13
	push_b 27
	addI
	pushI 56
	push_b 23
	shiftrU
	pushI 48
	push_b 1
	update_b 1 2
	update_b 0 1
	pop_b 1
	addI
	ItoC
	pushI 4
	push_b 29
	addI
	pushI 25
	push_b 26
	shiftrU
	pushI 15
	push_b 1
	update_b 1 2
	update_b 0 1
	pop_b 1
	and%
	pushI 48
	push_b 1
	update_b 1 2
	update_b 0 1
	pop_b 1
	addI
	ItoC
	pushI 12
	push_b 31
	addI
	pushI 57
	push_b 28
	shiftrU
	pushI 48
	push_b 1
	update_b 1 2
	update_b 0 1
	pop_b 1
	addI
	ItoC
	pushI 3
	push_b 33
	addI
	pushI 26
	push_b 31
	shiftrU
	pushI 15
	push_b 1
	update_b 1 2
	update_b 0 1
	pop_b 1
	and%
	pushI 48
	push_b 1
	update_b 1 2
	update_b 0 1
	pop_b 1
	addI
	ItoC
	pushI 11
	push_b 35
	addI
	pushI 58
	push_b 33
	shiftrU
	pushI 48
	push_b 1
	update_b 1 2
	update_b 0 1
	pop_b 1
	addI
	ItoC
	pushI 2
	push_b 37
	addI
	pushI 27
	push_b 36
	shiftrU
	pushI 15
	push_b 1
	update_b 1 2
	update_b 0 1
	pop_b 1
	and%
	pushI 48
	push_b 1
	update_b 1 2
	update_b 0 1
	pop_b 1
	addI
	ItoC
	pushI 10
	push_b 39
	addI
	pushI 59
	push_b 38
	shiftrU
	pushI 48
	push_b 1
	update_b 1 2
	update_b 0 1
	pop_b 1
	addI
	ItoC
	pushI 1
	push_b 41
	addI
	pushI 28
	push_b 41
	shiftrU
	pushI 15
	push_b 1
	update_b 1 2
	update_b 0 1
	pop_b 1
	and%
	pushI 48
	push_b 1
	update_b 1 2
	update_b 0 1
	pop_b 1
	addI
	ItoC
	pushI 9
	push_b 43
	addI
	pushI 60
	push_b 43
	shiftrU
	pushI 48
	push_b 1
	update_b 1 2
	update_b 0 1
	pop_b 1
	addI
	ItoC
	push_b 44
	push_a 0
	updatepop_a 0 1
	update CHAR 0 1
	update CHAR 0 1
	update CHAR 0 1
	update CHAR 0 1
	update CHAR 0 1
	update CHAR 0 1
	update CHAR 0 1
	update CHAR 0 1
	update CHAR 0 1
	update CHAR 0 1
	update CHAR 0 1
	update CHAR 0 1
	update CHAR 0 1
	update CHAR 0 1
	update CHAR 0 1
	update CHAR 0 1
	update CHAR 0 1
	update_b 1 11
	updatepop_b 0 10
	update CHAR 0 1
.d 1 0
	rtn
.o 1 2 ii
s22
	pushI 2882303762
	push_b 1
	mulI
	pushI 30
	push_b 1
	update_b 1 2
	update_b 0 1
	pop_b 1
	update_b 1 2
	updatepop_b 0 1
	shiftrU
	pushI 1
	addI
	pushI 268435455
	push_b 1
	and%
	pushI 5
	push_b 1
	update_b 1 2
	update_b 0 1
	pop_b 1
	mulI
	pushI 134217727
	push_b 1
	and%
	pushI 5
	push_b 1
	update_b 1 2
	update_b 0 1
	pop_b 1
	mulI
	pushI 67108863
	push_b 1
	and%
	pushI 5
	push_b 1
	update_b 1 2
	update_b 0 1
	pop_b 1
	mulI
	pushI 33554431
	push_b 1
	and%
	pushI 5
	push_b 1
	update_b 1 2
	update_b 0 1
	pop_b 1
	mulI
	pushI 16777215
	push_b 1
	and%
	pushI 5
	push_b 1
	update_b 1 2
	update_b 0 1
	pop_b 1
	mulI
	pushI 8388607
	push_b 1
	and%
	pushI 5
	push_b 1
	update_b 1 2
	update_b 0 1
	pop_b 1
	mulI
	pushI 4194303
	push_b 1
	and%
	pushI 5
	push_b 1
	update_b 1 2
	update_b 0 1
	pop_b 1
	mulI
	pushI 2097151
	push_b 1
	and%
	pushI 5
	push_b 1
	update_b 1 2
	update_b 0 1
	pop_b 1
	mulI
	pushI 20
	push_b 1
	update_b 1 2
	update_b 0 1
	pop_b 1
	shiftrU
	pushI 48
	push_b 1
	update_b 1 2
	update_b 0 1
	pop_b 1
	addI
	ItoC
	pushI 8
	push_b 10
	addI
	pushI 21
	push_b 3
	shiftrU
	pushI 48
	push_b 1
	update_b 1 2
	update_b 0 1
	pop_b 1
	addI
	ItoC
	pushI 7
	push_b 12
	addI
	pushI 22
	push_b 6
	shiftrU
	pushI 48
	push_b 1
	update_b 1 2
	update_b 0 1
	pop_b 1
	addI
	ItoC
	pushI 6
	push_b 14
	addI
	pushI 23
	push_b 9
	shiftrU
	pushI 48
	push_b 1
	update_b 1 2
	update_b 0 1
	pop_b 1
	addI
	ItoC
	pushI 5
	push_b 16
	addI
	pushI 24
	push_b 12
	shiftrU
	pushI 48
	push_b 1
	update_b 1 2
	update_b 0 1
	pop_b 1
	addI
	ItoC
	pushI 4
	push_b 18
	addI
	pushI 25
	push_b 15
	shiftrU
	pushI 48
	push_b 1
	update_b 1 2
	update_b 0 1
	pop_b 1
	addI
	ItoC
	pushI 3
	push_b 20
	addI
	pushI 26
	push_b 18
	shiftrU
	pushI 48
	push_b 1
	update_b 1 2
	update_b 0 1
	pop_b 1
	addI
	ItoC
	pushI 2
	push_b 22
	addI
	pushI 27
	push_b 21
	shiftrU
	pushI 48
	push_b 1
	update_b 1 2
	update_b 0 1
	pop_b 1
	addI
	ItoC
	pushI 1
	push_b 24
	addI
	pushI 28
	push_b 24
	shiftrU
	pushI 48
	push_b 1
	update_b 1 2
	update_b 0 1
	pop_b 1
	addI
	ItoC
	push_b 25
	push_a 0
	updatepop_a 0 1
	update CHAR 0 1
	update CHAR 0 1
	update CHAR 0 1
	update CHAR 0 1
	update CHAR 0 1
	update CHAR 0 1
	update CHAR 0 1
	update CHAR 0 1
	update_b 1 10
	updatepop_b 0 9
	update CHAR 0 1
.d 1 0
	rtn
.o 2 2 ii
s26
	pushI 0
	push_b 1
	ltI
	notB
	jmp_false else.14
	push_b 0
	push_a 0
	select CHAR 0 1
	push_b 2
	push_a 1
	update_a 1 2
	updatepop_a 0 1
	update CHAR 0 1
	pushI 1
	push_b 2
	subI
	pushI 1
	push_b 2
	subI
	push_a 1
	update_a 1 2
	updatepop_a 0 1
	update_b 1 3
	updatepop_b 0 2
.d 2 2 ii
	jmp s26
else.14
	pop_a 1
	pop_b 2
.d 1 0
	rtn
.o 0 3 iii
s32
	pushI 26
	push_b 1
	ltI
	jmp_false else.15
	push_b 0
	pushI 26
	subI
	push_b 0
	push_b 4
	shiftl%
	push_b 2
	pushI 38
	addI
	push_b 5
	shiftrU
	push_b 2
	push_b 5
	shiftl%
	or%
	update_b 1 5
	updatepop_b 0 4
.d 0 2 ii
	rtn
else.15
	pushI 26
	push_b 1
	eqI
	jmp_false else.16
	push_b 2
	push_b 2
	update_b 1 4
	updatepop_b 0 3
.d 0 2 ii
	rtn
else.16
	pushI 26
	push_b 1
	subI
	push_b 1
	pushI 90
	subI
	push_b 3
	shiftl%
	push_b 1
	push_b 5
	shiftrU
	or%
	push_b 1
	push_b 4
	shiftrU
	update_b 1 5
	updatepop_b 0 4
.d 0 2 ii
	rtn
.o 1 2 ii
s16
	push_b 0
	push_b 2
	ltI
	notB
	jmp_false else.17
	push_b 1
	push_a 0
	select INT 0 1
	pushI 0
	push_b 1
	update_b 1 2
	update_b 0 1
	pop_b 1
	eqI
	jmp_false else.17
	pushI 1
	push_b 2
	subI
	push_a 0
	push_b 1
	updatepop_a 0 1
	update_b 1 3
	updatepop_b 0 2
.d 1 2 ii
	jmp s16
else.17
	push_a 0
	push_b 1
	updatepop_a 0 1
	updatepop_b 0 2
.d 1 1 i
	rtn
.o 1 3 iii
s19
	push_b 2
	push_b 1
	ltI
	jmp_false else.19
	push_a 0
	push_b 1
	updatepop_a 0 1
	updatepop_b 0 3
.d 1 1 i
	rtn
else.19
	push_b 0
	push_a 0
	select INT 0 1
	pushI -3545582879861895366
	pushI 63
	push_b 2
	shiftr%
	push_b 0
	push_b 5
	subI
	pushI 4389219009585806480
	mulUUL
	push_b 3
	push_b 3
	and%
	push_b 5
	addI
	push_b 7
	push_b 2
	addI
	push_b 3
	push_b 1
	update_b 1 2
	update_b 0 1
	pop_b 1
	update_b 2 5
	update_b 1 4
	updatepop_b 0 3
	addLU
	update_b 0 1
	pop_b 1
	not%
	push_b 1
	push_b 1
	mulUUL
	push_b 3
	push_b 7
	subI
	push_b 1
	push_b 1
	update_b 1 2
	update_b 0 1
	pop_b 1
	addI
	push_b 2
	push_b 6
	push_b 2
	update_b 2 3
	update_b 1 2
	update_b 0 1
	pop_b 1
	update_b 2 4
	update_b 1 3
	updatepop_b 0 2
	addLU
	push_b 2
	push_b 1
	subI
	push_b 1
	push_b 5
	and%
	push_b 3
	addI
	push_b 1
	push_b 8
	push_a 0
	updatepop_a 0 1
	update INT 0 1
	pushI 1
	push_b 8
	subI
	push_b 10
	push_b 2
	push_b 2
	update_b 2 3
	update_b 1 2
	update_b 0 1
	pop_b 1
	update_b 2 12
	update_b 1 11
	updatepop_b 0 10
.d 1 3 iii
	jmp s19
.o 0 2 ii
s4
.inline mulud
	mulUUL
.end
.d 0 2 ii
	rtn
.o 0 3 iii
s5
.inline addLU
	addLU
.end
.d 0 2 ii
	rtn
.o 1 2 ii
s33
	pushI 38
	push_b 1
	ltI
	jmp_false else.20
	push_b 1
	push_a 0
	updatepop_a 0 1
	push_a 0
	select INT 0 1
	pushI 26
	push_b 2
	addI
	pushI -1
	shiftl%
	push_b 1
	and%
	push_b 3
	push_a 0
	updatepop_a 0 1
	update INT 0 1
	pushI 26
	push_b 2
	addI
	push_b 2
	push_b 2
	shiftrU
	pushI 67108863
	push_b 1
	update_b 1 2
	update_b 0 1
	pop_b 1
	and%
	push_b 4
	push_b 2
	update_b 1 3
	update_b 2 1
	update_b 0 2
	pop_b 1
	update_b 2 5
	update_b 1 4
	updatepop_b 0 3
.d 1 3 iii
	rtn
else.20
	pushI 38
	push_b 1
	eqI
	jmp_false else.21
	push_b 1
	push_a 0
	updatepop_b 0 1
	updatepop_a 0 1
	push_a 0
	select INT 0 1
	pushI 0
	push_b 2
	push_a 0
	updatepop_a 0 1
	update INT 0 1
	pushI 1
	push_b 2
	addI
	pushI 38
	push_b 2
	shiftrU
	pushI 0
	push_b 1
	update_b 1 2
	update_b 0 1
	pop_b 1
	update_b 2 4
	update_b 1 3
	updatepop_b 0 2
.d 1 3 iii
	rtn
else.21
	push_b 1
	push_a 0
	updatepop_a 0 1
	push_a 0
	select INT 0 1
	pushI 1
	push_b 3
	addI
	push_a 0
	updatepop_a 0 1
	push_a 0
	select INT 0 1
	pushI 38
	push_b 3
	subI
	push_b 0
	pushI -1
	shiftl%
	push_b 2
	and%
	pushI 1
	push_b 6
	addI
	pushI 0
	push_b 7
	push_a 0
	updatepop_a 0 1
	update INT 0 1
	update INT 0 1
	pushI 1
	push_b 5
	addI
	push_b 4
	pushI 64
	subI
	push_b 3
	shiftl%
	push_b 5
	push_b 5
	shiftrU
	addI
	pushI 67108863
	push_b 1
	update_b 1 2
	update_b 0 1
	pop_b 1
	and%
	push_b 2
	push_b 1
	update_b 1 2
	update_b 0 1
	pop_b 1
	update_b 2 7
	update_b 1 6
	updatepop_b 0 5
.d 1 3 iii
	rtn
.o 0 2 ii
s6
.inline ushiftr
	shiftrU
.end
.d 0 1 i
	rtn
.o 0 2 ii
s126
	pushI 60
	push_b 2
	shiftrU
	pushI 4
	push_b 2
	shiftl%
	update_b 1 2
	updatepop_b 0 1
	addI
	pushI 4
	push_b 2
	shiftl%
	pushI 63
	push_b 1
	shiftr%
	push_b 0
	push_b 3
	subI
	pushI 2820903858849102350
	mulUUL
	pushI -2446744073709551616
	push_b 3
	and%
	push_b 4
	addI
	pushI 1
	push_b 6
	addI
	push_b 2
	addI
	push_b 3
	push_b 1
	update_b 1 2
	update_b 0 1
	pop_b 1
	update_b 2 7
	update_b 1 6
	updatepop_b 0 5
	addLU
	update_b 0 1
	pop_b 1
	pushI -1000000000000000000
	push_b 1
	mulI
	push_b 2
	addI
	pushI 63
	push_b 1
	shiftr%
	push_b 0
	push_b 3
	addI
	push_b 1
	pushI 1000000000000000000
	and%
	push_b 3
	addI
	update_b 1 5
	updatepop_b 0 4
.d 0 2 ii
	rtn
