.comp 920 000011110011000
.start _nostart_
.depend "_SystemEnumStrict" "20210613144732"
.depend "_SystemStrictLists" "20210613144732"
.depend "StdStrictLists" "20210613144732"
.depend "StdGeneric" "20210613144732"
.depend "StdBool" "20210613144732"
.depend "StdClass" "20210613144732"
.depend "StdOverloaded" "20210613144732"
.depend "_SystemDynamic" "20210613144732"
.depend "Control.GenBimap" "20210613144732"
.module m_Control.GenBimap "Control.GenBimap" "20210613144732"
.endinfo
.impmod _system
.implab _cycle_in_spine
.implab _type_error
.implab _hnf
.impdesc e_system_dind
.implab e_system_nind e_system_eaind
.impdesc e_system_dif
.implab e_system_nif e_system_eaif
.implab e_system_sif
.impdesc e_system_dAP
.implab e_system_nAP e_system_eaAP
.implab e_system_sAP
.impdesc ARRAY
.impdesc _Nil
.impdesc _Cons
.impdesc _Conss
.implab n_Conss ea_Conss
.impdesc _Consts
.implab n_Consts ea_Consts
.impdesc _Conssts
.implab n_Conssts ea_Conssts
.impdesc _Tuple
.impdesc d_S.1
.implab n_S.1 ea_S.1
.impdesc d_S.2
.implab n_S.2 ea_S.2
.impdesc d_S.3
.implab n_S.3 ea_S.3
.impdesc d_S.4
.implab n_S.4 ea_S.4
.impdesc d_S.5
.implab n_S.5 ea_S.5
.impdesc d_S.6
.implab n_S.6 ea_S.6
.implab _driver
.export e_Control.GenBimap_sbimap__Tuple8;13
.descexp e_Control.GenBimap_dbimap__Tuple8;13 e_Control.GenBimap_nbimap__Tuple8;13 e_Control.GenBimap_lbimap__Tuple8;13 17 0 "bimap__Tuple8;13"
.o 18 0
e_Control.GenBimap_ibimap__Tuple8;13
	pop_a 1
	jsr_eval 16
	push_args 16 8 8
	update_a 7 24
	update_a 14 7
	update_a 21 14
	update_a 4 21
	update_a 11 4
	update_a 18 11
	update_a 1 18
	update_a 8 1
	update_a 15 8
	update_a 22 15
	update_a 5 22
	update_a 12 5
	update_a 19 12
	update_a 2 19
	update_a 9 2
	update_a 16 9
	update_a 23 16
	update_a 6 23
	update_a 13 6
	update_a 20 13
	update_a 3 20
	update_a 10 3
	update_a 17 10
	update_a 0 17
	pop_a 1
.d 24 0
	jsr s14
.o 8 0
	push_a 7
	push_a 7
	push_a 7
	push_a 7
	push_a 7
	push_a 7
	push_a 7
	push_a 7
	buildh _Tuple 8
	updatepop_a 0 8
.d 1 0
	rtn
.ai 0 a14 e_Control.GenBimap_ibimap__Tuple8;13
.o 2 0
e_Control.GenBimap_lbimap__Tuple8;13
	repl_args 16 16
.o 17 0
a14
.d 17 0
	jsr ea14
.o 8 0
	push_a 7
	push_a 7
	push_a 7
	push_a 7
	push_a 7
	push_a 7
	push_a 7
	push_a 7
	buildh _Tuple 8
	updatepop_a 0 8
.d 1 0
	rtn
.n 17 e_Control.GenBimap_dbimap__Tuple8;13
.o 1 0
e_Control.GenBimap_nbimap__Tuple8;13
	push_node _cycle_in_spine 17
.d 17 0
	jsr ea14
.o 8 0
	push_a 7
	push_a 7
	push_a 7
	push_a 7
	push_a 7
	push_a 7
	push_a 7
	push_a 7
	fillh _Tuple 8 16
	pop_a 8
.d 1 0
	rtn
.o 17 0
e_Control.GenBimap_sbimap__Tuple8;13
.o 17 0
ea14
	push_a 16
	jsr_eval 0
	repl_args 8 8
	update_a 7 24
	update_a 14 7
	update_a 21 14
	update_a 4 21
	update_a 11 4
	update_a 18 11
	update_a 1 18
	update_a 8 1
	update_a 15 8
	update_a 22 15
	update_a 5 22
	update_a 12 5
	update_a 19 12
	update_a 2 19
	update_a 9 2
	update_a 16 9
	update_a 23 16
	update_a 6 23
	update_a 13 6
	update_a 20 13
	update_a 3 20
	update_a 10 3
	update_a 17 10
	update_a 0 17
	pop_a 1
.o 24 0
s14
	push_a 23
	push_a 15
	build e_system_dAP 2 e_system_nAP
	push_a 23
	push_a 14
	build e_system_dAP 2 e_system_nAP
	push_a 23
	push_a 13
	build e_system_dAP 2 e_system_nAP
	push_a 23
	push_a 12
	build e_system_dAP 2 e_system_nAP
	push_a 23
	push_a 11
	build e_system_dAP 2 e_system_nAP
	push_a 23
	push_a 10
	build e_system_dAP 2 e_system_nAP
	push_a 23
	push_a 9
	build e_system_dAP 2 e_system_nAP
	push_a 23
	push_a 8
	build e_system_dAP 2 e_system_nAP
	update_a 7 31
	update_a 6 30
	update_a 5 29
	update_a 4 28
	update_a 3 27
	update_a 2 26
	update_a 1 25
	updatepop_a 0 24
.d 8 0
	rtn
.export e_Control.GenBimap_sbimap__Tuple7;12
.descexp e_Control.GenBimap_dbimap__Tuple7;12 e_Control.GenBimap_nbimap__Tuple7;12 e_Control.GenBimap_lbimap__Tuple7;12 15 0 "bimap__Tuple7;12"
.o 16 0
e_Control.GenBimap_ibimap__Tuple7;12
	pop_a 1
	jsr_eval 14
	push_args 14 7 7
	update_a 6 21
	update_a 12 6
	update_a 18 12
	update_a 3 18
	update_a 9 3
	update_a 15 9
	update_a 0 15
	push_a 20
	update_a 6 21
	update_a 12 6
	update_a 18 12
	update_a 3 18
	update_a 9 3
	update_a 15 9
	update_a 0 15
	update_a 20 0
	update_a 5 20
	update_a 11 5
	update_a 17 11
	update_a 2 17
	update_a 8 2
	update_a 14 8
	update_a 0 14
	pop_a 2
.d 21 0
	jsr s13
.o 7 0
	push_a 6
	push_a 6
	push_a 6
	push_a 6
	push_a 6
	push_a 6
	push_a 6
	buildh _Tuple 7
	updatepop_a 0 7
.d 1 0
	rtn
.ai 0 a13 e_Control.GenBimap_ibimap__Tuple7;12
.o 2 0
e_Control.GenBimap_lbimap__Tuple7;12
	repl_args 14 14
.o 15 0
a13
.d 15 0
	jsr ea13
.o 7 0
	push_a 6
	push_a 6
	push_a 6
	push_a 6
	push_a 6
	push_a 6
	push_a 6
	buildh _Tuple 7
	updatepop_a 0 7
.d 1 0
	rtn
.n 15 e_Control.GenBimap_dbimap__Tuple7;12
.o 1 0
e_Control.GenBimap_nbimap__Tuple7;12
	push_node _cycle_in_spine 15
.d 15 0
	jsr ea13
.o 7 0
	push_a 6
	push_a 6
	push_a 6
	push_a 6
	push_a 6
	push_a 6
	push_a 6
	fillh _Tuple 7 14
	pop_a 7
.d 1 0
	rtn
.o 15 0
e_Control.GenBimap_sbimap__Tuple7;12
.o 15 0
ea13
	push_a 14
	jsr_eval 0
	repl_args 7 7
	update_a 6 21
	update_a 12 6
	update_a 18 12
	update_a 3 18
	update_a 9 3
	update_a 15 9
	update_a 0 15
	push_a 20
	update_a 6 21
	update_a 12 6
	update_a 18 12
	update_a 3 18
	update_a 9 3
	update_a 15 9
	update_a 0 15
	update_a 20 0
	update_a 5 20
	update_a 11 5
	update_a 17 11
	update_a 2 17
	update_a 8 2
	update_a 14 8
	update_a 0 14
	pop_a 2
.o 21 0
s13
	push_a 20
	push_a 13
	build e_system_dAP 2 e_system_nAP
	push_a 20
	push_a 12
	build e_system_dAP 2 e_system_nAP
	push_a 20
	push_a 11
	build e_system_dAP 2 e_system_nAP
	push_a 20
	push_a 10
	build e_system_dAP 2 e_system_nAP
	push_a 20
	push_a 9
	build e_system_dAP 2 e_system_nAP
	push_a 20
	push_a 8
	build e_system_dAP 2 e_system_nAP
	push_a 20
	push_a 7
	build e_system_dAP 2 e_system_nAP
	update_a 6 27
	update_a 5 26
	update_a 4 25
	update_a 3 24
	update_a 2 23
	update_a 1 22
	updatepop_a 0 21
.d 7 0
	rtn
.export e_Control.GenBimap_sbimap__Tuple6;11
.descexp e_Control.GenBimap_dbimap__Tuple6;11 e_Control.GenBimap_nbimap__Tuple6;11 e_Control.GenBimap_lbimap__Tuple6;11 13 0 "bimap__Tuple6;11"
.o 14 0
e_Control.GenBimap_ibimap__Tuple6;11
	pop_a 1
	jsr_eval 12
	push_args 12 6 6
	update_a 5 18
	update_a 10 5
	update_a 15 10
	update_a 2 15
	update_a 7 2
	update_a 12 7
	update_a 17 12
	update_a 4 17
	update_a 9 4
	update_a 14 9
	update_a 1 14
	update_a 6 1
	update_a 11 6
	update_a 16 11
	update_a 3 16
	update_a 8 3
	update_a 13 8
	update_a 0 13
	pop_a 1
.d 18 0
	jsr s12
.o 6 0
	push_a 5
	push_a 5
	push_a 5
	push_a 5
	push_a 5
	push_a 5
	buildh _Tuple 6
	updatepop_a 0 6
.d 1 0
	rtn
.ai 0 a12 e_Control.GenBimap_ibimap__Tuple6;11
.o 2 0
e_Control.GenBimap_lbimap__Tuple6;11
	repl_args 12 12
.o 13 0
a12
.d 13 0
	jsr ea12
.o 6 0
	push_a 5
	push_a 5
	push_a 5
	push_a 5
	push_a 5
	push_a 5
	buildh _Tuple 6
	updatepop_a 0 6
.d 1 0
	rtn
.n 13 e_Control.GenBimap_dbimap__Tuple6;11
.o 1 0
e_Control.GenBimap_nbimap__Tuple6;11
	push_node _cycle_in_spine 13
.d 13 0
	jsr ea12
.o 6 0
	push_a 5
	push_a 5
	push_a 5
	push_a 5
	push_a 5
	push_a 5
	fillh _Tuple 6 12
	pop_a 6
.d 1 0
	rtn
.o 13 0
e_Control.GenBimap_sbimap__Tuple6;11
.o 13 0
ea12
	push_a 12
	jsr_eval 0
	repl_args 6 6
	update_a 5 18
	update_a 10 5
	update_a 15 10
	update_a 2 15
	update_a 7 2
	update_a 12 7
	update_a 17 12
	update_a 4 17
	update_a 9 4
	update_a 14 9
	update_a 1 14
	update_a 6 1
	update_a 11 6
	update_a 16 11
	update_a 3 16
	update_a 8 3
	update_a 13 8
	update_a 0 13
	pop_a 1
.o 18 0
s12
	push_a 17
	push_a 11
	build e_system_dAP 2 e_system_nAP
	push_a 17
	push_a 10
	build e_system_dAP 2 e_system_nAP
	push_a 17
	push_a 9
	build e_system_dAP 2 e_system_nAP
	push_a 17
	push_a 8
	build e_system_dAP 2 e_system_nAP
	push_a 17
	push_a 7
	build e_system_dAP 2 e_system_nAP
	push_a 17
	push_a 6
	build e_system_dAP 2 e_system_nAP
	update_a 5 23
	update_a 4 22
	update_a 3 21
	update_a 2 20
	update_a 1 19
	updatepop_a 0 18
.d 6 0
	rtn
.export e_Control.GenBimap_sbimap__Tuple5;10
.descexp e_Control.GenBimap_dbimap__Tuple5;10 e_Control.GenBimap_nbimap__Tuple5;10 e_Control.GenBimap_lbimap__Tuple5;10 11 0 "bimap__Tuple5;10"
.o 12 0
e_Control.GenBimap_ibimap__Tuple5;10
	pop_a 1
	jsr_eval 10
	push_args 10 5 5
	update_a 4 15
	update_a 8 4
	update_a 12 8
	update_a 1 12
	update_a 5 1
	update_a 9 5
	update_a 13 9
	update_a 2 13
	update_a 6 2
	update_a 10 6
	update_a 14 10
	update_a 3 14
	update_a 7 3
	update_a 11 7
	update_a 0 11
	pop_a 1
.d 15 0
	jsr s11
.o 5 0
	push_a 4
	push_a 4
	push_a 4
	push_a 4
	push_a 4
	buildh _Tuple 5
	updatepop_a 0 5
.d 1 0
	rtn
.ai 0 a11 e_Control.GenBimap_ibimap__Tuple5;10
.o 2 0
e_Control.GenBimap_lbimap__Tuple5;10
	repl_args 10 10
.o 11 0
a11
.d 11 0
	jsr ea11
.o 5 0
	push_a 4
	push_a 4
	push_a 4
	push_a 4
	push_a 4
	buildh _Tuple 5
	updatepop_a 0 5
.d 1 0
	rtn
.n 11 e_Control.GenBimap_dbimap__Tuple5;10
.o 1 0
e_Control.GenBimap_nbimap__Tuple5;10
	push_node _cycle_in_spine 11
.d 11 0
	jsr ea11
.o 5 0
	push_a 4
	push_a 4
	push_a 4
	push_a 4
	push_a 4
	fillh _Tuple 5 10
	pop_a 5
.d 1 0
	rtn
.o 11 0
e_Control.GenBimap_sbimap__Tuple5;10
.o 11 0
ea11
	push_a 10
	jsr_eval 0
	repl_args 5 5
	update_a 4 15
	update_a 8 4
	update_a 12 8
	update_a 1 12
	update_a 5 1
	update_a 9 5
	update_a 13 9
	update_a 2 13
	update_a 6 2
	update_a 10 6
	update_a 14 10
	update_a 3 14
	update_a 7 3
	update_a 11 7
	update_a 0 11
	pop_a 1
.o 15 0
s11
	push_a 14
	push_a 9
	build e_system_dAP 2 e_system_nAP
	push_a 14
	push_a 8
	build e_system_dAP 2 e_system_nAP
	push_a 14
	push_a 7
	build e_system_dAP 2 e_system_nAP
	push_a 14
	push_a 6
	build e_system_dAP 2 e_system_nAP
	push_a 14
	push_a 5
	build e_system_dAP 2 e_system_nAP
	update_a 4 19
	update_a 3 18
	update_a 2 17
	update_a 1 16
	updatepop_a 0 15
.d 5 0
	rtn
.export e_Control.GenBimap_sbimap__Tuple4;9
.descexp e_Control.GenBimap_dbimap__Tuple4;9 e_Control.GenBimap_nbimap__Tuple4;9 e_Control.GenBimap_lbimap__Tuple4;9 9 0 "bimap__Tuple4;9"
.o 10 0
e_Control.GenBimap_ibimap__Tuple4;9
	pop_a 1
	jsr_eval 8
	push_args 8 4 4
	update_a 3 12
	update_a 6 3
	update_a 9 6
	update_a 0 9
	push_a 11
	update_a 3 12
	update_a 6 3
	update_a 9 6
	update_a 0 9
	update_a 11 0
	update_a 2 11
	update_a 5 2
	update_a 8 5
	update_a 0 8
	pop_a 2
.d 12 0
	jsr s10
.o 4 0
	push_a 3
	push_a 3
	push_a 3
	push_a 3
	buildh _Tuple 4
	updatepop_a 0 4
.d 1 0
	rtn
.ai 0 a10 e_Control.GenBimap_ibimap__Tuple4;9
.o 2 0
e_Control.GenBimap_lbimap__Tuple4;9
	repl_args 8 8
.o 9 0
a10
.d 9 0
	jsr ea10
.o 4 0
	push_a 3
	push_a 3
	push_a 3
	push_a 3
	buildh _Tuple 4
	updatepop_a 0 4
.d 1 0
	rtn
.n 9 e_Control.GenBimap_dbimap__Tuple4;9
.o 1 0
e_Control.GenBimap_nbimap__Tuple4;9
	push_node _cycle_in_spine 9
.d 9 0
	jsr ea10
.o 4 0
	push_a 3
	push_a 3
	push_a 3
	push_a 3
	fillh _Tuple 4 8
	pop_a 4
.d 1 0
	rtn
.o 9 0
e_Control.GenBimap_sbimap__Tuple4;9
.o 9 0
ea10
	push_a 8
	jsr_eval 0
	repl_args 4 4
	update_a 3 12
	update_a 6 3
	update_a 9 6
	update_a 0 9
	push_a 11
	update_a 3 12
	update_a 6 3
	update_a 9 6
	update_a 0 9
	update_a 11 0
	update_a 2 11
	update_a 5 2
	update_a 8 5
	update_a 0 8
	pop_a 2
.o 12 0
s10
	push_a 11
	push_a 7
	build e_system_dAP 2 e_system_nAP
	push_a 11
	push_a 6
	build e_system_dAP 2 e_system_nAP
	push_a 11
	push_a 5
	build e_system_dAP 2 e_system_nAP
	push_a 11
	push_a 4
	build e_system_dAP 2 e_system_nAP
	update_a 3 15
	update_a 2 14
	update_a 1 13
	updatepop_a 0 12
.d 4 0
	rtn
.export e_Control.GenBimap_sbimap__Tuple3;8
.descexp e_Control.GenBimap_dbimap__Tuple3;8 e_Control.GenBimap_nbimap__Tuple3;8 e_Control.GenBimap_lbimap__Tuple3;8 7 0 "bimap__Tuple3;8"
.o 8 0
e_Control.GenBimap_ibimap__Tuple3;8
	pop_a 1
	jsr_eval 6
	push_args 6 3 3
	update_a 2 9
	update_a 4 2
	update_a 6 4
	update_a 8 6
	update_a 1 8
	update_a 3 1
	update_a 5 3
	update_a 7 5
	update_a 0 7
	pop_a 1
.d 9 0
	jsr s9
.o 3 0
	push_a 2
	push_a 2
	push_a 2
	buildh _Tuple 3
	updatepop_a 0 3
.d 1 0
	rtn
.ai 0 a9 e_Control.GenBimap_ibimap__Tuple3;8
.o 2 0
e_Control.GenBimap_lbimap__Tuple3;8
	repl_args 6 6
.o 7 0
a9
.d 7 0
	jsr ea9
.o 3 0
	push_a 2
	push_a 2
	push_a 2
	buildh _Tuple 3
	updatepop_a 0 3
.d 1 0
	rtn
.n 7 e_Control.GenBimap_dbimap__Tuple3;8
.o 1 0
e_Control.GenBimap_nbimap__Tuple3;8
	push_node _cycle_in_spine 7
.d 7 0
	jsr ea9
.o 3 0
	push_a 2
	push_a 2
	push_a 2
	fillh _Tuple 3 6
	pop_a 3
.d 1 0
	rtn
.o 7 0
e_Control.GenBimap_sbimap__Tuple3;8
.o 7 0
ea9
	push_a 6
	jsr_eval 0
	repl_args 3 3
	update_a 2 9
	update_a 4 2
	update_a 6 4
	update_a 8 6
	update_a 1 8
	update_a 3 1
	update_a 5 3
	update_a 7 5
	update_a 0 7
	pop_a 1
.o 9 0
s9
	push_a 8
	push_a 5
	build e_system_dAP 2 e_system_nAP
	push_a 8
	push_a 4
	build e_system_dAP 2 e_system_nAP
	push_a 8
	push_a 3
	build e_system_dAP 2 e_system_nAP
	update_a 2 11
	update_a 1 10
	updatepop_a 0 9
.d 3 0
	rtn
.export e_Control.GenBimap_sbimap__Tuple2;7
.descexp e_Control.GenBimap_dbimap__Tuple2;7 e_Control.GenBimap_nbimap__Tuple2;7 e_Control.GenBimap_lbimap__Tuple2;7 5 0 "bimap__Tuple2;7"
.o 6 0
e_Control.GenBimap_ibimap__Tuple2;7
	pop_a 1
	jsr_eval 4
	push_args 4 2 2
	update_a 1 6
	update_a 2 1
	update_a 3 2
	update_a 4 3
	update_a 5 4
	update_a 0 5
	pop_a 1
.d 6 0
	jsr s8
.o 2 0
	push_a 1
	push_a 1
	buildh _Tuple 2
	updatepop_a 0 2
.d 1 0
	rtn
.ai 0 a8 e_Control.GenBimap_ibimap__Tuple2;7
.o 2 0
e_Control.GenBimap_lbimap__Tuple2;7
	repl_args 4 4
.o 5 0
a8
.d 5 0
	jsr ea8
.o 2 0
	push_a 1
	push_a 1
	buildh _Tuple 2
	updatepop_a 0 2
.d 1 0
	rtn
.n 5 e_Control.GenBimap_dbimap__Tuple2;7
.o 1 0
e_Control.GenBimap_nbimap__Tuple2;7
	push_node _cycle_in_spine 5
.d 5 0
	jsr ea8
.o 2 0
	push_a 1
	push_a 1
	fillh _Tuple 2 4
	pop_a 2
.d 1 0
	rtn
.o 5 0
e_Control.GenBimap_sbimap__Tuple2;7
.o 5 0
ea8
	push_a 4
	jsr_eval 0
	repl_args 2 2
	update_a 1 6
	update_a 2 1
	update_a 3 2
	update_a 4 3
	update_a 5 4
	update_a 0 5
	pop_a 1
.o 6 0
s8
	push_a 5
	push_a 3
	build e_system_dAP 2 e_system_nAP
	push_a 5
	push_a 2
	build e_system_dAP 2 e_system_nAP
	update_a 1 7
	updatepop_a 0 6
.d 2 0
	rtn
.export e_Control.GenBimap_sbimap__#List!;6
.export e_Control.GenBimap_eabimap__#List!;6
.descexp e_Control.GenBimap_dbimap__#List!;6 e_Control.GenBimap_nbimap__#List!;6 e_Control.GenBimap_lbimap__#List!;6 5 0 "bimap__#List!;6"
.o 4 0
e_Control.GenBimap_ibimap__#List!;6
	repl_args 2 2
	create
	jsr_eval 5
	jsr_eval 2
	push_r_args 2 2 0
	jsr_eval 3
	push_r_args 3 2 0
	update_a 7 6
	update_a 8 7
	update_a 9 8
	update_a 4 9
	update_a 2 4
	update_a 0 2
	update_a 3 5
	update_a 1 3
	pop_a 2
.d 8 0
	jmp s7
.ai 5 e_Control.GenBimap_eabimap__#List!;6 e_Control.GenBimap_ibimap__#List!;6
.o 2 0
e_Control.GenBimap_lbimap__#List!;6
	push_args 0 4 4
	update_a 5 4
	create
	update_a 0 6
	pop_a 1
.d 6 0
	jmp e_Control.GenBimap_eabimap__#List!;6
.n 5 e_Control.GenBimap_dbimap__#List!;6 e_Control.GenBimap_eabimap__#List!;6
.o 1 0
e_Control.GenBimap_nbimap__#List!;6
	push_node _cycle_in_spine 5
.d 6 0
	jmp e_Control.GenBimap_eabimap__#List!;6
.o 8 0
e_Control.GenBimap_sbimap__#List!;6
	jsr_eval 6
.d 8 0
	jmp s7
.o 6 0
e_Control.GenBimap_eabimap__#List!;6
	jsr_eval 4
	jsr_eval 1
	jsr_eval 0
	push_r_args 1 2 0
	push_r_args 2 2 0
	update_a 3 5
	update_a 1 3
	update_a 2 4
	update_a 0 2
	pop_a 2
.o 8 0
s7
	eq_desc _Nil 0 6
	jmp_false case.1
	jmp case.2
case.1
	push_a 6
	push_a 2
.d 2 0
	jsr_i 1
.o 2 0
	buildh _Nil 0
	update_a 0 9
	pop_a 1
	create
	push_a 2
	push_a 9
	push_a 9
	push_a 9
	push_a 9
	push_a 9
	push_a 9
	update_a 14 16
	update_a 13 15
	update_a 12 14
	update_a 8 13
	update_a 7 12
	update_a 6 11
	update_a 5 10
	update_a 4 9
	update_a 3 8
	update_a 2 7
	update_a 1 6
	updatepop_a 0 5
.d 8 0
	jsr s7
.o 1 0
	push_a 4
	jsr_eval 0
	push_a 2
	push_a 1
	update_a 1 2
	update_a 0 1
	pop_a 1
	buildh _Nil 0
	update_a 0 4
	update_a 0 7
	pop_a 1
	jsr_ap 1
	push_a 3
	update_a 2 6
	update_a 1 5
	updatepop_a 0 4
.d 4 0
	jmp_i 2
case.2
.impmod _SystemStrictLists
.impdesc e__SystemStrictLists_rUTSList;
	build_r e__SystemStrictLists_rUTSList; 2 0 2 0
	pop_a 1
	fillh _Nil 0 7
	pop_a 7
.d 1 0
	rtn
.export e_Control.GenBimap_sbimap__#List;5
.export e_Control.GenBimap_eabimap__#List;5
.descexp e_Control.GenBimap_dbimap__#List;5 e_Control.GenBimap_nbimap__#List;5 e_Control.GenBimap_lbimap__#List;5 5 0 "bimap__#List;5"
.o 4 0
e_Control.GenBimap_ibimap__#List;5
	repl_args 2 2
	create
	jsr_eval 5
	jsr_eval 2
	push_r_args 2 2 0
	jsr_eval 3
	push_r_args 3 2 0
	update_a 7 6
	update_a 8 7
	update_a 9 8
	update_a 4 9
	update_a 2 4
	update_a 0 2
	update_a 3 5
	update_a 1 3
	pop_a 2
.d 8 0
	jmp s6
.ai 5 e_Control.GenBimap_eabimap__#List;5 e_Control.GenBimap_ibimap__#List;5
.o 2 0
e_Control.GenBimap_lbimap__#List;5
	push_args 0 4 4
	update_a 5 4
	create
	update_a 0 6
	pop_a 1
.d 6 0
	jmp e_Control.GenBimap_eabimap__#List;5
.n 5 e_Control.GenBimap_dbimap__#List;5 e_Control.GenBimap_eabimap__#List;5
.o 1 0
e_Control.GenBimap_nbimap__#List;5
	push_node _cycle_in_spine 5
.d 6 0
	jmp e_Control.GenBimap_eabimap__#List;5
.o 8 0
e_Control.GenBimap_sbimap__#List;5
	jsr_eval 6
.d 8 0
	jmp s6
.o 6 0
e_Control.GenBimap_eabimap__#List;5
	jsr_eval 4
	jsr_eval 1
	jsr_eval 0
	push_r_args 1 2 0
	push_r_args 2 2 0
	update_a 3 5
	update_a 1 3
	update_a 2 4
	update_a 0 2
	pop_a 2
.o 8 0
s6
	eq_desc _Nil 0 6
	jmp_false case.3
	jmp case.4
case.3
	push_a 6
	push_a 2
.d 2 0
	jsr_i 1
.o 2 0
	buildh _Nil 0
	update_a 0 9
	pop_a 1
.impdesc e__SystemStrictLists_rUList;
	build_r e__SystemStrictLists_rUList; 2 0 4 0
	build_r e__SystemStrictLists_rUList; 2 0 3 0
	push_a 3
	push_a 10
	push_a 10
	push_a 4
	update_a 3 5
	update_a 1 3
	update_a 4 1
	update_a 2 4
	update_a 0 2
	pop_a 1
	build e_Control.GenBimap_dbimap__#List;5 5 e_Control.GenBimap_nbimap__#List;5
	push_a 7
	jsr_eval 0
	push_a 2
	push_a 1
	update_a 1 2
	update_a 0 1
	pop_a 1
	buildh _Nil 0
	update_a 0 4
	update_a 0 10
	update_a 0 11
	update_a 0 5
	update_a 0 6
	update_a 0 7
	pop_a 1
	jsr_ap 1
	push_a 6
	update_a 2 11
	update_a 1 10
	updatepop_a 0 9
.d 4 0
	jmp_i 2
case.4
	build_r e__SystemStrictLists_rUList; 2 0 2 0
	pop_a 1
	fillh _Nil 0 7
	pop_a 7
.d 1 0
	rtn
.export e_Control.GenBimap_sbimap__!List!;4
.export e_Control.GenBimap_eabimap__!List!;4
.descexp e_Control.GenBimap_dbimap__!List!;4 e_Control.GenBimap_nbimap__!List!;4 e_Control.GenBimap_lbimap__!List!;4 3 0 "bimap__!List!;4"
.o 4 0
e_Control.GenBimap_ibimap__!List!;4
	pop_a 1
	create
	jsr_eval 3
	push_a 3
	update_a 1 4
	update_a 2 1
	update_a 3 2
	update_a 0 3
	pop_a 1
.d 4 0
	jmp s5
.ai 3 e_Control.GenBimap_eabimap__!List!;4 e_Control.GenBimap_ibimap__!List!;4
.o 2 0
e_Control.GenBimap_lbimap__!List!;4
	push_args 0 2 2
	update_a 3 2
	create
	update_a 0 4
	pop_a 1
.d 4 0
	jmp e_Control.GenBimap_eabimap__!List!;4
.n 3 e_Control.GenBimap_dbimap__!List!;4 e_Control.GenBimap_eabimap__!List!;4
.o 1 0
e_Control.GenBimap_nbimap__!List!;4
	push_node _cycle_in_spine 3
.o 4 0
e_Control.GenBimap_sbimap__!List!;4
.o 4 0
e_Control.GenBimap_eabimap__!List!;4
	jsr_eval 2
.o 4 0
s5
	eq_desc _Cons 2 2
	jmp_true case.5
	jmp case.6
case.5
	push_args 2 2 2
	buildh _Nil 0
	update_a 0 5
	pop_a 1
	create
	push_a 2
	push_a 5
	push_a 5
	update_a 6 8
	update_a 4 7
	update_a 3 6
	update_a 2 5
	update_a 1 4
	updatepop_a 0 3
	push_a 5
	jsr_eval 0
	push_a 5
	push_a 1
	update_a 1 2
	update_a 0 1
	pop_a 1
	buildh _Nil 0
	update_a 0 7
	update_a 0 8
	pop_a 1
	jsr_ap 1
	push_a 4
	push_a 1
	update_a 1 2
	update_a 0 1
	pop_a 1
	fillh _Cons 2 8
.d 4 0
	jsr s5.2
.o 1 0
	pop_a 3
.d 1 0
	rtn
case.6
	fillh _Nil 0 3
	pop_a 3
.d 1 0
	rtn
.o 4 0
s5.2
	eq_desc _Cons 2 2
	jmp_true case.7
	jmp case.8
case.7
	push_args 2 2 2
	buildh _Nil 0
	update_a 0 5
	pop_a 1
	create
	push_a 2
	push_a 5
	push_a 5
	update_a 6 8
	update_a 4 7
	update_a 3 6
	update_a 2 5
	update_a 1 4
	updatepop_a 0 3
	push_a 5
	jsr_eval 0
	push_a 5
	push_a 1
	update_a 1 2
	update_a 0 1
	pop_a 1
	buildh _Nil 0
	update_a 0 7
	update_a 0 8
	pop_a 1
	jsr_ap 1
	push_a 4
	push_a 1
	update_a 1 2
	update_a 0 1
	pop_a 1
	fillh _Cons 2 8
.keep 6 3
	update_a 3 6
	update_a 2 5
	update_a 1 4
	updatepop_a 0 3
.d 4 0
	jmp s5.2
case.8
	fillh _Nil 0 3
	pop_a 3
.d 1 0
	rtn
.export e_Control.GenBimap_sbimap__List!;3
.export e_Control.GenBimap_eabimap__List!;3
.descexp e_Control.GenBimap_dbimap__List!;3 e_Control.GenBimap_nbimap__List!;3 e_Control.GenBimap_lbimap__List!;3 3 0 "bimap__List!;3"
.o 4 0
e_Control.GenBimap_ibimap__List!;3
	pop_a 1
	create
	jsr_eval 3
	push_a 3
	update_a 1 4
	update_a 2 1
	update_a 3 2
	update_a 0 3
	pop_a 1
.d 4 0
	jmp s4
.ai 3 e_Control.GenBimap_eabimap__List!;3 e_Control.GenBimap_ibimap__List!;3
.o 2 0
e_Control.GenBimap_lbimap__List!;3
	push_args 0 2 2
	update_a 3 2
	create
	update_a 0 4
	pop_a 1
.d 4 0
	jmp e_Control.GenBimap_eabimap__List!;3
.n 3 e_Control.GenBimap_dbimap__List!;3 e_Control.GenBimap_eabimap__List!;3
.o 1 0
e_Control.GenBimap_nbimap__List!;3
	push_node _cycle_in_spine 3
.o 4 0
e_Control.GenBimap_sbimap__List!;3
.o 4 0
e_Control.GenBimap_eabimap__List!;3
	jsr_eval 2
.o 4 0
s4
	eq_desc _Cons 2 2
	jmp_true case.9
	jmp case.10
case.9
	push_args 2 2 2
	buildh _Nil 0
	update_a 0 5
	pop_a 1
	create
	push_a 2
	push_a 5
	push_a 5
	update_a 6 8
	update_a 4 7
	update_a 3 6
	update_a 2 5
	update_a 1 4
	updatepop_a 0 3
	push_a 4
	push_a 6
	build e_system_dAP 2 e_system_nAP
	push_a 4
	push_a 1
	update_a 1 2
	update_a 0 1
	pop_a 1
	fillh _Cons 2 8
.d 4 0
	jsr s4.2
.o 1 0
	pop_a 3
.d 1 0
	rtn
case.10
	fillh _Nil 0 3
	pop_a 3
.d 1 0
	rtn
.o 4 0
s4.2
	eq_desc _Cons 2 2
	jmp_true case.11
	jmp case.12
case.11
	push_args 2 2 2
	buildh _Nil 0
	update_a 0 5
	pop_a 1
	create
	push_a 2
	push_a 5
	push_a 5
	update_a 6 8
	update_a 4 7
	update_a 3 6
	update_a 2 5
	update_a 1 4
	updatepop_a 0 3
	push_a 4
	push_a 6
	build e_system_dAP 2 e_system_nAP
	push_a 4
	push_a 1
	update_a 1 2
	update_a 0 1
	pop_a 1
	fillh _Cons 2 8
.keep 6 3
	update_a 3 6
	update_a 2 5
	update_a 1 4
	updatepop_a 0 3
.d 4 0
	jmp s4.2
case.12
	fillh _Nil 0 3
	pop_a 3
.d 1 0
	rtn
.export e_Control.GenBimap_sbimap__!List;2
.export e_Control.GenBimap_eabimap__!List;2
.descexp e_Control.GenBimap_dbimap__!List;2 e_Control.GenBimap_nbimap__!List;2 e_Control.GenBimap_lbimap__!List;2 3 0 "bimap__!List;2"
.o 4 0
e_Control.GenBimap_ibimap__!List;2
	pop_a 1
	create
	jsr_eval 3
	push_a 3
	update_a 1 4
	update_a 2 1
	update_a 3 2
	update_a 0 3
	pop_a 1
.d 4 0
	jmp s3
.ai 3 e_Control.GenBimap_eabimap__!List;2 e_Control.GenBimap_ibimap__!List;2
.o 2 0
e_Control.GenBimap_lbimap__!List;2
	push_args 0 2 2
	update_a 3 2
	create
	update_a 0 4
	pop_a 1
.d 4 0
	jmp e_Control.GenBimap_eabimap__!List;2
.n 3 e_Control.GenBimap_dbimap__!List;2 e_Control.GenBimap_eabimap__!List;2
.o 1 0
e_Control.GenBimap_nbimap__!List;2
	push_node _cycle_in_spine 3
.o 4 0
e_Control.GenBimap_sbimap__!List;2
.o 4 0
e_Control.GenBimap_eabimap__!List;2
	jsr_eval 2
.o 4 0
s3
	eq_desc _Cons 2 2
	jmp_true case.13
	jmp case.14
case.13
	push_args 2 2 2
	buildh _Nil 0
	update_a 0 5
	pop_a 1
	push_a 1
	push_a 4
	push_a 4
	build e_Control.GenBimap_dbimap__!List;2 3 e_Control.GenBimap_nbimap__!List;2
	push_a 3
	jsr_eval 0
	push_a 2
	push_a 1
	update_a 1 2
	update_a 0 1
	pop_a 1
	buildh _Nil 0
	update_a 0 4
	update_a 0 6
	update_a 0 7
	update_a 0 5
	pop_a 1
	jsr_ap 1
	fillh _Cons 2 7
	pop_a 5
.d 1 0
	rtn
case.14
	fillh _Nil 0 3
	pop_a 3
.d 1 0
	rtn
.export e_Control.GenBimap_sbimap__List;1
.export e_Control.GenBimap_eabimap__List;1
.descexp e_Control.GenBimap_dbimap__List;1 e_Control.GenBimap_nbimap__List;1 e_Control.GenBimap_lbimap__List;1 3 0 "bimap__List;1"
.o 4 0
e_Control.GenBimap_ibimap__List;1
	pop_a 1
	create
	jsr_eval 3
	push_a 3
	update_a 1 4
	update_a 2 1
	update_a 3 2
	update_a 0 3
	pop_a 1
.d 4 0
	jmp s2
.ai 3 e_Control.GenBimap_eabimap__List;1 e_Control.GenBimap_ibimap__List;1
.o 2 0
e_Control.GenBimap_lbimap__List;1
	push_args 0 2 2
	update_a 3 2
	create
	update_a 0 4
	pop_a 1
.d 4 0
	jmp e_Control.GenBimap_eabimap__List;1
.n 3 e_Control.GenBimap_dbimap__List;1 e_Control.GenBimap_eabimap__List;1
.o 1 0
e_Control.GenBimap_nbimap__List;1
	push_node _cycle_in_spine 3
.o 4 0
e_Control.GenBimap_sbimap__List;1
.o 4 0
e_Control.GenBimap_eabimap__List;1
	jsr_eval 2
.o 4 0
s2
	eq_desc _Cons 2 2
	jmp_true case.15
	jmp case.16
case.15
	push_args 2 2 2
	buildh _Nil 0
	update_a 0 5
	pop_a 1
	push_a 1
	push_a 4
	push_a 4
	build e_Control.GenBimap_dbimap__List;1 3 e_Control.GenBimap_nbimap__List;1
	push_a 1
	push_a 4
	build e_system_dAP 2 e_system_nAP
	fillh _Cons 2 7
	pop_a 5
.d 1 0
	rtn
case.16
	fillh _Nil 0 3
	pop_a 3
.d 1 0
	rtn
.export e_Control.GenBimap_sbimap__!Maybe;0
.export e_Control.GenBimap_eabimap__!Maybe;0
.descexp e_Control.GenBimap_dbimap__!Maybe;0 e_Control.GenBimap_nbimap__!Maybe;0 e_Control.GenBimap_lbimap__!Maybe;0 3 0 "bimap__!Maybe;0"
.o 4 0
e_Control.GenBimap_ibimap__!Maybe;0
	pop_a 1
	create
	jsr_eval 3
	push_a 3
	update_a 1 4
	update_a 2 1
	update_a 3 2
	update_a 0 3
	pop_a 1
.d 4 0
	jmp s1
.ai 3 e_Control.GenBimap_eabimap__!Maybe;0 e_Control.GenBimap_ibimap__!Maybe;0
.o 2 0
e_Control.GenBimap_lbimap__!Maybe;0
	push_args 0 2 2
	update_a 3 2
	create
	update_a 0 4
	pop_a 1
.d 4 0
	jmp e_Control.GenBimap_eabimap__!Maybe;0
.n 3 e_Control.GenBimap_dbimap__!Maybe;0 e_Control.GenBimap_eabimap__!Maybe;0
.o 1 0
e_Control.GenBimap_nbimap__!Maybe;0
	push_node _cycle_in_spine 3
.o 4 0
e_Control.GenBimap_sbimap__!Maybe;0
.o 4 0
e_Control.GenBimap_eabimap__!Maybe;0
	jsr_eval 2
.o 4 0
s1
	eq_desc _Just 1 2
	jmp_true case.17
	jmp case.18
case.17
	push_args 2 1 1
	buildh _Nil 0
	update_a 0 4
	pop_a 1
	push_a 1
	jsr_eval 0
	push_a 1
	push_a 1
	update_a 1 2
	update_a 0 1
	pop_a 1
	update_a 1 5
	updatepop_a 0 4
	jsr_ap 1
	fillh _Just 1 1
.d 1 0
	rtn
case.18
	fillh _None 0 3
	pop_a 3
.d 1 0
	rtn
