.comp 920 000011110011000
.start _nostart_
.depend "TCPDef" "20210613143555"
.depend "tcp" "20210613143555"
.depend "TCPChannelClass" "20210613143555"
.depend "StdString" "20210613143554"
.depend "StdOverloaded" "20210613143554"
.depend "_SystemDynamic" "20210613143554"
.depend "tcp_bytestreams" "20210613143555"
.module m_tcp_bytestreams "tcp_bytestreams" "20210613143555"
.endinfo
.impmod _system
.implab _cycle_in_spine
.implab _type_error
.implab _hnf
.impdesc e_system_dind
.implab e_system_nind e_system_eaind
.impdesc e_system_dif
.implab e_system_nif e_system_eaif
.implab e_system_sif
.impdesc e_system_dAP
.implab e_system_nAP e_system_eaAP
.implab e_system_sAP
.impdesc ARRAY
.impdesc _Nil
.impdesc _Cons
.impdesc _Conss
.implab n_Conss ea_Conss
.impdesc _Consts
.implab n_Consts ea_Consts
.impdesc _Conssts
.implab n_Conssts ea_Conssts
.impdesc _Tuple
.impdesc d_S.1
.implab n_S.1 ea_S.1
.impdesc d_S.2
.implab n_S.2 ea_S.2
.impdesc d_S.3
.implab n_S.3 ea_S.3
.impdesc d_S.4
.implab n_S.4 ea_S.4
.impdesc d_S.5
.implab n_S.5 ea_S.5
.impdesc d_S.6
.implab n_S.6 ea_S.6
.implab _driver
.export e_tcp_bytestreams_rTCP_RCharStream_
.record e_tcp_bytestreams_rTCP_RCharStream_ aai 2 1 "TCP_RCharStream_"
.descexp e_tcp_bytestreams_tTCP_RCharStream_ e_tcp_bytestreams_cTCP_RCharStream_ _hnf 3 1 "TCP_RCharStream_"
.n 3 e_tcp_bytestreams_tTCP_RCharStream_
.o 1 0 
e_tcp_bytestreams_cTCP_RCharStream_
	push_node _cycle_in_spine 3
	jsr_eval 2
	jsr_eval 1
	jsr_eval 0
	pushI_a 2
	push_array 1
	dup_a 3
	updatepop_a 1 2
.impmod tcp_bytestreams
.impdesc e_tcp_bytestreams_rTCP_RCharStream_
	fill_r e_tcp_bytestreams_rTCP_RCharStream_ 2 1 2 0 0
.d 1 0 
	pop_ab_rtn 2 1
.export e_tcp_bytestreams_dTCP_RCharStream_.rbs_rchan
.export e_tcp_bytestreams_nTCP_RCharStream_.rbs_rchan
.export e_tcp_bytestreams_eaTCP_RCharStream_.rbs_rchan
.descs e_tcp_bytestreams_dTCP_RCharStream_.rbs_rchan e_tcp_bytestreams_nTCP_RCharStream_.rbs_rchan _ 1 0 "TCP_RCharStream_.rbs_rchan"
.n -4 e_tcp_bytestreams_dTCP_RCharStream_.rbs_rchan e_tcp_bytestreams_eaTCP_RCharStream_.rbs_rchan
.o 1 0 
e_tcp_bytestreams_nTCP_RCharStream_.rbs_rchan
	push_node _cycle_in_spine 1
.o 2 0 
e_tcp_bytestreams_eaTCP_RCharStream_.rbs_rchan
	jsr_eval 0
	repl_r_args_a 2 1 1 1
.d 1 0 
	fill_a01_pop_rtn 
.export e_tcp_bytestreams_dTCP_RCharStream_.rbs_buffer
.export e_tcp_bytestreams_nTCP_RCharStream_.rbs_buffer
.desc e_tcp_bytestreams_dTCP_RCharStream_.rbs_buffer e_tcp_bytestreams_nTCP_RCharStream_.rbs_buffer _hnf 1 0 "TCP_RCharStream_.rbs_buffer"
.n 1 e_tcp_bytestreams_dTCP_RCharStream_.rbs_buffer
.o 1 0 
e_tcp_bytestreams_nTCP_RCharStream_.rbs_buffer
	push_node _cycle_in_spine 1
	jsr_eval 0
	repl_r_args_a 2 1 2 1
	fillh ARRAY 1 1
.d 1 0 
	rtn 
.export e_tcp_bytestreams_dTCP_RCharStream_.rbs_index
.export e_tcp_bytestreams_nTCP_RCharStream_.rbs_index
.descs e_tcp_bytestreams_dTCP_RCharStream_.rbs_index e_tcp_bytestreams_nTCP_RCharStream_.rbs_index INT 4 0 "TCP_RCharStream_.rbs_index"
.n -3 e_tcp_bytestreams_dTCP_RCharStream_.rbs_index
.o 1 0 
e_tcp_bytestreams_nTCP_RCharStream_.rbs_index
	push_node _cycle_in_spine 1
	jsr_eval 0
	push_r_args_b 0 2 1 1 1
	pop_a 1
	fillI_b 0 0
.d 1 0 
	pop_b_rtn 1
.export e_tcp_bytestreams_rTCP_SCharStream_
.record e_tcp_bytestreams_rTCP_SCharStream_ a 1 0 "TCP_SCharStream_"
.descexp e_tcp_bytestreams_tTCP_SCharStream_ e_tcp_bytestreams_cTCP_SCharStream_ _hnf 1 1 "TCP_SCharStream_"
.n 1 e_tcp_bytestreams_tTCP_SCharStream_
.o 1 0 
e_tcp_bytestreams_cTCP_SCharStream_
	push_node _cycle_in_spine 1
	jsr_eval 0
.impdesc e_tcp_bytestreams_rTCP_SCharStream_
	fill_r e_tcp_bytestreams_rTCP_SCharStream_ 1 0 1 0 0
.d 1 0 
	pop_a_rtn 1
.export e_tcp_bytestreams_dTCP_SCharStream_.sbs_schan
.export e_tcp_bytestreams_nTCP_SCharStream_.sbs_schan
.export e_tcp_bytestreams_eaTCP_SCharStream_.sbs_schan
.descs e_tcp_bytestreams_dTCP_SCharStream_.sbs_schan e_tcp_bytestreams_nTCP_SCharStream_.sbs_schan _ 1 0 "TCP_SCharStream_.sbs_schan"
.n -4 e_tcp_bytestreams_dTCP_SCharStream_.sbs_schan e_tcp_bytestreams_eaTCP_SCharStream_.sbs_schan
.o 1 0 
e_tcp_bytestreams_nTCP_SCharStream_.sbs_schan
	push_node _cycle_in_spine 1
.o 2 0 
e_tcp_bytestreams_eaTCP_SCharStream_.sbs_schan
	jsr_eval 0
	repl_r_args_a 1 0 1 1
.d 1 0 
	fill_a01_pop_rtn 
.export e_tcp_bytestreams_sTD;TCP_SCharStream_
.export e_tcp_bytestreams_eaTD;TCP_SCharStream_
.descexp e_tcp_bytestreams_dTD;TCP_SCharStream_ e_tcp_bytestreams_nTD;TCP_SCharStream_ e_tcp_bytestreams_lTD;TCP_SCharStream_ 1 0 "TD;TCP_SCharStream_"
.o 2 0 
e_tcp_bytestreams_lTD;TCP_SCharStream_
	update_a 1 0
	create 
.d 2 0 
	put_a_jmp 2 e_tcp_bytestreams_eaTD;TCP_SCharStream_
.n 1 e_tcp_bytestreams_dTD;TCP_SCharStream_ e_tcp_bytestreams_eaTD;TCP_SCharStream_
.o 1 0 
e_tcp_bytestreams_nTD;TCP_SCharStream_
	push_node _cycle_in_spine 1
.o 2 0 
e_tcp_bytestreams_eaTD;TCP_SCharStream_
.o 2 0 
e_tcp_bytestreams_sTD;TCP_SCharStream_
.o 2 0 
s2
	fillh _Nil 0 1
.d 1 0 
	pop_a_rtn 1
.export e_tcp_bytestreams_sTD;TCP_RCharStream_
.export e_tcp_bytestreams_eaTD;TCP_RCharStream_
.descexp e_tcp_bytestreams_dTD;TCP_RCharStream_ e_tcp_bytestreams_nTD;TCP_RCharStream_ e_tcp_bytestreams_lTD;TCP_RCharStream_ 1 0 "TD;TCP_RCharStream_"
.o 2 0 
e_tcp_bytestreams_lTD;TCP_RCharStream_
	update_a 1 0
	create 
.d 2 0 
	put_a_jmp 2 e_tcp_bytestreams_eaTD;TCP_RCharStream_
.n 1 e_tcp_bytestreams_dTD;TCP_RCharStream_ e_tcp_bytestreams_eaTD;TCP_RCharStream_
.o 1 0 
e_tcp_bytestreams_nTD;TCP_RCharStream_
	push_node _cycle_in_spine 1
.o 2 0 
e_tcp_bytestreams_eaTD;TCP_RCharStream_
.o 2 0 
e_tcp_bytestreams_sTD;TCP_RCharStream_
.o 2 0 
s1
	fillh _Nil 0 1
.d 1 0 
	pop_a_rtn 1
