.comp 920 000011110011000
.start _nostart_
.depend "StdCharList" "20210613143554"
.depend "_SystemArray" "20210613143554"
.depend "StdArray" "20210613143554"
.depend "StdEnv" "20210613143554"
.depend "_SystemEnum" "20210613143554"
.depend "StdEnum" "20210613143554"
.depend "StdTuple" "20210613143554"
.depend "StdOrdList" "20210613143554"
.depend "StdFile" "20210613143554"
.depend "tcp" "20210613143555"
.depend "TCPChannelClass" "20210613143555"
.depend "StdString" "20210613143554"
.depend "StdMisc" "20210613143554"
.depend "StdFunctions" "20210613143554"
.depend "_SystemEnumStrict" "20210613143554"
.depend "_SystemStrictLists" "20210613143554"
.depend "StdStrictLists" "20210613143554"
.depend "StdReal" "20210613143554"
.depend "StdChar" "20210613143554"
.depend "StdInt" "20210613143554"
.depend "StdBool" "20210613143554"
.depend "StdClass" "20210613143554"
.depend "StdList" "20210613143554"
.depend "StdOverloaded" "20210613143554"
.depend "_SystemDynamic" "20210613143554"
.depend "TCPDef" "20210613143555"
.module m_TCPDef "TCPDef" "20210613143555"
.endinfo
.impmod _system
.implab _cycle_in_spine
.implab _type_error
.implab _hnf
.impdesc e_system_dind
.implab e_system_nind e_system_eaind
.impdesc e_system_dif
.implab e_system_nif e_system_eaif
.implab e_system_sif
.impdesc e_system_dAP
.implab e_system_nAP e_system_eaAP
.implab e_system_sAP
.impdesc ARRAY
.impdesc _Nil
.impdesc _Cons
.impdesc _Conss
.implab n_Conss ea_Conss
.impdesc _Consts
.implab n_Consts ea_Consts
.impdesc _Conssts
.implab n_Conssts ea_Conssts
.impdesc _Tuple
.impdesc d_S.1
.implab n_S.1 ea_S.1
.impdesc d_S.2
.implab n_S.2 ea_S.2
.impdesc d_S.3
.implab n_S.3 ea_S.3
.impdesc d_S.4
.implab n_S.4 ea_S.4
.impdesc d_S.5
.implab n_S.5 ea_S.5
.impdesc d_S.6
.implab n_S.6 ea_S.6
.implab _driver
.impmod _SystemArray
.impmod tcp
.implab e_tcp_sunpack_ipaddr
.implab e_tcp_stoDottedDecimal
.impmod StdString
.implab e_StdString_s==;2
.export e_TCPDef_rByteSeq
.record e_TCPDef_rByteSeq a 1 0 "ByteSeq"
.descexp e_TCPDef_tByteSeq e_TCPDef_cByteSeq _hnf 1 1 "ByteSeq"
.n 1 e_TCPDef_tByteSeq
.o 1 0
e_TCPDef_cByteSeq
	push_node _cycle_in_spine 1
	jsr_eval 0
	push_array 0
	update_a 0 1
	pop_a 1
.impmod TCPDef
.impdesc e_TCPDef_rByteSeq
	fill_r e_TCPDef_rByteSeq 1 0 1 0 0
	pop_a 1
.d 1 0
	rtn
.export e_TCPDef_dTCP_RChannels
.desc e_TCPDef_dTCP_RChannels _hnf _add_arg 1 0 "TCP_RChannels"
.export e_TCPDef_dTCP_SChannels
.desc e_TCPDef_dTCP_SChannels _hnf _add_arg 1 0 "TCP_SChannels"
.export e_TCPDef_dTCP_Listeners
.desc e_TCPDef_dTCP_Listeners _hnf _add_arg 1 0 "TCP_Listeners"
.export e_TCPDef_dTCP_RCHANNEL
.desc e_TCPDef_dTCP_RCHANNEL _hnf _add_arg 1 0 "TCP_RCHANNEL"
.export e_TCPDef_dTCP_LISTENER
.desc e_TCPDef_dTCP_LISTENER _hnf _add_arg 1 0 "TCP_LISTENER"
.export e_TCPDef_dSR_Available
.desc0 e_TCPDef_dSR_Available 0 "SR_Available"
.export e_TCPDef_dSR_EOM
.desc0 e_TCPDef_dSR_EOM 1 "SR_EOM"
.export e_TCPDef_dSR_Sendable
.desc0 e_TCPDef_dSR_Sendable 2 "SR_Sendable"
.export e_TCPDef_dSR_Disconnected
.desc0 e_TCPDef_dSR_Disconnected 3 "SR_Disconnected"
.export e_TCPDef_sTD;SelectResult
.export e_TCPDef_eaTD;SelectResult
.descexp e_TCPDef_dTD;SelectResult e_TCPDef_nTD;SelectResult e_TCPDef_lTD;SelectResult 1 0 "TD;SelectResult"
.o 2 0
e_TCPDef_lTD;SelectResult
	update_a 1 0
	create
	update_a 0 2
	pop_a 1
.d 2 0
	jmp e_TCPDef_eaTD;SelectResult
.n 1 e_TCPDef_dTD;SelectResult e_TCPDef_eaTD;SelectResult
.o 1 0
e_TCPDef_nTD;SelectResult
	push_node _cycle_in_spine 1
.o 2 0
e_TCPDef_eaTD;SelectResult
.o 2 0
e_TCPDef_sTD;SelectResult
.o 2 0
s16
	fillh _Nil 0 1
	pop_a 1
.d 1 0
	rtn
.export e_TCPDef_sTD;PrimitiveRChannel
.export e_TCPDef_eaTD;PrimitiveRChannel
.descexp e_TCPDef_dTD;PrimitiveRChannel e_TCPDef_nTD;PrimitiveRChannel e_TCPDef_lTD;PrimitiveRChannel 1 0 "TD;PrimitiveRChannel"
.o 2 0
e_TCPDef_lTD;PrimitiveRChannel
	update_a 1 0
	create
	update_a 0 2
	pop_a 1
.d 2 0
	jmp e_TCPDef_eaTD;PrimitiveRChannel
.n 1 e_TCPDef_dTD;PrimitiveRChannel e_TCPDef_eaTD;PrimitiveRChannel
.o 1 0
e_TCPDef_nTD;PrimitiveRChannel
	push_node _cycle_in_spine 1
.o 2 0
e_TCPDef_eaTD;PrimitiveRChannel
.o 2 0
e_TCPDef_sTD;PrimitiveRChannel
.o 2 0
s15
	fillh _Nil 0 1
	pop_a 1
.d 1 0
	rtn
.export e_TCPDef_sTD;TCP_Listeners
.export e_TCPDef_eaTD;TCP_Listeners
.descexp e_TCPDef_dTD;TCP_Listeners e_TCPDef_nTD;TCP_Listeners e_TCPDef_lTD;TCP_Listeners 1 0 "TD;TCP_Listeners"
.o 2 0
e_TCPDef_lTD;TCP_Listeners
	update_a 1 0
	create
	update_a 0 2
	pop_a 1
.d 2 0
	jmp e_TCPDef_eaTD;TCP_Listeners
.n 1 e_TCPDef_dTD;TCP_Listeners e_TCPDef_eaTD;TCP_Listeners
.o 1 0
e_TCPDef_nTD;TCP_Listeners
	push_node _cycle_in_spine 1
.o 2 0
e_TCPDef_eaTD;TCP_Listeners
.o 2 0
e_TCPDef_sTD;TCP_Listeners
.o 2 0
s14
	fillh _Nil 0 1
	pop_a 1
.d 1 0
	rtn
.export e_TCPDef_sTD;TCP_SChannels
.export e_TCPDef_eaTD;TCP_SChannels
.descexp e_TCPDef_dTD;TCP_SChannels e_TCPDef_nTD;TCP_SChannels e_TCPDef_lTD;TCP_SChannels 1 0 "TD;TCP_SChannels"
.o 2 0
e_TCPDef_lTD;TCP_SChannels
	update_a 1 0
	create
	update_a 0 2
	pop_a 1
.d 2 0
	jmp e_TCPDef_eaTD;TCP_SChannels
.n 1 e_TCPDef_dTD;TCP_SChannels e_TCPDef_eaTD;TCP_SChannels
.o 1 0
e_TCPDef_nTD;TCP_SChannels
	push_node _cycle_in_spine 1
.o 2 0
e_TCPDef_eaTD;TCP_SChannels
.o 2 0
e_TCPDef_sTD;TCP_SChannels
.o 2 0
s13
	fillh _Nil 0 1
	pop_a 1
.d 1 0
	rtn
.export e_TCPDef_sTD;TCP_RChannels
.export e_TCPDef_eaTD;TCP_RChannels
.descexp e_TCPDef_dTD;TCP_RChannels e_TCPDef_nTD;TCP_RChannels e_TCPDef_lTD;TCP_RChannels 1 0 "TD;TCP_RChannels"
.o 2 0
e_TCPDef_lTD;TCP_RChannels
	update_a 1 0
	create
	update_a 0 2
	pop_a 1
.d 2 0
	jmp e_TCPDef_eaTD;TCP_RChannels
.n 1 e_TCPDef_dTD;TCP_RChannels e_TCPDef_eaTD;TCP_RChannels
.o 1 0
e_TCPDef_nTD;TCP_RChannels
	push_node _cycle_in_spine 1
.o 2 0
e_TCPDef_eaTD;TCP_RChannels
.o 2 0
e_TCPDef_sTD;TCP_RChannels
.o 2 0
s12
	fillh _Nil 0 1
	pop_a 1
.d 1 0
	rtn
.export e_TCPDef_sTD;ByteSeq
.export e_TCPDef_eaTD;ByteSeq
.descexp e_TCPDef_dTD;ByteSeq e_TCPDef_nTD;ByteSeq e_TCPDef_lTD;ByteSeq 1 0 "TD;ByteSeq"
.o 2 0
e_TCPDef_lTD;ByteSeq
	update_a 1 0
	create
	update_a 0 2
	pop_a 1
.d 2 0
	jmp e_TCPDef_eaTD;ByteSeq
.n 1 e_TCPDef_dTD;ByteSeq e_TCPDef_eaTD;ByteSeq
.o 1 0
e_TCPDef_nTD;ByteSeq
	push_node _cycle_in_spine 1
.o 2 0
e_TCPDef_eaTD;ByteSeq
.o 2 0
e_TCPDef_sTD;ByteSeq
.o 2 0
s11
	fillh _Nil 0 1
	pop_a 1
.d 1 0
	rtn
.export e_TCPDef_sTD;TCP_DuplexChannel
.export e_TCPDef_eaTD;TCP_DuplexChannel
.descexp e_TCPDef_dTD;TCP_DuplexChannel e_TCPDef_nTD;TCP_DuplexChannel e_TCPDef_lTD;TCP_DuplexChannel 1 0 "TD;TCP_DuplexChannel"
.o 2 0
e_TCPDef_lTD;TCP_DuplexChannel
	update_a 1 0
	create
	update_a 0 2
	pop_a 1
.d 2 0
	jmp e_TCPDef_eaTD;TCP_DuplexChannel
.n 1 e_TCPDef_dTD;TCP_DuplexChannel e_TCPDef_eaTD;TCP_DuplexChannel
.o 1 0
e_TCPDef_nTD;TCP_DuplexChannel
	push_node _cycle_in_spine 1
.o 2 0
e_TCPDef_eaTD;TCP_DuplexChannel
.o 2 0
e_TCPDef_sTD;TCP_DuplexChannel
.o 2 0
s10
	fillh _Nil 0 1
	pop_a 1
.d 1 0
	rtn
.export e_TCPDef_sTD;Port
.export e_TCPDef_eaTD;Port
.descexp e_TCPDef_dTD;Port e_TCPDef_nTD;Port e_TCPDef_lTD;Port 1 0 "TD;Port"
.o 2 0
e_TCPDef_lTD;Port
	update_a 1 0
	create
	update_a 0 2
	pop_a 1
.d 2 0
	jmp e_TCPDef_eaTD;Port
.n 1 e_TCPDef_dTD;Port e_TCPDef_eaTD;Port
.o 1 0
e_TCPDef_nTD;Port
	push_node _cycle_in_spine 1
.o 2 0
e_TCPDef_eaTD;Port
.o 2 0
e_TCPDef_sTD;Port
.o 2 0
s9
	fillh _Nil 0 1
	pop_a 1
.d 1 0
	rtn
.export e_TCPDef_sTD;TCP_Listener
.export e_TCPDef_eaTD;TCP_Listener
.descexp e_TCPDef_dTD;TCP_Listener e_TCPDef_nTD;TCP_Listener e_TCPDef_lTD;TCP_Listener 1 0 "TD;TCP_Listener"
.o 2 0
e_TCPDef_lTD;TCP_Listener
	update_a 1 0
	create
	update_a 0 2
	pop_a 1
.d 2 0
	jmp e_TCPDef_eaTD;TCP_Listener
.n 1 e_TCPDef_dTD;TCP_Listener e_TCPDef_eaTD;TCP_Listener
.o 1 0
e_TCPDef_nTD;TCP_Listener
	push_node _cycle_in_spine 1
.o 2 0
e_TCPDef_eaTD;TCP_Listener
.o 2 0
e_TCPDef_sTD;TCP_Listener
.o 2 0
s8
	fillh _Nil 0 1
	pop_a 1
.d 1 0
	rtn
.export e_TCPDef_sTD;TCP_RChannel
.export e_TCPDef_eaTD;TCP_RChannel
.descexp e_TCPDef_dTD;TCP_RChannel e_TCPDef_nTD;TCP_RChannel e_TCPDef_lTD;TCP_RChannel 1 0 "TD;TCP_RChannel"
.o 2 0
e_TCPDef_lTD;TCP_RChannel
	update_a 1 0
	create
	update_a 0 2
	pop_a 1
.d 2 0
	jmp e_TCPDef_eaTD;TCP_RChannel
.n 1 e_TCPDef_dTD;TCP_RChannel e_TCPDef_eaTD;TCP_RChannel
.o 1 0
e_TCPDef_nTD;TCP_RChannel
	push_node _cycle_in_spine 1
.o 2 0
e_TCPDef_eaTD;TCP_RChannel
.o 2 0
e_TCPDef_sTD;TCP_RChannel
.o 2 0
s7
	fillh _Nil 0 1
	pop_a 1
.d 1 0
	rtn
.export e_TCPDef_sTD;TCP_SChannel
.export e_TCPDef_eaTD;TCP_SChannel
.descexp e_TCPDef_dTD;TCP_SChannel e_TCPDef_nTD;TCP_SChannel e_TCPDef_lTD;TCP_SChannel 1 0 "TD;TCP_SChannel"
.o 2 0
e_TCPDef_lTD;TCP_SChannel
	update_a 1 0
	create
	update_a 0 2
	pop_a 1
.d 2 0
	jmp e_TCPDef_eaTD;TCP_SChannel
.n 1 e_TCPDef_dTD;TCP_SChannel e_TCPDef_eaTD;TCP_SChannel
.o 1 0
e_TCPDef_nTD;TCP_SChannel
	push_node _cycle_in_spine 1
.o 2 0
e_TCPDef_eaTD;TCP_SChannel
.o 2 0
e_TCPDef_sTD;TCP_SChannel
.o 2 0
s6
	fillh _Nil 0 1
	pop_a 1
.d 1 0
	rtn
.export e_TCPDef_stoString;4
.descexp e_TCPDef_dtoString;4 e_TCPDef_ntoString;4 e_TCPDef_ltoString;4 1 0 "toString;4"
.o 2 0
e_TCPDef_itoString;4
	pop_a 1
.d 1 0
	jmp s5
.ai 1 _ e_TCPDef_itoString;4
.o 2 0
e_TCPDef_ltoString;4
	pop_a 1
.d 1 0
	jsr ea5
.o 1 0
	buildh ARRAY 1
.d 1 0
	rtn
.n 1 e_TCPDef_dtoString;4
.o 1 0
e_TCPDef_ntoString;4
	push_node _cycle_in_spine 1
.d 1 0
	jsr ea5
.o 1 0
	fillh ARRAY 1 1
.d 1 0
	rtn
.o 1 0
ea5
	jsr_eval 0
.o 1 0
e_TCPDef_stoString;4
.o 1 0
s5
	push_a 0
	updatepop_a 0 1
.d 1 0
	jsr e_tcp_sunpack_ipaddr
.o 0 1 i
.d 0 1 i
	jmp e_tcp_stoDottedDecimal
.export e_TCPDef_s==;3
.descexp e_TCPDef_d==;3 e_TCPDef_n==;3 e_TCPDef_l==;3 2 0 "==;3"
.o 3 0
e_TCPDef_i==;3
	pop_a 1
	push_r_args 1 1 0
	push_r_args 1 1 0
	update_a 1 3
	update_a 0 2
	pop_a 2
.d 2 0
	jmp s4
.ai 0 a4 e_TCPDef_i==;3
.o 2 0
e_TCPDef_l==;3
	repl_args 1 1
.o 2 0
a4
.d 2 0
	jsr ea4
.o 0 1 b
	buildB_b 0
	pop_b 1
.d 1 0
	rtn
.n 2 e_TCPDef_d==;3
.o 1 0
e_TCPDef_n==;3
	push_node _cycle_in_spine 2
.d 2 0
	jsr ea4
.o 0 1 b
	fillB_b 0 0
	pop_b 1
.d 1 0
	rtn
.o 2 0
e_TCPDef_s==;3
	push_r_args 1 1 0
	push_r_args 1 1 0
	update_a 1 3
	update_a 0 2
	pop_a 2
.d 2 0
	jmp s4
.o 2 0
ea4
	jsr_eval 1
	jsr_eval 0
	push_r_args 1 1 0
	push_r_args 1 1 0
	update_a 1 3
	update_a 0 2
	pop_a 2
.o 2 0
s4
	push_a 1
	update_a 1 2
	updatepop_a 0 1
.d 1 0
	jsr s3
.o 1 0
	push_a 1
	buildh _Nil 0
	update_a 0 3
	pop_a 1
.d 1 0
	jsr s3
.o 1 0
	update_a 1 2
	updatepop_a 0 1
.d 2 0
	jsr eqAC
.o 0 1 b
.d 0 1 b
	rtn
.export e_TCPDef_stoString;2
.descexp e_TCPDef_dtoString;2 e_TCPDef_ntoString;2 e_TCPDef_ltoString;2 1 0 "toString;2"
.o 2 0
e_TCPDef_itoString;2
	pop_a 1
	push_r_args 0 1 0
	update_a 0 1
	pop_a 1
.d 1 0
	jmp s3
.ai 1 _ e_TCPDef_itoString;2
.o 2 0
e_TCPDef_ltoString;2
	pop_a 1
.d 1 0
	jsr ea3
.o 1 0
	buildh ARRAY 1
.d 1 0
	rtn
.n 1 e_TCPDef_dtoString;2
.o 1 0
e_TCPDef_ntoString;2
	push_node _cycle_in_spine 1
.d 1 0
	jsr ea3
.o 1 0
	fillh ARRAY 1 1
.d 1 0
	rtn
.o 1 0
e_TCPDef_stoString;2
	push_r_args 0 1 0
	update_a 0 1
	pop_a 1
.d 1 0
	jmp s3
.o 1 0
ea3
	jsr_eval 0
	repl_r_args 1 0
.o 1 0
s3
.d 1 0
	rtn
.export e_TCPDef_sbyteSeqSize
.descexp e_TCPDef_dbyteSeqSize e_TCPDef_nbyteSeqSize e_TCPDef_lbyteSeqSize 1 0 "byteSeqSize"
.o 2 0
e_TCPDef_lbyteSeqSize
	pop_a 1
.d 1 0
	jsr ea2
.o 0 1 i
	buildI_b 0
	pop_b 1
.d 1 0
	rtn
.n 1 e_TCPDef_dbyteSeqSize
.o 1 0
e_TCPDef_nbyteSeqSize
	push_node _cycle_in_spine 1
.d 1 0
	jsr ea2
.o 0 1 i
	fillI_b 0 0
	pop_b 1
.d 1 0
	rtn
.o 1 0
e_TCPDef_sbyteSeqSize
	push_r_args 0 1 0
	update_a 0 1
	pop_a 1
.d 1 0
	jmp s2
.o 1 0
ea2
	jsr_eval 0
	repl_r_args 1 0
.o 1 0
s2
	push_a 0
	updatepop_a 0 1
	push_arraysize CHAR 0 1
.d 0 1 i
	rtn
.export e_TCPDef_stoByteSeq
.export e_TCPDef_eatoByteSeq
.descexp e_TCPDef_dtoByteSeq e_TCPDef_ntoByteSeq e_TCPDef_ltoByteSeq 2 0 "toByteSeq"
.a 0 a1
.o 2 0
e_TCPDef_ltoByteSeq
	repl_args 1 1
.o 2 0
a1
.d 2 0
	jsr ea1
.o 1 0
	buildhr e_TCPDef_rByteSeq 1 0
.d 1 0
	rtn
.n 2 e_TCPDef_dtoByteSeq e_TCPDef_eatoByteSeq
.o 1 0
e_TCPDef_ntoByteSeq
	push_node _cycle_in_spine 2
.o 2 0
m.1
.d 2 0
	jsr ea1
.o 1 0
	fill_r e_TCPDef_rByteSeq 1 0 1 0 0
	pop_a 1
.d 1 0
	rtn
.o 3 0
e_TCPDef_eatoByteSeq
.d 2 0
	jmp m.1
.o 3 0
e_TCPDef_stoByteSeq
.d 2 0
	jsr s1
.o 1 0
	fill_r e_TCPDef_rByteSeq 1 0 1 0 0
	pop_a 1
.d 1 0
	rtn
.o 2 0
ea1
	jsr_eval 1
	jsr_eval 0
	repl_r_args 1 0
.o 2 0
s1
	push_a 0
	push_a 2
	push_a 1
	update_a 1 2
	update_a 0 1
	pop_a 1
	update_a 1 3
	updatepop_a 0 2
.d 2 0
	jsr_i 1
.o 1 0
.d 1 0
	rtn
