.comp 920 000011110011000
.start _nostart_
.depend "System._CopyFile" "20210430140248"
.depend "System._Posix" "20210430140248"
.depend "System._Pointer" "20210430140248"
.depend "StdCharList" "20210430140248"
.depend "_SystemArray" "20210430140248"
.depend "StdArray" "20210430140248"
.depend "StdEnv" "20210430140248"
.depend "_SystemEnum" "20210430140248"
.depend "StdEnum" "20210430140248"
.depend "StdTuple" "20210430140248"
.depend "StdOrdList" "20210430140248"
.depend "System.File" "20210430140248"
.depend "System.OS" "20210430140248"
.depend "StdFile" "20210430140248"
.depend "System._Time" "20210430140248"
.depend "System.Time" "20210430140248"
.depend "System.OSError" "20210430140248"
.depend "StdString" "20210430140248"
.depend "StdMisc" "20210430140248"
.depend "StdFunctions" "20210430140248"
.depend "_SystemEnumStrict" "20210430140248"
.depend "_SystemStrictLists" "20210430140248"
.depend "StdStrictLists" "20210430140248"
.depend "StdGeneric" "20210430140248"
.depend "Data.GenEq" "20210430140248"
.depend "StdReal" "20210430140248"
.depend "StdChar" "20210430140248"
.depend "StdInt" "20210430140248"
.depend "StdBool" "20210430140248"
.depend "StdClass" "20210430140248"
.depend "StdList" "20210430140248"
.depend "Data.Monoid" "20210430140248"
.depend "Control.Applicative" "20210430140248"
.depend "Control.Monad" "20210430140248"
.depend "Data.Functor" "20210430140248"
.depend "Data.Error" "20210430140248"
.depend "StdOverloaded" "20210430140248"
.depend "_SystemDynamic" "20210430140248"
.depend "System._File" "20210430140248"
.module m_System._File "System._File" "20210430140248"
.endinfo
.impmod _system
.implab _cycle_in_spine
.implab _type_error
.implab _hnf
.impdesc e_system_dind
.implab e_system_nind e_system_eaind
.impdesc e_system_dif
.implab e_system_nif e_system_eaif
.implab e_system_sif
.impdesc e_system_dAP
.implab e_system_nAP e_system_eaAP
.implab e_system_sAP
.impdesc ARRAY
.impdesc _Nil
.impdesc _Cons
.impdesc _Conss
.implab n_Conss ea_Conss
.impdesc _Consts
.implab n_Consts ea_Consts
.impdesc _Conssts
.implab n_Conssts ea_Conssts
.impdesc _Tuple
.impdesc d_S.1
.implab n_S.1 ea_S.1
.impdesc d_S.2
.implab n_S.2 ea_S.2
.impdesc d_S.3
.implab n_S.3 ea_S.3
.impdesc d_S.4
.implab n_S.4 ea_S.4
.impdesc d_S.5
.implab n_S.5 ea_S.5
.impdesc d_S.6
.implab n_S.6 ea_S.6
.implab _driver
.impmod System._CopyFile
.implab e_System._CopyFile_s_copyFile
.impmod System._Posix
.implab e_System._Posix_sstat
.implab e_System._Posix_sunlink
.implab e_System._Posix_srename
.impdesc e_System._Posix_dunpackStat
.implab e_System._Posix_nunpackStat
.implab e_System._Posix_ssizeOfStat
.impmod System._Pointer
.implab e_System._Pointer_spackString
.impmod _SystemArray
.impmod System.OSError
.implab e_System.OSError_sgetLastOSError
.implab e_System.OSError_sgetLastOSErrorCode
.impmod StdInt
.implab e_StdInt_sbitand
.impdesc e_StdInt_d*;9
.implab e_StdInt_n*;9
.implab e_StdInt_s==;16
.impmod StdBool
.implab e_StdBool_snot
.impmod System._Posix
.impdesc e_System._Posix_dStat.st_mode
.implab e_System._Posix_nStat.st_mode
.impdesc e_System._Posix_dStat.st_size
.implab e_System._Posix_nStat.st_size
.impdesc e_System._Posix_dStat.st_blocks
.implab e_System._Posix_nStat.st_blocks
.impdesc e_System._Posix_dStat.st_blksize
.implab e_System._Posix_nStat.st_blksize
.impdesc e_System._Posix_dStat.st_ctimespec
.implab e_System._Posix_nStat.st_ctimespec
.impdesc e_System._Posix_dStat.st_mtimespec
.implab e_System._Posix_nStat.st_mtimespec
.impdesc e_System._Posix_dStat.st_atimespec
.implab e_System._Posix_nStat.st_atimespec
.impmod System.File
.impdesc e_System.File_rFileInfo
.impdesc e_System.File_tFileInfo
.implab e_System.File_cFileInfo
.impmod Data.Error
.impdesc e_Data.Error_dError
.impdesc e_Data.Error_dOk
.impmod _predef
.impdesc e__predef_d_Unit
.export e_System._File_s_moveFile
.descexp e_System._File_d_moveFile e_System._File_n_moveFile e_System._File_l_moveFile 3 0 "_moveFile"
.a 0 a4
.o 2 0 
e_System._File_l_moveFile
	repl_args 2 2
.o 3 0 
a4
.d 3 0 
	jsr ea4
.o 2 0 
	buildh _Tuple 2
.d 1 0 
	rtn 
.n 3 e_System._File_d_moveFile
.o 1 0 
e_System._File_n_moveFile
	push_node _cycle_in_spine 3
.d 3 0 
	jsr ea4
.o 2 0 
	fillh _Tuple 2 2
.d 1 0 
	rtn 
.o 3 0 
ea4
	jsr_eval 2
	jsr_eval 1
	jsr_eval 0
	push_array 1
	push_array 1
	update2pop_a 0 2
.o 3 0 
e_System._File_s_moveFile
.o 3 0 
s4
.d 1 0 
	push_a_jsr 1 e_System._Pointer_spackString
.o 1 0 
.d 1 0 
	push_a_jsr 1 e_System._Pointer_spackString
.o 1 0 
	push_update_a 0 1
	update_a 5 2
.d 3 0 
	buildh0_put_a_jsr _Nil 6 e_System._Posix_srename
.o 1 1 i
	jmp_neI_b 0 0 else.1
	buildh e__predef_d_Unit 0
	buildh e_Data.Error_dOk 1
	update2pop_a 0 3
.d 2 0 
	pop_b_rtn 1
else.1
.d 1 0 
	pop_b_jsr 1 e_System.OSError_sgetLastOSErrorCode
.o 2 0 
	update_a 3 4
	update3pop_a 0 1
s6
	jmp_ne_desc e_Data.Error_dError 1 0 s6.1
	repl_args 1 1
	jsr_eval 0
	eqI_a 18 0
	jmp_false case.4
	update_a 2 0
	push_update_a 3 2
	updates2_a 0 2 3
.d 3 0 
	pop_a_jsr 1 e_System._CopyFile_s_copyFile
.o 2 0 
.d 3 0 
	jmp s5
case.4
	updatepop_a 1 3
.d 1 0 
	jmp e_System.OSError_sgetLastOSError
s6.1
	pushD m_System._File
	pushD x_6
.d 0 2 ii
	pop_a_jmp 4 _match_error
.string x_6 "<case>[line:41];7;54"
.o 3 0 
s5
case.5
	jmp_ne_desc e_Data.Error_dOk 1 0 case.6
	push_args 0 1 1
	jsr_eval 0
	push_a 3
	update_a 3 1
.d 2 0 
	buildh0_put_a_jsr _Nil 5 s2
.o 1 1 b
	push_b 0
	jmp_true else.8
	updatepop_a 0 3
.d 1 0 
	pop_b_jmp 1 e_System.OSError_sgetLastOSError
else.8
	buildh e__predef_d_Unit 0
	buildh e_Data.Error_dOk 1
	update2pop_a 0 3
.d 2 0 
	pop_b_rtn 1
case.6
	update2pop_a 0 1
.d 2 0 
	rtn 
.export e_System._File_s_getFileInfo
.descexp e_System._File_d_getFileInfo e_System._File_n_getFileInfo e_System._File_l_getFileInfo 2 0 "_getFileInfo"
.a 0 a3
.o 2 0 
e_System._File_l_getFileInfo
	repl_args 1 1
.o 2 0 
a3
.d 2 0 
	jsr ea3
.o 2 0 
	buildh _Tuple 2
.d 1 0 
	rtn 
.n 2 e_System._File_d_getFileInfo
.o 1 0 
e_System._File_n_getFileInfo
	push_node _cycle_in_spine 2
.d 2 0 
	jsr ea3
.o 2 0 
	fillh _Tuple 2 2
.d 1 0 
	rtn 
.o 2 0 
ea3
	jsr_eval 1
	jsr_eval 0
	push_array 0
	put_a 1
.o 2 0 
e_System._File_s_getFileInfo
.o 2 0 
s3
.d 0 0 
	jsr e_System._Posix_ssizeOfStat
.o 0 1 i
	pushC '\000'
	swap_b1 
	create_array CHAR 0 1
	swap_a1 
.d 1 0 
	jsr e_System._Pointer_spackString
.o 1 0 
	push_update_a 0 1
	exchange_a 3 2
.d 3 0 
	jsr e_System._Posix_sstat
.o 1 1 i
	jmp_eqI_b 0 0 else.9
	put_a 1
.d 1 0 
	pop_b_jmp 1 e_System.OSError_sgetLastOSError
else.9
	push_a 1
	buildh ARRAY 1
	build e_System._Posix_dunpackStat 1 e_System._Posix_nunpackStat
	buildo1 e_System._Posix_nStat.st_size 0
	buildo1 e_System._Posix_nStat.st_blksize 1
	buildo1 e_System._Posix_nStat.st_blocks 2
	build e_StdInt_d*;9 2 e_StdInt_n*;9
	buildo1 e_System._Posix_nStat.st_atimespec 2
	buildo1 e_System._Posix_nStat.st_mtimespec 3
	buildo1 e_System._Posix_nStat.st_ctimespec 4
	buildo1 e_System._Posix_nStat.st_mode 5
	build e_System._File_d_f0.39 1 e_System._File_n_f0.39
	build e_System.File_tFileInfo 6 e_System.File_cFileInfo
	buildh e_Data.Error_dOk 1
	updates2pop_a 0 2 3
.d 2 0 
	pop_b_rtn 1
.export e_System._File_d_f0.39
.export e_System._File_n_f0.39
.descn e_System._File_d_f0.39 e_System._File_n_f0.39 1 0 "_f0.39"
.n 1 e_System._File_d_f0.39 ea39
.o 1 0 
e_System._File_n_f0.39
	push_node _cycle_in_spine 1
.o 2 0 
ea39
.o 2 0 
s39
	jsr_eval 0
	pushI_a 0
	andIi 61440
	pushI 16384
	swap_b1 
	pop_a 1
	eqI
	fillB_b 0 0
.d 1 0 
	pop_b_rtn 1
.export e_System._File_s_deleteFile
.descexp e_System._File_d_deleteFile e_System._File_n_deleteFile e_System._File_l_deleteFile 2 0 "_deleteFile"
.a 0 a2
.o 2 0 
e_System._File_l_deleteFile
	repl_args 1 1
.o 2 0 
a2
.d 2 0 
	jsr ea2
.o 1 1 b
	push_a 0
	buildB_b 0
	buildh _Tuple 2
	put_a 1
.d 1 0 
	pop_b_rtn 1
.n 2 e_System._File_d_deleteFile
.o 1 0 
e_System._File_n_deleteFile
	push_node _cycle_in_spine 2
.d 2 0 
	jsr ea2
.o 1 1 b
	push_a 0
	buildB_b 0
	fillh _Tuple 2 3
.d 1 0 
	pop_ab_rtn 1 1
.o 2 0 
ea2
	jsr_eval 1
	jsr_eval 0
	push_array 0
	put_a 1
.o 2 0 
e_System._File_s_deleteFile
.o 2 0 
s2
.d 1 0 
	jsr e_System._Pointer_spackString
.o 1 0 
.d 2 0 
	jsr e_System._Posix_sunlink
.o 1 1 i
	eqI_b 0 0
	put_b 1
.d 1 1 b
	rtn 
.export e_System._File_s_fileExists
.descexp e_System._File_d_fileExists e_System._File_n_fileExists e_System._File_l_fileExists 2 0 "_fileExists"
.a 0 a1
.o 2 0 
e_System._File_l_fileExists
	repl_args 1 1
.o 2 0 
a1
.d 2 0 
	jsr ea1
.o 1 1 b
	push_a 0
	buildB_b 0
	buildh _Tuple 2
	put_a 1
.d 1 0 
	pop_b_rtn 1
.n 2 e_System._File_d_fileExists
.o 1 0 
e_System._File_n_fileExists
	push_node _cycle_in_spine 2
.d 2 0 
	jsr ea1
.o 1 1 b
	push_a 0
	buildB_b 0
	fillh _Tuple 2 3
.d 1 0 
	pop_ab_rtn 1 1
.o 2 0 
ea1
	jsr_eval 1
	jsr_eval 0
	push_array 0
	put_a 1
.o 2 0 
e_System._File_s_fileExists
.o 2 0 
s1
.d 0 0 
	jsr e_System._Posix_ssizeOfStat
.o 0 1 i
	pushC '\000'
	swap_b1 
	create_array CHAR 0 1
	push_a 1
.d 1 0 
	buildh0_put_a_jsr _Nil 3 e_System._Pointer_spackString
.o 1 0 
	update2pop_a 0 1
.d 3 0 
	jsr e_System._Posix_sstat
.o 1 1 i
	eqI_b 0 0
	put_b 1
.d 1 1 b
	rtn 
.impmod _system
.implab _match_error
