.comp 920 000011110011000
.start _nostart_
.depend "System._Posix" "20210430140248"
.depend "System._Pointer" "20210430140248"
.depend "Data.Tuple" "20210430140248"
.depend "StdCharList" "20210430140248"
.depend "_SystemArray" "20210430140248"
.depend "StdArray" "20210430140248"
.depend "StdEnv" "20210430140248"
.depend "_SystemEnum" "20210430140248"
.depend "StdEnum" "20210430140248"
.depend "StdTuple" "20210430140248"
.depend "StdOrdList" "20210430140248"
.depend "Control.Monad.Trans" "20210430140248"
.depend "StdMaybe" "20210430140248"
.depend "Data.Maybe" "20210430140248"
.depend "_SystemStrictMaybes" "20210430140248"
.depend "System.Process" "20210430140248"
.depend "System.OS" "20210430140248"
.depend "Text.GenJSON" "20210430140248"
.depend "Data.Bifunctor" "20210430140248"
.depend "Data.Either" "20210430140248"
.depend "StdFile" "20210430140248"
.depend "System._Time" "20210430140248"
.depend "System.Time" "20210430140248"
.depend "System.OSError" "20210430140248"
.depend "System.FilePath" "20210430140248"
.depend "StdString" "20210430140248"
.depend "Control.Monad.Fail" "20210430140248"
.depend "Data.Traversable" "20210430140248"
.depend "StdMisc" "20210430140248"
.depend "StdOverloadedList" "20210430140248"
.depend "Data.List" "20210430140248"
.depend "Data.Foldable" "20210430140248"
.depend "StdFunctions" "20210430140248"
.depend "StdFunc" "20210430140248"
.depend "_SystemEnumStrict" "20210430140248"
.depend "_SystemStrictLists" "20210430140248"
.depend "StdStrictLists" "20210430140248"
.depend "StdGeneric" "20210430140248"
.depend "Data.GenEq" "20210430140248"
.depend "StdReal" "20210430140248"
.depend "StdChar" "20210430140248"
.depend "StdInt" "20210430140248"
.depend "StdBool" "20210430140248"
.depend "StdClass" "20210430140248"
.depend "StdList" "20210430140248"
.depend "Data.Monoid" "20210430140248"
.depend "Control.Applicative" "20210430140248"
.depend "Control.Monad" "20210430140248"
.depend "Data.Functor" "20210430140248"
.depend "Data.Error" "20210430140248"
.depend "StdOverloaded" "20210430140248"
.depend "_SystemDynamic" "20210430140248"
.depend "System._Process" "20210430140248"
.module m_System._Process "System._Process" "20210430140248"
.endinfo
.impmod _system
.implab _cycle_in_spine
.implab _type_error
.implab _hnf
.impdesc e_system_dind
.implab e_system_nind e_system_eaind
.impdesc e_system_dif
.implab e_system_nif e_system_eaif
.implab e_system_sif
.impdesc e_system_dAP
.implab e_system_nAP e_system_eaAP
.implab e_system_sAP
.impdesc ARRAY
.impdesc _Nil
.impdesc _Cons
.impdesc _Conss
.implab n_Conss ea_Conss
.impdesc _Consts
.implab n_Consts ea_Consts
.impdesc _Conssts
.implab n_Conssts ea_Conssts
.impdesc _Tuple
.impdesc d_S.1
.implab n_S.1 ea_S.1
.impdesc d_S.2
.implab n_S.2 ea_S.2
.impdesc d_S.3
.implab n_S.3 ea_S.3
.impdesc d_S.4
.implab n_S.4 ea_S.4
.impdesc d_S.5
.implab n_S.5 ea_S.5
.impdesc d_S.6
.implab n_S.6 ea_S.6
.implab _driver
.impmod System._Posix
.implab e_System._Posix_serrno
.implab e_System._Posix_sfork
.implab e_System._Posix_sexecvp
.implab e_System._Posix_swaitpid
.implab e_System._Posix_sexit
.implab e_System._Posix_schdir
.implab e_System._Posix_spipe
.implab e_System._Posix_sposix_openpt
.implab e_System._Posix_sgrantpt
.implab e_System._Posix_sunlockpt
.implab e_System._Posix_sptsname
.implab e_System._Posix_sopen
.implab e_System._Posix_stcgetattr
.implab e_System._Posix_scfmakeraw
.implab e_System._Posix_stcsetattr
.implab e_System._Posix_ssetsid
.implab e_System._Posix_sdup2
.implab e_System._Posix_sclose
.implab e_System._Posix_sioctl
.implab e_System._Posix_sfcntlArg
.implab e_System._Posix_sread
.implab e_System._Posix_swrite
.implab e_System._Posix_sselect_
.implab e_System._Posix_skill
.implab e_System._Posix_smalloc
.implab e_System._Posix_smallocSt
.implab e_System._Posix_sfreeSt
.implab e_System._Posix_smemcpy_string_to_pointer
.implab e_System._Posix_spipeBufferSize
.impmod System._Pointer
.implab e_System._Pointer_sreadIntElemOffset
.implab e_System._Pointer_sreadInt4S
.implab e_System._Pointer_swriteInt
.implab e_System._Pointer_swriteIntElemOffset
.implab e_System._Pointer_sderefCharArray
.implab e_System._Pointer_spackString
.impdesc e_System._Pointer_dreadP
.implab e_System._Pointer_sreadP
.impmod Data.Tuple
.implab e_Data.Tuple_sappFst
.impmod _SystemArray
.impmod System.Process
.implab e_System.Process_sreadPipeBlocking
.implab e_System.Process_swritePipe
.impmod Text.GenJSON
.implab e_Text.GenJSON_sJSONEncode_Int;12
.implab e_Text.GenJSON_sJSONDecode_Int;42
.impmod System.OSError
.implab e_System.OSError_sgetLastOSError
.implab e_System.OSError_sosErrorCodeToOSError
.impmod StdString
.implab e_StdString_s==;2
.implab e_StdString_stoString;5
.implab e_StdString_s+++;11
.impmod StdMisc
.implab e_StdMisc_sabort
.implab e_StdMisc_sundef
.impmod Data.List
.impdesc e_Data.List_dfold;97
.impdesc e_Data.List_dfoldMap;98
.impdesc e_Data.List_dfoldl;99
.impdesc e_Data.List_dfoldl1;100
.impdesc e_Data.List_dfoldl`;101
.impdesc e_Data.List_dfoldr;102
.impdesc e_Data.List_dfoldr1;103
.impdesc e_Data.List_dfoldr`;104
.impmod Data.Foldable
.implab e_Data.Foldable_smaximum
.impmod StdFunctions
.implab e_StdFunctions_sid
.implab e_StdFunctions_sconst
.impmod StdFunc
.impdesc e_StdFunc_dseq
.implab e_StdFunc_sseq
.implab e_StdFunc_nseq _
.implab e_StdFunc_sseqList
.impmod StdInt
.implab e_StdInt_sbitor
.implab e_StdInt_sbitand
.implab e_StdInt_s<<
.implab e_StdInt_s>>
.implab e_StdInt_s+;6
.implab e_StdInt_s/;10
.implab e_StdInt_sone;11
.implab e_StdInt_s==;16
.impdesc e_StdInt_d<;17
.implab e_StdInt_s<;17
.implab e_StdInt_stoInt;23
.implab e_StdInt_sfromInt;24
.implab e_StdInt_srem;28
.impmod StdBool
.implab e_StdBool_snot
.impmod StdList
.implab e_StdList_sand
.implab e_StdList_slength;47
.impmod Data.Error
.implab e_Data.Error_sisError
.impdesc e_Data.Error_dfromOk
.implab e_Data.Error_sfromOk
.implab e_Data.Error_nfromOk _
.implab e_Data.Error_sliftError
.implab e_Data.Error_sfmap;13
.impmod System.Process
.impdesc e_System.Process_rProcessIO
.impdesc e_System.Process_tProcessIO
.implab e_System.Process_cProcessIO
.impdesc e_System.Process_dProcessPtyOptions.childInNewSession
.implab e_System.Process_nProcessPtyOptions.childInNewSession
.impmod Data.Foldable
.impdesc e_Data.Foldable_rFoldable;
.impmod StdClass
.impdesc e_StdClass_rOrd;
.impmod Data.Error
.impdesc e_Data.Error_dError
.impdesc e_Data.Error_dOk
.impmod StdOverloaded
.impdesc e_StdOverloaded_r<;
.export e_System._Process_rProcessHandle
.record e_System._Process_rProcessHandle i 0 1 "ProcessHandle"
.descexp e_System._Process_tProcessHandle e_System._Process_cProcessHandle _hnf 1 1 "ProcessHandle"
.n 1 e_System._Process_tProcessHandle
.o 1 0
e_System._Process_cProcessHandle
	push_node _cycle_in_spine 1
	jsr_eval 0
	pushI_a 0
	pop_a 1
.impmod System._Process
.impdesc e_System._Process_rProcessHandle
	fill_r e_System._Process_rProcessHandle 0 1 0 0 0
	pop_b 1
.d 1 0
	rtn
.export e_System._Process_dProcessHandle.pid
.export e_System._Process_nProcessHandle.pid
.descs e_System._Process_dProcessHandle.pid e_System._Process_nProcessHandle.pid INT 1 0 "ProcessHandle.pid"
.n -3 e_System._Process_dProcessHandle.pid
.o 1 0
e_System._Process_nProcessHandle.pid
	push_node _cycle_in_spine 1
	jsr_eval 0
	push_r_args_b 0 0 1 1 1
	pop_a 1
	fillI_b 0 0
	pop_b 1
.d 1 0
	rtn
.export e_System._Process_sTD;ReadPipe
.export e_System._Process_eaTD;ReadPipe
.descexp e_System._Process_dTD;ReadPipe e_System._Process_nTD;ReadPipe e_System._Process_lTD;ReadPipe 1 0 "TD;ReadPipe"
.o 2 0
e_System._Process_lTD;ReadPipe
	update_a 1 0
	create
	update_a 0 2
	pop_a 1
.d 2 0
	jmp e_System._Process_eaTD;ReadPipe
.n 1 e_System._Process_dTD;ReadPipe e_System._Process_eaTD;ReadPipe
.o 1 0
e_System._Process_nTD;ReadPipe
	push_node _cycle_in_spine 1
.o 2 0
e_System._Process_eaTD;ReadPipe
.o 2 0
e_System._Process_sTD;ReadPipe
.o 2 0
s21
	fillh _Nil 0 1
	pop_a 1
.d 1 0
	rtn
.export e_System._Process_sTD;WritePipe
.export e_System._Process_eaTD;WritePipe
.descexp e_System._Process_dTD;WritePipe e_System._Process_nTD;WritePipe e_System._Process_lTD;WritePipe 1 0 "TD;WritePipe"
.o 2 0
e_System._Process_lTD;WritePipe
	update_a 1 0
	create
	update_a 0 2
	pop_a 1
.d 2 0
	jmp e_System._Process_eaTD;WritePipe
.n 1 e_System._Process_dTD;WritePipe e_System._Process_eaTD;WritePipe
.o 1 0
e_System._Process_nTD;WritePipe
	push_node _cycle_in_spine 1
.o 2 0
e_System._Process_eaTD;WritePipe
.o 2 0
e_System._Process_sTD;WritePipe
.o 2 0
s20
	fillh _Nil 0 1
	pop_a 1
.d 1 0
	rtn
.export e_System._Process_sTD;ProcessHandle
.export e_System._Process_eaTD;ProcessHandle
.descexp e_System._Process_dTD;ProcessHandle e_System._Process_nTD;ProcessHandle e_System._Process_lTD;ProcessHandle 1 0 "TD;ProcessHandle"
.o 2 0
e_System._Process_lTD;ProcessHandle
	update_a 1 0
	create
	update_a 0 2
	pop_a 1
.d 2 0
	jmp e_System._Process_eaTD;ProcessHandle
.n 1 e_System._Process_dTD;ProcessHandle e_System._Process_eaTD;ProcessHandle
.o 1 0
e_System._Process_nTD;ProcessHandle
	push_node _cycle_in_spine 1
.o 2 0
e_System._Process_eaTD;ProcessHandle
.o 2 0
e_System._Process_sTD;ProcessHandle
.o 2 0
s19
	fillh _Nil 0 1
	pop_a 1
.d 1 0
	rtn
.export e_System._Process_sJSONDecode_ReadPipe;17
.descexp e_System._Process_dJSONDecode_ReadPipe;17 e_System._Process_nJSONDecode_ReadPipe;17 e_System._Process_lJSONDecode_ReadPipe;17 2 0 "JSONDecode_ReadPipe;17"
.o 2 1 b
e_System._Process_iJSONDecode_ReadPipe;17
	pop_a 1
.d 1 1 b
	jmp s18
.ai 0 a18 e_System._Process_iJSONDecode_ReadPipe;17
.o 2 0
e_System._Process_lJSONDecode_ReadPipe;17
	repl_args 1 1
.o 2 0
a18
.d 2 0
	jsr ea18
.o 2 0
	push_a 1
	push_a 1
	buildh _Tuple 2
	updatepop_a 0 2
.d 1 0
	rtn
.n 2 e_System._Process_dJSONDecode_ReadPipe;17
.o 1 0
e_System._Process_nJSONDecode_ReadPipe;17
	push_node _cycle_in_spine 2
.d 2 0
	jsr ea18
.o 2 0
	push_a 1
	push_a 1
	fillh _Tuple 2 4
	pop_a 2
.d 1 0
	rtn
.o 2 0
ea18
	jsr_eval 1
	jsr_eval 0
	pushB_a 0
	pop_a 1
.o 1 1 b
e_System._Process_sJSONDecode_ReadPipe;17
.o 1 1 b
s18
	push_a 0
	push_b 0
	updatepop_b 0 1
	updatepop_a 0 1
.d 1 1 b
	jsr s68
.o 2 0
.d 2 0
	jmp s158
.o 2 0
s62
	eq_desc _Just 1 0
	jmp_true case.1
	jmp case.2
case.1
	repl_args 1 1
	pushI_a 0
	pop_a 1
.d 0 1 i
	jsr s56
.o 0 1 i
	buildI_b 0
	pop_b 1
	fillh _Just 1 1
.d 1 0
	rtn
case.2
	fillh _None 0 1
	pop_a 1
.d 1 0
	rtn
.o 0 1 i
s56
.d 0 1 i
	rtn
.export e_System._Process_sJSONDecode_WritePipe;16
.descexp e_System._Process_dJSONDecode_WritePipe;16 e_System._Process_nJSONDecode_WritePipe;16 e_System._Process_lJSONDecode_WritePipe;16 2 0 "JSONDecode_WritePipe;16"
.o 2 1 b
e_System._Process_iJSONDecode_WritePipe;16
	pop_a 1
.d 1 1 b
	jmp s17
.ai 0 a17 e_System._Process_iJSONDecode_WritePipe;16
.o 2 0
e_System._Process_lJSONDecode_WritePipe;16
	repl_args 1 1
.o 2 0
a17
.d 2 0
	jsr ea17
.o 2 0
	push_a 1
	push_a 1
	buildh _Tuple 2
	updatepop_a 0 2
.d 1 0
	rtn
.n 2 e_System._Process_dJSONDecode_WritePipe;16
.o 1 0
e_System._Process_nJSONDecode_WritePipe;16
	push_node _cycle_in_spine 2
.d 2 0
	jsr ea17
.o 2 0
	push_a 1
	push_a 1
	fillh _Tuple 2 4
	pop_a 2
.d 1 0
	rtn
.o 2 0
ea17
	jsr_eval 1
	jsr_eval 0
	pushB_a 0
	pop_a 1
.o 1 1 b
e_System._Process_sJSONDecode_WritePipe;16
.o 1 1 b
s17
	push_a 0
	push_b 0
	updatepop_b 0 1
	updatepop_a 0 1
.d 1 1 b
	jsr s68
.o 2 0
.d 2 0
	jmp s157
.o 1 1 b
s68
	push_a 0
	pushB FALSE
	updatepop_b 0 1
.d 1 1 b
	jsr e_Text.GenJSON_sJSONDecode_Int;42
.o 2 0
	push_a 2
	push_a 2
	update_a 1 3
	update_a 2 1
	update_a 0 2
	pop_a 1
	update_a 2 3
	update_a 1 2
	updatepop_a 0 1
.d 3 0
	jmp s156
.o 2 0
s60
	eq_desc _Just 1 0
	jmp_true case.3
	jmp case.4
case.3
	repl_args 1 1
	pushI_a 0
	pop_a 1
.d 0 1 i
	jsr s54
.o 0 1 i
	buildI_b 0
	pop_b 1
	fillh _Just 1 1
.d 1 0
	rtn
case.4
	fillh _None 0 1
	pop_a 1
.d 1 0
	rtn
.o 0 1 i
s54
.d 0 1 i
	rtn
.export e_System._Process_sJSONEncode_ReadPipe;15
.export e_System._Process_eaJSONEncode_ReadPipe;15
.descexp e_System._Process_dJSONEncode_ReadPipe;15 e_System._Process_nJSONEncode_ReadPipe;15 e_System._Process_lJSONEncode_ReadPipe;15 2 0 "JSONEncode_ReadPipe;15"
.o 3 1 b
e_System._Process_iJSONEncode_ReadPipe;15
	pop_a 1
	pushI_a 0
	pop_a 1
	push_b 1
	update_b 1 2
	update_b 0 1
	pop_b 1
.d 1 2 bi
	jmp s16
.ai 2 e_System._Process_eaJSONEncode_ReadPipe;15 e_System._Process_iJSONEncode_ReadPipe;15
.o 2 0
e_System._Process_lJSONEncode_ReadPipe;15
	push_args 0 1 1
	update_a 2 1
	create
	update_a 0 3
	pop_a 1
.d 3 0
	jmp e_System._Process_eaJSONEncode_ReadPipe;15
.n 2 e_System._Process_dJSONEncode_ReadPipe;15 e_System._Process_eaJSONEncode_ReadPipe;15
.o 1 0
e_System._Process_nJSONEncode_ReadPipe;15
	push_node _cycle_in_spine 2
.o 3 0
e_System._Process_eaJSONEncode_ReadPipe;15
	jsr_eval 1
	jsr_eval 0
	pushI_a 1
	pushB_a 0
	pop_a 2
.o 1 2 bi
e_System._Process_sJSONEncode_ReadPipe;15
.o 1 2 bi
s16
	push_b 1
.d 0 1 i
	jsr s57
.o 0 1 i
	push_b 1
	update_b 1 3
	updatepop_b 0 2
.d 1 2 bi
	jmp s67
.o 0 1 i
s57
.d 0 1 i
	rtn
.export e_System._Process_sJSONEncode_WritePipe;14
.export e_System._Process_eaJSONEncode_WritePipe;14
.descexp e_System._Process_dJSONEncode_WritePipe;14 e_System._Process_nJSONEncode_WritePipe;14 e_System._Process_lJSONEncode_WritePipe;14 2 0 "JSONEncode_WritePipe;14"
.o 3 1 b
e_System._Process_iJSONEncode_WritePipe;14
	pop_a 1
	pushI_a 0
	pop_a 1
	push_b 1
	update_b 1 2
	update_b 0 1
	pop_b 1
.d 1 2 bi
	jmp s15
.ai 2 e_System._Process_eaJSONEncode_WritePipe;14 e_System._Process_iJSONEncode_WritePipe;14
.o 2 0
e_System._Process_lJSONEncode_WritePipe;14
	push_args 0 1 1
	update_a 2 1
	create
	update_a 0 3
	pop_a 1
.d 3 0
	jmp e_System._Process_eaJSONEncode_WritePipe;14
.n 2 e_System._Process_dJSONEncode_WritePipe;14 e_System._Process_eaJSONEncode_WritePipe;14
.o 1 0
e_System._Process_nJSONEncode_WritePipe;14
	push_node _cycle_in_spine 2
.o 3 0
e_System._Process_eaJSONEncode_WritePipe;14
	jsr_eval 1
	jsr_eval 0
	pushI_a 1
	pushB_a 0
	pop_a 2
.o 1 2 bi
e_System._Process_sJSONEncode_WritePipe;14
.o 1 2 bi
s15
	push_b 1
.d 0 1 i
	jsr s55
.o 0 1 i
	push_b 1
	update_b 1 3
	updatepop_b 0 2
.d 1 2 bi
	jmp s67
.o 1 2 bi
s67
	push_b 1
	pushB FALSE
	update_b 1 3
	updatepop_b 0 2
.d 1 2 bi
	jmp e_Text.GenJSON_sJSONEncode_Int;12
.o 0 1 i
s55
.d 0 1 i
	rtn
.export e_System._Process_sclosePipe;13
.descexp e_System._Process_dclosePipe;13 e_System._Process_nclosePipe;13 e_System._Process_lclosePipe;13 2 0 "closePipe;13"
.o 3 0
e_System._Process_iclosePipe;13
	pop_a 1
	pushI_a 0
	pop_a 1
.d 1 1 i
	jmp s14
.ai 0 a14 e_System._Process_iclosePipe;13
.o 2 0
e_System._Process_lclosePipe;13
	repl_args 1 1
.o 2 0
a14
.d 2 0
	jsr ea14
.o 2 0
	push_a 1
	push_a 1
	buildh _Tuple 2
	updatepop_a 0 2
.d 1 0
	rtn
.n 2 e_System._Process_dclosePipe;13
.o 1 0
e_System._Process_nclosePipe;13
	push_node _cycle_in_spine 2
.d 2 0
	jsr ea14
.o 2 0
	push_a 1
	push_a 1
	fillh _Tuple 2 4
	pop_a 2
.d 1 0
	rtn
.o 2 0
ea14
	jsr_eval 1
	jsr_eval 0
	pushI_a 0
	pop_a 1
.o 1 1 i
e_System._Process_sclosePipe;13
.o 1 1 i
s14
	push_a 0
	push_b 0
	updatepop_a 0 1
	updatepop_b 0 1
.d 1 1 i
	jmp s22
.export e_System._Process_sclosePipe;12
.descexp e_System._Process_dclosePipe;12 e_System._Process_nclosePipe;12 e_System._Process_lclosePipe;12 2 0 "closePipe;12"
.o 3 0
e_System._Process_iclosePipe;12
	pop_a 1
	pushI_a 0
	pop_a 1
.d 1 1 i
	jmp s13
.ai 0 a13 e_System._Process_iclosePipe;12
.o 2 0
e_System._Process_lclosePipe;12
	repl_args 1 1
.o 2 0
a13
.d 2 0
	jsr ea13
.o 2 0
	push_a 1
	push_a 1
	buildh _Tuple 2
	updatepop_a 0 2
.d 1 0
	rtn
.n 2 e_System._Process_dclosePipe;12
.o 1 0
e_System._Process_nclosePipe;12
	push_node _cycle_in_spine 2
.d 2 0
	jsr ea13
.o 2 0
	push_a 1
	push_a 1
	fillh _Tuple 2 4
	pop_a 2
.d 1 0
	rtn
.o 2 0
ea13
	jsr_eval 1
	jsr_eval 0
	pushI_a 0
	pop_a 1
.o 1 1 i
e_System._Process_sclosePipe;12
.o 1 1 i
s13
	push_a 0
	push_b 0
	updatepop_a 0 1
	updatepop_b 0 1
.d 1 1 i
	jmp s22
.o 1 1 i
s22
	push_a 0
	push_b 0
	updatepop_b 0 1
	updatepop_a 0 1
.d 1 1 i
	jsr e_System._Posix_sclose
.o 1 1 i
	pushI 0
	push_b 1
	eqI
	notB
	jmp_false else.5
	push_a 0
	updatepop_a 0 1
	pop_b 1
.d 1 0
	jmp e_System.OSError_sgetLastOSError
else.5
	buildh e__predef_d_Unit 0
	buildh e_Data.Error_dOk 1
	push_a 1
	push_a 1
	update_a 1 2
	update_a 0 1
	pop_a 1
	update_a 1 2
	updatepop_a 0 1
	pop_b 1
.d 2 0
	rtn
.export e_System._Process_s_terminateProcess
.descexp e_System._Process_d_terminateProcess e_System._Process_n_terminateProcess e_System._Process_l_terminateProcess 3 0 "_terminateProcess"
.a 0 a12
.o 2 0
e_System._Process_l_terminateProcess
	repl_args 2 2
.o 3 0
a12
.d 3 0
	jsr ea12
.o 2 0
	push_a 1
	push_a 1
	buildh _Tuple 2
	updatepop_a 0 2
.d 1 0
	rtn
.n 3 e_System._Process_d_terminateProcess
.o 1 0
e_System._Process_n_terminateProcess
	push_node _cycle_in_spine 3
.d 3 0
	jsr ea12
.o 2 0
	push_a 1
	push_a 1
	fillh _Tuple 2 4
	pop_a 2
.d 1 0
	rtn
.o 3 0
ea12
	jsr_eval 2
	jsr_eval 1
	jsr_eval 0
	pushI_a 1
	repl_r_args 0 1
	pop_a 1
.o 1 2 ii
e_System._Process_s_terminateProcess
.o 1 2 ii
s12
	push_a 0
	push_b 1
	push_b 1
	updatepop_a 0 1
.d 1 2 ii
	jsr e_System._Posix_skill
.o 1 1 i
	pushI -1
	push_b 1
	eqI
	jmp_false else.6
	push_a 0
	updatepop_a 0 1
	pop_b 3
.d 1 0
	jmp e_System.OSError_sgetLastOSError
else.6
	pushI 0
	pushI 1
	update_b 1 2
	updatepop_b 0 1
	create_array INT 0 1
	push_a 1
	pushI 0
	push_b 1
	push_a 1
	update_a 1 2
	update_a 0 1
	pop_a 1
	update_b 1 3
	updatepop_b 0 2
	update_a 1 2
	updatepop_a 0 1
.d 2 2 ii
	jsr e_System._Posix_swaitpid
.o 1 1 i
	pushI -1
	push_b 1
	eqI
	jmp_false else.7
	push_a 0
	updatepop_a 0 1
	pop_b 1
.d 1 0
	jmp e_System.OSError_sgetLastOSError
else.7
	buildh e__predef_d_Unit 0
	buildh e_Data.Error_dOk 1
	push_a 1
	push_a 1
	update_a 1 2
	update_a 0 1
	pop_a 1
	update_a 1 2
	updatepop_a 0 1
	pop_b 1
.d 2 0
	rtn
.export e_System._Process_s_waitForProcess
.descexp e_System._Process_d_waitForProcess e_System._Process_n_waitForProcess e_System._Process_l_waitForProcess 2 0 "_waitForProcess"
.a 0 a11
.o 2 0
e_System._Process_l_waitForProcess
	repl_args 1 1
.o 2 0
a11
.d 2 0
	jsr ea11
.o 2 0
	push_a 1
	push_a 1
	buildh _Tuple 2
	updatepop_a 0 2
.d 1 0
	rtn
.n 2 e_System._Process_d_waitForProcess
.o 1 0
e_System._Process_n_waitForProcess
	push_node _cycle_in_spine 2
.d 2 0
	jsr ea11
.o 2 0
	push_a 1
	push_a 1
	fillh _Tuple 2 4
	pop_a 2
.d 1 0
	rtn
.o 2 0
ea11
	jsr_eval 1
	jsr_eval 0
	repl_r_args 0 1
.o 1 1 i
e_System._Process_s_waitForProcess
.o 1 1 i
s11
	pushI 0
	pushI 1
	create_array INT 0 1
	push_a 1
	pushI 0
	push_a 1
	push_b 1
	update_a 2 3
	update_a 1 2
	updatepop_a 0 1
.d 2 2 ii
	jsr e_System._Posix_swaitpid
.o 1 1 i
	push_b 1
	push_b 1
	eqI
	jmp_false else.8
	push_a 1
	build e_System._Process_d_f0.159 1 e_System._Process_n_f0.159
	buildh e_Data.Error_dOk 1
	push_a 1
	push_a 1
	update_a 1 2
	update_a 0 1
	pop_a 1
	update_a 1 3
	updatepop_a 0 2
	pop_b 2
.d 2 0
	rtn
else.8
	push_a 0
	updatepop_a 0 2
	pop_b 2
.d 1 0
	jmp e_System.OSError_sgetLastOSError
.export e_System._Process_d_f0.159
.export e_System._Process_n_f0.159
.descn e_System._Process_d_f0.159 e_System._Process_n_f0.159 1 0 "_f0.159"
.n 1 e_System._Process_d_f0.159 ea159
.o 1 0
e_System._Process_n_f0.159
	push_node _cycle_in_spine 1
.o 2 0
ea159
.o 2 0
s159
	pushI 0
	push_a 0
	updatepop_a 0 1
	select INT 0 1
.d 0 1 i
	jsr s27
.o 0 1 i
	fillI_b 0 0
	pop_b 1
.d 1 0
	rtn
.export e_System._Process_s_checkProcess
.descexp e_System._Process_d_checkProcess e_System._Process_n_checkProcess e_System._Process_l_checkProcess 2 0 "_checkProcess"
.a 0 a10
.o 2 0
e_System._Process_l_checkProcess
	repl_args 1 1
.o 2 0
a10
.d 2 0
	jsr ea10
.o 2 0
	push_a 1
	push_a 1
	buildh _Tuple 2
	updatepop_a 0 2
.d 1 0
	rtn
.n 2 e_System._Process_d_checkProcess
.o 1 0
e_System._Process_n_checkProcess
	push_node _cycle_in_spine 2
.d 2 0
	jsr ea10
.o 2 0
	push_a 1
	push_a 1
	fillh _Tuple 2 4
	pop_a 2
.d 1 0
	rtn
.o 2 0
ea10
	jsr_eval 1
	jsr_eval 0
	repl_r_args 0 1
.o 1 1 i
e_System._Process_s_checkProcess
.o 1 1 i
s10
	pushI 0
	pushI 1
	create_array INT 0 1
	push_a 1
	pushI 1
	push_a 1
	push_b 1
	update_a 2 3
	update_a 1 2
	updatepop_a 0 1
.d 2 2 ii
	jsr e_System._Posix_swaitpid
.o 1 1 i
	pushI 0
	push_b 1
	eqI
	jmp_false else.9
	buildh _None 0
	buildh e_Data.Error_dOk 1
	push_a 1
	push_a 1
	update_a 1 2
	update_a 0 1
	pop_a 1
	update_a 1 3
	updatepop_a 0 2
	pop_b 2
.d 2 0
	rtn
else.9
	push_b 1
	push_b 1
	eqI
	jmp_false else.10
	push_a 1
	build e_System._Process_d_f1.160 1 e_System._Process_n_f1.160
	build _Justs 1 n_Justs
	buildh e_Data.Error_dOk 1
	push_a 1
	push_a 1
	update_a 1 2
	update_a 0 1
	pop_a 1
	update_a 1 3
	updatepop_a 0 2
	pop_b 2
.d 2 0
	rtn
else.10
	push_a 0
	updatepop_a 0 2
	pop_b 2
.d 1 0
	jmp e_System.OSError_sgetLastOSError
.export e_System._Process_d_f1.160
.export e_System._Process_n_f1.160
.descn e_System._Process_d_f1.160 e_System._Process_n_f1.160 1 0 "_f1.160"
.n 1 e_System._Process_d_f1.160 ea160
.o 1 0
e_System._Process_n_f1.160
	push_node _cycle_in_spine 1
.o 2 0
ea160
.o 2 0
s160
	pushI 0
	push_a 0
	updatepop_a 0 1
	select INT 0 1
.d 0 1 i
	jsr s27
.o 0 1 i
	fillI_b 0 0
	pop_b 1
.d 1 0
	rtn
.o 0 1 i
s27
	pushI 127
	push_b 1
	and%
	pushI 0
	push_b 1
	eqI
	notB
	jmp_false else.11
	push_b 0
	pushI 128
	update_b 1 3
	updatepop_b 0 2
	addI
.d 0 1 i
	rtn
else.11
	pushI 65280
	push_b 2
	and%
	pushI 8
	push_b 1
	update_b 1 2
	update_b 0 1
	pop_b 1
	update_b 1 3
	updatepop_b 0 2
	shiftr%
.d 0 1 i
	rtn
.export e_System._Process_s_startProcessPty
.descexp e_System._Process_d_startProcessPty e_System._Process_n_startProcessPty e_System._Process_l_startProcessPty 5 0 "_startProcessPty"
.a 0 a9
.o 2 0
e_System._Process_l_startProcessPty
	repl_args 4 4
.o 5 0
a9
.d 5 0
	jsr ea9
.o 2 0
	push_a 1
	push_a 1
	buildh _Tuple 2
	updatepop_a 0 2
.d 1 0
	rtn
.n 5 e_System._Process_d_startProcessPty
.o 1 0
e_System._Process_n_startProcessPty
	push_node _cycle_in_spine 5
.d 5 0
	jsr ea9
.o 2 0
	push_a 1
	push_a 1
	fillh _Tuple 2 4
	pop_a 2
.d 1 0
	rtn
.o 5 0
ea9
	jsr_eval 4
	jsr_eval 3
	jsr_eval 2
	jsr_eval 1
	jsr_eval 0
	push_r_args 3 0 3
	push_array 0
	update_a 3 4
	update_a 2 3
	update_a 0 2
	pop_a 2
.o 4 3 bbb
e_System._Process_s_startProcessPty
.o 4 3 bbb
s9
	pushI 256
	pushI 2
	or%
	push_a 3
	buildh _Nil 0
	update_a 0 5
	pop_a 1
.d 1 1 i
	jsr e_System._Posix_sposix_openpt
.o 1 1 i
	pushI -1
	push_b 1
	eqI
	jmp_false else.12
	push_a 0
	updatepop_a 0 5
	pop_b 4
.d 1 0
	jmp e_System.OSError_sgetLastOSError
else.12
	push_a 0
	push_b 0
	updatepop_a 0 1
.d 1 1 i
	jsr e_System._Posix_sgrantpt
.o 1 1 i
	pushI -1
	push_b 1
	eqI
	jmp_false else.13
	push_a 0
	updatepop_a 0 5
	pop_b 5
.d 1 0
	jmp e_System.OSError_sgetLastOSError
else.13
	push_a 0
	push_b 1
	updatepop_b 0 1
	updatepop_a 0 1
.d 1 1 i
	jsr e_System._Posix_sunlockpt
.o 1 1 i
	pushI -1
	push_b 1
	eqI
	jmp_false else.14
	push_a 0
	updatepop_a 0 5
	pop_b 5
.d 1 0
	jmp e_System.OSError_sgetLastOSError
else.14
	push_a 0
	push_b 1
	updatepop_b 0 1
	updatepop_a 0 1
.d 1 1 i
	jsr e_System._Posix_sptsname
.o 1 1 i
	pushI 0
	push_b 1
	eqI
	jmp_false else.15
	push_a 0
	updatepop_a 0 5
	pop_b 5
.d 1 0
	jmp e_System.OSError_sgetLastOSError
else.15
	pushI 256
	pushI 2
	or%
	push_a 0
	push_b 1
	updatepop_a 0 1
.d 1 2 ii
	jsr e_System._Posix_sopen
.o 1 1 i
	pushI -1
	push_b 1
	eqI
	jmp_false else.16
	push_a 0
	updatepop_a 0 5
	pop_b 6
.d 1 0
	jmp e_System.OSError_sgetLastOSError
else.16
.impmod System.Process
.impdesc e_System.Process_rProcessPtyOptions
	build_r e_System.Process_rProcessPtyOptions 0 3 0 3
	buildI_b 2
	buildI_b 0
	push_a 2
	update_a 2 3
	update_a 1 2
	update_a 0 1
	pop_a 1
	buildh e_System._Process_dparentProcess;42.43 3
	build_r e_System.Process_rProcessPtyOptions 0 3 0 3
	buildI_b 2
	buildI_b 0
	push_a 7
	push_a 7
	push_a 7
	buildh ARRAY 1
	push_a 5
	update_a 5 6
	update_a 4 5
	update_a 0 4
	pop_a 1
	buildh e_System._Process_dchildProcess;41.42 6
	push_a 2
	push_a 2
	update_a 1 3
	update_a 2 1
	update_a 0 2
	pop_a 1
	update_a 2 7
	update_a 1 6
	updatepop_a 0 5
	pop_b 6
.d 3 0
	jmp s24
.export e_System._Process_dchildProcess;41.42
.desc e_System._Process_dchildProcess;41.42 _hnf l42 9 0 "childProcess;41.42"
.a 0 a42
.o 2 0
l42
	repl_args 8 8
.o 9 0
a42
.d 9 0
	jsr ea42
.o 2 0
	push_a 1
	push_a 1
	buildh _Tuple 2
	updatepop_a 0 2
.d 1 0
	rtn
.o 9 0
ea42
	jsr_eval 8
	jsr_eval 7
	jsr_eval 6
	pushI_a 7
	pushI_a 6
	pushI_a 5
	pushI_a 4
	update_a 3 7
	update_a 2 6
	update_a 1 5
	update_a 0 4
	pop_a 4
.o 5 4 iiii
s42
	push_a 4
	push_b 1
	buildh _Nil 0
	update_a 0 6
	pop_a 1
.d 1 1 i
	jsr e_System._Posix_sclose
.o 1 1 i
	pushI -1
	push_b 1
	eqI
	jmp_false else.17
	push_a 0
	updatepop_a 0 6
	pop_b 5
.d 1 0
	jmp e_System.OSError_sgetLastOSError
else.17
	pushI 128
	updatepop_b 0 1
.d 0 1 i
	jsr e_System._Posix_smalloc
.o 0 1 i
	pushI 0
	push_b 1
	eqI
	jmp_false else.18
	push_a 0
	updatepop_a 0 6
	pop_b 5
.d 1 0
	jmp e_System.OSError_sgetLastOSError
else.18
	push_a 0
	push_b 0
	push_b 2
	updatepop_a 0 1
.d 1 2 ii
	jsr e_System._Posix_stcgetattr
.o 1 1 i
	pushI -1
	push_b 1
	eqI
	jmp_false else.19
	push_a 0
	updatepop_a 0 6
	pop_b 6
.d 1 0
	jmp e_System.OSError_sgetLastOSError
else.19
	jsr_eval 4
	push_r_args_b 4 0 3 3 1
	create
	push_a 1
	push_b 2
	push_b 1
	update_b 1 2
	update_b 0 1
	pop_b 1
	update_b 1 2
	updatepop_b 0 1
	update_a 1 2
	updatepop_a 0 1
.d 2 2 bi
	jsr s81
.o 1 0
	push_b 0
	pushI 0
	push_b 3
.d 1 3 iii
	jsr e_System._Posix_stcsetattr
.o 1 1 i
	pushI -1
	push_b 1
	eqI
	jmp_false else.20
	push_a 0
	updatepop_a 0 6
	pop_b 6
.d 1 0
	jmp e_System.OSError_sgetLastOSError
else.20
	push_a 0
	push_b 1
	updatepop_b 0 2
	updatepop_a 0 1
.d 1 1 i
	jsr e_System._Posix_sfreeSt
.o 1 0
	pushI 0
.d 1 1 i
	jsr e_System._Posix_sclose
.o 1 1 i
	pushI -1
	push_b 1
	eqI
	jmp_false else.21
	push_a 0
	updatepop_a 0 6
	pop_b 5
.d 1 0
	jmp e_System.OSError_sgetLastOSError
else.21
	push_a 0
	pushI 1
	updatepop_b 0 1
	updatepop_a 0 1
.d 1 1 i
	jsr e_System._Posix_sclose
.o 1 1 i
	pushI -1
	push_b 1
	eqI
	jmp_false else.22
	push_a 0
	updatepop_a 0 6
	pop_b 5
.d 1 0
	jmp e_System.OSError_sgetLastOSError
else.22
	push_a 0
	pushI 2
	updatepop_b 0 1
	updatepop_a 0 1
.d 1 1 i
	jsr e_System._Posix_sclose
.o 1 1 i
	pushI -1
	push_b 1
	eqI
	jmp_false else.23
	push_a 0
	updatepop_a 0 6
	pop_b 5
.d 1 0
	jmp e_System.OSError_sgetLastOSError
else.23
	push_a 0
	pushI 0
	push_b 2
	update_b 1 2
	updatepop_b 0 1
	updatepop_a 0 1
.d 1 2 ii
	jsr e_System._Posix_sdup2
.o 1 1 i
	pushI -1
	push_b 1
	eqI
	jmp_false else.24
	push_a 0
	updatepop_a 0 6
	pop_b 5
.d 1 0
	jmp e_System.OSError_sgetLastOSError
else.24
	push_a 0
	pushI 1
	push_b 2
	update_b 1 2
	updatepop_b 0 1
	updatepop_a 0 1
.d 1 2 ii
	jsr e_System._Posix_sdup2
.o 1 1 i
	pushI -1
	push_b 1
	eqI
	jmp_false else.25
	push_a 0
	updatepop_a 0 6
	pop_b 5
.d 1 0
	jmp e_System.OSError_sgetLastOSError
else.25
	push_a 0
	pushI 2
	push_b 2
	update_b 1 2
	updatepop_b 0 1
	updatepop_a 0 1
.d 1 2 ii
	jsr e_System._Posix_sdup2
.o 1 1 i
	pushI -1
	push_b 1
	eqI
	jmp_false else.26
	push_a 0
	updatepop_a 0 6
	pop_b 5
.d 1 0
	jmp e_System.OSError_sgetLastOSError
else.26
	push_a 0
	push_b 1
	updatepop_b 0 3
	updatepop_a 0 1
.d 1 1 i
	jsr e_System._Posix_sclose
.o 1 1 i
	pushI -1
	push_b 1
	eqI
	jmp_false else.27
	push_a 0
	updatepop_a 0 6
	pop_b 3
.d 1 0
	jmp e_System.OSError_sgetLastOSError
else.27
	push_r_args_b 4 0 3 1 1
	buildB_b 0
	pop_b 1
	push_a 1
	push_a 1
	update_a 1 2
	update_a 0 1
	pop_a 1
	build e_System._Process_d_if;239;27;223.82 2 e_System._Process_n_if;239;27;223.82
	push_r_args_b 5 0 3 2 1
	updatepop_b 0 1
	updatepop_a 0 1
	buildh _Nil 0
	update_a 0 5
	pop_a 1
.d 1 1 b
	jsr s154
.o 1 1 i
	pushI -1
	push_b 1
	eqI
	jmp_false else.28
	push_a 0
	jsr_eval 0
	updatepop_a 0 6
	pop_b 3
.d 1 0
	jmp e_System.OSError_sgetLastOSError
else.28
	push_a 0
	jsr_eval 0
	push_a 4
	jsr_eval 0
	push_a 4
	jsr_eval 0
	push_a 4
	jsr_eval 0
	push_array 0
	updatepop_a 0 1
	push_b 2
	push_b 2
	update_b 1 4
	updatepop_b 0 3
	update_a 3 9
	update_a 2 8
	update_a 1 7
	updatepop_a 0 6
.d 4 2 ii
	jsr s25
.o 2 0
	pop_a 1
.d 0 0
	jsr e_StdMisc_sundef
.o 1 0
.d 2 0
	rtn
.o 2 0
s66
	push_a 0
	push_a 2
	update_a 1 3
	updatepop_a 0 2
.d 2 0
	jmp e_StdFunctions_sconst
.export e_System._Process_dparentProcess;42.43
.desc e_System._Process_dparentProcess;42.43 _hnf l43 7 0 "parentProcess;42.43"
.a 0 a43
.o 2 0
l43
	repl_args 6 6
.o 7 0
a43
.d 7 0
	jsr ea43
.o 2 0
	push_a 1
	push_a 1
	buildh _Tuple 2
	updatepop_a 0 2
.d 1 0
	rtn
.o 7 0
ea43
	jsr_eval 6
	jsr_eval 5
	jsr_eval 4
	jsr_eval 3
	pushI_a 5
	pushI_a 4
	pushI_a 3
	pushI_a 2
	pushI_a 1
	update_a 0 5
	pop_a 5
.o 2 5 iiiii
s43
	pushI 128
.d 0 1 i
	jsr e_System._Posix_smalloc
.o 0 1 i
	pushI 0
	push_b 1
	eqI
	jmp_false else.29
	push_a 1
	updatepop_a 0 2
	pop_b 6
.d 1 0
	jmp e_System.OSError_sgetLastOSError
else.29
	push_a 1
	push_b 0
	push_b 3
	update_a 1 2
	updatepop_a 0 1
.d 1 2 ii
	jsr e_System._Posix_stcgetattr
.o 1 1 i
	pushI -1
	push_b 1
	eqI
	jmp_false else.30
	push_a 0
	updatepop_a 0 2
	pop_b 7
.d 1 0
	jmp e_System.OSError_sgetLastOSError
else.30
	jsr_eval 1
	push_r_args_b 1 0 3 3 1
	create
	push_a 1
	push_b 2
	push_b 1
	update_b 1 2
	update_b 0 1
	pop_b 1
	update_b 1 2
	updatepop_b 0 1
	update_a 1 3
	updatepop_a 0 2
.d 2 2 bi
	jsr s83
.o 1 0
	push_b 0
	pushI 0
	push_b 3
.d 1 3 iii
	jsr e_System._Posix_stcsetattr
.o 1 1 i
	pushI -1
	push_b 1
	eqI
	jmp_false else.31
	push_a 0
	updatepop_a 0 1
	pop_b 7
.d 1 0
	jmp e_System.OSError_sgetLastOSError
else.31
	push_a 0
	push_b 2
	updatepop_b 0 1
	updatepop_a 0 1
.d 1 1 i
	jsr e_System._Posix_sclose
.o 1 1 i
	pushI -1
	push_b 1
	eqI
	jmp_false else.32
	push_a 0
	updatepop_a 0 1
	pop_b 7
.d 1 0
	jmp e_System.OSError_sgetLastOSError
else.32
	push_a 0
	push_b 1
	updatepop_b 0 3
	updatepop_a 0 1
.d 1 1 i
	jsr e_System._Posix_sfreeSt
.o 1 0
	push_b 3
	push_b 3
	push_b 3
.d 1 3 iii
	jsr s26
.o 2 0
	push_a 0
.d 1 0
	jsr e_Data.Error_sisError
.o 0 1 b
	jmp_false else.33
	create
	push_a 1
	pop_b 4
	update_a 1 2
	updatepop_a 0 1
.d 2 0
	jsr e_Data.Error_sliftError
.o 1 0
	push_a 1
	push_a 1
	update_a 1 2
	update_a 0 1
	pop_a 1
	update_a 1 2
	updatepop_a 0 1
.d 2 0
	rtn
else.33
	push_b 0
	push_b 1
	push_b 2
	buildhr e_System.Process_rProcessIO 0 3
	push_a 1
	build e_Data.Error_dfromOk 1 e_Data.Error_nfromOk
	buildh _Tuple 2
	buildh e_Data.Error_dOk 1
	push_a 2
	push_a 1
	update_a 1 2
	update_a 0 1
	pop_a 1
	update_a 1 3
	updatepop_a 0 2
	pop_b 4
.d 2 0
	rtn
.o 2 0
s65
	push_a 0
	push_a 2
	update_a 1 3
	updatepop_a 0 2
.d 2 0
	jmp e_StdFunctions_sconst
.export e_System._Process_s_startProcess
.descexp e_System._Process_d_startProcess e_System._Process_n_startProcess e_System._Process_l_startProcess 5 0 "_startProcess"
.a 0 a8
.o 2 0
e_System._Process_l_startProcess
	repl_args 4 4
.o 5 0
a8
.d 5 0
	jsr ea8
.o 2 0
	push_a 1
	push_a 1
	buildh _Tuple 2
	updatepop_a 0 2
.d 1 0
	rtn
.n 5 e_System._Process_d_startProcess
.o 1 0
e_System._Process_n_startProcess
	push_node _cycle_in_spine 5
.d 5 0
	jsr ea8
.o 2 0
	push_a 1
	push_a 1
	fillh _Tuple 2 4
	pop_a 2
.d 1 0
	rtn
.o 5 0
ea8
	jsr_eval 4
	jsr_eval 3
	jsr_eval 2
	jsr_eval 1
	jsr_eval 0
	push_array 0
	update_a 0 1
	pop_a 1
.o 5 0
e_System._Process_s_startProcess
.o 5 0
s8
	push_a 3
	buildh e_System._Process_dparentProcess;40.41 1
	push_a 4
	push_a 4
	push_a 4
	push_a 4
	buildh ARRAY 1
	buildh e_System._Process_dchildProcess;39.40 4
	push_a 6
	push_a 2
	update_a 1 3
	update_a 2 1
	update_a 0 2
	pop_a 1
	update_a 2 7
	update_a 1 6
	updatepop_a 0 5
.d 3 0
	jmp s24
.o 3 0
s24
	push_a 2
	pushB FALSE
	buildh _Nil 0
	update_a 0 4
	pop_a 1
.d 1 1 b
	jsr s1
.o 2 0
	push_a 0
.d 1 0
	jsr e_Data.Error_sisError
.o 0 1 b
	jmp_false else.34
	create
	push_a 1
	update_a 3 6
	update_a 1 5
	updatepop_a 0 4
.d 2 0
	jsr e_Data.Error_sliftError
.o 1 0
	push_a 1
	push_a 1
	update_a 1 2
	update_a 0 1
	pop_a 1
	update_a 1 2
	updatepop_a 0 1
.d 2 0
	rtn
else.34
	push_a 1
	update_a 1 2
	updatepop_a 0 1
.d 1 0
	jsr e_System._Posix_sfork
.o 1 1 i
	pushI 0
	push_b 1
	eqI
	jmp_false else.35
	push_a 1
	build e_Data.Error_dfromOk 1 e_Data.Error_nfromOk
	push_a 1
	push_a 1
	build d_S.2 -1 n_S.2
	push_a 2
	build d_S.1 -1 n_S.1
	push_a 6
	update_a 3 9
	update_a 2 8
	update_a 1 7
	updatepop_a 0 6
	pop_b 1
	jsr_ap 3
	repl_args 2 2
	jsr_eval 1
	jsr_eval 0
.d 2 0
	rtn
else.35
	push_b 0
	pushI 0
	ltI
	jmp_false else.36
	push_a 1
	build e_Data.Error_dfromOk 1 e_Data.Error_nfromOk
	push_a 1
	push_a 1
	build d_S.2 -1 n_S.2
	push_a 2
	build d_S.1 -1 n_S.1
	buildI_b 0
	push_a 8
	update_a 4 10
	update_a 3 9
	update_a 2 8
	update_a 1 7
	updatepop_a 0 6
	pop_b 1
	jsr_ap 4
	repl_args 2 2
	jsr_eval 1
	jsr_eval 0
.d 2 0
	rtn
else.36
	push_a 0
	updatepop_a 0 5
	pop_b 1
.d 1 0
	jmp e_System.OSError_sgetLastOSError
.export e_System._Process_dchildProcess;39.40
.desc e_System._Process_dchildProcess;39.40 _hnf l40 7 0 "childProcess;39.40"
.a 0 a40
.o 2 0
l40
	repl_args 6 6
.o 7 0
a40
.d 7 0
	jsr ea40
.o 2 0
	push_a 1
	push_a 1
	buildh _Tuple 2
	updatepop_a 0 2
.d 1 0
	rtn
.o 7 0
ea40
	jsr_eval 6
	jsr_eval 5
	jsr_eval 4
	pushI_a 5
	pushI_a 4
	update_a 3 5
	update_a 1 3
	update_a 2 4
	update_a 0 2
	pop_a 2
.o 5 2 ii
s40
	eq_desc _None 0 3
	jmp_true case.37
	jmp case.38
case.37
	push_a 2
	jsr_eval 0
	push_a 2
	jsr_eval 0
	push_a 2
	jsr_eval 0
	push_array 0
	updatepop_a 0 1
	push_a 7
	push_b 1
	push_b 1
	push_a 3
	update_a 1 4
	update_a 2 1
	update_a 3 2
	update_a 0 3
	pop_a 1
	update_b 1 3
	updatepop_b 0 2
	update_a 3 8
	update_a 2 7
	update_a 1 6
	updatepop_a 0 5
.d 4 2 ii
	jsr s25
.o 2 0
	pop_a 1
.d 0 0
	jsr e_StdMisc_sundef
.o 1 0
.d 2 0
	rtn
case.38
	push_args 3 1 1
	buildh _Nil 0
	update_a 0 5
	pop_a 1
	repl_args 3 3
	jsr_eval 0
	repl_args 2 2
	jsr_eval 2
	push_args 2 2 2
	buildh _Nil 0
	update_a 0 5
	pop_a 1
	jsr_eval 5
	push_args 5 2 2
	buildh _Nil 0
	update_a 0 8
	pop_a 1
	push_a 4
	jsr_eval 0
	pushI_a 5
	pop_a 1
	push_a 12
	pushI 0
	push_a 6
	push_b 1
	update_b 1 2
	update_b 0 1
	pop_b 1
	update_a 5 9
	update_a 4 8
	update_a 3 7
	update_a 2 6
	update_a 1 5
	updatepop_a 0 4
	buildh _Nil 0
	update_a 0 11
	pop_a 1
.d 2 2 ii
	jsr s39
.o 2 0
	push_a 0
.d 1 0
	jsr e_Data.Error_sisError
.o 0 1 b
	jmp_false else.39
	create
	push_a 1
	pop_b 2
	update_a 3 12
	update_a 1 11
	updatepop_a 0 10
.d 2 0
	jsr e_Data.Error_sliftError
.o 1 0
	push_a 1
	push_a 1
	update_a 1 2
	update_a 0 1
	pop_a 1
	update_a 1 2
	updatepop_a 0 1
.d 2 0
	rtn
else.39
	push_a 5
	jsr_eval 0
	pushI_a 6
	pop_a 1
	push_a 1
	pushI 1
	push_a 5
	push_b 1
	update_b 1 2
	update_b 0 1
	pop_b 1
	update_a 5 7
	update_a 4 6
	update_a 1 5
	updatepop_a 0 4
.d 2 2 ii
	jsr s39
.o 2 0
	push_a 0
.d 1 0
	jsr e_Data.Error_sisError
.o 0 1 b
	jmp_false else.40
	create
	push_a 1
	pop_b 2
	update_a 3 10
	update_a 1 9
	updatepop_a 0 8
.d 2 0
	jsr e_Data.Error_sliftError
.o 1 0
	push_a 1
	push_a 1
	update_a 1 2
	update_a 0 1
	pop_a 1
	update_a 1 2
	updatepop_a 0 1
.d 2 0
	rtn
else.40
	push_a 3
	jsr_eval 0
	pushI_a 4
	pop_a 1
	push_a 1
	pushI 2
	push_a 3
	push_b 1
	update_b 1 2
	update_b 0 1
	pop_b 1
	update_a 1 5
	updatepop_a 0 4
.d 2 2 ii
	jsr s39
.o 2 0
	push_a 0
.d 1 0
	jsr e_Data.Error_sisError
.o 0 1 b
	jmp_false else.41
	create
	push_a 1
	pop_b 2
	update_a 3 8
	update_a 1 7
	updatepop_a 0 6
.d 2 0
	jsr e_Data.Error_sliftError
.o 1 0
	push_a 1
	push_a 1
	update_a 1 2
	update_a 0 1
	pop_a 1
	update_a 1 2
	updatepop_a 0 1
.d 2 0
	rtn
else.41
	push_a 4
	jsr_eval 0
	push_a 4
	jsr_eval 0
	push_a 4
	jsr_eval 0
	push_array 0
	updatepop_a 0 1
	push_a 4
	push_b 1
	push_b 1
	push_a 3
	update_a 1 4
	update_a 2 1
	update_a 3 2
	update_a 0 3
	pop_a 1
	update_b 1 3
	updatepop_b 0 2
	update_a 3 10
	update_a 2 9
	update_a 1 8
	updatepop_a 0 7
.d 4 2 ii
	jsr s25
.o 2 0
	pop_a 1
.d 0 0
	jsr e_StdMisc_sundef
.o 1 0
.d 2 0
	rtn
.o 2 2 ii
s39
	push_a 1
	push_b 1
	push_b 1
	update_b 1 3
	updatepop_b 0 2
	update_a 1 2
	updatepop_a 0 1
.d 1 2 ii
	jsr e_System._Posix_sdup2
.o 1 1 i
	pushI -1
	push_b 1
	eqI
	jmp_false else.42
	push_a 0
	updatepop_a 0 2
	pop_b 1
.d 1 0
	jmp e_System.OSError_sgetLastOSError
else.42
	push_a 1
	jsr_eval 0
	pushI_a 2
	pop_a 1
	push_a 0
	updatepop_b 0 1
	updatepop_a 0 2
.d 1 1 i
	jsr e_System._Posix_sclose
.o 1 1 i
	pushI -1
	push_b 1
	eqI
	jmp_false else.43
	push_a 0
	updatepop_a 0 1
	pop_b 1
.d 1 0
	jmp e_System.OSError_sgetLastOSError
else.43
	buildh e__predef_d_Unit 0
	buildh e_Data.Error_dOk 1
	push_a 1
	push_a 1
	update_a 1 2
	update_a 0 1
	pop_a 1
	update_a 1 2
	updatepop_a 0 1
	pop_b 1
.d 2 0
	rtn
.o 4 2 ii
s25
	push_a 3
	push_b 0
	updatepop_b 0 1
	buildh _Nil 0
	update_a 0 5
	pop_a 1
.d 1 1 i
	jsr e_System._Posix_sclose
.o 1 1 i
	pushI -1
	push_b 1
	eqI
	jmp_false else.44
	push_a 0
	push_b 1
	updatepop_a 0 5
	updatepop_b 0 2
.d 1 1 i
	jmp s153
else.44
	push_a 0
	pushI 1
	pushI 2
	push_b 3
	update_b 2 3
	update_b 1 2
	updatepop_b 0 1
	updatepop_a 0 1
.d 1 3 iii
	jsr e_System._Posix_sfcntlArg
.o 1 1 i
	pushI -1
	push_b 1
	eqI
	jmp_false else.45
	push_a 0
	push_b 1
	updatepop_a 0 5
	updatepop_b 0 2
.d 1 1 i
	jmp s153
else.45
	push_a 0
	push_a 4
	pop_b 1
	update_a 4 6
	update_a 3 5
	update_a 1 4
	updatepop_a 0 3
.d 2 0
	jsr s72
.o 1 1 i
	pushI 0
	push_b 1
	eqI
	notB
	jmp_false else.46
	push_a 0
	push_b 1
	updatepop_a 0 3
	updatepop_b 0 2
.d 1 1 i
	jmp s153
else.46
	push_a 2
	push_a 2
	buildh ARRAY 1
	buildh _Cons 2
	push_a 1
	push_a 1
	update_a 1 2
	update_a 0 1
	pop_a 1
	pop_b 1
	update_a 3 4
	update_a 1 3
	updatepop_a 0 2
.d 2 0
	jsr s152
.o 2 0
	buildAC "\000"
	push_a 3
	buildh _Nil 0
	update_a 0 5
	pop_a 1
.d 2 0
	jsr catAC
.o 1 0
	push_a 2
	push_a 2
	push_a 2
	update_a 2 3
	update_a 1 2
	update_a 0 1
	pop_a 1
	update_a 2 5
	update_a 1 4
	updatepop_a 0 3
.d 3 0
	jsr e_System._Posix_sexecvp
.o 1 1 i
	pop_b 1
	push_b 0
	updatepop_b 0 1
.d 1 1 i
	jmp s153
.o 2 0
s72
	eq_desc _Just 1 0
	jmp_true case.47
	jmp case.48
case.47
	repl_args 1 1
	push_array 0
	updatepop_a 0 1
.d 1 0
	jsr e_System._Pointer_spackString
.o 1 0
	push_a 1
	push_a 1
	update_a 1 2
	update_a 0 1
	pop_a 1
	update_a 1 2
	updatepop_a 0 1
.d 2 0
	jmp e_System._Posix_schdir
case.48
	push_a 1
	pushI 0
	updatepop_a 0 2
.d 1 1 i
	rtn
.o 1 1 i
s64
	eq_desc _Cons 2 0
	jmp_true case.49
	jmp case.50
case.49
	repl_args 2 2
	push_a 0
	jsr_eval 0
	push_array 0
	updatepop_a 0 1
	updatepop_a 0 1
	push_arraysize CHAR 0 1
	pushI 8
	push_b 1
	update_b 1 2
	update_b 0 1
	pop_b 1
	addI
	pushI -8
	push_b 1
	update_b 1 2
	update_b 0 1
	pop_b 1
	and%
	push_b 1
	addI
	push_a 0
	jsr_eval 0
	updatepop_a 0 1
	updatepop_b 0 1
.d 1 1 i
	jmp s64
case.50
	pop_a 1
.d 0 1 i
	rtn
.export e_System._Process_dcreateArgv;48.49
.desc e_System._Process_dcreateArgv;48.49 _hnf l49 2 0 "createArgv;48.49"
.a 0 a49
.o 2 0
l49
	repl_args 1 1
.o 2 0
a49
.d 2 0
	jsr ea49
.o 1 0
	buildh ARRAY 1
.d 1 0
	rtn
.o 2 0
ea49
	jsr_eval 1
	pushI_a 1
	update_a 0 1
	pop_a 1
.o 1 1 i
s49
	push_a 0
.d 1 0
	jsr e_StdList_slength;47
.o 0 1 i
	pushI 1
	push_b 1
	update_b 1 2
	update_b 0 1
	pop_b 1
	addI
	pushI 0
	push_b 1
	update_b 1 2
	update_b 0 1
	pop_b 1
	create_array INT 0 1
	push_b 0
	push_a 1
	pushI 0
	update_a 1 2
	updatepop_a 0 1
	update_b 1 2
	updatepop_b 0 1
.d 2 2 ii
	jmp s46
.o 2 2 ii
s46
	eq_desc _Cons 2 0
	jmp_true case.51
	jmp case.52
case.51
	repl_args 2 2
	push_a 0
	jsr_eval 0
	push_array 0
	updatepop_a 0 1
	updatepop_a 0 1
	push_arraysize CHAR 0 1
	pushI 8
	push_b 1
	update_b 1 2
	update_b 0 1
	pop_b 1
	addI
	pushI -8
	push_b 1
	update_b 1 2
	update_b 0 1
	pop_b 1
	and%
	push_b 2
	addI
	push_b 2
	push_b 2
	push_a 1
	update_a 1 2
	updatepop_a 0 1
	update INT 0 1
	push_a 1
	jsr_eval 0
	pushI 1
	push_b 2
	addI
	update_a 1 2
	updatepop_a 0 1
	update_b 1 3
	updatepop_b 0 2
.d 2 2 ii
	jmp s46
case.52
	pushI 0
	push_b 1
	push_a 1
	updatepop_a 0 2
	update_b 1 3
	updatepop_b 0 2
	update INT 0 1
.d 1 0
	rtn
.o 1 1 i
s48
	pushC '\000'
	push_b 1
	update_b 1 2
	updatepop_b 0 1
	create_array CHAR 0 1
	buildI 0
	push_a 2
	update_a 2 3
	update_a 1 2
	updatepop_a 0 1
.d 3 0
	jmp s44
.o 3 0
s44
	eq_desc _Cons 2 0
	jmp_true case.53
	jmp case.54
case.53
	repl_args 2 2
	push_a 2
	jsr_eval 0
	pushI_a 3
	pop_a 1
	push_a 0
	jsr_eval 0
	push_array 0
	updatepop_a 0 1
	push_a 4
	pushI 0
	push_a 1
	update_a 1 2
	update_a 0 1
	pop_a 1
	buildh _Nil 0
	update_a 0 6
	pop_a 1
.d 2 2 ii
	jsr s45
.o 1 0
	push_a 1
	push_a 4
	build e_System._Process_d_f6.165 2 e_System._Process_n_f6.165
	push_a 3
	jsr_eval 0
	update_a 2 6
	update_a 1 5
	updatepop_a 0 4
.d 3 0
	jmp s44
case.54
	pop_a 2
.d 1 0
	rtn
.export e_System._Process_d_f6.165
.export e_System._Process_n_f6.165
.descn e_System._Process_d_f6.165 e_System._Process_n_f6.165 2 0 "_f6.165"
.n 2 e_System._Process_d_f6.165 ea165
.o 1 0
e_System._Process_n_f6.165
	push_node _cycle_in_spine 2
.o 3 0
ea165
.o 3 0
s165
	push_a 1
	jsr_eval 0
	push_array 0
	updatepop_a 0 1
	update_a 1 2
	updatepop_a 0 1
	push_arraysize CHAR 0 1
	pushI 8
	push_b 1
	update_b 1 2
	update_b 0 1
	pop_b 1
	addI
	pushI -8
	push_b 1
	update_b 1 2
	update_b 0 1
	pop_b 1
	and%
	push_a 0
	jsr_eval 0
	pushI_a 1
	pop_a 1
	pop_a 1
	addI
	fillI_b 0 0
	pop_b 1
.d 1 0
	rtn
.o 2 2 ii
s45
	push_a 0
	push_arraysize CHAR 0 1
	push_b 1
	ltI
	jmp_false else.55
	push_b 0
	push_a 0
	select CHAR 0 1
	push_b 2
	push_a 1
	update_a 1 2
	updatepop_a 0 1
	update CHAR 0 1
	pushI 1
	push_b 2
	addI
	pushI 1
	push_b 2
	addI
	push_a 1
	update_a 1 2
	updatepop_a 0 1
	update_b 1 3
	updatepop_b 0 2
.d 2 2 ii
	jmp s45
else.55
	pop_a 1
	pop_b 2
.d 1 0
	rtn
.export e_System._Process_dparentProcess;40.41
.desc e_System._Process_dparentProcess;40.41 _hnf l41 5 0 "parentProcess;40.41"
.a 0 a41
.o 2 0
l41
	repl_args 4 4
.o 5 0
a41
.d 5 0
	jsr ea41
.o 2 0
	push_a 1
	push_a 1
	buildh _Tuple 2
	updatepop_a 0 2
.d 1 0
	rtn
.o 5 0
ea41
	jsr_eval 4
	jsr_eval 3
	jsr_eval 2
	jsr_eval 1
	pushI_a 3
	pushI_a 2
	pushI_a 1
	update_a 0 3
	pop_a 3
.o 2 3 iii
s41
	eq_desc _None 0 0
	jmp_true case.56
	jmp case.57
case.56
	push_a 1
	push_b 2
	push_b 2
	push_b 2
	update_b 2 5
	update_b 1 4
	updatepop_b 0 3
	updatepop_a 0 2
.d 1 3 iii
	jsr s26
.o 2 0
	push_a 0
.d 1 0
	jsr e_Data.Error_sisError
.o 0 1 b
	jmp_false else.58
	create
	push_a 1
	update_a 1 2
	updatepop_a 0 1
.d 2 0
	jsr e_Data.Error_sliftError
.o 1 0
	push_a 1
	push_a 1
	update_a 1 2
	update_a 0 1
	pop_a 1
	update_a 1 2
	updatepop_a 0 1
.d 2 0
	rtn
else.58
	buildh _None 0
	push_a 1
	build e_Data.Error_dfromOk 1 e_Data.Error_nfromOk
	buildh _Tuple 2
	buildh e_Data.Error_dOk 1
	push_a 2
	push_a 1
	update_a 1 2
	update_a 0 1
	pop_a 1
	update_a 1 3
	updatepop_a 0 2
.d 2 0
	rtn
case.57
	repl_args 1 1
	repl_args 3 3
	jsr_eval 0
	repl_args 2 2
	jsr_eval 2
	push_args 2 2 2
	buildh _Nil 0
	update_a 0 5
	pop_a 1
	jsr_eval 5
	push_args 5 2 2
	buildh _Nil 0
	update_a 0 8
	pop_a 1
	push_a 4
	jsr_eval 0
	pushI_a 5
	pop_a 1
	push_a 8
	buildh _Nil 0
	update_a 0 10
	update_a 0 6
	pop_a 1
.d 1 1 i
	jsr e_System._Posix_sclose
.o 1 1 i
	pushI -1
	push_b 1
	eqI
	jmp_false else.59
	push_a 0
	updatepop_a 0 10
	pop_b 4
.d 1 0
	jmp e_System.OSError_sgetLastOSError
else.59
	push_a 4
	jsr_eval 0
	pushI_a 5
	pop_a 1
	push_a 0
	updatepop_b 0 1
	updatepop_a 0 1
	buildh _Nil 0
	update_a 0 5
	pop_a 1
.d 1 1 i
	jsr e_System._Posix_sclose
.o 1 1 i
	pushI -1
	push_b 1
	eqI
	jmp_false else.60
	push_a 0
	updatepop_a 0 10
	pop_b 4
.d 1 0
	jmp e_System.OSError_sgetLastOSError
else.60
	push_a 2
	jsr_eval 0
	pushI_a 3
	pop_a 1
	push_a 0
	updatepop_b 0 1
	update_a 4 6
	update_a 2 5
	updatepop_a 0 4
.d 1 1 i
	jsr e_System._Posix_sclose
.o 1 1 i
	pushI -1
	push_b 1
	eqI
	jmp_false else.61
	push_a 0
	updatepop_a 0 7
	pop_b 4
.d 1 0
	jmp e_System.OSError_sgetLastOSError
else.61
	push_a 0
	push_b 3
	push_b 3
	push_b 3
	update_b 2 6
	update_b 1 5
	updatepop_b 0 4
	updatepop_a 0 1
.d 1 3 iii
	jsr s26
.o 2 0
	push_a 0
.d 1 0
	jsr e_Data.Error_sisError
.o 0 1 b
	jmp_false else.62
	create
	push_a 1
	update_a 3 9
	update_a 1 8
	updatepop_a 0 7
.d 2 0
	jsr e_Data.Error_sliftError
.o 1 0
	push_a 1
	push_a 1
	update_a 1 2
	update_a 0 1
	pop_a 1
	update_a 1 2
	updatepop_a 0 1
.d 2 0
	rtn
else.62
	push_a 2
	push_a 4
	push_a 6
	build e_System.Process_tProcessIO 3 e_System.Process_cProcessIO
	build _Justs 1 n_Justs
	push_a 1
	build e_Data.Error_dfromOk 1 e_Data.Error_nfromOk
	buildh _Tuple 2
	buildh e_Data.Error_dOk 1
	push_a 2
	push_a 1
	update_a 1 2
	update_a 0 1
	pop_a 1
	update_a 1 9
	updatepop_a 0 8
.d 2 0
	rtn
.o 1 3 iii
s26
	push_a 0
	push_b 2
	updatepop_a 0 1
.d 1 1 i
	jsr e_System._Posix_sclose
.o 1 1 i
	pushI -1
	push_b 1
	eqI
	jmp_false else.63
	push_a 0
	updatepop_a 0 1
	pop_b 4
.d 1 0
	jmp e_System.OSError_sgetLastOSError
else.63
	push_a 0
	push_b 2
	updatepop_b 0 1
	updatepop_a 0 1
.d 1 1 i
	jsr e_System.Process_sreadPipeBlocking
.o 2 0
	push_a 0
.d 1 0
	jsr e_Data.Error_sisError
.o 0 1 b
	jmp_false else.64
	create
	push_a 1
	pop_b 3
	update_a 1 2
	updatepop_a 0 1
.d 2 0
	jsr e_Data.Error_sliftError
.o 1 0
	push_a 1
	push_a 1
	update_a 1 2
	update_a 0 1
	pop_a 1
	update_a 1 2
	updatepop_a 0 1
.d 2 0
	rtn
else.64
	push_a 0
	updatepop_a 0 1
.d 1 0
	jsr e_Data.Error_sfromOk
.o 1 0
	buildAC ""
	push_array 1
.d 2 0
	jsr eqAC
.o 0 1 b
	notB
	jmp_false else.65
	push_a 0
	build e_System._Process_d_f5.164 1 e_System._Process_n_f5.164
	buildh e_Data.Error_dError 1
	push_a 2
	push_a 1
	update_a 1 2
	update_a 0 1
	pop_a 1
	update_a 1 3
	updatepop_a 0 2
	pop_b 3
.d 2 0
	rtn
else.65
	push_a 1
	push_b 1
	updatepop_a 0 2
.d 1 1 i
	jsr e_System._Posix_sclose
.o 1 1 i
	pushI -1
	push_b 1
	eqI
	jmp_false else.66
	push_a 0
	updatepop_a 0 1
	pop_b 4
.d 1 0
	jmp e_System.OSError_sgetLastOSError
else.66
	push_b 1
	buildhr e_System._Process_rProcessHandle 0 1
	buildh e_Data.Error_dOk 1
	push_a 1
	push_a 1
	update_a 1 2
	update_a 0 1
	pop_a 1
	update_a 1 2
	updatepop_a 0 1
	pop_b 4
.d 2 0
	rtn
.export e_System._Process_d_f5.164
.export e_System._Process_n_f5.164
.descn e_System._Process_d_f5.164 e_System._Process_n_f5.164 1 0 "_f5.164"
.n 1 e_System._Process_d_f5.164 ea164
.o 1 0
e_System._Process_n_f5.164
	push_node _cycle_in_spine 1
.o 2 0
ea164
.o 2 0
s164
	push_array 0
	updatepop_a 0 1
.d 1 0
	jsr e_StdInt_stoInt;23
.o 0 1 i
.d 0 1 i
	jsr e_System.OSError_sosErrorCodeToOSError
.o 2 0
	push_a 1
	push_a 1
	fillh _Tuple 2 4
	pop_a 2
.d 1 0
	rtn
.export e_System._Process_s_equalPipe
.descexp e_System._Process_d_equalPipe e_System._Process_n_equalPipe e_System._Process_l_equalPipe 2 0 "_equalPipe"
.a 0 a7
.o 2 0
e_System._Process_l_equalPipe
	repl_args 1 1
.o 2 0
a7
.d 2 0
	jsr ea7
.o 0 1 b
	buildB_b 0
	pop_b 1
.d 1 0
	rtn
.n 2 e_System._Process_d_equalPipe
.o 1 0
e_System._Process_n_equalPipe
	push_node _cycle_in_spine 2
.d 2 0
	jsr ea7
.o 0 1 b
	fillB_b 0 0
	pop_b 1
.d 1 0
	rtn
.o 2 0
ea7
	jsr_eval 1
	jsr_eval 0
	pushI_a 1
	pushI_a 0
	pop_a 2
.o 0 2 ii
e_System._Process_s_equalPipe
.o 0 2 ii
s7
	push_b 1
	push_b 1
	update_b 1 3
	updatepop_b 0 2
	eqI
.d 0 1 b
	rtn
.export e_System._Process_s_writePipe
.descexp e_System._Process_d_writePipe e_System._Process_n_writePipe e_System._Process_l_writePipe 3 0 "_writePipe"
.a 0 a6
.o 2 0
e_System._Process_l_writePipe
	repl_args 2 2
.o 3 0
a6
.d 3 0
	jsr ea6
.o 2 0
	push_a 1
	push_a 1
	buildh _Tuple 2
	updatepop_a 0 2
.d 1 0
	rtn
.n 3 e_System._Process_d_writePipe
.o 1 0
e_System._Process_n_writePipe
	push_node _cycle_in_spine 3
.d 3 0
	jsr ea6
.o 2 0
	push_a 1
	push_a 1
	fillh _Tuple 2 4
	pop_a 2
.d 1 0
	rtn
.o 3 0
ea6
	jsr_eval 2
	jsr_eval 1
	jsr_eval 0
	pushI_a 1
	push_array 0
	update_a 0 2
	pop_a 2
.o 2 1 i
e_System._Process_s_writePipe
.o 2 1 i
s6
	push_a 0
	push_arraysize CHAR 0 1
	push_a 1
	push_a 1
	push_b 1
	update_b 1 2
	updatepop_b 0 1
	update_a 1 3
	updatepop_a 0 2
.d 2 2 ii
	jsr e_System._Posix_swrite
.o 1 1 i
	pushI -1
	push_b 1
	eqI
	jmp_false else.67
	push_a 0
	updatepop_a 0 1
	pop_b 1
.d 1 0
	jmp e_System.OSError_sgetLastOSError
else.67
	buildh e__predef_d_Unit 0
	buildh e_Data.Error_dOk 1
	push_a 1
	push_a 1
	update_a 1 2
	update_a 0 1
	pop_a 1
	update_a 1 2
	updatepop_a 0 1
	pop_b 1
.d 2 0
	rtn
.export e_System._Process_s_readPipeNonBlocking
.descexp e_System._Process_d_readPipeNonBlocking e_System._Process_n_readPipeNonBlocking e_System._Process_l_readPipeNonBlocking 3 0 "_readPipeNonBlocking"
.a 0 a5
.o 2 0
e_System._Process_l_readPipeNonBlocking
	repl_args 2 2
.o 3 0
a5
.d 3 0
	jsr ea5
.o 2 0
	push_a 1
	push_a 1
	buildh _Tuple 2
	updatepop_a 0 2
.d 1 0
	rtn
.n 3 e_System._Process_d_readPipeNonBlocking
.o 1 0
e_System._Process_n_readPipeNonBlocking
	push_node _cycle_in_spine 3
.d 3 0
	jsr ea5
.o 2 0
	push_a 1
	push_a 1
	fillh _Tuple 2 4
	pop_a 2
.d 1 0
	rtn
.o 3 0
ea5
	jsr_eval 2
	jsr_eval 1
	jsr_eval 0
	pushI_a 1
	pushI_a 0
	pop_a 2
.o 1 2 ii
e_System._Process_s_readPipeNonBlocking
.o 1 2 ii
s5
	push_a 0
	pushI 16
	updatepop_a 0 1
.d 1 1 i
	jsr e_System._Posix_smallocSt
.o 1 1 i
	pushI 0
	push_b 1
	eqI
	jmp_false else.68
	push_a 0
	updatepop_a 0 1
	pop_b 3
.d 1 0
	jmp e_System.OSError_sgetLastOSError
else.68
	pushI 0
	pushI 0
	push_b 2
.d 0 3 iii
	jsr e_System._Pointer_swriteInt
.o 0 1 i
	pushI 0
	pushI 8
	push_b 2
	update_b 2 3
	update_b 1 2
	update_b 0 1
	pop_b 1
.d 0 3 iii
	jsr e_System._Pointer_swriteInt
.o 0 1 i
	push_a 0
	buildI_b 2
	buildh e_System._Process_d\;72;36;30.31 2
	updatepop_a 0 1
.d 1 1 i
	jsr e_System._Pointer_sreadP
.o 1 1 i
	push_args 0 2 2
	jsr_eval 0
	push_a 0
	buildh _Nil 0
	update_a 0 4
	pop_a 1
.d 1 0
	jsr e_Data.Error_sisError
.o 0 1 b
	jmp_false else.69
	push_a 1
	jsr_eval 0
	push_b 0
	updatepop_b 0 1
	update_a 1 3
	updatepop_a 0 2
.d 1 1 i
	jsr e_System._Posix_sfreeSt
.o 1 0
	create
	push_a 2
	buildh _Nil 0
	update_a 0 4
	pop_a 1
.d 2 0
	jsr e_Data.Error_sliftError
.o 1 0
	update_a 1 2
	updatepop_a 0 1
	pop_b 3
.d 2 0
	rtn
else.69
	push_a 0
	update_a 2 3
	updatepop_a 0 2
.d 1 0
	jsr e_Data.Error_sfromOk
.o 1 0
.d 1 0
	jsr e_StdList_sand
.o 0 1 b
	jmp_false else.70
	push_a 0
	jsr_eval 0
	push_b 0
	updatepop_b 0 1
	updatepop_a 0 1
.d 1 1 i
	jsr e_System._Posix_sfreeSt
.o 1 0
	push_b 2
.d 1 1 i
	jsr e_System._Posix_smallocSt
.o 1 1 i
	pushI 0
	push_b 1
	eqI
	jmp_false else.71
	push_a 0
	updatepop_a 0 1
	pop_b 4
.d 1 0
	jmp e_System.OSError_sgetLastOSError
else.71
	push_a 0
	push_b 3
	push_b 1
	push_b 4
	updatepop_a 0 1
.d 1 3 iii
	jsr e_System._Posix_sread
.o 1 1 i
	pushI -1
	push_b 1
	eqI
	jmp_false else.72
	push_a 0
	push_b 1
	updatepop_a 0 1
.d 1 1 i
	jsr e_System._Posix_sfreeSt
.o 1 0
	pop_b 5
.d 1 0
	jmp e_System.OSError_sgetLastOSError
else.72
	buildI_b 0
	buildh e_System._Process_d\;80;31;31.32 1
	push_b 1
.d 1 1 i
	jsr e_System._Pointer_sreadP
.o 1 1 i
	push_a 1
	push_b 0
	updatepop_b 0 1
	update_a 1 2
	updatepop_a 0 1
.d 1 1 i
	jsr e_System._Posix_sfreeSt
.o 1 0
	push_a 1
	buildh e_Data.Error_dOk 1
	update_a 1 2
	updatepop_a 0 1
	pop_b 5
.d 2 0
	rtn
else.70
	push_a 0
	jsr_eval 0
	push_b 0
	updatepop_b 0 1
	updatepop_a 0 1
.d 1 1 i
	jsr e_System._Posix_sfreeSt
.o 1 0
	buildAC ""
	buildh ARRAY 1
	buildh e_Data.Error_dOk 1
	pop_b 3
.d 2 0
	rtn
.export e_System._Process_d\;80;31;31.32
.desc e_System._Process_d\;80;31;31.32 _hnf l32 2 0 "\;80;31;31.32"
.a 0 a32
.o 2 0
l32
	repl_args 1 1
.o 2 0
a32
.d 2 0
	jsr ea32
.o 1 0
	buildh ARRAY 1
.d 1 0
	rtn
.o 2 0
ea32
	jsr_eval 1
	pushI_a 1
	pushI_a 0
	pop_a 2
.o 0 2 ii
s32
	push_b 0
	push_b 2
	update_b 1 3
	updatepop_b 0 2
.d 0 2 ii
	jmp e_System._Pointer_sderefCharArray
.export e_System._Process_d\;72;36;30.31
.desc e_System._Process_d\;72;36;30.31 _hnf l31 3 0 "\;72;36;30.31"
.a 0 a31
.o 2 0
l31
	repl_args 2 2
.o 3 0
a31
.d 3 0
	jsr ea31
.o 2 0
	push_a 1
	push_a 1
	buildh _Tuple 2
	updatepop_a 0 2
.d 1 0
	rtn
.o 3 0
ea31
	jsr_eval 2
	pushI_a 2
	update_a 1 2
	update_a 0 1
	pop_a 1
.o 2 1 i
s31
	buildh _Nil 0
	push_a 1
	buildh _Cons 2
	push_a 2
	push_b 0
	push_a 1
	update_a 1 2
	update_a 0 1
	pop_a 1
	update_a 1 3
	updatepop_a 0 2
	updatepop_b 0 1
.d 2 1 i
	jmp s23
.export e_System._Process_s_peekPipe
.descexp e_System._Process_d_peekPipe e_System._Process_n_peekPipe e_System._Process_l_peekPipe 2 0 "_peekPipe"
.a 0 a4
.o 2 0
e_System._Process_l_peekPipe
	repl_args 1 1
.o 2 0
a4
.d 2 0
	jsr ea4
.o 2 0
	push_a 1
	push_a 1
	buildh _Tuple 2
	updatepop_a 0 2
.d 1 0
	rtn
.n 2 e_System._Process_d_peekPipe
.o 1 0
e_System._Process_n_peekPipe
	push_node _cycle_in_spine 2
.d 2 0
	jsr ea4
.o 2 0
	push_a 1
	push_a 1
	fillh _Tuple 2 4
	pop_a 2
.d 1 0
	rtn
.o 2 0
ea4
	jsr_eval 1
	jsr_eval 0
	pushI_a 0
	pop_a 1
.o 1 1 i
e_System._Process_s_peekPipe
.o 1 1 i
s4
	push_a 0
	push_b 0
	updatepop_a 0 1
	updatepop_b 0 1
.d 1 1 i
	jmp e_System._Posix_spipeBufferSize
.export e_System._Process_s_blockAnyPipe
.descexp e_System._Process_d_blockAnyPipe e_System._Process_n_blockAnyPipe e_System._Process_l_blockAnyPipe 2 0 "_blockAnyPipe"
.a 0 a3
.o 2 0
e_System._Process_l_blockAnyPipe
	repl_args 1 1
.o 2 0
a3
.d 2 0
	jsr ea3
.o 2 0
	push_a 1
	push_a 1
	buildh _Tuple 2
	updatepop_a 0 2
.d 1 0
	rtn
.n 2 e_System._Process_d_blockAnyPipe
.o 1 0
e_System._Process_n_blockAnyPipe
	push_node _cycle_in_spine 2
.d 2 0
	jsr ea3
.o 2 0
	push_a 1
	push_a 1
	fillh _Tuple 2 4
	pop_a 2
.d 1 0
	rtn
.o 2 0
ea3
	jsr_eval 1
	jsr_eval 0
.o 2 0
e_System._Process_s_blockAnyPipe
.o 2 0
s3
	create
	push_a 1
	update_a 1 2
	updatepop_a 0 1
.d 2 0
	jsr s30
.o 1 0
	push_a 1
	pushI 0
	push_a 1
	update_a 1 2
	update_a 0 1
	pop_a 1
	update_a 1 2
	updatepop_a 0 1
.d 2 1 i
	jsr s23
.o 2 0
	push_a 0
.d 1 0
	jsr e_Data.Error_sisError
.o 0 1 b
	jmp_false else.73
	create
	push_a 1
	update_a 1 2
	updatepop_a 0 1
.d 2 0
	jsr e_Data.Error_sliftError
.o 1 0
	push_a 1
	push_a 1
	update_a 1 2
	update_a 0 1
	pop_a 1
	update_a 1 2
	updatepop_a 0 1
.d 2 0
	rtn
else.73
	buildh e__predef_d_Unit 0
	buildh e_Data.Error_dOk 1
	push_a 2
	push_a 1
	update_a 1 2
	update_a 0 1
	pop_a 1
	update_a 1 3
	updatepop_a 0 2
.d 2 0
	rtn
.export e_System._Process_dc;58;35;29.30
.export e_System._Process_nc;58;35;29.30
.descn e_System._Process_dc;58;35;29.30 e_System._Process_nc;58;35;29.30 1 0 "c;58;35;29.30"
.n 1 e_System._Process_dc;58;35;29.30 ea30
.o 1 0
e_System._Process_nc;58;35;29.30
	push_node _cycle_in_spine 1
.o 2 0
ea30
	jsr_eval 0
.o 2 0
s30
	push_a 0
	updatepop_a 0 1
.d 2 0
	jmp s71
.o 2 0
s71
	eq_desc _Cons 2 0
	jmp_true case.74
	jmp case.75
case.74
	repl_args 2 2
	push_a 1
	build e_System._Process_dc;58;35;29.30 1 e_System._Process_nc;58;35;29.30
	push_a 1
	fillh _Cons 2 4
	pop_a 2
.d 1 0
	rtn
case.75
	fillh _Nil 0 1
	pop_a 1
.d 1 0
	rtn
.export e_System._Process_s_blockPipe
.descexp e_System._Process_d_blockPipe e_System._Process_n_blockPipe e_System._Process_l_blockPipe 2 0 "_blockPipe"
.a 0 a2
.o 2 0
e_System._Process_l_blockPipe
	repl_args 1 1
.o 2 0
a2
.d 2 0
	jsr ea2
.o 2 0
	push_a 1
	push_a 1
	buildh _Tuple 2
	updatepop_a 0 2
.d 1 0
	rtn
.n 2 e_System._Process_d_blockPipe
.o 1 0
e_System._Process_n_blockPipe
	push_node _cycle_in_spine 2
.d 2 0
	jsr ea2
.o 2 0
	push_a 1
	push_a 1
	fillh _Tuple 2 4
	pop_a 2
.d 1 0
	rtn
.o 2 0
ea2
	jsr_eval 1
	jsr_eval 0
	pushI_a 0
	pop_a 1
.o 1 1 i
e_System._Process_s_blockPipe
.o 1 1 i
s2
	buildh _Nil 0
	buildI_b 0
	buildh _Cons 2
	push_a 1
	pushI 0
	push_a 1
	update_a 1 2
	update_a 0 1
	pop_a 1
	updatepop_b 0 1
	update_a 1 2
	updatepop_a 0 1
.d 2 1 i
	jsr s23
.o 2 0
	buildh e_System._Process_d_f3.162 0
.d 3 0
	jsr e_Data.Tuple_sappFst
.o 2 0
	jsr_eval 1
	jsr_eval 0
.d 2 0
	rtn
.export e_System._Process_d_f3.162
.desc e_System._Process_d_f3.162 _hnf l162 1 0 "_f3.162"
.o 2 0
l162
	update_a 1 0
	create
	update_a 0 2
	pop_a 1
.o 2 0
ea162
.o 2 0
s162
	push_a 0
	jsr_eval 0
	buildh e_System._Process_d_f2.161 0
	update_a 1 2
	updatepop_a 0 1
.d 3 0
	jmp e_Data.Error_sfmap;13
.export e_System._Process_d_f2.161
.desc e_System._Process_d_f2.161 _hnf l161 1 0 "_f2.161"
.o 2 0
l161
	update_a 1 0
	create
	update_a 0 2
	pop_a 1
.o 2 0
ea161
.o 2 0
s161
	buildh e__predef_d_Unit 0
	push_a 1
	push_a 1
	update_a 1 2
	update_a 0 1
	pop_a 1
	update_a 1 2
	updatepop_a 0 1
.d 2 0
	jsr e_StdFunctions_sconst
.o 1 0
	fill_a 0 1
	pop_a 1
.d 1 0
	rtn
.o 2 1 i
s23
	pushI 128
.d 0 1 i
	jsr e_System._Posix_smalloc
.o 0 1 i
	pushI 0
	push_b 1
	eqI
	jmp_false else.76
	push_a 1
	updatepop_a 0 2
	pop_b 2
.d 1 0
	jmp e_System.OSError_sgetLastOSError
else.76
	buildI 15
	buildI 0
	build e_System._Process_dc;98;57;33.34 2 e_System._Process_nc;98;57;33.34
	buildI_b 0
	push_a 1
	update_a 1 2
	update_a 0 1
	pop_a 1
	build e_StdFunc_dseq 2 e_StdFunc_nseq
	create
	push_a 2
	pop_b 1
.d 2 0
	jsr s35
.o 1 0
.d 2 0
	jsr e_StdFunc_sseq
.o 1 0
	buildh e_StdInt_d<;17 0
	buildh e_Data.List_dfoldr`;104 0
	buildh e_Data.List_dfoldr1;103 0
	buildh e_Data.List_dfoldr;102 0
	buildh e_Data.List_dfoldl`;101 0
	buildh e_Data.List_dfoldl1;100 0
	buildh e_Data.List_dfoldl;99 0
	buildh e_Data.List_dfoldMap;98 0
	buildh e_Data.List_dfold;97 0
	push_a 10
	push_a 9
	update_a 1 10
	update_a 2 1
	update_a 3 2
	update_a 4 3
	update_a 5 4
	update_a 6 5
	update_a 7 6
	update_a 8 7
	update_a 9 8
	update_a 0 9
	pop_a 1
.d 10 0
	jsr e_Data.Foldable_smaximum
.o 1 0
	pushI_a 0
	pop_a 1
	pushI 1
	push_b 1
	update_b 1 2
	update_b 0 1
	pop_b 1
	addI
	push_a 2
	push_b 1
	pushI 0
	pushI 0
	pushI_a 1
	push_b 4
	update_b 4 5
	update_b 3 4
	update_b 2 3
	update_b 1 2
	update_b 0 1
	pop_b 1
	update_b 4 5
	update_b 3 4
	update_b 2 3
	update_b 1 2
	updatepop_b 0 1
	buildh _Nil 0
	update_a 0 4
	pop_a 1
.d 1 5 iiiii
	jsr e_System._Posix_sselect_
.o 1 1 i
	pushI -1
	push_b 1
	eqI
	jmp_false else.77
	push_a 0
	pushI_a 2
	updatepop_b 0 1
	updatepop_a 0 4
.d 1 1 i
	jsr e_System._Posix_sfreeSt
.o 1 0
.d 1 0
	jmp e_System.OSError_sgetLastOSError
else.77
	create
	push_a 3
	pop_b 1
	update_a 3 5
	update_a 2 4
	update_a 1 3
	updatepop_a 0 2
.d 2 0
	jsr s36
.o 1 0
	push_a 2
	push_a 1
	update_a 1 2
	update_a 0 1
	pop_a 1
	update_a 2 3
	update_a 1 2
	updatepop_a 0 1
.d 2 0
	jsr e_StdFunc_sseqList
.o 2 0
	push_a 1
	jsr_eval 0
	pushI_a 2
	pop_a 1
	push_a 2
	update_a 1 3
	updatepop_a 0 2
.d 1 1 i
	jsr e_System._Posix_sfreeSt
.o 1 0
	push_a 1
	buildh e_Data.Error_dOk 1
	update_a 1 2
	updatepop_a 0 1
.d 2 0
	rtn
.export e_System._Process_dc;102;52;35.36
.export e_System._Process_nc;102;52;35.36
.descn e_System._Process_dc;102;52;35.36 e_System._Process_nc;102;52;35.36 1 0 "c;102;52;35.36"
.n 1 e_System._Process_dc;102;52;35.36 ea36
.o 1 0
e_System._Process_nc;102;52;35.36
	push_node _cycle_in_spine 1
.o 2 0
ea36
	jsr_eval 0
.o 2 0
s36
	push_a 0
	updatepop_a 0 1
.d 2 0
	jmp s70
.o 2 0
s70
	eq_desc _Cons 2 0
	jmp_true case.78
	jmp case.79
case.78
	repl_args 2 2
	push_a 1
	build e_System._Process_dc;102;52;35.36 1 e_System._Process_nc;102;52;35.36
	push_a 1
	buildh e_System._Process_dgetFdBit;37.38 1
	buildh e_System._Pointer_dreadP 1
	fillh _Cons 2 4
	pop_a 2
.d 1 0
	rtn
case.79
	fillh _Nil 0 1
	pop_a 1
.d 1 0
	rtn
.export e_System._Process_dgetFdBit;37.38
.desc e_System._Process_dgetFdBit;37.38 _hnf l38 2 0 "getFdBit;37.38"
.a 0 a38
.o 2 0
l38
	repl_args 1 1
.o 2 0
a38
.d 2 0
	jsr ea38
.o 0 1 b
	buildB_b 0
	pop_b 1
.d 1 0
	rtn
.o 2 0
ea38
	jsr_eval 1
	jsr_eval 0
	pushI_a 1
	pushI_a 0
	pop_a 2
.o 0 2 ii
s38
	pushI 64
	push_b 1
	remI
	pushI 1
	shiftl%
	push_b 1
	no_op
	pushI 64
	push_b 1
	update_b 1 2
	update_b 0 1
	pop_b 1
	divI
	push_b 3
.d 0 2 ii
	jsr e_System._Pointer_sreadIntElemOffset
.o 0 1 i
	and%
	pushI 0
	push_b 1
	update_b 1 2
	update_b 0 1
	pop_b 1
	eqI
	updatepop_b 0 2
	notB
.d 0 1 b
	rtn
.export e_System._Process_dc;99;33;34.35
.export e_System._Process_nc;99;33;34.35
.descn e_System._Process_dc;99;33;34.35 e_System._Process_nc;99;33;34.35 1 0 "c;99;33;34.35"
.n 1 e_System._Process_dc;99;33;34.35 ea35
.o 1 0
e_System._Process_nc;99;33;34.35
	push_node _cycle_in_spine 1
.o 2 0
ea35
	jsr_eval 0
.o 2 0
s35
	push_a 0
	updatepop_a 0 1
.d 2 0
	jmp s69
.o 2 0
s69
	eq_desc _Cons 2 0
	jmp_true case.80
	jmp case.81
case.80
	repl_args 2 2
	push_a 1
	build e_System._Process_dc;99;33;34.35 1 e_System._Process_nc;99;33;34.35
	push_a 1
	buildh e_System._Process_dsetFdBit;36.37 1
	fillh _Cons 2 4
	pop_a 2
.d 1 0
	rtn
case.81
	fillh _Nil 0 1
	pop_a 1
.d 1 0
	rtn
.export e_System._Process_dsetFdBit;36.37
.desc e_System._Process_dsetFdBit;36.37 _hnf l37 2 0 "setFdBit;36.37"
.a 0 a37
.o 2 0
l37
	repl_args 1 1
.o 2 0
a37
.d 2 0
	jsr ea37
.o 0 1 i
	buildI_b 0
	pop_b 1
.d 1 0
	rtn
.o 2 0
ea37
	jsr_eval 1
	jsr_eval 0
	pushI_a 1
	pushI_a 0
	pop_a 2
.o 0 2 ii
s37
	push_b 0
	no_op
	pushI 64
	push_b 1
	update_b 1 2
	update_b 0 1
	pop_b 1
	divI
	pushI 64
	push_b 2
	remI
	pushI 1
	shiftl%
	push_b 1
	push_b 4
.d 0 2 ii
	jsr e_System._Pointer_sreadIntElemOffset
.o 0 1 i
	or%
	push_b 1
	push_b 4
	update_b 2 5
	update_b 1 4
	updatepop_b 0 3
.d 0 3 iii
	jmp e_System._Pointer_swriteIntElemOffset
.export e_System._Process_dc;98;57;33.34
.export e_System._Process_nc;98;57;33.34
.descn e_System._Process_dc;98;57;33.34 e_System._Process_nc;98;57;33.34 2 0 "c;98;57;33.34"
.n 2 e_System._Process_dc;98;57;33.34 ea34
.o 1 0
e_System._Process_nc;98;57;33.34
	push_node _cycle_in_spine 2
.o 3 0
ea34
	pushI_a 1
	pushI_a 0
	pop_a 2
.o 1 2 ii
s34
	push_b 0
	push_b 2
	ltI
	notB
	jmp_false else.82
	push_b 1
	push_b 1
	build_u e_System._Process_d_f4.163 0 2 e_System._Process_n_f4.163
	buildI_b 0
	buildh e_System._Process_d\;98;22;32.33 1
	fillh _Cons 2 2
	pop_b 2
.d 1 0
	rtn
else.82
	fillh _Nil 0 0
	pop_b 2
.d 1 0
	rtn
.export e_System._Process_d_f4.163
.export e_System._Process_n_f4.163
.descn e_System._Process_d_f4.163 e_System._Process_n_f4.163 2 0 "_f4.163"
.nu 0 2 e_System._Process_d_f4.163 _
.o 1 0
e_System._Process_n_f4.163
	push_node_u _cycle_in_spine 0 2
.o 1 2 ii
ea163
.o 1 2 ii
s163
	pushI 1
	push_b 1
	addI
	push_b 2
	push_b 1
	update_b 1 2
	update_b 0 1
	pop_b 1
	update_b 1 3
	updatepop_b 0 2
.d 1 2 ii
	jmp s34
.export e_System._Process_d\;98;22;32.33
.desc e_System._Process_d\;98;22;32.33 _hnf l33 2 0 "\;98;22;32.33"
.a 0 a33
.o 2 0
l33
	repl_args 1 1
.o 2 0
a33
.d 2 0
	jsr ea33
.o 0 1 i
	buildI_b 0
	pop_b 1
.d 1 0
	rtn
.o 2 0
ea33
	jsr_eval 1
	pushI_a 1
	pushI_a 0
	pop_a 2
.o 0 2 ii
s33
	pushI 0
	push_b 1
	push_b 3
	update_b 2 4
	update_b 1 3
	updatepop_b 0 2
.d 0 3 iii
	jmp e_System._Pointer_swriteIntElemOffset
.export e_System._Process_s_openPipePair
.descexp e_System._Process_d_openPipePair e_System._Process_n_openPipePair e_System._Process_l_openPipePair 2 0 "_openPipePair"
.a 0 a1
.o 2 0
e_System._Process_l_openPipePair
	repl_args 1 1
.o 2 0
a1
.d 2 0
	jsr ea1
.o 2 0
	push_a 1
	push_a 1
	buildh _Tuple 2
	updatepop_a 0 2
.d 1 0
	rtn
.n 2 e_System._Process_d_openPipePair
.o 1 0
e_System._Process_n_openPipePair
	push_node _cycle_in_spine 2
.d 2 0
	jsr ea1
.o 2 0
	push_a 1
	push_a 1
	fillh _Tuple 2 4
	pop_a 2
.d 1 0
	rtn
.o 2 0
ea1
	jsr_eval 1
	jsr_eval 0
	pushB_a 0
	pop_a 1
.o 1 1 b
e_System._Process_s_openPipePair
.o 1 1 b
s1
	pushI 8
	updatepop_b 0 1
.d 0 1 i
	jsr e_System._Posix_smalloc
.o 0 1 i
	pushI 0
	push_b 1
	eqI
	jmp_false else.83
	buildAC "malloc failed\n"
	updatepop_a 0 1
	pop_b 1
.d 1 0
	jsr print_string_
.o 0 0
	halt
	repl_args 2 2
	jsr_eval 1
	jsr_eval 0
.d 2 0
	rtn
else.83
	push_a 0
	push_b 0
	updatepop_a 0 1
.d 1 1 i
	jsr e_System._Posix_spipe
.o 1 1 i
	pushI -1
	push_b 1
	eqI
	jmp_false else.84
	push_a 0
	push_b 1
	updatepop_b 0 2
	updatepop_a 0 1
.d 1 1 i
	jsr e_System._Posix_sfreeSt
.o 1 0
.d 1 0
	jmp e_System.OSError_sgetLastOSError
else.84
	buildh e_System._Process_d\;32;29;27.28 0
	push_b 1
	updatepop_b 0 2
.d 1 1 i
	jsr e_System._Pointer_sreadP
.o 1 1 i
	buildh e_System._Process_d\;33;29;28.29 0
	push_b 0
	updatepop_b 0 1
.d 1 1 i
	jsr e_System._Pointer_sreadP
.o 1 1 i
	push_a 2
	push_b 0
	updatepop_b 0 1
	buildh _Nil 0
	update_a 0 4
	pop_a 1
.d 1 1 i
	jsr e_System._Posix_sfreeSt
.o 1 0
	push_a 1
	push_a 3
	buildh _Tuple 2
	buildh e_Data.Error_dOk 1
	update_a 1 4
	updatepop_a 0 3
.d 2 0
	rtn
.export e_System._Process_d\;33;29;28.29
.desc e_System._Process_d\;33;29;28.29 _hnf l29 1 0 "\;33;29;28.29"
.o 2 0
l29
	pop_a 1
.d 1 0
	jsr ea29
.o 0 1 i
	buildI_b 0
	pop_b 1
.d 1 0
	rtn
.o 1 0
ea29
	jsr_eval 0
	pushI_a 0
	pop_a 1
.o 0 1 i
s29
	pushI 4
	push_b 1
	update_b 1 2
	updatepop_b 0 1
.d 0 2 ii
	jmp e_System._Pointer_sreadInt4S
.export e_System._Process_d\;32;29;27.28
.desc e_System._Process_d\;32;29;27.28 _hnf l28 1 0 "\;32;29;27.28"
.o 2 0
l28
	pop_a 1
.d 1 0
	jsr ea28
.o 0 1 i
	buildI_b 0
	pop_b 1
.d 1 0
	rtn
.o 1 0
ea28
	jsr_eval 0
	pushI_a 0
	pop_a 1
.o 0 1 i
s28
	pushI 0
	push_b 1
	update_b 1 2
	updatepop_b 0 1
.d 0 2 ii
	jmp e_System._Pointer_sreadInt4S
.o 2 2 bi
s81
	eqB_b TRUE 0
	jmp_true case.85
	jmp case.86
case.85
	push_a 0
	push_b 1
	updatepop_a 0 1
	updatepop_b 0 2
.d 1 1 i
	jsr e_System._Posix_scfmakeraw
.o 1 0
	fill_a 0 1
	pop_a 1
.d 1 0
	rtn
case.86
	push_a 0
	buildI_b 1
	update_a 1 2
	updatepop_a 0 1
	pop_b 2
.d 2 0
	jsr s66
.o 1 0
	fill_a 0 1
	pop_a 1
.d 1 0
	rtn
.export e_System._Process_d_if;239;27;223.82
.export e_System._Process_n_if;239;27;223.82
.descn e_System._Process_d_if;239;27;223.82 e_System._Process_n_if;239;27;223.82 2 0 "_if;239;27;223.82"
.n 2 e_System._Process_d_if;239;27;223.82 ea82
.o 1 0
e_System._Process_n_if;239;27;223.82
	push_node _cycle_in_spine 2
.o 3 0
ea82
	pushB_a 0
	pop_a 1
.o 2 1 b
s82
	eqB_b TRUE 0
	jmp_true case.87
	jmp case.88
case.87
	push_a 0
	updatepop_a 0 1
	pop_b 1
.d 1 0
	jsr e_System._Posix_ssetsid
.o 1 0
	fill_a 0 1
	pop_a 1
.d 1 0
	rtn
case.88
	push_a 0
	updatepop_a 0 1
	pop_b 1
.d 1 0
	jsr e_StdFunctions_sid
.o 1 0
	fill_a 0 1
	pop_a 1
.d 1 0
	rtn
.o 2 2 bi
s83
	eqB_b TRUE 0
	jmp_true case.89
	jmp case.90
case.89
	push_a 0
	push_b 1
	updatepop_a 0 1
	updatepop_b 0 2
.d 1 1 i
	jsr e_System._Posix_scfmakeraw
.o 1 0
	fill_a 0 1
	pop_a 1
.d 1 0
	rtn
case.90
	push_a 0
	buildI_b 1
	update_a 1 2
	updatepop_a 0 1
	pop_b 2
.d 2 0
	jsr s65
.o 1 0
	fill_a 0 1
	pop_a 1
.d 1 0
	rtn
.o 2 0
s152
	pushI 0
	push_a 0
.d 1 1 i
	jsr s64
.o 0 1 i
	push_b 0
.d 0 1 i
	jsr e_System._Posix_smalloc
.o 0 1 i
	pushI 0
	push_b 1
	eqI
	jmp_false else.91
	buildAC "malloc failed\n"
	updatepop_a 0 2
	pop_b 2
.d 1 0
	jsr print_string_
.o 0 0
	halt
	repl_args 2 2
	jsr_eval 1
	jsr_eval 0
	push_array 0
	update_a 0 1
	pop_a 1
.d 2 0
	rtn
else.91
	push_a 0
	push_b 1
.d 1 1 i
	jsr s48
.o 1 0
	push_b 1
	push_b 1
	update_b 1 3
	updatepop_b 0 2
.d 1 2 ii
	jsr e_System._Posix_smemcpy_string_to_pointer
.o 0 1 i
	push_a 0
	buildh e_System._Process_dcreateArgv;48.49 1
	updatepop_a 0 1
.d 1 1 i
	jsr e_System._Pointer_sreadP
.o 1 1 i
	push_array 0
	update_a 0 1
	pop_a 1
	pop_b 1
	push_a 1
	push_a 1
	update_a 1 2
	update_a 0 1
	pop_a 1
	update_a 1 2
	updatepop_a 0 1
.d 2 0
	rtn
.o 1 1 i
s153
	push_a 0
	updatepop_a 0 1
.d 1 0
	jsr e_System._Posix_serrno
.o 1 1 i
	push_b 0
.d 0 1 i
	jsr ItoAC
.o 1 0
	push_a 1
	push_b 1
	push_a 1
	update_a 1 2
	update_a 0 1
	pop_a 1
	update_a 1 2
	updatepop_a 0 1
.d 2 1 i
	jsr e_System.Process_swritePipe
.o 2 0
	pop_a 1
	push_b 0
	updatepop_b 0 2
.d 1 1 i
	jmp e_System._Posix_sexit
.o 1 1 b
s154
	eqB_b TRUE 0
	jmp_true case.92
	jmp case.93
case.92
	push_a 0
	pushI 0
	updatepop_a 0 1
	updatepop_b 0 1
.d 1 1 i
	rtn
case.93
	push_a 0
	jsr_eval 0
	pushI 1
	pushI 21518
	pushI 0
	updatepop_a 0 1
	update_b 2 3
	update_b 1 2
	updatepop_b 0 1
.d 1 3 iii
	jmp e_System._Posix_sioctl
.o 3 0
s156
case.94
	eq_desc _Just 1 0
	jmp_true case.96
	jmp case.95
case.96
	repl_args 1 1
	push_a 0
	buildh _Just 1
	push_a 2
	push_a 1
	update_a 1 2
	update_a 0 1
	pop_a 1
	update_a 1 4
	updatepop_a 0 3
.d 2 0
	rtn
case.95
	buildh _None 0
	push_a 3
	push_a 1
	update_a 1 2
	update_a 0 1
	pop_a 1
	update_a 1 4
	updatepop_a 0 3
.d 2 0
	rtn
.o 2 0
s157
	create
	push_a 1
	update_a 1 2
	updatepop_a 0 1
.d 2 0
	jsr s60
.o 1 0
	push_a 1
	push_a 1
	update_a 1 2
	update_a 0 1
	pop_a 1
	update_a 1 2
	updatepop_a 0 1
.d 2 0
	rtn
.o 2 0
s158
	create
	push_a 1
	update_a 1 2
	updatepop_a 0 1
.d 2 0
	jsr s62
.o 1 0
	push_a 1
	push_a 1
	update_a 1 2
	update_a 0 1
	pop_a 1
	update_a 1 2
	updatepop_a 0 1
.d 2 0
	rtn
