.comp 920 000011110011000
.start _nostart_
.depend "System._File" "20210430140248"
.depend "System._CopyFile" "20210430140248"
.depend "System._Pointer" "20210430140248"
.depend "Text" "20210430140248"
.depend "StdCharList" "20210430140248"
.depend "_SystemArray" "20210430140248"
.depend "StdArray" "20210430140248"
.depend "StdEnv" "20210430140248"
.depend "_SystemEnum" "20210430140248"
.depend "StdEnum" "20210430140248"
.depend "StdTuple" "20210430140248"
.depend "StdOrdList" "20210430140248"
.depend "System.OS" "20210430140248"
.depend "StdFile" "20210430140248"
.depend "System._Time" "20210430140248"
.depend "System.Time" "20210430140248"
.depend "System.OSError" "20210430140248"
.depend "StdString" "20210430140248"
.depend "StdMisc" "20210430140248"
.depend "StdFunctions" "20210430140248"
.depend "_SystemEnumStrict" "20210430140248"
.depend "_SystemStrictLists" "20210430140248"
.depend "StdStrictLists" "20210430140248"
.depend "StdGeneric" "20210430140248"
.depend "Data.GenEq" "20210430140248"
.depend "StdReal" "20210430140248"
.depend "StdChar" "20210430140248"
.depend "StdInt" "20210430140248"
.depend "StdBool" "20210430140248"
.depend "StdClass" "20210430140248"
.depend "StdList" "20210430140248"
.depend "Data.Monoid" "20210430140248"
.depend "Control.Applicative" "20210430140248"
.depend "Control.Monad" "20210430140248"
.depend "Data.Functor" "20210430140248"
.depend "Data.Error" "20210430140248"
.depend "StdOverloaded" "20210430140248"
.depend "_SystemDynamic" "20210430140248"
.depend "System.File" "20210430140248"
.module m_System.File "System.File" "20210430140248"
.endinfo
.impmod _system
.implab _cycle_in_spine
.implab _type_error
.implab _hnf
.impdesc e_system_dind
.implab e_system_nind e_system_eaind
.impdesc e_system_dif
.implab e_system_nif e_system_eaif
.implab e_system_sif
.impdesc e_system_dAP
.implab e_system_nAP e_system_eaAP
.implab e_system_sAP
.impdesc ARRAY
.impdesc _Nil
.impdesc _Cons
.impdesc _Conss
.implab n_Conss ea_Conss
.impdesc _Consts
.implab n_Consts ea_Consts
.impdesc _Conssts
.implab n_Conssts ea_Conssts
.impdesc _Tuple
.impdesc d_S.1
.implab n_S.1 ea_S.1
.impdesc d_S.2
.implab n_S.2 ea_S.2
.impdesc d_S.3
.implab n_S.3 ea_S.3
.impdesc d_S.4
.implab n_S.4 ea_S.4
.impdesc d_S.5
.implab n_S.5 ea_S.5
.impdesc d_S.6
.implab n_S.6 ea_S.6
.implab _driver
.impmod System._File
.implab e_System._File_s_fileExists
.implab e_System._File_s_deleteFile
.implab e_System._File_s_getFileInfo
.implab e_System._File_s_moveFile
.impmod System._CopyFile
.implab e_System._CopyFile_s_copyFile
.impmod System._Pointer
.implab e_System._Pointer_spackString
.impmod StdFile
.implab e_StdFile_sfreads
.implab e_StdFile_sfreadline
.impdesc e_StdFile_dfwrites
.implab e_StdFile_nfwrites
.implab e_StdFile_sferror
.implab e_StdFile_sfposition
.implab e_StdFile_sfseek
.impmod System.OSError
.implab e_System.OSError_sgetLastOSError
.impmod StdString
.implab e_StdString_s==;2
.impmod StdBool
.implab e_StdBool_snot
.impmod StdList
.impdesc e_StdList_dreverse
.implab e_StdList_nreverse e_StdList_eareverse
.impmod Data.Error
.implab e_Data.Error_sisError
.impdesc e_Data.Error_dfromOk
.implab e_Data.Error_nfromOk _
.impdesc e_Data.Error_dError
.impdesc e_Data.Error_dOk
.export e_System.File_dCannotOpen
.desc0 e_System.File_dCannotOpen 0 "CannotOpen"
.export e_System.File_dCannotClose
.desc0 e_System.File_dCannotClose 1 "CannotClose"
.export e_System.File_dIOError
.desc0 e_System.File_dIOError 2 "IOError"
.export e_System.File_rFileInfo
.record e_System.File_rFileInfo baaaii 3 3 "FileInfo"
.descexp e_System.File_tFileInfo e_System.File_cFileInfo _hnf 6 1 "FileInfo"
.n 6 e_System.File_tFileInfo
.o 1 0
e_System.File_cFileInfo
	push_node _cycle_in_spine 6
	jsr_eval 5
	jsr_eval 4
	jsr_eval 3
	jsr_eval 2
	jsr_eval 1
	jsr_eval 0
	pushI_a 5
	pushI_a 4
	pushB_a 0
	update_a 3 5
	update_a 1 3
	update_a 2 4
	pop_a 3
.impmod System.File
.impdesc e_System.File_rFileInfo
	fill_r e_System.File_rFileInfo 3 3 3 0 0
	pop_a 3
	pop_b 3
.d 1 0
	rtn
.export e_System.File_dFileInfo.directory
.export e_System.File_nFileInfo.directory
.descs e_System.File_dFileInfo.directory e_System.File_nFileInfo.directory BOOL 5 0 "FileInfo.directory"
.n -3 e_System.File_dFileInfo.directory
.o 1 0
e_System.File_nFileInfo.directory
	push_node _cycle_in_spine 1
	jsr_eval 0
	push_r_args_b 0 3 3 1 1
	pop_a 1
	fillB_b 0 0
	pop_b 1
.d 1 0
	rtn
.export e_System.File_dFileInfo.creationTime
.export e_System.File_nFileInfo.creationTime
.descs e_System.File_dFileInfo.creationTime e_System.File_nFileInfo.creationTime _ 1 0 "FileInfo.creationTime"
.n -4 e_System.File_dFileInfo.creationTime
.o 1 0
e_System.File_nFileInfo.creationTime
	push_node _cycle_in_spine 1
	jsr_eval 0
	repl_r_args_a 3 3 1 1
	fill_a 0 1
	pop_a 1
.d 1 0
	rtn
.export e_System.File_dFileInfo.lastModifiedTime
.export e_System.File_nFileInfo.lastModifiedTime
.descs e_System.File_dFileInfo.lastModifiedTime e_System.File_nFileInfo.lastModifiedTime _ 3 0 "FileInfo.lastModifiedTime"
.n -4 e_System.File_dFileInfo.lastModifiedTime
.o 1 0
e_System.File_nFileInfo.lastModifiedTime
	push_node _cycle_in_spine 1
	jsr_eval 0
	repl_r_args_a 3 3 2 1
	fill_a 0 1
	pop_a 1
.d 1 0
	rtn
.export e_System.File_dFileInfo.lastAccessedTime
.export e_System.File_nFileInfo.lastAccessedTime
.descs e_System.File_dFileInfo.lastAccessedTime e_System.File_nFileInfo.lastAccessedTime _ 4 0 "FileInfo.lastAccessedTime"
.n -4 e_System.File_dFileInfo.lastAccessedTime
.o 1 0
e_System.File_nFileInfo.lastAccessedTime
	push_node _cycle_in_spine 1
	jsr_eval 0
	repl_r_args_a 3 3 3 1
	fill_a 0 1
	pop_a 1
.d 1 0
	rtn
.export e_System.File_dFileInfo.sizeHigh
.export e_System.File_nFileInfo.sizeHigh
.descs e_System.File_dFileInfo.sizeHigh e_System.File_nFileInfo.sizeHigh INT 6 0 "FileInfo.sizeHigh"
.n -3 e_System.File_dFileInfo.sizeHigh
.o 1 0
e_System.File_nFileInfo.sizeHigh
	push_node _cycle_in_spine 1
	jsr_eval 0
	push_r_args_b 0 3 3 2 1
	pop_a 1
	fillI_b 0 0
	pop_b 1
.d 1 0
	rtn
.export e_System.File_dFileInfo.sizeLow
.export e_System.File_nFileInfo.sizeLow
.descs e_System.File_dFileInfo.sizeLow e_System.File_nFileInfo.sizeLow INT 7 0 "FileInfo.sizeLow"
.n -3 e_System.File_dFileInfo.sizeLow
.o 1 0
e_System.File_nFileInfo.sizeLow
	push_node _cycle_in_spine 1
	jsr_eval 0
	push_r_args_b 0 3 3 3 1
	pop_a 1
	fillI_b 0 0
	pop_b 1
.d 1 0
	rtn
.export e_System.File_sTD;FileInfo
.export e_System.File_eaTD;FileInfo
.descexp e_System.File_dTD;FileInfo e_System.File_nTD;FileInfo e_System.File_lTD;FileInfo 1 0 "TD;FileInfo"
.o 2 0
e_System.File_lTD;FileInfo
	update_a 1 0
	create
	update_a 0 2
	pop_a 1
.d 2 0
	jmp e_System.File_eaTD;FileInfo
.n 1 e_System.File_dTD;FileInfo e_System.File_eaTD;FileInfo
.o 1 0
e_System.File_nTD;FileInfo
	push_node _cycle_in_spine 1
.o 2 0
e_System.File_eaTD;FileInfo
.o 2 0
e_System.File_sTD;FileInfo
.o 2 0
s14
	fillh _Nil 0 1
	pop_a 1
.d 1 0
	rtn
.export e_System.File_sTD;FileError
.export e_System.File_eaTD;FileError
.descexp e_System.File_dTD;FileError e_System.File_nTD;FileError e_System.File_lTD;FileError 1 0 "TD;FileError"
.o 2 0
e_System.File_lTD;FileError
	update_a 1 0
	create
	update_a 0 2
	pop_a 1
.d 2 0
	jmp e_System.File_eaTD;FileError
.n 1 e_System.File_dTD;FileError e_System.File_eaTD;FileError
.o 1 0
e_System.File_nTD;FileError
	push_node _cycle_in_spine 1
.o 2 0
e_System.File_eaTD;FileError
.o 2 0
e_System.File_sTD;FileError
.o 2 0
s13
	fillh _Nil 0 1
	pop_a 1
.d 1 0
	rtn
.export e_System.File_stoString;11
.descexp e_System.File_dtoString;11 e_System.File_ntoString;11 e_System.File_ltoString;11 1 0 "toString;11"
.o 2 0
e_System.File_itoString;11
	pop_a 1
.d 1 0
	jmp s12
.ai 1 _ e_System.File_itoString;11
.o 2 0
e_System.File_ltoString;11
	pop_a 1
.d 1 0
	jsr ea12
.o 1 0
	buildh ARRAY 1
.d 1 0
	rtn
.n 1 e_System.File_dtoString;11
.o 1 0
e_System.File_ntoString;11
	push_node _cycle_in_spine 1
.d 1 0
	jsr ea12
.o 1 0
	fillh ARRAY 1 1
.d 1 0
	rtn
.o 1 0
ea12
	jsr_eval 0
.o 1 0
e_System.File_stoString;11
.o 1 0
s12
	pushD_a 0
	jmpD ea e_System.File_dCannotClose 0 case.2 case.3
case.1
	pop_b 1
	pop_a 1
	buildAC "Cannot open"
.d 1 0
	rtn
case.2
	pop_b 1
	pop_a 1
	buildAC "Cannot close"
.d 1 0
	rtn
case.3
	pop_b 1
	pop_a 1
	buildAC "I/O error"
.d 1 0
	rtn
.export e_System.File_scopyFile
.descexp e_System.File_dcopyFile e_System.File_ncopyFile e_System.File_lcopyFile 3 0 "copyFile"
.a 0 a11
.o 2 0
e_System.File_lcopyFile
	repl_args 2 2
.o 3 0
a11
.d 3 0
	jsr ea11
.o 2 0
	push_a 1
	push_a 1
	buildh _Tuple 2
	updatepop_a 0 2
.d 1 0
	rtn
.n 3 e_System.File_dcopyFile
.o 1 0
e_System.File_ncopyFile
	push_node _cycle_in_spine 3
.d 3 0
	jsr ea11
.o 2 0
	push_a 1
	push_a 1
	fillh _Tuple 2 4
	pop_a 2
.d 1 0
	rtn
.o 3 0
ea11
	jsr_eval 2
	jsr_eval 1
	jsr_eval 0
	push_array 1
	push_array 1
	update_a 1 3
	update_a 0 2
	pop_a 2
.o 3 0
e_System.File_scopyFile
.o 3 0
s11
	push_a 1
	update_a 1 2
	updatepop_a 0 1
.d 1 0
	jsr e_System._Pointer_spackString
.o 1 0
	push_a 1
	buildh _Nil 0
	update_a 0 3
	pop_a 1
.d 1 0
	jsr e_System._Pointer_spackString
.o 1 0
	push_a 3
	push_a 2
	update_a 1 3
	update_a 2 1
	update_a 0 2
	pop_a 1
	update_a 2 4
	update_a 1 3
	updatepop_a 0 2
.d 3 0
	jmp e_System._CopyFile_s_copyFile
.export e_System.File_smoveFile
.descexp e_System.File_dmoveFile e_System.File_nmoveFile e_System.File_lmoveFile 3 0 "moveFile"
.a 0 a10
.o 2 0
e_System.File_lmoveFile
	repl_args 2 2
.o 3 0
a10
.d 3 0
	jsr ea10
.o 2 0
	push_a 1
	push_a 1
	buildh _Tuple 2
	updatepop_a 0 2
.d 1 0
	rtn
.n 3 e_System.File_dmoveFile
.o 1 0
e_System.File_nmoveFile
	push_node _cycle_in_spine 3
.d 3 0
	jsr ea10
.o 2 0
	push_a 1
	push_a 1
	fillh _Tuple 2 4
	pop_a 2
.d 1 0
	rtn
.o 3 0
ea10
	jsr_eval 2
	jsr_eval 1
	jsr_eval 0
	push_array 1
	push_array 1
	update_a 1 3
	update_a 0 2
	pop_a 2
.o 3 0
e_System.File_smoveFile
.o 3 0
s10
	push_a 1
	update_a 1 2
	updatepop_a 0 1
.d 1 0
	jsr e_System._Pointer_spackString
.o 1 0
	push_a 1
	buildh _Nil 0
	update_a 0 3
	pop_a 1
.d 1 0
	jsr e_System._Pointer_spackString
.o 1 0
	push_a 3
	push_a 2
	update_a 1 3
	update_a 2 1
	update_a 0 2
	pop_a 1
	update_a 2 4
	update_a 1 3
	updatepop_a 0 2
.d 3 0
	jmp e_System._File_s_moveFile
.export e_System.File_sgetFileInfo
.descexp e_System.File_dgetFileInfo e_System.File_ngetFileInfo e_System.File_lgetFileInfo 2 0 "getFileInfo"
.a 0 a9
.o 2 0
e_System.File_lgetFileInfo
	repl_args 1 1
.o 2 0
a9
.d 2 0
	jsr ea9
.o 2 0
	push_a 1
	push_a 1
	buildh _Tuple 2
	updatepop_a 0 2
.d 1 0
	rtn
.n 2 e_System.File_dgetFileInfo
.o 1 0
e_System.File_ngetFileInfo
	push_node _cycle_in_spine 2
.d 2 0
	jsr ea9
.o 2 0
	push_a 1
	push_a 1
	fillh _Tuple 2 4
	pop_a 2
.d 1 0
	rtn
.o 2 0
ea9
	jsr_eval 1
	jsr_eval 0
	push_array 0
	update_a 0 1
	pop_a 1
.o 2 0
e_System.File_sgetFileInfo
.o 2 0
s9
	push_a 1
	push_a 1
	update_a 1 3
	updatepop_a 0 2
.d 2 0
	jmp e_System._File_s_getFileInfo
.export e_System.File_sdeleteFile
.descexp e_System.File_ddeleteFile e_System.File_ndeleteFile e_System.File_ldeleteFile 2 0 "deleteFile"
.a 0 a8
.o 2 0
e_System.File_ldeleteFile
	repl_args 1 1
.o 2 0
a8
.d 2 0
	jsr ea8
.o 2 0
	push_a 1
	push_a 1
	buildh _Tuple 2
	updatepop_a 0 2
.d 1 0
	rtn
.n 2 e_System.File_ddeleteFile
.o 1 0
e_System.File_ndeleteFile
	push_node _cycle_in_spine 2
.d 2 0
	jsr ea8
.o 2 0
	push_a 1
	push_a 1
	fillh _Tuple 2 4
	pop_a 2
.d 1 0
	rtn
.o 2 0
ea8
	jsr_eval 1
	jsr_eval 0
	push_array 0
	update_a 0 1
	pop_a 1
.o 2 0
e_System.File_sdeleteFile
.o 2 0
s8
	push_a 1
	push_a 1
	update_a 1 3
	updatepop_a 0 2
.d 2 0
	jsr e_System._File_s_deleteFile
.o 1 1 b
	push_b 0
	jmp_false else.4
	buildh e__predef_d_Unit 0
	buildh e_Data.Error_dOk 1
	push_a 1
	push_a 1
	update_a 1 2
	update_a 0 1
	pop_a 1
	update_a 1 2
	updatepop_a 0 1
	pop_b 1
.d 2 0
	rtn
else.4
	push_a 0
	updatepop_a 0 1
	pop_b 1
.d 1 0
	jmp e_System.OSError_sgetLastOSError
.export e_System.File_sfileExists
.descexp e_System.File_dfileExists e_System.File_nfileExists e_System.File_lfileExists 2 0 "fileExists"
.a 0 a7
.o 2 0
e_System.File_lfileExists
	repl_args 1 1
.o 2 0
a7
.d 2 0
	jsr ea7
.o 1 1 b
	push_a 0
	buildB_b 0
	buildh _Tuple 2
	updatepop_a 0 1
	pop_b 1
.d 1 0
	rtn
.n 2 e_System.File_dfileExists
.o 1 0
e_System.File_nfileExists
	push_node _cycle_in_spine 2
.d 2 0
	jsr ea7
.o 1 1 b
	push_a 0
	buildB_b 0
	fillh _Tuple 2 3
	pop_a 1
	pop_b 1
.d 1 0
	rtn
.o 2 0
ea7
	jsr_eval 1
	jsr_eval 0
	push_array 0
	update_a 0 1
	pop_a 1
.o 2 0
e_System.File_sfileExists
.o 2 0
s7
	push_a 1
	push_a 1
	update_a 1 3
	updatepop_a 0 2
.d 2 0
	jmp e_System._File_s_fileExists
.export e_System.File_swriteFile
.descexp e_System.File_dwriteFile e_System.File_nwriteFile e_System.File_lwriteFile 4 0 "writeFile"
.a 0 a5
.o 2 0
e_System.File_lwriteFile
	repl_args 3 3
.o 4 0
a5
.d 4 0
	jsr ea5
.o 2 0
	push_a 1
	push_a 1
	buildh _Tuple 2
	updatepop_a 0 2
.d 1 0
	rtn
.n 4 e_System.File_dwriteFile
.o 1 0
e_System.File_nwriteFile
	push_node _cycle_in_spine 4
.d 4 0
	jsr ea5
.o 2 0
	push_a 1
	push_a 1
	fillh _Tuple 2 4
	pop_a 2
.d 1 0
	rtn
.o 4 0
ea5
	jsr_eval 3
	jsr_eval 2
	jsr_eval 1
	jsr_eval 0
	push_array 2
	push_array 2
	push_r_args 2 4 0
	update_a 5 8
	update_a 2 5
	update_a 4 7
	update_a 1 4
	update_a 3 6
	update_a 0 3
	pop_a 3
.o 7 0
e_System.File_swriteFile
.o 7 0
s5
	push_a 5
	buildh ARRAY 1
	buildh e_System.File_d\;58;35;15.16 1
	push_a 7
	pushI 4
	push_a 6
	push_a 6
	push_a 6
	push_a 6
	push_a 6
	push_a 6
	update_a 6 7
	update_a 0 6
	pop_a 1
	update_a 6 13
	update_a 5 12
	update_a 4 11
	update_a 3 10
	update_a 2 9
	update_a 1 8
	updatepop_a 0 7
.d 7 1 i
	jmp s6
.export e_System.File_d\;58;35;15.16
.desc e_System.File_d\;58;35;15.16 _hnf l16 2 0 "\;58;35;15.16"
.a 0 a16
.o 2 0
l16
	repl_args 1 1
.o 2 0
a16
.o 2 0
ea16
	push_a 1
	push_a 1
	build e_StdFile_dfwrites 2 e_StdFile_nfwrites
	buildh e__predef_d_Unit 0
	buildh e_Data.Error_dOk 1
	update_a 1 3
	updatepop_a 0 2
	push_a 1
	push_a 1
	buildh _Tuple 2
	updatepop_a 0 2
.d 1 0
	rtn
.export e_System.File_sreadFileLines
.descexp e_System.File_dreadFileLines e_System.File_nreadFileLines e_System.File_lreadFileLines 3 0 "readFileLines"
.a 0 a2
.o 2 0
e_System.File_lreadFileLines
	repl_args 2 2
.o 3 0
a2
.d 3 0
	jsr ea2
.o 2 0
	push_a 1
	push_a 1
	buildh _Tuple 2
	updatepop_a 0 2
.d 1 0
	rtn
.n 3 e_System.File_dreadFileLines
.o 1 0
e_System.File_nreadFileLines
	push_node _cycle_in_spine 3
.d 3 0
	jsr ea2
.o 2 0
	push_a 1
	push_a 1
	fillh _Tuple 2 4
	pop_a 2
.d 1 0
	rtn
.o 3 0
ea2
	jsr_eval 2
	jsr_eval 1
	jsr_eval 0
	push_array 1
	push_r_args 1 4 0
	update_a 4 6
	update_a 2 4
	update_a 0 2
	update_a 3 5
	update_a 1 3
	pop_a 2
.o 6 0
e_System.File_sreadFileLines
.o 6 0
s2
	buildh e_System.File_dreadAllLines 0
	push_a 6
	pushI 3
	push_a 6
	push_a 6
	push_a 6
	push_a 6
	push_a 6
	push_a 6
	update_a 6 7
	update_a 0 6
	pop_a 1
	update_a 6 12
	update_a 5 11
	update_a 4 10
	update_a 3 9
	update_a 2 8
	update_a 1 7
	updatepop_a 0 6
.d 7 1 i
	jmp s6
.export e_System.File_sreadAllLines
.descexp e_System.File_dreadAllLines e_System.File_nreadAllLines e_System.File_lreadAllLines 1 0 "readAllLines"
.o 2 0
e_System.File_lreadAllLines
	pop_a 1
.d 1 0
	jsr ea3
.o 1 2 f
	buildF_b 0
	push_a 1
	buildh _Tuple 2
	updatepop_a 0 1
	pop_b 2
.d 1 0
	rtn
.n 1 e_System.File_dreadAllLines
.o 1 0
e_System.File_nreadAllLines
	push_node _cycle_in_spine 1
.d 1 0
	jsr ea3
.o 1 2 f
	buildF_b 0
	push_a 1
	fillh _Tuple 2 3
	pop_a 1
	pop_b 2
.d 1 0
	rtn
.o 1 0
ea3
	jsr_eval 0
	pushF_a 0
	pop_a 1
.o 0 2 f
e_System.File_sreadAllLines
.o 0 2 f
s3
	buildh _Nil 0
	push_b 1
	push_b 1
	update_b 1 3
	updatepop_b 0 2
.d 1 2 f
	jsr s62
.o 1 2 f
	push_b 1
	push_b 1
	push_a 0
	updatepop_a 0 1
	update_b 1 3
	updatepop_b 0 2
.d 1 2 f
	jmp s61
.export e_System.File_sreadFile
.descexp e_System.File_dreadFile e_System.File_nreadFile e_System.File_lreadFile 3 0 "readFile"
.a 0 a1
.o 2 0
e_System.File_lreadFile
	repl_args 2 2
.o 3 0
a1
.d 3 0
	jsr ea1
.o 2 0
	push_a 1
	push_a 1
	buildh _Tuple 2
	updatepop_a 0 2
.d 1 0
	rtn
.n 3 e_System.File_dreadFile
.o 1 0
e_System.File_nreadFile
	push_node _cycle_in_spine 3
.d 3 0
	jsr ea1
.o 2 0
	push_a 1
	push_a 1
	fillh _Tuple 2 4
	pop_a 2
.d 1 0
	rtn
.o 3 0
ea1
	jsr_eval 2
	jsr_eval 1
	jsr_eval 0
	push_array 1
	push_r_args 1 4 0
	update_a 4 6
	update_a 2 4
	update_a 0 2
	update_a 3 5
	update_a 1 3
	pop_a 2
.o 6 0
e_System.File_sreadFile
.o 6 0
s1
	buildh e_System.File_dreadAll 0
	push_a 6
	pushI 3
	push_a 6
	push_a 6
	push_a 6
	push_a 6
	push_a 6
	push_a 6
	update_a 6 7
	update_a 0 6
	pop_a 1
	update_a 6 12
	update_a 5 11
	update_a 4 10
	update_a 3 9
	update_a 2 8
	update_a 1 7
	updatepop_a 0 6
.d 7 1 i
	jmp s6
.export e_System.File_swithFile
.descexp e_System.File_dwithFile e_System.File_nwithFile e_System.File_lwithFile 5 0 "withFile"
.a 0 a6
.o 2 0
e_System.File_lwithFile
	repl_args 4 4
.o 5 0
a6
.d 5 0
	jsr ea6
.o 2 0
	push_a 1
	push_a 1
	buildh _Tuple 2
	updatepop_a 0 2
.d 1 0
	rtn
.n 5 e_System.File_dwithFile
.o 1 0
e_System.File_nwithFile
	push_node _cycle_in_spine 5
.d 5 0
	jsr ea6
.o 2 0
	push_a 1
	push_a 1
	fillh _Tuple 2 4
	pop_a 2
.d 1 0
	rtn
.o 5 0
ea6
	jsr_eval 4
	jsr_eval 2
	jsr_eval 1
	jsr_eval 0
	pushI_a 2
	push_array 1
	push_r_args 1 4 0
	update_a 4 7
	update_a 1 4
	update_a 3 6
	update_a 0 3
	update_a 2 5
	pop_a 3
.o 7 1 i
e_System.File_swithFile
.o 7 1 i
s6
	push_a 6
	push_b 0
	push_a 2
	push_a 6
	push_a 1
	update_a 1 2
	update_a 0 1
	pop_a 1
	updatepop_b 0 1
	buildh _Nil 0
	update_a 0 8
	update_a 0 10
	pop_a 1
.d 3 1 i
	jsr_i 3
.o 1 3 bf
	push_b 0
	notB
	jmp_false else.5
	buildh e_System.File_dCannotOpen 0
	buildh e_Data.Error_dError 1
	push_a 1
	push_a 1
	update_a 1 2
	update_a 0 1
	pop_a 1
	update_a 1 9
	updatepop_a 0 8
	pop_b 3
.d 2 0
	rtn
else.5
	push_a 6
	jsr_eval 0
	buildF_b 1
	push_a 1
	update_a 1 2
	update_a 0 1
	pop_a 1
	pop_b 3
	buildh _Nil 0
	update_a 0 9
	pop_a 1
	jsr_ap 1
	push_arg 0 2 1
	jsr_eval 0
	push_a 0
.d 1 0
	jsr e_Data.Error_sisError
.o 0 1 b
	jmp_false else.6
	push_a 2
	push_a 1
	update_a 1 11
	updatepop_a 0 10
.d 2 0
	rtn
else.6
	push_a 2
	push_arg 2 2 2
	jsr_eval 0
	pushF_a 0
	pop_a 1
	push_a 4
	update_a 2 11
	update_a 1 10
	updatepop_a 0 9
.d 2 2 f
	jsr_i 2
.o 1 1 b
	push_b 0
	notB
	jmp_false else.7
	buildh e_System.File_dCannotClose 0
	buildh e_Data.Error_dError 1
	push_a 1
	push_a 1
	update_a 1 2
	update_a 0 1
	pop_a 1
	update_a 1 3
	updatepop_a 0 2
	pop_b 1
.d 2 0
	rtn
else.7
	push_a 1
	build e_Data.Error_dfromOk 1 e_Data.Error_nfromOk
	buildh e_Data.Error_dOk 1
	push_a 1
	push_a 1
	update_a 1 2
	update_a 0 1
	pop_a 1
	update_a 1 3
	updatepop_a 0 2
	pop_b 1
.d 2 0
	rtn
.export e_System.File_sreadAll
.descexp e_System.File_dreadAll e_System.File_nreadAll e_System.File_lreadAll 1 0 "readAll"
.o 2 0
e_System.File_lreadAll
	pop_a 1
.d 1 0
	jsr ea4
.o 1 2 f
	buildF_b 0
	push_a 1
	buildh _Tuple 2
	updatepop_a 0 1
	pop_b 2
.d 1 0
	rtn
.n 1 e_System.File_dreadAll
.o 1 0
e_System.File_nreadAll
	push_node _cycle_in_spine 1
.d 1 0
	jsr ea4
.o 1 2 f
	buildF_b 0
	push_a 1
	fillh _Tuple 2 3
	pop_a 1
	pop_b 2
.d 1 0
	rtn
.o 1 0
ea4
	jsr_eval 0
	pushF_a 0
	pop_a 1
.o 0 2 f
e_System.File_sreadAll
.o 0 2 f
s4
	pushI 2
	pushI 0
	push_b 3
	push_b 3
	update_b 3 5
	update_b 2 4
	update_b 1 3
	updatepop_b 0 2
.d 0 4 f i i
	jsr seekF
.o 0 3 b f
	push_b 0
	notB
	jmp_false else.8
	buildh e_System.File_dIOError 0
	buildh e_Data.Error_dError 1
	push_b 2
	push_b 2
	update_b 1 4
	updatepop_b 0 3
.d 1 2 f
	rtn
else.8
	push_b 2
	push_b 2
	update_b 1 4
	updatepop_b 0 3
.d 0 2 f
	jsr positionF
.o 0 3 i f
	push_b 2
	push_b 2
.d 0 2 f
	jsr errorF
.o 0 3 b f
	push_b 0
	jmp_false else.9
	buildh e_System.File_dIOError 0
	buildh e_Data.Error_dError 1
	push_b 2
	push_b 2
	update_b 1 7
	updatepop_b 0 6
.d 1 2 f
	rtn
else.9
	pushI 0
	pushI 0
	push_b 4
	push_b 4
	update_b 3 6
	update_b 2 5
	update_b 1 4
	updatepop_b 0 3
.d 0 4 f i i
	jsr seekF
.o 0 3 b f
	push_b 0
	notB
	jmp_false else.10
	buildh e_System.File_dIOError 0
	buildh e_Data.Error_dError 1
	push_b 2
	push_b 2
	update_b 1 7
	updatepop_b 0 6
.d 1 2 f
	rtn
else.10
	push_b 3
	push_b 3
	push_b 3
	update_b 2 8
	update_b 1 7
	updatepop_b 0 6
.d 0 3 f i
	jsr readFS
.o 1 2 f
	push_b 1
	push_b 1
	update_b 1 3
	updatepop_b 0 2
.d 0 2 f
	jsr errorF
.o 0 3 b f
	push_b 0
	jmp_false else.11
	buildh e_System.File_dIOError 0
	buildh e_Data.Error_dError 1
	push_b 2
	push_b 2
	updatepop_a 0 1
	update_b 1 4
	updatepop_b 0 3
.d 1 2 f
	rtn
else.11
	push_a 0
	buildh ARRAY 1
	buildh e_Data.Error_dOk 1
	push_b 2
	push_b 2
	updatepop_a 0 1
	update_b 1 4
	updatepop_b 0 3
.d 1 2 f
	rtn
.o 1 2 f
s61
	eq_desc e_Data.Error_dError 1 0
	jmp_true case.12
	jmp case.13
case.12
	repl_args 1 1
	push_a 0
	buildh e_Data.Error_dError 1
	push_b 1
	push_b 1
	updatepop_a 0 1
	update_b 1 3
	updatepop_b 0 2
.d 1 2 f
	rtn
case.13
	repl_args 1 1
	push_a 0
	build e_StdList_dreverse 1 e_StdList_nreverse
	buildh e_Data.Error_dOk 1
	push_b 1
	push_b 1
	updatepop_a 0 1
	update_b 1 3
	updatepop_b 0 2
.d 1 2 f
	rtn
.o 1 2 f
s62
	push_b 1
	push_b 1
	update_b 1 3
	updatepop_b 0 2
.d 0 2 f
	jsr readLineF
.o 1 2 f
	push_b 1
	push_b 1
	update_b 1 3
	updatepop_b 0 2
.d 0 2 f
	jsr errorF
.o 0 3 b f
	push_b 0
	jmp_false else.14
	buildh e_System.File_dIOError 0
	buildh e_Data.Error_dError 1
	push_b 2
	push_b 2
	updatepop_a 0 2
	update_b 1 4
	updatepop_b 0 3
.d 1 2 f
	rtn
else.14
	buildAC ""
	push_a 1
	pop_b 1
.d 2 0
	jsr eqAC
.o 0 1 b
	jmp_false else.15
	push_a 1
	buildh e_Data.Error_dOk 1
	push_b 1
	push_b 1
	updatepop_a 0 2
	update_b 1 3
	updatepop_b 0 2
.d 1 2 f
	rtn
else.15
	push_a 1
	push_a 1
	buildh ARRAY 1
	buildh _Cons 2
	push_b 1
	push_b 1
	updatepop_a 0 2
	update_b 1 3
	updatepop_b 0 2
.d 1 2 f
	jmp s62
