.comp 920 000011110011000
.start _nostart_
.depend "System._OSError" "20210430140248"
.depend "_SystemEnumStrict" "20210430140248"
.depend "_SystemStrictLists" "20210430140248"
.depend "StdStrictLists" "20210430140248"
.depend "StdGeneric" "20210430140248"
.depend "Data.GenEq" "20210430140248"
.depend "StdReal" "20210430140248"
.depend "StdChar" "20210430140248"
.depend "StdInt" "20210430140248"
.depend "StdBool" "20210430140248"
.depend "StdClass" "20210430140248"
.depend "StdList" "20210430140248"
.depend "Data.Monoid" "20210430140248"
.depend "Control.Applicative" "20210430140248"
.depend "Control.Monad" "20210430140248"
.depend "Data.Functor" "20210430140248"
.depend "Data.Error" "20210430140248"
.depend "StdOverloaded" "20210430140248"
.depend "_SystemDynamic" "20210430140248"
.depend "System.OSError" "20210430140248"
.module m_System.OSError "System.OSError" "20210430140248"
.endinfo
.impmod _system
.implab _cycle_in_spine
.implab _type_error
.implab _hnf
.impdesc e_system_dind
.implab e_system_nind e_system_eaind
.impdesc e_system_dif
.implab e_system_nif e_system_eaif
.implab e_system_sif
.impdesc e_system_dAP
.implab e_system_nAP e_system_eaAP
.implab e_system_sAP
.impdesc ARRAY
.impdesc _Nil
.impdesc _Cons
.impdesc _Conss
.implab n_Conss ea_Conss
.impdesc _Consts
.implab n_Consts ea_Consts
.impdesc _Conssts
.implab n_Conssts ea_Conssts
.impdesc _Tuple
.impdesc d_S.1
.implab n_S.1 ea_S.1
.impdesc d_S.2
.implab n_S.2 ea_S.2
.impdesc d_S.3
.implab n_S.3 ea_S.3
.impdesc d_S.4
.implab n_S.4 ea_S.4
.impdesc d_S.5
.implab n_S.5 ea_S.5
.impdesc d_S.6
.implab n_S.6 ea_S.6
.implab _driver
.impmod System._OSError
.implab e_System._OSError_s_getLastOSErrorCode
.impdesc e_System._OSError_d_osErrorCodeToMessage
.implab e_System._OSError_n_osErrorCodeToMessage
.impmod Data.Error
.impdesc e_Data.Error_dError
.export e_System.OSError_sTD;MaybeOSErrorCode
.export e_System.OSError_eaTD;MaybeOSErrorCode
.descexp e_System.OSError_dTD;MaybeOSErrorCode e_System.OSError_nTD;MaybeOSErrorCode e_System.OSError_lTD;MaybeOSErrorCode 1 0 "TD;MaybeOSErrorCode"
.o 2 0 
e_System.OSError_lTD;MaybeOSErrorCode
	update_a 1 0
	create 
.d 2 0 
	put_a_jmp 2 e_System.OSError_eaTD;MaybeOSErrorCode
.n 1 e_System.OSError_dTD;MaybeOSErrorCode e_System.OSError_eaTD;MaybeOSErrorCode
.o 1 0 
e_System.OSError_nTD;MaybeOSErrorCode
	push_node _cycle_in_spine 1
.o 2 0 
e_System.OSError_eaTD;MaybeOSErrorCode
.o 2 0 
e_System.OSError_sTD;MaybeOSErrorCode
.o 2 0 
s8
	fillh _Nil 0 1
.d 1 0 
	pop_a_rtn 1
.export e_System.OSError_sTD;MaybeOSError
.export e_System.OSError_eaTD;MaybeOSError
.descexp e_System.OSError_dTD;MaybeOSError e_System.OSError_nTD;MaybeOSError e_System.OSError_lTD;MaybeOSError 1 0 "TD;MaybeOSError"
.o 2 0 
e_System.OSError_lTD;MaybeOSError
	update_a 1 0
	create 
.d 2 0 
	put_a_jmp 2 e_System.OSError_eaTD;MaybeOSError
.n 1 e_System.OSError_dTD;MaybeOSError e_System.OSError_eaTD;MaybeOSError
.o 1 0 
e_System.OSError_nTD;MaybeOSError
	push_node _cycle_in_spine 1
.o 2 0 
e_System.OSError_eaTD;MaybeOSError
.o 2 0 
e_System.OSError_sTD;MaybeOSError
.o 2 0 
s7
	fillh _Nil 0 1
.d 1 0 
	pop_a_rtn 1
.export e_System.OSError_sTD;OSError
.export e_System.OSError_eaTD;OSError
.descexp e_System.OSError_dTD;OSError e_System.OSError_nTD;OSError e_System.OSError_lTD;OSError 1 0 "TD;OSError"
.o 2 0 
e_System.OSError_lTD;OSError
	update_a 1 0
	create 
.d 2 0 
	put_a_jmp 2 e_System.OSError_eaTD;OSError
.n 1 e_System.OSError_dTD;OSError e_System.OSError_eaTD;OSError
.o 1 0 
e_System.OSError_nTD;OSError
	push_node _cycle_in_spine 1
.o 2 0 
e_System.OSError_eaTD;OSError
.o 2 0 
e_System.OSError_sTD;OSError
.o 2 0 
s6
	fillh _Nil 0 1
.d 1 0 
	pop_a_rtn 1
.export e_System.OSError_sTD;OSErrorMessage
.export e_System.OSError_eaTD;OSErrorMessage
.descexp e_System.OSError_dTD;OSErrorMessage e_System.OSError_nTD;OSErrorMessage e_System.OSError_lTD;OSErrorMessage 1 0 "TD;OSErrorMessage"
.o 2 0 
e_System.OSError_lTD;OSErrorMessage
	update_a 1 0
	create 
.d 2 0 
	put_a_jmp 2 e_System.OSError_eaTD;OSErrorMessage
.n 1 e_System.OSError_dTD;OSErrorMessage e_System.OSError_eaTD;OSErrorMessage
.o 1 0 
e_System.OSError_nTD;OSErrorMessage
	push_node _cycle_in_spine 1
.o 2 0 
e_System.OSError_eaTD;OSErrorMessage
.o 2 0 
e_System.OSError_sTD;OSErrorMessage
.o 2 0 
s5
	fillh _Nil 0 1
.d 1 0 
	pop_a_rtn 1
.export e_System.OSError_sTD;OSErrorCode
.export e_System.OSError_eaTD;OSErrorCode
.descexp e_System.OSError_dTD;OSErrorCode e_System.OSError_nTD;OSErrorCode e_System.OSError_lTD;OSErrorCode 1 0 "TD;OSErrorCode"
.o 2 0 
e_System.OSError_lTD;OSErrorCode
	update_a 1 0
	create 
.d 2 0 
	put_a_jmp 2 e_System.OSError_eaTD;OSErrorCode
.n 1 e_System.OSError_dTD;OSErrorCode e_System.OSError_eaTD;OSErrorCode
.o 1 0 
e_System.OSError_nTD;OSErrorCode
	push_node _cycle_in_spine 1
.o 2 0 
e_System.OSError_eaTD;OSErrorCode
.o 2 0 
e_System.OSError_sTD;OSErrorCode
.o 2 0 
s4
	fillh _Nil 0 1
.d 1 0 
	pop_a_rtn 1
.export e_System.OSError_sgetLastOSErrorCode
.descexp e_System.OSError_dgetLastOSErrorCode e_System.OSError_ngetLastOSErrorCode e_System.OSError_lgetLastOSErrorCode 1 0 "getLastOSErrorCode"
.o 2 0 
e_System.OSError_lgetLastOSErrorCode
.d 1 0 
	pop_a_jsr 1 ea2
.o 2 0 
	buildh _Tuple 2
.d 1 0 
	rtn 
.n 1 e_System.OSError_dgetLastOSErrorCode
.o 1 0 
e_System.OSError_ngetLastOSErrorCode
	push_node _cycle_in_spine 1
.d 1 0 
	jsr ea2
.o 2 0 
	fillh _Tuple 2 2
.d 1 0 
	rtn 
.o 1 0 
ea2
	jsr_eval 0
.o 1 0 
e_System.OSError_sgetLastOSErrorCode
.o 1 0 
s2
.d 1 0 
	jsr e_System._OSError_s_getLastOSErrorCode
.o 1 1 i
	buildI_b 0
	buildh e_Data.Error_dError 1
.d 2 0 
	pop_b_rtn 1
.export e_System.OSError_sgetLastOSError
.descexp e_System.OSError_dgetLastOSError e_System.OSError_ngetLastOSError e_System.OSError_lgetLastOSError 1 0 "getLastOSError"
.o 2 0 
e_System.OSError_lgetLastOSError
.d 1 0 
	pop_a_jsr 1 ea1
.o 2 0 
	buildh _Tuple 2
.d 1 0 
	rtn 
.n 1 e_System.OSError_dgetLastOSError
.o 1 0 
e_System.OSError_ngetLastOSError
	push_node _cycle_in_spine 1
.d 1 0 
	jsr ea1
.o 2 0 
	fillh _Tuple 2 2
.d 1 0 
	rtn 
.o 1 0 
ea1
	jsr_eval 0
.o 1 0 
e_System.OSError_sgetLastOSError
.o 1 0 
s1
.d 1 0 
	jsr e_System._OSError_s_getLastOSErrorCode
.o 1 1 i
	buildI_b 0
	build e_System.OSError_dosErrorCodeToOSError 1 e_System.OSError_nosErrorCodeToOSError
	buildh e_Data.Error_dError 1
.d 2 0 
	pop_b_rtn 1
.export e_System.OSError_sosErrorCodeToOSError
.descexp e_System.OSError_dosErrorCodeToOSError e_System.OSError_nosErrorCodeToOSError e_System.OSError_losErrorCodeToOSError 1 0 "osErrorCodeToOSError"
.o 2 0 
e_System.OSError_losErrorCodeToOSError
.d 1 0 
	pop_a_jsr 1 ea3
.o 2 0 
	buildh _Tuple 2
.d 1 0 
	rtn 
.n 1 e_System.OSError_dosErrorCodeToOSError
.o 1 0 
e_System.OSError_nosErrorCodeToOSError
	push_node _cycle_in_spine 1
.d 1 0 
	jsr ea3
.o 2 0 
	fillh _Tuple 2 2
.d 1 0 
	rtn 
.o 1 0 
ea3
	jsr_eval 0
	pushI0_pop_a1 
.o 0 1 i
e_System.OSError_sosErrorCodeToOSError
.o 0 1 i
s3
	buildI_b 0
	build e_System._OSError_d_osErrorCodeToMessage 1 e_System._OSError_n_osErrorCodeToMessage
	buildI_b 0
.d 2 0 
	pop_b_rtn 1
