.comp 920 000011110011000
.start _nostart_
.depend "Control.Monad.Fail" "20210609153506"
.depend "Data.Traversable" "20210609153506"
.depend "StdMisc" "20210609153507"
.depend "StdOverloadedList" "20210609153507"
.depend "Data.List" "20210609153506"
.depend "Data.Foldable" "20210609153506"
.depend "StdFunctions" "20210609153507"
.depend "StdFunc" "20210609153507"
.depend "_SystemEnumStrict" "20210609153507"
.depend "_SystemStrictLists" "20210609153507"
.depend "StdStrictLists" "20210609153507"
.depend "StdGeneric" "20210609153507"
.depend "Data.GenEq" "20210609153506"
.depend "StdReal" "20210609153507"
.depend "StdChar" "20210609153507"
.depend "StdInt" "20210609153507"
.depend "StdBool" "20210609153507"
.depend "StdClass" "20210609153507"
.depend "StdList" "20210609153507"
.depend "Data.Monoid" "20210609153506"
.depend "Control.Applicative" "20210609153506"
.depend "Data.Functor" "20210609153506"
.depend "StdOverloaded" "20210609153507"
.depend "_SystemDynamic" "20210609153507"
.depend "Control.Monad" "20210609153506"
.module m_Control.Monad "Control.Monad" "20210609153506"
.endinfo
.impmod _system
.implab _cycle_in_spine
.implab _type_error
.implab _hnf
.impdesc e_system_dind
.implab e_system_nind e_system_eaind
.impdesc e_system_dif
.implab e_system_nif e_system_eaif
.implab e_system_sif
.impdesc e_system_dAP
.implab e_system_nAP e_system_eaAP
.implab e_system_sAP
.impdesc ARRAY
.impdesc _Nil
.impdesc _Cons
.impdesc _Conss
.implab n_Conss ea_Conss
.impdesc _Consts
.implab n_Consts ea_Consts
.impdesc _Conssts
.implab n_Conssts ea_Conssts
.impdesc _Tuple
.impdesc d_S.1
.implab n_S.1 ea_S.1
.impdesc d_S.2
.implab n_S.2 ea_S.2
.impdesc d_S.3
.implab n_S.3 ea_S.3
.impdesc d_S.4
.implab n_S.4 ea_S.4
.impdesc d_S.5
.implab n_S.5 ea_S.5
.impdesc d_S.6
.implab n_S.6 ea_S.6
.implab _driver
.impmod Data.List
.implab e_Data.List_sreplicate
.implab e_Data.List_szipWith
.impmod StdFunctions
.impdesc e_StdFunctions_did
.impmod StdList
.implab e_StdList_smap
.impmod Control.Applicative
.impdesc e_Control.Applicative_dlift
.implab e_Control.Applicative_slift
.implab e_Control.Applicative_nlift _
.impdesc e_Control.Applicative_dApplicative;.pure
.implab e_Control.Applicative_nApplicative;.pure
.export e_Control.Monad_rMonad;
.record e_Control.Monad_rMonad; aa 2 0 "Monad;"
.descexp e_Control.Monad_tMonad; e_Control.Monad_cMonad; _hnf 2 1 "Monad;"
.n 2 e_Control.Monad_tMonad;
.o 1 0 
e_Control.Monad_cMonad;
	push_node _cycle_in_spine 2
	jsr_eval 1
	jsr_eval 0
.impmod Control.Monad
.impdesc e_Control.Monad_rMonad;
	fill_r e_Control.Monad_rMonad; 2 0 2 0 0
.d 1 0 
	pop_a_rtn 2
.export e_Control.Monad_dMonad;.bind
.export e_Control.Monad_nMonad;.bind
.export e_Control.Monad_eaMonad;.bind
.descs e_Control.Monad_dMonad;.bind e_Control.Monad_nMonad;.bind _ 1 0 "Monad;.bind"
.n -4 e_Control.Monad_dMonad;.bind e_Control.Monad_eaMonad;.bind
.o 1 0 
e_Control.Monad_nMonad;.bind
	push_node _cycle_in_spine 1
.o 2 0 
e_Control.Monad_eaMonad;.bind
	jsr_eval 0
	repl_r_args_a 2 0 1 1
.d 1 0 
	fill_a01_pop_rtn 
.export e_Control.Monad_dMonad;.Applicative
.export e_Control.Monad_nMonad;.Applicative
.descs e_Control.Monad_dMonad;.Applicative e_Control.Monad_nMonad;.Applicative _ 2 0 "Monad;.Applicative"
.n -4 e_Control.Monad_dMonad;.Applicative
.o 1 0 
e_Control.Monad_nMonad;.Applicative
	push_node _cycle_in_spine 1
	jsr_eval 0
	repl_r_args_a 2 0 2 1
.d 1 0 
	fill_a01_pop_rtn 
.export e_Control.Monad_rMonadPlus;
.record e_Control.Monad_rMonadPlus; aaa 3 0 "MonadPlus;"
.descexp e_Control.Monad_tMonadPlus; e_Control.Monad_cMonadPlus; _hnf 3 1 "MonadPlus;"
.n 3 e_Control.Monad_tMonadPlus;
.o 1 0 
e_Control.Monad_cMonadPlus;
	push_node _cycle_in_spine 3
	jsr_eval 2
	jsr_eval 0
.impdesc e_Control.Monad_rMonadPlus;
	fill_r e_Control.Monad_rMonadPlus; 3 0 3 0 0
.d 1 0 
	pop_a_rtn 3
.export e_Control.Monad_dMonadPlus;.mplus
.export e_Control.Monad_nMonadPlus;.mplus
.export e_Control.Monad_eaMonadPlus;.mplus
.descs e_Control.Monad_dMonadPlus;.mplus e_Control.Monad_nMonadPlus;.mplus _ 1 0 "MonadPlus;.mplus"
.n -4 e_Control.Monad_dMonadPlus;.mplus e_Control.Monad_eaMonadPlus;.mplus
.o 1 0 
e_Control.Monad_nMonadPlus;.mplus
	push_node _cycle_in_spine 1
.o 2 0 
e_Control.Monad_eaMonadPlus;.mplus
	jsr_eval 0
	repl_r_args_a 3 0 1 1
.d 1 0 
	fill_a01_pop_rtn 
.export e_Control.Monad_dMonadPlus;.mzero
.export e_Control.Monad_nMonadPlus;.mzero
.export e_Control.Monad_eaMonadPlus;.mzero
.descs e_Control.Monad_dMonadPlus;.mzero e_Control.Monad_nMonadPlus;.mzero _ 3 0 "MonadPlus;.mzero"
.n -4 e_Control.Monad_dMonadPlus;.mzero e_Control.Monad_eaMonadPlus;.mzero
.o 1 0 
e_Control.Monad_nMonadPlus;.mzero
	push_node _cycle_in_spine 1
.o 2 0 
e_Control.Monad_eaMonadPlus;.mzero
	jsr_eval 0
	repl_r_args_a 3 0 2 1
	jsr_eval 0
.d 1 0 
	fill_a01_pop_rtn 
.export e_Control.Monad_dMonadPlus;.Monad
.export e_Control.Monad_nMonadPlus;.Monad
.descs e_Control.Monad_dMonadPlus;.Monad e_Control.Monad_nMonadPlus;.Monad _ 4 0 "MonadPlus;.Monad"
.n -4 e_Control.Monad_dMonadPlus;.Monad
.o 1 0 
e_Control.Monad_nMonadPlus;.Monad
	push_node _cycle_in_spine 1
	jsr_eval 0
	repl_r_args_a 3 0 3 1
.d 1 0 
	fill_a01_pop_rtn 
.export e_Control.Monad_sTD;MonadPlus;
.export e_Control.Monad_eaTD;MonadPlus;
.descexp e_Control.Monad_dTD;MonadPlus; e_Control.Monad_nTD;MonadPlus; e_Control.Monad_lTD;MonadPlus; 1 0 "TD;MonadPlus;"
.o 2 0 
e_Control.Monad_lTD;MonadPlus;
	update_a 1 0
	create 
.d 2 0 
	put_a_jmp 2 e_Control.Monad_eaTD;MonadPlus;
.n 1 e_Control.Monad_dTD;MonadPlus; e_Control.Monad_eaTD;MonadPlus;
.o 1 0 
e_Control.Monad_nTD;MonadPlus;
	push_node _cycle_in_spine 1
.o 2 0 
e_Control.Monad_eaTD;MonadPlus;
.o 2 0 
e_Control.Monad_sTD;MonadPlus;
.o 2 0 
s22
	fillh _Nil 0 1
.d 1 0 
	pop_a_rtn 1
.export e_Control.Monad_sTD;Monad;
.export e_Control.Monad_eaTD;Monad;
.descexp e_Control.Monad_dTD;Monad; e_Control.Monad_nTD;Monad; e_Control.Monad_lTD;Monad; 1 0 "TD;Monad;"
.o 2 0 
e_Control.Monad_lTD;Monad;
	update_a 1 0
	create 
.d 2 0 
	put_a_jmp 2 e_Control.Monad_eaTD;Monad;
.n 1 e_Control.Monad_dTD;Monad; e_Control.Monad_eaTD;Monad;
.o 1 0 
e_Control.Monad_nTD;Monad;
	push_node _cycle_in_spine 1
.o 2 0 
e_Control.Monad_eaTD;Monad;
.o 2 0 
e_Control.Monad_sTD;Monad;
.o 2 0 
s21
	fillh _Nil 0 1
.d 1 0 
	pop_a_rtn 1
.export e_Control.Monad_sap
.export e_Control.Monad_eaap
.descexp e_Control.Monad_dap e_Control.Monad_nap e_Control.Monad_lap 1 0 "ap"
.o 2 0 
e_Control.Monad_lap
	update_a 1 0
	create 
.d 2 0 
	put_a_jmp 2 e_Control.Monad_eaap
.n 1 e_Control.Monad_dap e_Control.Monad_eaap
.o 1 0 
e_Control.Monad_nap
	push_node _cycle_in_spine 1
.o 2 0 
e_Control.Monad_eaap
	jsr_eval 0
	repl_r_args 2 0
.o 3 0 
e_Control.Monad_sap
.o 3 0 
s20
	buildh e_StdFunctions_did 0
	build_r e_Control.Monad_rMonad; 2 0 1 0
	fillh e_Control.Monad_dliftM2 2 4
.d 1 0 
	pop_a_rtn 2
.export e_Control.Monad_sliftM5
.descexp e_Control.Monad_dliftM5 e_Control.Monad_nliftM5 e_Control.Monad_lliftM5 7 0 "liftM5"
.a 0 ea19
.o 2 0 
e_Control.Monad_lliftM5
	repl_args 6 6
.d 7 0 
	jmp ea19
.n 7 e_Control.Monad_dliftM5 _
.o 1 0 
e_Control.Monad_nliftM5
	push_node _cycle_in_spine 7
.d 7 0 
	jsr ea19
.o 1 0 
.d 1 0 
	fill_a01_pop_rtn 
.o 7 0 
ea19
	jsr_eval 2
	jsr_eval 0
	repl_r_args 2 0
.o 8 0 
e_Control.Monad_sliftM5
.o 8 0 
s19
	build_r e_Control.Monad_rMonad; 2 0 0 0
	push_a2 6 7
	push_a2 10 5
	push_update_a 4 9
	buildh e_Control.Monad_d\;69;34;43.44 6
	dup_a 8
	update_a 4 7
	updatepop_a 1 6
.d 3 0 
	jmp_i 2
.export e_Control.Monad_d\;69;34;43.44
.desc e_Control.Monad_d\;69;34;43.44 _hnf l44 7 0 "\;69;34;43.44"
.a 0 ea44
.o 2 0 
l44
	repl_args 6 6
.o 7 0 
ea44
	jsr_eval 5
	repl_r_args 2 0
.o 8 0 
s44
	build_r e_Control.Monad_rMonad; 2 0 0 0
	push3_a 6
	push_a2 6 3
	update_a 13 5
	buildh e_Control.Monad_d\;69;48;42.43 6
	dup_a 8
	updatepop_a 1 6
.d 3 0 
	jmp_i 2
.export e_Control.Monad_d\;69;48;42.43
.desc e_Control.Monad_d\;69;48;42.43 _hnf l43 7 0 "\;69;48;42.43"
.a 0 ea43
.o 2 0 
l43
	repl_args 6 6
.o 7 0 
ea43
	jsr_eval 4
	repl_r_args 2 0
.o 8 0 
s43
	build_r e_Control.Monad_rMonad; 2 0 0 0
	push_a 7
	push3_a 6
	push_update_a 4 12
	buildh e_Control.Monad_d\;69;62;41.42 6
	dup_a 8
	updates2pop_a 1 6 7
.d 3 0 
	jmp_i 2
.export e_Control.Monad_d\;69;62;41.42
.desc e_Control.Monad_d\;69;62;41.42 _hnf l42 7 0 "\;69;62;41.42"
.a 0 ea42
.o 2 0 
l42
	repl_args 6 6
.o 7 0 
ea42
	jsr_eval 3
	repl_r_args 2 0
.o 8 0 
s42
	build_r e_Control.Monad_rMonad; 2 0 0 0
	push2_a 7
	push2_a 6
	push_update_a 4 12
	buildh e_Control.Monad_d\;69;76;40.41 6
	dup_a 8
	update_a 5 7
	updatepop_a 1 6
.d 3 0 
	jmp_i 2
.export e_Control.Monad_d\;69;76;40.41
.desc e_Control.Monad_d\;69;76;40.41 _hnf l41 7 0 "\;69;76;40.41"
.a 0 ea41
.o 2 0 
l41
	repl_args 6 6
.o 7 0 
ea41
	jsr_eval 2
	repl_r_args 2 0
.o 8 0 
s41
	push_a 1
	repl_r_args_a 3 0 2 1
.impmod Control.Applicative
.impdesc e_Control.Applicative_rpure;
	buildhr e_Control.Applicative_rpure; 1 0
	push3_a 7
	push_a2 6 3
	update_a 13 5
	buildh e_Control.Monad_d\;69;90;39.40 6
	dup_a 8
	update_a 4 7
	updatepop_a 1 6
.d 3 0 
	jmp_i 2
.export e_Control.Monad_d\;69;90;39.40
.desc e_Control.Monad_d\;69;90;39.40 _hnf l40 7 0 "\;69;90;39.40"
.a 0 ea40
.o 2 0 
l40
	repl_args 6 6
.o 7 0 
ea40
	repl_r_args 1 0
.o 7 0 
s40
	push3_a 6
	push3_a 6
	build e_Control.Monad_d_f3.100 6 e_Control.Monad_n_f3.100
	dup_a 7
	updatepop_a 1 6
.d 2 0 
	jmp e_Control.Applicative_slift
.export e_Control.Monad_d_f3.100
.export e_Control.Monad_n_f3.100
.descn e_Control.Monad_d_f3.100 e_Control.Monad_n_f3.100 6 0 "_f3.100"
.n 6 e_Control.Monad_d_f3.100 ea100
.o 1 0 
e_Control.Monad_n_f3.100
	push_node _cycle_in_spine 6
.o 7 0 
ea100
.o 7 0 
s100
	push3_a 5
	push_a2 5 3
	jsr_eval 0
	update4_a 1 7
	updatepop_a 0 5
	jsr_ap 5
.d 1 0 
	fill_a01_pop_rtn 
.export e_Control.Monad_sliftM4
.descexp e_Control.Monad_dliftM4 e_Control.Monad_nliftM4 e_Control.Monad_lliftM4 6 0 "liftM4"
.a 0 ea18
.o 2 0 
e_Control.Monad_lliftM4
	repl_args 5 5
.d 6 0 
	jmp ea18
.n 6 e_Control.Monad_dliftM4 _
.o 1 0 
e_Control.Monad_nliftM4
	push_node _cycle_in_spine 6
.d 6 0 
	jsr ea18
.o 1 0 
.d 1 0 
	fill_a01_pop_rtn 
.o 6 0 
ea18
	jsr_eval 2
	jsr_eval 0
	repl_r_args 2 0
.o 7 0 
e_Control.Monad_sliftM4
.o 7 0 
s18
	build_r e_Control.Monad_rMonad; 2 0 0 0
	push_a2 6 7
	push_a2 5 2
	update_a 9 4
	buildh e_Control.Monad_d\;66;31;38.39 5
	dup_a 7
	update_a 4 6
	updatepop_a 1 5
.d 3 0 
	jmp_i 2
.export e_Control.Monad_d\;66;31;38.39
.desc e_Control.Monad_d\;66;31;38.39 _hnf l39 6 0 "\;66;31;38.39"
.a 0 ea39
.o 2 0 
l39
	repl_args 5 5
.o 6 0 
ea39
	jsr_eval 4
	repl_r_args 2 0
.o 7 0 
s39
	build_r e_Control.Monad_rMonad; 2 0 0 0
	push3_a 5
	push_update_a 3 10
	buildh e_Control.Monad_d\;66;45;37.38 5
	dup_a 7
	updatepop_a 1 5
.d 3 0 
	jmp_i 2
.export e_Control.Monad_d\;66;45;37.38
.desc e_Control.Monad_d\;66;45;37.38 _hnf l38 6 0 "\;66;45;37.38"
.a 0 ea38
.o 2 0 
l38
	repl_args 5 5
.o 6 0 
ea38
	jsr_eval 3
	repl_r_args 2 0
.o 7 0 
s38
	build_r e_Control.Monad_rMonad; 2 0 0 0
	push_a 6
	push2_a 5
	push_update_a 3 10
	buildh e_Control.Monad_d\;66;59;36.37 5
	dup_a 7
	updates2pop_a 1 5 6
.d 3 0 
	jmp_i 2
.export e_Control.Monad_d\;66;59;36.37
.desc e_Control.Monad_d\;66;59;36.37 _hnf l37 6 0 "\;66;59;36.37"
.a 0 ea37
.o 2 0 
l37
	repl_args 5 5
.o 6 0 
ea37
	jsr_eval 2
	repl_r_args 2 0
.o 7 0 
s37
	push_a 1
	repl_r_args_a 3 0 2 1
	buildhr e_Control.Applicative_rpure; 1 0
	push2_a 6
	push_a2 5 2
	update_a 11 4
	buildh e_Control.Monad_d\;66;73;35.36 5
	dup_a 7
	update_a 4 6
	updatepop_a 1 5
.d 3 0 
	jmp_i 2
.export e_Control.Monad_d\;66;73;35.36
.desc e_Control.Monad_d\;66;73;35.36 _hnf l36 6 0 "\;66;73;35.36"
.a 0 ea36
.o 2 0 
l36
	repl_args 5 5
.o 6 0 
ea36
	repl_r_args 1 0
.o 6 0 
s36
	push3_a 5
	push2_a 5
	build e_Control.Monad_d_f2.99 5 e_Control.Monad_n_f2.99
	dup_a 6
	updatepop_a 1 5
.d 2 0 
	jmp e_Control.Applicative_slift
.export e_Control.Monad_d_f2.99
.export e_Control.Monad_n_f2.99
.descn e_Control.Monad_d_f2.99 e_Control.Monad_n_f2.99 5 0 "_f2.99"
.n 5 e_Control.Monad_d_f2.99 ea99
.o 1 0 
e_Control.Monad_n_f2.99
	push_node _cycle_in_spine 5
.o 6 0 
ea99
.o 6 0 
s99
	push3_a 4
	push_jsr_eval 3
	update3_a 1 6
	updatepop_a 0 4
	jsr_ap 4
.d 1 0 
	fill_a01_pop_rtn 
.export e_Control.Monad_sliftM3
.descexp e_Control.Monad_dliftM3 e_Control.Monad_nliftM3 e_Control.Monad_lliftM3 5 0 "liftM3"
.a 0 ea17
.o 2 0 
e_Control.Monad_lliftM3
	repl_args 4 4
.d 5 0 
	jmp ea17
.n 5 e_Control.Monad_dliftM3 _
.o 1 0 
e_Control.Monad_nliftM3
	push_node _cycle_in_spine 5
.d 5 0 
	jsr ea17
.o 1 0 
.d 1 0 
	fill_a01_pop_rtn 
.o 5 0 
ea17
	jsr_eval 2
	jsr_eval 0
	repl_r_args 2 0
.o 6 0 
e_Control.Monad_sliftM3
.o 6 0 
s17
	build_r e_Control.Monad_rMonad; 2 0 0 0
	push_a2 6 3
	push_update_a 2 7
	buildh e_Control.Monad_d\;63;28;34.35 4
	dup_a 6
	updates2pop_a 1 4 5
.d 3 0 
	jmp_i 2
.export e_Control.Monad_d\;63;28;34.35
.desc e_Control.Monad_d\;63;28;34.35 _hnf l35 5 0 "\;63;28;34.35"
.a 0 ea35
.o 2 0 
l35
	repl_args 4 4
.o 5 0 
ea35
	jsr_eval 3
	repl_r_args 2 0
.o 6 0 
s35
	build_r e_Control.Monad_rMonad; 2 0 0 0
	push2_a 4
	push_update_a 2 8
	buildh e_Control.Monad_d\;63;42;33.34 4
	dup_a 6
	updatepop_a 1 4
.d 3 0 
	jmp_i 2
.export e_Control.Monad_d\;63;42;33.34
.desc e_Control.Monad_d\;63;42;33.34 _hnf l34 5 0 "\;63;42;33.34"
.a 0 ea34
.o 2 0 
l34
	repl_args 4 4
.o 5 0 
ea34
	jsr_eval 2
	repl_r_args 2 0
.o 6 0 
s34
	push_a 1
	repl_r_args_a 3 0 2 1
	buildhr e_Control.Applicative_rpure; 1 0
	push_a2 5 3
	push_update_a 2 8
	buildh e_Control.Monad_d\;63;56;32.33 4
	dup_a 6
	updates2pop_a 1 4 5
.d 3 0 
	jmp_i 2
.export e_Control.Monad_d\;63;56;32.33
.desc e_Control.Monad_d\;63;56;32.33 _hnf l33 5 0 "\;63;56;32.33"
.a 0 ea33
.o 2 0 
l33
	repl_args 4 4
.o 5 0 
ea33
	repl_r_args 1 0
.o 5 0 
s33
	push3_a 4
	push_a 4
	build e_Control.Monad_d_f1.98 4 e_Control.Monad_n_f1.98
	dup_a 5
	updatepop_a 1 4
.d 2 0 
	jmp e_Control.Applicative_slift
.export e_Control.Monad_d_f1.98
.export e_Control.Monad_n_f1.98
.descn e_Control.Monad_d_f1.98 e_Control.Monad_n_f1.98 4 0 "_f1.98"
.n 4 e_Control.Monad_d_f1.98 ea98
.o 1 0 
e_Control.Monad_n_f1.98
	push_node _cycle_in_spine 4
.o 5 0 
ea98
.o 5 0 
s98
	push2_a 3
	push_jsr_eval 2
	update2_a 1 5
	updatepop_a 0 3
	jsr_ap 3
.d 1 0 
	fill_a01_pop_rtn 
.export e_Control.Monad_sliftM2
.descexp e_Control.Monad_dliftM2 e_Control.Monad_nliftM2 e_Control.Monad_lliftM2 4 0 "liftM2"
.a 0 ea16
.o 2 0 
e_Control.Monad_lliftM2
	repl_args 3 3
.d 4 0 
	jmp ea16
.n 4 e_Control.Monad_dliftM2 _
.o 1 0 
e_Control.Monad_nliftM2
	push_node _cycle_in_spine 4
.d 4 0 
	jsr ea16
.o 1 0 
.d 1 0 
	fill_a01_pop_rtn 
.o 4 0 
ea16
	jsr_eval 2
	jsr_eval 0
	repl_r_args 2 0
.o 5 0 
e_Control.Monad_sliftM2
.o 5 0 
s16
	build_r e_Control.Monad_rMonad; 2 0 0 0
	push_a2 3 0
	update_a 7 2
	buildh e_Control.Monad_d\;60;25;31.32 3
	dup_a 5
	updatepop_a 1 3
.d 3 0 
	jmp_i 2
.export e_Control.Monad_d\;60;25;31.32
.desc e_Control.Monad_d\;60;25;31.32 _hnf l32 4 0 "\;60;25;31.32"
.a 0 ea32
.o 2 0 
l32
	repl_args 3 3
.o 4 0 
ea32
	jsr_eval 2
	repl_r_args 2 0
.o 5 0 
s32
	push_a 1
	repl_r_args_a 3 0 2 1
	buildhr e_Control.Applicative_rpure; 1 0
	push_a2 3 0
	update_a 7 2
	buildh e_Control.Monad_d\;60;39;30.31 3
	dup_a 5
	updatepop_a 1 3
.d 3 0 
	jmp_i 2
.export e_Control.Monad_d\;60;39;30.31
.desc e_Control.Monad_d\;60;39;30.31 _hnf l31 4 0 "\;60;39;30.31"
.a 0 ea31
.o 2 0 
l31
	repl_args 3 3
.o 4 0 
ea31
	repl_r_args 1 0
.o 4 0 
s31
	push3_a 3
	build e_Control.Monad_d_f0.97 3 e_Control.Monad_n_f0.97
	dup_a 4
	updatepop_a 1 3
.d 2 0 
	jmp e_Control.Applicative_slift
.export e_Control.Monad_d_f0.97
.export e_Control.Monad_n_f0.97
.descn e_Control.Monad_d_f0.97 e_Control.Monad_n_f0.97 3 0 "_f0.97"
.n 3 e_Control.Monad_d_f0.97 ea97
.o 1 0 
e_Control.Monad_n_f0.97
	push_node _cycle_in_spine 3
.o 4 0 
ea97
.o 4 0 
s97
	push_a2 2 0
	jsr_eval 0
	update_a 1 4
	updatepop_a 0 2
	jsr_ap 2
.d 1 0 
	fill_a01_pop_rtn 
.export e_Control.Monad_sliftM
.descexp e_Control.Monad_dliftM e_Control.Monad_nliftM e_Control.Monad_lliftM 3 0 "liftM"
.a 0 ea15
.o 2 0 
e_Control.Monad_lliftM
	repl_args 2 2
.d 3 0 
	jmp ea15
.n 3 e_Control.Monad_dliftM _
.o 1 0 
e_Control.Monad_nliftM
	push_node _cycle_in_spine 3
.d 3 0 
	jsr ea15
.o 1 0 
.d 1 0 
	fill_a01_pop_rtn 
.o 3 0 
ea15
	jsr_eval 2
	jsr_eval 0
	repl_r_args 2 0
.o 4 0 
e_Control.Monad_sliftM
.o 4 0 
s15
	push_a 1
	repl_r_args_a 3 0 2 1
	buildhr e_Control.Applicative_rpure; 1 0
	push_update_a 0 3
	buildh e_Control.Monad_d\;57;21;29.30 2
	updates2_a 0 4 3
	updatepop_a 1 2
.d 3 0 
	jmp_i 2
.export e_Control.Monad_d\;57;21;29.30
.desc e_Control.Monad_d\;57;21;29.30 _hnf l30 3 0 "\;57;21;29.30"
.a 0 ea30
.o 2 0 
l30
	repl_args 2 2
.o 3 0 
ea30
	repl_r_args 1 0
.o 3 0 
s30
	push2_a 2
	build e_system_dAP 2 e_system_nAP
	dup_a 3
	updatepop_a 1 2
.d 2 0 
	jmp e_Control.Applicative_slift
.export e_Control.Monad_s<=<
.export e_Control.Monad_ea<=<
.descexp e_Control.Monad_d<=< e_Control.Monad_n<=< e_Control.Monad_l<=< 1 0 "<=<"
.o 2 0 
e_Control.Monad_l<=<
	update_a 1 0
	create 
.d 2 0 
	put_a_jmp 2 e_Control.Monad_ea<=<
.n 1 e_Control.Monad_d<=< e_Control.Monad_ea<=<
.o 1 0 
e_Control.Monad_n<=<
	push_node _cycle_in_spine 1
.o 2 0 
e_Control.Monad_ea<=<
	jsr_eval 0
	repl_r_args 2 0
.o 3 0 
e_Control.Monad_s<=<
.o 3 0 
s14
	build_r e_Control.Monad_rMonad; 2 0 0 0
	fillh e_Control.Monad_dflip;103.57 1 3
.d 1 0 
	pop_a_rtn 2
.export e_Control.Monad_dflip;103.57
.desc e_Control.Monad_dflip;103.57 _hnf l57 3 0 "flip;103.57"
.a 3 ea57
.o 2 0 
l57
	push_args 0 2 2
	update_a 3 2
	create 
	put_a 4
.o 4 0 
ea57
	repl_r_args 2 0
.o 5 0 
s57
	exchange_a 3 2
.d 5 0 
	jmp s13
.export e_Control.Monad_s>=>
.export e_Control.Monad_ea>=>
.descexp e_Control.Monad_d>=> e_Control.Monad_n>=> e_Control.Monad_l>=> 3 0 ">=>"
.a 3 e_Control.Monad_ea>=>
.o 2 0 
e_Control.Monad_l>=>
	push_args 0 2 2
	update_a 3 2
	create 
.d 4 0 
	put_a_jmp 4 e_Control.Monad_ea>=>
.n 3 e_Control.Monad_d>=> e_Control.Monad_ea>=>
.o 1 0 
e_Control.Monad_n>=>
	push_node _cycle_in_spine 3
.o 4 0 
e_Control.Monad_ea>=>
	jsr_eval 0
	repl_r_args 2 0
.o 5 0 
e_Control.Monad_s>=>
.o 5 0 
s13
	build_r e_Control.Monad_rMonad; 2 0 0 0
	push_a2 3 0
	update_a 6 2
	fillh e_Control.Monad_d\;51;13;28.29 3 7
.d 1 0 
	pop_a_rtn 4
.export e_Control.Monad_d\;51;13;28.29
.desc e_Control.Monad_d\;51;13;28.29 _hnf l29 4 0 "\;51;13;28.29"
.a 0 ea29
.o 2 0 
l29
	repl_args 3 3
.o 4 0 
ea29
	jsr_eval 1
	repl_r_args 2 0
.o 5 0 
s29
	push_a2 3 4
	push_a 4
	buildh0_dup3_a _Nil 6
	pop_a 1
	jsr_ap 1
	update2_a 0 5
	updatepop_a 2 4
.d 3 0 
	jmp_i 2
.export e_Control.Monad_sreplicateM
.descexp e_Control.Monad_dreplicateM e_Control.Monad_nreplicateM e_Control.Monad_lreplicateM 3 0 "replicateM"
.a 0 ea12
.o 2 0 
e_Control.Monad_lreplicateM
	repl_args 2 2
.d 3 0 
	jmp ea12
.n 3 e_Control.Monad_dreplicateM _
.o 1 0 
e_Control.Monad_nreplicateM
	push_node _cycle_in_spine 3
.d 3 0 
	jsr ea12
.o 1 0 
.d 1 0 
	fill_a01_pop_rtn 
.o 3 0 
ea12
	jsr_eval 1
	jsr_eval 0
	pushI_a 1
	repl_r_args 2 0
	update2pop_a 0 1
.o 3 1 i
e_Control.Monad_sreplicateM
.o 3 1 i
s12
	create 
	push_a 3
.d 2 1 i
	buildh0_put_a_jsr _Nil 5 e_Data.List_sreplicate
.o 1 0 
.d 3 0 
	put_a_jmp 3 s1
.export e_Control.Monad_d\;45;33;27.28
.desc e_Control.Monad_d\;45;33;27.28 _hnf l28 4 0 "\;45;33;27.28"
.a 0 ea28
.o 2 0 
l28
	repl_args 3 3
.o 4 0 
ea28
	push_jsr_eval 3
	repl_args 2 2
	jsr_eval 1
	jsr_eval 4
	push_r_args 2 2 0
	update_a 3 7
	updates3_a 2 6 5 4
	update2pop_a 0 2
.o 6 0 
s28
	push_a 1
	repl_r_args_a 3 0 2 1
	buildhr e_Control.Applicative_rpure; 1 0
	push_update_a 0 5
	buildh e_Control.Monad_d\;45;63;26.27 2
	push_a 6
	push3_a 5
	push_a 5
	buildh0_dup3_a _Nil 10
	put_a 9
.d 5 0 
	jsr s11
.o 1 0 
	update2_a 0 6
	updatepop_a 2 5
.d 3 0 
	jmp_i 2
.export e_Control.Monad_smapStM
.descexp e_Control.Monad_dmapStM e_Control.Monad_nmapStM e_Control.Monad_lmapStM 4 0 "mapStM"
.a 0 ea11
.o 2 0 
e_Control.Monad_lmapStM
	repl_args 3 3
.d 4 0 
	jmp ea11
.n 4 e_Control.Monad_dmapStM _
.o 1 0 
e_Control.Monad_nmapStM
	push_node _cycle_in_spine 4
.d 4 0 
	jsr ea11
.o 1 0 
.d 1 0 
	fill_a01_pop_rtn 
.o 4 0 
ea11
	jsr_eval 3
	jsr_eval 2
	jsr_eval 0
	repl_r_args 2 0
.o 5 0 
e_Control.Monad_smapStM
.o 5 0 
s11
	jmp_ne_desc _Nil 0 3 case.2
	buildh _Nil 0
	push_update_a 0 5
	buildh _Tuple 2
	push_r_args 2 3 0
	update_a 3 8
	updatepop_a 1 7
.d 2 0 
	jmp_i 1
case.2
	push_args 3 2 2
	buildh0_put_a _Nil 6
	build_r e_Control.Monad_rMonad; 2 0 2 0
	push_a2 5 0
	update_a 4 2
	buildh e_Control.Monad_d\;45;33;27.28 3
	push_a2 7 5
	jsr_eval 0
	push_update_a 0 3
	buildh0_dup_a _Nil 11
	dup_a 9
	dup2_a 5
	pop_a 1
	jsr_ap 2
	update2_a 0 7
	updatepop_a 4 6
.d 3 0 
	jmp_i 2
.export e_Control.Monad_d\;45;63;26.27
.desc e_Control.Monad_d\;45;63;26.27 _hnf l27 3 0 "\;45;63;26.27"
.a 0 ea27
.o 2 0 
l27
	repl_args 2 2
.o 3 0 
ea27
	push_jsr_eval 2
	repl_args 2 2
	push_r_args 2 1 0
	update_a 2 5
	updates2_a 1 4 3
	updatepop_a 0 2
.o 4 0 
s27
	buildho2 _Cons 1 2
	push_update_a 0 4
	buildh _Tuple 2
	dup_a 4
	updatepop_a 1 3
.d 2 0 
	jmp_i 1
.export e_Control.Monad_d\;41;31;25.26
.desc e_Control.Monad_d\;41;31;25.26 _hnf l26 4 0 "\;41;31;25.26"
.a 0 ea26
.o 2 0 
l26
	repl_args 3 3
.o 4 0 
ea26
	jsr_eval 2
	repl_r_args 2 0
.o 5 0 
s26
	exchange_a 4 3
.d 5 0 
	jmp s10
.export e_Control.Monad_sfoldM
.descexp e_Control.Monad_dfoldM e_Control.Monad_nfoldM e_Control.Monad_lfoldM 4 0 "foldM"
.a 0 ea10
.o 2 0 
e_Control.Monad_lfoldM
	repl_args 3 3
.d 4 0 
	jmp ea10
.n 4 e_Control.Monad_dfoldM _
.o 1 0 
e_Control.Monad_nfoldM
	push_node _cycle_in_spine 4
.d 4 0 
	jsr ea10
.o 1 0 
.d 1 0 
	fill_a01_pop_rtn 
.o 4 0 
ea10
	jsr_eval 3
	jsr_eval 0
	repl_r_args 2 0
.o 5 0 
e_Control.Monad_sfoldM
.o 5 0 
s10
	jmp_ne_desc _Nil 0 4 case.4
	push_r_args 1 3 0
	updates2pop_a 1 6 7
.d 2 0 
	jmp e_Control.Applicative_slift
case.4
	push_args 4 2 2
	buildh0_put_a _Nil 7
	build_r e_Control.Monad_rMonad; 2 0 2 0
	push_a2 5 0
	update_a 4 2
	buildh e_Control.Monad_d\;41;31;25.26 3
	push_a2 1 5
	jsr_eval 0
	push_update_a 0 8
	buildh0_dup2_a _Nil 9
	dup2_a 5
	pop_a 1
	jsr_ap 2
	update2_a 0 7
	updatepop_a 4 6
.d 3 0 
	jmp_i 2
.export e_Control.Monad_szipWithM
.descexp e_Control.Monad_dzipWithM e_Control.Monad_nzipWithM e_Control.Monad_lzipWithM 4 0 "zipWithM"
.a 0 ea9
.o 2 0 
e_Control.Monad_lzipWithM
	repl_args 3 3
.d 4 0 
	jmp ea9
.n 4 e_Control.Monad_dzipWithM _
.o 1 0 
e_Control.Monad_nzipWithM
	push_node _cycle_in_spine 4
.d 4 0 
	jsr ea9
.o 1 0 
.d 1 0 
	fill_a01_pop_rtn 
.o 4 0 
ea9
	jsr_eval 2
	jsr_eval 0
	repl_r_args 2 0
.o 5 0 
e_Control.Monad_szipWithM
.o 5 0 
s9
	create 
	swap_a 3
	exchange_a 4 1
	exchange_a 5 2
.d 4 0 
	jsr e_Data.List_szipWith
.o 1 0 
	push_a 1
	updates3pop_a 0 1 3 2
.d 3 0 
	jmp s1
.export e_Control.Monad_sjoin
.descexp e_Control.Monad_djoin e_Control.Monad_njoin e_Control.Monad_ljoin 2 0 "join"
.a 0 ea8
.o 2 0 
e_Control.Monad_ljoin
	repl_args 1 1
.d 2 0 
	jmp ea8
.n 2 e_Control.Monad_djoin _
.o 1 0 
e_Control.Monad_njoin
	push_node _cycle_in_spine 2
.d 2 0 
	jsr ea8
.o 1 0 
.d 1 0 
	fill_a01_pop_rtn 
.o 2 0 
ea8
	jsr_eval 1
	jsr_eval 0
	repl_r_args 2 0
.o 3 0 
e_Control.Monad_sjoin
.o 3 0 
s8
	update_a 2 1
	buildh0_put_a e_StdFunctions_did 3
.d 3 0 
	jmp_i 2
.export e_Control.Monad_sforever
.descexp e_Control.Monad_dforever e_Control.Monad_nforever e_Control.Monad_lforever 2 0 "forever"
.a 0 ea7
.o 2 0 
e_Control.Monad_lforever
	repl_args 1 1
.d 2 0 
	jmp ea7
.n 2 e_Control.Monad_dforever _
.o 1 0 
e_Control.Monad_nforever
	push_node _cycle_in_spine 2
.d 2 0 
	jsr ea7
.o 1 0 
.d 1 0 
	fill_a01_pop_rtn 
.o 2 0 
ea7
	jsr_eval 1
	jsr_eval 0
	repl_r_args 2 0
.o 3 0 
e_Control.Monad_sforever
.o 3 0 
s7
	create 2
	push_a 0
	buildh e_Control.Monad_d\;17;28;50.51 1
	push_a2 4 2
	build e_system_dAP 2 e_system_nAP
	fill e_system_dAP 2 e_system_nAP 2
	updatepop_a 0 3
	jmp_eval
.export e_Control.Monad_d\;17;28;50.51
.desc e_Control.Monad_d\;17;28;50.51 _hnf l51 2 0 "\;17;28;50.51"
.a 0 ea51
.o 2 0 
l51
	repl_args 1 1
.o 2 0 
ea51
	jsr_eval 0
.o 2 0 
s51
	put_a 1
.d 1 0 
	rtn 
.export e_Control.Monad_sforM_
.export e_Control.Monad_eaforM_
.descexp e_Control.Monad_dforM_ e_Control.Monad_nforM_ e_Control.Monad_lforM_ 1 0 "forM_"
.o 2 0 
e_Control.Monad_lforM_
	update_a 1 0
	create 
.d 2 0 
	put_a_jmp 2 e_Control.Monad_eaforM_
.n 1 e_Control.Monad_dforM_ e_Control.Monad_eaforM_
.o 1 0 
e_Control.Monad_nforM_
	push_node _cycle_in_spine 1
.o 2 0 
e_Control.Monad_eaforM_
	jsr_eval 0
	repl_r_args 2 0
.o 3 0 
e_Control.Monad_sforM_
.o 3 0 
s6
	build_r e_Control.Monad_rMonad; 2 0 0 0
	fillh e_Control.Monad_dflip;102.56 1 3
.d 1 0 
	pop_a_rtn 2
.export e_Control.Monad_dflip;102.56
.desc e_Control.Monad_dflip;102.56 _hnf l56 3 0 "flip;102.56"
.a 0 ea56
.o 2 0 
l56
	repl_args 2 2
.o 3 0 
ea56
	jsr_eval 1
	repl_r_args 2 0
.o 4 0 
s56
	exchange_a 3 2
.d 4 0 
	jmp s4
.export e_Control.Monad_sforM
.export e_Control.Monad_eaforM
.descexp e_Control.Monad_dforM e_Control.Monad_nforM e_Control.Monad_lforM 1 0 "forM"
.o 2 0 
e_Control.Monad_lforM
	update_a 1 0
	create 
.d 2 0 
	put_a_jmp 2 e_Control.Monad_eaforM
.n 1 e_Control.Monad_dforM e_Control.Monad_eaforM
.o 1 0 
e_Control.Monad_nforM
	push_node _cycle_in_spine 1
.o 2 0 
e_Control.Monad_eaforM
	jsr_eval 0
	repl_r_args 2 0
.o 3 0 
e_Control.Monad_sforM
.o 3 0 
s5
	build_r e_Control.Monad_rMonad; 2 0 0 0
	fillh e_Control.Monad_dflip;101.55 1 3
.d 1 0 
	pop_a_rtn 2
.export e_Control.Monad_dflip;101.55
.desc e_Control.Monad_dflip;101.55 _hnf l55 3 0 "flip;101.55"
.a 0 ea55
.o 2 0 
l55
	repl_args 2 2
.o 3 0 
ea55
	jsr_eval 1
	repl_r_args 2 0
.o 4 0 
s55
	exchange_a 3 2
.d 4 0 
	jmp s3
.export e_Control.Monad_smapM_
.descexp e_Control.Monad_dmapM_ e_Control.Monad_nmapM_ e_Control.Monad_lmapM_ 3 0 "mapM_"
.a 0 ea4
.o 2 0 
e_Control.Monad_lmapM_
	repl_args 2 2
.d 3 0 
	jmp ea4
.n 3 e_Control.Monad_dmapM_ _
.o 1 0 
e_Control.Monad_nmapM_
	push_node _cycle_in_spine 3
.d 3 0 
	jsr ea4
.o 1 0 
.d 1 0 
	fill_a01_pop_rtn 
.o 3 0 
ea4
	jsr_eval 2
	jsr_eval 0
	repl_r_args 2 0
.o 4 0 
e_Control.Monad_smapM_
.o 4 0 
s4
	create 
	push_update_a 3 1
	update_a 5 2
	updates3pop_a 0 1 3 5
.d 3 0 
	jsr e_StdList_smap
.o 1 0 
	push_a 1
	updates3pop_a 0 1 3 2
.d 3 0 
	jmp s2
.export e_Control.Monad_smapM
.descexp e_Control.Monad_dmapM e_Control.Monad_nmapM e_Control.Monad_lmapM 3 0 "mapM"
.a 0 ea3
.o 2 0 
e_Control.Monad_lmapM
	repl_args 2 2
.d 3 0 
	jmp ea3
.n 3 e_Control.Monad_dmapM _
.o 1 0 
e_Control.Monad_nmapM
	push_node _cycle_in_spine 3
.d 3 0 
	jsr ea3
.o 1 0 
.d 1 0 
	fill_a01_pop_rtn 
.o 3 0 
ea3
	jsr_eval 2
	jsr_eval 0
	repl_r_args 2 0
.o 4 0 
e_Control.Monad_smapM
.o 4 0 
s3
	create 
	push_update_a 3 1
	update_a 5 2
	updates3pop_a 0 1 3 5
.d 3 0 
	jsr e_StdList_smap
.o 1 0 
	push_a 1
	updates3pop_a 0 1 3 2
.d 3 0 
	jmp s1
.export e_Control.Monad_ssequence_
.descexp e_Control.Monad_dsequence_ e_Control.Monad_nsequence_ e_Control.Monad_lsequence_ 2 0 "sequence_"
.a 0 ea2
.o 2 0 
e_Control.Monad_lsequence_
	repl_args 1 1
.d 2 0 
	jmp ea2
.n 2 e_Control.Monad_dsequence_ _
.o 1 0 
e_Control.Monad_nsequence_
	push_node _cycle_in_spine 2
.d 2 0 
	jsr ea2
.o 1 0 
.d 1 0 
	fill_a01_pop_rtn 
.o 2 0 
ea2
	jsr_eval 1
	jsr_eval 0
	repl_r_args 2 0
.o 3 0 
e_Control.Monad_ssequence_
.o 3 0 
s2
	buildh e__predef_d_Unit 0
	push_a 2
	repl_r_args_a 3 0 2 1
	buildhr e_Control.Applicative_rpure; 1 0
	build e_Control.Applicative_dlift 2 e_Control.Applicative_nlift
	push_a 1
	updates3pop_a 0 1 3 2
.d 4 0 
	jmp s54
.export e_Control.Monad_dfoldr;100.54
.export e_Control.Monad_nfoldr;100.54
.descn e_Control.Monad_dfoldr;100.54 e_Control.Monad_nfoldr;100.54 3 0 "foldr;100.54"
.n 3 e_Control.Monad_dfoldr;100.54 _
.o 1 0 
e_Control.Monad_nfoldr;100.54
	push_node _cycle_in_spine 3
.d 3 0 
	jsr ea54
.o 1 0 
.d 1 0 
	fill_a01_pop_rtn 
.o 3 0 
ea54
	jsr_eval 2
	repl_r_args 2 0
.o 4 0 
s54
	jmp_ne_desc _Nil 0 3 case.6
	updatepop_a 2 3
	jmp_eval
case.6
	push_args 3 2 2
	buildh0_put_a _Nil 6
	build_r e_Control.Monad_rMonad; 2 0 2 0
	push_a2 5 0
	update_a 4 2
	build e_Control.Monad_dfoldr;100.54 3 e_Control.Monad_nfoldr;100.54
	push_jsr_eval 1
	update2_a 0 6
.d 4 0 
	pop_a_jmp 4 s46
.o 4 0 
s46
	push_a 3
	buildh e_Control.Monad_d\;17;28;46.47 1
	dup_a 4
	updatepop_a 1 2
.d 3 0 
	jmp_i 2
.export e_Control.Monad_d\;17;28;46.47
.desc e_Control.Monad_d\;17;28;46.47 _hnf l47 2 0 "\;17;28;46.47"
.a 0 ea47
.o 2 0 
l47
	repl_args 1 1
.o 2 0 
ea47
	jsr_eval 0
.o 2 0 
s47
	put_a 1
.d 1 0 
	rtn 
.export e_Control.Monad_ssequence
.descexp e_Control.Monad_dsequence e_Control.Monad_nsequence e_Control.Monad_lsequence 2 0 "sequence"
.a 0 ea1
.o 2 0 
e_Control.Monad_lsequence
	repl_args 1 1
.d 2 0 
	jmp ea1
.n 2 e_Control.Monad_dsequence _
.o 1 0 
e_Control.Monad_nsequence
	push_node _cycle_in_spine 2
.d 2 0 
	jsr ea1
.o 1 0 
.d 1 0 
	fill_a01_pop_rtn 
.o 2 0 
ea1
	jsr_eval 1
	jsr_eval 0
	repl_r_args 2 0
.o 3 0 
e_Control.Monad_ssequence
.o 3 0 
s1
	buildh _Nil 0
	push_a 2
	repl_r_args_a 3 0 2 1
	buildhr e_Control.Applicative_rpure; 1 0
	build e_Control.Applicative_dlift 2 e_Control.Applicative_nlift
	push_a 1
	updates3pop_a 0 1 3 2
.d 4 0 
	jmp s53
.export e_Control.Monad_dfoldr;99.53
.export e_Control.Monad_nfoldr;99.53
.descn e_Control.Monad_dfoldr;99.53 e_Control.Monad_nfoldr;99.53 3 0 "foldr;99.53"
.n 3 e_Control.Monad_dfoldr;99.53 _
.o 1 0 
e_Control.Monad_nfoldr;99.53
	push_node _cycle_in_spine 3
.d 3 0 
	jsr ea53
.o 1 0 
.d 1 0 
	fill_a01_pop_rtn 
.o 3 0 
ea53
	jsr_eval 2
	repl_r_args 2 0
.o 4 0 
s53
	jmp_ne_desc _Nil 0 3 case.8
	updatepop_a 2 3
	jmp_eval
case.8
	push_args 3 2 2
	buildh0_put_a _Nil 6
	build_r e_Control.Monad_rMonad; 2 0 2 0
	push_a2 5 0
	update_a 4 2
	build e_Control.Monad_dfoldr;99.53 3 e_Control.Monad_nfoldr;99.53
	push_jsr_eval 1
	update2_a 0 6
.d 4 0 
	pop_a_jmp 4 s25
.o 4 0 
s25
	build_r e_Control.Monad_rMonad; 2 0 0 0
	push_update_a 0 4
	buildh e_Control.Monad_d\;13;20;23.24 2
	dup_a 4
	updatepop_a 1 2
.d 3 0 
	jmp_i 2
.export e_Control.Monad_d\;13;20;23.24
.desc e_Control.Monad_d\;13;20;23.24 _hnf l24 3 0 "\;13;20;23.24"
.a 0 ea24
.o 2 0 
l24
	repl_args 2 2
.o 3 0 
ea24
	jsr_eval 1
	repl_r_args 2 0
.o 4 0 
s24
	push_a 1
	repl_r_args_a 3 0 2 1
	buildhr e_Control.Applicative_rpure; 1 0
	push_update_a 0 4
	buildh e_Control.Monad_d\;13;33;22.23 2
	dup_a 4
	updatepop_a 1 2
.d 3 0 
	jmp_i 2
.export e_Control.Monad_d\;13;33;22.23
.desc e_Control.Monad_d\;13;33;22.23 _hnf l23 3 0 "\;13;33;22.23"
.a 0 ea23
.o 2 0 
l23
	repl_args 2 2
.o 3 0 
ea23
	repl_r_args 1 0
.o 3 0 
s23
	buildho2 _Cons 1 2
	dup_a 3
	updatepop_a 1 2
.d 2 0 
	jmp e_Control.Applicative_slift
