.comp 920 000011110011000
.start _nostart_
.depend "StdMisc" "20210613122638"
.depend "StdFunctions" "20210613122638"
.depend "StdFunc" "20210613122638"
.depend "StdInt" "20210613122638"
.depend "StdBool" "20210613122638"
.depend "StdClass" "20210613122638"
.depend "StdOverloaded" "20210613122638"
.depend "_SystemDynamic" "20210613122638"
.depend "StdGeneric" "20210613122638"
.module m_StdGeneric "StdGeneric" "20210613122638"
.endinfo
.impmod _system
.implab _cycle_in_spine
.implab _type_error
.implab _hnf
.impdesc e_system_dind
.implab e_system_nind e_system_eaind
.impdesc e_system_dif
.implab e_system_nif e_system_eaif
.implab e_system_sif
.impdesc e_system_dAP
.implab e_system_nAP e_system_eaAP
.implab e_system_sAP
.impdesc ARRAY
.impdesc _Nil
.impdesc _Cons
.impdesc _Conss
.implab n_Conss ea_Conss
.impdesc _Consts
.implab n_Consts ea_Consts
.impdesc _Conssts
.implab n_Conssts ea_Conssts
.impdesc _Tuple
.impdesc d_S.1
.implab n_S.1 ea_S.1
.impdesc d_S.2
.implab n_S.2 ea_S.2
.impdesc d_S.3
.implab n_S.3 ea_S.3
.impdesc d_S.4
.implab n_S.4 ea_S.4
.impdesc d_S.5
.implab n_S.5 ea_S.5
.impdesc d_S.6
.implab n_S.6 ea_S.6
.implab _driver
.impmod StdMisc
.implab e_StdMisc_sabort
.impmod StdInt
.implab e_StdInt_s>>
.implab e_StdInt_s-;7
.implab e_StdInt_s==;16
.implab e_StdInt_s<;17
.impmod StdBool
.implab e_StdBool_snot
.export e_StdGeneric_dUNIT
.desc0 e_StdGeneric_dUNIT 0 "UNIT"
.export e_StdGeneric_dLEFT
.desc e_StdGeneric_dLEFT _hnf _add_arg 1 0 "LEFT"
.export e_StdGeneric_dRIGHT
.desc e_StdGeneric_dRIGHT _hnf _add_arg 1 0 "RIGHT"
.export e_StdGeneric_dPAIR
.desc e_StdGeneric_dPAIR _hnf _add_arg 2 0 "PAIR"
.export e_StdGeneric_dCONS
.desc e_StdGeneric_dCONS _hnf _add_arg 1 0 "CONS"
.export e_StdGeneric_dRECORD
.desc e_StdGeneric_dRECORD _hnf _add_arg 1 0 "RECORD"
.export e_StdGeneric_rGenericTypeDefDescriptor
.record e_StdGeneric_rGenericTypeDefDescriptor aaaa 4 0 "GenericTypeDefDescriptor"
.export e_StdGeneric_dGenericTypeDefDescriptor.gtd_name
.export e_StdGeneric_nGenericTypeDefDescriptor.gtd_name
.descs e_StdGeneric_dGenericTypeDefDescriptor.gtd_name e_StdGeneric_nGenericTypeDefDescriptor.gtd_name _ 1 0 "GenericTypeDefDescriptor.gtd_name"
.n -4 e_StdGeneric_dGenericTypeDefDescriptor.gtd_name
.o 1 0 
e_StdGeneric_nGenericTypeDefDescriptor.gtd_name
	push_node _cycle_in_spine 1
	jsr_eval 0
	repl_r_args_a 4 0 1 1
	jsr_eval 0
.d 1 0 
	fill_a01_pop_rtn 
.export e_StdGeneric_dGenericTypeDefDescriptor.gtd_arity
.export e_StdGeneric_nGenericTypeDefDescriptor.gtd_arity
.descs e_StdGeneric_dGenericTypeDefDescriptor.gtd_arity e_StdGeneric_nGenericTypeDefDescriptor.gtd_arity _ 3 0 "GenericTypeDefDescriptor.gtd_arity"
.n -4 e_StdGeneric_dGenericTypeDefDescriptor.gtd_arity
.o 1 0 
e_StdGeneric_nGenericTypeDefDescriptor.gtd_arity
	push_node _cycle_in_spine 1
	jsr_eval 0
	repl_r_args_a 4 0 2 1
	jsr_eval 0
.d 1 0 
	fill_a01_pop_rtn 
.export e_StdGeneric_dGenericTypeDefDescriptor.gtd_num_conses
.export e_StdGeneric_nGenericTypeDefDescriptor.gtd_num_conses
.descs e_StdGeneric_dGenericTypeDefDescriptor.gtd_num_conses e_StdGeneric_nGenericTypeDefDescriptor.gtd_num_conses _ 4 0 "GenericTypeDefDescriptor.gtd_num_conses"
.n -4 e_StdGeneric_dGenericTypeDefDescriptor.gtd_num_conses
.o 1 0 
e_StdGeneric_nGenericTypeDefDescriptor.gtd_num_conses
	push_node _cycle_in_spine 1
	jsr_eval 0
	repl_r_args_a 4 0 3 1
	jsr_eval 0
.d 1 0 
	fill_a01_pop_rtn 
.export e_StdGeneric_dGenericTypeDefDescriptor.gtd_conses
.export e_StdGeneric_nGenericTypeDefDescriptor.gtd_conses
.export e_StdGeneric_eaGenericTypeDefDescriptor.gtd_conses
.descs e_StdGeneric_dGenericTypeDefDescriptor.gtd_conses e_StdGeneric_nGenericTypeDefDescriptor.gtd_conses _ 5 0 "GenericTypeDefDescriptor.gtd_conses"
.n -4 e_StdGeneric_dGenericTypeDefDescriptor.gtd_conses e_StdGeneric_eaGenericTypeDefDescriptor.gtd_conses
.o 1 0 
e_StdGeneric_nGenericTypeDefDescriptor.gtd_conses
	push_node _cycle_in_spine 1
.o 2 0 
e_StdGeneric_eaGenericTypeDefDescriptor.gtd_conses
	jsr_eval 0
	repl_r_args_a 4 0 4 1
	jmp_eval_upd
.export e_StdGeneric_rGenericConsDescriptor
.record e_StdGeneric_rGenericConsDescriptor aaaaaa 6 0 "GenericConsDescriptor"
.export e_StdGeneric_dGenericConsDescriptor.gcd_name
.export e_StdGeneric_nGenericConsDescriptor.gcd_name
.descs e_StdGeneric_dGenericConsDescriptor.gcd_name e_StdGeneric_nGenericConsDescriptor.gcd_name _ 1 0 "GenericConsDescriptor.gcd_name"
.n -4 e_StdGeneric_dGenericConsDescriptor.gcd_name
.o 1 0 
e_StdGeneric_nGenericConsDescriptor.gcd_name
	push_node _cycle_in_spine 1
	jsr_eval 0
	repl_r_args_a 6 0 1 1
	jsr_eval 0
.d 1 0 
	fill_a01_pop_rtn 
.export e_StdGeneric_dGenericConsDescriptor.gcd_arity
.export e_StdGeneric_nGenericConsDescriptor.gcd_arity
.descs e_StdGeneric_dGenericConsDescriptor.gcd_arity e_StdGeneric_nGenericConsDescriptor.gcd_arity _ 3 0 "GenericConsDescriptor.gcd_arity"
.n -4 e_StdGeneric_dGenericConsDescriptor.gcd_arity
.o 1 0 
e_StdGeneric_nGenericConsDescriptor.gcd_arity
	push_node _cycle_in_spine 1
	jsr_eval 0
	repl_r_args_a 6 0 2 1
	jsr_eval 0
.d 1 0 
	fill_a01_pop_rtn 
.export e_StdGeneric_dGenericConsDescriptor.gcd_prio
.export e_StdGeneric_nGenericConsDescriptor.gcd_prio
.export e_StdGeneric_eaGenericConsDescriptor.gcd_prio
.descs e_StdGeneric_dGenericConsDescriptor.gcd_prio e_StdGeneric_nGenericConsDescriptor.gcd_prio _ 4 0 "GenericConsDescriptor.gcd_prio"
.n -4 e_StdGeneric_dGenericConsDescriptor.gcd_prio e_StdGeneric_eaGenericConsDescriptor.gcd_prio
.o 1 0 
e_StdGeneric_nGenericConsDescriptor.gcd_prio
	push_node _cycle_in_spine 1
.o 2 0 
e_StdGeneric_eaGenericConsDescriptor.gcd_prio
	jsr_eval 0
	repl_r_args_a 6 0 3 1
	jmp_eval_upd
.export e_StdGeneric_dGenericConsDescriptor.gcd_type_def
.export e_StdGeneric_nGenericConsDescriptor.gcd_type_def
.descs e_StdGeneric_dGenericConsDescriptor.gcd_type_def e_StdGeneric_nGenericConsDescriptor.gcd_type_def _ 5 0 "GenericConsDescriptor.gcd_type_def"
.n -4 e_StdGeneric_dGenericConsDescriptor.gcd_type_def
.o 1 0 
e_StdGeneric_nGenericConsDescriptor.gcd_type_def
	push_node _cycle_in_spine 1
	jsr_eval 0
	repl_r_args_a 6 0 4 1
	jsr_eval 0
.d 1 0 
	fill_a01_pop_rtn 
.export e_StdGeneric_dGenericConsDescriptor.gcd_type
.export e_StdGeneric_nGenericConsDescriptor.gcd_type
.export e_StdGeneric_eaGenericConsDescriptor.gcd_type
.descs e_StdGeneric_dGenericConsDescriptor.gcd_type e_StdGeneric_nGenericConsDescriptor.gcd_type _ 6 0 "GenericConsDescriptor.gcd_type"
.n -4 e_StdGeneric_dGenericConsDescriptor.gcd_type e_StdGeneric_eaGenericConsDescriptor.gcd_type
.o 1 0 
e_StdGeneric_nGenericConsDescriptor.gcd_type
	push_node _cycle_in_spine 1
.o 2 0 
e_StdGeneric_eaGenericConsDescriptor.gcd_type
	jsr_eval 0
	repl_r_args_a 6 0 5 1
	jmp_eval_upd
.export e_StdGeneric_dGenericConsDescriptor.gcd_index
.export e_StdGeneric_nGenericConsDescriptor.gcd_index
.descs e_StdGeneric_dGenericConsDescriptor.gcd_index e_StdGeneric_nGenericConsDescriptor.gcd_index _ 7 0 "GenericConsDescriptor.gcd_index"
.n -4 e_StdGeneric_dGenericConsDescriptor.gcd_index
.o 1 0 
e_StdGeneric_nGenericConsDescriptor.gcd_index
	push_node _cycle_in_spine 1
	jsr_eval 0
	repl_r_args_a 6 0 6 1
	jsr_eval 0
.d 1 0 
	fill_a01_pop_rtn 
.export e_StdGeneric_dGenConsNoPrio
.desc e_StdGeneric_dGenConsNoPrio _hnf _hnf 0 0 "GenConsNoPrio"
.export e_StdGeneric_dGenConsPrio
.desc e_StdGeneric_dGenConsPrio _hnf _add_arg 2 0 "GenConsPrio"
.export e_StdGeneric_dGenConsAssocNone
.desc0 e_StdGeneric_dGenConsAssocNone 0 "GenConsAssocNone"
.export e_StdGeneric_dGenConsAssocLeft
.desc0 e_StdGeneric_dGenConsAssocLeft 1 "GenConsAssocLeft"
.export e_StdGeneric_dGenConsAssocRight
.desc0 e_StdGeneric_dGenConsAssocRight 2 "GenConsAssocRight"
.export e_StdGeneric_rGenericRecordDescriptor
.record e_StdGeneric_rGenericRecordDescriptor aaaaa 5 0 "GenericRecordDescriptor"
.export e_StdGeneric_dGenericRecordDescriptor.grd_name
.export e_StdGeneric_nGenericRecordDescriptor.grd_name
.descs e_StdGeneric_dGenericRecordDescriptor.grd_name e_StdGeneric_nGenericRecordDescriptor.grd_name _ 1 0 "GenericRecordDescriptor.grd_name"
.n -4 e_StdGeneric_dGenericRecordDescriptor.grd_name
.o 1 0 
e_StdGeneric_nGenericRecordDescriptor.grd_name
	push_node _cycle_in_spine 1
	jsr_eval 0
	repl_r_args_a 5 0 1 1
	jsr_eval 0
.d 1 0 
	fill_a01_pop_rtn 
.export e_StdGeneric_dGenericRecordDescriptor.grd_arity
.export e_StdGeneric_nGenericRecordDescriptor.grd_arity
.descs e_StdGeneric_dGenericRecordDescriptor.grd_arity e_StdGeneric_nGenericRecordDescriptor.grd_arity _ 3 0 "GenericRecordDescriptor.grd_arity"
.n -4 e_StdGeneric_dGenericRecordDescriptor.grd_arity
.o 1 0 
e_StdGeneric_nGenericRecordDescriptor.grd_arity
	push_node _cycle_in_spine 1
	jsr_eval 0
	repl_r_args_a 5 0 2 1
	jsr_eval 0
.d 1 0 
	fill_a01_pop_rtn 
.export e_StdGeneric_dGenericRecordDescriptor.grd_type_arity
.export e_StdGeneric_nGenericRecordDescriptor.grd_type_arity
.descs e_StdGeneric_dGenericRecordDescriptor.grd_type_arity e_StdGeneric_nGenericRecordDescriptor.grd_type_arity _ 4 0 "GenericRecordDescriptor.grd_type_arity"
.n -4 e_StdGeneric_dGenericRecordDescriptor.grd_type_arity
.o 1 0 
e_StdGeneric_nGenericRecordDescriptor.grd_type_arity
	push_node _cycle_in_spine 1
	jsr_eval 0
	repl_r_args_a 5 0 3 1
	jsr_eval 0
.d 1 0 
	fill_a01_pop_rtn 
.export e_StdGeneric_dGenericRecordDescriptor.grd_type
.export e_StdGeneric_nGenericRecordDescriptor.grd_type
.export e_StdGeneric_eaGenericRecordDescriptor.grd_type
.descs e_StdGeneric_dGenericRecordDescriptor.grd_type e_StdGeneric_nGenericRecordDescriptor.grd_type _ 5 0 "GenericRecordDescriptor.grd_type"
.n -4 e_StdGeneric_dGenericRecordDescriptor.grd_type e_StdGeneric_eaGenericRecordDescriptor.grd_type
.o 1 0 
e_StdGeneric_nGenericRecordDescriptor.grd_type
	push_node _cycle_in_spine 1
.o 2 0 
e_StdGeneric_eaGenericRecordDescriptor.grd_type
	jsr_eval 0
	repl_r_args_a 5 0 4 1
	jmp_eval_upd
.export e_StdGeneric_dGenericRecordDescriptor.grd_fields
.export e_StdGeneric_nGenericRecordDescriptor.grd_fields
.export e_StdGeneric_eaGenericRecordDescriptor.grd_fields
.descs e_StdGeneric_dGenericRecordDescriptor.grd_fields e_StdGeneric_nGenericRecordDescriptor.grd_fields _ 6 0 "GenericRecordDescriptor.grd_fields"
.n -4 e_StdGeneric_dGenericRecordDescriptor.grd_fields e_StdGeneric_eaGenericRecordDescriptor.grd_fields
.o 1 0 
e_StdGeneric_nGenericRecordDescriptor.grd_fields
	push_node _cycle_in_spine 1
.o 2 0 
e_StdGeneric_eaGenericRecordDescriptor.grd_fields
	jsr_eval 0
	repl_r_args_a 5 0 5 1
	jmp_eval_upd
.export e_StdGeneric_rGenericFieldDescriptor
.record e_StdGeneric_rGenericFieldDescriptor aaa 3 0 "GenericFieldDescriptor"
.export e_StdGeneric_dGenericFieldDescriptor.gfd_name
.export e_StdGeneric_nGenericFieldDescriptor.gfd_name
.descs e_StdGeneric_dGenericFieldDescriptor.gfd_name e_StdGeneric_nGenericFieldDescriptor.gfd_name _ 1 0 "GenericFieldDescriptor.gfd_name"
.n -4 e_StdGeneric_dGenericFieldDescriptor.gfd_name
.o 1 0 
e_StdGeneric_nGenericFieldDescriptor.gfd_name
	push_node _cycle_in_spine 1
	jsr_eval 0
	repl_r_args_a 3 0 1 1
	jsr_eval 0
.d 1 0 
	fill_a01_pop_rtn 
.export e_StdGeneric_dGenericFieldDescriptor.gfd_index
.export e_StdGeneric_nGenericFieldDescriptor.gfd_index
.descs e_StdGeneric_dGenericFieldDescriptor.gfd_index e_StdGeneric_nGenericFieldDescriptor.gfd_index _ 3 0 "GenericFieldDescriptor.gfd_index"
.n -4 e_StdGeneric_dGenericFieldDescriptor.gfd_index
.o 1 0 
e_StdGeneric_nGenericFieldDescriptor.gfd_index
	push_node _cycle_in_spine 1
	jsr_eval 0
	repl_r_args_a 3 0 2 1
	jsr_eval 0
.d 1 0 
	fill_a01_pop_rtn 
.export e_StdGeneric_dGenericFieldDescriptor.gfd_cons
.export e_StdGeneric_nGenericFieldDescriptor.gfd_cons
.descs e_StdGeneric_dGenericFieldDescriptor.gfd_cons e_StdGeneric_nGenericFieldDescriptor.gfd_cons _ 4 0 "GenericFieldDescriptor.gfd_cons"
.n -4 e_StdGeneric_dGenericFieldDescriptor.gfd_cons
.o 1 0 
e_StdGeneric_nGenericFieldDescriptor.gfd_cons
	push_node _cycle_in_spine 1
	jsr_eval 0
	repl_r_args_a 3 0 3 1
	jsr_eval 0
.d 1 0 
	fill_a01_pop_rtn 
.export e_StdGeneric_eaGenTypeVar
.descexp e_StdGeneric_dGenTypeVar e_StdGeneric_nGenTypeVar e_StdGeneric_lGenTypeVar 1 0 "GenTypeVar"
.o 2 0 
e_StdGeneric_lGenTypeVar
	update_a 1 0
	create 
.d 2 0 
	put_a_jmp 2 e_StdGeneric_eaGenTypeVar
.n 1 e_StdGeneric_dGenTypeVar e_StdGeneric_eaGenTypeVar
.o 1 0 
e_StdGeneric_nGenTypeVar
	push_node _cycle_in_spine 1
.o 2 0 
e_StdGeneric_eaGenTypeVar
	jsr_eval 0
	pushI0_pop_a1 
	fill_r e_StdGeneric_kGenTypeVar 0 1 0 0 0
.d 1 0 
	pop_b_rtn 1
.export e_StdGeneric_dGenTypeCons
.desc e_StdGeneric_dGenTypeCons _hnf _add_arg 1 0 "GenTypeCons"
.export e_StdGeneric_kGenTypeVar
.record e_StdGeneric_kGenTypeVar di 0 1 "GenTypeVar"
.export e_StdGeneric_dGenTypeApp
.desc e_StdGeneric_dGenTypeApp _hnf _add_arg 2 0 "GenTypeApp"
.export e_StdGeneric_dGenTypeArrow
.desc e_StdGeneric_dGenTypeArrow _hnf _add_arg 2 0 "GenTypeArrow"
.export e_StdGeneric_dConsLeft
.desc0 e_StdGeneric_dConsLeft 0 "ConsLeft"
.export e_StdGeneric_dConsRight
.desc0 e_StdGeneric_dConsRight 1 "ConsRight"
.export e_StdGeneric_rGenericDict
.record e_StdGeneric_rGenericDict a 1 0 "GenericDict"
.descexp e_StdGeneric_tGenericDict e_StdGeneric_cGenericDict _hnf 1 1 "GenericDict"
.n 1 e_StdGeneric_tGenericDict
.o 1 0 
e_StdGeneric_cGenericDict
	push_node _cycle_in_spine 1
	jsr_eval 0
.impmod StdGeneric
.impdesc e_StdGeneric_rGenericDict
	fill_r e_StdGeneric_rGenericDict 1 0 1 0 0
.d 1 0 
	pop_a_rtn 1
.export e_StdGeneric_dGenericDict.generic_dict
.export e_StdGeneric_nGenericDict.generic_dict
.export e_StdGeneric_eaGenericDict.generic_dict
.descs e_StdGeneric_dGenericDict.generic_dict e_StdGeneric_nGenericDict.generic_dict _ 1 0 "GenericDict.generic_dict"
.n -4 e_StdGeneric_dGenericDict.generic_dict e_StdGeneric_eaGenericDict.generic_dict
.o 1 0 
e_StdGeneric_nGenericDict.generic_dict
	push_node _cycle_in_spine 1
.o 2 0 
e_StdGeneric_eaGenericDict.generic_dict
	jsr_eval 0
	repl_r_args_a 1 0 1 1
.d 1 0 
	fill_a01_pop_rtn 
.export e_StdGeneric_rGenericDict0
.record e_StdGeneric_rGenericDict0 a 1 0 "GenericDict0"
.export e_StdGeneric_dGenericDict0.generic_dict0
.export e_StdGeneric_nGenericDict0.generic_dict0
.descs e_StdGeneric_dGenericDict0.generic_dict0 e_StdGeneric_nGenericDict0.generic_dict0 _ 1 0 "GenericDict0.generic_dict0"
.n -4 e_StdGeneric_dGenericDict0.generic_dict0 _
.o 1 0 
e_StdGeneric_nGenericDict0.generic_dict0
	push_node _cycle_in_spine 1
	jsr_eval 0
	repl_r_args_a 1 0 1 1
	jsr_eval 0
.d 1 0 
	fill_a01_pop_rtn 
.export e_StdGeneric_sTD;GenericDict0
.export e_StdGeneric_eaTD;GenericDict0
.descexp e_StdGeneric_dTD;GenericDict0 e_StdGeneric_nTD;GenericDict0 e_StdGeneric_lTD;GenericDict0 1 0 "TD;GenericDict0"
.o 2 0 
e_StdGeneric_lTD;GenericDict0
	update_a 1 0
	create 
.d 2 0 
	put_a_jmp 2 e_StdGeneric_eaTD;GenericDict0
.n 1 e_StdGeneric_dTD;GenericDict0 e_StdGeneric_eaTD;GenericDict0
.o 1 0 
e_StdGeneric_nTD;GenericDict0
	push_node _cycle_in_spine 1
.o 2 0 
e_StdGeneric_eaTD;GenericDict0
.o 2 0 
e_StdGeneric_sTD;GenericDict0
.o 2 0 
s28
	fillh _Nil 0 1
.d 1 0 
	pop_a_rtn 1
.export e_StdGeneric_sTD;GenericDict
.export e_StdGeneric_eaTD;GenericDict
.descexp e_StdGeneric_dTD;GenericDict e_StdGeneric_nTD;GenericDict e_StdGeneric_lTD;GenericDict 1 0 "TD;GenericDict"
.o 2 0 
e_StdGeneric_lTD;GenericDict
	update_a 1 0
	create 
.d 2 0 
	put_a_jmp 2 e_StdGeneric_eaTD;GenericDict
.n 1 e_StdGeneric_dTD;GenericDict e_StdGeneric_eaTD;GenericDict
.o 1 0 
e_StdGeneric_nTD;GenericDict
	push_node _cycle_in_spine 1
.o 2 0 
e_StdGeneric_eaTD;GenericDict
.o 2 0 
e_StdGeneric_sTD;GenericDict
.o 2 0 
s27
	fillh _Nil 0 1
.d 1 0 
	pop_a_rtn 1
.export e_StdGeneric_sTD;ConsPos
.export e_StdGeneric_eaTD;ConsPos
.descexp e_StdGeneric_dTD;ConsPos e_StdGeneric_nTD;ConsPos e_StdGeneric_lTD;ConsPos 1 0 "TD;ConsPos"
.o 2 0 
e_StdGeneric_lTD;ConsPos
	update_a 1 0
	create 
.d 2 0 
	put_a_jmp 2 e_StdGeneric_eaTD;ConsPos
.n 1 e_StdGeneric_dTD;ConsPos e_StdGeneric_eaTD;ConsPos
.o 1 0 
e_StdGeneric_nTD;ConsPos
	push_node _cycle_in_spine 1
.o 2 0 
e_StdGeneric_eaTD;ConsPos
.o 2 0 
e_StdGeneric_sTD;ConsPos
.o 2 0 
s26
	fillh _Nil 0 1
.d 1 0 
	pop_a_rtn 1
.export e_StdGeneric_sTD;GenType
.export e_StdGeneric_eaTD;GenType
.descexp e_StdGeneric_dTD;GenType e_StdGeneric_nTD;GenType e_StdGeneric_lTD;GenType 1 0 "TD;GenType"
.o 2 0 
e_StdGeneric_lTD;GenType
	update_a 1 0
	create 
.d 2 0 
	put_a_jmp 2 e_StdGeneric_eaTD;GenType
.n 1 e_StdGeneric_dTD;GenType e_StdGeneric_eaTD;GenType
.o 1 0 
e_StdGeneric_nTD;GenType
	push_node _cycle_in_spine 1
.o 2 0 
e_StdGeneric_eaTD;GenType
.o 2 0 
e_StdGeneric_sTD;GenType
.o 2 0 
s25
	fillh _Nil 0 1
.d 1 0 
	pop_a_rtn 1
.export e_StdGeneric_sTD;GenericFieldDescriptor
.export e_StdGeneric_eaTD;GenericFieldDescriptor
.descexp e_StdGeneric_dTD;GenericFieldDescriptor e_StdGeneric_nTD;GenericFieldDescriptor e_StdGeneric_lTD;GenericFieldDescriptor 1 0 "TD;GenericFieldDescriptor"
.o 2 0 
e_StdGeneric_lTD;GenericFieldDescriptor
	update_a 1 0
	create 
.d 2 0 
	put_a_jmp 2 e_StdGeneric_eaTD;GenericFieldDescriptor
.n 1 e_StdGeneric_dTD;GenericFieldDescriptor e_StdGeneric_eaTD;GenericFieldDescriptor
.o 1 0 
e_StdGeneric_nTD;GenericFieldDescriptor
	push_node _cycle_in_spine 1
.o 2 0 
e_StdGeneric_eaTD;GenericFieldDescriptor
.o 2 0 
e_StdGeneric_sTD;GenericFieldDescriptor
.o 2 0 
s24
	fillh _Nil 0 1
.d 1 0 
	pop_a_rtn 1
.export e_StdGeneric_sTD;GenericRecordDescriptor
.export e_StdGeneric_eaTD;GenericRecordDescriptor
.descexp e_StdGeneric_dTD;GenericRecordDescriptor e_StdGeneric_nTD;GenericRecordDescriptor e_StdGeneric_lTD;GenericRecordDescriptor 1 0 "TD;GenericRecordDescriptor"
.o 2 0 
e_StdGeneric_lTD;GenericRecordDescriptor
	update_a 1 0
	create 
.d 2 0 
	put_a_jmp 2 e_StdGeneric_eaTD;GenericRecordDescriptor
.n 1 e_StdGeneric_dTD;GenericRecordDescriptor e_StdGeneric_eaTD;GenericRecordDescriptor
.o 1 0 
e_StdGeneric_nTD;GenericRecordDescriptor
	push_node _cycle_in_spine 1
.o 2 0 
e_StdGeneric_eaTD;GenericRecordDescriptor
.o 2 0 
e_StdGeneric_sTD;GenericRecordDescriptor
.o 2 0 
s23
	fillh _Nil 0 1
.d 1 0 
	pop_a_rtn 1
.export e_StdGeneric_sTD;GenConsAssoc
.export e_StdGeneric_eaTD;GenConsAssoc
.descexp e_StdGeneric_dTD;GenConsAssoc e_StdGeneric_nTD;GenConsAssoc e_StdGeneric_lTD;GenConsAssoc 1 0 "TD;GenConsAssoc"
.o 2 0 
e_StdGeneric_lTD;GenConsAssoc
	update_a 1 0
	create 
.d 2 0 
	put_a_jmp 2 e_StdGeneric_eaTD;GenConsAssoc
.n 1 e_StdGeneric_dTD;GenConsAssoc e_StdGeneric_eaTD;GenConsAssoc
.o 1 0 
e_StdGeneric_nTD;GenConsAssoc
	push_node _cycle_in_spine 1
.o 2 0 
e_StdGeneric_eaTD;GenConsAssoc
.o 2 0 
e_StdGeneric_sTD;GenConsAssoc
.o 2 0 
s22
	fillh _Nil 0 1
.d 1 0 
	pop_a_rtn 1
.export e_StdGeneric_sTD;GenConsPrio
.export e_StdGeneric_eaTD;GenConsPrio
.descexp e_StdGeneric_dTD;GenConsPrio e_StdGeneric_nTD;GenConsPrio e_StdGeneric_lTD;GenConsPrio 1 0 "TD;GenConsPrio"
.o 2 0 
e_StdGeneric_lTD;GenConsPrio
	update_a 1 0
	create 
.d 2 0 
	put_a_jmp 2 e_StdGeneric_eaTD;GenConsPrio
.n 1 e_StdGeneric_dTD;GenConsPrio e_StdGeneric_eaTD;GenConsPrio
.o 1 0 
e_StdGeneric_nTD;GenConsPrio
	push_node _cycle_in_spine 1
.o 2 0 
e_StdGeneric_eaTD;GenConsPrio
.o 2 0 
e_StdGeneric_sTD;GenConsPrio
.o 2 0 
s21
	fillh _Nil 0 1
.d 1 0 
	pop_a_rtn 1
.export e_StdGeneric_sTD;GenericConsDescriptor
.export e_StdGeneric_eaTD;GenericConsDescriptor
.descexp e_StdGeneric_dTD;GenericConsDescriptor e_StdGeneric_nTD;GenericConsDescriptor e_StdGeneric_lTD;GenericConsDescriptor 1 0 "TD;GenericConsDescriptor"
.o 2 0 
e_StdGeneric_lTD;GenericConsDescriptor
	update_a 1 0
	create 
.d 2 0 
	put_a_jmp 2 e_StdGeneric_eaTD;GenericConsDescriptor
.n 1 e_StdGeneric_dTD;GenericConsDescriptor e_StdGeneric_eaTD;GenericConsDescriptor
.o 1 0 
e_StdGeneric_nTD;GenericConsDescriptor
	push_node _cycle_in_spine 1
.o 2 0 
e_StdGeneric_eaTD;GenericConsDescriptor
.o 2 0 
e_StdGeneric_sTD;GenericConsDescriptor
.o 2 0 
s20
	fillh _Nil 0 1
.d 1 0 
	pop_a_rtn 1
.export e_StdGeneric_sTD;GenericTypeDefDescriptor
.export e_StdGeneric_eaTD;GenericTypeDefDescriptor
.descexp e_StdGeneric_dTD;GenericTypeDefDescriptor e_StdGeneric_nTD;GenericTypeDefDescriptor e_StdGeneric_lTD;GenericTypeDefDescriptor 1 0 "TD;GenericTypeDefDescriptor"
.o 2 0 
e_StdGeneric_lTD;GenericTypeDefDescriptor
	update_a 1 0
	create 
.d 2 0 
	put_a_jmp 2 e_StdGeneric_eaTD;GenericTypeDefDescriptor
.n 1 e_StdGeneric_dTD;GenericTypeDefDescriptor e_StdGeneric_eaTD;GenericTypeDefDescriptor
.o 1 0 
e_StdGeneric_nTD;GenericTypeDefDescriptor
	push_node _cycle_in_spine 1
.o 2 0 
e_StdGeneric_eaTD;GenericTypeDefDescriptor
.o 2 0 
e_StdGeneric_sTD;GenericTypeDefDescriptor
.o 2 0 
s19
	fillh _Nil 0 1
.d 1 0 
	pop_a_rtn 1
.export e_StdGeneric_sTD;FIELD
.export e_StdGeneric_eaTD;FIELD
.descexp e_StdGeneric_dTD;FIELD e_StdGeneric_nTD;FIELD e_StdGeneric_lTD;FIELD 1 0 "TD;FIELD"
.o 2 0 
e_StdGeneric_lTD;FIELD
	update_a 1 0
	create 
.d 2 0 
	put_a_jmp 2 e_StdGeneric_eaTD;FIELD
.n 1 e_StdGeneric_dTD;FIELD e_StdGeneric_eaTD;FIELD
.o 1 0 
e_StdGeneric_nTD;FIELD
	push_node _cycle_in_spine 1
.o 2 0 
e_StdGeneric_eaTD;FIELD
.o 2 0 
e_StdGeneric_sTD;FIELD
.o 2 0 
s18
	fillh _Nil 0 1
.d 1 0 
	pop_a_rtn 1
.export e_StdGeneric_sTD;RECORD
.export e_StdGeneric_eaTD;RECORD
.descexp e_StdGeneric_dTD;RECORD e_StdGeneric_nTD;RECORD e_StdGeneric_lTD;RECORD 1 0 "TD;RECORD"
.o 2 0 
e_StdGeneric_lTD;RECORD
	update_a 1 0
	create 
.d 2 0 
	put_a_jmp 2 e_StdGeneric_eaTD;RECORD
.n 1 e_StdGeneric_dTD;RECORD e_StdGeneric_eaTD;RECORD
.o 1 0 
e_StdGeneric_nTD;RECORD
	push_node _cycle_in_spine 1
.o 2 0 
e_StdGeneric_eaTD;RECORD
.o 2 0 
e_StdGeneric_sTD;RECORD
.o 2 0 
s17
	fillh _Nil 0 1
.d 1 0 
	pop_a_rtn 1
.export e_StdGeneric_sTD;CONS
.export e_StdGeneric_eaTD;CONS
.descexp e_StdGeneric_dTD;CONS e_StdGeneric_nTD;CONS e_StdGeneric_lTD;CONS 1 0 "TD;CONS"
.o 2 0 
e_StdGeneric_lTD;CONS
	update_a 1 0
	create 
.d 2 0 
	put_a_jmp 2 e_StdGeneric_eaTD;CONS
.n 1 e_StdGeneric_dTD;CONS e_StdGeneric_eaTD;CONS
.o 1 0 
e_StdGeneric_nTD;CONS
	push_node _cycle_in_spine 1
.o 2 0 
e_StdGeneric_eaTD;CONS
.o 2 0 
e_StdGeneric_sTD;CONS
.o 2 0 
s16
	fillh _Nil 0 1
.d 1 0 
	pop_a_rtn 1
.export e_StdGeneric_sTD;OBJECT
.export e_StdGeneric_eaTD;OBJECT
.descexp e_StdGeneric_dTD;OBJECT e_StdGeneric_nTD;OBJECT e_StdGeneric_lTD;OBJECT 1 0 "TD;OBJECT"
.o 2 0 
e_StdGeneric_lTD;OBJECT
	update_a 1 0
	create 
.d 2 0 
	put_a_jmp 2 e_StdGeneric_eaTD;OBJECT
.n 1 e_StdGeneric_dTD;OBJECT e_StdGeneric_eaTD;OBJECT
.o 1 0 
e_StdGeneric_nTD;OBJECT
	push_node _cycle_in_spine 1
.o 2 0 
e_StdGeneric_eaTD;OBJECT
.o 2 0 
e_StdGeneric_sTD;OBJECT
.o 2 0 
s15
	fillh _Nil 0 1
.d 1 0 
	pop_a_rtn 1
.export e_StdGeneric_sTD;PAIR
.export e_StdGeneric_eaTD;PAIR
.descexp e_StdGeneric_dTD;PAIR e_StdGeneric_nTD;PAIR e_StdGeneric_lTD;PAIR 1 0 "TD;PAIR"
.o 2 0 
e_StdGeneric_lTD;PAIR
	update_a 1 0
	create 
.d 2 0 
	put_a_jmp 2 e_StdGeneric_eaTD;PAIR
.n 1 e_StdGeneric_dTD;PAIR e_StdGeneric_eaTD;PAIR
.o 1 0 
e_StdGeneric_nTD;PAIR
	push_node _cycle_in_spine 1
.o 2 0 
e_StdGeneric_eaTD;PAIR
.o 2 0 
e_StdGeneric_sTD;PAIR
.o 2 0 
s14
	fillh _Nil 0 1
.d 1 0 
	pop_a_rtn 1
.export e_StdGeneric_sTD;EITHER
.export e_StdGeneric_eaTD;EITHER
.descexp e_StdGeneric_dTD;EITHER e_StdGeneric_nTD;EITHER e_StdGeneric_lTD;EITHER 1 0 "TD;EITHER"
.o 2 0 
e_StdGeneric_lTD;EITHER
	update_a 1 0
	create 
.d 2 0 
	put_a_jmp 2 e_StdGeneric_eaTD;EITHER
.n 1 e_StdGeneric_dTD;EITHER e_StdGeneric_eaTD;EITHER
.o 1 0 
e_StdGeneric_nTD;EITHER
	push_node _cycle_in_spine 1
.o 2 0 
e_StdGeneric_eaTD;EITHER
.o 2 0 
e_StdGeneric_sTD;EITHER
.o 2 0 
s13
	fillh _Nil 0 1
.d 1 0 
	pop_a_rtn 1
.export e_StdGeneric_sTD;UNIT
.export e_StdGeneric_eaTD;UNIT
.descexp e_StdGeneric_dTD;UNIT e_StdGeneric_nTD;UNIT e_StdGeneric_lTD;UNIT 1 0 "TD;UNIT"
.o 2 0 
e_StdGeneric_lTD;UNIT
	update_a 1 0
	create 
.d 2 0 
	put_a_jmp 2 e_StdGeneric_eaTD;UNIT
.n 1 e_StdGeneric_dTD;UNIT e_StdGeneric_eaTD;UNIT
.o 1 0 
e_StdGeneric_nTD;UNIT
	push_node _cycle_in_spine 1
.o 2 0 
e_StdGeneric_eaTD;UNIT
.o 2 0 
e_StdGeneric_sTD;UNIT
.o 2 0 
s12
	fillh _Nil 0 1
.d 1 0 
	pop_a_rtn 1
.export e_StdGeneric_sbinumap_ARROW;10
.export e_StdGeneric_eabinumap_ARROW;10
.descexp e_StdGeneric_dbinumap_ARROW;10 e_StdGeneric_nbinumap_ARROW;10 e_StdGeneric_lbinumap_ARROW;10 5 0 "binumap_ARROW;10"
.o 6 0 
e_StdGeneric_ibinumap_ARROW;10
	pop_a 1
	create 
	jsr_eval 3
	jsr_eval 2
	push_update_a 1 2
	updates2_a 5 4 3
	updates3pop_a 0 1 6 5
.d 6 0 
	jmp s11
.ai 5 e_StdGeneric_eabinumap_ARROW;10 e_StdGeneric_ibinumap_ARROW;10
.o 2 0 
e_StdGeneric_lbinumap_ARROW;10
	push_args 0 4 4
	update_a 5 4
	create 
.d 6 0 
	put_a_jmp 6 e_StdGeneric_eabinumap_ARROW;10
.n 5 e_StdGeneric_dbinumap_ARROW;10 e_StdGeneric_eabinumap_ARROW;10
.o 1 0 
e_StdGeneric_nbinumap_ARROW;10
	push_node _cycle_in_spine 5
.o 6 0 
e_StdGeneric_sbinumap_ARROW;10
.o 6 0 
e_StdGeneric_eabinumap_ARROW;10
	jsr_eval 2
	jsr_eval 1
.o 6 0 
s11
	updates2_a 1 4 3
.d 4 0 
	pop_a_jmp 2 s29
.export e_StdGeneric_sbinumap_c;9
.descexp e_StdGeneric_dbinumap_c;9 e_StdGeneric_nbinumap_c;9 e_StdGeneric_lbinumap_c;9 1 0 "binumap_c;9"
.o 2 0 
e_StdGeneric_ibinumap_c;9
	pop_a 1
	jsr_eval 0
.d 1 0 
	jmp s10
.ai 1 _ e_StdGeneric_ibinumap_c;9
.o 2 0 
e_StdGeneric_lbinumap_c;9
.d 1 0 
	pop_a_jmp 1 ea10
.n 1 e_StdGeneric_dbinumap_c;9 _
.o 1 0 
e_StdGeneric_nbinumap_c;9
	push_node _cycle_in_spine 1
.d 1 0 
	jsr ea10
.o 1 0 
.d 1 0 
	fill_a01_pop_rtn 
.o 1 0 
e_StdGeneric_sbinumap_c;9
.o 1 0 
ea10
	jsr_eval 0
.o 1 0 
s10
.d 1 0 
	rtn 
.export e_StdGeneric_sbimap_ARROW;8
.export e_StdGeneric_eabimap_ARROW;8
.descexp e_StdGeneric_dbimap_ARROW;8 e_StdGeneric_nbimap_ARROW;8 e_StdGeneric_lbimap_ARROW;8 5 0 "bimap_ARROW;8"
.o 6 0 
e_StdGeneric_ibimap_ARROW;8
	pop_a 1
	create 
	jsr_eval 3
	jsr_eval 2
	push_update_a 1 2
	updates2_a 5 4 3
	updates3pop_a 0 1 6 5
.d 6 0 
	jmp s9
.ai 5 e_StdGeneric_eabimap_ARROW;8 e_StdGeneric_ibimap_ARROW;8
.o 2 0 
e_StdGeneric_lbimap_ARROW;8
	push_args 0 4 4
	update_a 5 4
	create 
.d 6 0 
	put_a_jmp 6 e_StdGeneric_eabimap_ARROW;8
.n 5 e_StdGeneric_dbimap_ARROW;8 e_StdGeneric_eabimap_ARROW;8
.o 1 0 
e_StdGeneric_nbimap_ARROW;8
	push_node _cycle_in_spine 5
.o 6 0 
e_StdGeneric_sbimap_ARROW;8
.o 6 0 
e_StdGeneric_eabimap_ARROW;8
	jsr_eval 2
	jsr_eval 1
.o 6 0 
s9
	updates2_a 1 4 3
.d 4 0 
	pop_a_jmp 2 s29
.export e_StdGeneric_sbimap_FIELD;7
.descexp e_StdGeneric_dbimap_FIELD;7 e_StdGeneric_nbimap_FIELD;7 e_StdGeneric_lbimap_FIELD;7 3 0 "bimap_FIELD;7"
.a 0 ea8
.o 2 0 
e_StdGeneric_lbimap_FIELD;7
	repl_args 2 2
.d 3 0 
	jmp ea8
.n 3 e_StdGeneric_dbimap_FIELD;7 _
.o 1 0 
e_StdGeneric_nbimap_FIELD;7
	push_node _cycle_in_spine 3
.d 3 0 
	jsr ea8
.o 1 0 
.d 1 0 
	fill_a01_pop_rtn 
.o 3 0 
e_StdGeneric_sbimap_FIELD;7
.o 3 0 
ea8
	jsr_eval 0
.o 3 0 
s8
	put_a 1
	jmp_ap 1
.export e_StdGeneric_sbimap_RECORD;6
.export e_StdGeneric_eabimap_RECORD;6
.descexp e_StdGeneric_dbimap_RECORD;6 e_StdGeneric_nbimap_RECORD;6 e_StdGeneric_lbimap_RECORD;6 3 0 "bimap_RECORD;6"
.a 3 e_StdGeneric_eabimap_RECORD;6
.o 2 0 
e_StdGeneric_lbimap_RECORD;6
	push_args 0 2 2
	update_a 3 2
	create 
.d 4 0 
	put_a_jmp 4 e_StdGeneric_eabimap_RECORD;6
.n 3 e_StdGeneric_dbimap_RECORD;6 e_StdGeneric_eabimap_RECORD;6
.o 1 0 
e_StdGeneric_nbimap_RECORD;6
	push_node _cycle_in_spine 3
.o 4 0 
e_StdGeneric_sbimap_RECORD;6
.o 4 0 
e_StdGeneric_eabimap_RECORD;6
	jsr_eval 2
.o 4 0 
s7
	push_args 2 1 1
	buildh _Nil 0
	push_a 2
	updates2_a 2 1 5
	build e_system_dAP 2 e_system_nAP
	fillh e_StdGeneric_dRECORD 1 5
.d 1 0 
	pop_a_rtn 4
.export e_StdGeneric_sbimap_CONS;5
.export e_StdGeneric_eabimap_CONS;5
.descexp e_StdGeneric_dbimap_CONS;5 e_StdGeneric_nbimap_CONS;5 e_StdGeneric_lbimap_CONS;5 3 0 "bimap_CONS;5"
.a 3 e_StdGeneric_eabimap_CONS;5
.o 2 0 
e_StdGeneric_lbimap_CONS;5
	push_args 0 2 2
	update_a 3 2
	create 
.d 4 0 
	put_a_jmp 4 e_StdGeneric_eabimap_CONS;5
.n 3 e_StdGeneric_dbimap_CONS;5 e_StdGeneric_eabimap_CONS;5
.o 1 0 
e_StdGeneric_nbimap_CONS;5
	push_node _cycle_in_spine 3
.o 4 0 
e_StdGeneric_sbimap_CONS;5
.o 4 0 
e_StdGeneric_eabimap_CONS;5
	jsr_eval 2
.o 4 0 
s6
	push_args 2 1 1
	buildh _Nil 0
	push_a 2
	updates2_a 2 1 5
	build e_system_dAP 2 e_system_nAP
	fillh e_StdGeneric_dCONS 1 5
.d 1 0 
	pop_a_rtn 4
.export e_StdGeneric_sbimap_OBJECT;4
.descexp e_StdGeneric_dbimap_OBJECT;4 e_StdGeneric_nbimap_OBJECT;4 e_StdGeneric_lbimap_OBJECT;4 3 0 "bimap_OBJECT;4"
.a 0 ea5
.o 2 0 
e_StdGeneric_lbimap_OBJECT;4
	repl_args 2 2
.d 3 0 
	jmp ea5
.n 3 e_StdGeneric_dbimap_OBJECT;4 _
.o 1 0 
e_StdGeneric_nbimap_OBJECT;4
	push_node _cycle_in_spine 3
.d 3 0 
	jsr ea5
.o 1 0 
.d 1 0 
	fill_a01_pop_rtn 
.o 3 0 
e_StdGeneric_sbimap_OBJECT;4
.o 3 0 
ea5
	jsr_eval 0
.o 3 0 
s5
	put_a 1
	jmp_ap 1
.export e_StdGeneric_sbimap_EITHER;3
.export e_StdGeneric_eabimap_EITHER;3
.descexp e_StdGeneric_dbimap_EITHER;3 e_StdGeneric_nbimap_EITHER;3 e_StdGeneric_lbimap_EITHER;3 5 0 "bimap_EITHER;3"
.a 5 e_StdGeneric_eabimap_EITHER;3
.o 2 0 
e_StdGeneric_lbimap_EITHER;3
	push_args 0 4 4
	update_a 5 4
	create 
.d 6 0 
	put_a_jmp 6 e_StdGeneric_eabimap_EITHER;3
.n 5 e_StdGeneric_dbimap_EITHER;3 e_StdGeneric_eabimap_EITHER;3
.o 1 0 
e_StdGeneric_nbimap_EITHER;3
	push_node _cycle_in_spine 5
.o 6 0 
e_StdGeneric_sbimap_EITHER;3
.o 6 0 
e_StdGeneric_eabimap_EITHER;3
	jsr_eval 4
.o 6 0 
s4
	jmp_ne_desc e_StdGeneric_dLEFT 1 4 case.2
	push_args 4 1 1
	buildh _Nil 0
	push_a 2
	updates2_a 2 1 7
	build e_system_dAP 2 e_system_nAP
	fillh e_StdGeneric_dLEFT 1 7
.d 1 0 
	pop_a_rtn 6
case.2
	push_args 4 1 1
	buildh _Nil 0
	push_a 4
	updates2_a 2 1 7
	build e_system_dAP 2 e_system_nAP
	fillh e_StdGeneric_dRIGHT 1 7
.d 1 0 
	pop_a_rtn 6
.export e_StdGeneric_sbimap_PAIR;2
.export e_StdGeneric_eabimap_PAIR;2
.descexp e_StdGeneric_dbimap_PAIR;2 e_StdGeneric_nbimap_PAIR;2 e_StdGeneric_lbimap_PAIR;2 5 0 "bimap_PAIR;2"
.a 5 e_StdGeneric_eabimap_PAIR;2
.o 2 0 
e_StdGeneric_lbimap_PAIR;2
	push_args 0 4 4
	update_a 5 4
	create 
.d 6 0 
	put_a_jmp 6 e_StdGeneric_eabimap_PAIR;2
.n 5 e_StdGeneric_dbimap_PAIR;2 e_StdGeneric_eabimap_PAIR;2
.o 1 0 
e_StdGeneric_nbimap_PAIR;2
	push_node _cycle_in_spine 5
.o 6 0 
e_StdGeneric_sbimap_PAIR;2
.o 6 0 
e_StdGeneric_eabimap_PAIR;2
	jsr_eval 4
.o 6 0 
s3
	push_args 4 2 2
	buildh _Nil 0
	push_a 5
	updates2_a 3 1 8
	build e_system_dAP 2 e_system_nAP
	push_a2 1 3
	build e_system_dAP 2 e_system_nAP
	fillh e_StdGeneric_dPAIR 2 9
.d 1 0 
	pop_a_rtn 7
.export e_StdGeneric_sbimap_c;1
.descexp e_StdGeneric_dbimap_c;1 e_StdGeneric_nbimap_c;1 e_StdGeneric_lbimap_c;1 1 0 "bimap_c;1"
.o 2 0 
e_StdGeneric_ibimap_c;1
	pop_a 1
	jsr_eval 0
.d 1 0 
	jmp s2
.ai 1 _ e_StdGeneric_ibimap_c;1
.o 2 0 
e_StdGeneric_lbimap_c;1
.d 1 0 
	pop_a_jmp 1 ea2
.n 1 e_StdGeneric_dbimap_c;1 _
.o 1 0 
e_StdGeneric_nbimap_c;1
	push_node _cycle_in_spine 1
.d 1 0 
	jsr ea2
.o 1 0 
.d 1 0 
	fill_a01_pop_rtn 
.o 1 0 
e_StdGeneric_sbimap_c;1
.o 1 0 
ea2
	jsr_eval 0
.o 1 0 
s2
.d 1 0 
	rtn 
.o 4 0 
s29
	jmp_ne_desc e_StdFunctions_did 0 0 else.3
	update_a 2 0
	eq_desc e_StdFunctions_did 0 0
	pop_a 1
	jmp_false else.4
	jsr_eval 0
	put_a 1
.d 1 0 
	fill_a01_pop_rtn 
else.4
	buildh e_StdGeneric_d\;35;21;29.30 2
.d 1 0 
	fill_a01_pop_rtn 
else.3
	jmp_ne_desc e_StdFunctions_did 0 2 else.5
	buildho2 e_StdGeneric_d\;37;21;30.31 0 1
	updatepop_a 0 3
.d 1 0 
	fill_a01_pop_rtn 
else.5
	fillh e_StdGeneric_d\;38;15;31.32 3 3
.d 1 0 
	rtn 
.export e_StdGeneric_d\;38;15;31.32
.desc e_StdGeneric_d\;38;15;31.32 _hnf l32 4 0 "\;38;15;31.32"
.a 0 ea32
.o 2 0 
l32
	repl_args 3 3
.o 4 0 
ea32
.o 4 0 
s32
	push2_a 3
	build e_system_dAP 2 e_system_nAP
	push_a 2
	build e_system_dAP 2 e_system_nAP
	dup_a 4
	updatepop_a 1 3
	jmp_ap 1
.export e_StdGeneric_d\;37;21;30.31
.desc e_StdGeneric_d\;37;21;30.31 _hnf l31 3 0 "\;37;21;30.31"
.a 0 ea31
.o 2 0 
l31
	repl_args 2 2
.o 3 0 
ea31
.o 3 0 
s31
	push2_a 2
	build e_system_dAP 2 e_system_nAP
	dup_a 3
	updatepop_a 1 2
	jmp_ap 1
.export e_StdGeneric_d\;35;21;29.30
.desc e_StdGeneric_d\;35;21;29.30 _hnf l30 3 0 "\;35;21;29.30"
.a 0 ea30
.o 2 0 
l30
	repl_args 2 2
.o 3 0 
ea30
	jsr_eval 0
.o 3 0 
s30
	push2_a 2
	build e_system_dAP 2 e_system_nAP
	dup_a 3
	updatepop_a 1 2
	jmp_ap 1
.o 1 0 
s34
.inline cast;33
.end
.d 1 0 
	rtn 
.o 1 0 
s33
.inline is_id;32
	eq_desc e_StdFunctions_did 0 0
	pop_a 1
.end
.d 0 1 b
	rtn 
.export e_StdGeneric_sgetConsPath
.export e_StdGeneric_eagetConsPath
.descexp e_StdGeneric_dgetConsPath e_StdGeneric_ngetConsPath e_StdGeneric_lgetConsPath 1 0 "getConsPath"
.o 2 0 
e_StdGeneric_lgetConsPath
	update_a 1 0
	create 
.d 2 0 
	put_a_jmp 2 e_StdGeneric_eagetConsPath
.n 1 e_StdGeneric_dgetConsPath e_StdGeneric_eagetConsPath
.o 1 0 
e_StdGeneric_ngetConsPath
	push_node _cycle_in_spine 1
.o 2 0 
e_StdGeneric_eagetConsPath
	jsr_eval 0
	repl_r_args 6 0
.o 7 0 
e_StdGeneric_sgetConsPath
.o 7 0 
s1
	jsr_eval 3
	push_args_u 3 4 4
	updatepop_a 2 3
	jsr_eval 0
	pushI_a 0
	jmp_neIi 0 else.6
	fillh _Nil 0 7
.d 1 0 
	pop_a_rtn 7
else.6
	push_jsr_eval 6
	pushI_a 7
	pop_a 1
	pushI_a 0
	swap_b1 
.d 1 2 ii
	pop_a_jmp 7 s35
.o 1 2 ii
s35
	push2_b 1
	jmp_ltI else.7
	buildAC "getConsPath: cons index >= number of conses"
.d 1 0 
	pop_b_jsr 2 print_string_
.o 0 0 
	halt
.d 1 0 
	fill_a01_pop_rtn 
else.7
	jmp_neI_b 1 1 else.8
	fillh _Nil 0 0
.d 1 0 
	pop_b_rtn 2
else.8
	pushI 1
	push_b 2
	shiftr%
	jmp_o_geI 1 else.9
	push2_b 1
	build_u e_StdGeneric_d_f0.102 0 2 e_StdGeneric_n_f0.102
	buildh e_StdGeneric_dConsLeft 0
	fillh _Cons 2 2
.d 1 0 
	pop_b_rtn 2
else.9
	push2_b 1
	build_u e_StdGeneric_d_f1.103 0 2 e_StdGeneric_n_f1.103
	buildh e_StdGeneric_dConsRight 0
	fillh _Cons 2 2
.d 1 0 
	pop_b_rtn 2
.export e_StdGeneric_d_f1.103
.export e_StdGeneric_n_f1.103
.descn e_StdGeneric_d_f1.103 e_StdGeneric_n_f1.103 2 0 "_f1.103"
.nu 0 2 e_StdGeneric_d_f1.103 _
.o 1 0 
e_StdGeneric_n_f1.103
	push_node_u _cycle_in_spine 0 2
.o 1 2 ii
ea103
.o 1 2 ii
s103
	pushI 1
	push_b 2
	shiftr%
	push_b 2
	subI
	pushI 1
	push_b 3
	shiftr%
	push_b 2
	subI
	update2pop_b 0 2
.d 1 2 ii
	jmp s35
.export e_StdGeneric_d_f0.102
.export e_StdGeneric_n_f0.102
.descn e_StdGeneric_d_f0.102 e_StdGeneric_n_f0.102 2 0 "_f0.102"
.nu 0 2 e_StdGeneric_d_f0.102 _
.o 1 0 
e_StdGeneric_n_f0.102
	push_node_u _cycle_in_spine 0 2
.o 1 2 ii
ea102
.o 1 2 ii
s102
	pushI 1
	push_b 2
	shiftr%
.d 1 2 ii
	put_b_jmp 2 s35
