.comp 920 000011110011000
.start _nostart_
.depend "Text.Terminal.VT100" "20210609153507"
.depend "iTasks.Extensions.Terminal" "20210609153501"
.depend "iTasks.Internal.TaskIO" "20210609153501"
.depend "iTasks.Internal.WebService" "20210609153501"
.depend "iTasks.Internal.SDSService" "20210609153501"
.depend "iTasks.Internal.Serialization" "20210609153501"
.depend "_SystemEnum" "20210609153507"
.depend "StdEnum" "20210609153507"
.depend "StdTuple" "20210609153507"
.depend "StdOrdList" "20210609153507"
.depend "Control.Monad.Trans" "20210609153506"
.depend "StdMaybe" "20210609153507"
.depend "_SystemStrictMaybes" "20210609153507"
.depend "Data.Maybe" "20210609153506"
.depend "iTasks.Extensions.Admin.WorkflowAdmin" "20210609153500"
.depend "iTasks.Extensions.User" "20210609153501"
.depend "iTasks.Extensions.Admin.UserAdmin" "20210609153500"
.depend "iTasks.UI.Layout.Common" "20210609153501"
.depend "iTasks.UI.Editor.Modifiers" "20210609153501"
.depend "iTasks.UI.Editor.Containers" "20210609153501"
.depend "iTasks.UI.Tune" "20210609153501"
.depend "iTasks.Internal.Distributed.Domain" "20210609153501"
.depend "iTasks.WF.Combinators.Common" "20210609153501"
.depend "iTasks.WF.Combinators.SDS" "20210609153501"
.depend "iTasks.UI.Editor.Controls" "20210609153501"
.depend "iTasks.WF.Tasks.Interaction" "20210609153501"
.depend "iTasks.WF.Tasks.System" "20210609153501"
.depend "iTasks.WF.Tasks.SDS" "20210609153501"
.depend "iTasks.WF.Tasks.Core" "20210609153501"
.depend "System.Time.GenJSON" "20210609153506"
.depend "Text.HTML.GenJSON" "20210609153506"
.depend "Data.Map.GenJSON" "20210609153506"
.depend "Data.Error.GenJSON" "20210609153506"
.depend "Data.Either.GenJSON" "20210609153506"
.depend "iTasks.WF.Derives" "20210609153501"
.depend "iTasks.SDS.Combinators.Common" "20210609153501"
.depend "iTasks.SDS.Combinators.Core" "20210609153501"
.depend "iTasks.SDS.Sources.System" "20210609153501"
.depend "iTasks.SDS.Sources.Store" "20210609153501"
.depend "iTasks.SDS.Sources.Core" "20210609153501"
.depend "System._Signal" "20210609153506"
.depend "System.Signal" "20210609153506"
.depend "Text.GenPrint" "20210609153507"
.depend "iTasks.Extensions.DateTime" "20210609153500"
.depend "iTasks.Internal.TaskServer" "20210609153501"
.depend "iTasks.Extensions.Document" "20210609153500"
.depend "System.File" "20210609153506"
.depend "iTasks.Util.DeferredJSON" "20210609153501"
.depend "iTasks.Internal.SDS" "20210609153501"
.depend "iTasks.Internal.TaskEval" "20210609153501"
.depend "iTasks.UI.Layout" "20210609153501"
.depend "iTasks.Internal.TaskState" "20210609153501"
.depend "iTasks.WF.Combinators.Core" "20210609153501"
.depend "Data.IntMap.Base" "20210609153506"
.depend "Data.IntMap.Strict" "20210609153506"
.depend "Data.CircularStack" "20210609153506"
.depend "System._Process" "20210609153506"
.depend "System.Process" "20210609153506"
.depend "System.OS" "20210609153506"
.depend "Data.GenHash" "20210609153506"
.depend "Data.Maybe.Ord" "20210609153506"
.depend "Control.GenBimap" "20210609153506"
.depend "ABC.Interpreter.JavaScript" "20210609153507"
.depend "ABC.Interpreter" "20210609153507"
.depend "iTasks.UI.Editor" "20210609153501"
.depend "iTasks.UI.Editor.Generic" "20210609153501"
.depend "iTasks.Internal.Generic.Defaults" "20210609153501"
.depend "Data.GenDefault" "20210609153506"
.depend "Data.Integer" "20210609153506"
.depend "Text.HTML" "20210609153506"
.depend "iTasks.Internal.Generic.Visualization" "20210609153501"
.depend "iTasks.SDS.Definition" "20210609153501"
.depend "TCPStringChannelsInternal" "20210609153507"
.depend "TCPStringChannels" "20210609153507"
.depend "TCPEvent" "20210609153507"
.depend "tcp_bytestreams" "20210609153507"
.depend "TCPDef" "20210609153507"
.depend "TCPChannels" "20210609153507"
.depend "TCPIP" "20210609153507"
.depend "iTasks.WF.Tasks.IO" "20210609153501"
.depend "iTasks.Internal.Task" "20210609153501"
.depend "iTasks.UI.Definition" "20210609153501"
.depend "Text.GenJSON" "20210609153506"
.depend "Data.Bifunctor" "20210609153506"
.depend "Data.Either" "20210609153506"
.depend "Data.Queue" "20210609153506"
.depend "StdFile" "20210609153507"
.depend "symbols_in_program" "20210609153507"
.depend "iTasks.Internal.IWorld" "20210609153501"
.depend "iTasks.WF.Definition" "20210609153501"
.depend "tcp" "20210609153507"
.depend "TCPChannelClass" "20210609153507"
.depend "Control.Monad.Fail" "20210609153506"
.depend "Data.Traversable" "20210609153506"
.depend "StdMisc" "20210609153507"
.depend "StdOverloadedList" "20210609153507"
.depend "Data.List" "20210609153506"
.depend "Data.Foldable" "20210609153506"
.depend "Data.Set" "20210609153506"
.depend "Data.GenLexOrd" "20210609153506"
.depend "StdFunctions" "20210609153507"
.depend "StdFunc" "20210609153507"
.depend "Data.Map" "20210609153506"
.depend "StdString" "20210609153507"
.depend "Internet.HTTP" "20210609153506"
.depend "System._Time" "20210609153506"
.depend "System.Time" "20210609153506"
.depend "System.OSError" "20210609153506"
.depend "System.FilePath" "20210609153506"
.depend "_SystemEnumStrict" "20210609153507"
.depend "_SystemStrictLists" "20210609153507"
.depend "StdStrictLists" "20210609153507"
.depend "StdGeneric" "20210609153507"
.depend "Data.GenEq" "20210609153506"
.depend "StdReal" "20210609153507"
.depend "StdChar" "20210609153507"
.depend "StdInt" "20210609153507"
.depend "StdBool" "20210609153507"
.depend "StdClass" "20210609153507"
.depend "StdList" "20210609153507"
.depend "Data.Monoid" "20210609153506"
.depend "Control.Applicative" "20210609153506"
.depend "Control.Monad" "20210609153506"
.depend "Data.Functor" "20210609153506"
.depend "Data.Error" "20210609153506"
.depend "iTasks.Engine" "20210609153501"
.depend "iTasks" "20210609153500"
.depend "StdOverloaded" "20210609153507"
.depend "_SystemDynamic" "20210609153507"
.depend "BasicAPIExamples.InteractionWithTheSystem.RunProcess" "20210609153500"
.module m_BasicAPIExamples.InteractionWithTheSystem.RunProcess "BasicAPIExamples.InteractionWithTheSystem.RunProcess" "20210609153500"
.endinfo
.impmod _system
.implab _cycle_in_spine
.implab _type_error
.implab _hnf
.impdesc e_system_dind
.implab e_system_nind e_system_eaind
.impdesc e_system_dif
.implab e_system_nif e_system_eaif
.implab e_system_sif
.impdesc e_system_dAP
.implab e_system_nAP e_system_eaAP
.implab e_system_sAP
.impdesc ARRAY
.impdesc _Nil
.impdesc _Cons
.impdesc _Conss
.implab n_Conss ea_Conss
.impdesc _Consts
.implab n_Consts ea_Consts
.impdesc _Conssts
.implab n_Conssts ea_Conssts
.impdesc _Tuple
.impdesc d_S.1
.implab n_S.1 ea_S.1
.impdesc d_S.2
.implab n_S.2 ea_S.2
.impdesc d_S.3
.implab n_S.3 ea_S.3
.impdesc d_S.4
.implab n_S.4 ea_S.4
.impdesc d_S.5
.implab n_S.5 ea_S.5
.impdesc d_S.6
.implab n_S.6 ea_S.6
.implab _driver
.impmod Text.Terminal.VT100
.implab e_Text.Terminal.VT100_szero;1
.impmod iTasks.Extensions.Terminal
.implab e_iTasks.Extensions.Terminal_srunProcessInteractive
.impmod iTasks.Extensions.Admin.WorkflowAdmin
.implab e_iTasks.Extensions.Admin.WorkflowAdmin_sworkflow
.impdesc e_iTasks.Extensions.Admin.WorkflowAdmin_dtoWorkflow;13
.impmod iTasks.UI.Tune
.implab e_iTasks.UI.Tune_s@>>
.impdesc e_iTasks.UI.Tune_dtune;7
.impmod iTasks.WF.Combinators.Common
.implab e_iTasks.WF.Combinators.Common_s>>!
.implab e_iTasks.WF.Combinators.Common_s@!
.implab e_iTasks.WF.Combinators.Common_s-&&-
.impmod iTasks.WF.Tasks.Interaction
.implab e_iTasks.WF.Tasks.Interaction_senterInformation
.impmod iTasks.UI.Editor.Generic
.impdesc e_iTasks.UI.Editor.Generic_dgEditor_Int;7
.impdesc e_iTasks.UI.Editor.Generic_dgEditor__String;11
.implab e_iTasks.UI.Editor.Generic_sgEditor__List;12
.impmod iTasks.Internal.Generic.Visualization
.impdesc e_iTasks.Internal.Generic.Visualization_dgText_Int;12
.impdesc e_iTasks.Internal.Generic.Visualization_dgText__String;16
.implab e_iTasks.Internal.Generic.Visualization_sgText__List;17
.impmod Text.GenJSON
.impdesc e_Text.GenJSON_dJSONEncode_Int;12
.impdesc e_Text.GenJSON_dJSONEncode__String;16
.implab e_Text.GenJSON_sJSONEncode__List;17
.implab e_Text.GenJSON_sJSONEncode__Tuple2;24
.impdesc e_Text.GenJSON_dJSONDecode_Int;42
.impdesc e_Text.GenJSON_dJSONDecode__String;46
.implab e_Text.GenJSON_sJSONDecode__List;47
.impmod Data.GenEq
.impdesc e_Data.GenEq_dgEq_Int;7
.impdesc e_Data.GenEq_dgEq__String;11
.implab e_Data.GenEq_sgEq__List;14
.impmod iTasks.Extensions.Admin.WorkflowAdmin
.impdesc e_iTasks.Extensions.Admin.WorkflowAdmin_rtoWorkflow;
.impmod iTasks.UI.Tune
.impdesc e_iTasks.UI.Tune_rtune;
.impmod iTasks.UI.Definition
.impdesc e_iTasks.UI.Definition_kHint
.impmod iTasks.WF.Definition
.impdesc e_iTasks.WF.Definition_riTask;
.impmod _SystemDynamic
.impdesc e__SystemDynamic_kTypeCons
.impdesc e__SystemDynamic_kTypeApp
.impdesc e__SystemDynamic_rTypeCodeConstructor
.impdesc e__SystemDynamic_dTC_Int
.impdesc e__SystemDynamic_dTC_Char
.impdesc e__SystemDynamic_dTC__List
.impdesc e__SystemDynamic_dTC__Tuple2
.impdesc e__SystemDynamic_dTC__UnboxedArray
.export e_BasicAPIExamples.InteractionWithTheSystem.RunProcess_rgEditor_s;
.record e_BasicAPIExamples.InteractionWithTheSystem.RunProcess_rgEditor_s; a 1 0 "gEditor_s;"
.export e_BasicAPIExamples.InteractionWithTheSystem.RunProcess_tgEditor_s;
.export e_BasicAPIExamples.InteractionWithTheSystem.RunProcess_cgEditor_s;
.descn e_BasicAPIExamples.InteractionWithTheSystem.RunProcess_tgEditor_s; e_BasicAPIExamples.InteractionWithTheSystem.RunProcess_cgEditor_s; 1 1 "gEditor_s;"
.n 1 e_BasicAPIExamples.InteractionWithTheSystem.RunProcess_tgEditor_s;
.o 1 0
e_BasicAPIExamples.InteractionWithTheSystem.RunProcess_cgEditor_s;
	push_node _cycle_in_spine 1
	jsr_eval 0
.impmod BasicAPIExamples.InteractionWithTheSystem.RunProcess
.impdesc e_BasicAPIExamples.InteractionWithTheSystem.RunProcess_rgEditor_s;
	fill_r e_BasicAPIExamples.InteractionWithTheSystem.RunProcess_rgEditor_s; 1 0 1 0 0
	pop_a 1
.d 1 0
	rtn
.export e_BasicAPIExamples.InteractionWithTheSystem.RunProcess_rgText_s;
.record e_BasicAPIExamples.InteractionWithTheSystem.RunProcess_rgText_s; a 1 0 "gText_s;"
.export e_BasicAPIExamples.InteractionWithTheSystem.RunProcess_tgText_s;
.export e_BasicAPIExamples.InteractionWithTheSystem.RunProcess_cgText_s;
.descn e_BasicAPIExamples.InteractionWithTheSystem.RunProcess_tgText_s; e_BasicAPIExamples.InteractionWithTheSystem.RunProcess_cgText_s; 1 1 "gText_s;"
.n 1 e_BasicAPIExamples.InteractionWithTheSystem.RunProcess_tgText_s;
.o 1 0
e_BasicAPIExamples.InteractionWithTheSystem.RunProcess_cgText_s;
	push_node _cycle_in_spine 1
	jsr_eval 0
.impdesc e_BasicAPIExamples.InteractionWithTheSystem.RunProcess_rgText_s;
	fill_r e_BasicAPIExamples.InteractionWithTheSystem.RunProcess_rgText_s; 1 0 1 0 0
	pop_a 1
.d 1 0
	rtn
.export e_BasicAPIExamples.InteractionWithTheSystem.RunProcess_rJSONEncode_s;
.record e_BasicAPIExamples.InteractionWithTheSystem.RunProcess_rJSONEncode_s; a 1 0 "JSONEncode_s;"
.export e_BasicAPIExamples.InteractionWithTheSystem.RunProcess_tJSONEncode_s;
.export e_BasicAPIExamples.InteractionWithTheSystem.RunProcess_cJSONEncode_s;
.descn e_BasicAPIExamples.InteractionWithTheSystem.RunProcess_tJSONEncode_s; e_BasicAPIExamples.InteractionWithTheSystem.RunProcess_cJSONEncode_s; 1 1 "JSONEncode_s;"
.n 1 e_BasicAPIExamples.InteractionWithTheSystem.RunProcess_tJSONEncode_s;
.o 1 0
e_BasicAPIExamples.InteractionWithTheSystem.RunProcess_cJSONEncode_s;
	push_node _cycle_in_spine 1
	jsr_eval 0
.impdesc e_BasicAPIExamples.InteractionWithTheSystem.RunProcess_rJSONEncode_s;
	fill_r e_BasicAPIExamples.InteractionWithTheSystem.RunProcess_rJSONEncode_s; 1 0 1 0 0
	pop_a 1
.d 1 0
	rtn
.export e_BasicAPIExamples.InteractionWithTheSystem.RunProcess_rJSONDecode_s;
.record e_BasicAPIExamples.InteractionWithTheSystem.RunProcess_rJSONDecode_s; a 1 0 "JSONDecode_s;"
.export e_BasicAPIExamples.InteractionWithTheSystem.RunProcess_tJSONDecode_s;
.export e_BasicAPIExamples.InteractionWithTheSystem.RunProcess_cJSONDecode_s;
.descn e_BasicAPIExamples.InteractionWithTheSystem.RunProcess_tJSONDecode_s; e_BasicAPIExamples.InteractionWithTheSystem.RunProcess_cJSONDecode_s; 1 1 "JSONDecode_s;"
.n 1 e_BasicAPIExamples.InteractionWithTheSystem.RunProcess_tJSONDecode_s;
.o 1 0
e_BasicAPIExamples.InteractionWithTheSystem.RunProcess_cJSONDecode_s;
	push_node _cycle_in_spine 1
	jsr_eval 0
.impdesc e_BasicAPIExamples.InteractionWithTheSystem.RunProcess_rJSONDecode_s;
	fill_r e_BasicAPIExamples.InteractionWithTheSystem.RunProcess_rJSONDecode_s; 1 0 1 0 0
	pop_a 1
.d 1 0
	rtn
.export e_BasicAPIExamples.InteractionWithTheSystem.RunProcess_rgEq_s;
.record e_BasicAPIExamples.InteractionWithTheSystem.RunProcess_rgEq_s; a 1 0 "gEq_s;"
.export e_BasicAPIExamples.InteractionWithTheSystem.RunProcess_tgEq_s;
.export e_BasicAPIExamples.InteractionWithTheSystem.RunProcess_cgEq_s;
.descn e_BasicAPIExamples.InteractionWithTheSystem.RunProcess_tgEq_s; e_BasicAPIExamples.InteractionWithTheSystem.RunProcess_cgEq_s; 1 1 "gEq_s;"
.n 1 e_BasicAPIExamples.InteractionWithTheSystem.RunProcess_tgEq_s;
.o 1 0
e_BasicAPIExamples.InteractionWithTheSystem.RunProcess_cgEq_s;
	push_node _cycle_in_spine 1
	jsr_eval 0
.impdesc e_BasicAPIExamples.InteractionWithTheSystem.RunProcess_rgEq_s;
	fill_r e_BasicAPIExamples.InteractionWithTheSystem.RunProcess_rgEq_s; 1 0 1 0 0
	pop_a 1
.d 1 0
	rtn
.export e_BasicAPIExamples.InteractionWithTheSystem.RunProcess_smain
.export e_BasicAPIExamples.InteractionWithTheSystem.RunProcess_eamain
.descexp e_BasicAPIExamples.InteractionWithTheSystem.RunProcess_dmain e_BasicAPIExamples.InteractionWithTheSystem.RunProcess_nmain e_BasicAPIExamples.InteractionWithTheSystem.RunProcess_lmain 0 0 "main"
.o 1 0
e_BasicAPIExamples.InteractionWithTheSystem.RunProcess_lmain
	halt
.n 0 e_BasicAPIExamples.InteractionWithTheSystem.RunProcess_dmain e_BasicAPIExamples.InteractionWithTheSystem.RunProcess_eamain
.o 1 0
e_BasicAPIExamples.InteractionWithTheSystem.RunProcess_nmain
	push_node _cycle_in_spine 0
.o 1 0
e_BasicAPIExamples.InteractionWithTheSystem.RunProcess_eamain
.o 1 0
e_BasicAPIExamples.InteractionWithTheSystem.RunProcess_smain
.o 1 0
s2
	buildh e__predef_d_Unit 0
	create
.d 1 0
	jsr s3
.o 1 0
.d 3 0
	jmp e_iTasks.WF.Combinators.Common_s@!
.export e_BasicAPIExamples.InteractionWithTheSystem.RunProcess_swf
.descexp e_BasicAPIExamples.InteractionWithTheSystem.RunProcess_dwf e_BasicAPIExamples.InteractionWithTheSystem.RunProcess_nwf e_BasicAPIExamples.InteractionWithTheSystem.RunProcess_lwf 1 0 "wf"
.o 2 0
e_BasicAPIExamples.InteractionWithTheSystem.RunProcess_lwf
	pop_a 1
.d 1 0
	jsr ea1
.o 6 0
.impmod iTasks.Extensions.Admin.WorkflowAdmin
.impdesc e_iTasks.Extensions.Admin.WorkflowAdmin_rWorkflow
	buildhr e_iTasks.Extensions.Admin.WorkflowAdmin_rWorkflow 6 0
.d 1 0
	rtn
.n 1 e_BasicAPIExamples.InteractionWithTheSystem.RunProcess_dwf
.o 1 0
e_BasicAPIExamples.InteractionWithTheSystem.RunProcess_nwf
	push_node _cycle_in_spine 1
.d 1 0
	jsr ea1
.o 6 0
	fill_r e_iTasks.Extensions.Admin.WorkflowAdmin_rWorkflow 6 0 6 0 0
	pop_a 6
.d 1 0
	rtn
.o 1 0
ea1
.o 1 0
e_BasicAPIExamples.InteractionWithTheSystem.RunProcess_swf
.o 1 0
s1
	build e_BasicAPIExamples.InteractionWithTheSystem.RunProcess_drunProcess.3 0 e_BasicAPIExamples.InteractionWithTheSystem.RunProcess_nrunProcess.3
	buildh e__SystemDynamic_dTC_Int 0
	buildhr e__SystemDynamic_kTypeCons 1 0
	buildh e_Data.GenEq_dgEq_Int;7 0
	buildh e_Text.GenJSON_dJSONDecode_Int;42 0
	buildh e_Text.GenJSON_dJSONEncode_Int;12 0
	buildh e_iTasks.Internal.Generic.Visualization_dgText_Int;12 0
	buildh e_iTasks.UI.Editor.Generic_dgEditor_Int;7 0
	buildhr e_iTasks.WF.Definition_riTask; 6 0
	buildh e_iTasks.Extensions.Admin.WorkflowAdmin_dtoWorkflow;13 1
	buildAC "Run a process, e.g. /bin/bash"
	buildh ARRAY 1
	push_a 3
	push_a 2
	update_a 2 3
	update_a 1 2
	update_a 0 1
	pop_a 1
	update_a 3 4
	update_a 2 3
	update_a 1 2
	updatepop_a 0 1
.d 4 0
	jmp e_iTasks.Extensions.Admin.WorkflowAdmin_sworkflow
.export e_BasicAPIExamples.InteractionWithTheSystem.RunProcess_drunProcess.3
.export e_BasicAPIExamples.InteractionWithTheSystem.RunProcess_nrunProcess.3
.descn e_BasicAPIExamples.InteractionWithTheSystem.RunProcess_drunProcess.3 e_BasicAPIExamples.InteractionWithTheSystem.RunProcess_nrunProcess.3 0 0 "runProcess.3"
.n 0 e_BasicAPIExamples.InteractionWithTheSystem.RunProcess_drunProcess.3 ea3
.o 1 0
e_BasicAPIExamples.InteractionWithTheSystem.RunProcess_nrunProcess.3
	push_node _cycle_in_spine 0
.o 1 0
ea3
.o 1 0
s3
	buildh e_BasicAPIExamples.InteractionWithTheSystem.RunProcess_d\;15;9;3.4 0
	buildh _Nil 0
	buildh e__SystemDynamic_dTC_Char 0
	buildhr e__SystemDynamic_kTypeCons 1 0
	buildh e__SystemDynamic_dTC__UnboxedArray 0
	buildhr e__SystemDynamic_kTypeCons 1 0
	buildhr e__SystemDynamic_kTypeApp 2 0
	buildh e__SystemDynamic_dTC__List 0
	buildhr e__SystemDynamic_kTypeCons 1 0
	buildhr e__SystemDynamic_kTypeApp 2 0
	buildh e_BasicAPIExamples.InteractionWithTheSystem.RunProcess_dgEq_s;542.16 0
	buildh e_BasicAPIExamples.InteractionWithTheSystem.RunProcess_dJSONDecode_s;541.15 0
	buildh e_BasicAPIExamples.InteractionWithTheSystem.RunProcess_dJSONEncode_s;537.11 0
	buildh e_BasicAPIExamples.InteractionWithTheSystem.RunProcess_dgText_s;540.14 0
	buildh e_BasicAPIExamples.InteractionWithTheSystem.RunProcess_dgEditor_s;545.19 0
	create
	push_a 7
	update_a 1 8
	update_a 2 1
	update_a 3 2
	update_a 4 3
	update_a 5 4
	update_a 6 5
	update_a 7 6
	update_a 0 7
	pop_a 1
.d 8 0
	jsr e_iTasks.WF.Tasks.Interaction_senterInformation
.o 1 0
	buildAC "Arguments"
	buildhr e_iTasks.UI.Definition_kHint 1 0
	buildh e_iTasks.UI.Tune_dtune;7 0
.d 3 0
	jsr e_iTasks.UI.Tune_s@>>
.o 1 0
	buildh _Nil 0
	buildh e__SystemDynamic_dTC_Char 0
	buildhr e__SystemDynamic_kTypeCons 1 0
	buildh e__SystemDynamic_dTC__UnboxedArray 0
	buildhr e__SystemDynamic_kTypeCons 1 0
	buildhr e__SystemDynamic_kTypeApp 2 0
	buildh e_Data.GenEq_dgEq__String;11 0
	buildh e_Text.GenJSON_dJSONDecode__String;46 0
	buildh e_Text.GenJSON_dJSONEncode__String;16 0
	buildh e_iTasks.Internal.Generic.Visualization_dgText__String;16 0
	buildh e_iTasks.UI.Editor.Generic_dgEditor__String;11 0
	create
	push_a 7
	update_a 1 8
	update_a 2 1
	update_a 3 2
	update_a 4 3
	update_a 5 4
	update_a 6 5
	update_a 7 6
	update_a 0 7
	pop_a 1
.d 8 0
	jsr e_iTasks.WF.Tasks.Interaction_senterInformation
.o 1 0
	buildAC "Command"
	buildhr e_iTasks.UI.Definition_kHint 1 0
	buildh e_iTasks.UI.Tune_dtune;7 0
.d 3 0
	jsr e_iTasks.UI.Tune_s@>>
.o 1 0
	buildh e__SystemDynamic_dTC_Char 0
	buildhr e__SystemDynamic_kTypeCons 1 0
	buildh e__SystemDynamic_dTC__UnboxedArray 0
	buildhr e__SystemDynamic_kTypeCons 1 0
	buildhr e__SystemDynamic_kTypeApp 2 0
	buildh e__SystemDynamic_dTC__List 0
	buildhr e__SystemDynamic_kTypeCons 1 0
	buildhr e__SystemDynamic_kTypeApp 2 0
	buildh e_BasicAPIExamples.InteractionWithTheSystem.RunProcess_dgEq_s;542.16 0
	buildh e_BasicAPIExamples.InteractionWithTheSystem.RunProcess_dJSONDecode_s;541.15 0
	buildh e_BasicAPIExamples.InteractionWithTheSystem.RunProcess_dJSONEncode_s;537.11 0
	buildh e_BasicAPIExamples.InteractionWithTheSystem.RunProcess_dgText_s;540.14 0
	buildh e_BasicAPIExamples.InteractionWithTheSystem.RunProcess_dgEditor_s;545.19 0
	buildh e__SystemDynamic_dTC_Char 0
	buildhr e__SystemDynamic_kTypeCons 1 0
	buildh e__SystemDynamic_dTC__UnboxedArray 0
	buildhr e__SystemDynamic_kTypeCons 1 0
	buildhr e__SystemDynamic_kTypeApp 2 0
	buildh e_Data.GenEq_dgEq__String;11 0
	buildh e_Text.GenJSON_dJSONDecode__String;46 0
	buildh e_Text.GenJSON_dJSONEncode__String;16 0
	buildh e_iTasks.Internal.Generic.Visualization_dgText__String;16 0
	buildh e_iTasks.UI.Editor.Generic_dgEditor__String;11 0
	create
	push_a 14
	update_a 1 15
	update_a 2 1
	update_a 3 2
	update_a 4 3
	update_a 5 4
	update_a 6 5
	update_a 7 6
	update_a 8 7
	update_a 9 8
	update_a 10 9
	update_a 11 10
	update_a 12 11
	update_a 13 12
	update_a 14 13
	update_a 0 14
	pop_a 1
.d 15 0
	jsr e_iTasks.WF.Combinators.Common_s-&&-
.o 1 0
	buildh e_BasicAPIExamples.InteractionWithTheSystem.RunProcess_dJSONEncode_s;543.17 0
	buildh e__SystemDynamic_dTC_Char 0
	buildhr e__SystemDynamic_kTypeCons 1 0
	buildh e__SystemDynamic_dTC__UnboxedArray 0
	buildhr e__SystemDynamic_kTypeCons 1 0
	buildhr e__SystemDynamic_kTypeApp 2 0
	buildh e__SystemDynamic_dTC__List 0
	buildhr e__SystemDynamic_kTypeCons 1 0
	buildhr e__SystemDynamic_kTypeApp 2 0
	buildh e__SystemDynamic_dTC_Char 0
	buildhr e__SystemDynamic_kTypeCons 1 0
	buildh e__SystemDynamic_dTC__UnboxedArray 0
	buildhr e__SystemDynamic_kTypeCons 1 0
	buildhr e__SystemDynamic_kTypeApp 2 0
	buildh e__SystemDynamic_dTC__Tuple2 0
	buildhr e__SystemDynamic_kTypeCons 1 0
	buildhr e__SystemDynamic_kTypeApp 2 0
	buildhr e__SystemDynamic_kTypeApp 2 0
.d 5 0
	jmp e_iTasks.WF.Combinators.Common_s>>!
.export e_BasicAPIExamples.InteractionWithTheSystem.RunProcess_dgEditor_s;545.19
.desc e_BasicAPIExamples.InteractionWithTheSystem.RunProcess_dgEditor_s;545.19 _hnf l19 1 0 "gEditor_s;545.19"
.o 2 0
i19
	pop_a 1
.d 1 0
	jmp s19
.ai 1 _ i19
.o 2 0
l19
	pop_a 1
.d 1 0
	jsr ea19
.o 4 0
.impmod iTasks.UI.Editor
.impdesc e_iTasks.UI.Editor_rEditor
	buildhr e_iTasks.UI.Editor_rEditor 4 0
.d 1 0
	rtn
.o 1 0
ea19
	jsr_eval 0
.o 1 0
s19
	buildh e_Data.GenEq_dgEq__String;11 0
	buildh e_iTasks.Internal.Generic.Visualization_dgText__String;16 0
	buildh e_iTasks.UI.Editor.Generic_dgEditor__String;11 0
	push_a 3
	push_a 3
	update_a 1 4
	update_a 2 1
	update_a 3 2
	update_a 0 3
	pop_a 1
	update_a 3 4
	update_a 2 3
	update_a 1 2
	updatepop_a 0 1
.d 4 0
	jmp e_iTasks.UI.Editor.Generic_sgEditor__List;12
.export e_BasicAPIExamples.InteractionWithTheSystem.RunProcess_dJSONEncode_s;543.17
.desc e_BasicAPIExamples.InteractionWithTheSystem.RunProcess_dJSONEncode_s;543.17 _hnf l17 2 0 "JSONEncode_s;543.17"
.o 3 1 b
i17
	pop_a 1
	push_args 0 2 2
	update_a 1 2
	update_a 0 1
	pop_a 1
.d 3 1 b
	jmp s17
.ai 2 ea17 i17
.o 2 0
l17
	push_args 0 1 1
	update_a 2 1
	create
	update_a 0 3
	pop_a 1
.o 3 0
ea17
	push_a 1
	jsr_eval 0
	repl_args 2 2
	jsr_eval 2
	pushB_a 2
	update_a 1 3
	update_a 0 2
	pop_a 2
.o 3 1 b
s17
	buildh e_BasicAPIExamples.InteractionWithTheSystem.RunProcess_dJSONEncode_s;537.11 0
	buildh e_Text.GenJSON_dJSONEncode__String;16 0
	push_a 3
	push_a 3
	push_b 0
	push_a 3
	update_a 2 4
	update_a 0 2
	update_a 3 0
	update_a 1 3
	update_a 0 1
	pop_a 1
	update_a 3 5
	update_a 2 4
	update_a 1 3
	updatepop_a 0 2
	updatepop_b 0 1
.d 5 1 b
	jmp e_Text.GenJSON_sJSONEncode__Tuple2;24
.export e_BasicAPIExamples.InteractionWithTheSystem.RunProcess_dgText_s;540.14
.desc e_BasicAPIExamples.InteractionWithTheSystem.RunProcess_dgText_s;540.14 _hnf l14 2 0 "gText_s;540.14"
.o 4 0
i14
	pop_a 1
.d 3 0
	jmp s14
.ai 2 ea14 i14
.o 2 0
l14
	push_args 0 1 1
	update_a 2 1
	create
	update_a 0 3
	pop_a 1
.o 3 0
ea14
	jsr_eval 0
.o 3 0
s14
	buildh e_iTasks.Internal.Generic.Visualization_dgText__String;16 0
	push_a 2
	push_a 2
	push_a 2
	update_a 2 3
	update_a 1 2
	update_a 0 1
	pop_a 1
	update_a 2 4
	update_a 1 3
	updatepop_a 0 2
.d 4 0
	jmp e_iTasks.Internal.Generic.Visualization_sgText__List;17
.export e_BasicAPIExamples.InteractionWithTheSystem.RunProcess_dJSONEncode_s;537.11
.desc e_BasicAPIExamples.InteractionWithTheSystem.RunProcess_dJSONEncode_s;537.11 _hnf l11 2 0 "JSONEncode_s;537.11"
.o 3 1 b
i11
	pop_a 1
.d 2 1 b
	jmp s11
.ai 2 ea11 i11
.o 2 0
l11
	push_args 0 1 1
	update_a 2 1
	create
	update_a 0 3
	pop_a 1
.o 3 0
ea11
	jsr_eval 1
	jsr_eval 0
	pushB_a 0
	pop_a 1
.o 2 1 b
s11
	buildh e_Text.GenJSON_dJSONEncode__String;16 0
	push_a 1
	push_b 0
	push_a 1
	update_a 1 2
	update_a 0 1
	pop_a 1
	update_a 1 2
	updatepop_a 0 1
	updatepop_b 0 1
.d 3 1 b
	jmp e_Text.GenJSON_sJSONEncode__List;17
.export e_BasicAPIExamples.InteractionWithTheSystem.RunProcess_dJSONDecode_s;541.15
.desc e_BasicAPIExamples.InteractionWithTheSystem.RunProcess_dJSONDecode_s;541.15 _hnf l15 2 0 "JSONDecode_s;541.15"
.o 2 1 b
i15
	pop_a 1
.d 1 1 b
	jmp s15
.ai 0 a15 i15
.o 2 0
l15
	repl_args 1 1
.o 2 0
a15
.d 2 0
	jsr ea15
.o 2 0
	push_a 1
	push_a 1
	buildh _Tuple 2
	updatepop_a 0 2
.d 1 0
	rtn
.o 2 0
ea15
	jsr_eval 1
	jsr_eval 0
	pushB_a 0
	pop_a 1
.o 1 1 b
s15
	buildh e_Text.GenJSON_dJSONDecode__String;46 0
	push_a 1
	push_b 0
	push_a 1
	update_a 1 2
	update_a 0 1
	pop_a 1
	update_a 1 2
	updatepop_a 0 1
	updatepop_b 0 1
.d 2 1 b
	jmp e_Text.GenJSON_sJSONDecode__List;47
.export e_BasicAPIExamples.InteractionWithTheSystem.RunProcess_dgEq_s;542.16
.desc e_BasicAPIExamples.InteractionWithTheSystem.RunProcess_dgEq_s;542.16 _hnf l16 2 0 "gEq_s;542.16"
.o 3 0
i16
	pop_a 1
.d 2 0
	jmp s16
.ai 0 a16 i16
.o 2 0
l16
	repl_args 1 1
.o 2 0
a16
.d 2 0
	jsr ea16
.o 0 1 b
	buildB_b 0
	pop_b 1
.d 1 0
	rtn
.o 2 0
ea16
	jsr_eval 1
	jsr_eval 0
.o 2 0
s16
	buildh e_Data.GenEq_dgEq__String;11 0
	push_a 2
	push_a 2
	push_a 2
	update_a 2 3
	update_a 1 2
	update_a 0 1
	pop_a 1
	update_a 2 4
	update_a 1 3
	updatepop_a 0 2
.d 3 0
	jmp e_Data.GenEq_sgEq__List;14
.export e_BasicAPIExamples.InteractionWithTheSystem.RunProcess_d\;15;9;3.4
.desc e_BasicAPIExamples.InteractionWithTheSystem.RunProcess_d\;15;9;3.4 _hnf l4 1 0 "\;15;9;3.4"
.o 2 0
l4
	update_a 1 0
	create
	update_a 0 2
	pop_a 1
.o 2 0
ea4
	jsr_eval 0
	repl_args 2 2
	jsr_eval 1
	jsr_eval 0
	push_array 0
	update_a 0 1
	pop_a 1
.o 3 0
s4
	buildh _Nothing 0
.d 0 0
	jsr e_Text.Terminal.VT100_szero;1
.o 4 0
	push_a 6
	push_a 6
	push_a 5
	update_a 2 6
	update_a 4 2
	update_a 0 4
	update_a 5 0
	update_a 1 5
	update_a 3 1
	update_a 0 3
	pop_a 1
	update_a 6 8
	update_a 5 7
	update_a 4 6
	update_a 3 5
	update_a 2 4
	update_a 1 3
	updatepop_a 0 2
.d 8 0
	jmp e_iTasks.Extensions.Terminal_srunProcessInteractive
