.comp 920 000011110011000
.start _nostart_
.depend "iTasks.Internal.Util" "20210609153501"
.depend "Text" "20210609153507"
.depend "Data.Tree" "20210609153506"
.depend "System.Directory" "20210609153506"
.depend "Data.Func" "20210609153506"
.depend "_SystemArray" "20210609153507"
.depend "StdArray" "20210609153507"
.depend "StdTuple" "20210609153507"
.depend "System.Time.GenJSON" "20210609153506"
.depend "Text.HTML.GenJSON" "20210609153506"
.depend "Data.Map.GenJSON" "20210609153506"
.depend "Data.Error.GenJSON" "20210609153506"
.depend "Data.Either.GenJSON" "20210609153506"
.depend "iTasks.WF.Derives" "20210609153501"
.depend "iTasks.SDS.Combinators.Common" "20210609153501"
.depend "iTasks.SDS.Sources.System" "20210609153501"
.depend "System._Signal" "20210609153506"
.depend "System.Signal" "20210609153506"
.depend "Text.GenPrint" "20210609153507"
.depend "iTasks.Extensions.DateTime" "20210609153500"
.depend "iTasks.Internal.TaskServer" "20210609153501"
.depend "iTasks.Extensions.Document" "20210609153500"
.depend "System.File" "20210609153506"
.depend "iTasks.Util.DeferredJSON" "20210609153501"
.depend "iTasks.Internal.SDS" "20210609153501"
.depend "iTasks.Internal.TaskEval" "20210609153501"
.depend "iTasks.UI.Layout" "20210609153501"
.depend "iTasks.Internal.TaskState" "20210609153501"
.depend "iTasks.WF.Combinators.Core" "20210609153501"
.depend "Data.IntMap.Base" "20210609153506"
.depend "Data.IntMap.Strict" "20210609153506"
.depend "Data.CircularStack" "20210609153506"
.depend "System._Process" "20210609153506"
.depend "System.Process" "20210609153506"
.depend "System.OS" "20210609153506"
.depend "Data.GenHash" "20210609153506"
.depend "Data.Maybe.Ord" "20210609153506"
.depend "Control.GenBimap" "20210609153506"
.depend "ABC.Interpreter.JavaScript" "20210609153507"
.depend "ABC.Interpreter" "20210609153507"
.depend "iTasks.UI.Editor" "20210609153501"
.depend "iTasks.UI.Editor.Generic" "20210609153501"
.depend "iTasks.Internal.Generic.Defaults" "20210609153501"
.depend "Data.GenDefault" "20210609153506"
.depend "Data.Integer" "20210609153506"
.depend "Text.HTML" "20210609153506"
.depend "iTasks.Internal.Generic.Visualization" "20210609153501"
.depend "iTasks.SDS.Definition" "20210609153501"
.depend "TCPStringChannelsInternal" "20210609153507"
.depend "TCPStringChannels" "20210609153507"
.depend "TCPEvent" "20210609153507"
.depend "tcp_bytestreams" "20210609153507"
.depend "TCPDef" "20210609153507"
.depend "TCPChannels" "20210609153507"
.depend "TCPIP" "20210609153507"
.depend "iTasks.WF.Tasks.IO" "20210609153501"
.depend "iTasks.Internal.Task" "20210609153501"
.depend "iTasks.UI.Definition" "20210609153501"
.depend "Text.GenJSON" "20210609153506"
.depend "Data.Bifunctor" "20210609153506"
.depend "Data.Either" "20210609153506"
.depend "Data.Queue" "20210609153506"
.depend "StdFile" "20210609153507"
.depend "symbols_in_program" "20210609153507"
.depend "iTasks.Internal.IWorld" "20210609153501"
.depend "iTasks.WF.Definition" "20210609153501"
.depend "tcp" "20210609153507"
.depend "TCPChannelClass" "20210609153507"
.depend "Control.Monad.Fail" "20210609153506"
.depend "Data.Traversable" "20210609153506"
.depend "StdMisc" "20210609153507"
.depend "StdOverloadedList" "20210609153507"
.depend "Data.List" "20210609153506"
.depend "Data.Foldable" "20210609153506"
.depend "Data.Set" "20210609153506"
.depend "Data.GenLexOrd" "20210609153506"
.depend "StdFunctions" "20210609153507"
.depend "StdFunc" "20210609153507"
.depend "Data.Map" "20210609153506"
.depend "StdString" "20210609153507"
.depend "Internet.HTTP" "20210609153506"
.depend "System._Time" "20210609153506"
.depend "System.Time" "20210609153506"
.depend "System.OSError" "20210609153506"
.depend "System.FilePath" "20210609153506"
.depend "_SystemEnumStrict" "20210609153507"
.depend "_SystemStrictLists" "20210609153507"
.depend "StdStrictLists" "20210609153507"
.depend "StdGeneric" "20210609153507"
.depend "Data.GenEq" "20210609153506"
.depend "StdReal" "20210609153507"
.depend "StdChar" "20210609153507"
.depend "StdInt" "20210609153507"
.depend "StdBool" "20210609153507"
.depend "StdClass" "20210609153507"
.depend "StdList" "20210609153507"
.depend "Data.Monoid" "20210609153506"
.depend "Control.Applicative" "20210609153506"
.depend "Control.Monad" "20210609153506"
.depend "Data.Functor" "20210609153506"
.depend "Data.Error" "20210609153506"
.depend "iTasks.Engine" "20210609153501"
.depend "StdOverloaded" "20210609153507"
.depend "_SystemDynamic" "20210609153507"
.depend "iTasks.WF.Combinators.SDS" "20210609153501"
.module m_iTasks.WF.Combinators.SDS "iTasks.WF.Combinators.SDS" "20210609153501"
.endinfo
.impmod _system
.implab _cycle_in_spine
.implab _type_error
.implab _hnf
.impdesc e_system_dind
.implab e_system_nind e_system_eaind
.impdesc e_system_dif
.implab e_system_nif e_system_eaif
.implab e_system_sif
.impdesc e_system_dAP
.implab e_system_nAP e_system_eaAP
.implab e_system_sAP
.impdesc ARRAY
.impdesc _Nil
.impdesc _Cons
.impdesc _Conss
.implab n_Conss ea_Conss
.impdesc _Consts
.implab n_Consts ea_Consts
.impdesc _Conssts
.implab n_Conssts ea_Conssts
.impdesc _Tuple
.impdesc d_S.1
.implab n_S.1 ea_S.1
.impdesc d_S.2
.implab n_S.2 ea_S.2
.impdesc d_S.3
.implab n_S.3 ea_S.3
.impdesc d_S.4
.implab n_S.4 ea_S.4
.impdesc d_S.5
.implab n_S.5 ea_S.5
.impdesc d_S.6
.implab n_S.6 ea_S.6
.implab _driver
.impmod iTasks.Internal.Util
.implab e_iTasks.Internal.Util_sliftIWorld
.implab e_iTasks.Internal.Util_sisDestroyOrInterrupt
.impmod System.Directory
.implab e_System.Directory_sensureDirectoryExists
.implab e_System.Directory_srecursiveDelete
.impdesc e_System.Directory_dgetCurrentDirectory
.impdesc e_System.Directory_dsetCurrentDirectory
.implab e_System.Directory_ssetCurrentDirectory
.impmod iTasks.WF.Derives
.impdesc e_iTasks.WF.Derives_dgHash_TaskId;67
.impmod iTasks.SDS.Combinators.Common
.implab e_iTasks.SDS.Combinators.Common_ssdsFocus
.implab e_iTasks.SDS.Combinators.Common_smapWrite
.impmod iTasks.Internal.SDS
.implab e_iTasks.Internal.SDS_swrite
.impdesc e_iTasks.Internal.SDS_dsdsIdentity;17
.impdesc e_iTasks.Internal.SDS_dreadSDS;18
.impdesc e_iTasks.Internal.SDS_dwriteSDS;19
.impdesc e_iTasks.Internal.SDS_dmodifySDS;20
.impdesc e_iTasks.Internal.SDS_dreadRegisterSDS;21
.impmod iTasks.Internal.TaskEval
.implab e_iTasks.Internal.TaskEval_sgetNextTaskId
.impmod iTasks.Internal.TaskState
.implab e_iTasks.Internal.TaskState_slocalShare
.impmod Data.GenHash
.impdesc e_Data.GenHash_dgHash__Unit;7
.impmod iTasks.WF.Definition
.impdesc e_iTasks.WF.Definition_dTask
.implab e_iTasks.WF.Definition_sTask
.implab e_iTasks.WF.Definition_nTask e_iTasks.WF.Definition_eaTask
.implab e_iTasks.WF.Definition_sapTask
.implab e_iTasks.WF.Definition_sexception
.implab e_iTasks.WF.Definition_stoString;6
.impdesc e_iTasks.WF.Definition_dTD;TaskId
.impmod StdString
.impdesc e_StdString_dtoString;9
.implab e_StdString_s+++;11
.impmod System.FilePath
.implab e_System.FilePath_s</>
.impmod StdInt
.implab e_StdInt_s<;17
.impmod Data.Error
.implab e_Data.Error_sisError
.impdesc e_Data.Error_dfromError
.implab e_Data.Error_sfromError
.implab e_Data.Error_nfromError _
.impmod _SystemDynamic
.implab e__SystemDynamic_s_initial_unification_environment
.implab e__SystemDynamic_s_bind_global_type_pattern_var
.impdesc e__SystemDynamic_d_normalise
.implab e__SystemDynamic_s_normalise
.implab e__SystemDynamic_n_normalise e__SystemDynamic_ea_normalise
.impmod iTasks.Internal.TaskEval
.impdesc e_iTasks.Internal.TaskEval_rTaskEvalOpts
.impdesc e_iTasks.Internal.TaskEval_tTaskEvalOpts
.implab e_iTasks.Internal.TaskEval_cTaskEvalOpts
.impdesc e_iTasks.Internal.TaskEval_dTaskEvalInfo.lastEvent
.implab e_iTasks.Internal.TaskEval_nTaskEvalInfo.lastEvent
.impmod iTasks.SDS.Definition
.impdesc e_iTasks.SDS.Definition_dEmptyContext
.impdesc e_iTasks.SDS.Definition_rIdentifiable;
.impdesc e_iTasks.SDS.Definition_rReadable;
.impdesc e_iTasks.SDS.Definition_rRegistrable;
.impdesc e_iTasks.SDS.Definition_rWriteable;
.impdesc e_iTasks.SDS.Definition_rModifiable;
.impdesc e_iTasks.SDS.Definition_rRWShared;
.impmod iTasks.Internal.IWorld
.impdesc e_iTasks.Internal.IWorld_rIWorld
.impdesc e_iTasks.Internal.IWorld_tIWorld
.implab e_iTasks.Internal.IWorld_cIWorld
.impmod iTasks.WF.Definition
.impdesc e_iTasks.WF.Definition_dServerInterruptedEvent
.impdesc e_iTasks.WF.Definition_dDestroyEvent
.impdesc e_iTasks.WF.Definition_kValueResult
.impdesc e_iTasks.WF.Definition_dValueResult
.implab e_iTasks.WF.Definition_nValueResult e_iTasks.WF.Definition_eaValueResult
.impdesc e_iTasks.WF.Definition_kExceptionResult
.impdesc e_iTasks.WF.Definition_dExceptionResult
.implab e_iTasks.WF.Definition_nExceptionResult e_iTasks.WF.Definition_eaExceptionResult
.impdesc e_iTasks.WF.Definition_dDestroyedResult
.impdesc e_iTasks.WF.Definition_kValue
.impdesc e_iTasks.WF.Definition_diTask;.TC
.implab e_iTasks.WF.Definition_niTask;.TC e_iTasks.WF.Definition_eaiTask;.TC
.impmod Data.Error
.impdesc e_Data.Error_dError
.impdesc e_Data.Error_dOk
.impmod StdOverloaded
.impdesc e_StdOverloaded_rtoString;
.impmod _SystemDynamic
.impdesc e__SystemDynamic_kTypeVar
.impdesc e__SystemDynamic_kTypeCons
.impdesc e__SystemDynamic_kTypeApp
.impdesc e__SystemDynamic_rTypeCodeConstructor
.impdesc e__SystemDynamic_dTC_Int
.impdesc e__SystemDynamic_dTC_Char
.impdesc e__SystemDynamic_dTC__StrictMaybe
.impdesc e__SystemDynamic_dTC__Tuple2
.impdesc e__SystemDynamic_dTC__UnboxedArray
.impdesc e__SystemDynamic_dTC__Unit
.export e_iTasks.WF.Combinators.SDS_rgHash_s;
.record e_iTasks.WF.Combinators.SDS_rgHash_s; a 1 0 "gHash_s;"
.export e_iTasks.WF.Combinators.SDS_tgHash_s;
.export e_iTasks.WF.Combinators.SDS_cgHash_s;
.descn e_iTasks.WF.Combinators.SDS_tgHash_s; e_iTasks.WF.Combinators.SDS_cgHash_s; 1 1 "gHash_s;"
.n 1 e_iTasks.WF.Combinators.SDS_tgHash_s;
.o 1 0 
e_iTasks.WF.Combinators.SDS_cgHash_s;
	push_node _cycle_in_spine 1
	jsr_eval 0
.impmod iTasks.WF.Combinators.SDS
.impdesc e_iTasks.WF.Combinators.SDS_rgHash_s;
	fill_r e_iTasks.WF.Combinators.SDS_rgHash_s; 1 0 1 0 0
.d 1 0 
	pop_a_rtn 1
.export e_iTasks.WF.Combinators.SDS_swithTemporaryDirectory
.export e_iTasks.WF.Combinators.SDS_eawithTemporaryDirectory
.descexp e_iTasks.WF.Combinators.SDS_dwithTemporaryDirectory e_iTasks.WF.Combinators.SDS_nwithTemporaryDirectory e_iTasks.WF.Combinators.SDS_lwithTemporaryDirectory 2 0 "withTemporaryDirectory"
.a 2 e_iTasks.WF.Combinators.SDS_eawithTemporaryDirectory
.o 2 0 
e_iTasks.WF.Combinators.SDS_lwithTemporaryDirectory
	push_args 0 1 1
	update_a 2 1
	create 
.d 3 0 
	put_a_jmp 3 e_iTasks.WF.Combinators.SDS_eawithTemporaryDirectory
.n 2 e_iTasks.WF.Combinators.SDS_dwithTemporaryDirectory e_iTasks.WF.Combinators.SDS_eawithTemporaryDirectory
.o 1 0 
e_iTasks.WF.Combinators.SDS_nwithTemporaryDirectory
	push_node _cycle_in_spine 2
.o 3 0 
e_iTasks.WF.Combinators.SDS_eawithTemporaryDirectory
	jsr_eval 0
	repl_r_args 6 0
.o 8 0 
e_iTasks.WF.Combinators.SDS_swithTemporaryDirectory
.o 8 0 
s3
	push_a 6
	buildh e_iTasks.WF.Combinators.SDS_devalinit;7.8 1
	updatepop_a 0 7
.d 2 0 
	jmp e_iTasks.WF.Definition_sTask
.export e_iTasks.WF.Combinators.SDS_devalinit;7.8
.desc e_iTasks.WF.Combinators.SDS_devalinit;7.8 _hnf l8 4 0 "evalinit;7.8"
.a 0 a8
.o 2 0 
l8
	repl_args 3 3
.o 4 0 
a8
.d 4 0 
	jsr ea8
.o 2 0 
	buildh _Tuple 2
.d 1 0 
	rtn 
.o 4 0 
ea8
	jsr_eval 1
.o 4 0 
s8
.d 1 0 
	push_a_jsr 1 e_iTasks.Internal.Util_sisDestroyOrInterrupt
.o 0 1 b
	jmp_false else.2
	pop_a 3
	buildh e_iTasks.WF.Definition_dDestroyedResult 0
.d 2 0 
	rtn 
else.2
	jmp fail.1
fail.1
	jsr_eval 2
	push_r_args 2 1 2
	pop_b 2
	jsr_eval 4
	push_r_args 4 18 1
	updatepop_a 0 17
	pop_b 1
	repl_r_args 15 6
	updates2_a 2 13 14
	updatepop_a 15 12
	pop_b 6
.d 1 0 
	buildh0_put_a_jsr _Nil 4 e_iTasks.WF.Definition_stoString;6
.o 1 0 
	buildAC "-tmpdir"
	swap_a1 
.d 2 0 
	jsr catAC
.o 1 0 
	buildAC "-"
.d 2 0 
	jsr catAC
.o 1 0 
	updates2_a 0 2 3
.d 2 0 
	pop_a_jsr 1 catAC
.o 1 0 
	swap_a1 
.d 2 0 
	jsr e_System.FilePath_s</>
.o 1 0 
	push_a 4
.d 1 0 
	buildh0_put_a_jsr _Nil 6 e_iTasks.Internal.TaskEval_sgetNextTaskId
.o 2 0 
	push_r_args_a 1 18 1 16 1
.d 2 0 
	push_a_jsr 3 e_System.Directory_sensureDirectoryExists
.o 2 0 
	updates2_a 0 1 8
	push_update_a 4 5
	updates4_a 3 4 8 7 6
	dup_a 3
.d 8 0 
	pop_a_jmp 2 s22
.o 8 0 
s22
	jmp_ne_desc e_Data.Error_dOk 1 0 case.4
	repl_args 1 1
	update_a 7 0
	fill2_r e_iTasks.Internal.IWorld_rIWorld 18 1 6 00000000000000001000
	push_a2 5 0
	buildh ARRAY 1
	push_a 4
	build e_system_dAP 2 e_system_nAP
	push2_a 6
	push2_a 5
	buildh ARRAY 1
	update_a 5 12
	update2_a 2 10
	update_a 4 9
	update2pop_a 0 7
.d 6 0 
	jmp s9
case.4
	repl_args 1 1
	push_a 7
	fill2_r e_iTasks.Internal.IWorld_rIWorld 18 1 7 00000000000000001000
	push_a2 6 0
	push_a 3
	buildh ARRAY 1
	build e_iTasks.WF.Combinators.SDS_d_f3.236 2 e_iTasks.WF.Combinators.SDS_n_f3.236
	buildh e__SystemDynamic_dTC_Char 0
	buildhr e__SystemDynamic_kTypeCons 1 0
	buildh e__SystemDynamic_dTC__UnboxedArray 0
	buildhr e__SystemDynamic_kTypeCons 1 0
	buildhr e__SystemDynamic_kTypeApp 2 0
	build e_iTasks.WF.Combinators.SDS_d_f2.235 2 e_iTasks.WF.Combinators.SDS_n_f2.235
	update2pop_a 0 8
.d 2 0 
	rtn 
.export e_iTasks.WF.Combinators.SDS_d_f3.236
.export e_iTasks.WF.Combinators.SDS_n_f3.236
.descn e_iTasks.WF.Combinators.SDS_d_f3.236 e_iTasks.WF.Combinators.SDS_n_f3.236 2 0 "_f3.236"
.n 2 e_iTasks.WF.Combinators.SDS_d_f3.236 ea236
.o 1 0 
e_iTasks.WF.Combinators.SDS_n_f3.236
	push_node _cycle_in_spine 2
.o 3 0 
ea236
.o 3 0 
s236
	push_jsr_eval 1
	repl_args 2 2
	jsr_eval 1
	push_array 1
	updates2_a 0 3 4
	updatepop_a 1 2
.d 2 0 
	jsr s10
.o 1 0 
	buildAC ")"
	swap_a1 
.d 2 0 
	jsr catAC
.o 1 0 
	buildAC " ("
.d 2 0 
	jsr catAC
.o 1 0 
	push_jsr_eval 1
	push_array 0
	updates2pop_a 0 2 3
.d 2 0 
	jsr catAC
.o 1 0 
	buildAC "Could not create temporary directory: "
.d 2 0 
	jsr catAC
.o 1 0 
	fillh ARRAY 1 1
.d 1 0 
	rtn 
.export e_iTasks.WF.Combinators.SDS_d_f2.235
.export e_iTasks.WF.Combinators.SDS_n_f2.235
.descn e_iTasks.WF.Combinators.SDS_d_f2.235 e_iTasks.WF.Combinators.SDS_n_f2.235 2 0 "_f2.235"
.n 2 e_iTasks.WF.Combinators.SDS_d_f2.235 ea235
.o 1 0 
e_iTasks.WF.Combinators.SDS_n_f2.235
	push_node _cycle_in_spine 2
.o 3 0 
ea235
.o 3 0 
s235
	push_jsr_eval 1
	buildh e_StdString_dtoString;9 0
	push_jsr_eval 2
	update3pop_a 0 2
.d 3 0 
	jsr e_iTasks.WF.Definition_sexception
.o 3 0 
	fill_r e_iTasks.WF.Definition_kExceptionResult 3 0 3 0 0
.d 1 0 
	pop_a_rtn 3
.export e_iTasks.WF.Combinators.SDS_deval;8.9
.desc e_iTasks.WF.Combinators.SDS_deval;8.9 _hnf l9 6 0 "eval;8.9"
.a 0 a9
.o 2 0 
l9
	repl_args 5 5
.o 6 0 
a9
.d 6 0 
	jsr ea9
.o 2 0 
	buildh _Tuple 2
.d 1 0 
	rtn 
.o 6 0 
ea9
	jsr_eval 3
.o 6 0 
s9
	pushD_a 3
	jmpD ea e_iTasks.WF.Definition_dServerInterruptedEvent 0 case.5 case.6
	pop_b_jmp 1 case.7
case.5
	pop_b 1
	push_jsr_eval 5
	push_a2 2 5
	build e_iTasks.WF.Combinators.SDS_d_upd0.243 2 e_iTasks.WF.Combinators.SDS_n_upd0.243
	buildh e_iTasks.WF.Definition_dServerInterruptedEvent 0
	push_jsr_eval 5
	update_a 3 9
	update3pop_a 0 6
.d 4 0 
	jmp e_iTasks.WF.Definition_sapTask
case.6
	pop_b 1
	push_jsr_eval 5
	push_a2 2 5
	build e_iTasks.WF.Combinators.SDS_d_upd1.244 2 e_iTasks.WF.Combinators.SDS_n_upd1.244
	buildh e_iTasks.WF.Definition_dDestroyEvent 0
	push_jsr_eval 5
	update2_a 3 8
	update3pop_a 0 5
.d 4 0 
	jsr e_iTasks.WF.Definition_sapTask
.o 2 0 
	push_jsr_eval 1
	push_r_arg_u 0 18 1 16 1 1 0
	push_jsr_eval 4
	push_array 0
	update3_a 2 4
	updatepop_a 0 3
.d 2 0 
	jsr e_System.Directory_srecursiveDelete
.o 2 0 
.d 1 0 
	push_a_jsr 0 e_Data.Error_sisError
.o 0 1 b
	jmp_false else.8
	push_a 1
	fill2_r e_iTasks.Internal.IWorld_rIWorld 18 1 3 00000000000000001000
	push_a2 2 0
	build e_Data.Error_dfromError 1 e_Data.Error_nfromError
	buildh e__SystemDynamic_dTC_Char 0
	buildhr e__SystemDynamic_kTypeCons 1 0
	buildh e__SystemDynamic_dTC__UnboxedArray 0
	buildhr e__SystemDynamic_kTypeCons 1 0
	buildhr e__SystemDynamic_kTypeApp 2 0
	buildh e__SystemDynamic_dTC_Int 0
	buildhr e__SystemDynamic_kTypeCons 1 0
	buildh e__SystemDynamic_dTC__Tuple2 0
	buildhr e__SystemDynamic_kTypeCons 1 0
	buildhr e__SystemDynamic_kTypeApp 2 0
	buildhr e__SystemDynamic_kTypeApp 2 0
	build e_iTasks.WF.Combinators.SDS_d_f4.237 2 e_iTasks.WF.Combinators.SDS_n_f4.237
	update2pop_a 0 4
.d 2 0 
	rtn 
else.8
	push_jsr_eval 3
	updates2pop_a 0 2 4
.d 3 0 
	jmp s19
case.7
	jsr_eval 4
	push_r_args_u 4 1 2
	pop_a 1
	pop_b 1
	buildh e_System.Directory_dgetCurrentDirectory 0
	push_update_a 0 6
.d 2 0 
	buildh0_put_a_jsr _Nil 8 e_iTasks.Internal.Util_sliftIWorld
.o 2 0 
	jsr_eval 0
.d 1 0 
	push_a_jsr 0 e_Data.Error_sisError
.o 0 1 b
	jmp_false else.9
	buildo1 e_Data.Error_nfromError 0
	buildh e__SystemDynamic_dTC_Char 0
	buildhr e__SystemDynamic_kTypeCons 1 0
	buildh e__SystemDynamic_dTC__UnboxedArray 0
	buildhr e__SystemDynamic_kTypeCons 1 0
	buildhr e__SystemDynamic_kTypeApp 2 0
	buildh e__SystemDynamic_dTC_Int 0
	buildhr e__SystemDynamic_kTypeCons 1 0
	buildh e__SystemDynamic_dTC__Tuple2 0
	buildhr e__SystemDynamic_kTypeCons 1 0
	buildhr e__SystemDynamic_kTypeApp 2 0
	buildhr e__SystemDynamic_kTypeApp 2 0
	build e_iTasks.WF.Combinators.SDS_d_f5.238 2 e_iTasks.WF.Combinators.SDS_n_f5.238
	update_a 2 8
	updatepop_a 0 7
.d 2 0 
	pop_b_rtn 1
else.9
	push_a 2
	buildh e_System.Directory_dsetCurrentDirectory 1
	exchange_a 2 1
.d 2 0 
	jsr e_iTasks.Internal.Util_sliftIWorld
.o 2 0 
	jsr_eval 0
.d 1 0 
	push_a_jsr 0 e_Data.Error_sisError
.o 0 1 b
	jmp_false else.10
	buildo1 e_Data.Error_nfromError 0
	buildh e__SystemDynamic_dTC_Char 0
	buildhr e__SystemDynamic_kTypeCons 1 0
	buildh e__SystemDynamic_dTC__UnboxedArray 0
	buildhr e__SystemDynamic_kTypeCons 1 0
	buildhr e__SystemDynamic_kTypeApp 2 0
	buildh e__SystemDynamic_dTC_Int 0
	buildhr e__SystemDynamic_kTypeCons 1 0
	buildh e__SystemDynamic_dTC__Tuple2 0
	buildhr e__SystemDynamic_kTypeCons 1 0
	buildhr e__SystemDynamic_kTypeApp 2 0
	buildhr e__SystemDynamic_kTypeApp 2 0
	build e_iTasks.WF.Combinators.SDS_d_f6.239 2 e_iTasks.WF.Combinators.SDS_n_f6.239
	update_a 2 9
	updatepop_a 0 8
.d 2 0 
	pop_b_rtn 1
else.10
	push_jsr_eval 1
	push_a2 5 8
	build e_iTasks.WF.Combinators.SDS_d_upd2.245 2 e_iTasks.WF.Combinators.SDS_n_upd2.245
	push_jsr_eval 7
	update2_a 6 10
	update2_a 1 7
	updates3pop_a 0 5 9 6
.d 4 0 
	jsr e_iTasks.WF.Definition_sapTask
.o 2 0 
	push_jsr_eval 1
	push_a 3
	eq_desc e_Data.Error_dOk 1 0
	exit_false selector_m_error
	repl_args 1 1
	jsr_eval 0
	push_array 0
	update2_a 2 4
	updatepop_a 0 3
.d 2 0 
	jsr e_System.Directory_ssetCurrentDirectory
.o 2 0 
.d 1 0 
	push_a_jsr 0 e_Data.Error_sisError
.o 0 1 b
	jmp_false else.11
	buildo1 e_Data.Error_nfromError 0
	buildh e__SystemDynamic_dTC_Char 0
	buildhr e__SystemDynamic_kTypeCons 1 0
	buildh e__SystemDynamic_dTC__UnboxedArray 0
	buildhr e__SystemDynamic_kTypeCons 1 0
	buildhr e__SystemDynamic_kTypeApp 2 0
	buildh e__SystemDynamic_dTC_Int 0
	buildhr e__SystemDynamic_kTypeCons 1 0
	buildh e__SystemDynamic_dTC__Tuple2 0
	buildhr e__SystemDynamic_kTypeCons 1 0
	buildhr e__SystemDynamic_kTypeApp 2 0
	buildhr e__SystemDynamic_kTypeApp 2 0
	build e_iTasks.WF.Combinators.SDS_d_f7.240 2 e_iTasks.WF.Combinators.SDS_n_f7.240
	update_a 2 5
	updatepop_a 0 4
.d 2 0 
	pop_b_rtn 1
else.11
	push_jsr_eval 2
	update_a 4 3
	updates3pop_a 0 2 5 4
.d 4 1 i
	jmp s21
.export e_iTasks.WF.Combinators.SDS_d_upd0.243
.export e_iTasks.WF.Combinators.SDS_n_upd0.243
.descn e_iTasks.WF.Combinators.SDS_d_upd0.243 e_iTasks.WF.Combinators.SDS_n_upd0.243 2 0 "_upd0.243"
.n 2 e_iTasks.WF.Combinators.SDS_d_upd0.243
.o 1 0 
e_iTasks.WF.Combinators.SDS_n_upd0.243
	push_node _cycle_in_spine 2
.o 2 0 
ea243
	push_jsr_eval 1
	push_jsr_eval 1
	repl_r_args 1 2
	update_a 1 0
	fill_r e_iTasks.Internal.TaskEval_rTaskEvalOpts 1 2 4 0 0
.d 1 0 
	pop_ab_rtn 4 2
.export e_iTasks.WF.Combinators.SDS_d_upd1.244
.export e_iTasks.WF.Combinators.SDS_n_upd1.244
.descn e_iTasks.WF.Combinators.SDS_d_upd1.244 e_iTasks.WF.Combinators.SDS_n_upd1.244 2 0 "_upd1.244"
.n 2 e_iTasks.WF.Combinators.SDS_d_upd1.244
.o 1 0 
e_iTasks.WF.Combinators.SDS_n_upd1.244
	push_node _cycle_in_spine 2
.o 2 0 
ea244
	push_jsr_eval 1
	push_jsr_eval 1
	repl_r_args 1 2
	update_a 1 0
	fill_r e_iTasks.Internal.TaskEval_rTaskEvalOpts 1 2 4 0 0
.d 1 0 
	pop_ab_rtn 4 2
.export e_iTasks.WF.Combinators.SDS_d_upd2.245
.export e_iTasks.WF.Combinators.SDS_n_upd2.245
.descn e_iTasks.WF.Combinators.SDS_d_upd2.245 e_iTasks.WF.Combinators.SDS_n_upd2.245 2 0 "_upd2.245"
.n 2 e_iTasks.WF.Combinators.SDS_d_upd2.245
.o 1 0 
e_iTasks.WF.Combinators.SDS_n_upd2.245
	push_node _cycle_in_spine 2
.o 2 0 
ea245
	jsr_eval 0
	push_jsr_eval 1
	push_r_args 1 1 2
	update_a 1 0
	fill_r e_iTasks.Internal.TaskEval_rTaskEvalOpts 1 2 4 0 0
.d 1 0 
	pop_ab_rtn 4 2
.export e_iTasks.WF.Combinators.SDS_d_f7.240
.export e_iTasks.WF.Combinators.SDS_n_f7.240
.descn e_iTasks.WF.Combinators.SDS_d_f7.240 e_iTasks.WF.Combinators.SDS_n_f7.240 2 0 "_f7.240"
.n 2 e_iTasks.WF.Combinators.SDS_d_f7.240 ea240
.o 1 0 
e_iTasks.WF.Combinators.SDS_n_f7.240
	push_node _cycle_in_spine 2
.o 3 0 
ea240
.o 3 0 
s240
	push_jsr_eval 1
	buildh e_iTasks.WF.Combinators.SDS_dtoString;9.10 0
	push_jsr_eval 2
	update3pop_a 0 2
.d 3 0 
	jsr e_iTasks.WF.Definition_sexception
.o 3 0 
	fill_r e_iTasks.WF.Definition_kExceptionResult 3 0 3 0 0
.d 1 0 
	pop_a_rtn 3
.export e_iTasks.WF.Combinators.SDS_d_f6.239
.export e_iTasks.WF.Combinators.SDS_n_f6.239
.descn e_iTasks.WF.Combinators.SDS_d_f6.239 e_iTasks.WF.Combinators.SDS_n_f6.239 2 0 "_f6.239"
.n 2 e_iTasks.WF.Combinators.SDS_d_f6.239 ea239
.o 1 0 
e_iTasks.WF.Combinators.SDS_n_f6.239
	push_node _cycle_in_spine 2
.o 3 0 
ea239
.o 3 0 
s239
	push_jsr_eval 1
	buildh e_iTasks.WF.Combinators.SDS_dtoString;9.10 0
	push_jsr_eval 2
	update3pop_a 0 2
.d 3 0 
	jsr e_iTasks.WF.Definition_sexception
.o 3 0 
	fill_r e_iTasks.WF.Definition_kExceptionResult 3 0 3 0 0
.d 1 0 
	pop_a_rtn 3
.export e_iTasks.WF.Combinators.SDS_d_f5.238
.export e_iTasks.WF.Combinators.SDS_n_f5.238
.descn e_iTasks.WF.Combinators.SDS_d_f5.238 e_iTasks.WF.Combinators.SDS_n_f5.238 2 0 "_f5.238"
.n 2 e_iTasks.WF.Combinators.SDS_d_f5.238 ea238
.o 1 0 
e_iTasks.WF.Combinators.SDS_n_f5.238
	push_node _cycle_in_spine 2
.o 3 0 
ea238
.o 3 0 
s238
	push_jsr_eval 1
	buildh e_iTasks.WF.Combinators.SDS_dtoString;9.10 0
	push_jsr_eval 2
	update3pop_a 0 2
.d 3 0 
	jsr e_iTasks.WF.Definition_sexception
.o 3 0 
	fill_r e_iTasks.WF.Definition_kExceptionResult 3 0 3 0 0
.d 1 0 
	pop_a_rtn 3
.export e_iTasks.WF.Combinators.SDS_d_f4.237
.export e_iTasks.WF.Combinators.SDS_n_f4.237
.descn e_iTasks.WF.Combinators.SDS_d_f4.237 e_iTasks.WF.Combinators.SDS_n_f4.237 2 0 "_f4.237"
.n 2 e_iTasks.WF.Combinators.SDS_d_f4.237 ea237
.o 1 0 
e_iTasks.WF.Combinators.SDS_n_f4.237
	push_node _cycle_in_spine 2
.o 3 0 
ea237
.o 3 0 
s237
	push_jsr_eval 1
	buildh e_iTasks.WF.Combinators.SDS_dtoString;9.10 0
	push_jsr_eval 2
	update3pop_a 0 2
.d 3 0 
	jsr e_iTasks.WF.Definition_sexception
.o 3 0 
	fill_r e_iTasks.WF.Definition_kExceptionResult 3 0 3 0 0
.d 1 0 
	pop_a_rtn 3
.o 4 1 i
s21
	pushD_a 0
	jmpD be e_iTasks.WF.Definition_kExceptionResult 0 case.12 case.13
	pop_b_jmp 1 s21.1
case.12
	pop_b 1
	repl_args 4 4
	push_r_args_b 1 1 1 1 1
	buildI_b 0
	pop_b 1
	push_a 4
	push2_a 7
	buildh e_iTasks.WF.Combinators.SDS_deval;8.9 3
	build e_iTasks.WF.Definition_dTask 1 e_iTasks.WF.Definition_nTask
	push_a 1
	buildI_b 0
	build e_iTasks.WF.Combinators.SDS_d_f8.241 2 e_iTasks.WF.Combinators.SDS_n_f8.241
	push_a 4
	build e_iTasks.WF.Combinators.SDS_d_upd3.246 2 e_iTasks.WF.Combinators.SDS_n_upd3.246
	push_a2 0 3
	update_a 7 2
	build e_iTasks.WF.Definition_dValueResult 4 e_iTasks.WF.Definition_nValueResult
	updatepop_a 0 7
.d 2 0 
	pop_b_rtn 1
case.13
	pop_b 1
	repl_args 3 3
	push_a 2
	buildh ARRAY 1
.impmod _SystemDynamic
.impdesc e__SystemDynamic_rDynamicTemp
	build_r e__SystemDynamic_rDynamicTemp 2 0 1 0
	buildh _Tuple 2
	build e_iTasks.WF.Definition_dExceptionResult 1 e_iTasks.WF.Definition_nExceptionResult
	updatepop_a 0 5
.d 2 0 
	pop_b_rtn 1
s21.1
	pop_b 1
	pushD m_iTasks.WF.Combinators.SDS
	pushD x_21
.d 0 2 ii
	pop_a_jmp 4 _match_error
.string x_21 "<case>[line:114];11;547"
.export e_iTasks.WF.Combinators.SDS_d_upd3.246
.export e_iTasks.WF.Combinators.SDS_n_upd3.246
.descn e_iTasks.WF.Combinators.SDS_d_upd3.246 e_iTasks.WF.Combinators.SDS_n_upd3.246 2 0 "_upd3.246"
.n 2 e_iTasks.WF.Combinators.SDS_d_upd3.246
.o 1 0 
e_iTasks.WF.Combinators.SDS_n_upd3.246
	push_node _cycle_in_spine 2
.o 2 0 
ea246
	push_jsr_eval 1
	pushI_a 2
	pop_a 1
	push_r_args 0 1 1
	update_b 1 0
.impmod iTasks.Internal.TaskEval
.impdesc e_iTasks.Internal.TaskEval_rTaskEvalInfo
	fill_r e_iTasks.Internal.TaskEval_rTaskEvalInfo 1 1 3 0 0
.d 1 0 
	pop_ab_rtn 3 2
.export e_iTasks.WF.Combinators.SDS_d_f8.241
.export e_iTasks.WF.Combinators.SDS_n_f8.241
.descn e_iTasks.WF.Combinators.SDS_d_f8.241 e_iTasks.WF.Combinators.SDS_n_f8.241 2 0 "_f8.241"
.n 2 e_iTasks.WF.Combinators.SDS_d_f8.241 ea241
.o 1 0 
e_iTasks.WF.Combinators.SDS_n_f8.241
	push_node _cycle_in_spine 2
.o 3 0 
ea241
.o 3 0 
s241
	push_jsr_eval 1
	pushI_a 2
	pop_a 1
	jsr_eval 0
	pushI_a 0
	ltI
	swap_a1 
.d 2 1 b
	jsr s20
.o 0 1 i
	fillI_b 0 0
.d 1 0 
	pop_b_rtn 1
.o 2 1 b
s20
	eqB_b TRUE 0
	jmp_false case.15
	pop_b 1
	jsr_eval 0
	pushI_a 0
.d 0 1 i
	pop_a_rtn 2
case.15
	pop_b 1
	pop_a 1
	jsr_eval 0
	pushI0_pop_a1 
.d 0 1 i
	rtn 
.o 3 0 
s19
	jmp_ne_desc e_iTasks.WF.Definition_kValueResult 0 0 case.17
	repl_args 4 4
	update2pop_a 4 2
	build e_iTasks.WF.Combinators.SDS_d_upd4.247 2 e_iTasks.WF.Combinators.SDS_n_upd4.247
	buildh e__SystemDynamic_dTC_Char 0
	buildhr e__SystemDynamic_kTypeCons 1 0
	buildh e__SystemDynamic_dTC__UnboxedArray 0
	buildhr e__SystemDynamic_kTypeCons 1 0
	buildhr e__SystemDynamic_kTypeApp 2 0
	build e_iTasks.WF.Combinators.SDS_d_f9.242 1 e_iTasks.WF.Combinators.SDS_n_f9.242
	update2pop_a 0 2
.d 2 0 
	rtn 
case.17
	push2_a 2
	build e_iTasks.WF.Combinators.SDS_d_upd5.248 2 e_iTasks.WF.Combinators.SDS_n_upd5.248
	dup_a 3
	updatepop_a 1 2
.d 2 0 
	rtn 
.export e_iTasks.WF.Combinators.SDS_d_upd4.247
.export e_iTasks.WF.Combinators.SDS_n_upd4.247
.descn e_iTasks.WF.Combinators.SDS_d_upd4.247 e_iTasks.WF.Combinators.SDS_n_upd4.247 2 0 "_upd4.247"
.n 2 e_iTasks.WF.Combinators.SDS_d_upd4.247 ea247
.o 1 0 
e_iTasks.WF.Combinators.SDS_n_upd4.247
	push_node _cycle_in_spine 2
.o 3 0 
ea247
	jsr_eval 1
.o 3 0 
s247
	push2_a 1
	jsr_eval 0
	repl_r_args 18 1
	update_a 18 15
	fill_r e_iTasks.Internal.IWorld_rIWorld 18 1 21 0 0
.d 1 0 
	pop_ab_rtn 21 1
.export e_iTasks.WF.Combinators.SDS_d_upd5.248
.export e_iTasks.WF.Combinators.SDS_n_upd5.248
.descn e_iTasks.WF.Combinators.SDS_d_upd5.248 e_iTasks.WF.Combinators.SDS_n_upd5.248 2 0 "_upd5.248"
.n 2 e_iTasks.WF.Combinators.SDS_d_upd5.248 ea248
.o 1 0 
e_iTasks.WF.Combinators.SDS_n_upd5.248
	push_node _cycle_in_spine 2
.o 3 0 
ea248
	jsr_eval 1
.o 3 0 
s248
	push2_a 1
	jsr_eval 0
	repl_r_args 18 1
	update_a 18 15
	fill_r e_iTasks.Internal.IWorld_rIWorld 18 1 21 0 0
.d 1 0 
	pop_ab_rtn 21 1
.export e_iTasks.WF.Combinators.SDS_d_f9.242
.export e_iTasks.WF.Combinators.SDS_n_f9.242
.descn e_iTasks.WF.Combinators.SDS_d_f9.242 e_iTasks.WF.Combinators.SDS_n_f9.242 1 0 "_f9.242"
.n 1 e_iTasks.WF.Combinators.SDS_d_f9.242 ea242
.o 1 0 
e_iTasks.WF.Combinators.SDS_n_f9.242
	push_node _cycle_in_spine 1
.o 2 0 
ea242
.o 2 0 
s242
	buildh e_StdString_dtoString;9 0
	push_jsr_eval 1
	buildAC "Failed to destroy inner task withTempdir"
	buildh ARRAY 1
	put_a 3
.d 3 0 
	jsr e_iTasks.WF.Definition_sexception
.o 3 0 
	fill_r e_iTasks.WF.Definition_kExceptionResult 3 0 3 0 0
.d 1 0 
	pop_a_rtn 3
.export e_iTasks.WF.Combinators.SDS_dtoString;9.10
.desc e_iTasks.WF.Combinators.SDS_dtoString;9.10 _hnf l10 1 0 "toString;9.10"
.o 2 0 
i10
	pop_a 1
	push_args 0 2 2
	jsr_eval 1
	push_array 1
	dup_a 3
	updatepop_a 1 2
.d 2 0 
	jmp s10
.ai 1 _ i10
.o 2 0 
l10
.d 1 0 
	pop_a_jsr 1 ea10
.o 1 0 
	buildh ARRAY 1
.d 1 0 
	rtn 
.o 1 0 
ea10
	jsr_eval 0
	repl_args 2 2
	jsr_eval 1
	push_array 1
	put_a 2
.o 2 0 
s10
.d 1 0 
	pop_a_rtn 1
.export e_iTasks.WF.Combinators.SDS_deval;6.7
.desc e_iTasks.WF.Combinators.SDS_deval;6.7 _hnf l7 4 0 "eval;6.7"
.a 0 a7
.o 2 0 
l7
	repl_args 3 3
.o 4 0 
a7
.d 4 0 
	jsr ea7
.o 2 0 
	buildh _Tuple 2
.d 1 0 
	rtn 
.o 4 0 
ea7
	jsr_eval 3
	jsr_eval 2
	jsr_eval 1
	jsr_eval 0
	push_r_args 2 1 2
	put_a 3
.o 4 2 bi
s7
	build_r e_iTasks.Internal.TaskEval_rTaskEvalOpts 1 2 2 0
	push_a 1
	updates3pop_a 0 1 3 2
	exchange_a 4 3
.d 4 0 
	pop_b_jsr 2 e_iTasks.WF.Definition_sapTask
.o 2 0 
	jsr_eval 0
.d 3 0 
	jmp s18
.export e_iTasks.WF.Combinators.SDS_swithTaskId
.export e_iTasks.WF.Combinators.SDS_eawithTaskId
.descexp e_iTasks.WF.Combinators.SDS_dwithTaskId e_iTasks.WF.Combinators.SDS_nwithTaskId e_iTasks.WF.Combinators.SDS_lwithTaskId 1 0 "withTaskId"
.o 2 0 
e_iTasks.WF.Combinators.SDS_lwithTaskId
	update_a 1 0
	create 
.d 2 0 
	put_a_jmp 2 e_iTasks.WF.Combinators.SDS_eawithTaskId
.n 1 e_iTasks.WF.Combinators.SDS_dwithTaskId e_iTasks.WF.Combinators.SDS_eawithTaskId
.o 1 0 
e_iTasks.WF.Combinators.SDS_nwithTaskId
	push_node _cycle_in_spine 1
.o 2 0 
e_iTasks.WF.Combinators.SDS_eawithTaskId
.o 2 0 
e_iTasks.WF.Combinators.SDS_swithTaskId
.o 2 0 
s2
	push_a 0
	buildh e_iTasks.WF.Combinators.SDS_deval;6.7 1
.d 2 0 
	put_a_jmp 1 e_iTasks.WF.Definition_sTask
.o 3 0 
s18
	pushD_a 0
	jmpD ea e_iTasks.WF.Definition_kExceptionResult 0 case.19 case.20
case.18
	pop_b 1
	repl_args 4 4
	jmp_eq_desc e_iTasks.WF.Definition_kValue 0 0 case.21
	pop_a_jmp 3 s18.1
case.21
	repl_r_args 1 1
	buildo1 e_iTasks.WF.Combinators.SDS_nwithTaskId 3
	buildho2 _Tuple 1 6
	push_b 0
	buildhr e_iTasks.WF.Definition_kValue 1 1
	push_a2 3 0
	update_a 6 2
	build e_iTasks.WF.Definition_dValueResult 4 e_iTasks.WF.Definition_nValueResult
	updates2pop_a 0 5 6
.d 2 0 
	pop_b_rtn 1
case.19
	pop_b 1
	repl_args 3 3
	push_a 2
	buildh ARRAY 1
	build_r e__SystemDynamic_rDynamicTemp 2 0 1 0
	buildh _Tuple 2
	build e_iTasks.WF.Definition_dExceptionResult 1 e_iTasks.WF.Definition_nExceptionResult
	updates2pop_a 0 4 5
.d 2 0 
	rtn 
case.20
	pop_b 1
	update_a 1 2
	pop_a 2
	buildh e_iTasks.WF.Definition_dDestroyedResult 0
.d 2 0 
	rtn 
s18.1
	pushD m_iTasks.WF.Combinators.SDS
	pushD x_18
.d 0 2 ii
	pop_a_jmp 3 _match_error
.string x_18 "<case>[line:71];11;544"
.export e_iTasks.WF.Combinators.SDS_swithShared
.export e_iTasks.WF.Combinators.SDS_eawithShared
.descexp e_iTasks.WF.Combinators.SDS_dwithShared e_iTasks.WF.Combinators.SDS_nwithShared e_iTasks.WF.Combinators.SDS_lwithShared 4 0 "withShared"
.a 4 e_iTasks.WF.Combinators.SDS_eawithShared
.o 2 0 
e_iTasks.WF.Combinators.SDS_lwithShared
	push_args 0 3 3
	update_a 4 3
	create 
.d 5 0 
	put_a_jmp 5 e_iTasks.WF.Combinators.SDS_eawithShared
.n 4 e_iTasks.WF.Combinators.SDS_dwithShared e_iTasks.WF.Combinators.SDS_eawithShared
.o 1 0 
e_iTasks.WF.Combinators.SDS_nwithShared
	push_node _cycle_in_spine 4
.o 5 0 
e_iTasks.WF.Combinators.SDS_eawithShared
	jsr_eval 3
	jsr_eval 2
	jsr_eval 1
	jsr_eval 0
	push_r_args 1 6 0
	push_r_args 6 6 0
	update4_a 8 10
	update4_a 4 6
	update_a 3 5
	update3pop_a 0 2
.o 15 0 
e_iTasks.WF.Combinators.SDS_swithShared
.o 15 0 
s1
.impmod iTasks.WF.Definition
.impdesc e_iTasks.WF.Definition_riTask;
	build_r e_iTasks.WF.Definition_riTask; 6 0 6 0
	push_a2 14 0
	update_a 15 2
	buildh e_iTasks.WF.Combinators.SDS_devalinit;4.5 3
	updatepop_a 0 14
.d 2 0 
	jmp e_iTasks.WF.Definition_sTask
.export e_iTasks.WF.Combinators.SDS_devalinit;4.5
.desc e_iTasks.WF.Combinators.SDS_devalinit;4.5 _hnf l5 6 0 "evalinit;4.5"
.a 0 a5
.o 2 0 
l5
	repl_args 5 5
.o 6 0 
a5
.d 6 0 
	jsr ea5
.o 2 0 
	buildh _Tuple 2
.d 1 0 
	rtn 
.o 6 0 
ea5
	jsr_eval 3
	repl_r_args 6 0
.o 11 0 
s5
.d 1 0 
	push_a_jsr 8 e_iTasks.Internal.Util_sisDestroyOrInterrupt
.o 0 1 b
	jmp_false else.22
	pop_a 10
	buildh e_iTasks.WF.Definition_dDestroyedResult 0
.d 2 0 
	rtn 
else.22
	push_jsr_eval 7
	push_jsr_eval 10
	repl_r_args 1 2
	update_a 8 11
	update_a 1 9
	update4_a 4 5
	updates3_a 0 2 3 4
	exchange_a 12 10
.d 11 2 bi
	pop_a_jmp 2 s17
.o 11 2 bi
s17
	create 
	pushI 0
	pushI 3
.d 1 2 ii
	jsr e__SystemDynamic_s_initial_unification_environment
.o 1 0 
	push_a 7
	pushI 2
	buildhr e__SystemDynamic_kTypeVar 0 1
	create 
	push_update_a 1 2
	updates3pop_a 0 1 4 3
.d 4 0 
	jsr e__SystemDynamic_s_bind_global_type_pattern_var
.o 1 0 
	push_a 7
	pushI 1
	buildhr e__SystemDynamic_kTypeVar 0 1
	create 
	push_update_a 1 2
	updates3pop_a 0 1 4 3
.d 4 0 
	jsr e__SystemDynamic_s_bind_global_type_pattern_var
.o 1 0 
	push_a 7
	pushI 0
	buildhr e__SystemDynamic_kTypeVar 0 1
	create 
	push_update_a 1 2
	updates3pop_a 0 1 4 3
.d 4 0 
	jsr e__SystemDynamic_s_bind_global_type_pattern_var
.o 1 0 
	create 
	push3_a 8
	push3_a 8
.d 7 0 
	jsr e_iTasks.Internal.TaskState_slocalShare
.o 1 0 
	buildh e_iTasks.Internal.SDS_dsdsIdentity;17 0
	buildh e_iTasks.Internal.SDS_dreadSDS;18 0
	buildhr e_iTasks.SDS.Definition_rReadable; 2 0
	buildh e_iTasks.Internal.SDS_dreadRegisterSDS;21 0
	buildhr e_iTasks.SDS.Definition_rRegistrable; 2 0
	buildh e_iTasks.Internal.SDS_dsdsIdentity;17 0
	buildh e_iTasks.Internal.SDS_dwriteSDS;19 0
	buildhr e_iTasks.SDS.Definition_rWriteable; 2 0
	buildh e_iTasks.Internal.SDS_dsdsIdentity;17 0
	buildh e_iTasks.Internal.SDS_dreadSDS;18 0
	buildhr e_iTasks.SDS.Definition_rReadable; 2 0
	buildh e_iTasks.Internal.SDS_dmodifySDS;20 0
	buildhr e_iTasks.SDS.Definition_rModifiable; 3 0
	pushI 0
	buildhr e__SystemDynamic_kTypeVar 0 1
	buildh e__SystemDynamic_dTC__StrictMaybe 0
	buildhr e__SystemDynamic_kTypeCons 1 0
	buildhr e__SystemDynamic_kTypeApp 2 0
	create 
	push_a2 5 1
	updates2_a 0 2 3
.d 3 0 
	pop_a_jsr 1 e__SystemDynamic_s_normalise
.o 1 0 
	push_a 11
	buildh e_Data.GenHash_dgHash__Unit;7 0
	buildh e_iTasks.WF.Derives_dgHash_TaskId;67 0
	buildh e_iTasks.WF.Definition_dTD;TaskId 0
	buildhr e__SystemDynamic_kTypeCons 1 0
	create 
	push_update_a 1 3
	updates4_a 1 9 8 6 4
	updates4_a 11 7 5 3 1
.d 10 0 
	jsr e_iTasks.SDS.Combinators.Common_ssdsFocus
.o 1 0 
	push_a 10
.d 1 0 
	buildh0_put_a_jsr _Nil 12 e_iTasks.Internal.TaskEval_sgetNextTaskId
.o 2 0 
	buildh e_iTasks.SDS.Definition_dEmptyContext 0
	push_a 12
	buildh _Just 1
	buildh e_iTasks.Internal.SDS_dsdsIdentity;17 0
	buildh e_iTasks.Internal.SDS_dwriteSDS;19 0
	pushI 1
	buildhr e__SystemDynamic_kTypeVar 0 1
	buildh e__SystemDynamic_dTC__StrictMaybe 0
	buildhr e__SystemDynamic_kTypeCons 1 0
	buildhr e__SystemDynamic_kTypeApp 2 0
	create 
	push_a2 9 1
	updates2_a_pop_a 0 2 3 1
.d 3 0 
	buildh0_put_a_jsr _Nil 19 e__SystemDynamic_s_normalise
.o 1 0 
	push_a2 0 15
	updates4_a 9 5 4 3 2
	exchange_a 8 7
.d 8 0 
	jsr e_iTasks.Internal.SDS_swrite
.o 2 0 
.d 1 0 
	push_a_jsr 0 e_Data.Error_sisError
.o 0 1 b
	jmp_false else.23
	buildo1 e_iTasks.WF.Combinators.SDS_n_f0.233 0
	update_a 2 16
	updatepop_a 0 15
.d 2 0 
	pop_b_rtn 2
else.23
	buildh e_iTasks.Internal.SDS_dsdsIdentity;17 0
	buildh e_iTasks.Internal.SDS_dreadSDS;18 0
	buildhr e_iTasks.SDS.Definition_rReadable; 2 0
	buildh e_iTasks.Internal.SDS_dreadRegisterSDS;21 0
	buildhr e_iTasks.SDS.Definition_rRegistrable; 2 0
	buildh e_iTasks.Internal.SDS_dsdsIdentity;17 0
	buildh e_iTasks.Internal.SDS_dwriteSDS;19 0
	buildhr e_iTasks.SDS.Definition_rWriteable; 2 0
	buildh e_iTasks.Internal.SDS_dsdsIdentity;17 0
	buildh e_iTasks.Internal.SDS_dreadSDS;18 0
	buildhr e_iTasks.SDS.Definition_rReadable; 2 0
	buildh e_iTasks.Internal.SDS_dmodifySDS;20 0
	buildhr e_iTasks.SDS.Definition_rModifiable; 3 0
	pushI 2
	buildhr e__SystemDynamic_kTypeVar 0 1
	buildh e__SystemDynamic_dTC__StrictMaybe 0
	buildhr e__SystemDynamic_kTypeCons 1 0
	buildhr e__SystemDynamic_kTypeApp 2 0
	push_a 7
	build e__SystemDynamic_d_normalise 2 e__SystemDynamic_n_normalise
	push_a 14
	buildh e__SystemDynamic_dTC__Unit 0
	buildhr e__SystemDynamic_kTypeCons 1 0
	push_update_a 0 1
	updates4_a 9 5 4 3 2
	build e_iTasks.WF.Combinators.SDS_d_f1.234 6 e_iTasks.WF.Combinators.SDS_n_f1.234
	push_jsr_eval 15
	update2pop_a 0 1
	buildh0_dup_a _Nil 16
	put_a 6
	jsr_ap 1
	update_a 5 14
	updates2_a 1 15 13
	dup_a 12
	update_a 2 10
	updates2_a 3 11 9
.d 7 2 bi
	pop_a_jmp 9 s6
.export e_iTasks.WF.Combinators.SDS_d_f1.234
.export e_iTasks.WF.Combinators.SDS_n_f1.234
.descn e_iTasks.WF.Combinators.SDS_d_f1.234 e_iTasks.WF.Combinators.SDS_n_f1.234 6 0 "_f1.234"
.n 6 e_iTasks.WF.Combinators.SDS_d_f1.234 ea234
.o 1 0 
e_iTasks.WF.Combinators.SDS_n_f1.234
	push_node _cycle_in_spine 6
.o 7 0 
ea234
.o 7 0 
s234
	buildh _Nothing 0
	buildh e_iTasks.WF.Combinators.SDS_d\;40;32;3.4 0
	push_jsr_eval 6
	push_jsr_eval 6
	push_jsr_eval 6
	push_jsr_eval 6
	buildh e_Data.GenHash_dgHash__Unit;7 0
	push_jsr_eval 7
	update4_a 4 9
	update_a 3 8
	update3pop_a 0 5
.d 10 0 
	jmp e_iTasks.SDS.Combinators.Common_smapWrite
.export e_iTasks.WF.Combinators.SDS_d_f0.233
.export e_iTasks.WF.Combinators.SDS_n_f0.233
.descn e_iTasks.WF.Combinators.SDS_d_f0.233 e_iTasks.WF.Combinators.SDS_n_f0.233 1 0 "_f0.233"
.n 1 e_iTasks.WF.Combinators.SDS_d_f0.233 ea233
.o 1 0 
e_iTasks.WF.Combinators.SDS_n_f0.233
	push_node _cycle_in_spine 1
.o 2 0 
ea233
.o 2 0 
s233
.d 1 0 
	jsr e_Data.Error_sfromError
.o 1 0 
	repl_args 2 2
	jsr_eval 1
	jsr_eval 0
	push_array 1
	push_r_args 1 2 0
	update3pop_a 0 2
	fill_r e_iTasks.WF.Definition_kExceptionResult 3 0 3 0 0
.d 1 0 
	pop_a_rtn 3
.export e_iTasks.WF.Combinators.SDS_deval;5.6
.desc e_iTasks.WF.Combinators.SDS_deval;5.6 _hnf l6 7 0 "eval;5.6"
.a 0 a6
.o 2 0 
l6
	repl_args 6 6
.o 7 0 
a6
.d 7 0 
	jsr ea6
.o 2 0 
	buildh _Tuple 2
.d 1 0 
	rtn 
.o 7 0 
ea6
	jsr_eval 6
	jsr_eval 5
	jsr_eval 4
	push_r_args 5 1 2
	put_a 6
.o 7 2 bi
s6
	pushD_a 4
	jmpD ea e_iTasks.WF.Definition_dServerInterruptedEvent 0 case.24 case.25
	pop_b_jmp 1 case.26
case.24
	push_b 1
	update_b 3 1
	push_a2 1 1
	buildhr e_iTasks.Internal.TaskEval_rTaskEvalOpts 1 2
	put_a 1
	dup_a 6
	buildh0_dup_a e_iTasks.WF.Definition_dServerInterruptedEvent 6
	pop_b 2
.d 4 0 
	pop_a_jsr 5 e_iTasks.WF.Definition_sapTask
.o 2 0 
	jsr_eval 1
	jsr_eval 0
.d 2 0 
	rtn 
case.25
	push_b 1
	update_b 3 1
	push_a2 1 1
	buildhr e_iTasks.Internal.TaskEval_rTaskEvalOpts 1 2
	put_a 1
	update_a 1 6
	updates2_a 3 7 5
	buildh0_dup_a e_iTasks.WF.Definition_dDestroyEvent 4
	updates2_a 1 5 3
	pop_b 1
.d 4 0 
	pop_a_jsr 3 e_iTasks.WF.Definition_sapTask
.o 2 0 
	jsr_eval 1
	jsr_eval 0
.d 4 0 
	pop_b_jmp 1 s230
case.26
	push_a2 1 1
	push2_b 1
	buildhr e_iTasks.Internal.TaskEval_rTaskEvalOpts 1 2
	updates4_a 5 2 6 3 7
	updates3_a 0 4 8 5
	pop_b 1
.d 4 0 
	pop_a_jsr 2 e_iTasks.WF.Definition_sapTask
.o 2 0 
	jsr_eval 1
	jsr_eval 0
.d 5 1 i
	jmp s229
.o 1 2 bi
s15
	eqB_b TRUE 0
	jmp_false case.28
.d 0 1 i
	pop_ab_rtn 1 1
case.28
	pop_b 2
	jsr_eval 0
	pushI0_pop_a1 
.d 0 1 i
	rtn 
.o 2 1 b
s12
	eqB_b TRUE 0
	jmp_false case.30
.d 1 0 
	pop_b_jsr 1 e_Data.Error_sfromError
.o 1 0 
	repl_args 2 2
	jsr_eval 1
	jsr_eval 0
	push_array 1
	push_r_args 1 2 0
	update3pop_a 0 2
	fill_r e_iTasks.WF.Definition_kExceptionResult 3 0 3 0 0
.d 1 0 
	pop_a_rtn 3
case.30
	fillh e_iTasks.WF.Definition_dDestroyedResult 0 1
.d 1 0 
	pop_ab_rtn 1 1
.export e_iTasks.WF.Combinators.SDS_d\;40;32;3.4
.desc e_iTasks.WF.Combinators.SDS_d\;40;32;3.4 _hnf l4 2 0 "\;40;32;3.4"
.a 2 ea4
.o 2 0 
l4
	push_args 0 1 1
	update_a 2 1
	create 
	put_a 3
.o 3 0 
ea4
	jsr_eval 0
.o 3 0 
s4
	push_a 0
	buildh _Just 1
	fillh _Just 1 3
.d 1 0 
	pop_a_rtn 2
.o 5 1 i
s229
case.31
	jmp_ne_desc e_iTasks.WF.Definition_kValueResult 0 0 case.32
	push_args 0 4 4
	push_r_args_b 1 1 1 1 1
	push_a 3
	push3_a 9
	buildh e_iTasks.WF.Combinators.SDS_deval;5.6 4
	create 
	swap_a1 
	buildh0_dup3_a _Nil 9
	put_a 6
.d 2 0 
	jsr e_iTasks.WF.Definition_sTask
.o 1 0 
	push_b2 0 1
	ltI
	buildI_b 2
	update2pop_b 0 1
.d 1 2 bi
	jsr s15
.o 0 1 i
	push_r_args 2 1 1
	update_b 1 0
	buildhr e_iTasks.Internal.TaskEval_rTaskEvalInfo 1 1
	pop_b 1
	push_a2 0 2
	update_a 6 2
	buildhr e_iTasks.WF.Definition_kValueResult 4 0
	update_a 6 9
	updatepop_a 0 8
.d 2 0 
	rtn 
case.32
	update2pop_a 0 3
.d 2 0 
	pop_b_rtn 1
.o 4 0 
s230
case.34
	buildho2 _Tuple 0 1
	push_update_a 1 2
	update_a 4 3
	updates3pop_a 0 1 5 4
.d 5 0 
	jmp s232
case.35
	update2pop_a 0 2
s231
.d 2 0 
	rtn 
.o 5 0 
s232
	pushD_a 0
	jmpD ba e_iTasks.WF.Definition_kExceptionResult 0 case.36 case.37
	pop_b_jmp 1 case.38
case.36
	pop_b 1
	pop_a 1
	buildh e_StdString_dtoString;9 0
	buildh e__SystemDynamic_dTC_Char 0
	buildhr e__SystemDynamic_kTypeCons 1 0
	buildh e__SystemDynamic_dTC__UnboxedArray 0
	buildhr e__SystemDynamic_kTypeCons 1 0
	buildhr e__SystemDynamic_kTypeApp 2 0
	buildAC "Failed to destroy withShared child"
	buildh ARRAY 1
	update_a 3 6
	dup_a 5
	update2pop_a 1 3
.d 3 0 
	jsr e_iTasks.WF.Definition_sexception
.o 3 0 
	buildhr e_iTasks.WF.Definition_kExceptionResult 3 0
.d 2 0 
	rtn 
case.37
	pop_b 1
	buildh e_iTasks.SDS.Definition_dEmptyContext 0
	buildh _Nothing 0
	buildh e_iTasks.Internal.SDS_dsdsIdentity;17 0
	buildh e_iTasks.Internal.SDS_dwriteSDS;19 0
	pushI 0
	buildhr e__SystemDynamic_kTypeVar 0 1
	buildh e__SystemDynamic_dTC__StrictMaybe 0
	buildhr e__SystemDynamic_kTypeCons 1 0
	buildhr e__SystemDynamic_kTypeApp 2 0
	create 
	pushI 0
	pushI 1
.d 1 2 ii
	buildh0_put_a_jsr _Nil 11 e__SystemDynamic_s_initial_unification_environment
.o 1 0 
	pushI 0
	buildhr e__SystemDynamic_kTypeVar 0 1
	create 
	push_update_a 1 2
	updates2_a 11 1 3
.d 4 0 
	jsr e__SystemDynamic_s_bind_global_type_pattern_var
.o 1 0 
	create 
	push_a 1
	updates3pop_a 0 1 3 2
.d 3 0 
	jsr e__SystemDynamic_s_normalise
.o 1 0 
	updates2_a 3 6 9
	update_a 2 5
	dup_a 3
	updates4_a 1 4 8 7 2
.d 8 0 
	pop_a_jsr 2 e_iTasks.Internal.SDS_swrite
.o 2 0 
.d 1 0 
	push_a_jsr 0 e_Data.Error_sisError
.o 0 1 b
	create 
	swap_a1 
.d 2 1 b
	jsr s12
.o 1 0 
.d 2 0 
	rtn 
case.38
	push_args 4 2 2
	jsr_eval 1
	jsr_eval 0
	update2pop_a 0 5
.d 2 0 
	jmp s231
.impmod _system
.implab _match_error
.implab selector_m_error
