.comp 920 000011110011000
.start _nostart_
.depend "Text" "20210613122637"
.depend "StdCharList" "20210613122638"
.depend "_SystemArray" "20210613122638"
.depend "StdArray" "20210613122638"
.depend "StdEnv" "20210613122638"
.depend "_SystemEnum" "20210613122638"
.depend "StdEnum" "20210613122638"
.depend "StdTuple" "20210613122638"
.depend "StdOrdList" "20210613122638"
.depend "Control.Monad.Trans" "20210613122637"
.depend "StdMaybe" "20210613122638"
.depend "Data.Maybe" "20210613122637"
.depend "_SystemStrictMaybes" "20210613122638"
.depend "StdFile" "20210613122638"
.depend "StdString" "20210613122638"
.depend "Control.Monad.Fail" "20210613122637"
.depend "Data.Traversable" "20210613122637"
.depend "StdMisc" "20210613122638"
.depend "StdOverloadedList" "20210613122638"
.depend "Data.List" "20210613122637"
.depend "Data.Foldable" "20210613122637"
.depend "StdFunctions" "20210613122638"
.depend "StdFunc" "20210613122638"
.depend "_SystemEnumStrict" "20210613122638"
.depend "_SystemStrictLists" "20210613122638"
.depend "StdStrictLists" "20210613122638"
.depend "StdGeneric" "20210613122638"
.depend "Data.GenEq" "20210613122637"
.depend "StdReal" "20210613122638"
.depend "StdChar" "20210613122638"
.depend "StdInt" "20210613122638"
.depend "StdBool" "20210613122638"
.depend "StdClass" "20210613122638"
.depend "StdList" "20210613122638"
.depend "Data.Monoid" "20210613122637"
.depend "Control.Applicative" "20210613122637"
.depend "Control.Monad" "20210613122637"
.depend "Data.Functor" "20210613122637"
.depend "StdOverloaded" "20210613122638"
.depend "_SystemDynamic" "20210613122638"
.depend "Text.CSV" "20210613122637"
.module m_Text.CSV "Text.CSV" "20210613122638"
.endinfo
.impmod _system
.implab _cycle_in_spine
.implab _type_error
.implab _hnf
.impdesc e_system_dind
.implab e_system_nind e_system_eaind
.impdesc e_system_dif
.implab e_system_nif e_system_eaif
.implab e_system_sif
.impdesc e_system_dAP
.implab e_system_nAP e_system_eaAP
.implab e_system_sAP
.impdesc ARRAY
.impdesc _Nil
.impdesc _Cons
.impdesc _Conss
.implab n_Conss ea_Conss
.impdesc _Consts
.implab n_Consts ea_Consts
.impdesc _Conssts
.implab n_Conssts ea_Conssts
.impdesc _Tuple
.impdesc d_S.1
.implab n_S.1 ea_S.1
.impdesc d_S.2
.implab n_S.2 ea_S.2
.impdesc d_S.3
.implab n_S.3 ea_S.3
.impdesc d_S.4
.implab n_S.4 ea_S.4
.impdesc d_S.5
.implab n_S.5 ea_S.5
.impdesc d_S.6
.implab n_S.6 ea_S.6
.implab _driver
.impmod Text
.implab e_Text_sjoin;9
.impmod _SystemArray
.impmod StdFile
.implab e_StdFile_sfreads
.implab e_StdFile_sfwrites
.implab e_StdFile_sfseek
.impmod StdString
.implab e_StdString_s%;10
.implab e_StdString_s+++;11
.impmod StdChar
.implab e_StdChar_s==;18
.impmod StdInt
.implab e_StdInt_s+;6
.implab e_StdInt_s-;7
.implab e_StdInt_sone;11
.implab e_StdInt_s~;15
.implab e_StdInt_s==;16
.implab e_StdInt_s<;17
.impmod StdBool
.implab e_StdBool_snot
.impmod StdList
.implab e_StdList_sflatten
.implab e_StdList_sreverse
.export e_Text.CSV_swriteCSVFile
.descexp e_Text.CSV_dwriteCSVFile e_Text.CSV_nwriteCSVFile e_Text.CSV_lwriteCSVFile 2 0 "writeCSVFile"
.a 0 a7
.o 2 0
e_Text.CSV_lwriteCSVFile
	repl_args 1 1
.o 2 0
a7
.d 2 0
	jsr ea7
.o 0 2 f
	buildF_b 0
	pop_b 2
.d 1 0
	rtn
.n 2 e_Text.CSV_dwriteCSVFile
.o 1 0
e_Text.CSV_nwriteCSVFile
	push_node _cycle_in_spine 2
.d 2 0
	jsr ea7
.o 0 2 f
	fillF_b 0 0
	pop_b 2
.d 1 0
	rtn
.o 2 0
ea7
	jsr_eval 1
	jsr_eval 0
	pushF_a 1
	update_a 0 1
	pop_a 1
.o 1 2 f
e_Text.CSV_swriteCSVFile
.o 1 2 f
s7
	push_b 1
	push_b 1
	push_a 0
	pushC '\\'
	pushC '"'
	pushC ','
	updatepop_a 0 1
	update_b 4 6
	update_b 3 5
	update_b 2 4
	update_b 1 3
	updatepop_b 0 2
.d 1 5 cccf
	jmp s8
.export e_Text.CSV_swriteCSVFileWith
.descexp e_Text.CSV_dwriteCSVFileWith e_Text.CSV_nwriteCSVFileWith e_Text.CSV_lwriteCSVFileWith 5 0 "writeCSVFileWith"
.a 0 a8
.o 2 0
e_Text.CSV_lwriteCSVFileWith
	repl_args 4 4
.o 5 0
a8
.d 5 0
	jsr ea8
.o 0 2 f
	buildF_b 0
	pop_b 2
.d 1 0
	rtn
.n 5 e_Text.CSV_dwriteCSVFileWith
.o 1 0
e_Text.CSV_nwriteCSVFileWith
	push_node _cycle_in_spine 5
.d 5 0
	jsr ea8
.o 0 2 f
	fillF_b 0 0
	pop_b 2
.d 1 0
	rtn
.o 5 0
ea8
	jsr_eval 4
	jsr_eval 3
	jsr_eval 2
	jsr_eval 1
	jsr_eval 0
	pushF_a 4
	pushC_a 2
	pushC_a 1
	pushC_a 0
	update_a 3 4
	pop_a 4
.o 1 5 cccf
e_Text.CSV_swriteCSVFileWith
.o 1 5 cccf
s8
	push_a 0
	push_b 4
	push_b 4
	push_b 4
	push_b 4
	push_b 4
	updatepop_a 0 1
	update_b 4 9
	update_b 3 8
	update_b 2 7
	update_b 1 6
	updatepop_b 0 5
.d 1 5 cccf
	jmp s51
.o 1 5 cccf
s51
	eq_desc _Nil 0 0
	jmp_true case.1
	jmp case.2
case.1
	pop_a 1
	pop_b 3
.d 0 2 f
	rtn
case.2
	repl_args 2 2
	push_a 1
	jsr_eval 0
	push_a 1
	jsr_eval 0
	push_b 4
	push_b 4
	push_b 4
	push_b 4
	push_b 4
	buildh _Nil 0
	update_a 0 3
	update_a 0 4
	pop_a 1
.d 1 5 cccf
	jsr s50
.o 0 2 f
	push_b 4
	push_b 4
	push_b 4
	updatepop_a 0 2
	update_b 4 9
	update_b 3 8
	update_b 2 7
	update_b 1 6
	updatepop_b 0 5
.d 1 5 cccf
	jmp s51
.o 1 5 cccf
s50
	push_b 4
	push_b 4
	push_a 0
	push_b 4
	push_b 4
	push_b 4
	updatepop_a 0 1
	update_b 4 9
	update_b 3 8
	update_b 2 7
	update_b 1 6
	updatepop_b 0 5
.d 1 5 cccf
	jmp s6
.export e_Text.CSV_swriteCSVRecord
.descexp e_Text.CSV_dwriteCSVRecord e_Text.CSV_nwriteCSVRecord e_Text.CSV_lwriteCSVRecord 2 0 "writeCSVRecord"
.a 0 a5
.o 2 0
e_Text.CSV_lwriteCSVRecord
	repl_args 1 1
.o 2 0
a5
.d 2 0
	jsr ea5
.o 0 2 f
	buildF_b 0
	pop_b 2
.d 1 0
	rtn
.n 2 e_Text.CSV_dwriteCSVRecord
.o 1 0
e_Text.CSV_nwriteCSVRecord
	push_node _cycle_in_spine 2
.d 2 0
	jsr ea5
.o 0 2 f
	fillF_b 0 0
	pop_b 2
.d 1 0
	rtn
.o 2 0
ea5
	jsr_eval 1
	jsr_eval 0
	pushF_a 1
	update_a 0 1
	pop_a 1
.o 1 2 f
e_Text.CSV_swriteCSVRecord
.o 1 2 f
s5
	push_b 1
	push_b 1
	push_a 0
	pushC '\\'
	pushC '"'
	pushC ','
	updatepop_a 0 1
	update_b 4 6
	update_b 3 5
	update_b 2 4
	update_b 1 3
	updatepop_b 0 2
.d 1 5 cccf
	jmp s6
.export e_Text.CSV_swriteCSVRecordWith
.descexp e_Text.CSV_dwriteCSVRecordWith e_Text.CSV_nwriteCSVRecordWith e_Text.CSV_lwriteCSVRecordWith 5 0 "writeCSVRecordWith"
.a 0 a6
.o 2 0
e_Text.CSV_lwriteCSVRecordWith
	repl_args 4 4
.o 5 0
a6
.d 5 0
	jsr ea6
.o 0 2 f
	buildF_b 0
	pop_b 2
.d 1 0
	rtn
.n 5 e_Text.CSV_dwriteCSVRecordWith
.o 1 0
e_Text.CSV_nwriteCSVRecordWith
	push_node _cycle_in_spine 5
.d 5 0
	jsr ea6
.o 0 2 f
	fillF_b 0 0
	pop_b 2
.d 1 0
	rtn
.o 5 0
ea6
	jsr_eval 4
	jsr_eval 3
	jsr_eval 2
	jsr_eval 1
	jsr_eval 0
	pushF_a 4
	pushC_a 2
	pushC_a 1
	pushC_a 0
	update_a 3 4
	pop_a 4
.o 1 5 cccf
e_Text.CSV_swriteCSVRecordWith
.o 1 5 cccf
s6
	create
	push_a 1
	buildC_b 1
	buildC_b 2
	update_a 3 4
	update_a 2 3
	update_a 1 2
	updatepop_a 0 1
.d 4 0
	jsr s49
.o 1 0
	pushI 1
	create_array_ CHAR 0 1
	push_b 0
	pushI 0
	update_b 1 4
	updatepop_b 0 3
	update CHAR 0 1
.d 2 0
	jsr e_Text_sjoin;9
.o 1 0
	buildAC "\r\n"
	push_a 1
	update_a 1 2
	update_a 0 1
	pop_a 1
.d 2 0
	jsr catAC
.o 1 0
	push_b 1
	push_b 1
	update_b 1 3
	updatepop_b 0 2
.d 1 2 f
	jsr writeFS
.o 0 2 f
.d 0 2 f
	rtn
.export e_Text.CSV_dc;91;89;98.49
.export e_Text.CSV_nc;91;89;98.49
.descn e_Text.CSV_dc;91;89;98.49 e_Text.CSV_nc;91;89;98.49 3 0 "c;91;89;98.49"
.n 3 e_Text.CSV_dc;91;89;98.49 ea49
.o 1 0
e_Text.CSV_nc;91;89;98.49
	push_node _cycle_in_spine 3
.o 4 0
ea49
	jsr_eval 2
.o 4 0
s49
	push_a 0
	push_a 2
	push_a 4
	update_a 2 5
	update_a 1 4
	updatepop_a 0 3
.d 4 0
	jmp s73
.o 4 0
s73
	eq_desc _Cons 2 0
	jmp_true case.3
	jmp case.4
case.3
	repl_args 2 2
	push_a 1
	push_a 3
	push_a 5
	build e_Text.CSV_dc;91;89;98.49 3 e_Text.CSV_nc;91;89;98.49
	push_a 1
	push_a 5
	push_a 5
	build e_Text.CSV_d_f6.113 3 e_Text.CSV_n_f6.113
	fillh _Cons 2 6
	pop_a 4
.d 1 0
	rtn
case.4
	fillh _Nil 0 3
	pop_a 3
.d 1 0
	rtn
.export e_Text.CSV_d_f6.113
.export e_Text.CSV_n_f6.113
.descn e_Text.CSV_d_f6.113 e_Text.CSV_n_f6.113 3 0 "_f6.113"
.n 3 e_Text.CSV_d_f6.113 ea113
.o 1 0
e_Text.CSV_n_f6.113
	push_node _cycle_in_spine 3
.o 4 0
ea113
.o 4 0
s113
	push_a 0
	jsr_eval 0
	pushC_a 1
	pop_a 1
	pushI 1
	create_array_ CHAR 0 1
	pushI 0
	update CHAR 0 1
	push_a 3
	jsr_eval 0
	push_array 0
	updatepop_a 0 1
	push_a 3
	push_a 3
	buildh _Nil 0
	update_a 0 6
	update_a 0 7
	pop_a 1
.d 3 0
	jsr s45
.o 1 0
	update_a 2 4
	update_a 1 3
	updatepop_a 0 2
.d 2 0
	jsr catAC
.o 1 0
	pushI 1
	create_array_ CHAR 0 1
	pushC_a 2
	pushI 0
	buildh _Nil 0
	update_a 0 3
	pop_a 1
	update CHAR 0 1
	update_a 1 2
	updatepop_a 0 1
.d 2 0
	jsr catAC
.o 1 0
	fillh ARRAY 1 1
.d 1 0
	rtn
.o 3 0
s45
	push_a 2
	push_a 0
	push_arraysize CHAR 0 1
	push_a 3
	buildh _Nil 0
	update_a 0 5
	pop_a 1
	push_a 0
	push_arraysize CHAR 0 1
	pushI 1
	push_b 1
	subI
	create
	push_a 1
	buildh ARRAY 1
	pushI 0
	push_a 5
	push_a 5
	update_b 1 2
	updatepop_b 0 1
	update_a 3 4
	update_a 2 3
	update_a 1 2
	updatepop_a 0 1
.d 4 2 ii
	jsr s48
.o 1 0
	create
	push_a 1
	update_a 1 2
	update_a 0 1
	pop_a 1
.d 2 0
	jsr e_StdList_sflatten
.o 1 0
	pushI 1
	push_b 1
	subI
	create
	push_a 2
	buildh ARRAY 1
	pushI 0
	push_a 5
	push_a 5
	update_b 1 2
	updatepop_b 0 1
	buildh _Nil 0
	update_a 0 7
	update_a 0 8
	update_a 0 6
	pop_a 1
.d 4 2 ii
	jsr s46
.o 1 0
	create
	push_a 1
	update_a 1 2
	update_a 0 1
	pop_a 1
.d 2 0
	jsr e_StdList_sflatten
.o 1 0
	pushI 0
.d 1 1 i
	jsr s36
.o 0 1 i
	create_array_ CHAR 0 1
	buildI 0
	push_a 1
	update_a 1 2
	update_a 0 1
	pop_a 1
	update_a 2 6
	update_a 1 5
	updatepop_a 0 4
.d 3 0
	jmp s39
.o 4 2 ii
s46
	push_b 0
	push_b 2
	ltI
	notB
	jmp_false else.5
	push_b 0
	push_array 2
	buildh _Nil 0
	update_a 0 4
	pop_a 1
	push_a 0
	select CHAR 0 1
	push_a 0
	buildh ARRAY 1
	push_a 0
	push_b 2
	push_b 2
	push_a 4
	push_a 4
	build_u e_Text.CSV_d_f8.115 3 2 e_Text.CSV_n_f8.115
	buildC_b 0
	push_a 5
	push_a 5
	build e_Text.CSV_descape`;96.47 3 e_Text.CSV_nescape`;96.47
	fillh _Cons 2 7
	pop_a 5
	pop_b 3
.d 1 0
	rtn
else.5
	fillh _Nil 0 3
	pop_a 3
	pop_b 2
.d 1 0
	rtn
.export e_Text.CSV_d_f8.115
.export e_Text.CSV_n_f8.115
.descn e_Text.CSV_d_f8.115 e_Text.CSV_n_f8.115 5 0 "_f8.115"
.nu 3 2 e_Text.CSV_d_f8.115 _
.o 1 0
e_Text.CSV_n_f8.115
	push_node_u _cycle_in_spine 3 2
.o 4 2 ii
ea115
.o 4 2 ii
s115
	pushI 1
	push_b 1
	addI
	push_a 2
	push_b 2
	push_a 2
	push_a 2
	push_b 1
	update_b 1 2
	update_b 0 1
	pop_b 1
	update_a 2 5
	update_a 1 4
	updatepop_a 0 3
	update_b 1 3
	updatepop_b 0 2
.d 4 2 ii
	jmp s46
.o 4 2 ii
s48
	push_b 0
	push_b 2
	ltI
	notB
	jmp_false else.6
	push_b 0
	push_array 2
	buildh _Nil 0
	update_a 0 4
	pop_a 1
	push_a 0
	select CHAR 0 1
	push_a 0
	buildh ARRAY 1
	push_a 0
	push_b 2
	push_b 2
	push_a 4
	push_a 4
	build_u e_Text.CSV_d_f7.114 3 2 e_Text.CSV_n_f7.114
	buildC_b 0
	push_a 5
	push_a 5
	build e_Text.CSV_descape`;96.47 3 e_Text.CSV_nescape`;96.47
	fillh _Cons 2 7
	pop_a 5
	pop_b 3
.d 1 0
	rtn
else.6
	fillh _Nil 0 3
	pop_a 3
	pop_b 2
.d 1 0
	rtn
.export e_Text.CSV_d_f7.114
.export e_Text.CSV_n_f7.114
.descn e_Text.CSV_d_f7.114 e_Text.CSV_n_f7.114 5 0 "_f7.114"
.nu 3 2 e_Text.CSV_d_f7.114 _
.o 1 0
e_Text.CSV_n_f7.114
	push_node_u _cycle_in_spine 3 2
.o 4 2 ii
ea114
.o 4 2 ii
s114
	pushI 1
	push_b 1
	addI
	push_a 2
	push_b 2
	push_a 2
	push_a 2
	push_b 1
	update_b 1 2
	update_b 0 1
	pop_b 1
	update_a 2 5
	update_a 1 4
	updatepop_a 0 3
	update_b 1 3
	updatepop_b 0 2
.d 4 2 ii
	jmp s48
.export e_Text.CSV_descape`;96.47
.export e_Text.CSV_nescape`;96.47
.descn e_Text.CSV_descape`;96.47 e_Text.CSV_nescape`;96.47 3 0 "escape`;96.47"
.n 3 e_Text.CSV_descape`;96.47 ea47
.o 1 0
e_Text.CSV_nescape`;96.47
	push_node _cycle_in_spine 3
.o 4 0
ea47
	jsr_eval 2
	jsr_eval 1
	pushC_a 2
	pushC_a 1
	update_a 0 2
	pop_a 2
.o 2 2 cc
s47
	push_b 0
	push_b 2
	eqC
	jmp_false else.7
	buildh _Nil 0
	buildC_b 0
	buildh _Cons 2
	buildC_b 0
	fillh _Cons 2 3
	pop_a 1
	pop_b 2
.d 1 0
	rtn
else.7
	push_a 0
	jsr_eval 0
	pushC_a 1
	pop_a 1
	push_b 2
	eqC
	jmp_false else.8
	buildh _Nil 0
	push_a 1
	buildh _Cons 2
	buildC_b 0
	fillh _Cons 2 3
	pop_a 1
	pop_b 2
.d 1 0
	rtn
else.8
	buildh _Nil 0
	buildC_b 1
	fillh _Cons 2 3
	pop_a 1
	pop_b 2
.d 1 0
	rtn
.o 3 0
s39
	push_a 1
	push_a 1
	push_a 4
	update_a 2 5
	update_a 1 4
	updatepop_a 0 3
.d 3 0
	jmp s69
.o 3 0
s69
	eq_desc _Cons 2 0
	jmp_true case.9
	jmp case.10
case.9
	repl_args 2 2
	push_a 1
	jsr_eval 0
	push_a 4
	build e_Text.CSV_d_f9.116 1 e_Text.CSV_n_f9.116
	push_a 2
	jsr_eval 0
	pushC_a 3
	pop_a 1
	push_a 5
	jsr_eval 0
	pushI_a 6
	pop_a 1
	push_a 4
	buildh _Nil 0
	update_a 0 6
	update_a 0 7
	update_a 0 4
	update_a 0 5
	pop_a 1
	update CHAR 0 1
	update_a 2 6
	update_a 1 5
	updatepop_a 0 4
.d 3 0
	jmp s39
case.10
	updatepop_a 1 2
.d 1 0
	rtn
.export e_Text.CSV_d_f9.116
.export e_Text.CSV_n_f9.116
.descn e_Text.CSV_d_f9.116 e_Text.CSV_n_f9.116 1 0 "_f9.116"
.n 1 e_Text.CSV_d_f9.116 ea116
.o 1 0
e_Text.CSV_n_f9.116
	push_node _cycle_in_spine 1
.o 2 0
ea116
.o 2 0
s116
	pushI 1
	push_a 0
	jsr_eval 0
	pushI_a 1
	pop_a 1
	pop_a 1
	addI
	fillI_b 0 0
	pop_b 1
.d 1 0
	rtn
.o 1 1 i
s36
	push_b 0
	push_a 0
	updatepop_a 0 1
	updatepop_b 0 1
.d 1 1 i
	jmp s67
.o 1 1 i
s67
	eq_desc _Cons 2 0
	jmp_true case.11
	jmp case.12
case.11
	repl_args 2 2
	pop_a 1
	push_a 0
	jsr_eval 0
	pushI 1
	push_b 1
	addI
	updatepop_a 0 1
	updatepop_b 0 1
.d 1 1 i
	jmp s36
case.12
	pop_a 1
.d 0 1 i
	rtn
.export e_Text.CSV_sreadCSVFile
.descexp e_Text.CSV_dreadCSVFile e_Text.CSV_nreadCSVFile e_Text.CSV_lreadCSVFile 1 0 "readCSVFile"
.o 2 0
e_Text.CSV_lreadCSVFile
	pop_a 1
.d 1 0
	jsr ea3
.o 1 2 f
	buildF_b 0
	push_a 1
	buildh _Tuple 2
	updatepop_a 0 1
	pop_b 2
.d 1 0
	rtn
.n 1 e_Text.CSV_dreadCSVFile
.o 1 0
e_Text.CSV_nreadCSVFile
	push_node _cycle_in_spine 1
.d 1 0
	jsr ea3
.o 1 2 f
	buildF_b 0
	push_a 1
	fillh _Tuple 2 3
	pop_a 1
	pop_b 2
.d 1 0
	rtn
.o 1 0
ea3
	jsr_eval 0
	pushF_a 0
	pop_a 1
.o 0 2 f
e_Text.CSV_sreadCSVFile
.o 0 2 f
s3
	push_b 1
	push_b 1
	pushC '\\'
	pushC '"'
	pushC ','
	update_b 4 6
	update_b 3 5
	update_b 2 4
	update_b 1 3
	updatepop_b 0 2
.d 0 5 cccf
	jmp s4
.export e_Text.CSV_sreadCSVFileWith
.descexp e_Text.CSV_dreadCSVFileWith e_Text.CSV_nreadCSVFileWith e_Text.CSV_lreadCSVFileWith 4 0 "readCSVFileWith"
.a 0 a4
.o 2 0
e_Text.CSV_lreadCSVFileWith
	repl_args 3 3
.o 4 0
a4
.d 4 0
	jsr ea4
.o 1 2 f
	buildF_b 0
	push_a 1
	buildh _Tuple 2
	updatepop_a 0 1
	pop_b 2
.d 1 0
	rtn
.n 4 e_Text.CSV_dreadCSVFileWith
.o 1 0
e_Text.CSV_nreadCSVFileWith
	push_node _cycle_in_spine 4
.d 4 0
	jsr ea4
.o 1 2 f
	buildF_b 0
	push_a 1
	fillh _Tuple 2 3
	pop_a 1
	pop_b 2
.d 1 0
	rtn
.o 4 0
ea4
	jsr_eval 3
	jsr_eval 2
	jsr_eval 1
	jsr_eval 0
	pushF_a 3
	pushC_a 2
	pushC_a 1
	pushC_a 0
	pop_a 4
.o 0 5 cccf
e_Text.CSV_sreadCSVFileWith
.o 0 5 cccf
s4
	buildh _Nil 0
	push_b 4
	push_b 4
	push_b 4
	push_b 4
	push_b 4
	update_b 4 9
	update_b 3 8
	update_b 2 7
	update_b 1 6
	updatepop_b 0 5
.d 1 5 cccf
	jmp s16
.o 1 5 cccf
s16
	push_b 4
	push_b 4
	push_b 4
	push_b 4
	push_b 4
.d 0 5 cccf
	jsr s2
.o 1 2 f
	push_b 4
	push_b 4
	push_b 4
	push_b 4
	push_b 4
	push_a 1
	push_a 1
	update_a 1 3
	updatepop_a 0 2
	update_b 4 11
	update_b 3 10
	update_b 2 9
	update_b 1 8
	updatepop_b 0 7
.d 2 5 fccc
	jmp s106
.export e_Text.CSV_sreadCSVRecord
.descexp e_Text.CSV_dreadCSVRecord e_Text.CSV_nreadCSVRecord e_Text.CSV_lreadCSVRecord 1 0 "readCSVRecord"
.o 2 0
e_Text.CSV_lreadCSVRecord
	pop_a 1
.d 1 0
	jsr ea1
.o 1 2 f
	buildF_b 0
	push_a 1
	buildh _Tuple 2
	updatepop_a 0 1
	pop_b 2
.d 1 0
	rtn
.n 1 e_Text.CSV_dreadCSVRecord
.o 1 0
e_Text.CSV_nreadCSVRecord
	push_node _cycle_in_spine 1
.d 1 0
	jsr ea1
.o 1 2 f
	buildF_b 0
	push_a 1
	fillh _Tuple 2 3
	pop_a 1
	pop_b 2
.d 1 0
	rtn
.o 1 0
ea1
	jsr_eval 0
	pushF_a 0
	pop_a 1
.o 0 2 f
e_Text.CSV_sreadCSVRecord
.o 0 2 f
s1
	push_b 1
	push_b 1
	pushC '\\'
	pushC '"'
	pushC ','
	update_b 4 6
	update_b 3 5
	update_b 2 4
	update_b 1 3
	updatepop_b 0 2
.d 0 5 cccf
	jmp s2
.export e_Text.CSV_sreadCSVRecordWith
.descexp e_Text.CSV_dreadCSVRecordWith e_Text.CSV_nreadCSVRecordWith e_Text.CSV_lreadCSVRecordWith 4 0 "readCSVRecordWith"
.a 0 a2
.o 2 0
e_Text.CSV_lreadCSVRecordWith
	repl_args 3 3
.o 4 0
a2
.d 4 0
	jsr ea2
.o 1 2 f
	buildF_b 0
	push_a 1
	buildh _Tuple 2
	updatepop_a 0 1
	pop_b 2
.d 1 0
	rtn
.n 4 e_Text.CSV_dreadCSVRecordWith
.o 1 0
e_Text.CSV_nreadCSVRecordWith
	push_node _cycle_in_spine 4
.d 4 0
	jsr ea2
.o 1 2 f
	buildF_b 0
	push_a 1
	fillh _Tuple 2 3
	pop_a 1
	pop_b 2
.d 1 0
	rtn
.o 4 0
ea2
	jsr_eval 3
	jsr_eval 2
	jsr_eval 1
	jsr_eval 0
	pushF_a 3
	pushC_a 2
	pushC_a 1
	pushC_a 0
	pop_a 4
.o 0 5 cccf
e_Text.CSV_sreadCSVRecordWith
.o 0 5 cccf
s2
	buildh _Nil 0
	push_b 4
	push_b 4
	pushB FALSE
	pushB FALSE
	pushI 0
	pushI 0
	buildAC ""
	buildC_b 6
	buildC_b 7
	buildC_b 8
	update_b 5 10
	update_b 4 9
	update_b 3 8
	update_b 2 7
	update_b 1 6
	updatepop_b 0 5
.d 5 6 iibbf
	jsr s15
.o 1 3 if
	pushI -1
	push_b 1
	eqI
	jmp_false else.13
	buildh _Nothing 0
	push_b 2
	push_b 2
	updatepop_a 0 1
	update_b 1 4
	updatepop_b 0 3
.d 1 2 f
	rtn
else.13
	push_b 0
	negI
	pushI 1
	push_b 4
	push_b 4
	push_b 3
	update_b 3 4
	update_b 0 3
	pop_b 1
.d 0 4 f i i
	jsr seekF
.o 0 3 b f
	pop_b 1
	create
	push_a 1
	update_a 1 2
	updatepop_a 0 1
.d 2 0
	jsr e_StdList_sreverse
.o 1 0
	buildh _Just 1
	update_b 1 4
	updatepop_b 0 3
.d 1 2 f
	rtn
.o 5 6 iibbf
s15
	push_a 3
	push_arraysize CHAR 0 1
	push_b 2
	eqI
	jmp_false else.14
	pushI 1024
	push_b 6
	push_b 6
.d 0 3 f i
	jsr readFS
.o 1 2 f
	push_a 0
	push_arraysize CHAR 0 1
	pushI 0
	push_b 1
	update_b 1 2
	update_b 0 1
	pop_b 1
	eqI
	jmp_false else.15
	pushI 0
	push_b 4
	eqI
	jmp_false else.16
	buildh _Nil 0
	push_b 1
	push_b 1
	pushI -1
	updatepop_a 0 6
	update_b 2 10
	update_b 1 9
	updatepop_b 0 8
.d 1 3 if
	rtn
else.16
	push_a 5
	push_a 2
	push_b 3
	push_a 4
	push_b 3
	push_a 7
	build_u e_Text.CSV_d_f0.107 3 2 e_Text.CSV_n_f0.107
	buildh _Cons 2
	push_b 1
	push_b 1
	pushI 0
	updatepop_a 0 6
	update_b 2 10
	update_b 1 9
	updatepop_b 0 8
.d 1 3 if
	rtn
else.15
	push_a 0
	push_a 5
	update_a 1 2
	updatepop_a 0 1
.d 2 0
	jsr catAC
.o 1 0
	push_b 1
	push_b 1
	push_a 5
	push_b 7
	push_b 7
	push_b 7
	push_b 7
	push_a 4
	push_a 4
	push_a 4
	push_a 4
	update_a 4 5
	update_a 0 4
	pop_a 1
	update_a 4 9
	update_a 3 8
	update_a 2 7
	update_a 1 6
	updatepop_a 0 5
	update_b 5 13
	update_b 4 12
	update_b 3 11
	update_b 2 10
	update_b 1 9
	updatepop_b 0 8
.d 5 6 iibbf
	jmp s15
else.14
	push_a 2
	jsr_eval 0
	pushC_a 3
	pop_a 1
	push_b 2
	push_a 3
	select CHAR 0 1
	eqC
	jmp_false else.17
	push_b 2
	notB
	jmp_false else.17
	push_b 3
	notB
	jmp_false else.17
	pushI 1
	push_b 2
	addI
	push_a 4
	push_a 1
	push_b 2
	push_a 3
	push_b 2
	push_a 6
	build_u e_Text.CSV_d_f1.108 3 2 e_Text.CSV_n_f1.108
	buildh _Cons 2
	push_b 6
	push_b 6
	pushB FALSE
	push_b 6
	push_b 4
	push_b 5
	push_a 4
	push_a 4
	push_a 4
	push_a 4
	update_a 4 9
	update_a 3 8
	update_a 2 7
	update_a 1 6
	updatepop_a 0 5
	update_b 5 12
	update_b 4 11
	update_b 3 10
	update_b 2 9
	update_b 1 8
	updatepop_b 0 7
.d 5 6 iibbf
	jmp s15
else.17
	push_b 1
	push_a 3
	select CHAR 0 1
	pushC '\n'
	push_b 1
	update_b 1 2
	update_b 0 1
	pop_b 1
	eqC
	jmp_true then.21
	push_b 1
	push_a 3
	select CHAR 0 1
	pushC '\r'
	push_b 1
	update_b 1 2
	update_b 0 1
	pop_b 1
	eqC
	jmp_false else.20
then.21
	push_b 2
	notB
	jmp_false else.20
	push_a 4
	push_a 1
	push_b 1
	push_a 3
	push_b 1
	push_a 6
	build_u e_Text.CSV_d_f2.109 3 2 e_Text.CSV_n_f2.109
	buildh _Cons 2
	pushI 1
	push_b 2
	addI
	push_a 4
	buildh _Nil 0
	update_a 0 3
	update_a 0 7
	update_a 0 5
	pop_a 1
	push_arraysize CHAR 0 1
	subI
	push_b 6
	push_b 6
	push_b 2
	update_b 2 3
	update_b 1 2
	update_b 0 1
	pop_b 1
	updatepop_a 0 5
	update_b 2 8
	update_b 1 7
	updatepop_b 0 6
.d 1 3 if
	rtn
else.20
	push_a 1
	jsr_eval 0
	pushC_a 2
	pop_a 1
	push_b 2
	push_a 3
	select CHAR 0 1
	eqC
	jmp_false else.23
	push_b 0
	push_b 2
	eqI
	jmp_false else.23
	pushI 1
	push_b 2
	addI
	push_b 6
	push_b 6
	push_a 4
	pushB FALSE
	pushB TRUE
	push_b 5
	push_a 4
	push_a 4
	push_a 4
	push_a 4
	push_b 5
	update_b 5 6
	update_b 4 5
	update_b 3 4
	update_b 2 3
	update_b 0 2
	pop_b 1
	update_a 4 9
	update_a 3 8
	update_a 2 7
	update_a 1 6
	updatepop_a 0 5
	update_b 5 11
	update_b 4 10
	update_b 3 9
	update_b 2 8
	update_b 1 7
	updatepop_b 0 6
.d 5 6 iibbf
	jmp s15
else.23
	push_b 1
	push_a 3
	select CHAR 0 1
	pushC_a 1
	push_b 1
	update_b 1 2
	update_b 0 1
	pop_b 1
	eqC
	jmp_false else.25
	push_b 2
	jmp_false else.25
	push_b 3
	notB
	jmp_false else.25
	pushI 1
	push_b 2
	addI
	push_b 6
	push_b 6
	push_a 4
	pushB FALSE
	pushB FALSE
	push_b 5
	push_a 4
	push_a 4
	push_a 4
	push_a 4
	push_b 5
	update_b 5 6
	update_b 4 5
	update_b 3 4
	update_b 2 3
	update_b 0 2
	pop_b 1
	update_a 4 9
	update_a 3 8
	update_a 2 7
	update_a 1 6
	updatepop_a 0 5
	update_b 5 11
	update_b 4 10
	update_b 3 9
	update_b 2 8
	update_b 1 7
	updatepop_b 0 6
.d 5 6 iibbf
	jmp s15
else.25
	push_a 0
	jsr_eval 0
	pushC_a 1
	pop_a 1
	push_b 2
	push_a 3
	select CHAR 0 1
	eqC
	jmp_false else.28
	push_b 3
	notB
	jmp_false else.28
	pushI 1
	push_b 2
	addI
	push_b 6
	push_b 6
	push_a 4
	pushB TRUE
	pushB FALSE
	push_b 5
	push_a 4
	push_a 4
	push_a 4
	push_a 4
	push_b 5
	update_b 5 6
	update_b 4 5
	update_b 3 4
	update_b 2 3
	update_b 0 2
	pop_b 1
	update_a 4 9
	update_a 3 8
	update_a 2 7
	update_a 1 6
	updatepop_a 0 5
	update_b 5 11
	update_b 4 10
	update_b 3 9
	update_b 2 8
	update_b 1 7
	updatepop_b 0 6
.d 5 6 iibbf
	jmp s15
else.28
	pushI 1
	push_b 2
	addI
	push_b 6
	push_b 6
	push_a 4
	pushB FALSE
	push_b 6
	push_b 5
	push_a 4
	push_a 4
	push_a 4
	push_a 4
	push_b 5
	update_b 5 6
	update_b 4 5
	update_b 3 4
	update_b 2 3
	update_b 0 2
	pop_b 1
	update_a 4 9
	update_a 3 8
	update_a 2 7
	update_a 1 6
	updatepop_a 0 5
	update_b 5 11
	update_b 4 10
	update_b 3 9
	update_b 2 8
	update_b 1 7
	updatepop_b 0 6
.d 5 6 iibbf
	jmp s15
.export e_Text.CSV_d_f2.109
.export e_Text.CSV_n_f2.109
.descn e_Text.CSV_d_f2.109 e_Text.CSV_n_f2.109 5 0 "_f2.109"
.nu 3 2 e_Text.CSV_d_f2.109 _
.o 1 0
e_Text.CSV_n_f2.109
	push_node_u _cycle_in_spine 3 2
.o 4 2 ii
ea109
.o 4 2 ii
s109
	push_a 1
	jsr_eval 0
	pushC_a 2
	pop_a 1
	push_b 1
	push_a 0
	select CHAR 0 1
	eqC
	push_a 1
	push_b 2
	push_a 1
	push_b 1
	update_b 1 2
	update_b 0 1
	pop_b 1
	update_a 2 3
	update_a 1 2
	updatepop_a 0 1
.d 2 2 bi
	jsr s61
.o 0 1 b
	push_b 2
	push_b 2
	push_a 0
	push_a 2
	push_b 2
	update_b 2 3
	update_b 1 2
	update_b 0 1
	pop_b 1
	update_a 1 3
	updatepop_a 0 2
	update_b 2 4
	update_b 1 3
	updatepop_b 0 2
.d 2 3 bii
	jsr s62
.o 1 0
	fillh ARRAY 1 1
.d 1 0
	rtn
.export e_Text.CSV_d_f1.108
.export e_Text.CSV_n_f1.108
.descn e_Text.CSV_d_f1.108 e_Text.CSV_n_f1.108 5 0 "_f1.108"
.nu 3 2 e_Text.CSV_d_f1.108 _
.o 1 0
e_Text.CSV_n_f1.108
	push_node_u _cycle_in_spine 3 2
.o 4 2 ii
ea108
.o 4 2 ii
s108
	push_a 1
	jsr_eval 0
	pushC_a 2
	pop_a 1
	push_b 1
	push_a 0
	select CHAR 0 1
	eqC
	push_a 1
	push_b 2
	push_a 1
	push_b 1
	update_b 1 2
	update_b 0 1
	pop_b 1
	update_a 2 3
	update_a 1 2
	updatepop_a 0 1
.d 2 2 bi
	jsr s59
.o 0 1 b
	push_b 2
	push_b 2
	push_a 0
	push_a 2
	push_b 2
	update_b 2 3
	update_b 1 2
	update_b 0 1
	pop_b 1
	update_a 1 3
	updatepop_a 0 2
	update_b 2 4
	update_b 1 3
	updatepop_b 0 2
.d 2 3 bii
	jsr s60
.o 1 0
	fillh ARRAY 1 1
.d 1 0
	rtn
.export e_Text.CSV_d_f0.107
.export e_Text.CSV_n_f0.107
.descn e_Text.CSV_d_f0.107 e_Text.CSV_n_f0.107 5 0 "_f0.107"
.nu 3 2 e_Text.CSV_d_f0.107 _
.o 1 0
e_Text.CSV_n_f0.107
	push_node_u _cycle_in_spine 3 2
.o 4 2 ii
ea107
.o 4 2 ii
s107
	push_a 1
	jsr_eval 0
	pushC_a 2
	pop_a 1
	push_b 1
	push_a 0
	select CHAR 0 1
	eqC
	push_a 1
	push_b 2
	push_a 1
	push_b 1
	update_b 1 2
	update_b 0 1
	pop_b 1
	update_a 2 3
	update_a 1 2
	updatepop_a 0 1
.d 2 2 bi
	jsr s57
.o 0 1 b
	push_b 2
	push_b 2
	push_a 0
	push_a 2
	push_b 2
	update_b 2 3
	update_b 1 2
	update_b 0 1
	pop_b 1
	update_a 1 3
	updatepop_a 0 2
	update_b 2 4
	update_b 1 3
	updatepop_b 0 2
.d 2 3 bii
	jsr s58
.o 1 0
	fillh ARRAY 1 1
.d 1 0
	rtn
.o 2 3 bii
s62
	eqB_b TRUE 0
	jmp_true case.30
	jmp case.31
case.30
	pushI 2
	push_b 3
	subI
	pushI 1
	push_b 3
	addI
	push_a 1
	update_b 1 4
	updatepop_b 0 3
	update_a 1 2
	updatepop_a 0 1
.d 1 2 ii
	jsr sliceAC
.o 1 0
	push_a 1
	update_a 1 2
	updatepop_a 0 1
.d 2 0
	jmp s33
case.31
	pushI 1
	push_b 3
	subI
	push_b 2
	push_a 1
	update_b 1 4
	updatepop_b 0 3
	update_a 1 2
	updatepop_a 0 1
.d 1 2 ii
	jsr sliceAC
.o 1 0
	push_a 1
	update_a 1 2
	updatepop_a 0 1
.d 2 0
	jmp s33
.o 2 2 bi
s61
	eqB_b TRUE 0
	jmp_true case.32
	jmp case.33
case.32
	push_a 1
	jsr_eval 0
	pushC_a 2
	pop_a 1
	pushI 1
	push_b 3
	subI
	push_a 0
	updatepop_a 0 2
	select CHAR 0 1
	update_b 1 3
	updatepop_b 0 2
	eqC
.d 0 1 b
	rtn
case.33
	pop_a 2
	pop_b 2
	pushB FALSE
.d 0 1 b
	rtn
.o 2 3 bii
s60
	eqB_b TRUE 0
	jmp_true case.34
	jmp case.35
case.34
	pushI 2
	push_b 3
	subI
	pushI 1
	push_b 3
	addI
	push_a 1
	update_b 1 4
	updatepop_b 0 3
	update_a 1 2
	updatepop_a 0 1
.d 1 2 ii
	jsr sliceAC
.o 1 0
	push_a 1
	update_a 1 2
	updatepop_a 0 1
.d 2 0
	jmp s33
case.35
	pushI 1
	push_b 3
	subI
	push_b 2
	push_a 1
	update_b 1 4
	updatepop_b 0 3
	update_a 1 2
	updatepop_a 0 1
.d 1 2 ii
	jsr sliceAC
.o 1 0
	push_a 1
	update_a 1 2
	updatepop_a 0 1
.d 2 0
	jmp s33
.o 2 2 bi
s59
	eqB_b TRUE 0
	jmp_true case.36
	jmp case.37
case.36
	push_a 1
	jsr_eval 0
	pushC_a 2
	pop_a 1
	pushI 1
	push_b 3
	subI
	push_a 0
	updatepop_a 0 2
	select CHAR 0 1
	update_b 1 3
	updatepop_b 0 2
	eqC
.d 0 1 b
	rtn
case.37
	pop_a 2
	pop_b 2
	pushB FALSE
.d 0 1 b
	rtn
.o 2 3 bii
s58
	eqB_b TRUE 0
	jmp_true case.38
	jmp case.39
case.38
	pushI 2
	push_b 3
	subI
	pushI 1
	push_b 3
	addI
	push_a 1
	update_b 1 4
	updatepop_b 0 3
	update_a 1 2
	updatepop_a 0 1
.d 1 2 ii
	jsr sliceAC
.o 1 0
	push_a 1
	update_a 1 2
	updatepop_a 0 1
.d 2 0
	jmp s33
case.39
	pushI 1
	push_b 3
	subI
	push_b 2
	push_a 1
	update_b 1 4
	updatepop_b 0 3
	update_a 1 2
	updatepop_a 0 1
.d 1 2 ii
	jsr sliceAC
.o 1 0
	push_a 1
	update_a 1 2
	updatepop_a 0 1
.d 2 0
	jmp s33
.o 2 2 bi
s57
	eqB_b TRUE 0
	jmp_true case.40
	jmp case.41
case.40
	push_a 1
	jsr_eval 0
	pushC_a 2
	pop_a 1
	pushI 1
	push_b 3
	subI
	push_a 0
	updatepop_a 0 2
	select CHAR 0 1
	update_b 1 3
	updatepop_b 0 2
	eqC
.d 0 1 b
	rtn
case.41
	pop_a 2
	pop_b 2
	pushB FALSE
.d 0 1 b
	rtn
.o 2 0
s33
	push_a 1
	push_a 0
	push_arraysize CHAR 0 1
	push_a 2
	buildh _Nil 0
	update_a 0 4
	pop_a 1
	push_a 0
	push_arraysize CHAR 0 1
	pushI 1
	push_b 1
	subI
	create
	push_a 1
	buildh ARRAY 1
	pushI 0
	update_b 1 2
	updatepop_b 0 1
	update_a 1 2
	updatepop_a 0 1
.d 2 2 ii
	jsr s30
.o 1 0
	create
	push_a 3
	push_a 2
	update_a 2 3
	update_a 0 2
	pop_a 1
.d 3 0
	jsr s32
.o 1 0
	pushI 1
	push_b 1
	subI
	create
	push_a 2
	buildh ARRAY 1
	pushI 0
	update_b 1 2
	updatepop_b 0 1
	buildh _Nil 0
	update_a 0 4
	pop_a 1
.d 2 2 ii
	jsr s29
.o 1 0
	create
	push_a 4
	push_a 2
	update_a 2 3
	update_a 0 2
	pop_a 1
	buildh _Nil 0
	update_a 0 6
	pop_a 1
.d 3 0
	jsr s32
.o 1 0
	pushI 0
.d 1 1 i
	jsr s27
.o 0 1 i
	create_array_ CHAR 0 1
	buildI 0
	push_a 1
	update_a 1 2
	update_a 0 1
	pop_a 1
	update_a 2 5
	update_a 1 4
	updatepop_a 0 3
.d 3 0
	jmp s34
.o 3 0
s34
	push_a 1
	push_a 1
	push_a 4
	update_a 2 5
	update_a 1 4
	updatepop_a 0 3
.d 3 0
	jmp s56
.o 3 0
s56
	eq_desc _Cons 2 0
	jmp_true case.42
	jmp case.43
case.42
	repl_args 2 2
	push_a 1
	jsr_eval 0
	push_a 4
	build e_Text.CSV_d_f5.112 1 e_Text.CSV_n_f5.112
	push_a 2
	jsr_eval 0
	pushC_a 3
	pop_a 1
	push_a 5
	jsr_eval 0
	pushI_a 6
	pop_a 1
	push_a 4
	buildh _Nil 0
	update_a 0 6
	update_a 0 7
	update_a 0 4
	update_a 0 5
	pop_a 1
	update CHAR 0 1
	update_a 2 6
	update_a 1 5
	updatepop_a 0 4
.d 3 0
	jmp s34
case.43
	updatepop_a 1 2
.d 1 0
	rtn
.export e_Text.CSV_d_f5.112
.export e_Text.CSV_n_f5.112
.descn e_Text.CSV_d_f5.112 e_Text.CSV_n_f5.112 1 0 "_f5.112"
.n 1 e_Text.CSV_d_f5.112 ea112
.o 1 0
e_Text.CSV_n_f5.112
	push_node _cycle_in_spine 1
.o 2 0
ea112
.o 2 0
s112
	pushI 1
	push_a 0
	jsr_eval 0
	pushI_a 1
	pop_a 1
	pop_a 1
	addI
	fillI_b 0 0
	pop_b 1
.d 1 0
	rtn
.export e_Text.CSV_dunescape`;81.32
.export e_Text.CSV_nunescape`;81.32
.descn e_Text.CSV_dunescape`;81.32 e_Text.CSV_nunescape`;81.32 2 0 "unescape`;81.32"
.n 2 e_Text.CSV_dunescape`;81.32 ea32
.o 1 0
e_Text.CSV_nunescape`;81.32
	push_node _cycle_in_spine 2
.o 3 0
ea32
.o 3 0
s32
	eq_desc _Cons 2 1
	jmp_true case.44
	jmp case.45
case.44
	push_args 1 2 2
	buildh _Nil 0
	update_a 0 4
	pop_a 1
	jsr_eval 1
	eq_desc _Cons 2 1
	jmp_true case.46
	jmp case.47
case.46
	push_args 1 2 2
	buildh _Nil 0
	update_a 0 4
	pop_a 1
	push_a 4
	jsr_eval 0
	pushC_a 5
	pop_a 1
	push_a 2
	jsr_eval 0
	pushC_a 3
	pop_a 1
	eqC
	jmp_false else.48
	push_a 1
	push_a 1
	buildh _Cons 2
	push_a 5
	update_a 1 7
	updatepop_a 0 6
.d 3 0
	jmp s32
else.48
	push_a 1
	push_a 1
	buildh _Cons 2
	push_a 5
	build e_Text.CSV_dunescape`;81.32 2 e_Text.CSV_nunescape`;81.32
	push_a 3
	fillh _Cons 2 8
	pop_a 6
.d 1 0
	rtn
case.47
	buildh _Nil 0
	push_a 1
	fillh _Cons 2 6
	pop_a 4
.d 1 0
	rtn
case.45
	fillh _Nil 0 2
	pop_a 2
.d 1 0
	rtn
.o 2 2 ii
s29
	push_b 0
	push_b 2
	ltI
	notB
	jmp_false else.49
	push_b 0
	push_array 0
	updatepop_a 0 1
	push_a 0
	select CHAR 0 1
	push_a 0
	buildh ARRAY 1
	push_a 0
	push_b 2
	push_b 2
	build_u e_Text.CSV_d_f4.111 1 2 e_Text.CSV_n_f4.111
	buildC_b 0
	fillh _Cons 2 4
	pop_a 2
	pop_b 3
.d 1 0
	rtn
else.49
	fillh _Nil 0 1
	pop_a 1
	pop_b 2
.d 1 0
	rtn
.export e_Text.CSV_d_f4.111
.export e_Text.CSV_n_f4.111
.descn e_Text.CSV_d_f4.111 e_Text.CSV_n_f4.111 3 0 "_f4.111"
.nu 1 2 e_Text.CSV_d_f4.111 _
.o 1 0
e_Text.CSV_n_f4.111
	push_node_u _cycle_in_spine 1 2
.o 2 2 ii
ea111
.o 2 2 ii
s111
	pushI 1
	push_b 1
	addI
	push_a 0
	push_b 2
	push_b 1
	update_b 1 2
	update_b 0 1
	pop_b 1
	updatepop_a 0 1
	update_b 1 3
	updatepop_b 0 2
.d 2 2 ii
	jmp s29
.o 2 2 ii
s30
	push_b 0
	push_b 2
	ltI
	notB
	jmp_false else.50
	push_b 0
	push_array 0
	updatepop_a 0 1
	push_a 0
	select CHAR 0 1
	push_a 0
	buildh ARRAY 1
	push_a 0
	push_b 2
	push_b 2
	build_u e_Text.CSV_d_f3.110 1 2 e_Text.CSV_n_f3.110
	buildC_b 0
	fillh _Cons 2 4
	pop_a 2
	pop_b 3
.d 1 0
	rtn
else.50
	fillh _Nil 0 1
	pop_a 1
	pop_b 2
.d 1 0
	rtn
.export e_Text.CSV_d_f3.110
.export e_Text.CSV_n_f3.110
.descn e_Text.CSV_d_f3.110 e_Text.CSV_n_f3.110 3 0 "_f3.110"
.nu 1 2 e_Text.CSV_d_f3.110 _
.o 1 0
e_Text.CSV_n_f3.110
	push_node_u _cycle_in_spine 1 2
.o 2 2 ii
ea110
.o 2 2 ii
s110
	pushI 1
	push_b 1
	addI
	push_a 0
	push_b 2
	push_b 1
	update_b 1 2
	update_b 0 1
	pop_b 1
	updatepop_a 0 1
	update_b 1 3
	updatepop_b 0 2
.d 2 2 ii
	jmp s30
.o 1 1 i
s27
	push_b 0
	push_a 0
	updatepop_a 0 1
	updatepop_b 0 1
.d 1 1 i
	jmp s55
.o 1 1 i
s55
	eq_desc _Cons 2 0
	jmp_true case.51
	jmp case.52
case.51
	repl_args 2 2
	pop_a 1
	push_a 0
	jsr_eval 0
	pushI 1
	push_b 1
	addI
	updatepop_a 0 1
	updatepop_b 0 1
.d 1 1 i
	jmp s27
case.52
	pop_a 1
.d 0 1 i
	rtn
.o 2 5 fccc
s106
	eq_desc _Nothing 0 0
	jmp_true case.53
	jmp case.54
case.53
	create
	push_a 2
	update_a 1 3
	updatepop_a 0 2
.d 2 0
	jsr e_StdList_sreverse
.o 1 0
	push_b 1
	push_b 1
	update_b 1 6
	updatepop_b 0 5
.d 1 2 f
	rtn
case.54
	repl_args 1 1
	push_a 1
	push_a 1
	buildh _Cons 2
	push_b 1
	push_b 1
	push_b 6
	push_b 6
	push_b 6
	updatepop_a 0 2
	update_b 4 9
	update_b 3 8
	update_b 2 7
	update_b 1 6
	updatepop_b 0 5
.d 1 5 cccf
	jmp s16
