.comp 920 000011110011000
.start _nostart_
.depend "System._Architecture" "20210613122637"
.depend "Data.Integer.Add" "20210613122637"
.depend "StdCharList" "20210613122638"
.depend "_SystemArray" "20210613122638"
.depend "StdArray" "20210613122638"
.depend "StdEnv" "20210613122638"
.depend "_SystemEnum" "20210613122638"
.depend "StdEnum" "20210613122638"
.depend "StdTuple" "20210613122638"
.depend "StdOrdList" "20210613122638"
.depend "Data.GenDefault" "20210613122637"
.depend "Data.Integer" "20210613122637"
.depend "StdFile" "20210613122638"
.depend "StdString" "20210613122638"
.depend "StdMisc" "20210613122638"
.depend "Data.GenLexOrd" "20210613122637"
.depend "StdFunctions" "20210613122638"
.depend "_SystemEnumStrict" "20210613122638"
.depend "_SystemStrictLists" "20210613122638"
.depend "StdStrictLists" "20210613122638"
.depend "StdGeneric" "20210613122638"
.depend "Data.GenEq" "20210613122637"
.depend "StdReal" "20210613122638"
.depend "StdChar" "20210613122638"
.depend "StdInt" "20210613122638"
.depend "StdBool" "20210613122638"
.depend "StdClass" "20210613122638"
.depend "StdList" "20210613122638"
.depend "StdOverloaded" "20210613122638"
.depend "_SystemDynamic" "20210613122638"
.depend "Data.Integer.Div" "20210613122637"
.module m_Data.Integer.Div "Data.Integer.Div" "20210613122637"
.endinfo
.impmod _system
.implab _cycle_in_spine
.implab _type_error
.implab _hnf
.impdesc e_system_dind
.implab e_system_nind e_system_eaind
.impdesc e_system_dif
.implab e_system_nif e_system_eaif
.implab e_system_sif
.impdesc e_system_dAP
.implab e_system_nAP e_system_eaAP
.implab e_system_sAP
.impdesc ARRAY
.impdesc _Nil
.impdesc _Cons
.impdesc _Conss
.implab n_Conss ea_Conss
.impdesc _Consts
.implab n_Consts ea_Consts
.impdesc _Conssts
.implab n_Conssts ea_Conssts
.impdesc _Tuple
.impdesc d_S.1
.implab n_S.1 ea_S.1
.impdesc d_S.2
.implab n_S.2 ea_S.2
.impdesc d_S.3
.implab n_S.3 ea_S.3
.impdesc d_S.4
.implab n_S.4 ea_S.4
.impdesc d_S.5
.implab n_S.5 ea_S.5
.impdesc d_S.6
.implab n_S.6 ea_S.6
.implab _driver
.impmod Data.Integer.Add
.implab e_Data.Integer.Add_sadd_integer
.implab e_Data.Integer.Add_ssub_integer
.impmod _SystemArray
.impmod StdString
.implab e_StdString_stoString;5
.implab e_StdString_s+++;11
.impmod StdMisc
.implab e_StdMisc_sabort
.impmod StdInt
.implab e_StdInt_sbitor
.implab e_StdInt_sbitand
.implab e_StdInt_sbitxor
.implab e_StdInt_s<<
.implab e_StdInt_sbitnot
.implab e_StdInt_s+;6
.impdesc e_StdInt_d-;7
.implab e_StdInt_s-;7
.implab e_StdInt_n-;7
.implab e_StdInt_s*;9
.implab e_StdInt_s/;10
.implab e_StdInt_sone;11
.implab e_StdInt_s~;15
.implab e_StdInt_s==;16
.implab e_StdInt_s<;17
.implab e_StdInt_srem;28
.impmod StdBool
.implab e_StdBool_snot
.impmod Data.Integer
.impdesc e_Data.Integer_rInteger
.export e_Data.Integer.Div_sdiv_rem_integer_a
.descexp e_Data.Integer.Div_ddiv_rem_integer_a e_Data.Integer.Div_ndiv_rem_integer_a e_Data.Integer.Div_ldiv_rem_integer_a 2 0 "div_rem_integer_a"
.a 0 a8
.o 2 0 
e_Data.Integer.Div_ldiv_rem_integer_a
	repl_args 1 1
.o 2 0 
a8
.d 2 0 
	jsr ea8
.o 2 1 i
	build_r e_Data.Integer_rInteger 1 1 1 0
	push_a 1
	buildh ARRAY 1
	buildh _Tuple 2
	updatepop_a 0 2
.d 1 0 
	pop_b_rtn 1
.n 2 e_Data.Integer.Div_ddiv_rem_integer_a
.o 1 0 
e_Data.Integer.Div_ndiv_rem_integer_a
	push_node _cycle_in_spine 2
.d 2 0 
	jsr ea8
.o 2 1 i
	build_r e_Data.Integer_rInteger 1 1 1 0
	push_a 1
	buildh ARRAY 1
	fillh _Tuple 2 4
.d 1 0 
	pop_ab_rtn 2 1
.o 2 0 
ea8
	jsr_eval 1
	jsr_eval 0
	push_array 1
	push_array 1
	update2pop_a 0 2
.o 2 0 
e_Data.Integer.Div_sdiv_rem_integer_a
.o 2 0 
s8
	push_arraysize_a INT 0 1 0
	pushI 0
	jmp_geI else.1
	push_arraysize_a INT 0 1 1
	pushI 1
	jmp_geI else.2
	push_arraysize_a INT 0 1 1
	push_arraysize_a INT 0 1 0
	jmp_ltI else.3
	push2_a 1
.d 2 0 
	jsr s31
.o 0 1 b
	jmp_false else.4
	push_arraysize_a INT 0 1 1
	push_arraysize_a INT 0 1 0
	jmp_neI else.5
	buildAC "div_rem_integer_a 1"
	updatepop_a 0 2
.d 1 0 
	jsr print_string_
.o 0 0 
	halt
	repl_args 2 2
	jsr_eval 1
	jsr_eval 0
	push_r_args 1 1 1
	push_array 1
	update2pop_a 0 2
.d 2 1 i
	rtn 
else.5
	push_a 1
	buildh ARRAY 1
	put_a 2
.d 2 0 
	jsr s192
.o 2 0 
	push_arraysize_a INT 0 1 0
	push_array 1
	push_a 0
	buildh0_put_a _Nil 4
	push_arraysize INT 0 1
.d 0 1 i
	push_b_jsr 0 s19
.o 1 0 
	push_b_decI 1
	push_a2 1 2
	buildh0_dup2_a _Nil 4
.d 2 1 i
	pop_a_jsr 1 s29
.o 1 0 
	push_b 0
	pushI 0
	update2pop_a 0 3
.d 2 2 ii
	jsr s48
.o 2 0 
	swap_a1 
.d 1 0 
	jsr s11
.o 1 1 i
	push_ab 1 1
.d 1 1 i
	buildh0_put_a_jsr _Nil 3 s43
.o 1 0 
	update2pop_a 0 1
	updatepop_b 0 2
.d 2 1 i
	rtn 
else.4
	push_arraysize_a INT 0 1 1
	push_arraysize_a INT 0 1 0
	subI
	push_b 0
	pushI 1
	jmp_ltI else.6
	jmp_neI_b 0 0 else.7
	put_a 1
.d 1 0 
	pop_b_jsr 1 s46
.o 1 0 
	pushI 0
	pushI 0
	create_array_ INT 0 1
.d 2 1 i
	rtn 
else.7
	buildAC "div_rem_integer_a 1"
	updatepop_a 0 2
.d 1 0 
	pop_b_jsr 1 print_string_
.o 0 0 
	halt
	repl_args 2 2
	jsr_eval 1
	jsr_eval 0
	push_r_args 1 1 1
	push_array 1
	update2pop_a 0 2
.d 2 1 i
	rtn 
else.6
	push_a 0
	pop_b 1
	push_arraysize INT 0 1
	push_arraysize_a INT 0 1 1
.d 0 1 i
	push_b_jsr 0 s19
.o 1 0 
	push_b_decI 1
	push2_a 2
	buildh0_dup2_a _Nil 4
.d 2 1 i
	pop_a_jsr 1 s29
.o 1 0 
	push_b 0
	pushI 0
	update2pop_a 0 2
.d 2 2 ii
	jsr s48
.o 2 0 
	swap_a1 
.d 1 0 
	jsr s11
.o 1 1 i
	push_ab 1 1
.d 1 1 i
	buildh0_put_a_jsr _Nil 3 s43
.o 1 0 
	update2pop_a 0 1
	updatepop_b 0 2
.d 2 1 i
	rtn 
else.3
	put_a 1
.d 1 0 
	jsr s46
.o 1 0 
	pushI 0
	pushI 0
	create_array_ INT 0 1
.d 2 1 i
	rtn 
else.2
	push_arraysize_a INT 0 1 1
	jmp_neIi 1 else.8
	pushI 0
	swap_a1 
	select INT 0 1
.d 1 1 i
	jsr s30
.o 1 1 i
.d 0 1 i
	jsr s23
.o 1 1 i
	swap_a1 
.d 2 1 i
	rtn 
else.8
	buildAC "div_rem_integer_a 1"
	updatepop_a 0 2
.d 1 0 
	jsr print_string_
.o 0 0 
	halt
	repl_args 2 2
	jsr_eval 1
	jsr_eval 0
	push_r_args 1 1 1
	push_array 1
	update2pop_a 0 2
.d 2 1 i
	rtn 
else.1
	buildAC "div_rem_integer_a 2"
	updatepop_a 0 2
.d 1 0 
	jsr print_string_
.o 0 0 
	halt
	repl_args 2 2
	jsr_eval 1
	jsr_eval 0
	push_r_args 1 1 1
	push_array 1
	update2pop_a 0 2
.d 2 1 i
	rtn 
.export e_Data.Integer.Div_sdiv_integer_a
.descexp e_Data.Integer.Div_ddiv_integer_a e_Data.Integer.Div_ndiv_integer_a e_Data.Integer.Div_ldiv_integer_a 2 0 "div_integer_a"
.a 0 a7
.o 2 0 
e_Data.Integer.Div_ldiv_integer_a
	repl_args 1 1
.o 2 0 
a7
.d 2 0 
	jsr ea7
.o 1 0 
	buildh ARRAY 1
.d 1 0 
	rtn 
.n 2 e_Data.Integer.Div_ddiv_integer_a
.o 1 0 
e_Data.Integer.Div_ndiv_integer_a
	push_node _cycle_in_spine 2
.d 2 0 
	jsr ea7
.o 1 0 
	fillh ARRAY 1 1
.d 1 0 
	rtn 
.o 2 0 
ea7
	jsr_eval 1
	jsr_eval 0
	push_array 1
	push_array 1
	update2pop_a 0 2
.o 2 0 
e_Data.Integer.Div_sdiv_integer_a
.o 2 0 
s7
	push_arraysize_a INT 0 1 0
	pushI 0
	jmp_geI else.9
	push_arraysize_a INT 0 1 1
	pushI 1
	jmp_geI else.10
	push_arraysize_a INT 0 1 1
	push_arraysize_a INT 0 1 0
	jmp_ltI else.11
	push2_a 1
.d 2 0 
	jsr s31
.o 0 1 b
	jmp_false else.12
	push_arraysize_a INT 0 1 1
	push_arraysize_a INT 0 1 0
	jmp_neI else.13
.d 2 0 
	jmp s62
else.13
	pushI 0
.d 2 1 i
	jsr s191
.o 2 0 
	push_arraysize_a INT 0 1 0
	decI
	push_update_a 0 1
.d 2 1 i
	jsr s26
.o 1 0 
	push_a 1
	buildh0_put_a _Nil 3
	push_arraysize INT 0 1
.d 1 1 i
	put_a_jmp 1 s43
else.12
	push_arraysize_a INT 0 1 1
	push_arraysize_a INT 0 1 0
	subI
	push_b 0
	pushI 1
	jmp_ltI else.14
	jmp_neI_b 0 0 else.15
	pop_b 1
	pushI 0
	pop_a 2
	create_array_ INT 0 1
.d 1 0 
	rtn 
else.15
.d 2 0 
	pop_b_jmp 1 s63
else.14
	push_a 0
	pop_b 1
	push_arraysize INT 0 1
	decI
	push_update_a 0 1
.d 2 1 i
	jsr s26
.o 1 0 
	push_a 1
	buildh0_put_a _Nil 3
	push_arraysize INT 0 1
.d 1 1 i
	put_a_jmp 1 s43
else.11
	pushI 0
	pop_a 2
	create_array_ INT 0 1
.d 1 0 
	rtn 
else.10
	push_arraysize_a INT 0 1 1
	jmp_neIi 1 else.16
	pushI 0
	swap_a1 
	select INT 0 1
.d 1 1 i
	jsr s30
.o 1 1 i
.d 1 0 
	pop_b_rtn 1
else.16
	buildAC "div_integer_a 2"
	updatepop_a 0 2
.d 1 0 
	jsr print_string_
.o 0 0 
	halt
	push_array 0
	put_a 1
.d 1 0 
	rtn 
else.9
	buildAC "error in div_integer_a\n"
	updatepop_a 0 2
.d 1 0 
	jsr print_string_
.o 0 0 
	halt
	push_array 0
	put_a 1
.d 1 0 
	rtn 
.o 2 0 
s63
	push_arraysize_a INT 0 1 0
	push_b_decI 0
	push_a 0
	select INT 0 1
	push_b_decI 1
	decI
	push_a 0
	select INT 0 1
	pushI 3
	push_b 3
	subI
	push_a 0
	select INT 0 1
.d 1 0 
	push_a_jsr 1 s190
.o 0 2 ii
	updates3_b 0 4 1 5
	push_b 3
	updates2_b 0 3 4
.d 0 5 iiiii
	pop_b_jsr 2 s25
.o 0 2 bi
	jmp_b_false 0 else.17
	pop_b 1
	pushI 1
	pop_a 2
	create_array_ INT 0 1
	pushI 0
	update INT 0 1
.d 1 0 
	rtn 
else.17
	push_a 1
	pop_b 2
	push_arraysize INT 0 1
	push_arraysize_a INT 0 1 0
	push_b_decI 0
	update_b 2 1
.d 2 2 ii
	jsr s27
.o 1 0 
.d 1 1 i
	jmp s43
.o 2 0 
s62
.d 1 0 
	push_a_jsr 0 s189
.o 0 3 iii
.d 1 0 
	push_a_jsr 1 s190
.o 0 2 ii
	push_b 2
	updates2_b 2 5 3
	updates3pop_b 0 1 4 2
.d 0 5 iiiii
	jsr s25
.o 0 2 bi
	jmp_b_false 0 else.18
	pop_b 1
	pushI 1
	pop_a 2
	create_array_ INT 0 1
	pushI 0
	update INT 0 1
.d 1 0 
	rtn 
else.18
	push_a 1
	buildh ARRAY 1
	put_a 2
.d 2 0 
	pop_b_jsr 2 s192
.o 2 0 
	push_array 1
	push_a 0
	buildh0_put_a _Nil 4
	push_arraysize INT 0 1
	push_arraysize_a INT 0 1 1
	push_b_decI 0
	put_a 2
	update_b 2 1
.d 2 2 ii
	jsr s27
.o 1 0 
.d 1 1 i
	jmp s43
.export e_Data.Integer.Div_sfloordiv_mod_integer
.descexp e_Data.Integer.Div_dfloordiv_mod_integer e_Data.Integer.Div_nfloordiv_mod_integer e_Data.Integer.Div_lfloordiv_mod_integer 2 0 "floordiv_mod_integer"
.a 0 a6
.o 2 0 
e_Data.Integer.Div_lfloordiv_mod_integer
	repl_args 1 1
.o 2 0 
a6
.d 2 0 
	jsr ea6
.o 2 2 ii
	build_r e_Data.Integer_rInteger 1 1 1 1
	build_r e_Data.Integer_rInteger 1 1 1 0
	buildh _Tuple 2
	updatepop_a 0 2
.d 1 0 
	pop_b_rtn 2
.n 2 e_Data.Integer.Div_dfloordiv_mod_integer
.o 1 0 
e_Data.Integer.Div_nfloordiv_mod_integer
	push_node _cycle_in_spine 2
.d 2 0 
	jsr ea6
.o 2 2 ii
	build_r e_Data.Integer_rInteger 1 1 1 1
	build_r e_Data.Integer_rInteger 1 1 1 0
	fillh _Tuple 2 4
.d 1 0 
	pop_ab_rtn 2 2
.o 2 0 
ea6
	jsr_eval 1
	jsr_eval 0
	push_r_args 1 1 1
	push_r_args 1 1 1
	update2pop_a 0 2
.o 2 2 ii
e_Data.Integer.Div_sfloordiv_mod_integer
.o 2 2 ii
s6
	push2_b 1
	xor%
	pushI 0
	swap_b1 
	jmp_ltI else.19
.d 2 2 ii
	jmp s3
else.19
	push_update_a 0 1
	push_b 0
	update_b 2 1
.d 2 2 ii
	jsr s3
.o 2 2 ii
	jmp_neI_b 0 1 else.20
	push_arraysize_a INT 0 1 1
	jmp_neIi 0 else.20
	update2pop_a 0 1
	update2pop_b 0 1
.d 2 2 ii
	rtn 
else.20
	push_a 1
	updates3pop_a 0 1 3 2
	push2_b 2
.d 2 2 ii
	jsr e_Data.Integer.Add_sadd_integer
.o 1 1 i
	pushI 0
	create_array_ INT 0 1
	pushI 1
	push_ab 2 2
.d 2 2 ii
	buildh0_put_a_jsr _Nil 4 e_Data.Integer.Add_ssub_integer
.o 1 1 i
	update2pop_a 0 1
	update2pop_b 0 3
.d 2 2 ii
	rtn 
.export e_Data.Integer.Div_smod_integer
.descexp e_Data.Integer.Div_dmod_integer e_Data.Integer.Div_nmod_integer e_Data.Integer.Div_lmod_integer 2 0 "mod_integer"
.a 0 a5
.o 2 0 
e_Data.Integer.Div_lmod_integer
	repl_args 1 1
.o 2 0 
a5
.d 2 0 
	jsr ea5
.o 1 1 i
	buildhr e_Data.Integer_rInteger 1 1
.d 1 0 
	rtn 
.n 2 e_Data.Integer.Div_dmod_integer
.o 1 0 
e_Data.Integer.Div_nmod_integer
	push_node _cycle_in_spine 2
.d 2 0 
	jsr ea5
.o 1 1 i
	fill_r e_Data.Integer_rInteger 1 1 1 0 0
.d 1 0 
	pop_ab_rtn 1 1
.o 2 0 
ea5
	jsr_eval 1
	jsr_eval 0
	push_r_args 1 1 1
	push_r_args 1 1 1
	update2pop_a 0 2
.o 2 2 ii
e_Data.Integer.Div_smod_integer
.o 2 2 ii
s5
	push2_b 1
	xor%
	pushI 0
	swap_b1 
	jmp_ltI else.22
.d 2 2 ii
	jmp s2
else.22
	push_update_a 0 1
	push_b 0
	update_b 2 1
.d 2 2 ii
	jsr s2
.o 1 1 i
	jmp_neI_b 0 0 else.23
	push_arraysize_a INT 0 1 0
	jmp_neIi 0 else.23
	put_a 1
	put_b 1
.d 1 1 i
	rtn 
else.23
.d 2 2 ii
	jmp e_Data.Integer.Add_sadd_integer
.export e_Data.Integer.Div_sfloordiv_integer
.descexp e_Data.Integer.Div_dfloordiv_integer e_Data.Integer.Div_nfloordiv_integer e_Data.Integer.Div_lfloordiv_integer 2 0 "floordiv_integer"
.a 0 a4
.o 2 0 
e_Data.Integer.Div_lfloordiv_integer
	repl_args 1 1
.o 2 0 
a4
.d 2 0 
	jsr ea4
.o 1 1 i
	buildhr e_Data.Integer_rInteger 1 1
.d 1 0 
	rtn 
.n 2 e_Data.Integer.Div_dfloordiv_integer
.o 1 0 
e_Data.Integer.Div_nfloordiv_integer
	push_node _cycle_in_spine 2
.d 2 0 
	jsr ea4
.o 1 1 i
	fill_r e_Data.Integer_rInteger 1 1 1 0 0
.d 1 0 
	pop_ab_rtn 1 1
.o 2 0 
ea4
	jsr_eval 1
	jsr_eval 0
	push_r_args 1 1 1
	push_r_args 1 1 1
	update2pop_a 0 2
.o 2 2 ii
e_Data.Integer.Div_sfloordiv_integer
.o 2 2 ii
s4
	push2_b 1
	xor%
	pushI 0
	swap_b1 
	jmp_ltI else.25
.d 2 2 ii
	jmp s1
else.25
.d 2 2 ii
	jsr s3
.o 2 2 ii
	jmp_neI_b 0 1 else.26
	push_a 1
	buildh0_put_a _Nil 3
	push_arraysize INT 0 1
	jmp_neIi 0 else.26
	put_a 1
	put_b 1
.d 1 1 i
	rtn 
else.26
	pushI 0
	put_a 1
	create_array_ INT 0 1
	pushI 1
	swap_a1 
.d 2 2 ii
	put_b_jmp 2 e_Data.Integer.Add_ssub_integer
.export e_Data.Integer.Div_sdiv_rem_integer
.descexp e_Data.Integer.Div_ddiv_rem_integer e_Data.Integer.Div_ndiv_rem_integer e_Data.Integer.Div_ldiv_rem_integer 2 0 "div_rem_integer"
.a 0 a3
.o 2 0 
e_Data.Integer.Div_ldiv_rem_integer
	repl_args 1 1
.o 2 0 
a3
.d 2 0 
	jsr ea3
.o 2 2 ii
	build_r e_Data.Integer_rInteger 1 1 1 1
	build_r e_Data.Integer_rInteger 1 1 1 0
	buildh _Tuple 2
	updatepop_a 0 2
.d 1 0 
	pop_b_rtn 2
.n 2 e_Data.Integer.Div_ddiv_rem_integer
.o 1 0 
e_Data.Integer.Div_ndiv_rem_integer
	push_node _cycle_in_spine 2
.d 2 0 
	jsr ea3
.o 2 2 ii
	build_r e_Data.Integer_rInteger 1 1 1 1
	build_r e_Data.Integer_rInteger 1 1 1 0
	fillh _Tuple 2 4
.d 1 0 
	pop_ab_rtn 2 2
.o 2 0 
ea3
	jsr_eval 1
	jsr_eval 0
	push_r_args 1 1 1
	push_r_args 1 1 1
	update2pop_a 0 2
.o 2 2 ii
e_Data.Integer.Div_sdiv_rem_integer
.o 2 2 ii
s3
	push_arraysize_a INT 0 1 0
	jmp_neIi 0 else.28
	update_a 1 0
	push_arraysize INT 0 1
	jmp_neIi 0 else.29
	pushI -9223372036854775808
	push_b 1
	jmp_neI then.30
	jmp_eqI_b -1 1 else.30
then.30
	push2_b 1
	pop_a 1
	divI
	pushI 0
	create_array_ INT 0 1
	push_b2 2 0
	mulI
	push_b 2
	subI
	pushI 0
	create_array_ INT 0 1
	update_b 0 3
	updatepop_b 1 2
.d 2 2 ii
	rtn 
else.30
	pop_b 2
	pushI 0
	pop_a 1
	create_array_ INT 0 1
	pushI 0
	pushI 1
	create_array_ INT 0 1
	pushI -9223372036854775808
	pushI 0
	update INT 0 1
	pushI 0
.d 2 2 ii
	rtn 
else.29
	push_arraysize_a INT 0 1 0
	jmp_neIi 1 else.32
	pushI 0
	select INT 0 1
	pushI -9223372036854775808
	jmp_eqI then.34
	buildh _Nil 0
	jmp else.32
then.34
	pushI -9223372036854775808
	push_b 1
	eqI
	buildh _Nil 0
	jmp_false else.32
	pushI 0
	push_b 2
	jmp_ltI else.35
	pop_b 2
	pushI 0
	pop_a 1
	create_array_ INT 0 1
	pushI 0
	pushI 0
	create_array_ INT 0 1
	pushI -1
.d 2 2 ii
	rtn 
else.35
	pop_b 2
	pushI 0
	pop_a 1
	create_array_ INT 0 1
	pushI 0
	pushI 0
	create_array_ INT 0 1
	pushI 1
.d 2 2 ii
	rtn 
else.32
	pushI 0
	pop_a 1
	create_array_ INT 0 1
	push_b 0
	pushI 0
	create_array_ INT 0 1
	updatepop_b 0 2
	pushI 0
.d 2 2 ii
	rtn 
else.28
	push_arraysize_a INT 0 1 1
	jmp_neIi 0 else.36
	pushI 0
	push_b 2
	jmp_ltI else.37
	push_b 1
	put_a 1
.d 1 1 i
	jsr s30
.o 1 1 i
.d 0 2 ii
	push_b_jsr 1 s49
.o 1 1 i
	push_ab 1 1
.d 1 1 i
	buildh0_put_a_jsr _Nil 3 s50
.o 1 1 i
	update2pop_a 0 1
	update2pop_b 0 2
.d 2 2 ii
	rtn 
else.37
	push_b 1
	negI
	put_a 1
.d 1 1 i
	jsr s30
.o 1 1 i
.d 0 2 ii
	push_b_jsr 1 s49
.o 1 1 i
	push_b 1
	not%
	push_a 1
.d 1 1 i
	buildh0_put_a_jsr _Nil 3 s50
.o 1 1 i
	update2pop_a 0 1
	update2pop_b 0 2
.d 2 2 ii
	rtn 
else.36
	push_arraysize_a INT 0 1 1
	jmp_neIi 1 else.38
	push2_b 1
	xor%
	pushI 0
	swap_a1 
	select INT 0 1
.d 1 1 i
	jsr s30
.o 1 1 i
.d 0 2 ii
	push_b_jsr 2 s49
.o 1 1 i
	push_ab 1 1
.d 1 1 i
	buildh0_put_a_jsr _Nil 3 s50
.o 1 1 i
	update2pop_a 0 1
	update2pop_b 0 3
.d 2 2 ii
	rtn 
else.38
	pushI 0
	push_b 1
	jmp_ltI else.39
	pushI 0
	push_b 2
	jmp_ltI else.40
.d 2 0 
	pop_b_jmp 2 s28
else.40
.d 2 0 
	pop_b_jsr 2 s28
.o 2 2 ii
.d 1 1 i
	jsr s22
.o 1 1 i
.d 2 2 ii
	rtn 
else.39
	pushI 0
	push_b 2
	jmp_ltI else.41
.d 2 0 
	pop_b_jsr 2 s28
.o 2 2 ii
	swap_a1 
.d 1 1 i
	push_b_jsr 1 s22
.o 1 1 i
	swap_a1 
	put_b 2
.d 2 2 ii
	rtn 
else.41
.d 2 0 
	pop_b_jsr 2 s28
.o 2 2 ii
	swap_a1 
.d 1 1 i
	push_b_jsr 1 s22
.o 1 1 i
	push_ab 1 1
.d 1 1 i
	buildh0_put_a_jsr _Nil 3 s22
.o 1 1 i
	update2pop_a 0 1
	update2pop_b 0 2
.d 2 2 ii
	rtn 
.o 1 1 i
s50
	push_arraysize_a INT 0 1 0
	push_b_decI 0
	push_a 0
	select INT 0 1
	jmp_eqI_b 0 0 else.42
	jmp_eqI_b 1 1 else.43
.d 1 1 i
	pop_b_rtn 2
else.43
	pushI 0
	push_b 1
	jmp_ltI else.44
	pushI 0
	push_b 3
	jmp_ltI else.45
	pushI 0
	pop_a 1
	create_array_ INT 0 1
	updatepop_b 0 2
.d 1 1 i
	rtn 
else.45
	pushI 0
	pop_a 1
	create_array_ INT 0 1
	push_b 0
	negI
	updatepop_b 0 3
.d 1 1 i
	rtn 
else.44
	pushI -9223372036854775808
	push_b 1
	jmp_neI else.46
	pushI 0
	jmp_o_geI 3 else.46
	pushI 0
	pop_a 1
	create_array_ INT 0 1
	updatepop_b 0 2
.d 1 1 i
	rtn 
else.46
.d 1 1 i
	pop_b_rtn 2
else.42
	buildAC "error in div_integer_s_a\n"
	put_a 1
.d 1 0 
	pop_b_jsr 3 print_string_
.o 0 0 
	halt
	repl_r_args 1 1
.d 1 1 i
	rtn 
.export e_Data.Integer.Div_srem_integer
.descexp e_Data.Integer.Div_drem_integer e_Data.Integer.Div_nrem_integer e_Data.Integer.Div_lrem_integer 2 0 "rem_integer"
.a 0 a2
.o 2 0 
e_Data.Integer.Div_lrem_integer
	repl_args 1 1
.o 2 0 
a2
.d 2 0 
	jsr ea2
.o 1 1 i
	buildhr e_Data.Integer_rInteger 1 1
.d 1 0 
	rtn 
.n 2 e_Data.Integer.Div_drem_integer
.o 1 0 
e_Data.Integer.Div_nrem_integer
	push_node _cycle_in_spine 2
.d 2 0 
	jsr ea2
.o 1 1 i
	fill_r e_Data.Integer_rInteger 1 1 1 0 0
.d 1 0 
	pop_ab_rtn 1 1
.o 2 0 
ea2
	jsr_eval 1
	jsr_eval 0
	push_r_args 1 1 1
	push_r_args 1 1 1
	update2pop_a 0 2
.o 2 2 ii
e_Data.Integer.Div_srem_integer
.o 2 2 ii
s2
	push_arraysize_a INT 0 1 0
	jmp_neIi 0 else.48
	update_a 1 0
	push_arraysize INT 0 1
	jmp_neIi 0 else.49
	pushI -9223372036854775808
	push_b 1
	jmp_neI then.50
	jmp_eqI_b -1 1 else.50
then.50
	pushI 0
	pop_a 1
	create_array_ INT 0 1
	push2_b 1
	remI
	updatepop_b 0 2
.d 1 1 i
	rtn 
else.50
	pop_b 2
	pushI 0
	pop_a 1
	create_array_ INT 0 1
	pushI 0
.d 1 1 i
	rtn 
else.49
	push_arraysize_a INT 0 1 0
	jmp_neIi 1 else.52
	pushI 0
	select INT 0 1
	pushI -9223372036854775808
	jmp_eqI then.54
	buildh _Nil 0
	jmp else.52
then.54
	pushI -9223372036854775808
	push_b 1
	eqI
	buildh _Nil 0
	jmp_false else.52
	pushI 0
	push_b 2
	jmp_ltI else.55
	pop_b 2
	pushI 0
	pop_a 1
	create_array_ INT 0 1
	pushI 0
.d 1 1 i
	rtn 
else.55
	pop_b 2
	pushI 0
	pop_a 1
	create_array_ INT 0 1
	pushI 0
.d 1 1 i
	rtn 
else.52
	pushI 0
	pop_a 1
	create_array_ INT 0 1
	put_b 1
.d 1 1 i
	rtn 
else.48
	push_arraysize_a INT 0 1 1
	jmp_neIi 0 else.56
	pushI 0
	push_b 2
	jmp_ltI else.57
	push_b 1
	put_a 1
.d 1 1 i
	jsr s30
.o 1 1 i
	pop_a 1
.d 0 2 ii
	put_b_jmp 2 s49
else.57
	buildAC "rem_integer 1"
	updatepop_a 0 2
.d 1 0 
	pop_b_jsr 2 print_string_
.o 0 0 
	halt
	repl_r_args 1 1
.d 1 1 i
	rtn 
else.56
	push_arraysize_a INT 0 1 1
	jmp_neIi 1 else.58
	pushI 0
	swap_a1 
	select INT 0 1
.d 1 1 i
	jsr s30
.o 1 1 i
	pop_a 1
.d 0 2 ii
	put_b_jmp 2 s49
else.58
	pushI 0
	push_b 1
	jmp_ltI else.59
.d 2 0 
	pop_b_jsr 2 s28
.o 2 2 ii
.d 1 1 i
	pop_ab_rtn 1 1
else.59
.d 2 0 
	pop_b_jsr 2 s28
.o 2 2 ii
	pop_b 1
.d 1 1 i
	pop_a_jmp 1 s22
.o 2 0 
s28
	push_arraysize_a INT 0 1 1
	push_arraysize_a INT 0 1 0
	jmp_ltI else.60
	push2_a 1
.d 2 0 
	jsr s31
.o 0 1 b
	jmp_false else.61
	push_arraysize_a INT 0 1 1
	decI
	push_a 1
	select INT 0 1
.d 0 1 i
	jsr s9
.o 0 1 i
.d 2 1 i
	push_b_jsr 0 s191
.o 2 0 
	push_arraysize_a INT 0 1 0
	push_arraysize_a INT 0 1 1
.d 0 1 i
	push_b_jsr 0 s19
.o 1 0 
	push_b_decI 1
	push2_a 2
	buildh0_dup2_a _Nil 4
.d 2 1 i
	pop_a_jsr 1 s29
.o 1 0 
	push_b 0
	pushI 0
	update2pop_a 0 2
.d 2 2 ii
	jsr s48
.o 2 0 
	put_b 1
.d 1 1 i
	jsr s43
.o 1 0 
	push_arraysize_a INT 0 1 0
	jmp_neIi 1 else.62
	pushI 0
	push_a 0
	select INT 0 1
	pushI 0
	push_b 1
	jmp_ltI else.63
	pop_a 1
.d 1 1 i
	push_b_jsr 1 s41
.o 1 0 
.d 1 0 
	jsr s11
.o 1 1 i
	pushI 0
	create_array_ INT 0 1
	put_b 2
.d 2 2 ii
	rtn 
else.63
	swap_a1 
.d 1 1 i
	pop_b_jsr 1 s41
.o 1 0 
.d 1 0 
	jsr s11
.o 1 1 i
	swap_a1 
	pushI 0
.d 2 2 ii
	rtn 
else.62
	swap_a1 
.d 1 1 i
	jsr s41
.o 1 0 
.d 1 0 
	jsr s11
.o 1 1 i
	swap_a1 
	pushI 0
.d 2 2 ii
	rtn 
else.61
	push_arraysize_a INT 0 1 1
	push_arraysize_a INT 0 1 0
	jmp_neI else.64
	put_a 1
.d 1 0 
	jsr s46
.o 1 0 
	pushI 0
	pushI 0
	create_array_ INT 0 1
	pushI 0
.d 2 2 ii
	rtn 
else.64
	push_arraysize_a INT 0 1 1
	decI
	push_a 1
	select INT 0 1
.d 0 1 i
	jsr s9
.o 0 1 i
.d 2 1 i
	push_b_jsr 0 s188
.o 2 0 
	push_arraysize_a INT 0 1 0
	push_arraysize_a INT 0 1 1
.d 0 1 i
	push_b_jsr 0 s19
.o 1 0 
	push_b_decI 1
	push2_a 2
	buildh0_dup2_a _Nil 4
.d 2 1 i
	pop_a_jsr 1 s29
.o 1 0 
	push_b 0
	pushI 0
	update2pop_a 0 2
.d 2 2 ii
	jsr s48
.o 2 0 
	put_b 1
.d 1 1 i
	jsr s43
.o 1 0 
	push_arraysize_a INT 0 1 0
	jmp_neIi 1 else.65
	pushI 0
	push_a 0
	select INT 0 1
	pushI 0
	push_b 1
	jmp_ltI else.66
	pop_a 1
.d 1 1 i
	push_b_jsr 1 s41
.o 1 0 
.d 1 0 
	jsr s11
.o 1 1 i
	pushI 0
	create_array_ INT 0 1
	put_b 2
.d 2 2 ii
	rtn 
else.66
	swap_a1 
.d 1 1 i
	pop_b_jsr 1 s41
.o 1 0 
.d 1 0 
	jsr s11
.o 1 1 i
	swap_a1 
	pushI 0
.d 2 2 ii
	rtn 
else.65
	swap_a1 
.d 1 1 i
	jsr s41
.o 1 0 
.d 1 0 
	jsr s11
.o 1 1 i
	swap_a1 
	pushI 0
.d 2 2 ii
	rtn 
else.60
	put_a 1
.d 1 0 
	jsr s46
.o 1 0 
	pushI 0
	pushI 0
	create_array_ INT 0 1
	pushI 0
.d 2 2 ii
	rtn 
.o 1 0 
s11
	push_arraysize_a INT 0 1 0
	push_b_decI 0
	push_a 0
	select INT 0 1
	jmp_eqI_b 0 0 else.67
	jmp_neI_b 1 1 then.68
	pushI 0
	jmp_o_geI 1 else.68
then.68
	pop_b 2
	pushI 0
.d 1 1 i
	rtn 
else.68
	pushI 0
	pop_a 1
	create_array_ INT 0 1
	put_b 1
.d 1 1 i
	rtn 
else.67
	push_b_decI 1
	updatepop_b 0 2
s51
	jmp_neI_b 0 0 else.70
	pop_b 1
	pushI 0
	pop_a 1
	create_array_ INT 0 1
	pushI 0
.d 1 1 i
	rtn 
else.70
	push_b_decI 0
	push_a 0
	select INT 0 1
	jmp_neI_b 0 0 else.71
	push_b_decI 1
	updatepop_b 0 2
.d 1 1 i
	jmp s51
else.71
	jmp_neI_b 1 1 then.72
	pushI 0
	jmp_o_geI 1 else.72
then.72
.d 1 1 i
	pop_b_jsr 1 s20
.o 1 0 
	pushI 0
.d 1 1 i
	rtn 
else.72
	pushI 0
	pop_a 1
	create_array_ INT 0 1
	put_b 1
.d 1 1 i
	rtn 
.o 1 1 i
s41
	jmp_neI_b 0 0 else.74
.d 1 0 
	pop_b_rtn 1
else.74
	push_arraysize_a INT 0 1 0
	push_b 1
	pushI 64
	subI
	push_b_decI 1
	push_b 3
	update_b 2 4
	update_b 0 3
	pushI 0
	update_b 0 3
.d 1 4 iiii
	pop_b_jmp 2 s72
.o 1 4 iiii
s72
	pushI 0
	push_b 1
	jmp_ltI else.75
	selectoo INT 0 1 0 0
	push_b2 3 0
	shiftrU
	push_b 3
	addI
	push_b 2
	update INT 0 1
	push_b2 4 0
	shiftl%
	push_b_decI 2
	update2pop_b 0 3
.d 1 4 iiii
	jmp s72
else.75
.d 1 0 
	pop_b_rtn 4
.o 2 2 ii
s48
	push2_b 1
	jmp_geI else.76
	selectoo INT 0 1 0 0
	push_b 1
	swap_a1 
	update INT 0 1
	incI
	swap_a1 
.d 2 2 ii
	jmp s48
else.76
.d 2 0 
	pop_b_rtn 2
.o 2 1 i
s29
	push_arraysize_a INT 0 1 1
	push_b2 0 1
	jmp_geI else.77
	put_a 1
.d 1 0 
	pop_b_rtn 2
else.77
	selectoo INT 0 1 0 1
	push_b_decI 1
	push_a 1
	select INT 0 1
	push_b2 0 1
	jmp_neI else.78
	push_b 3
	update_b 3 1
	subI
	pushI -1
	push_ab 1 0
	push_b 2
	pushI 0
	pushI 0
.d 2 4 iiii
	jsr s36
.o 1 1 i
	push_b2 3 0
	subI
	push_a 1
	updates3_b 6 3 2 4
	put_b 1
.d 2 4 iiii
	jsr s38
.o 1 1 i
	push_b 2
	update INT 0 1
	push_b_decI 1
	updatepop_b 0 2
.d 2 1 i
	jmp s29
else.78
	push_b_decI 3
	push_a 0
	select INT 0 1
	push_b_decI 3
	decI
	push_a 1
	select INT 0 1
	push_b_decI 5
	decI
	push_a 0
	select INT 0 1
	push2_b 3
	push_b 6
	divLU
	push_b2 1 3
	mulUUL
	buildI_b 1
	push_b2 0 2
	ltU
	jmp_true then.79
	push_b2 0 2
	jmp_neI else.79
	pushI_a 0
	push_b 5
	ltU
	jmp_false else.79
then.79
	push_b2 2 0
	subI
	push_b 5
	pushI_a 0
	push_b 2
	update3pop_b 0 1
	pop_a 1
	subLU
	buildI_b 1
	push_b2 9 0
	ltU
	jmp_true then.82
	push_b2 9 0
	jmp_neI else.82
	push_b 7
	pushI_a 0
	ltU
	jmp_false else.82
then.82
	push_b2 0 9
	subI
	pushI_a 0
	push_b 1
	updates2_b 10 1 2
	pop_a 1
	subLU
	buildI_b 1
	buildI 1
	buildI_b 7
	build e_StdInt_d-;7 2 e_StdInt_n-;7
	push_a2 2 3
	push_ab 2 13
	push_b 15
	build_u e_Data.Integer.Div_d_f3.196 3 2 e_Data.Integer.Div_n_f3.196
	buildo1 n_S.1 0
	jmp_neI_b 0 0 else.85
	jsr_eval 0
	pushI_a 0
	pushI_a 3
	buildh0_put_a _Nil 5
	ltU
	jmp_false else.85
	jsr_eval 0
	pushI_a 0
	pushI_a 3
	push_b 2
	update2pop_a 1 3
	subLU
	push_jsr_eval 1
	pushI_a 2
	pop_a 1
	decI
	push_b_decI 17
	push_b_decI 18
	decI
	jsr_eval 0
	push_arg 0 2 2
	jsr_eval 0
	push_array 0
	updatepop_a 0 3
	push_b 0
	update_b 5 1
	update INT 0 1
	push_b 0
	update_b 3 1
	update INT 0 1
	push_b2 16 17
	subI
	push_a 1
	pushI 0
	pushI 0
.d 2 3 iii
	jsr s44
.o 1 1 i
	update_b 1 3
	updatepop_b 18 2
	update INT 0 1
	push_b_decI 14
	updatepop_b 0 15
.d 2 1 i
	jmp s29
else.85
	jsr_eval 0
	pushI_a 0
	pushI_a 3
	push_b 2
	update2pop_a 1 3
	subLU
	push_jsr_eval 1
	pushI_a 2
	pop_a 1
	push_b_decI 17
	push_b_decI 18
	decI
	jsr_eval 0
	push_arg 0 2 2
	jsr_eval 0
	push_array 0
	updatepop_a 0 3
	push_b 0
	update_b 5 1
	update INT 0 1
	push_b 0
	update_b 3 1
	update INT 0 1
	update_b 0 2
	updatepop_b 17 1
	update INT 0 1
	push_b_decI 14
	updatepop_b 0 15
.d 2 1 i
	jmp s29
else.82
	push_b2 0 9
	subI
	pushI_a 0
	push_b 1
	updates2_b 10 1 2
	pop_a 1
	subLU
	push_b2 11 0
	addI
	updates2_b 10 2 1
	addLU
	buildI_b 1
	buildI 2
	buildI_b 7
	build e_StdInt_d-;7 2 e_StdInt_n-;7
	push_a2 2 3
	push_ab 2 13
	push_b 15
	build_u e_Data.Integer.Div_d_f4.197 3 2 e_Data.Integer.Div_n_f4.197
	buildo1 n_S.1 0
	jmp_neI_b 0 0 else.87
	jsr_eval 0
	pushI_a 0
	pushI_a 3
	buildh0_put_a _Nil 5
	ltU
	jmp_false else.87
	buildAC "div_rem_loop 2"
	updatepop_a 0 6
.d 1 0 
	pop_b_jsr 15 print_string_
.o 0 0 
	halt
	push_array 0
	put_a 1
.d 1 0 
	rtn 
else.87
	jsr_eval 0
	pushI_a 0
	pushI_a 3
	push_b 2
	update2pop_a 1 3
	subLU
	push_jsr_eval 1
	pushI_a 2
	pop_a 1
	push_b_decI 17
	push_b_decI 18
	decI
	jsr_eval 0
	push_arg 0 2 2
	jsr_eval 0
	push_array 0
	updatepop_a 0 3
	push_b 0
	update_b 5 1
	update INT 0 1
	push_b 0
	update_b 3 1
	update INT 0 1
	update_b 0 2
	updatepop_b 17 1
	update INT 0 1
	push_b_decI 14
	updatepop_b 0 15
.d 2 1 i
	jmp s29
else.79
	push_b2 0 2
	subI
	pushI_a 0
	push_b 1
	updates2_b 7 1 2
	pop_a 1
	subLU
	buildI_b 1
	push_a2 1 2
	push_b2 5 11
	push_b 14
	build_u e_Data.Integer.Div_d_f5.198 2 3 e_Data.Integer.Div_n_f5.198
	buildo1 n_S.1 0
	jmp_neI_b 0 0 else.89
	jsr_eval 0
	pushI_a 0
	pushI_a 2
	buildh0_put_a _Nil 4
	ltU
	jmp_false else.89
	jsr_eval 0
	pushI_a 0
	pushI_a 2
	push_b 2
	updatepop_a 1 3
	subLU
	push_b_decI 7
	push_b_decI 15
	push_b_decI 16
	decI
	jsr_eval 0
	push_arg 0 2 2
	jsr_eval 0
	push_array 0
	updatepop_a 0 2
	push_b 0
	update_b 5 1
	update INT 0 1
	push_b 0
	update_b 3 1
	update INT 0 1
	push_b2 14 15
	subI
	push_a 1
	pushI 0
	pushI 0
.d 2 3 iii
	jsr s44
.o 1 1 i
	update_b 1 3
	updatepop_b 16 2
	update INT 0 1
	push_b_decI 12
	updatepop_b 0 13
.d 2 1 i
	jmp s29
else.89
	jsr_eval 0
	pushI_a 0
	pushI_a 2
	push_b 2
	updatepop_a 1 3
	subLU
	push_b_decI 14
	push_b_decI 15
	decI
	jsr_eval 0
	push_arg 0 2 2
	jsr_eval 0
	push_array 0
	updatepop_a 0 2
	push_b 0
	update_b 4 1
	update INT 0 1
	update2pop_b 0 1
	update INT 0 1
	push_b2 5 12
	update INT 0 1
	push_b_decI 12
	updatepop_b 0 13
.d 2 1 i
	jmp s29
.export e_Data.Integer.Div_d_f5.198
.export e_Data.Integer.Div_n_f5.198
.descn e_Data.Integer.Div_d_f5.198 e_Data.Integer.Div_n_f5.198 5 0 "_f5.198"
.nu 2 3 e_Data.Integer.Div_d_f5.198 _
.o 1 0 
e_Data.Integer.Div_n_f5.198
	push_node_u _cycle_in_spine 2 3
.o 3 3 iii
ea198
.o 3 3 iii
s198
	push_b_decI 1
	decI
	push2_b 2
	subI
	push_b 4
	update_b 2 5
	update_b 0 4
	updatepop_b 1 3
	pushI 0
	pushI 0
.d 2 5 iiiii
	jsr s37
.o 1 1 i
	push_a 0
	buildh ARRAY 1
	buildI_b 0
	fillh _Tuple 2 3
.d 1 0 
	pop_ab_rtn 1 1
.export e_Data.Integer.Div_d_f4.197
.export e_Data.Integer.Div_n_f4.197
.descn e_Data.Integer.Div_d_f4.197 e_Data.Integer.Div_n_f4.197 5 0 "_f4.197"
.nu 3 2 e_Data.Integer.Div_d_f4.197 _
.o 1 0 
e_Data.Integer.Div_n_f4.197
	push_node_u _cycle_in_spine 3 2
.o 4 2 ii
ea197
.o 4 2 ii
s197
	push_b_decI 1
	decI
	jsr_eval 0
	pushI_a 0
	push2_b 3
	subI
	pop_a 1
	update3pop_b 0 2
	pushI 0
	pushI 0
.d 2 5 iiiii
	jsr s37
.o 1 1 i
	push_a 0
	buildh ARRAY 1
	buildI_b 0
	fillh _Tuple 2 3
.d 1 0 
	pop_ab_rtn 1 1
.export e_Data.Integer.Div_d_f3.196
.export e_Data.Integer.Div_n_f3.196
.descn e_Data.Integer.Div_d_f3.196 e_Data.Integer.Div_n_f3.196 5 0 "_f3.196"
.nu 3 2 e_Data.Integer.Div_d_f3.196 _
.o 1 0 
e_Data.Integer.Div_n_f3.196
	push_node_u _cycle_in_spine 3 2
.o 4 2 ii
ea196
.o 4 2 ii
s196
	push_b_decI 1
	decI
	jsr_eval 0
	pushI_a 0
	push2_b 3
	subI
	pop_a 1
	update3pop_b 0 2
	pushI 0
	pushI 0
.d 2 5 iiiii
	jsr s37
.o 1 1 i
	push_a 0
	buildh ARRAY 1
	buildI_b 0
	fillh _Tuple 2 3
.d 1 0 
	pop_ab_rtn 1 1
.o 0 2 ii
s49
	pushI 0
	push_b 2
	jmp_ltI else.91
	pushI 0
	push_b 1
	jmp_ltI else.92
	pop_b 1
	pushI 0
	create_array_ INT 0 1
.d 1 1 i
	rtn 
else.92
	pop_b 1
	pushI 0
	create_array_ INT 0 1
	push_b 0
	negI
	put_b 1
.d 1 1 i
	rtn 
else.91
	pushI -9223372036854775808
	push_b 2
	jmp_neI else.93
	pushI 0
	jmp_o_geI 1 else.93
	pop_b 1
	pushI 0
	create_array_ INT 0 1
.d 1 1 i
	rtn 
else.93
	pushI 1
	create_array_ INT 0 1
	push_b 1
	pushI 0
	update INT 0 1
	put_b 1
.d 1 1 i
	rtn 
.export e_Data.Integer.Div_sdiv_integer
.descexp e_Data.Integer.Div_ddiv_integer e_Data.Integer.Div_ndiv_integer e_Data.Integer.Div_ldiv_integer 2 0 "div_integer"
.a 0 a1
.o 2 0 
e_Data.Integer.Div_ldiv_integer
	repl_args 1 1
.o 2 0 
a1
.d 2 0 
	jsr ea1
.o 1 1 i
	buildhr e_Data.Integer_rInteger 1 1
.d 1 0 
	rtn 
.n 2 e_Data.Integer.Div_ddiv_integer
.o 1 0 
e_Data.Integer.Div_ndiv_integer
	push_node _cycle_in_spine 2
.d 2 0 
	jsr ea1
.o 1 1 i
	fill_r e_Data.Integer_rInteger 1 1 1 0 0
.d 1 0 
	pop_ab_rtn 1 1
.o 2 0 
ea1
	jsr_eval 1
	jsr_eval 0
	push_r_args 1 1 1
	push_r_args 1 1 1
	update2pop_a 0 2
.o 2 2 ii
e_Data.Integer.Div_sdiv_integer
.o 2 2 ii
s1
	push_arraysize_a INT 0 1 0
	jmp_neIi 0 else.95
	update_a 1 0
	push_arraysize INT 0 1
	jmp_neIi 0 else.96
	pushI -9223372036854775808
	push_b 1
	jmp_neI then.97
	jmp_eqI_b -1 1 else.97
then.97
	pushI 0
	pop_a 1
	create_array_ INT 0 1
	push2_b 1
	divI
	updatepop_b 0 2
.d 1 1 i
	rtn 
else.97
	pop_b 2
	pushI 1
	pop_a 1
	create_array_ INT 0 1
	pushI -9223372036854775808
	pushI 0
	update INT 0 1
	pushI 0
.d 1 1 i
	rtn 
else.96
	push_arraysize_a INT 0 1 0
	jmp_neIi 1 else.99
	pushI 0
	select INT 0 1
	pushI -9223372036854775808
	jmp_eqI then.101
	buildh _Nil 0
	jmp else.99
then.101
	pushI -9223372036854775808
	push_b 1
	eqI
	buildh _Nil 0
	jmp_false else.99
	pushI 0
	push_b 2
	jmp_ltI else.102
	pop_b 2
	pushI 0
	pop_a 1
	create_array_ INT 0 1
	pushI -1
.d 1 1 i
	rtn 
else.102
	pop_b 2
	pushI 0
	pop_a 1
	create_array_ INT 0 1
	pushI 1
.d 1 1 i
	rtn 
else.99
	pop_b 2
	pushI 0
	pop_a 1
	create_array_ INT 0 1
	pushI 0
.d 1 1 i
	rtn 
else.95
	push_arraysize_a INT 0 1 1
	jmp_neIi 0 else.103
	dup_a 1
	push_arraysize INT 0 1
	pushI 2
	jmp_ltI else.104
	push_arraysize_a INT 0 1 0
	jmp_neIi 1 else.105
.d 1 2 ii
	jmp s86
else.105
.d 1 2 ii
	jmp s87
else.104
	pushI 0
	push_b 2
	jmp_ltI else.106
.d 1 1 i
	push_b_jsr 1 s61
.o 1 0 
	put_b 1
.d 1 1 i
	rtn 
else.106
	push_b 1
	negI
.d 1 1 i
	jsr s61
.o 1 0 
	push_b 0
	not%
	updatepop_b 0 2
.d 1 1 i
	rtn 
else.103
	push_arraysize_a INT 0 1 1
	jmp_neIi 1 else.107
	xor%
	pushI 0
	swap_a1 
	select INT 0 1
.d 1 1 i
	jsr s61
.o 1 0 
.d 1 1 i
	rtn 
else.107
	push2_b 1
	xor%
	pushI 0
	swap_b1 
	jmp_ltI else.108
.d 2 0 
	pop_b_jmp 2 s24
else.108
.d 2 0 
	pop_b_jsr 2 s24
.o 1 1 i
.d 1 1 i
	jmp s22
.o 1 2 ii
s87
	pushI 0
	push_b 2
	jmp_ltI else.109
	pushI 1
	push_a 0
	select INT 0 1
	push_b2 2 0
	ltU
	jmp_false else.110
	pushI 0
	select INT 0 1
	push_b 1
	update_b 4 2
	divLU
	update_b 1 3
.d 0 2 ii
	pop_b_jmp 2 s58
else.110
	push_b 2
	swap_b1 
	pushI 0
	divLU
	jmp_neI_b 0 1 else.111
	pushI 0
	select INT 0 1
	push_b 1
	update_b 5 2
	divLU
	update_b 1 4
.d 0 2 ii
	pop_b_jmp 3 s58
else.111
	pushI 0
	select INT 0 1
	push_b 1
	update_b 5 2
	divLU
	pop_b 1
	pushI 2
	create_array_ INT 0 1
	push_b 1
	pushI 1
	update INT 0 1
	pushI 0
	update INT 0 1
	updatepop_b 1 2
.d 1 1 i
	rtn 
else.109
	pushI 1
	push_a 0
	select INT 0 1
	push_b 2
	negI
	push_b2 0 1
	ltU
	jmp_false else.112
	pushI 0
	select INT 0 1
	push_b 2
	update3pop_b 0 1
	divLU
	update_b 1 3
.d 0 2 ii
	pop_b_jmp 2 s59
else.112
	push_b2 0 1
	pushI 0
	divLU
	jmp_neI_b 0 1 else.113
	pushI 0
	select INT 0 1
	push_b 1
	update_b 4 2
	divLU
	update_b 1 6
.d 0 2 ii
	pop_b_jmp 5 s59
else.113
	pushI 0
	select INT 0 1
	push_b 1
	update_b 4 2
	divLU
	pop_b 1
	pushI 2
	create_array_ INT 0 1
	push_b 1
	pushI 1
	update INT 0 1
	pushI 0
	update INT 0 1
	push_b 3
	not%
	updatepop_b 0 5
.d 1 1 i
	rtn 
.o 1 2 ii
s86
	pushI 0
	push_b 2
	jmp_ltI else.114
	pushI 0
	select INT 0 1
	push_b 2
	pushI 0
	push_b 2
	updates2_b 0 2 3
	pop_b 1
	divLU
	update_b 1 3
.d 0 2 ii
	pop_b_jmp 2 s58
else.114
	push_b 1
	negI
	pushI 0
	select INT 0 1
	pushI 0
	divLU
	update_b 1 3
.d 0 2 ii
	pop_b_jmp 2 s59
.o 1 1 i
s22
	push_arraysize_a INT 0 1 0
	jmp_neIi 0 else.115
	pushI -9223372036854775808
	push_b 1
	jmp_eqI else.116
	push_b 0
	negI
	put_b 1
.d 1 1 i
	rtn 
else.116
	pushI 1
	pop_a 1
	create_array_ INT 0 1
	pushI 0
	update INT 0 1
	pushI -1
.d 1 1 i
	rtn 
else.115
	pop_b 1
	pushI -1
.d 1 1 i
	rtn 
.o 2 0 
s24
	push_arraysize_a INT 0 1 1
	push_arraysize_a INT 0 1 0
	jmp_ltI else.117
	push2_a 1
.d 2 0 
	jsr s31
.o 0 1 b
	jmp_false else.118
	push_arraysize_a INT 0 1 1
	push_arraysize_a INT 0 1 0
	jmp_neI else.119
	push_arraysize_a INT 0 1 1
	decI
	push_a 1
	select INT 0 1
.d 0 1 i
	jsr s9
.o 0 1 i
	push_a2 0 1
.d 4 1 i
	jmp s82
else.119
	push_arraysize_a INT 0 1 1
	decI
	push_a 1
	select INT 0 1
.d 0 1 i
	jsr s9
.o 0 1 i
.d 2 1 i
	jsr s191
.o 2 0 
	push_arraysize_a INT 0 1 0
	decI
	push_update_a 0 1
.d 2 1 i
	jsr s26
.o 1 0 
	push_a 1
	buildh0_put_a _Nil 3
	push_arraysize INT 0 1
	put_a 1
.d 1 1 i
	jsr s43
.o 1 0 
	pushI 0
.d 1 1 i
	rtn 
else.118
	push_arraysize_a INT 0 1 1
	push_arraysize_a INT 0 1 0
	subI
	push_b 0
	pushI 1
	jmp_ltI else.120
	jmp_neI_b 0 0 else.121
	pop_b 1
	pushI 0
	pop_a 2
	create_array_ INT 0 1
	pushI 0
.d 1 1 i
	rtn 
else.121
	push_a 1
	pop_b 1
	push_arraysize INT 0 1
	decI
	push_a 1
	select INT 0 1
.d 0 1 i
	jsr s9
.o 0 1 i
	push_a2 0 1
.d 4 1 i
	jmp s84
else.120
	push_a 1
	pop_b 1
	push_arraysize INT 0 1
	decI
	push_a 1
	select INT 0 1
.d 0 1 i
	jsr s9
.o 0 1 i
.d 2 1 i
	jsr s188
.o 2 0 
	push_arraysize_a INT 0 1 0
	decI
	push_update_a 0 1
.d 2 1 i
	jsr s26
.o 1 0 
	push_a 1
	buildh0_put_a _Nil 3
	push_arraysize INT 0 1
	put_a 1
.d 1 1 i
	jsr s43
.o 1 0 
	pushI 0
.d 1 1 i
	rtn 
else.117
	pushI 0
	pop_a 2
	create_array_ INT 0 1
	pushI 0
.d 1 1 i
	rtn 
.o 4 1 i
s84
	push_update_a 1 0
	update_a 3 1
.d 2 1 i
	push_b_jsr 0 s187
.o 0 3 iii
	push_update_a 0 2
.d 2 1 i
	push_b_jsr 3 s186
.o 0 2 ii
	push_b 2
	updates2_b 2 5 3
	updates3pop_b 0 1 4 2
.d 0 5 iiiii
	jsr s25
.o 0 2 bi
	jmp_b_false 0 else.122
	pushI 0
	push_b 2
	jmp_ltI else.123
	pop_b 1
	pushI 0
	pop_a 2
	create_array_ INT 0 1
	put_b 1
.d 1 1 i
	rtn 
else.123
	pop_b 1
	pushI 1
	pop_a 2
	create_array_ INT 0 1
	push_b 0
	pushI 0
	update INT 0 1
	pop_b 2
	pushI 0
.d 1 1 i
	rtn 
else.122
	update_b 2 0
.d 2 1 i
	jsr s188
.o 2 0 
	push_arraysize_a INT 0 1 1
	push_arraysize_a INT 0 1 0
	push_b_decI 0
	update_b 2 1
.d 2 2 ii
	jsr s27
.o 1 0 
.d 1 1 i
	jsr s43
.o 1 0 
	pushI 0
	push_a 0
	select INT 0 1
	pushI 0
	swap_b1 
	jmp_ltI else.124
	pushI 0
	create_array_ INT 0 1
	pushI 0
	push_a 1
	buildh0_put_a _Nil 3
	select INT 0 1
	put_a 1
	updatepop_b 0 2
.d 1 1 i
	rtn 
else.124
	pop_b 2
	pushI 0
.d 1 1 i
	rtn 
.o 1 2 bi
s95
	eqB_b TRUE 0
	jmp_false case.126
	pushI 4
	push_b 2
	subI
	updatepop_b 0 2
	select INT 0 1
.d 0 1 i
	rtn 
case.126
	pop_b 2
	pushI 0
.d 0 1 i
	pop_a_rtn 1
.o 4 1 i
s82
	push_update_a 1 0
	update_a 3 1
.d 2 1 i
	push_b_jsr 0 s185
.o 0 3 iii
	push_update_a 0 2
.d 2 1 i
	push_b_jsr 3 s186
.o 0 2 ii
	push_b 2
	updates2_b 2 5 3
	updates3pop_b 0 1 4 2
.d 0 5 iiiii
	jsr s25
.o 0 2 bi
	jmp_b_false 0 else.127
	pushI 0
	push_b 2
	jmp_ltI else.128
	pop_b 1
	pushI 0
	pop_a 2
	create_array_ INT 0 1
	put_b 1
.d 1 1 i
	rtn 
else.128
	pop_b 1
	pushI 1
	pop_a 2
	create_array_ INT 0 1
	push_b 0
	pushI 0
	update INT 0 1
	pop_b 2
	pushI 0
.d 1 1 i
	rtn 
else.127
	update_b 2 0
.d 2 1 i
	jsr s191
.o 2 0 
	push_arraysize_a INT 0 1 1
	push_arraysize_a INT 0 1 0
	push_b_decI 0
	update_b 2 1
.d 2 2 ii
	jsr s27
.o 1 0 
.d 1 1 i
	jsr s43
.o 1 0 
	pushI 0
	push_a 0
	select INT 0 1
	pushI 0
	swap_b1 
	jmp_ltI else.129
	pushI 0
	create_array_ INT 0 1
	pushI 0
	push_a 1
	buildh0_put_a _Nil 3
	select INT 0 1
	put_a 1
	updatepop_b 0 2
.d 1 1 i
	rtn 
else.129
	pop_b 2
	pushI 0
.d 1 1 i
	rtn 
.o 1 2 bi
s94
	eqB_b TRUE 0
	jmp_false case.131
	pushI 3
	push_b 2
	subI
	jsr_eval 0
	push_a 0
	push_array 0
	updatepop_a 0 2
	updatepop_b 0 2
	select INT 0 1
.d 0 1 i
	rtn 
case.131
	pop_b 2
	pushI 0
.d 0 1 i
	pop_a_rtn 1
.o 1 0 
s46
	push_arraysize_a INT 0 1 0
	decI
	push_b_incI 0
	create_array_ INT 0 1
	pushI 0
s77
	push_b2 0 1
	jmp_ltI else.132
	push_ab 1 0
	exchange_a 2 1
	select INT 0 1
	push_b_incI 1
	push_b2 1 2
	swap_a1 
	update INT 0 1
	updatepop_b 0 2
.d 2 2 ii
	jmp s77
else.132
	put_a 1
.d 1 0 
	pop_b_rtn 2
.o 2 1 i
s26
	push_arraysize_a INT 0 1 1
	push2_b 1
	jmp_ltI else.133
	push_b2 0 1
	jmp_eqI else.134
	put_a 1
.d 1 0 
	pop_b_rtn 2
else.134
	swap_b1 
.d 2 2 ii
	jmp s27
else.133
	selectoo INT 0 1 0 1
	push_b_decI 1
	push_a 1
	select INT 0 1
	push_b2 0 1
	jmp_neI else.135
	push_b 3
	update_b 3 1
	subI
	pushI -1
	push_ab 1 0
	push_b 2
	pushI 0
	pushI 0
.d 2 4 iiii
	jsr s36
.o 1 1 i
	push_b2 3 0
	subI
	push_a 1
	updates3_b 6 3 2 4
	put_b 1
.d 2 4 iiii
	jsr s38
.o 1 1 i
	push_b 2
	update INT 0 1
	push_b_decI 1
	updatepop_b 0 2
.d 2 1 i
	jmp s26
else.135
	push_b_decI 3
	push_a 0
	select INT 0 1
	push_b_decI 3
	decI
	push_a 1
	select INT 0 1
	push_b_decI 5
	decI
	push_a 0
	select INT 0 1
	push2_b 3
	push_b 6
	divLU
	push_b2 1 3
	mulUUL
	buildI_b 1
	push_b2 0 2
	ltU
	jmp_true then.136
	push_b2 0 2
	jmp_neI else.136
	pushI_a 0
	push_b 5
	ltU
	jmp_false else.136
then.136
	push_b2 2 0
	subI
	push_b 5
	pushI_a 0
	push_b 2
	update3pop_b 0 1
	pop_a 1
	subLU
	buildI_b 1
	push_b2 9 0
	ltU
	jmp_true then.139
	push_b2 9 0
	jmp_neI else.139
	push_b 7
	pushI_a 0
	ltU
	jmp_false else.139
then.139
	push_b2 0 9
	subI
	pushI_a 0
	push_b 1
	updates2_b 10 1 2
	pop_a 1
	subLU
	buildI_b 1
	buildI 1
	buildI_b 7
	build e_StdInt_d-;7 2 e_StdInt_n-;7
	push_a2 2 3
	push_ab 2 13
	push_b 15
	build_u e_Data.Integer.Div_d_f0.193 3 2 e_Data.Integer.Div_n_f0.193
	buildo1 n_S.1 0
	jmp_neI_b 0 0 else.142
	jsr_eval 0
	pushI_a 0
	pushI_a 3
	buildh0_put_a _Nil 5
	ltU
	jmp_false else.142
	jsr_eval 0
	pushI_a 0
	pushI_a 3
	push_b 2
	update2pop_a 1 3
	subLU
	push_jsr_eval 1
	pushI_a 2
	pop_a 1
	decI
	push_b_decI 17
	push_b_decI 18
	decI
	jsr_eval 0
	push_arg 0 2 2
	jsr_eval 0
	push_array 0
	updatepop_a 0 3
	push_b 0
	update_b 5 1
	update INT 0 1
	push_b 0
	update_b 3 1
	update INT 0 1
	push_b2 16 17
	subI
	push_a 1
	pushI 0
	pushI 0
.d 2 3 iii
	jsr s44
.o 1 1 i
	update_b 1 3
	updatepop_b 18 2
	update INT 0 1
	push_b_decI 14
	updatepop_b 0 15
.d 2 1 i
	jmp s26
else.142
	jsr_eval 0
	pushI_a 0
	pushI_a 3
	push_b 2
	update2pop_a 1 3
	subLU
	push_jsr_eval 1
	pushI_a 2
	pop_a 1
	push_b_decI 17
	push_b_decI 18
	decI
	jsr_eval 0
	push_arg 0 2 2
	jsr_eval 0
	push_array 0
	updatepop_a 0 3
	push_b 0
	update_b 5 1
	update INT 0 1
	push_b 0
	update_b 3 1
	update INT 0 1
	update_b 0 2
	updatepop_b 17 1
	update INT 0 1
	push_b_decI 14
	updatepop_b 0 15
.d 2 1 i
	jmp s26
else.139
	push_b2 0 9
	subI
	pushI_a 0
	push_b 1
	updates2_b 10 1 2
	pop_a 1
	subLU
	push_b2 11 0
	addI
	updates2_b 10 2 1
	addLU
	buildI_b 1
	buildI 2
	buildI_b 7
	build e_StdInt_d-;7 2 e_StdInt_n-;7
	push_a2 2 3
	push_ab 2 13
	push_b 15
	build_u e_Data.Integer.Div_d_f1.194 3 2 e_Data.Integer.Div_n_f1.194
	buildo1 n_S.1 0
	jmp_neI_b 0 0 else.144
	jsr_eval 0
	pushI_a 0
	pushI_a 3
	buildh0_put_a _Nil 5
	ltU
	jmp_false else.144
	buildAC "div_loop 2"
	updatepop_a 0 6
.d 1 0 
	pop_b_jsr 15 print_string_
.o 0 0 
	halt
	push_array 0
	put_a 1
.d 1 0 
	rtn 
else.144
	jsr_eval 0
	pushI_a 0
	pushI_a 3
	push_b 2
	update2pop_a 1 3
	subLU
	push_jsr_eval 1
	pushI_a 2
	pop_a 1
	push_b_decI 17
	push_b_decI 18
	decI
	jsr_eval 0
	push_arg 0 2 2
	jsr_eval 0
	push_array 0
	updatepop_a 0 3
	push_b 0
	update_b 5 1
	update INT 0 1
	push_b 0
	update_b 3 1
	update INT 0 1
	update_b 0 2
	updatepop_b 17 1
	update INT 0 1
	push_b_decI 14
	updatepop_b 0 15
.d 2 1 i
	jmp s26
else.136
	push_b2 0 2
	subI
	pushI_a 0
	push_b 1
	updates2_b 7 1 2
	pop_a 1
	subLU
	buildI_b 1
	push_a2 1 2
	push_b2 5 11
	push_b 14
	build_u e_Data.Integer.Div_d_f2.195 2 3 e_Data.Integer.Div_n_f2.195
	buildo1 n_S.1 0
	jmp_neI_b 0 0 else.146
	jsr_eval 0
	pushI_a 0
	pushI_a 2
	buildh0_put_a _Nil 4
	ltU
	jmp_false else.146
	jsr_eval 0
	pushI_a 0
	pushI_a 2
	push_b 2
	updatepop_a 1 3
	subLU
	push_b_decI 7
	push_b_decI 15
	push_b_decI 16
	decI
	jsr_eval 0
	push_arg 0 2 2
	jsr_eval 0
	push_array 0
	updatepop_a 0 2
	push_b 0
	update_b 5 1
	update INT 0 1
	push_b 0
	update_b 3 1
	update INT 0 1
	push_b2 14 15
	subI
	push_a 1
	pushI 0
	pushI 0
.d 2 3 iii
	jsr s44
.o 1 1 i
	update_b 1 3
	updatepop_b 16 2
	update INT 0 1
	push_b_decI 12
	updatepop_b 0 13
.d 2 1 i
	jmp s26
else.146
	jsr_eval 0
	pushI_a 0
	pushI_a 2
	push_b 2
	updatepop_a 1 3
	subLU
	push_b_decI 14
	push_b_decI 15
	decI
	jsr_eval 0
	push_arg 0 2 2
	jsr_eval 0
	push_array 0
	updatepop_a 0 2
	push_b 0
	update_b 4 1
	update INT 0 1
	update2pop_b 0 1
	update INT 0 1
	push_b2 5 12
	update INT 0 1
	push_b_decI 12
	updatepop_b 0 13
.d 2 1 i
	jmp s26
.export e_Data.Integer.Div_d_f2.195
.export e_Data.Integer.Div_n_f2.195
.descn e_Data.Integer.Div_d_f2.195 e_Data.Integer.Div_n_f2.195 5 0 "_f2.195"
.nu 2 3 e_Data.Integer.Div_d_f2.195 _
.o 1 0 
e_Data.Integer.Div_n_f2.195
	push_node_u _cycle_in_spine 2 3
.o 3 3 iii
ea195
.o 3 3 iii
s195
	push_b_decI 1
	decI
	push2_b 2
	subI
	push_b 4
	update_b 2 5
	update_b 0 4
	updatepop_b 1 3
	pushI 0
	pushI 0
.d 2 5 iiiii
	jsr s37
.o 1 1 i
	push_a 0
	buildh ARRAY 1
	buildI_b 0
	fillh _Tuple 2 3
.d 1 0 
	pop_ab_rtn 1 1
.export e_Data.Integer.Div_d_f1.194
.export e_Data.Integer.Div_n_f1.194
.descn e_Data.Integer.Div_d_f1.194 e_Data.Integer.Div_n_f1.194 5 0 "_f1.194"
.nu 3 2 e_Data.Integer.Div_d_f1.194 _
.o 1 0 
e_Data.Integer.Div_n_f1.194
	push_node_u _cycle_in_spine 3 2
.o 4 2 ii
ea194
.o 4 2 ii
s194
	push_b_decI 1
	decI
	jsr_eval 0
	pushI_a 0
	push2_b 3
	subI
	pop_a 1
	update3pop_b 0 2
	pushI 0
	pushI 0
.d 2 5 iiiii
	jsr s37
.o 1 1 i
	push_a 0
	buildh ARRAY 1
	buildI_b 0
	fillh _Tuple 2 3
.d 1 0 
	pop_ab_rtn 1 1
.export e_Data.Integer.Div_d_f0.193
.export e_Data.Integer.Div_n_f0.193
.descn e_Data.Integer.Div_d_f0.193 e_Data.Integer.Div_n_f0.193 5 0 "_f0.193"
.nu 3 2 e_Data.Integer.Div_d_f0.193 _
.o 1 0 
e_Data.Integer.Div_n_f0.193
	push_node_u _cycle_in_spine 3 2
.o 4 2 ii
ea193
.o 4 2 ii
s193
	push_b_decI 1
	decI
	jsr_eval 0
	pushI_a 0
	push2_b 3
	subI
	pop_a 1
	update3pop_b 0 2
	pushI 0
	pushI 0
.d 2 5 iiiii
	jsr s37
.o 1 1 i
	push_a 0
	buildh ARRAY 1
	buildI_b 0
	fillh _Tuple 2 3
.d 1 0 
	pop_ab_rtn 1 1
.o 1 1 i
s43
	pushI 0
.d 1 2 ii
	push_b_jsr 1 s42
.o 1 0 
	push_arraysize_a INT 0 1 0
	push2_b 1
	subI
	updatepop_b 0 2
s20
	push_arraysize_a INT 0 1 0
	push_b 0
	update_b 2 1
	jmp_ltI else.148
.d 1 1 i
	jmp s21
else.148
	buildAC "error in resize_int_array\n"
	put_a 1
.d 1 0 
	pop_b_jsr 1 print_string_
.o 0 0 
	halt
	push_array 0
	put_a 1
.d 1 0 
	rtn 
.o 1 1 i
s21
	fill1_r _ARRAY_ 0 1 0 01
.d 1 0 
	rtn 
.o 1 2 ii
s42
	jmp_o_geI_arraysize_a INT 0 0 else.149
	selectoo INT 0 1 0 0
	push_b 2
	update INT 0 1
	push_b_incI 1
	push_b_incI 1
	update2pop_b 0 2
.d 1 2 ii
	jmp s42
else.149
.d 1 0 
	pop_b_rtn 2
.o 2 2 ii
s27
	selectoo INT 0 1 0 0
	push_b_decI 2
	push_a 1
	select INT 0 1
	push_b2 0 1
	jmp_neI else.150
	push_b 2
	update_b 4 1
	subI
	pushI -1
	push_ab 1 0
	push_b 2
	pushI 0
	pushI 0
.d 2 4 iiii
	jsr s36
.o 1 1 i
	push_b2 3 0
	subI
	swap_a1 
	updates3_b 5 3 2 4
	put_b 1
.d 2 4 iiii
	jsr s38
.o 1 1 i
	put_b 2
	update INT 0 1
.d 1 0 
	rtn 
else.150
	push_b_decI 2
	push_a 0
	select INT 0 1
	push_b_decI 4
	decI
	push_a 1
	select INT 0 1
	push_b_decI 4
	decI
	push_a 0
	select INT 0 1
	push2_b 3
	push_b 6
	divLU
	push_b2 1 3
	mulUUL
	buildI_b 1
	push_b2 0 2
	ltU
	jmp_true then.151
	push_b2 0 2
	jmp_neI else.151
	pushI_a 0
	push_b 5
	ltU
	jmp_false else.151
then.151
	push_b2 2 0
	subI
	push_b 5
	pushI_a 0
	push_b 2
	update3pop_b 0 1
	pop_a 1
	subLU
	buildI_b 1
	push_b2 9 0
	ltU
	jmp_true then.154
	push_b2 9 0
	jmp_neI else.154
	push_b 7
	pushI_a 0
	ltU
	jmp_false else.154
then.154
	push_b2 0 9
	subI
	pushI_a 0
	push_b 1
	updates2_b 10 1 2
	pop_a 1
	subLU
	buildI_b 1
	buildI 1
	buildI_b 7
	build e_StdInt_d-;7 2 e_StdInt_n-;7
	jmp_neI_b 0 0 then.157
	jsr_eval 0
	pushI_a 0
	pushI_a 1
	update2pop_b 0 2
	ltU
	notB
	pushI 0
	jmp_b_false 1 else.157
then.157
	jsr_eval 0
	pushI_a 0
	updatepop_a 2 3
	update_b 0 15
	pop_b 14
	update INT 0 1
.d 1 0 
	rtn 
else.157
	push_b_decI 14
	decI
	jsr_eval 0
	pushI_a 0
	push2_b 16
	subI
	push_update_a 3 1
	updates3pop_a 0 1 3 2
	update3pop_b 0 2
	pushI 0
	pushI 0
.d 2 5 iiiii
	jsr s37
.o 1 1 i
	push_b 0
	pushI_a 2
	update2pop_b 0 1
	buildh0_put_a _Nil 3
	ltU
	jmp_false else.159
	pushI 1
	pushI_a 1
	subI
	update_b 0 13
	pop_b 12
	updatepop_a 0 2
	update INT 0 1
.d 1 0 
	rtn 
else.159
	pushI_a 1
	update_b 0 13
	pop_b 12
	updatepop_a 0 2
	update INT 0 1
.d 1 0 
	rtn 
else.154
	push_b_decI 5
	decI
	update_b 0 13
	pop_b 12
	updatepop_a 1 2
	update INT 0 1
.d 1 0 
	rtn 
else.151
	push_b2 0 2
	subI
	pushI_a 0
	push_b 1
	updates2_b 7 1 2
	pop_a 1
	subLU
	buildI_b 1
	jmp_neI_b 0 0 then.160
	push_b 5
	pushI_a 0
	update2pop_b 0 2
	ltU
	notB
	pushI 0
	jmp_b_false 1 else.160
then.160
	update_b 5 12
	pop_b 11
	updatepop_a 1 2
	update INT 0 1
.d 1 0 
	rtn 
else.160
	push_b_decI 12
	decI
	push2_b 13
	subI
	swap_a 2
	push_b 7
	update_b 2 4
	update_b 0 3
	updatepop_b 1 2
	pushI 0
	pushI 0
.d 2 5 iiiii
	jsr s37
.o 1 1 i
	push_b 0
	pushI_a 1
	update2pop_b 0 1
	put_a 1
	ltU
	jmp_false else.162
	push_b_decI 3
	update_b 0 11
	pop_b 10
	update INT 0 1
.d 1 0 
	rtn 
else.162
	update_b 3 10
	pop_b 9
	update INT 0 1
.d 1 0 
	rtn 
.o 2 5 iiiii
s37
	push_b2 4 0
	jmp_geI else.163
	selectoo INT 0 1 0 0
	push_b2 3 1
	addI
	selectoo INT 0 1 1 0
	push_b2 6 2
	mulUUL
	push_b 0
	updates2_b 7 2 1
	addLU
	push_b2 1 2
	pushI 0
	subLU
	push_b2 1 5
	swap_a1 
	update INT 0 1
	push_b2 0 2
	subI
	push_b_incI 8
	swap_a1 
	update2pop_b 0 9
.d 2 5 iiiii
	jmp s37
else.163
	pop_a 1
	updatepop_b 1 4
.d 1 1 i
	rtn 
.o 2 4 iiii
s38
	jmp_neI_b 0 0 else.164
	push_a 0
	pop_b 1
	push_arraysize INT 0 1
	decI
	push_a 1
	update2pop_b 0 1
.d 2 2 ii
	jsr s39
.o 0 1 b
	jmp_false else.165
.d 1 1 i
	rtn 
else.165
	buildAC "adjust 1"
	put_a 1
.d 1 0 
	pop_b_jsr 1 print_string_
.o 0 0 
	halt
	repl_args 2 2
	jsr_eval 1
	jsr_eval 0
	push_array 1
	pushI_a 1
	updatepop_a 0 2
.d 1 1 i
	rtn 
else.164
	push_b 0
	pushI 0
	jmp_geI else.166
	push_a2 0 1
	updates2_a_pop_a 0 2 3 1
	push_b 1
	pushI 0
	pushI 0
.d 2 3 iii
	jsr s44
.o 1 1 i
	push2_b 1
	jmp_neI else.167
	jmp_eqI_b 0 4 else.167
	push_a 1
	pop_b 2
	push_arraysize INT 0 1
	decI
	push_a2 0 1
	updates2_a_pop_a 0 2 3 1
	update2pop_b 0 1
.d 2 2 ii
	jsr s39
.o 0 1 b
	jmp_false else.169
	decI
.d 1 1 i
	rtn 
else.169
	buildAC "adjust 2"
	put_a 1
.d 1 0 
	pop_b_jsr 1 print_string_
.o 0 0 
	halt
	repl_args 2 2
	jsr_eval 1
	jsr_eval 0
	push_array 1
	pushI_a 1
	updatepop_a 0 2
.d 1 1 i
	rtn 
else.167
	buildAC "second add_integer_array"
	updatepop_a 0 2
.d 1 0 
	pop_b_jsr 5 print_string_
.o 0 0 
	halt
	repl_args 2 2
	jsr_eval 1
	jsr_eval 0
	push_array 1
	pushI_a 1
	updatepop_a 0 2
.d 1 1 i
	rtn 
else.166
	updatepop_b 0 3
.d 0 1 i
	pop_a_jsr 2 ItoAC
.o 1 0 
	buildAC "adjust estimate too low "
.d 2 0 
	jsr catAC
.o 1 0 
.d 1 0 
	jsr print_string_
.o 0 0 
	halt
	repl_args 2 2
	jsr_eval 1
	jsr_eval 0
	push_array 1
	pushI_a 1
	updatepop_a 0 2
.d 1 1 i
	rtn 
.o 2 3 iii
s44
	jmp_o_geI_arraysize_a INT 0 0 else.170
	push_b2 2 0
	addI
	selectoo INT 0 1 1 0
	selectoo INT 0 1 0 2
	push_b 4
	pushI 0
	push_b 2
	updates2_b 0 2 3
	pop_b 1
	addLU
	addLU
	push_b2 1 2
	swap_a1 
	update INT 0 1
	push_b_incI 3
	swap_a1 
	update2pop_b 0 4
.d 2 3 iii
	jmp s44
else.170
	pop_a 1
	updatepop_b 1 2
.d 1 1 i
	rtn 
.o 2 2 ii
s39
	pushI 0
	push_b 1
	jmp_ltI else.171
	selectoo INT 0 1 1 0
	push2_b 2
	addI
	push_a 0
	select INT 0 1
	ltU
	jmp_false else.172
	pop_b_pushB 2 TRUE
.d 0 1 b
	pop_a_rtn 2
else.172
	selectoo INT 0 1 1 0
	push2_b 2
	addI
	push_a 0
	select INT 0 1
	jmp_neI else.173
	decI
.d 2 2 ii
	jmp s39
else.173
	pop_b_pushB 2 FALSE
.d 0 1 b
	pop_a_rtn 2
else.171
	pop_b_pushB 2 FALSE
.d 0 1 b
	pop_a_rtn 2
.o 2 4 iiii
s36
	jmp_o_geI_arraysize_a INT 0 0 else.174
	selectoo INT 0 1 0 0
	push_b2 3 1
	addI
	selectoo INT 0 1 1 0
	push_b2 6 2
	mulUUL
	push_b 0
	updates2_b 7 2 1
	addLU
	push_b2 1 2
	pushI 0
	subLU
	push_b2 1 5
	swap_a1 
	update INT 0 1
	push_b2 0 2
	subI
	push_b_incI 8
	swap_a1 
	update2pop_b 0 9
.d 2 4 iiii
	jmp s36
else.174
	pop_a 1
	updatepop_b 1 3
.d 1 1 i
	rtn 
.o 0 3 iii
s17
.inline addLU
	addLU
.end
.d 0 2 ii
	rtn 
.o 1 1 i
s35
	push_arraysize_a INT 0 1 0
.d 0 1 i
	jsr s19
.o 1 0 
	push_b 0
	pushI 64
	subI
	swap_a1 
	swap_b1 
	pushI 0
	pushI 0
.d 2 4 iiii
	jsr s40
.o 1 1 i
.d 1 0 
	pop_b_rtn 1
.o 2 4 iiii
s40
	jmp_o_geI_arraysize_a INT 0 0 else.175
	selectoo INT 0 1 0 0
	push_b2 3 0
	shiftl%
	push_b 3
	addI
	push_b 2
	swap_a1 
	update INT 0 1
	push_b 0
	update_b 5 1
	shiftrU
	push_b_incI 1
	swap_a1 
	update2pop_b 0 2
.d 2 4 iiii
	jmp s40
else.175
	pop_a 1
	updatepop_b 1 3
.d 1 1 i
	rtn 
.o 2 2 ii
s47
	push2_b 1
	jmp_geI else.176
	selectoo INT 0 1 0 0
	push_b 1
	swap_a1 
	update INT 0 1
	incI
	swap_a1 
.d 2 2 ii
	jmp s47
else.176
.d 1 0 
	pop_ab_rtn 1 2
.o 0 5 iiiii
s25
	push_b2 3 0
	jmp_neI else.177
	pop_b 5
	pushI 0
	pushB FALSE
.d 0 2 bi
	rtn 
else.177
	push_b 0
	updates2_b 4 2 1
	divLU
	push_b2 1 4
	mulUUL
	buildI_b 1
	push_b2 0 2
	ltU
	jmp_true then.178
	push_b2 0 2
	jmp_neI else.178
	pushI_a 0
	push_b 5
	ltU
	jmp_false else.178
then.178
	push_b2 2 0
	subI
	push_b 5
	pushI_a 0
	push_b 2
	update3pop_b 0 1
	pop_a 1
	subLU
	buildI_b 1
	push_b2 7 0
	ltU
	jmp_true then.181
	push_b2 7 0
	jmp_neI else.181
	push_b 8
	pushI_a 0
	ltU
	jmp_false else.181
then.181
	push_b2 0 7
	subI
	pushI_a 0
	push_b 1
	updates2_b 11 1 2
	pop_a 1
	subLU
	buildI 1
	buildI_b 7
	build e_StdInt_d-;7 2 e_StdInt_n-;7
	jmp_neI_b 0 0 then.184
	jsr_eval 0
	pushI_a 0
	updates2_b 0 2 1
	pop_b 1
	ltU
	notB
	pushI 0
	jmp_b_false 1 else.184
then.184
	jsr_eval 0
	pushI0_pop_a1 
	updatepop_b 0 11
	pushB TRUE
.d 0 2 bi
	rtn 
else.184
	pop_b 11
	pushI 0
	pushB FALSE
.d 0 2 bi
	pop_a_rtn 1
else.181
	push_b_decI 5
	decI
	updatepop_b 0 9
	pushB TRUE
.d 0 2 bi
	pop_a_rtn 1
else.178
	push_b2 0 2
	subI
	pushI_a 0
	push_b 1
	updates2_b 7 1 2
	pop_a 1
	subLU
	jmp_neI_b 0 0 then.186
	updates2_b 5 1 0
	ltU
	notB
	pushI 0
	jmp_b_false 1 else.186
then.186
	updatepop_b 5 8
	pushB TRUE
.d 0 2 bi
	rtn 
else.186
	pop_b 9
	pushI 0
	pushB FALSE
.d 0 2 bi
	rtn 
.o 0 3 iii
s18
.inline subLU
	subLU
.end
.d 0 2 ii
	rtn 
.o 0 2 ii
s16
.inline mulud
	mulUUL
.end
.d 0 2 ii
	rtn 
.o 2 0 
s31
	push_arraysize_a INT 0 1 1
	decI
	push_arraysize_a INT 0 1 0
	decI
s71
	pushI 0
	jmp_o_geI 1 else.188
	pop_b_pushB 2 TRUE
.d 0 1 b
	pop_a_rtn 2
else.188
	selectoo INT 0 1 1 1
	selectoo INT 0 1 0 1
	jmp_neI else.189
	push_b_decI 1
	push_b_decI 1
	update2pop_b 0 2
.d 2 2 ii
	jmp s71
else.189
	select INT 0 1
	push_b 1
	select INT 0 1
	update2pop_b 0 1
	ltU
.d 0 1 b
	rtn 
.o 0 1 i
s9
	pushI 4294967296
	push_b 1
	ltU
	jmp_false else.190
	pushI 65536
	push_b 1
	ltU
	jmp_false else.191
	pushI 256
	push_b 1
	ltU
	jmp_false else.192
	pushI 16
	push_b 1
	ltU
	jmp_false else.193
	push_b 0
	addI
	pushI 21935
	shiftrU
	andIi 3
	pushI 60
	addI
.d 0 1 i
	rtn 
else.193
	pushI 4
	swap_b1 
	shiftrU
	push_b 0
	addI
	pushI 21935
	shiftrU
	andIi 3
	pushI 56
	addI
.d 0 1 i
	rtn 
else.192
	pushI 4096
	push_b 1
	ltU
	jmp_false else.194
	pushI 8
	swap_b1 
	shiftrU
	push_b 0
	addI
	pushI 21935
	shiftrU
	andIi 3
	pushI 52
	addI
.d 0 1 i
	rtn 
else.194
	pushI 12
	swap_b1 
	shiftrU
	push_b 0
	addI
	pushI 21935
	shiftrU
	andIi 3
	pushI 48
	addI
.d 0 1 i
	rtn 
else.191
	pushI 16777216
	push_b 1
	ltU
	jmp_false else.195
	pushI 1048576
	push_b 1
	ltU
	jmp_false else.196
	pushI 16
	swap_b1 
	shiftrU
	push_b 0
	addI
	pushI 21935
	shiftrU
	andIi 3
	pushI 44
	addI
.d 0 1 i
	rtn 
else.196
	pushI 20
	swap_b1 
	shiftrU
	push_b 0
	addI
	pushI 21935
	shiftrU
	andIi 3
	pushI 40
	addI
.d 0 1 i
	rtn 
else.195
	pushI 268435456
	push_b 1
	ltU
	jmp_false else.197
	pushI 24
	swap_b1 
	shiftrU
	push_b 0
	addI
	pushI 21935
	shiftrU
	andIi 3
	pushI 36
	addI
.d 0 1 i
	rtn 
else.197
	pushI 28
	swap_b1 
	shiftrU
	push_b 0
	addI
	pushI 21935
	shiftrU
	andIi 3
	pushI 32
	addI
.d 0 1 i
	rtn 
else.190
	pushI 281474976710656
	push_b 1
	ltU
	jmp_false else.198
	pushI 1099511627776
	push_b 1
	ltU
	jmp_false else.199
	pushI 68719476736
	push_b 1
	ltU
	jmp_false else.200
	pushI 32
	swap_b1 
	shiftrU
	push_b 0
	addI
	pushI 21935
	shiftrU
	andIi 3
	pushI 28
	addI
.d 0 1 i
	rtn 
else.200
	pushI 36
	swap_b1 
	shiftrU
	push_b 0
	addI
	pushI 21935
	shiftrU
	andIi 3
	pushI 24
	addI
.d 0 1 i
	rtn 
else.199
	pushI 17592186044416
	push_b 1
	ltU
	jmp_false else.201
	pushI 40
	swap_b1 
	shiftrU
	push_b 0
	addI
	pushI 21935
	shiftrU
	andIi 3
	pushI 20
	addI
.d 0 1 i
	rtn 
else.201
	pushI 44
	swap_b1 
	shiftrU
	push_b 0
	addI
	pushI 21935
	shiftrU
	andIi 3
	pushI 16
	addI
.d 0 1 i
	rtn 
else.198
	pushI 72057594037927936
	push_b 1
	ltU
	jmp_false else.202
	pushI 4503599627370496
	push_b 1
	ltU
	jmp_false else.203
	pushI 48
	swap_b1 
	shiftrU
	push_b 0
	addI
	pushI 21935
	shiftrU
	andIi 3
	pushI 12
	addI
.d 0 1 i
	rtn 
else.203
	pushI 52
	swap_b1 
	shiftrU
	push_b 0
	addI
	pushI 21935
	shiftrU
	andIi 3
	pushI 8
	addI
.d 0 1 i
	rtn 
else.202
	pushI 1152921504606846976
	push_b 1
	ltU
	jmp_false else.204
	pushI 56
	swap_b1 
	shiftrU
	push_b 0
	addI
	pushI 21935
	shiftrU
	andIi 3
	pushI 4
	addI
.d 0 1 i
	rtn 
else.204
	pushI 60
	swap_b1 
	shiftrU
	push_b 0
	addI
	pushI 21935
	shiftrU
	andIi 3
.d 0 1 i
	rtn 
.o 1 1 i
s61
.d 1 1 i
	jsr s30
.o 1 1 i
.d 1 0 
	pop_b_rtn 1
.o 1 1 i
s30
	push_arraysize_a INT 0 1 0
	decI
	selectoo INT 0 1 0 0
	push_b2 2 0
	ltU
	jmp_false else.205
.d 0 1 i
	push_b_jsr 1 s19
.o 1 0 
	push_b_decI 1
	push_a 1
	buildh ARRAY 1
	update2pop_b 0 1
	update2pop_a 0 1
.d 2 3 iii
	jmp s45
else.205
	push_b 2
	swap_b1 
	pushI 0
	divLU
	push_b_incI 2
.d 0 1 i
	jsr s19
.o 1 0 
	push_b2 1 2
	update INT 0 1
	push_b_decI 2
	push_a 1
	buildh ARRAY 1
	update2pop_b 0 2
	update2pop_a 0 1
s45
	pushI 0
	push_b 1
	jmp_ltI else.206
	jsr_eval 0
	push_a 0
	push_array 0
	put_a 1
	push_b 0
	select INT 0 1
	push_b2 0 2
	update_b 5 2
	divLU
	push_b2 1 2
	swap_a1 
	update INT 0 1
	push_b_decI 2
	swap_a1 
	update2pop_b 0 3
.d 2 3 iii
	jmp s45
else.206
	pop_a 1
	updatepop_b 1 2
.d 1 1 i
	rtn 
.o 0 1 i
s19
	create_array_ INT 0 1
.d 1 0 
	rtn 
.o 0 2 ii
s59
	pushI 0
	push_b 1
	jmp_ltI else.207
.d 0 1 i
	pop_b_jmp 1 s60
else.207
.d 0 1 i
	pop_b_jmp 1 s23
.o 0 2 ii
s58
	pushI 0
	push_b 1
	jmp_ltI else.208
.d 0 1 i
	pop_b_jmp 1 s23
else.208
.d 0 1 i
	pop_b_jmp 1 s60
.o 0 1 i
s60
	push_b 0
	pushI -9223372036854775808
	ltU
	jmp_false else.209
	pushI 1
	create_array_ INT 0 1
	pushI 0
	update INT 0 1
	pushI -1
.d 1 1 i
	rtn 
else.209
	pushI 0
	create_array_ INT 0 1
	push_b 0
	negI
	put_b 1
.d 1 1 i
	rtn 
.o 0 1 i
s23
	pushI 0
	push_b 1
	jmp_ltI else.210
	pushI 0
	create_array_ INT 0 1
.d 1 1 i
	rtn 
else.210
	pushI 1
	create_array_ INT 0 1
	pushI 0
	update INT 0 1
	pushI 0
.d 1 1 i
	rtn 
.o 0 3 iii
s13
.inline divLU
	divLU
.end
.d 0 2 ii
	rtn 
.o 0 2 ii
s12
.inline ltU
	ltU
.end
.d 0 1 b
	rtn 
.o 0 2 ii
s15
.inline ushiftr
	shiftrU
.end
.d 0 1 i
	rtn 
.o 2 1 i
s185
	jmp_neI_b 0 0 case.212
	update_a 1 0
	pop_b 1
	push_arraysize INT 0 1
	push_b_decI 0
	push_a 0
	select INT 0 1
	push_b_decI 1
	decI
	select INT 0 1
	push_b2 0 1
	update2pop_b 0 3
	pushI 0
.d 0 3 iii
	rtn 
case.212
	swap_a1 
	push_arraysize INT 0 1
	pushI 3
	push_b 1
	jmp_ltI else.213
	push_b_decI 0
	push_a 0
	select INT 0 1
	push_b_decI 1
	decI
	push_a 0
	select INT 0 1
	pushI 3
	push_b 3
	subI
	select INT 0 1
	push_b 4
	pushI 64
	subI
	push_b2 0 1
	shiftrU
	push_b2 6 3
	shiftl%
	or%
	push_b2 1 3
	shiftrU
	push_b2 7 5
	shiftl%
	or%
	push_b2 2 5
	shiftrU
	update3pop_b 0 6
.d 0 3 iii
	rtn 
else.213
	pushI 1
	push_a 0
	put_b 1
	select INT 0 1
	pushI 0
	select INT 0 1
	push_b 2
	pushI 64
	subI
	push_b2 3 1
	shiftl%
	push_b2 1 2
	shiftrU
	push2_b 5
	shiftl%
	or%
	push_b2 2 4
	shiftrU
	update3pop_b 0 4
.d 0 3 iii
	rtn 
.o 2 1 i
s186
	jmp_neI_b 0 0 case.215
	update_a 1 0
	pop_b 1
	push_arraysize INT 0 1
	push_b_decI 0
	push_a 0
	select INT 0 1
	push_b_decI 1
	decI
	select INT 0 1
	put_b 2
.d 0 2 ii
	rtn 
case.215
	dup_a 1
	push_arraysize INT 0 1
	push_b_decI 0
	push_a 0
	select INT 0 1
	push_b_decI 1
	decI
	push_a 0
	select INT 0 1
	push_b 2
	pushI 2
	ltI
	push_ab 0 3
	buildh ARRAY 1
	swap_b1 
	put_a 1
.d 1 2 bi
	jsr s94
.o 0 1 i
	push_b 4
	pushI 64
	subI
	push_b2 0 1
	shiftrU
	push_b2 6 3
	shiftl%
	or%
	push_b2 1 3
	shiftrU
	push_b2 7 5
	shiftl%
	or%
	update2pop_b 0 6
.d 0 2 ii
	rtn 
.o 2 1 i
s187
	jmp_neI_b 0 0 case.217
	pop_b 1
	push_arraysize INT 0 1
	push_b_decI 0
	push_a 0
	select INT 0 1
	push_b_decI 1
	decI
	push_a 0
	select INT 0 1
	pushI 3
	push_b 3
	subI
	select INT 0 1
	update_b 0 3
	push_b 2
	updates2pop_b 0 2 3
.d 0 3 iii
	rtn 
case.217
	update_a 1 0
	push_arraysize INT 0 1
	push_b_decI 0
	push_a 0
	select INT 0 1
	push_b_decI 1
	decI
	push_a 0
	select INT 0 1
	pushI 3
	push_b 3
	subI
	push_a 0
	select INT 0 1
	push_b 3
	pushI 3
	ltI
	push_b 0
	update_b 5 1
.d 1 2 bi
	jsr s95
.o 0 1 i
	push_b 5
	pushI 64
	subI
	push_b2 0 1
	shiftrU
	push_b2 7 3
	shiftl%
	or%
	push_b2 1 3
	shiftrU
	push_b2 8 5
	shiftl%
	or%
	push_b2 2 5
	shiftrU
	push_b2 9 7
	shiftl%
	or%
	update3pop_b 0 7
.d 0 3 iii
	rtn 
.o 2 1 i
s188
	jmp_neI_b 0 0 case.219
.d 1 0 
	pop_b_jsr 1 s46
.o 1 0 
.d 2 0 
	rtn 
case.219
	swap_a1 
.d 1 1 i
	push_b_jsr 0 s35
.o 1 0 
	push_a 1
.d 1 1 i
	buildh0_put_a_jsr _Nil 3 s35
.o 1 0 
	update2pop_a 0 1
.d 2 0 
	rtn 
.o 1 0 
s189
	push_arraysize_a INT 0 1 0
	push_b_decI 0
	push_a 0
	select INT 0 1
	push_b_decI 1
	decI
	select INT 0 1
	push_b2 0 1
	update2pop_b 0 3
	pushI 0
.d 0 3 iii
	rtn 
.o 1 0 
s190
	push_arraysize_a INT 0 1 0
	push_b_decI 0
	push_a 0
	select INT 0 1
	push_b_decI 1
	decI
	select INT 0 1
	put_b 2
.d 0 2 ii
	rtn 
.o 2 1 i
s191
	jmp_neI_b 0 0 case.221
	push_a 1
	buildh ARRAY 1
	put_a 2
.d 2 0 
	pop_b_jsr 1 s192
.o 2 0 
	push_array 1
	put_a 2
.d 2 0 
	rtn 
case.221
	push_arraysize_a INT 0 1 0
	push_b_incI 0
.d 0 1 i
	jsr s19
.o 1 0 
	push_b 1
	pushI 64
	subI
	swap_a1 
	push_b 2
	pushI 0
	pushI 0
.d 2 4 iiii
	jsr s40
.o 1 1 i
	swap_a1 
.d 1 1 i
	push_b_jsr 2 s35
.o 1 0 
	put_b 2
	push_a 1
	buildh0_put_a _Nil 3
	update INT 0 1
	update2pop_a 0 1
.d 2 0 
	rtn 
.o 2 0 
s192
	push_arraysize_a INT 0 1 0
	push_b_incI 0
.d 0 1 i
	jsr s19
.o 1 0 
	pushI 0
	push_b 1
	update INT 0 1
	swap_a1 
	pushI 0
.d 2 2 ii
	jsr s47
.o 1 0 
.d 2 0 
	rtn 
