.comp 920 000011110011000
.start _nostart_
.depend "StdCharList" "20210613122638"
.depend "_SystemArray" "20210613122638"
.depend "StdArray" "20210613122638"
.depend "StdEnv" "20210613122638"
.depend "_SystemEnum" "20210613122638"
.depend "StdEnum" "20210613122638"
.depend "StdTuple" "20210613122638"
.depend "StdOrdList" "20210613122638"
.depend "Data.GenDefault" "20210613122637"
.depend "Data.Integer" "20210613122637"
.depend "Text.GenJSON" "20210613122637"
.depend "StdFile" "20210613122638"
.depend "StdString" "20210613122638"
.depend "Control.Monad.Fail" "20210613122637"
.depend "Data.Traversable" "20210613122637"
.depend "StdMisc" "20210613122638"
.depend "StdOverloadedList" "20210613122638"
.depend "Data.List" "20210613122637"
.depend "Data.Foldable" "20210613122637"
.depend "Data.GenLexOrd" "20210613122637"
.depend "StdFunctions" "20210613122638"
.depend "StdFunc" "20210613122638"
.depend "_SystemEnumStrict" "20210613122638"
.depend "_SystemStrictLists" "20210613122638"
.depend "StdStrictLists" "20210613122638"
.depend "StdGeneric" "20210613122638"
.depend "Data.GenEq" "20210613122637"
.depend "StdReal" "20210613122638"
.depend "StdChar" "20210613122638"
.depend "StdInt" "20210613122638"
.depend "StdBool" "20210613122638"
.depend "StdClass" "20210613122638"
.depend "StdList" "20210613122638"
.depend "Data.Monoid" "20210613122637"
.depend "Control.Applicative" "20210613122637"
.depend "Control.Monad" "20210613122637"
.depend "Data.Functor" "20210613122637"
.depend "StdOverloaded" "20210613122638"
.depend "_SystemDynamic" "20210613122638"
.depend "Data.Integer.GenJSON" "20210613122637"
.module m_Data.Integer.GenJSON "Data.Integer.GenJSON" "20210613122637"
.endinfo
.impmod _system
.implab _cycle_in_spine
.implab _type_error
.implab _hnf
.impdesc e_system_dind
.implab e_system_nind e_system_eaind
.impdesc e_system_dif
.implab e_system_nif e_system_eaif
.implab e_system_sif
.impdesc e_system_dAP
.implab e_system_nAP e_system_eaAP
.implab e_system_sAP
.impdesc ARRAY
.impdesc _Nil
.impdesc _Cons
.impdesc _Conss
.implab n_Conss ea_Conss
.impdesc _Consts
.implab n_Consts ea_Consts
.impdesc _Conssts
.implab n_Conssts ea_Conssts
.impdesc _Tuple
.impdesc d_S.1
.implab n_S.1 ea_S.1
.impdesc d_S.2
.implab n_S.2 ea_S.2
.impdesc d_S.3
.implab n_S.3 ea_S.3
.impdesc d_S.4
.implab n_S.4 ea_S.4
.impdesc d_S.5
.implab n_S.5 ea_S.5
.impdesc d_S.6
.implab n_S.6 ea_S.6
.implab _driver
.impmod _SystemArray
.impdesc e__SystemArray_dusize;15
.implab e__SystemArray_nusize;15
.impmod StdInt
.implab e_StdInt_s+;6
.implab e_StdInt_s-;7
.implab e_StdInt_sone;11
.implab e_StdInt_s<;17
.impmod StdBool
.implab e_StdBool_snot
.impmod StdList
.implab e_StdList_sall
.impmod Data.Integer
.impdesc e_Data.Integer_rInteger
.impdesc e_Data.Integer_dInteger.integer_s
.implab e_Data.Integer_nInteger.integer_s
.impdesc e_Data.Integer_dInteger.integer_a
.implab e_Data.Integer_nInteger.integer_a
.impmod Text.GenJSON
.impdesc e_Text.GenJSON_kJSONInt
.impdesc e_Text.GenJSON_dJSONInt
.implab e_Text.GenJSON_nJSONInt e_Text.GenJSON_eaJSONInt
.impdesc e_Text.GenJSON_kJSONArray
.impdesc e_Text.GenJSON_dJSONArray
.implab e_Text.GenJSON_nJSONArray e_Text.GenJSON_eaJSONArray
.export e_Data.Integer.GenJSON_sJSONDecode_Integer;1
.descexp e_Data.Integer.GenJSON_dJSONDecode_Integer;1 e_Data.Integer.GenJSON_nJSONDecode_Integer;1 e_Data.Integer.GenJSON_lJSONDecode_Integer;1 2 0 "JSONDecode_Integer;1"
.o 2 1 b
e_Data.Integer.GenJSON_iJSONDecode_Integer;1
	pop_a 1
.d 1 1 b
	jmp s2
.ai 0 a2 e_Data.Integer.GenJSON_iJSONDecode_Integer;1
.o 2 0
e_Data.Integer.GenJSON_lJSONDecode_Integer;1
	repl_args 1 1
.o 2 0
a2
.d 2 0
	jsr ea2
.o 2 0
	push_a 1
	push_a 1
	buildh _Tuple 2
	updatepop_a 0 2
.d 1 0
	rtn
.n 2 e_Data.Integer.GenJSON_dJSONDecode_Integer;1
.o 1 0
e_Data.Integer.GenJSON_nJSONDecode_Integer;1
	push_node _cycle_in_spine 2
.d 2 0
	jsr ea2
.o 2 0
	push_a 1
	push_a 1
	fillh _Tuple 2 4
	pop_a 2
.d 1 0
	rtn
.o 2 0
ea2
	jsr_eval 1
	jsr_eval 0
	pushB_a 0
	pop_a 1
.o 1 1 b
e_Data.Integer.GenJSON_sJSONDecode_Integer;1
.o 1 1 b
s2
	eq_desc _Cons 2 0
	jmp_true case.1
	jmp case.2
case.1
	push_args 0 2 2
	jsr_eval 0
	eq_desc e_Text.GenJSON_kJSONInt 0 0
	jmp_true case.3
	pop_a 2
	jmp case.2
case.3
	repl_r_args 0 1
	jsr_eval 0
	eq_desc _Cons 2 0
	jmp_true case.4
	pop_a 1
	pop_b 1
	jmp case.2
case.4
	repl_args 2 2
	jsr_eval 0
	eq_desc e_Text.GenJSON_kJSONArray 0 0
	jmp_true case.5
	pop_a 2
	pop_b 1
	jmp case.2
case.5
	repl_args 1 1
	buildh e_Data.Integer.GenJSON_d\;8;17;3.4 0
	push_a 1
	push_a 1
	update_a 1 2
	update_a 0 1
	pop_a 1
.d 2 0
	jsr e_StdList_sall
.o 0 1 b
	notB
	jmp_false else.6
	buildh _Nothing 0
	push_a 3
	push_a 1
	update_a 1 2
	update_a 0 1
	pop_a 1
	update_a 1 4
	updatepop_a 0 3
	pop_b 2
.d 2 0
	rtn
else.6
	push_a 1
	jsr_eval 0
	push_a 1
	pushI 0
	buildh _Nil 0
	update_a 0 4
	pop_a 1
.d 1 1 i
	jsr s10
.o 0 1 i
	create_array_ INT 0 1
	push_a 2
	buildI 0
	push_a 2
	update_a 2 3
	update_a 1 2
	update_a 0 1
	pop_a 1
	buildh _Nil 0
	update_a 0 5
	pop_a 1
.d 3 0
	jsr s9
.o 1 0
	push_b 0
	buildhr e_Data.Integer_rInteger 1 1
	buildh _Just 1
	update_a 1 4
	updatepop_a 0 3
	pop_b 2
.d 2 0
	rtn
case.2
	buildh _Nothing 0
	push_a 1
	push_a 1
	update_a 1 2
	update_a 0 1
	pop_a 1
	update_a 1 2
	updatepop_a 0 1
	pop_b 1
.d 2 0
	rtn
.o 1 1 i
s10
	push_b 0
	push_a 0
	updatepop_a 0 1
	updatepop_b 0 1
.d 1 1 i
	jmp s21
.o 1 1 i
s21
	eq_desc _Cons 2 0
	jmp_true case.7
	jmp case.8
case.7
	repl_args 2 2
	push_a 1
	jsr_eval 0
	push_a 1
	jsr_eval 0
	push_b 0
	update_a 1 3
	updatepop_a 0 2
	updatepop_b 0 1
.d 2 1 i
	jmp s20
case.8
	pop_a 1
.d 0 1 i
	rtn
.o 2 1 i
s20
	eq_desc e_Text.GenJSON_kJSONInt 0 0
	jmp_true case.9
	jmp case.10
case.9
	repl_r_args 0 1
	pop_b 1
	pushI 1
	push_b 1
	addI
	push_a 0
	updatepop_a 0 1
	updatepop_b 0 1
.d 1 1 i
	jmp s10
case.10
	push_a 1
	push_b 0
	updatepop_a 0 2
	updatepop_b 0 1
.d 1 1 i
	jmp s10
.o 3 0
s9
	push_a 1
	push_a 1
	push_a 4
	update_a 2 5
	update_a 1 4
	updatepop_a 0 3
.d 3 0
	jmp s19
.o 3 0
s19
	eq_desc _Cons 2 0
	jmp_true case.11
	jmp case.12
case.11
	repl_args 2 2
	push_a 1
	jsr_eval 0
	push_a 1
	jsr_eval 0
	push_a 5
	push_a 5
	push_a 2
	update_a 2 3
	update_a 1 2
	update_a 0 1
	pop_a 1
	update_a 3 7
	update_a 2 6
	update_a 1 5
	updatepop_a 0 4
.d 4 0
	jmp s18
case.12
	updatepop_a 1 2
.d 1 0
	rtn
.o 4 0
s18
	eq_desc e_Text.GenJSON_kJSONInt 0 0
	jmp_true case.13
	jmp case.14
case.13
	repl_r_args 0 1
	push_a 1
	build e_Data.Integer.GenJSON_d_f2.146 1 e_Data.Integer.GenJSON_n_f2.146
	push_a 2
	jsr_eval 0
	pushI_a 3
	pop_a 1
	push_b 1
	push_a 1
	push_b 1
	update_b 1 2
	update_b 0 1
	pop_b 1
	update_b 1 2
	updatepop_b 0 1
	buildh _Nil 0
	update_a 0 3
	update_a 0 4
	pop_a 1
	update INT 0 1
	push_a 4
	push_a 2
	update_a 1 3
	update_a 2 1
	update_a 0 2
	pop_a 1
	update_a 2 5
	update_a 1 4
	updatepop_a 0 3
.d 3 0
	jmp s9
case.14
	push_a 3
	push_a 3
	push_a 3
	update_a 2 6
	update_a 1 5
	updatepop_a 0 4
.d 3 0
	jmp s9
.export e_Data.Integer.GenJSON_d_f2.146
.export e_Data.Integer.GenJSON_n_f2.146
.descn e_Data.Integer.GenJSON_d_f2.146 e_Data.Integer.GenJSON_n_f2.146 1 0 "_f2.146"
.n 1 e_Data.Integer.GenJSON_d_f2.146 ea146
.o 1 0
e_Data.Integer.GenJSON_n_f2.146
	push_node _cycle_in_spine 1
.o 2 0
ea146
.o 2 0
s146
	pushI 1
	push_a 0
	jsr_eval 0
	pushI_a 1
	pop_a 1
	pop_a 1
	addI
	fillI_b 0 0
	pop_b 1
.d 1 0
	rtn
.export e_Data.Integer.GenJSON_d\;8;17;3.4
.desc e_Data.Integer.GenJSON_d\;8;17;3.4 _hnf l4 1 0 "\;8;17;3.4"
.o 2 0
l4
	pop_a 1
.d 1 0
	jsr ea4
.o 0 1 b
	buildB_b 0
	pop_b 1
.d 1 0
	rtn
.o 1 0
ea4
	jsr_eval 0
.o 1 0
s4
	push_a 0
	updatepop_a 0 1
	eq_desc e_Text.GenJSON_kJSONInt 0 0
	pop_a 1
.d 0 1 b
	rtn
.export e_Data.Integer.GenJSON_sJSONEncode_Integer;0
.export e_Data.Integer.GenJSON_eaJSONEncode_Integer;0
.descexp e_Data.Integer.GenJSON_dJSONEncode_Integer;0 e_Data.Integer.GenJSON_nJSONEncode_Integer;0 e_Data.Integer.GenJSON_lJSONEncode_Integer;0 2 0 "JSONEncode_Integer;0"
.o 3 1 b
e_Data.Integer.GenJSON_iJSONEncode_Integer;0
	pop_a 1
	push_r_args 0 1 1
	update_a 0 1
	pop_a 1
	push_b 1
	update_b 1 2
	update_b 0 1
	pop_b 1
.d 2 2 bi
	jmp s1
.ai 2 e_Data.Integer.GenJSON_eaJSONEncode_Integer;0 e_Data.Integer.GenJSON_iJSONEncode_Integer;0
.o 2 0
e_Data.Integer.GenJSON_lJSONEncode_Integer;0
	push_args 0 1 1
	update_a 2 1
	create
	update_a 0 3
	pop_a 1
.d 3 0
	jmp e_Data.Integer.GenJSON_eaJSONEncode_Integer;0
.n 2 e_Data.Integer.GenJSON_dJSONEncode_Integer;0 e_Data.Integer.GenJSON_eaJSONEncode_Integer;0
.o 1 0
e_Data.Integer.GenJSON_nJSONEncode_Integer;0
	push_node _cycle_in_spine 2
.o 3 0
e_Data.Integer.GenJSON_eaJSONEncode_Integer;0
	jsr_eval 1
	jsr_eval 0
	push_r_args 1 1 1
	pushB_a 1
	update_a 0 2
	pop_a 2
.o 2 2 bi
e_Data.Integer.GenJSON_sJSONEncode_Integer;0
.o 2 2 bi
s1
	push_a 0
	buildh ARRAY 1
	build e__SystemArray_dusize;15 1 e__SystemArray_nusize;15
	buildh _Nil 0
	push_a 1
	build d_S.2 -1 n_S.2
	push_a 2
	build d_S.1 -1 n_S.1
	build e_Data.Integer.GenJSON_d_f0.144 2 e_Data.Integer.GenJSON_n_f0.144
	build e_Text.GenJSON_dJSONArray 1 e_Text.GenJSON_nJSONArray
	buildh _Cons 2
	buildI_b 1
	build e_Text.GenJSON_dJSONInt 1 e_Text.GenJSON_nJSONInt
	fillh _Cons 2 4
	pop_a 2
	pop_b 2
.d 1 0
	rtn
.export e_Data.Integer.GenJSON_d_f0.144
.export e_Data.Integer.GenJSON_n_f0.144
.descn e_Data.Integer.GenJSON_d_f0.144 e_Data.Integer.GenJSON_n_f0.144 2 0 "_f0.144"
.n 2 e_Data.Integer.GenJSON_d_f0.144 ea144
.o 1 0
e_Data.Integer.GenJSON_n_f0.144
	push_node _cycle_in_spine 2
.o 3 0
ea144
.o 3 0
s144
	push_a 0
	jsr_eval 0
	pushI_a 1
	pop_a 1
	pushI 1
	push_b 1
	update_b 1 2
	update_b 0 1
	pop_b 1
	subI
	push_a 1
	pushI 0
	updatepop_a 0 2
.d 2 2 ii
	jmp s7
.o 2 2 ii
s7
	push_b 0
	push_b 2
	ltI
	notB
	jmp_false else.15
	push_a 0
	jsr_eval 0
	push_array 0
	updatepop_a 0 1
	push_b 0
	updatepop_a 0 1
	push_a 0
	select INT 0 1
	push_a 0
	buildh ARRAY 1
	push_a 0
	push_b 2
	push_b 2
	build_u e_Data.Integer.GenJSON_d_f1.145 1 2 e_Data.Integer.GenJSON_n_f1.145
	push_b 0
	buildhr e_Text.GenJSON_kJSONInt 0 1
	fillh _Cons 2 4
	pop_a 2
	pop_b 3
.d 1 0
	rtn
else.15
	fillh _Nil 0 1
	pop_a 1
	pop_b 2
.d 1 0
	rtn
.export e_Data.Integer.GenJSON_d_f1.145
.export e_Data.Integer.GenJSON_n_f1.145
.descn e_Data.Integer.GenJSON_d_f1.145 e_Data.Integer.GenJSON_n_f1.145 3 0 "_f1.145"
.nu 1 2 e_Data.Integer.GenJSON_d_f1.145 _
.o 1 0
e_Data.Integer.GenJSON_n_f1.145
	push_node_u _cycle_in_spine 1 2
.o 2 2 ii
ea145
.o 2 2 ii
s145
	pushI 1
	push_b 1
	addI
	push_a 0
	push_b 2
	push_b 1
	update_b 1 2
	update_b 0 1
	pop_b 1
	updatepop_a 0 1
	update_b 1 3
	updatepop_b 0 2
.d 2 2 ii
	jmp s7
