.comp 920 000011110011000
.start _nostart_
.depend "StdCharList" "20210613122638"
.depend "_SystemArray" "20210613122638"
.depend "StdArray" "20210613122638"
.depend "StdEnv" "20210613122638"
.depend "_SystemEnum" "20210613122638"
.depend "StdEnum" "20210613122638"
.depend "StdTuple" "20210613122638"
.depend "StdOrdList" "20210613122638"
.depend "Data.GenDefault" "20210613122637"
.depend "Data.Integer" "20210613122637"
.depend "StdFile" "20210613122638"
.depend "StdString" "20210613122638"
.depend "StdMisc" "20210613122638"
.depend "Data.GenLexOrd" "20210613122637"
.depend "StdFunctions" "20210613122638"
.depend "_SystemEnumStrict" "20210613122638"
.depend "_SystemStrictLists" "20210613122638"
.depend "StdStrictLists" "20210613122638"
.depend "StdGeneric" "20210613122638"
.depend "Data.GenEq" "20210613122637"
.depend "StdReal" "20210613122638"
.depend "StdChar" "20210613122638"
.depend "StdInt" "20210613122638"
.depend "StdBool" "20210613122638"
.depend "StdClass" "20210613122638"
.depend "StdList" "20210613122638"
.depend "StdOverloaded" "20210613122638"
.depend "_SystemDynamic" "20210613122638"
.depend "Data.Integer.ToInteger" "20210613122637"
.module m_Data.Integer.ToInteger "Data.Integer.ToInteger" "20210613122637"
.endinfo
.impmod _system
.implab _cycle_in_spine
.implab _type_error
.implab _hnf
.impdesc e_system_dind
.implab e_system_nind e_system_eaind
.impdesc e_system_dif
.implab e_system_nif e_system_eaif
.implab e_system_sif
.impdesc e_system_dAP
.implab e_system_nAP e_system_eaAP
.implab e_system_sAP
.impdesc ARRAY
.impdesc _Nil
.impdesc _Cons
.impdesc _Conss
.implab n_Conss ea_Conss
.impdesc _Consts
.implab n_Consts ea_Consts
.impdesc _Conssts
.implab n_Conssts ea_Conssts
.impdesc _Tuple
.impdesc d_S.1
.implab n_S.1 ea_S.1
.impdesc d_S.2
.implab n_S.2 ea_S.2
.impdesc d_S.3
.implab n_S.3 ea_S.3
.impdesc d_S.4
.implab n_S.4 ea_S.4
.impdesc d_S.5
.implab n_S.5 ea_S.5
.impdesc d_S.6
.implab n_S.6 ea_S.6
.implab _driver
.impmod _SystemArray
.impmod StdString
.implab e_StdString_s%;10
.impmod StdMisc
.implab e_StdMisc_sabort
.impmod StdChar
.implab e_StdChar_s==;18
.impmod StdInt
.implab e_StdInt_sbitor
.implab e_StdInt_sbitand
.implab e_StdInt_s<<
.implab e_StdInt_s>>
.implab e_StdInt_s+;6
.implab e_StdInt_s-;7
.implab e_StdInt_s*;9
.implab e_StdInt_s/;10
.implab e_StdInt_sone;11
.implab e_StdInt_s~;15
.implab e_StdInt_s==;16
.implab e_StdInt_s<;17
.implab e_StdInt_stoInt;20
.implab e_StdInt_stoInt;23
.impmod StdBool
.implab e_StdBool_snot
.impmod Data.Integer
.impdesc e_Data.Integer_rInteger
.export e_Data.Integer.ToInteger_sstring_to_integer
.descexp e_Data.Integer.ToInteger_dstring_to_integer e_Data.Integer.ToInteger_nstring_to_integer e_Data.Integer.ToInteger_lstring_to_integer 1 0 "string_to_integer"
.o 2 0
e_Data.Integer.ToInteger_lstring_to_integer
	pop_a 1
.d 1 0
	jsr ea1
.o 1 1 i
	buildhr e_Data.Integer_rInteger 1 1
.d 1 0
	rtn
.n 1 e_Data.Integer.ToInteger_dstring_to_integer
.o 1 0
e_Data.Integer.ToInteger_nstring_to_integer
	push_node _cycle_in_spine 1
.d 1 0
	jsr ea1
.o 1 1 i
	fill_r e_Data.Integer_rInteger 1 1 1 0 0
	pop_a 1
	pop_b 1
.d 1 0
	rtn
.o 1 0
ea1
	jsr_eval 0
	push_array 0
	update_a 0 1
	pop_a 1
.o 1 0
e_Data.Integer.ToInteger_sstring_to_integer
.o 1 0
s1
	pushI 0
	push_a 0
	select CHAR 0 1
	pushC '-'
	push_b 1
	update_b 1 2
	update_b 0 1
	pop_b 1
	eqC
	jmp_false else.1
	push_a 0
	push_arraysize CHAR 0 1
	pushI 28
	ltI
	notB
	jmp_false else.2
	push_a 0
	push_arraysize CHAR 0 1
	pushI 20
	push_b 1
	update_b 1 2
	update_b 0 1
	pop_b 1
	ltI
	jmp_false else.3
	pushI 0
	create_array_ INT 0 1
	push_a 1
	buildh _Nil 0
	update_a 0 3
	pop_a 1
.d 1 0
	jsr e_StdInt_stoInt;23
.o 0 1 i
	updatepop_a 0 1
.d 1 1 i
	rtn
else.3
	push_a 0
	push_arraysize CHAR 0 1
	push_a 0
	pushI 1
	updatepop_a 0 1
.d 1 2 ii
	jsr s11
.o 0 2 ii
	pushI 0
	push_b 1
	eqI
	jmp_false else.4
	push_b 1
	push_b 0
	negI
	pushI 0
	push_b 1
	ltI
	jmp_false else.5
	pushI 0
	create_array_ INT 0 1
	push_b 0
	updatepop_b 0 4
.d 1 1 i
	rtn
else.5
	pushI 1
	updatepop_b 0 1
	create_array_ INT 0 1
	push_b 0
	pushI 0
	update_b 1 2
	updatepop_b 0 1
	update INT 0 1
	pushI -1
	updatepop_b 0 2
.d 1 1 i
	rtn
else.4
	pushI 2
	create_array_ INT 0 1
	push_b 0
	pushI 1
	update INT 0 1
	push_b 1
	pushI 0
	update INT 0 1
	pushI -1
	updatepop_b 0 2
.d 1 1 i
	rtn
else.2
	pushI -1
	push_a 0
	pushI 1
	updatepop_a 0 1
.d 1 1 i
	jsr s13
.o 1 1 i
	update_b 1 0
	updatepop_b 0 1
.d 1 1 i
	rtn
else.1
	push_a 0
	push_arraysize CHAR 0 1
	pushI 27
	ltI
	notB
	jmp_false else.6
	push_a 0
	push_arraysize CHAR 0 1
	pushI 19
	push_b 1
	update_b 1 2
	update_b 0 1
	pop_b 1
	ltI
	jmp_false else.7
	pushI 0
	create_array_ INT 0 1
	push_a 1
	buildh _Nil 0
	update_a 0 3
	pop_a 1
.d 1 0
	jsr e_StdInt_stoInt;23
.o 0 1 i
	updatepop_a 0 1
.d 1 1 i
	rtn
else.7
	push_a 0
	push_arraysize CHAR 0 1
	push_a 0
	pushI 0
	updatepop_a 0 1
.d 1 2 ii
	jsr s11
.o 0 2 ii
	pushI 0
	push_b 1
	eqI
	jmp_false else.8
	push_b 1
	pushI 0
	push_b 1
	ltI
	notB
	jmp_false else.9
	pushI 0
	create_array_ INT 0 1
	push_b 0
	updatepop_b 0 3
.d 1 1 i
	rtn
else.9
	pushI 1
	create_array_ INT 0 1
	push_b 0
	pushI 0
	update_b 1 2
	updatepop_b 0 1
	update INT 0 1
	pushI 0
	updatepop_b 0 2
.d 1 1 i
	rtn
else.8
	pushI 2
	create_array_ INT 0 1
	push_b 0
	pushI 1
	update INT 0 1
	push_b 1
	pushI 0
	update INT 0 1
	pushI 0
	updatepop_b 0 2
.d 1 1 i
	rtn
else.6
	push_a 0
	pushI 0
	updatepop_a 0 1
.d 1 1 i
	jmp s13
.o 1 1 i
s13
	push_a 0
	push_arraysize CHAR 0 1
	push_b 1
	push_b 1
	update_b 1 2
	update_b 0 1
	pop_b 1
	subI
	pushI 27
	push_b 1
	divI
	pushI 27
	push_b 1
	mulI
	pushI 6
	push_b 1
	shiftr%
	pushI 3
	push_b 3
	addI
	push_b 1
	push_b 1
	update_b 1 2
	update_b 0 1
	pop_b 1
	addI
	push_b 2
	push_b 5
	subI
	pushI 0
	push_b 2
	create_array INT 0 1
	push_a 1
	push_b 6
	push_b 3
	push_b 2
	push_a 1
	update_a 1 2
	update_a 0 1
	pop_a 1
.d 2 3 iii
	jsr s21
.o 1 1 i
	push_b 1
	push_b 8
	addI
	push_a 0
	pushI 0
	pushI 0
	push_b 3
	push_b 7
	push_a 2
	push_b 4
	update_b 4 5
	update_b 3 4
	update_b 2 3
	update_b 1 2
	update_b 0 1
	pop_b 1
	update_b 4 6
	update_b 3 5
	update_b 2 4
	update_b 1 3
	updatepop_b 0 2
	update_a 1 3
	updatepop_a 0 2
.d 2 5 iiiii
	jsr s14
.o 1 0
	pushI 1
	push_b 1
	subI
	updatepop_b 0 6
.d 1 1 i
	jmp s17
.o 1 1 i
s17
	pushI 0
	push_b 1
	eqI
	jmp_false else.10
	pushI 0
	push_a 0
	select INT 0 1
	pushI 0
	push_b 1
	update_b 1 2
	update_b 0 1
	pop_b 1
	ltI
	notB
	jmp_false else.10
	pushI 0
	updatepop_b 0 1
	create_array_ INT 0 1
	pushI 0
	push_a 1
	buildh _Nil 0
	update_a 0 3
	pop_a 1
	select INT 0 1
	updatepop_a 0 1
.d 1 1 i
	rtn
else.10
	push_b 0
	push_a 0
	select INT 0 1
	pushI 0
	push_b 1
	update_b 1 2
	update_b 0 1
	pop_b 1
	eqI
	jmp_false else.12
	pushI 1
	push_b 1
	subI
	push_a 0
	updatepop_a 0 1
	updatepop_b 0 1
.d 1 1 i
	jmp s17
else.12
	push_a 0
	push_arraysize INT 0 1
	pushI 1
	push_b 2
	addI
	eqI
	jmp_false else.13
	push_a 0
	pushI 0
	updatepop_a 0 1
	updatepop_b 0 1
.d 1 1 i
	rtn
else.13
	pushI 1
	push_b 1
	addI
	create_array_ INT 0 1
	push_b 0
	pushI 0
	push_a 1
	update_b 1 2
	updatepop_b 0 1
	update_a 1 2
	updatepop_a 0 1
.d 2 2 ii
	jsr s25
.o 1 0
	pushI 0
.d 1 1 i
	rtn
.o 2 2 ii
s25
	push_b 0
	push_b 2
	ltI
	notB
	jmp_false else.14
	pushI 1
	push_b 1
	addI
	push_b 1
	push_a 0
	select INT 0 1
	push_b 2
	push_a 1
	update_a 1 2
	updatepop_a 0 1
	update INT 0 1
	push_b 2
	push_a 1
	push_b 1
	update_b 1 2
	update_b 0 1
	pop_b 1
	update_a 1 2
	updatepop_a 0 1
	update_b 1 3
	updatepop_b 0 2
.d 2 2 ii
	jmp s25
else.14
	pop_a 1
	pop_b 2
.d 1 0
	rtn
.o 2 5 iiiii
s14
	push_a 0
	push_arraysize CHAR 0 1
	push_b 1
	ltI
	jmp_false else.15
	pushI 37
	push_b 4
	ltI
	jmp_false else.16
	pushI 7450580596923828125
	push_b 5
	mulUUL
	push_a 0
	push_b 2
.d 1 1 i
	jsr s9
.o 0 2 ii
	pushI 37
	push_b 1
	shiftl%
	pushI 27
	push_b 3
	shiftrU
	addI
	push_b 4
	push_b 4
	update_b 2 3
	update_b 1 2
	updatepop_b 0 1
	addLU
	pushI 0
	push_a 1
	push_b 8
	push_b 8
	update_a 1 2
	updatepop_a 0 1
.d 1 3 iii
	jsr s19
.o 1 1 i
	push_b 9
	pushI 64
	subI
	push_b 2
	shiftl%
	push_b 10
	push_b 4
	shiftrU
	addI
	push_a 0
	push_b 1
	push_b 9
	push_b 2
	update_b 2 3
	update_b 1 2
	update_b 0 1
	pop_b 1
	update_b 2 4
	update_b 1 3
	updatepop_b 0 2
	updatepop_a 0 1
.d 1 3 iii
	jsr s15
.o 1 1 i
	push_b 8
	pushI 1
	shiftl%
	pushI 1
	push_b 1
	update_b 1 2
	update_b 0 1
	pop_b 1
	subI
	push_b 2
	and%
	pushI 27
	push_b 1
	update_b 1 2
	update_b 0 1
	pop_b 1
	shiftl%
	pushI 134217727
	push_b 4
	and%
	or%
	pushI 27
	push_b 10
	addI
	pushI 27
	push_b 8
	addI
	push_a 0
	push_b 3
	push_b 10
	push_a 2
	push_b 2
	update_b 2 3
	update_b 1 2
	update_b 0 1
	pop_b 1
	update_a 1 3
	updatepop_a 0 2
	update_b 4 14
	update_b 3 13
	update_b 2 12
	update_b 1 11
	updatepop_b 0 10
.d 2 5 iiiii
	jmp s14
else.16
	pushI 37
	push_b 4
	eqI
	jmp_false else.17
	pushI 7450580596923828125
	push_b 5
	mulUUL
	push_a 0
	push_b 2
.d 1 1 i
	jsr s9
.o 0 2 ii
	pushI 27
	push_b 4
	shiftl%
	pushI 37
	push_b 5
	shiftrU
	pushI 27
	push_b 5
	shiftl%
	addI
	push_b 2
	push_b 1
	update_b 1 2
	update_b 0 1
	pop_b 1
	addI
	push_b 3
	push_b 2
	update_b 1 3
	update_b 2 1
	update_b 0 2
	pop_b 1
	update_b 2 5
	update_b 1 4
	updatepop_b 0 3
	addLU
	pushI 0
	push_a 1
	push_b 6
	push_b 6
	update_a 1 2
	updatepop_a 0 1
.d 1 3 iii
	jsr s19
.o 1 1 i
	push_a 0
	push_b 0
	push_b 6
	push_b 3
	update_b 2 4
	update_b 1 3
	updatepop_b 0 2
	updatepop_a 0 1
.d 1 3 iii
	jsr s15
.o 1 1 i
	push_a 0
	push_b 4
	push_b 2
	updatepop_a 0 1
.d 1 2 ii
	jsr s22
.o 1 1 i
	pushI 27
	push_b 5
	addI
	push_a 0
	pushI 0
	pushI 0
	push_b 4
	push_b 4
	push_a 2
	push_b 4
	update_b 4 5
	update_b 3 4
	update_b 2 3
	update_b 1 2
	update_b 0 1
	pop_b 1
	update_a 1 3
	updatepop_a 0 2
	update_b 4 13
	update_b 3 12
	update_b 2 11
	update_b 1 10
	updatepop_b 0 9
.d 2 5 iiiii
	jmp s14
else.17
	pushI 7450580596923828125
	push_b 5
	mulUUL
	pushI 37
	push_b 6
	subI
	push_b 0
	pushI 27
	subI
	push_a 0
	push_b 4
.d 1 1 i
	jsr s9
.o 0 2 ii
	push_b 3
	pushI 64
	subI
	push_b 1
	shiftl%
	push_b 4
	push_b 3
	shiftrU
	addI
	push_b 3
	push_b 7
	shiftl%
	push_b 5
	push_b 3
	shiftrU
	push_b 5
	pushI 64
	subI
	push_b 9
	shiftrU
	push_b 6
	push_b 9
	shiftl%
	addI
	addI
	addLU
	pushI 0
	push_a 1
	push_b 11
	push_b 11
	update_a 1 2
	updatepop_a 0 1
.d 1 3 iii
	jsr s19
.o 1 1 i
	push_a 0
	push_b 0
	push_b 11
	push_b 3
	update_b 2 4
	update_b 1 3
	updatepop_b 0 2
	updatepop_a 0 1
.d 1 3 iii
	jsr s15
.o 1 1 i
	push_a 0
	push_b 9
	push_b 2
	updatepop_a 0 1
.d 1 2 ii
	jsr s22
.o 1 1 i
	push_b 6
	pushI 1
	shiftl%
	pushI 1
	push_b 1
	update_b 1 2
	update_b 0 1
	pop_b 1
	subI
	push_b 5
	and%
	pushI 27
	push_b 11
	addI
	push_a 0
	push_b 8
	push_b 4
	push_b 4
	push_a 2
	push_b 3
	update_b 3 4
	update_b 2 3
	update_b 1 2
	update_b 0 1
	pop_b 1
	update_a 1 3
	updatepop_a 0 2
	update_b 4 18
	update_b 3 17
	update_b 2 16
	update_b 1 15
	updatepop_b 0 14
.d 2 5 iiiii
	jmp s14
else.15
	push_a 0
	updatepop_a 0 1
	push_arraysize CHAR 0 1
	push_b 1
	eqI
	jmp_false else.18
	pushI 0
	push_b 2
	eqI
	jmp_false else.18
	push_a 0
	pop_b 2
	push_arraysize INT 0 1
	push_b 1
	push_b 1
	update_b 1 2
	update_b 0 1
	pop_b 1
	ltI
	notB
	pushI 0
	push_b 0
	update_b 2 0
	jmp_false else.18
	pushI 0
	push_b 4
	eqI
	jmp_false else.21
	pop_b 5
.d 1 0
	rtn
else.21
	push_a 0
	push_b 2
	push_b 4
	push_b 6
	pushI 0
	update_b 3 8
	update_b 2 7
	update_b 1 6
	updatepop_b 0 5
	updatepop_a 0 1
.d 1 4 iiii
	jsr s20
.o 1 1 i
	pop_b 1
.d 1 0
	rtn
else.18
	buildAC "error in stoi_next_part_no_shift\n"
	updatepop_a 0 1
	pop_b 5
.d 1 0
	jsr print_string_
.o 0 0
	halt
	push_array 0
	updatepop_a 0 1
.d 1 0
	rtn
.o 1 4 iiii
s20
	push_b 3
	push_b 1
	ltI
	jmp_false else.22
	push_b 0
	push_a 0
	updatepop_a 0 1
	push_a 0
	select INT 0 1
	push_b 3
	push_b 1
	shiftl%
	push_b 3
	push_b 1
	update_b 1 2
	update_b 0 1
	pop_b 1
	addI
	push_b 2
	push_a 0
	updatepop_a 0 1
	update INT 0 1
	push_b 3
	pushI 64
	subI
	push_b 1
	shiftrU
	pushI 1
	push_b 3
	addI
	push_b 6
	push_b 6
	push_b 3
	update_b 2 4
	update_b 0 2
	update_b 3 0
	update_b 1 3
	update_b 0 1
	pop_b 1
	update_b 3 8
	update_b 2 7
	update_b 1 6
	updatepop_b 0 5
.d 1 4 iiii
	jmp s20
else.22
	pushI 0
	push_b 2
	eqI
	jmp_false else.23
	push_a 0
	push_b 3
	updatepop_a 0 1
	updatepop_b 0 4
.d 1 1 i
	rtn
else.23
	push_b 1
	push_b 4
	push_a 0
	update_b 1 4
	updatepop_b 0 3
	updatepop_a 0 1
	update INT 0 1
	pushI 1
	push_b 1
	addI
	updatepop_b 0 1
.d 1 1 i
	rtn
.o 1 2 ii
s22
	push_b 1
	pushI 0
	ltI
	notB
	jmp_false else.24
	buildAC "insert_at_begin"
	updatepop_a 0 1
	pop_b 2
.d 1 0
	jsr print_string_
.o 0 0
	halt
	repl_args 2 2
	jsr_eval 1
	jsr_eval 0
	push_array 1
	pushI_a 1
	update_a 0 2
	pop_a 2
.d 1 1 i
	rtn
else.24
	pushI 1
	push_b 2
	subI
	push_b 1
	push_b 1
	push_a 0
	updatepop_a 0 1
	update INT 0 1
	push_b 0
	updatepop_b 0 3
.d 1 1 i
	rtn
.o 1 3 iii
s15
	push_b 2
	push_b 2
	eqI
	jmp_false else.25
	push_b 0
	push_b 2
	push_a 0
	update_b 1 2
	updatepop_b 0 1
	updatepop_a 0 1
	update INT 0 1
	pushI 1
	push_b 1
	addI
	updatepop_b 0 2
.d 1 1 i
	rtn
else.25
	push_b 1
	push_a 0
	updatepop_a 0 1
	push_a 0
	select INT 0 1
	push_b 1
	push_b 1
	update_b 1 2
	updatepop_b 0 1
	addI
	push_b 1
	push_b 1
	ltU
	jmp_false else.26
	push_b 0
	push_b 3
	push_a 0
	update_b 1 3
	updatepop_b 0 2
	updatepop_a 0 1
	update INT 0 1
	pushI 1
	push_b 1
	addI
	push_b 2
	push_b 1
	update_b 1 2
	update_b 0 1
	pop_b 1
	update_b 1 3
	updatepop_b 0 2
.d 1 2 ii
	jmp s16
else.26
	push_b 0
	push_b 3
	push_a 0
	update_b 1 4
	updatepop_b 0 3
	updatepop_a 0 1
	update INT 0 1
	push_b 0
	updatepop_b 0 1
.d 1 1 i
	rtn
.o 1 2 ii
s16
	push_b 1
	push_b 1
	ltI
	jmp_false else.27
	push_b 0
	push_a 0
	updatepop_a 0 1
	push_a 0
	select INT 0 1
	pushI 1
	push_b 1
	update_b 1 2
	updatepop_b 0 1
	addI
	pushI 0
	push_b 1
	eqI
	notB
	jmp_false else.28
	push_b 0
	push_b 2
	push_a 0
	update_b 1 3
	updatepop_b 0 2
	updatepop_a 0 1
	update INT 0 1
	push_b 0
	updatepop_b 0 1
.d 1 1 i
	rtn
else.28
	push_b 0
	push_b 2
	push_a 0
	update_b 1 2
	updatepop_b 0 1
	updatepop_a 0 1
	update INT 0 1
	pushI 1
	push_b 1
	addI
	push_b 2
	push_b 1
	update_b 1 2
	update_b 0 1
	pop_b 1
	update_b 1 3
	updatepop_b 0 2
.d 1 2 ii
	jmp s16
else.27
	pushI 1
	push_b 1
	push_a 0
	update_b 1 2
	updatepop_b 0 1
	updatepop_a 0 1
	update INT 0 1
	pushI 1
	push_b 1
	addI
	updatepop_b 0 1
.d 1 1 i
	rtn
.o 0 2 ii
s2
.inline ltU
	ltU
.end
.d 0 1 b
	rtn
.o 1 3 iii
s19
	push_b 1
	push_b 1
	eqI
	jmp_false else.29
	pushI 0
	push_b 3
	eqI
	notB
	jmp_false else.30
	push_b 2
	push_b 1
	push_a 0
	updatepop_a 0 1
	update INT 0 1
	pushI 1
	push_b 1
	addI
	updatepop_b 0 3
.d 1 1 i
	rtn
else.30
	push_a 0
	push_b 0
	updatepop_a 0 1
	updatepop_b 0 3
.d 1 1 i
	rtn
else.29
	push_b 0
	push_a 0
	updatepop_a 0 1
	push_a 0
	select INT 0 1
	pushI 7450580596923828125
	push_b 1
	update_b 1 2
	updatepop_b 0 1
	mulUUL
	push_b 4
	push_b 2
	push_b 2
	update_b 2 4
	update_b 1 3
	updatepop_b 0 2
	addLU
	push_b 1
	push_b 3
	push_a 0
	updatepop_a 0 1
	update INT 0 1
	pushI 1
	push_b 3
	addI
	push_b 1
	push_b 5
	push_b 2
	update_b 2 3
	update_b 1 2
	update_b 0 1
	pop_b 1
	update_b 2 7
	update_b 1 6
	updatepop_b 0 5
.d 1 3 iii
	jmp s19
.o 1 1 i
s9
	push_a 0
	push_b 0
.d 1 1 i
	jsr s6
.o 0 1 i
	pushI 1000000000000000000
	push_b 1
	update_b 1 2
	update_b 0 1
	pop_b 1
	mulUUL
	pushI 9
	push_b 3
	addI
	push_a 0
	updatepop_a 0 1
.d 1 1 i
	jsr s7
.o 0 1 i
	push_b 2
	push_b 2
	update_b 2 5
	update_b 1 4
	updatepop_b 0 3
	addLU
.d 0 2 ii
	rtn
.o 2 3 iii
s21
	pushI 0
	push_b 1
	eqI
	jmp_false else.31
	push_a 0
	push_b 1
	updatepop_a 0 2
	updatepop_b 0 3
.d 1 1 i
	rtn
else.31
	pushI 19
	push_b 1
	ltI
	jmp_false else.32
	push_b 0
	push_b 3
	addI
	pushI 1
	push_b 1
	update_b 1 2
	update_b 0 1
	pop_b 1
	subI
	push_b 3
	push_a 1
	update_b 1 2
	updatepop_b 0 1
	update_a 1 2
	updatepop_a 0 1
.d 1 2 ii
	jsr sliceAC
.o 1 0
.d 1 0
	jsr e_StdInt_stoInt;23
.o 0 1 i
	push_b 1
	push_a 0
	updatepop_a 0 1
	update INT 0 1
	pushI 1
	push_b 1
	addI
	updatepop_b 0 2
.d 1 1 i
	rtn
else.32
	push_b 0
	push_b 3
	addI
	push_a 1
	push_b 3
	update_b 1 2
	updatepop_b 0 1
	update_a 1 2
	updatepop_a 0 1
.d 1 2 ii
	jsr s11
.o 0 2 ii
	pushI 0
	push_b 1
	eqI
	jmp_false else.33
	push_b 1
	push_b 3
	push_a 0
	updatepop_a 0 1
	update INT 0 1
	pushI 1
	push_b 3
	addI
	updatepop_b 0 4
.d 1 1 i
	rtn
else.33
	pushI 1
	push_b 3
	addI
	push_b 2
	push_b 4
	push_a 0
	updatepop_a 0 1
	update INT 0 1
	push_b 1
	push_b 1
	update_b 1 2
	update_b 0 1
	pop_b 1
	update INT 0 1
	pushI 2
	push_b 3
	addI
	updatepop_b 0 4
.d 1 1 i
	rtn
.o 1 2 ii
s11
	pushI 18
	push_b 2
	subI
	push_a 0
	pushI 0
	push_b 1
	push_b 3
.d 1 3 iii
	jsr s12
.o 0 1 i
	pushI 1000000000000000000
	push_b 1
	update_b 1 2
	update_b 0 1
	pop_b 1
	mulUUL
	push_a 0
	push_b 2
	updatepop_a 0 1
.d 1 1 i
	jsr s7
.o 0 1 i
	push_b 2
	push_b 2
	update_b 2 7
	update_b 1 6
	updatepop_b 0 5
	addLU
.d 0 2 ii
	rtn
.o 1 1 i
s7
	pushI 206158430256
	pushI 17
	push_b 2
	addI
	push_a 0
	select CHAR 0 1
	CtoI
	pushI 8
	push_b 3
	addI
	push_a 0
	select CHAR 0 1
	CtoI
	pushI 32
	push_b 1
	update_b 1 2
	update_b 0 1
	pop_b 1
	shiftl%
	addI
	push_b 1
	push_b 1
	update_b 1 2
	update_b 0 1
	pop_b 1
	subI
	pushI 16
	push_b 3
	addI
	push_a 0
	select CHAR 0 1
	CtoI
	pushI 7
	push_b 4
	addI
	push_a 0
	select CHAR 0 1
	CtoI
	pushI 32
	push_b 1
	update_b 1 2
	update_b 0 1
	pop_b 1
	shiftl%
	addI
	push_b 2
	push_b 1
	update_b 1 2
	update_b 0 1
	pop_b 1
	subI
	pushI 15
	push_b 4
	addI
	push_a 0
	select CHAR 0 1
	CtoI
	pushI 6
	push_b 5
	addI
	push_a 0
	select CHAR 0 1
	CtoI
	pushI 32
	push_b 1
	update_b 1 2
	update_b 0 1
	pop_b 1
	shiftl%
	addI
	push_b 3
	push_b 1
	update_b 1 2
	update_b 0 1
	pop_b 1
	subI
	pushI 14
	push_b 5
	addI
	push_a 0
	select CHAR 0 1
	CtoI
	pushI 5
	push_b 6
	addI
	push_a 0
	select CHAR 0 1
	CtoI
	pushI 32
	push_b 1
	update_b 1 2
	update_b 0 1
	pop_b 1
	shiftl%
	addI
	push_b 4
	push_b 1
	update_b 1 2
	update_b 0 1
	pop_b 1
	subI
	pushI 13
	push_b 6
	addI
	push_a 0
	select CHAR 0 1
	CtoI
	pushI 4
	push_b 7
	addI
	push_a 0
	select CHAR 0 1
	CtoI
	pushI 32
	push_b 1
	update_b 1 2
	update_b 0 1
	pop_b 1
	shiftl%
	addI
	push_b 5
	push_b 1
	update_b 1 2
	update_b 0 1
	pop_b 1
	subI
	pushI 12
	push_b 7
	addI
	push_a 0
	select CHAR 0 1
	CtoI
	pushI 3
	push_b 8
	addI
	push_a 0
	select CHAR 0 1
	CtoI
	pushI 32
	push_b 1
	update_b 1 2
	update_b 0 1
	pop_b 1
	shiftl%
	addI
	push_b 6
	push_b 1
	update_b 1 2
	update_b 0 1
	pop_b 1
	subI
	pushI 11
	push_b 8
	addI
	push_a 0
	select CHAR 0 1
	CtoI
	pushI 2
	push_b 9
	addI
	push_a 0
	select CHAR 0 1
	CtoI
	pushI 32
	push_b 1
	update_b 1 2
	update_b 0 1
	pop_b 1
	shiftl%
	addI
	push_b 7
	push_b 1
	update_b 1 2
	update_b 0 1
	pop_b 1
	subI
	pushI 10
	push_b 9
	addI
	push_a 0
	select CHAR 0 1
	CtoI
	pushI 1
	push_b 10
	addI
	push_a 0
	select CHAR 0 1
	CtoI
	pushI 32
	push_b 1
	update_b 1 2
	update_b 0 1
	pop_b 1
	shiftl%
	addI
	push_b 8
	push_b 1
	update_b 1 2
	update_b 0 1
	pop_b 1
	subI
	pushI 9
	push_b 10
	addI
	push_a 0
	select CHAR 0 1
	CtoI
	push_b 10
	push_a 0
	updatepop_a 0 1
	select CHAR 0 1
	CtoI
	pushI 32
	push_b 1
	update_b 1 2
	update_b 0 1
	pop_b 1
	shiftl%
	addI
	push_b 9
	push_b 1
	update_b 1 2
	update_b 0 1
	pop_b 1
	subI
	pushI 10
	push_b 1
	update_b 1 2
	update_b 0 1
	pop_b 1
	mulI
	addI
	pushI 10
	push_b 1
	update_b 1 2
	update_b 0 1
	pop_b 1
	mulI
	addI
	pushI 10
	push_b 1
	update_b 1 2
	update_b 0 1
	pop_b 1
	mulI
	addI
	pushI 10
	push_b 1
	update_b 1 2
	update_b 0 1
	pop_b 1
	mulI
	addI
	pushI 10
	push_b 1
	update_b 1 2
	update_b 0 1
	pop_b 1
	mulI
	addI
	pushI 10
	push_b 1
	update_b 1 2
	update_b 0 1
	pop_b 1
	mulI
	addI
	pushI 10
	push_b 1
	update_b 1 2
	update_b 0 1
	pop_b 1
	mulI
	addI
	pushI 10
	push_b 1
	update_b 1 2
	update_b 0 1
	pop_b 1
	mulI
	update_b 1 3
	updatepop_b 0 2
	addI
	pushI 4294967295
	push_b 1
	and%
	pushI 32
	push_b 2
	shiftrU
	pushI 1000000000
	push_b 1
	update_b 1 2
	update_b 0 1
	pop_b 1
	mulI
	update_b 1 2
	updatepop_b 0 1
	addI
.d 0 1 i
	rtn
.o 0 2 ii
s5
.inline ushiftr
	shiftrU
.end
.d 0 1 i
	rtn
.o 0 3 iii
s4
.inline addLU
	addLU
.end
.d 0 2 ii
	rtn
.o 0 2 ii
s3
.inline mulud
	mulUUL
.end
.d 0 2 ii
	rtn
.o 1 3 iii
s12
	push_b 1
	push_b 1
	ltI
	jmp_false else.34
	push_b 0
	push_a 0
	select CHAR 0 1
	CtoI
	pushI 48
	push_b 1
	update_b 1 2
	update_b 0 1
	pop_b 1
	subI
	pushI 10
	push_b 4
	mulI
	addI
	pushI 1
	push_b 2
	addI
	push_a 0
	push_b 3
	push_b 1
	update_b 1 2
	update_b 0 1
	pop_b 1
	updatepop_a 0 1
	update_b 2 5
	update_b 1 4
	updatepop_b 0 3
.d 1 3 iii
	jmp s12
else.34
	pop_a 1
	pop_b 2
.d 0 1 i
	rtn
.o 1 1 i
s6
	pushI 8
	push_b 1
	addI
	push_a 0
	select CHAR 0 1
	CtoI
	pushI 48
	push_b 1
	update_b 1 2
	update_b 0 1
	pop_b 1
	subI
	pushI 7
	push_b 2
	addI
	push_a 0
	select CHAR 0 1
	CtoI
	pushI 48
	push_b 1
	update_b 1 2
	update_b 0 1
	pop_b 1
	subI
	pushI 6
	push_b 3
	addI
	push_a 0
	select CHAR 0 1
	CtoI
	pushI 48
	push_b 1
	update_b 1 2
	update_b 0 1
	pop_b 1
	subI
	pushI 5
	push_b 4
	addI
	push_a 0
	select CHAR 0 1
	CtoI
	pushI 48
	push_b 1
	update_b 1 2
	update_b 0 1
	pop_b 1
	subI
	pushI 4
	push_b 5
	addI
	push_a 0
	select CHAR 0 1
	CtoI
	pushI 48
	push_b 1
	update_b 1 2
	update_b 0 1
	pop_b 1
	subI
	pushI 3
	push_b 6
	addI
	push_a 0
	select CHAR 0 1
	CtoI
	pushI 48
	push_b 1
	update_b 1 2
	update_b 0 1
	pop_b 1
	subI
	pushI 2
	push_b 7
	addI
	push_a 0
	select CHAR 0 1
	CtoI
	pushI 48
	push_b 1
	update_b 1 2
	update_b 0 1
	pop_b 1
	subI
	pushI 1
	push_b 8
	addI
	push_a 0
	select CHAR 0 1
	CtoI
	pushI 48
	push_b 1
	update_b 1 2
	update_b 0 1
	pop_b 1
	subI
	push_b 8
	push_a 0
	updatepop_a 0 1
	select CHAR 0 1
	CtoI
	pushI 48
	push_b 1
	update_b 1 2
	update_b 0 1
	pop_b 1
	subI
	pushI 10
	push_b 1
	update_b 1 2
	update_b 0 1
	pop_b 1
	mulI
	addI
	pushI 10
	push_b 1
	update_b 1 2
	update_b 0 1
	pop_b 1
	mulI
	addI
	pushI 10
	push_b 1
	update_b 1 2
	update_b 0 1
	pop_b 1
	mulI
	addI
	pushI 10
	push_b 1
	update_b 1 2
	update_b 0 1
	pop_b 1
	mulI
	addI
	pushI 10
	push_b 1
	update_b 1 2
	update_b 0 1
	pop_b 1
	mulI
	addI
	pushI 10
	push_b 1
	update_b 1 2
	update_b 0 1
	pop_b 1
	mulI
	addI
	pushI 10
	push_b 1
	update_b 1 2
	update_b 0 1
	pop_b 1
	mulI
	addI
	pushI 10
	push_b 1
	update_b 1 2
	update_b 0 1
	pop_b 1
	mulI
	update_b 1 2
	updatepop_b 0 1
	addI
.d 0 1 i
	rtn
