.comp 920 000011110011000
.start _nostart_
.depend "Data.Func" "20210613154827"
.depend "StdCharList" "20210613154827"
.depend "_SystemArray" "20210613154827"
.depend "StdArray" "20210613154827"
.depend "StdEnv" "20210613154827"
.depend "iTasks.Internal.TaskIO" "20210613154824"
.depend "iTasks.Internal.WebService" "20210613154824"
.depend "iTasks.Internal.SDSService" "20210613154824"
.depend "iTasks.Internal.Serialization" "20210613154824"
.depend "_SystemEnum" "20210613154827"
.depend "StdEnum" "20210613154827"
.depend "StdTuple" "20210613154827"
.depend "StdOrdList" "20210613154827"
.depend "Control.Monad.Trans" "20210613154827"
.depend "StdMaybe" "20210613154827"
.depend "Data.Maybe" "20210613154827"
.depend "iTasks.Extensions.Admin.WorkflowAdmin" "20210613154824"
.depend "iTasks.Extensions.User" "20210613154824"
.depend "iTasks.Extensions.Admin.UserAdmin" "20210613154824"
.depend "iTasks.UI.Layout.Common" "20210613154824"
.depend "iTasks.UI.Editor.Modifiers" "20210613154824"
.depend "iTasks.UI.Editor.Containers" "20210613154824"
.depend "iTasks.UI.Tune" "20210613154824"
.depend "iTasks.Internal.Distributed.Domain" "20210613154824"
.depend "iTasks.WF.Combinators.Common" "20210613154824"
.depend "iTasks.WF.Combinators.SDS" "20210613154824"
.depend "iTasks.UI.Editor.Controls" "20210613154824"
.depend "iTasks.WF.Tasks.Interaction" "20210613154824"
.depend "iTasks.WF.Tasks.System" "20210613154824"
.depend "iTasks.WF.Tasks.SDS" "20210613154824"
.depend "iTasks.WF.Tasks.Core" "20210613154824"
.depend "System.Time.GenJSON" "20210613154827"
.depend "Text.HTML.GenJSON" "20210613154827"
.depend "Data.Map.GenJSON" "20210613154827"
.depend "Data.Error.GenJSON" "20210613154827"
.depend "Data.Either.GenJSON" "20210613154827"
.depend "iTasks.WF.Derives" "20210613154824"
.depend "iTasks.SDS.Combinators.Common" "20210613154824"
.depend "iTasks.SDS.Combinators.Core" "20210613154824"
.depend "iTasks.SDS.Sources.System" "20210613154824"
.depend "iTasks.SDS.Sources.Store" "20210613154824"
.depend "iTasks.SDS.Sources.Core" "20210613154824"
.depend "System._Signal" "20210613154827"
.depend "System.Signal" "20210613154827"
.depend "_SystemStrictMaybes" "20210613154827"
.depend "Text.GenPrint" "20210613154827"
.depend "iTasks.Extensions.DateTime" "20210613154824"
.depend "iTasks.Internal.TaskServer" "20210613154824"
.depend "iTasks.Extensions.Document" "20210613154824"
.depend "System.File" "20210613154827"
.depend "iTasks.Util.DeferredJSON" "20210613154824"
.depend "iTasks.Internal.SDS" "20210613154824"
.depend "iTasks.Internal.TaskEval" "20210613154824"
.depend "iTasks.UI.Layout" "20210613154824"
.depend "iTasks.Internal.TaskState" "20210613154824"
.depend "iTasks.WF.Combinators.Core" "20210613154824"
.depend "Data.IntMap.Base" "20210613154827"
.depend "Data.IntMap.Strict" "20210613154827"
.depend "Data.CircularStack" "20210613154827"
.depend "System._Process" "20210613154827"
.depend "System.Process" "20210613154827"
.depend "System.OS" "20210613154827"
.depend "Data.GenHash" "20210613154827"
.depend "Data.Maybe.Ord" "20210613154827"
.depend "Control.GenBimap" "20210613154827"
.depend "ABC.Interpreter.JavaScript" "20210613154824"
.depend "ABC.Interpreter" "20210613154824"
.depend "iTasks.UI.Editor" "20210613154824"
.depend "iTasks.UI.Editor.Generic" "20210613154824"
.depend "iTasks.Internal.Generic.Defaults" "20210613154824"
.depend "Data.GenDefault" "20210613154827"
.depend "Data.Integer" "20210613154827"
.depend "Text.HTML" "20210613154827"
.depend "iTasks.Internal.Generic.Visualization" "20210613154824"
.depend "iTasks.SDS.Definition" "20210613154824"
.depend "TCPStringChannelsInternal" "20210613154827"
.depend "TCPStringChannels" "20210613154827"
.depend "TCPEvent" "20210613154827"
.depend "tcp_bytestreams" "20210613154827"
.depend "TCPDef" "20210613154827"
.depend "TCPChannels" "20210613154827"
.depend "TCPIP" "20210613154827"
.depend "iTasks.WF.Tasks.IO" "20210613154824"
.depend "iTasks.Internal.Task" "20210613154824"
.depend "iTasks.UI.Definition" "20210613154824"
.depend "Text.GenJSON" "20210613154827"
.depend "Data.Bifunctor" "20210613154827"
.depend "Data.Either" "20210613154827"
.depend "Data.Queue" "20210613154827"
.depend "StdFile" "20210613154827"
.depend "symbols_in_program" "20210613154824"
.depend "iTasks.Internal.IWorld" "20210613154824"
.depend "iTasks.WF.Definition" "20210613154824"
.depend "tcp" "20210613154827"
.depend "TCPChannelClass" "20210613154827"
.depend "System._Time" "20210613154827"
.depend "System.Time" "20210613154827"
.depend "System.GetOpt" "20210613154827"
.depend "System.OSError" "20210613154827"
.depend "System.FilePath" "20210613154827"
.depend "StdString" "20210613154827"
.depend "Internet.HTTP" "20210613154827"
.depend "Control.Monad.Fail" "20210613154827"
.depend "Data.Traversable" "20210613154827"
.depend "StdMisc" "20210613154827"
.depend "StdOverloadedList" "20210613154827"
.depend "Data.List" "20210613154827"
.depend "Data.Foldable" "20210613154827"
.depend "Data.Set" "20210613154827"
.depend "Data.GenLexOrd" "20210613154827"
.depend "StdFunctions" "20210613154827"
.depend "StdFunc" "20210613154827"
.depend "Data.Map" "20210613154827"
.depend "_SystemEnumStrict" "20210613154827"
.depend "_SystemStrictLists" "20210613154827"
.depend "StdStrictLists" "20210613154827"
.depend "StdGeneric" "20210613154827"
.depend "Data.GenEq" "20210613154827"
.depend "StdReal" "20210613154827"
.depend "StdChar" "20210613154827"
.depend "StdInt" "20210613154827"
.depend "StdBool" "20210613154827"
.depend "StdClass" "20210613154827"
.depend "StdList" "20210613154827"
.depend "Data.Monoid" "20210613154827"
.depend "Control.Applicative" "20210613154827"
.depend "Control.Monad" "20210613154827"
.depend "Data.Functor" "20210613154827"
.depend "Data.Error" "20210613154827"
.depend "iTasks.Engine" "20210613154824"
.depend "iTasks" "20210613154824"
.depend "StdOverloaded" "20210613154827"
.depend "_SystemDynamic" "20210613154827"
.depend "iTasks.Extensions.Form.Pikaday" "20210613154824"
.module m_iTasks.Extensions.Form.Pikaday "iTasks.Extensions.Form.Pikaday" "20210613154824"
.endinfo
.impmod _system
.implab _cycle_in_spine
.implab _type_error
.implab _hnf
.impdesc e_system_dind
.implab e_system_nind e_system_eaind
.impdesc e_system_dif
.implab e_system_nif e_system_eaif
.implab e_system_sif
.impdesc e_system_dAP
.implab e_system_nAP e_system_eaAP
.implab e_system_sAP
.impdesc ARRAY
.impdesc _Nil
.impdesc _Cons
.impdesc _Conss
.implab n_Conss ea_Conss
.impdesc _Consts
.implab n_Consts ea_Consts
.impdesc _Conssts
.implab n_Conssts ea_Conssts
.impdesc _Tuple
.impdesc d_S.1
.implab n_S.1 ea_S.1
.impdesc d_S.2
.implab n_S.2 ea_S.2
.impdesc d_S.3
.implab n_S.3 ea_S.3
.impdesc d_S.4
.implab n_S.4 ea_S.4
.impdesc d_S.5
.implab n_S.5 ea_S.5
.impdesc d_S.6
.implab n_S.6 ea_S.6
.implab _driver
.impmod _SystemArray
.impmod StdMaybe
.implab e_StdMaybe_s==;7
.impmod Data.Maybe
.impdesc e_Data.Maybe_dmaybe;63
.implab e_Data.Maybe_nmaybe;63 _
.impdesc e_Data.Maybe_dfromMaybe;67
.implab e_Data.Maybe_sfromMaybe;67
.implab e_Data.Maybe_nfromMaybe;67 _
.implab e_Data.Maybe_sgEq__!Maybe;69
.impmod iTasks.UI.Editor.Modifiers
.implab e_iTasks.UI.Editor.Modifiers_swithDynamicHintAttributes
.implab e_iTasks.UI.Editor.Modifiers_smapEditorRead
.implab e_iTasks.UI.Editor.Modifiers_smapEditorWriteError
.impmod iTasks.Extensions.DateTime
.impdesc e_iTasks.Extensions.DateTime_dparseDate
.impdesc e_iTasks.Extensions.DateTime_dtoString;17
.impmod ABC.Interpreter.JavaScript
.impdesc e_ABC.Interpreter.JavaScript_djsValToString
.implab e_ABC.Interpreter.JavaScript_sjsValToString
.implab e_ABC.Interpreter.JavaScript_njsValToString e_ABC.Interpreter.JavaScript_eajsValToString
.implab e_ABC.Interpreter.JavaScript_s.?
.implab e_ABC.Interpreter.JavaScript_s.=
.implab e_ABC.Interpreter.JavaScript_s.$
.implab e_ABC.Interpreter.JavaScript_s.$!
.implab e_ABC.Interpreter.JavaScript_sjsEmptyObject
.implab e_ABC.Interpreter.JavaScript_sjsWrapFun
.implab e_ABC.Interpreter.JavaScript_saddCSSFromUrl
.implab e_ABC.Interpreter.JavaScript_saddJSFromUrl
.impdesc e_ABC.Interpreter.JavaScript_d.#;46
.implab e_ABC.Interpreter.JavaScript_s.#;46
.implab e_ABC.Interpreter.JavaScript_n.#;46 e_ABC.Interpreter.JavaScript_ea.#;46
.impdesc e_ABC.Interpreter.JavaScript_dtoJSArgs;51
.impdesc e_ABC.Interpreter.JavaScript_dtoJSArgs;52
.impdesc e_ABC.Interpreter.JavaScript_dtoJSArgs;55
.impdesc e_ABC.Interpreter.JavaScript_dtoJSArgs;57
.impdesc e_ABC.Interpreter.JavaScript_dtoJSArgs;58
.implab e_ABC.Interpreter.JavaScript_sjsNew;62
.implab e_ABC.Interpreter.JavaScript_s.??;65
.impdesc e_ABC.Interpreter.JavaScript_dgToJS_Int;68
.impdesc e_ABC.Interpreter.JavaScript_dgToJS_Bool;69
.impdesc e_ABC.Interpreter.JavaScript_dgToJS__String;70
.impdesc e_ABC.Interpreter.JavaScript_dgToJS_JSVal;72
.impdesc e_ABC.Interpreter.JavaScript_dgToJS_JSONNode;79
.impmod iTasks.UI.Editor
.implab e_iTasks.UI.Editor_sleafEditorToEditor
.implab e_iTasks.UI.Editor_swithClientSideInit
.impmod iTasks.UI.Definition
.impdesc e_iTasks.UI.Definition_duia
.implab e_iTasks.UI.Definition_nuia e_iTasks.UI.Definition_eauia
.impdesc e_iTasks.UI.Definition_doptionalAttr
.implab e_iTasks.UI.Definition_noptionalAttr e_iTasks.UI.Definition_eaoptionalAttr
.impdesc e_iTasks.UI.Definition_dvalueAttr
.implab e_iTasks.UI.Definition_nvalueAttr e_iTasks.UI.Definition_eavalueAttr
.impmod Text.GenJSON
.implab e_Text.GenJSON_stoJSON
.impdesc e_Text.GenJSON_dJSONEncode__String;16
.implab e_Text.GenJSON_sJSONEncode__!Maybe;33
.impdesc e_Text.GenJSON_dJSONDecode__String;46
.implab e_Text.GenJSON_sJSONDecode__!Maybe;63
.impmod StdString
.impdesc e_StdString_d==;2
.implab e_StdString_s+++;11
.impmod Data.Map
.impdesc e_Data.Map_dunions;70
.implab e_Data.Map_nunions;70 e_Data.Map_eaunions;70
.impmod Data.GenEq
.impdesc e_Data.GenEq_dgEq__String;11
.impmod StdBool
.implab e_StdBool_snot
.impmod ABC.Interpreter.JavaScript
.impdesc e_ABC.Interpreter.JavaScript_rtoJSArgs;
.impmod iTasks.UI.Editor
.impdesc e_iTasks.UI.Editor_rLeafEditor
.impmod iTasks.UI.Definition
.impdesc e_iTasks.UI.Definition_dNoChange
.impdesc e_iTasks.UI.Definition_dChangeUI
.impdesc e_iTasks.UI.Definition_kSetAttribute
.impdesc e_iTasks.UI.Definition_dSetAttribute
.implab e_iTasks.UI.Definition_nSetAttribute e_iTasks.UI.Definition_eaSetAttribute
.impdesc e_iTasks.UI.Definition_dUITextField
.impmod Text.GenJSON
.impdesc e_Text.GenJSON_dJSONNull
.impdesc e_Text.GenJSON_kJSONString
.impdesc e_Text.GenJSON_dJSONString
.impmod Data.Error
.impdesc e_Data.Error_dOk
.impmod StdOverloaded
.impdesc e_StdOverloaded_r==;
.impmod _SystemDynamic
.impdesc e__SystemDynamic_kTypeCons
.impdesc e__SystemDynamic_kTypeApp
.impdesc e__SystemDynamic_rTypeCodeConstructor
.impdesc e__SystemDynamic_dTC_Char
.impdesc e__SystemDynamic_dTC__StrictMaybe
.impdesc e__SystemDynamic_dTC__UnboxedArray
.export e_iTasks.Extensions.Form.Pikaday_rJSONEncode_s;
.record e_iTasks.Extensions.Form.Pikaday_rJSONEncode_s; a 1 0 "JSONEncode_s;"
.export e_iTasks.Extensions.Form.Pikaday_tJSONEncode_s;
.export e_iTasks.Extensions.Form.Pikaday_cJSONEncode_s;
.descn e_iTasks.Extensions.Form.Pikaday_tJSONEncode_s; e_iTasks.Extensions.Form.Pikaday_cJSONEncode_s; 1 1 "JSONEncode_s;"
.n 1 e_iTasks.Extensions.Form.Pikaday_tJSONEncode_s;
.o 1 0 
e_iTasks.Extensions.Form.Pikaday_cJSONEncode_s;
	push_node _cycle_in_spine 1
	jsr_eval 0
.impmod iTasks.Extensions.Form.Pikaday
.impdesc e_iTasks.Extensions.Form.Pikaday_rJSONEncode_s;
	fill_r e_iTasks.Extensions.Form.Pikaday_rJSONEncode_s; 1 0 1 0 0
.d 1 0 
	pop_a_rtn 1
.export e_iTasks.Extensions.Form.Pikaday_rJSONDecode_s;
.record e_iTasks.Extensions.Form.Pikaday_rJSONDecode_s; a 1 0 "JSONDecode_s;"
.export e_iTasks.Extensions.Form.Pikaday_tJSONDecode_s;
.export e_iTasks.Extensions.Form.Pikaday_cJSONDecode_s;
.descn e_iTasks.Extensions.Form.Pikaday_tJSONDecode_s; e_iTasks.Extensions.Form.Pikaday_cJSONDecode_s; 1 1 "JSONDecode_s;"
.n 1 e_iTasks.Extensions.Form.Pikaday_tJSONDecode_s;
.o 1 0 
e_iTasks.Extensions.Form.Pikaday_cJSONDecode_s;
	push_node _cycle_in_spine 1
	jsr_eval 0
.impdesc e_iTasks.Extensions.Form.Pikaday_rJSONDecode_s;
	fill_r e_iTasks.Extensions.Form.Pikaday_rJSONDecode_s; 1 0 1 0 0
.d 1 0 
	pop_a_rtn 1
.export e_iTasks.Extensions.Form.Pikaday_rgToJS_s;
.record e_iTasks.Extensions.Form.Pikaday_rgToJS_s; a 1 0 "gToJS_s;"
.export e_iTasks.Extensions.Form.Pikaday_tgToJS_s;
.export e_iTasks.Extensions.Form.Pikaday_cgToJS_s;
.descn e_iTasks.Extensions.Form.Pikaday_tgToJS_s; e_iTasks.Extensions.Form.Pikaday_cgToJS_s; 1 1 "gToJS_s;"
.n 1 e_iTasks.Extensions.Form.Pikaday_tgToJS_s;
.o 1 0 
e_iTasks.Extensions.Form.Pikaday_cgToJS_s;
	push_node _cycle_in_spine 1
	jsr_eval 0
.impdesc e_iTasks.Extensions.Form.Pikaday_rgToJS_s;
	fill_r e_iTasks.Extensions.Form.Pikaday_rgToJS_s; 1 0 1 0 0
.d 1 0 
	pop_a_rtn 1
.export e_iTasks.Extensions.Form.Pikaday_spikadayDateField
.descexp e_iTasks.Extensions.Form.Pikaday_dpikadayDateField e_iTasks.Extensions.Form.Pikaday_npikadayDateField e_iTasks.Extensions.Form.Pikaday_lpikadayDateField 0 0 "pikadayDateField"
.o 1 0 
e_iTasks.Extensions.Form.Pikaday_lpikadayDateField
	halt
.n 0 e_iTasks.Extensions.Form.Pikaday_dpikadayDateField
.o 1 0 
e_iTasks.Extensions.Form.Pikaday_npikadayDateField
	push_node _cycle_in_spine 0
.d 0 0 
	jsr ea2
.o 4 0 
.impmod iTasks.UI.Editor
.impdesc e_iTasks.UI.Editor_rEditor
	fill_r e_iTasks.UI.Editor_rEditor 4 0 4 0 0
.d 1 0 
	pop_a_rtn 4
.o 0 0 
ea2
.o 0 0 
e_iTasks.Extensions.Form.Pikaday_spikadayDateField
.o 0 0 
s2
.d 0 0 
	jsr s1
.o 4 0 
	buildh e_iTasks.Extensions.DateTime_dparseDate 0
.d 5 0 
	jsr e_iTasks.UI.Editor.Modifiers_smapEditorWriteError
.o 4 0 
	buildh e_iTasks.Extensions.DateTime_dtoString;17 0
.d 5 0 
	jsr e_iTasks.UI.Editor.Modifiers_smapEditorRead
.o 4 0 
	buildAC "date (yyyy-mm-dd)"
.d 5 0 
	jmp e_iTasks.UI.Editor.Modifiers_swithDynamicHintAttributes
.export e_iTasks.Extensions.Form.Pikaday_spikadayField
.descexp e_iTasks.Extensions.Form.Pikaday_dpikadayField e_iTasks.Extensions.Form.Pikaday_npikadayField e_iTasks.Extensions.Form.Pikaday_lpikadayField 0 0 "pikadayField"
.o 1 0 
e_iTasks.Extensions.Form.Pikaday_lpikadayField
	halt
.n 0 e_iTasks.Extensions.Form.Pikaday_dpikadayField
.o 1 0 
e_iTasks.Extensions.Form.Pikaday_npikadayField
	push_node _cycle_in_spine 0
.d 0 0 
	jsr ea1
.o 4 0 
	fill_r e_iTasks.UI.Editor_rEditor 4 0 4 0 0
.d 1 0 
	pop_a_rtn 4
.o 0 0 
ea1
.o 0 0 
e_iTasks.Extensions.Form.Pikaday_spikadayField
.o 0 0 
s1
	buildh e_iTasks.Extensions.Form.Pikaday_dwriteValue;561.19 0
	buildh e_iTasks.Extensions.Form.Pikaday_donRefresh;12.10 0
	buildh e_iTasks.Extensions.Form.Pikaday_donEdit;560.18 0
	buildh e_iTasks.Extensions.Form.Pikaday_donReset;559.17 0
	buildh e_iTasks.Extensions.Form.Pikaday_dJSONDecode_s;558.16 0
	buildh e__SystemDynamic_dTC_Char 0
	buildhr e__SystemDynamic_kTypeCons 1 0
	buildh e__SystemDynamic_dTC__UnboxedArray 0
	buildhr e__SystemDynamic_kTypeCons 1 0
	buildhr e__SystemDynamic_kTypeApp 2 0
	buildh e__SystemDynamic_dTC__StrictMaybe 0
	buildhr e__SystemDynamic_kTypeCons 1 0
	buildhr e__SystemDynamic_kTypeApp 2 0
.d 6 0 
	jsr e_iTasks.UI.Editor_sleafEditorToEditor
.o 4 0 
	buildh e_iTasks.Extensions.Form.Pikaday_dinitUI;3.3 0
.d 5 0 
	jmp e_iTasks.UI.Editor_swithClientSideInit
.export e_iTasks.Extensions.Form.Pikaday_dinitUI;3.3
.desc e_iTasks.Extensions.Form.Pikaday_dinitUI;3.3 _hnf l3 3 0 "initUI;3.3"
.a 3 ea3
.o 2 0 
l3
	push_args 0 2 2
	update_a 3 2
	create 
	put_a 4
.o 4 0 
ea3
	jsr_eval 2
	jsr_eval 1
	jsr_eval 0
	repl_r_args 1 0
.o 4 0 
s3
	buildh _None 0
	buildAC "pikaday/css/pikaday.css"
.d 2 0 
	push_a_jsr 2 catAC
.o 1 0 
	create 
	push_update_a 1 5
	exchange_a 3 1
.d 4 0 
	buildh0_put_a_jsr _Nil 7 e_ABC.Interpreter.JavaScript_saddCSSFromUrl
.o 1 0 
	push2_a 2
	buildh ARRAY 1
	buildh e_iTasks.Extensions.Form.Pikaday_dinitDOMEl;5.5 2
	update_a 3 4
	updates3pop_a 0 1 3 2
.d 3 0 
	jsr e_ABC.Interpreter.JavaScript_sjsWrapFun
.o 2 0 
	create 
	buildAC "initDOMEl"
.d 3 0 
	push_a_jsr 4 e_ABC.Interpreter.JavaScript_s.#;46
.o 1 0 
	buildh e_ABC.Interpreter.JavaScript_dgToJS_JSVal;72 0
	create 
	push_update_a 1 2
	update_a 4 3
	updates3pop_a 0 1 5 4
.d 5 0 
	jsr e_ABC.Interpreter.JavaScript_s.=
.o 1 0 
	push_a 1
	buildh e_iTasks.Extensions.Form.Pikaday_dbeforeRemove;4.4 1
	push_update_a 0 2
.d 3 0 
	jsr e_ABC.Interpreter.JavaScript_sjsWrapFun
.o 2 0 
	create 
	buildAC "beforeRemove"
	push_a 4
.d 3 0 
	buildh0_put_a_jsr _Nil 6 e_ABC.Interpreter.JavaScript_s.#;46
.o 1 0 
	update3_a 0 1
	pop_a 1
	buildh e_ABC.Interpreter.JavaScript_dgToJS_JSVal;72 0
.d 5 0 
	jmp e_ABC.Interpreter.JavaScript_s.=
.export e_iTasks.Extensions.Form.Pikaday_dbeforeRemove;4.4
.desc e_iTasks.Extensions.Form.Pikaday_dbeforeRemove;4.4 _hnf l4 2 0 "beforeRemove;4.4"
.a 2 ea4
.o 2 0 
l4
	push_args 0 1 1
	update_a 2 1
	create 
	put_a 3
.o 3 0 
ea4
.o 3 0 
s4
	buildh e__predef_d_Unit 0
	buildAC "picker"
	buildh ARRAY 1
	push_a 2
	build e_ABC.Interpreter.JavaScript_d.#;46 2 e_ABC.Interpreter.JavaScript_n.#;46
	buildAC "destroy"
	buildh ARRAY 1
	swap_a1 
	build e_ABC.Interpreter.JavaScript_d.#;46 2 e_ABC.Interpreter.JavaScript_n.#;46
	fillh e_iTasks.Extensions.Form.Pikaday_d\;15;13;557.15 2 4
.d 1 0 
	pop_a_rtn 2
.export e_iTasks.Extensions.Form.Pikaday_d\;15;13;557.15
.desc e_iTasks.Extensions.Form.Pikaday_d\;15;13;557.15 _hnf l15 3 0 "\;15;13;557.15"
.a 3 ea15
.o 2 0 
l15
	push_args 0 2 2
	update_a 3 2
	create 
	put_a 4
.o 4 0 
ea15
	jsr_eval 2
	jsr_eval 0
.o 4 0 
s15
	buildh e_ABC.Interpreter.JavaScript_dtoJSArgs;55 0
.d 4 0 
	jsr e_ABC.Interpreter.JavaScript_s.$
.o 2 0 
.d 2 0 
	jsr s11
.o 1 0 
.d 1 0 
	fill_a01_pop_rtn 
.o 2 0 
s11
.d 1 0 
	pop_a_rtn 1
.export e_iTasks.Extensions.Form.Pikaday_dinitDOMEl;5.5
.desc e_iTasks.Extensions.Form.Pikaday_dinitDOMEl;5.5 _hnf l5 4 0 "initDOMEl;5.5"
.a 4 ea5
.o 2 0 
l5
	push_args 0 3 3
	update_a 4 3
	create 
	put_a 5
.o 5 0 
ea5
	jsr_eval 3
	push_array 0
	put_a 1
.o 5 0 
s5
	push2_a 1
	buildh ARRAY 1
	buildh e_iTasks.Extensions.Form.Pikaday_dinitDOMEl`;6.6 2
	updates3pop_a 0 1 4 3
.d 3 0 
	jsr e_ABC.Interpreter.JavaScript_sjsWrapFun
.o 2 0 
	push_a 0
	buildh _Just 1
	buildAC "momentjs/moment.min.js"
	push_a 4
	buildh0_dup_a _Nil 6
	put_a 4
.d 2 0 
	jsr catAC
.o 1 0 
	update_a 3 4
	update2pop_a 0 2
.d 4 0 
	jmp e_ABC.Interpreter.JavaScript_saddJSFromUrl
.export e_iTasks.Extensions.Form.Pikaday_dinitDOMEl`;6.6
.desc e_iTasks.Extensions.Form.Pikaday_dinitDOMEl`;6.6 _hnf l6 4 0 "initDOMEl`;6.6"
.a 4 ea6
.o 2 0 
l6
	push_args 0 3 3
	update_a 4 3
	create 
	put_a 5
.o 5 0 
ea6
	jsr_eval 3
	push_array 0
	put_a 1
.o 5 0 
s6
	push_a 1
	buildh e_iTasks.Extensions.Form.Pikaday_dinitDOMEl``;7.7 1
	updates3pop_a 0 1 4 3
.d 3 0 
	jsr e_ABC.Interpreter.JavaScript_sjsWrapFun
.o 2 0 
	push_a 0
	buildh _Just 1
	buildAC "pikaday/pikaday.js"
	push_a 4
	buildh0_dup_a _Nil 6
	put_a 4
.d 2 0 
	jsr catAC
.o 1 0 
	update_a 3 4
	update2pop_a 0 2
.d 4 0 
	jmp e_ABC.Interpreter.JavaScript_saddJSFromUrl
.export e_iTasks.Extensions.Form.Pikaday_dinitDOMEl``;7.7
.desc e_iTasks.Extensions.Form.Pikaday_dinitDOMEl``;7.7 _hnf l7 3 0 "initDOMEl``;7.7"
.a 3 ea7
.o 2 0 
l7
	push_args 0 2 2
	update_a 3 2
	create 
	put_a 4
.o 4 0 
ea7
	jsr_eval 2
.o 4 0 
s7
	create 
	buildAC "attributes.value"
	update_a 2 3
	push_a 2
	update3pop_a 0 1
.d 3 0 
	jsr e_ABC.Interpreter.JavaScript_s.#;46
.o 1 0 
	exchange_a 2 1
.d 2 0 
	jsr e_ABC.Interpreter.JavaScript_s.?
.o 2 0 
	create 
	buildAC "domEl"
.d 3 0 
	push_a_jsr 4 e_ABC.Interpreter.JavaScript_s.#;46
.o 1 0 
	exchange_a 2 1
.d 2 0 
	jsr e_ABC.Interpreter.JavaScript_s.?
.o 2 0 
	create 
	buildAC "value"
.d 3 0 
	push_a_jsr 2 e_ABC.Interpreter.JavaScript_s.#;46
.o 1 0 
	buildh e_ABC.Interpreter.JavaScript_dgToJS_JSVal;72 0
	create 
	push_update_a 1 2
	updates2_a 4 6 3
	updates3pop_a 0 1 5 4
.d 5 0 
	jsr e_ABC.Interpreter.JavaScript_s.=
.o 1 0 
	push_a 2
	buildh e_iTasks.Extensions.Form.Pikaday_donSelect;9.8 1
	push_update_a 0 3
.d 3 0 
	jsr e_ABC.Interpreter.JavaScript_sjsWrapFun
.o 2 0 
	push_a 3
	buildh e_iTasks.Extensions.Form.Pikaday_donKeyup;10.9 1
	push_update_a 0 4
	exchange_a 3 2
.d 3 0 
	jsr e_ABC.Interpreter.JavaScript_sjsWrapFun
.o 2 0 
	swap_a1 
.d 1 0 
	jsr e_ABC.Interpreter.JavaScript_sjsEmptyObject
.o 2 0 
	create 
	buildAC "field"
.d 3 0 
	push_a_jsr 2 e_ABC.Interpreter.JavaScript_s.#;46
.o 1 0 
	buildh e_ABC.Interpreter.JavaScript_dgToJS_JSVal;72 0
	create 
	push_update_a 1 7
	push_update_a 3 5
	updates3_a 0 2 5 6
.d 5 0 
	pop_a_jsr 1 e_ABC.Interpreter.JavaScript_s.=
.o 1 0 
	create 
	buildAC "format"
.d 3 0 
	push_a_jsr 3 e_ABC.Interpreter.JavaScript_s.#;46
.o 1 0 
	buildh e_ABC.Interpreter.JavaScript_dgToJS__String;70 0
	create 
	buildAC "YYYY-MM-DD"
	buildh ARRAY 1
	swap_a 2
	push_update_a 3 4
	updates2_a 0 2 5
.d 5 0 
	pop_a_jsr 1 e_ABC.Interpreter.JavaScript_s.=
.o 1 0 
	create 
	buildAC "firstDay"
.d 3 0 
	push_a_jsr 3 e_ABC.Interpreter.JavaScript_s.#;46
.o 1 0 
	buildh e_ABC.Interpreter.JavaScript_dgToJS_Int;68 0
	create 
	buildI 1
	swap_a 2
	push_update_a 3 4
	updates2_a 0 2 5
.d 5 0 
	pop_a_jsr 1 e_ABC.Interpreter.JavaScript_s.=
.o 1 0 
	create 
	buildAC "onSelect"
.d 3 0 
	push_a_jsr 3 e_ABC.Interpreter.JavaScript_s.#;46
.o 1 0 
	buildh e_ABC.Interpreter.JavaScript_dgToJS_JSVal;72 0
	create 
	push_update_a 1 6
	push_update_a 3 4
	updates2_a_pop_a 0 2 5 1
.d 5 0 
	buildh0_put_a_jsr _Nil 8 e_ABC.Interpreter.JavaScript_s.=
.o 1 0 
	push_a 2
	buildAC "keyup"
	buildh ARRAY 1
	buildh _Tuple 2
	create 
	buildAC "addEventListener"
	push_a 7
	buildh0_dup_a _Nil 9
	put_a 7
.d 3 0 
	jsr e_ABC.Interpreter.JavaScript_s.#;46
.o 1 0 
	buildh e_ABC.Interpreter.JavaScript_dgToJS_JSVal;72 0
	buildhr e_iTasks.Extensions.Form.Pikaday_rgToJS_s; 1 0
	buildh e_ABC.Interpreter.JavaScript_dgToJS__String;70 0
	buildhr e_iTasks.Extensions.Form.Pikaday_rgToJS_s; 1 0
	buildh e_ABC.Interpreter.JavaScript_dtoJSArgs;57 2
	create 
	update_a 5 8
	dup_a 7
	update_a 4 6
	update3pop_a 1 3
.d 5 0 
	jsr e_ABC.Interpreter.JavaScript_s.$!
.o 1 0 
	buildh e_ABC.Interpreter.JavaScript_dtoJSArgs;52 0
	push_a 2
	buildAC "Pikaday"
	updates4_a 0 2 1 3 4
.d 4 0 
	pop_a_jsr 1 e_ABC.Interpreter.JavaScript_sjsNew;62
.o 2 0 
	create 
	buildAC "picker"
.d 3 0 
	push_a_jsr 4 e_ABC.Interpreter.JavaScript_s.#;46
.o 1 0 
	buildh e_ABC.Interpreter.JavaScript_dgToJS_JSVal;72 0
	create 
	push_update_a 1 3
	push_update_a 3 5
	updates3_a 0 2 5 6
.d 5 0 
	pop_a_jsr 1 e_ABC.Interpreter.JavaScript_s.=
.o 1 0 
	buildho2 e_iTasks.Extensions.Form.Pikaday_donAttributeChange;554.14 1 2
	updates2_a 3 1 2
.d 3 0 
	jsr e_ABC.Interpreter.JavaScript_sjsWrapFun
.o 2 0 
	create 
	buildAC "onAttributeChange"
	push_a 4
.d 3 0 
	buildh0_put_a_jsr _Nil 6 e_ABC.Interpreter.JavaScript_s.#;46
.o 1 0 
	update3_a 0 1
	pop_a 1
	buildh e_ABC.Interpreter.JavaScript_dgToJS_JSVal;72 0
.d 5 0 
	jmp e_ABC.Interpreter.JavaScript_s.=
.export e_iTasks.Extensions.Form.Pikaday_donAttributeChange;554.14
.desc e_iTasks.Extensions.Form.Pikaday_donAttributeChange;554.14 _hnf l14 4 0 "onAttributeChange;554.14"
.a 4 ea14
.o 2 0 
l14
	push_args 0 3 3
	update_a 4 3
	create 
	put_a 5
.o 5 0 
ea14
	jsr_eval 3
	jsr_eval 2
	push_array 2
	put_a 3
.o 5 0 
s14
	pushI 0
	push_a 2
	buildh _Nil 0
	updates2_a 1 0 4
	select _ 1 0
	pushI 1
	push_a2 1 1
	updates2_a_pop_a 0 2 3 1
	select _ 1 0
	buildAC "value"
	buildh ARRAY 1
	buildh _Just 1
	create 
	push_a 4
	buildh0_dup2_a _Nil 5
.d 2 0 
	pop_a_jsr 1 e_ABC.Interpreter.JavaScript_sjsValToString
.o 1 0 
	update3_a 0 2
	pop_a 2
	buildh e_StdString_d==;2 0
.d 3 0 
	jsr e_StdMaybe_s==;7
.o 0 1 b
	jmp_true else.1
	fill_a 4 5
.d 1 0 
	pop_a_rtn 5
else.1
	push_jsr_eval 2
	create 
	buildAC "noEvents"
	push_a 2
	update3pop_a 0 1
.d 3 0 
	jsr e_ABC.Interpreter.JavaScript_s.#;46
.o 1 0 
	buildh e_ABC.Interpreter.JavaScript_dgToJS_Bool;69 0
	create 
	push_a 7
	buildB TRUE
	push_update_a 3 1
	update_a 5 2
	updates3pop_a 0 1 3 5
.d 5 0 
	buildh0_put_a_jsr _Nil 10 e_ABC.Interpreter.JavaScript_s.=
.o 1 0 
	push_jsr_eval 2
	create 
	buildAC "setDate"
	push_a 2
	update3pop_a 0 1
.d 3 0 
	buildh0_put_a_jsr _Nil 6 e_ABC.Interpreter.JavaScript_s.#;46
.o 1 0 
	buildh e_ABC.Interpreter.JavaScript_dtoJSArgs;52 0
	create 
	update_a 6 8
	dup_a 7
	update_a 3 6
	update_a 4 5
	update2pop_a 1 3
.d 5 0 
	jsr e_ABC.Interpreter.JavaScript_s.$!
.o 1 0 
	create 
	buildAC "noEvents"
	push_a 3
.d 3 0 
	buildh0_put_a_jsr _Nil 5 e_ABC.Interpreter.JavaScript_s.#;46
.o 1 0 
	buildh e_ABC.Interpreter.JavaScript_dgToJS_Bool;69 0
	buildB FALSE
	updates2_a 0 3 4
.d 5 0 
	pop_a_jmp 1 e_ABC.Interpreter.JavaScript_s.=
.export e_iTasks.Extensions.Form.Pikaday_donKeyup;10.9
.desc e_iTasks.Extensions.Form.Pikaday_donKeyup;10.9 _hnf l9 3 0 "onKeyup;10.9"
.a 3 ea9
.o 2 0 
l9
	push_args 0 2 2
	update_a 3 2
	create 
	put_a 4
.o 4 0 
ea9
	jsr_eval 2
.o 4 0 
s9
	create 
	buildAC "attributes.taskId"
	update_a 2 3
	push_a 2
	update3pop_a 0 1
.d 3 0 
	jsr e_ABC.Interpreter.JavaScript_s.#;46
.o 1 0 
	exchange_a 2 1
.d 2 0 
	jsr e_ABC.Interpreter.JavaScript_s.?
.o 2 0 
	create 
	buildAC "attributes.editorId"
.d 3 0 
	push_a_jsr 4 e_ABC.Interpreter.JavaScript_s.#;46
.o 1 0 
	exchange_a 2 1
.d 2 0 
	jsr e_ABC.Interpreter.JavaScript_s.?
.o 2 0 
	create 
	buildAC "domEl.value"
.d 3 0 
	push_a_jsr 5 e_ABC.Interpreter.JavaScript_s.#;46
.o 1 0 
	exchange_a 2 1
.d 2 0 
	jsr e_ABC.Interpreter.JavaScript_s.?
.o 2 0 
	buildo1 e_ABC.Interpreter.JavaScript_njsValToString 0
	build e_iTasks.Extensions.Form.Pikaday_d_f1.227 1 e_iTasks.Extensions.Form.Pikaday_n_f1.227
	push_a2 3 4
	buildh _Tuple 3
	create 
	buildAC "doEditEvent"
	push_a 7
	buildh0_dup3_a _Nil 7
	put_a 5
.d 3 0 
	jsr e_ABC.Interpreter.JavaScript_s.#;46
.o 1 0 
	buildh e_ABC.Interpreter.JavaScript_dgToJS_JSONNode;79 0
	buildhr e_iTasks.Extensions.Form.Pikaday_rgToJS_s; 1 0
	buildh e_ABC.Interpreter.JavaScript_dgToJS_JSVal;72 0
	buildhr e_iTasks.Extensions.Form.Pikaday_rgToJS_s; 1 0
	buildh e_ABC.Interpreter.JavaScript_dgToJS_JSVal;72 0
	buildhr e_iTasks.Extensions.Form.Pikaday_rgToJS_s; 1 0
	buildh e_ABC.Interpreter.JavaScript_dtoJSArgs;58 3
	update_a 4 7
	update3pop_a 0 4
.d 5 0 
	jmp e_ABC.Interpreter.JavaScript_s.$!
.export e_iTasks.Extensions.Form.Pikaday_d_f1.227
.export e_iTasks.Extensions.Form.Pikaday_n_f1.227
.descn e_iTasks.Extensions.Form.Pikaday_d_f1.227 e_iTasks.Extensions.Form.Pikaday_n_f1.227 1 0 "_f1.227"
.n 1 e_iTasks.Extensions.Form.Pikaday_d_f1.227 ea227
.o 1 0 
e_iTasks.Extensions.Form.Pikaday_n_f1.227
	push_node _cycle_in_spine 1
.o 2 0 
ea227
.o 2 0 
s227
	jsr_eval 0
	push_a 0
	put_a 1
	buildh e_iTasks.Extensions.Form.Pikaday_dJSONEncode_s;553.13 0
.d 3 0 
	jmp e_Text.GenJSON_stoJSON
.export e_iTasks.Extensions.Form.Pikaday_donSelect;9.8
.desc e_iTasks.Extensions.Form.Pikaday_donSelect;9.8 _hnf l8 3 0 "onSelect;9.8"
.a 3 ea8
.o 2 0 
l8
	push_args 0 2 2
	update_a 3 2
	create 
	put_a 4
.o 4 0 
ea8
	jsr_eval 2
.o 4 0 
s8
	push_a 2
	pushB FALSE
	create 
	buildAC "noEvents"
	push_a 3
.d 3 0 
	buildh0_put_a_jsr _Nil 7 e_ABC.Interpreter.JavaScript_s.#;46
.o 1 0 
	update3pop_a 0 2
.d 2 1 b
	jsr e_ABC.Interpreter.JavaScript_s.??;65
.o 1 1 b
	jmp_b_false 0 else.2
	pop_b 1
	fill_a 0 2
.d 1 0 
	pop_a_rtn 2
else.2
	create 
	buildAC "picker.toString"
	push_a 3
.d 3 0 
	pop_b_jsr 1 e_ABC.Interpreter.JavaScript_s.#;46
.o 1 0 
	buildh e_ABC.Interpreter.JavaScript_dtoJSArgs;51 0
	push_a 2
	buildAC "YYYY-MM-DD"
	buildh ARRAY 1
	updates4_a 0 3 2 1 4
.d 4 0 
	pop_a_jsr 1 e_ABC.Interpreter.JavaScript_s.$
.o 2 0 
	create 
	buildAC "attributes.taskId"
.d 3 0 
	push_a_jsr 4 e_ABC.Interpreter.JavaScript_s.#;46
.o 1 0 
	exchange_a 2 1
.d 2 0 
	jsr e_ABC.Interpreter.JavaScript_s.?
.o 2 0 
	create 
	buildAC "attributes.editorId"
.d 3 0 
	push_a_jsr 5 e_ABC.Interpreter.JavaScript_s.#;46
.o 1 0 
	exchange_a 2 1
.d 2 0 
	jsr e_ABC.Interpreter.JavaScript_s.?
.o 2 0 
	buildo1 e_ABC.Interpreter.JavaScript_njsValToString 3
	build e_iTasks.Extensions.Form.Pikaday_d_f2.228 1 e_iTasks.Extensions.Form.Pikaday_n_f2.228
	push_a2 1 3
	buildh _Tuple 3
	create 
	buildAC "doEditEvent"
	push_a 7
	buildh0_dup3_a _Nil 7
	put_a 5
.d 3 0 
	jsr e_ABC.Interpreter.JavaScript_s.#;46
.o 1 0 
	buildh e_ABC.Interpreter.JavaScript_dgToJS_JSONNode;79 0
	buildhr e_iTasks.Extensions.Form.Pikaday_rgToJS_s; 1 0
	buildh e_ABC.Interpreter.JavaScript_dgToJS_JSVal;72 0
	buildhr e_iTasks.Extensions.Form.Pikaday_rgToJS_s; 1 0
	buildh e_ABC.Interpreter.JavaScript_dgToJS_JSVal;72 0
	buildhr e_iTasks.Extensions.Form.Pikaday_rgToJS_s; 1 0
	buildh e_ABC.Interpreter.JavaScript_dtoJSArgs;58 3
	update_a 4 7
	update3pop_a 0 4
.d 4 0 
	jsr e_ABC.Interpreter.JavaScript_s.$
.o 2 0 
	fill_a 1 2
.d 1 0 
	pop_a_rtn 2
.export e_iTasks.Extensions.Form.Pikaday_d_f2.228
.export e_iTasks.Extensions.Form.Pikaday_n_f2.228
.descn e_iTasks.Extensions.Form.Pikaday_d_f2.228 e_iTasks.Extensions.Form.Pikaday_n_f2.228 1 0 "_f2.228"
.n 1 e_iTasks.Extensions.Form.Pikaday_d_f2.228 ea228
.o 1 0 
e_iTasks.Extensions.Form.Pikaday_n_f2.228
	push_node _cycle_in_spine 1
.o 2 0 
ea228
.o 2 0 
s228
	jsr_eval 0
	push_a 0
	put_a 1
	buildh e_iTasks.Extensions.Form.Pikaday_dJSONEncode_s;553.13 0
.d 3 0 
	jmp e_Text.GenJSON_stoJSON
.export e_iTasks.Extensions.Form.Pikaday_dJSONEncode_s;553.13
.desc e_iTasks.Extensions.Form.Pikaday_dJSONEncode_s;553.13 _hnf l13 2 0 "JSONEncode_s;553.13"
.o 3 1 b
i13
.d 2 1 b
	pop_a_jmp 1 s13
.ai 2 ea13 i13
.o 2 0 
l13
	push_args 0 1 1
	update_a 2 1
	create 
	put_a 3
.o 3 0 
ea13
	jsr_eval 1
	jsr_eval 0
	pushB0_pop_a1 
.o 2 1 b
s13
	buildh e_Text.GenJSON_dJSONEncode__String;16 0
.d 3 1 b
	jmp e_Text.GenJSON_sJSONEncode__!Maybe;33
.export e_iTasks.Extensions.Form.Pikaday_dJSONDecode_s;558.16
.desc e_iTasks.Extensions.Form.Pikaday_dJSONDecode_s;558.16 _hnf l16 2 0 "JSONDecode_s;558.16"
.o 2 1 b
i16
.d 1 1 b
	pop_a_jmp 1 s16
.ai 0 a16 i16
.o 2 0 
l16
	repl_args 1 1
.o 2 0 
a16
.d 2 0 
	jsr ea16
.o 2 0 
	buildh _Tuple 2
.d 1 0 
	rtn 
.o 2 0 
ea16
	jsr_eval 1
	jsr_eval 0
	pushB0_pop_a1 
.o 1 1 b
s16
	buildh e_Text.GenJSON_dJSONDecode__String;46 0
.d 2 1 b
	jmp e_Text.GenJSON_sJSONDecode__!Maybe;63
.export e_iTasks.Extensions.Form.Pikaday_donReset;559.17
.desc e_iTasks.Extensions.Form.Pikaday_donReset;559.17 _hnf l17 3 0 "onReset;559.17"
.a 0 a17
.o 2 0 
l17
	repl_args 2 2
.o 3 0 
a17
.o 3 0 
ea17
	jsr_eval 2
	push_r_args 2 4 3
	updates2_a 0 3 6
	exchange_a 4 1
	exchange_a 5 2
	pop_a 1
.impdesc e_iTasks.UI.Editor_rVSt
	build_r e_iTasks.UI.Editor_rVSt 4 3 2 0
	buildh _None 0
	buildh _Nil 0
	push_a 3
	buildh _Cons 2
	buildh e_Text.GenJSON_dJSONString 0
	buildh e_Text.GenJSON_dJSONNull 0
	push_update_a 0 1
	update_a 7 2
	build e_Data.Maybe_dmaybe;63 3 e_Data.Maybe_nmaybe;63
	build e_iTasks.UI.Definition_dvalueAttr 1 e_iTasks.UI.Definition_nvalueAttr
	buildh _Cons 2
	buildB_b 1
	build e_iTasks.UI.Definition_doptionalAttr 1 e_iTasks.UI.Definition_noptionalAttr
	buildh _Cons 2
	build e_Data.Map_dunions;70 1 e_Data.Map_nunions;70
	buildh e_iTasks.UI.Definition_dUITextField 0
	build e_iTasks.UI.Definition_duia 2 e_iTasks.UI.Definition_nuia
	push_update_a 0 4
	buildh _Tuple 3
	buildh e_Data.Error_dOk 1
	update2pop_a 0 6
	pop_b 3
	buildh _Tuple 2
.d 1 0 
	rtn 
.export e_iTasks.Extensions.Form.Pikaday_donEdit;560.18
.desc e_iTasks.Extensions.Form.Pikaday_donEdit;560.18 _hnf l18 3 0 "onEdit;560.18"
.a 0 a18
.o 2 0 
l18
	repl_args 2 2
.o 3 0 
a18
.o 3 0 
ea18
	jsr_eval 2
	push_r_args 2 4 3
	updates2_a 0 3 6
	exchange_a 4 1
	exchange_a 5 2
	pop_a 1
	build_r e_iTasks.UI.Editor_rVSt 4 3 2 0
	push_a 1
	buildAC ""
	buildh ARRAY 1
	build e_Data.Maybe_dfromMaybe;67 2 e_Data.Maybe_nfromMaybe;67
	build _Justs 1 n_Justs
	buildh _Nil 0
	buildh _Nil 0
	buildo1 e_iTasks.Extensions.Form.Pikaday_n_f0.226 4
	buildAC "value"
	buildh ARRAY 1
	build e_iTasks.UI.Definition_dSetAttribute 2 e_iTasks.UI.Definition_nSetAttribute
	buildh _Cons 2
	buildh e_iTasks.UI.Definition_dChangeUI 2
	push_update_a 0 3
	buildh _Tuple 3
	buildh e_Data.Error_dOk 1
	update2pop_a 0 6
	pop_b 3
	buildh _Tuple 2
.d 1 0 
	rtn 
.export e_iTasks.Extensions.Form.Pikaday_d_f0.226
.export e_iTasks.Extensions.Form.Pikaday_n_f0.226
.descn e_iTasks.Extensions.Form.Pikaday_d_f0.226 e_iTasks.Extensions.Form.Pikaday_n_f0.226 1 0 "_f0.226"
.n 1 e_iTasks.Extensions.Form.Pikaday_d_f0.226 ea226
.o 1 0 
e_iTasks.Extensions.Form.Pikaday_n_f0.226
	push_node _cycle_in_spine 1
.o 2 0 
ea226
.o 2 0 
s226
	jsr_eval 0
	push_a 0
	buildAC ""
	buildh ARRAY 1
	update2pop_a 0 1
.d 2 0 
	jsr e_Data.Maybe_sfromMaybe;67
.o 1 0 
	push_array 0
	put_a 1
	fill_r e_Text.GenJSON_kJSONString 1 0 1 0 0
.d 1 0 
	pop_a_rtn 1
.export e_iTasks.Extensions.Form.Pikaday_donRefresh;12.10
.desc e_iTasks.Extensions.Form.Pikaday_donRefresh;12.10 _hnf l10 3 0 "onRefresh;12.10"
.a 0 a10
.o 2 0 
l10
	repl_args 2 2
.o 3 0 
a10
.d 3 0 
	jsr ea10
.o 2 0 
	buildh _Tuple 2
.d 1 0 
	rtn 
.o 3 0 
ea10
	jsr_eval 2
	jsr_eval 1
	jsr_eval 0
	push_r_args 2 4 3
	push_array 4
	update_a 4 7
	update2_a 1 4
	dup_a 2
	exchange_a 6 3
	pop_a 2
.o 6 3 ibi
s10
	push_a 0
	buildh ARRAY 1
	buildh _Just 1
.d 2 0 
	push_a_jsr 2 s12
.o 0 1 b
	jmp_false else.3
	build_r e_iTasks.UI.Editor_rVSt 4 3 2 0
	buildh _None 0
	buildh e_iTasks.UI.Definition_dNoChange 0
	push_update_a 0 4
	buildh _Tuple 3
	buildh e_Data.Error_dOk 1
	update2pop_a 0 6
.d 2 0 
	pop_b_rtn 3
else.3
	build_r e_iTasks.UI.Editor_rVSt 4 3 2 0
	buildh _None 0
	push_a 2
	buildh ARRAY 1
	buildh _Just 1
	buildh _Nil 0
	buildh _Nil 0
	push_a 5
	buildhr e_Text.GenJSON_kJSONString 1 0
	buildAC "value"
	buildhr e_iTasks.UI.Definition_kSetAttribute 2 0
	buildh _Cons 2
	buildh e_iTasks.UI.Definition_dChangeUI 2
	buildh _Tuple 3
	buildh e_Data.Error_dOk 1
	update2pop_a 0 6
.d 2 0 
	pop_b_rtn 3
.o 2 0 
s12
	buildh e_Data.GenEq_dgEq__String;11 0
.d 3 0 
	jmp e_Data.Maybe_sgEq__!Maybe;69
.export e_iTasks.Extensions.Form.Pikaday_dwriteValue;561.19
.desc e_iTasks.Extensions.Form.Pikaday_dwriteValue;561.19 _hnf l19 1 0 "writeValue;561.19"
.o 2 0 
l19
	update_a 1 0
	create 
	put_a 2
.o 2 0 
ea19
.o 2 0 
s19
	push_a 0
	buildAC ""
	buildh ARRAY 1
	build e_Data.Maybe_dfromMaybe;67 2 e_Data.Maybe_nfromMaybe;67
	fillh e_Data.Error_dOk 1 2
.d 1 0 
	pop_a_rtn 1
