Version: 1.5
Global
	ProjectRoot:	.
	Target:	iTasks
	Exec:	{Project}/TypedTaskEditor
	ByteCode:	{Project}/TypedTaskEditor.bc
	CodeGen
		CheckStacks:	False
		CheckIndexes:	True
		OptimiseABC:	True
		GenerateByteCode:	True
	Application
		HeapSize:	209715200
		StackSize:	20971520
		ExtraMemory:	8192
		IntialHeapSize:	204800
		HeapSizeMultiplier:	4096
		ShowExecutionTime:	False
		ShowGC:	False
		ShowStackSize:	False
		MarkingCollector:	False
		DisableRTSFlags:	False
		StandardRuntimeEnv:	True
		Profile
			Memory:	False
			MemoryMinimumHeapSize:	0
			Time:	False
			Stack:	False
			Dynamics:	True
			GenericFusion:	False
			DescExL:	True
		Output
			Output:	ShowConstructors
			Font:	Monaco
			FontSize:	9
			WriteStdErr:	False
	Link
		LinkMethod:	Static
		GenerateRelocations:	False
		GenerateSymbolTable:	False
		GenerateLinkMap:	False
		LinkResources:	False
		ResourceSource:	
		GenerateDLL:	False
		ExportedNames:	
		StripByteCode:	True
		KeepByteCodeSymbols:	True
		PrelinkByteCode:	True
	Paths
		Path:	{Project}
	Precompile:	
	Postlink:	
MainModule
	Name:	TypedTaskEditor
	Dir:	{Project}
	Compiler
		NeverMemoryProfile:	False
		NeverTimeProfile:	False
		StrictnessAnalysis:	True
		ListTypes:	StrictExportTypes
		ListAttributes:	True
		Warnings:	True
		Verbose:	True
		ReadableABC:	False
		ReuseUniqueNodes:	True
		Fusion:	False

