.comp 920 000011110011000
.start _nostart_
.depend "StdCharList" "20210609153507"
.depend "_SystemArray" "20210609153507"
.depend "StdArray" "20210609153507"
.depend "StdEnv" "20210609153507"
.depend "_SystemEnum" "20210609153507"
.depend "StdEnum" "20210609153507"
.depend "StdTuple" "20210609153507"
.depend "StdOrdList" "20210609153507"
.depend "Control.Monad.Trans" "20210609153506"
.depend "StdMaybe" "20210609153507"
.depend "_SystemStrictMaybes" "20210609153507"
.depend "Data.Maybe" "20210609153506"
.depend "Data.Bifunctor" "20210609153506"
.depend "StdFile" "20210609153507"
.depend "Control.Monad.Fail" "20210609153506"
.depend "Data.Traversable" "20210609153506"
.depend "StdMisc" "20210609153507"
.depend "StdOverloadedList" "20210609153507"
.depend "Data.List" "20210609153506"
.depend "Data.Foldable" "20210609153506"
.depend "StdFunctions" "20210609153507"
.depend "StdFunc" "20210609153507"
.depend "StdString" "20210609153507"
.depend "_SystemEnumStrict" "20210609153507"
.depend "_SystemStrictLists" "20210609153507"
.depend "StdStrictLists" "20210609153507"
.depend "StdGeneric" "20210609153507"
.depend "Data.GenEq" "20210609153506"
.depend "StdReal" "20210609153507"
.depend "StdChar" "20210609153507"
.depend "StdInt" "20210609153507"
.depend "StdBool" "20210609153507"
.depend "StdClass" "20210609153507"
.depend "StdList" "20210609153507"
.depend "Data.Monoid" "20210609153506"
.depend "Control.Applicative" "20210609153506"
.depend "Control.Monad" "20210609153506"
.depend "Data.Functor" "20210609153506"
.depend "StdOverloaded" "20210609153507"
.depend "_SystemDynamic" "20210609153507"
.depend "Data.Either" "20210609153506"
.module m_Data.Either "Data.Either" "20210609153506"
.endinfo
.impmod _system
.implab _cycle_in_spine
.implab _type_error
.implab _hnf
.impdesc e_system_dind
.implab e_system_nind e_system_eaind
.impdesc e_system_dif
.implab e_system_nif e_system_eaif
.implab e_system_sif
.impdesc e_system_dAP
.implab e_system_nAP e_system_eaAP
.implab e_system_sAP
.impdesc ARRAY
.impdesc _Nil
.impdesc _Cons
.impdesc _Conss
.implab n_Conss ea_Conss
.impdesc _Consts
.implab n_Consts ea_Consts
.impdesc _Conssts
.implab n_Conssts ea_Conssts
.impdesc _Tuple
.impdesc d_S.1
.implab n_S.1 ea_S.1
.impdesc d_S.2
.implab n_S.2 ea_S.2
.impdesc d_S.3
.implab n_S.3 ea_S.3
.impdesc d_S.4
.implab n_S.4 ea_S.4
.impdesc d_S.5
.implab n_S.5 ea_S.5
.impdesc d_S.6
.implab n_S.6 ea_S.6
.implab _driver
.impmod Data.Maybe
.implab e_Data.Maybe_sfromMaybe;67
.impmod StdMisc
.impdesc e_StdMisc_dabort
.implab e_StdMisc_nabort _
.impmod StdFunctions
.impdesc e_StdFunctions_did
.impdesc e_StdFunctions_dconst
.impmod Data.Monoid
.implab e_Data.Monoid_sgetDual
.implab e_Data.Monoid_sappEndo
.impdesc e_Data.Monoid_dmappend;11
.implab e_Data.Monoid_smempty;18
.impdesc e_Data.Monoid_dmempty;19
.implab e_Data.Monoid_nmempty;19 e_Data.Monoid_eamempty;19
.impmod StdGeneric
.impdesc e_StdGeneric_dLEFT
.impdesc e_StdGeneric_dRIGHT
.impdesc e_StdGeneric_dCONS
.impmod Data.Monoid
.impdesc e_Data.Monoid_dDual
.impdesc e_Data.Monoid_dEndo
.impdesc e_Data.Monoid_rSemigroup;
.impdesc e_Data.Monoid_dSemigroup;.mappend
.implab e_Data.Monoid_nSemigroup;.mappend e_Data.Monoid_eaSemigroup;.mappend
.impdesc e_Data.Monoid_rMonoid;
.impdesc e_Data.Monoid_dMonoid;.mempty
.implab e_Data.Monoid_nMonoid;.mempty e_Data.Monoid_eaMonoid;.mempty
.impdesc e_Data.Monoid_dMonoid;.Semigroup
.implab e_Data.Monoid_nMonoid;.Semigroup
.export e_Data.Either_dLeft
.desc e_Data.Either_dLeft _hnf _add_arg 1 0 "Left"
.export e_Data.Either_dRight
.desc e_Data.Either_dRight _hnf _add_arg 1 0 "Right"
.export e_Data.Either_sTD;Either
.export e_Data.Either_eaTD;Either
.descexp e_Data.Either_dTD;Either e_Data.Either_nTD;Either e_Data.Either_lTD;Either 1 0 "TD;Either"
.o 2 0
e_Data.Either_lTD;Either
	update_a 1 0
	create
	update_a 0 2
	pop_a 1
.d 2 0
	jmp e_Data.Either_eaTD;Either
.n 1 e_Data.Either_dTD;Either e_Data.Either_eaTD;Either
.o 1 0
e_Data.Either_nTD;Either
	push_node _cycle_in_spine 1
.o 2 0
e_Data.Either_eaTD;Either
.o 2 0
e_Data.Either_sTD;Either
.o 2 0
s31
	fillh _Nil 0 1
	pop_a 1
.d 1 0
	rtn
.export e_Data.Either_sgEq_Either;29
.descexp e_Data.Either_dgEq_Either;29 e_Data.Either_ngEq_Either;29 e_Data.Either_lgEq_Either;29 4 0 "gEq_Either;29"
.o 5 0
e_Data.Either_igEq_Either;29
	pop_a 1
.d 4 0
	jmp s30
.ai 0 a30 e_Data.Either_igEq_Either;29
.o 2 0
e_Data.Either_lgEq_Either;29
	repl_args 3 3
.o 4 0
a30
.d 4 0
	jsr ea30
.o 0 1 b
	buildB_b 0
	pop_b 1
.d 1 0
	rtn
.n 4 e_Data.Either_dgEq_Either;29
.o 1 0
e_Data.Either_ngEq_Either;29
	push_node _cycle_in_spine 4
.d 4 0
	jsr ea30
.o 0 1 b
	fillB_b 0 0
	pop_b 1
.d 1 0
	rtn
.o 4 0
ea30
	jsr_eval 3
	jsr_eval 2
.o 4 0
e_Data.Either_sgEq_Either;29
.o 4 0
s30
	create
	push_a 4
	buildh _Nil 0
	update_a 0 6
	pop_a 1
.d 2 0
	jsr s46
.o 1 0
	create
	push_a 4
	buildh _Nil 0
	update_a 0 6
	pop_a 1
.d 2 0
	jsr s46
.o 1 0
	push_a 3
	push_a 3
	update_a 3 7
	update_a 2 6
	update_a 1 5
	updatepop_a 0 4
.d 4 0
	jmp s55
.o 4 0
s55
	push_a 3
	push_a 3
	push_a 3
	push_a 3
	update_a 3 7
	update_a 2 6
	update_a 1 5
	updatepop_a 0 4
.d 4 0
	jmp s56
.o 4 0
s56
	eq_desc e_StdGeneric_dLEFT 1 2
	jmp_true case.1
	jmp case.2
case.1
	push_args 2 1 1
	buildh _Nil 0
	update_a 0 4
	pop_a 1
	eq_desc e_StdGeneric_dLEFT 1 4
	jmp_true case.3
	jmp case.4
case.3
	push_args 4 1 1
	buildh _Nil 0
	update_a 0 6
	pop_a 1
	push_a 0
	jsr_eval 0
	push_a 2
	jsr_eval 0
	push_a 4
	jsr_eval 0
	update_a 2 8
	update_a 1 7
	updatepop_a 0 6
.d 3 0
	jmp s49
case.4
	push_args 4 1 1
	buildh _Nil 0
	update_a 0 6
	pop_a 1
	pop_a 1
	pop_a 5
	pushB FALSE
.d 0 1 b
	rtn
case.2
	push_args 2 1 1
	buildh _Nil 0
	update_a 0 4
	pop_a 1
	eq_desc e_StdGeneric_dRIGHT 1 4
	jmp_true case.5
	jmp case.6
case.5
	push_args 4 1 1
	buildh _Nil 0
	update_a 0 6
	pop_a 1
	push_a 0
	jsr_eval 0
	push_a 2
	jsr_eval 0
	push_a 5
	jsr_eval 0
	update_a 2 8
	update_a 1 7
	updatepop_a 0 6
.d 3 0
	jmp s49
case.6
	push_args 4 1 1
	buildh _Nil 0
	update_a 0 6
	pop_a 1
	pop_a 1
	pop_a 5
	pushB FALSE
.d 0 1 b
	rtn
.o 3 0
s49
	push_args 1 1 1
	buildh _Nil 0
	update_a 0 3
	pop_a 1
	push_args 3 1 1
	buildh _Nil 0
	update_a 0 5
	pop_a 1
	push_a 0
	push_a 2
	push_a 4
	update_a 2 7
	update_a 1 6
	updatepop_a 0 5
	jsr_ap 2
	pushB_a 0
	pop_a 1
.d 0 1 b
	rtn
.o 2 0
s46
	eq_desc e_Data.Either_dLeft 1 0
	jmp_true case.7
	jmp case.8
case.7
	repl_args 1 1
	push_a 0
	buildh e_StdGeneric_dCONS 1
	fillh e_StdGeneric_dLEFT 1 2
	pop_a 1
.d 1 0
	rtn
case.8
	repl_args 1 1
	push_a 0
	buildh e_StdGeneric_dCONS 1
	fillh e_StdGeneric_dRIGHT 1 2
	pop_a 1
.d 1 0
	rtn
.export e_Data.Either_sempty;28
.export e_Data.Either_eaempty;28
.descexp e_Data.Either_dempty;28 e_Data.Either_nempty;28 e_Data.Either_lempty;28 1 0 "empty;28"
.o 1 0
e_Data.Either_iempty;28
	repl_args 1 1
	create
	jsr_eval 1
	push_r_args 1 2 0
	update_a 2 3
	update_a 1 2
	update_a 0 1
	pop_a 1
.d 3 0
	jmp s29
.ai 1 _ e_Data.Either_iempty;28
.o 2 0
e_Data.Either_lempty;28
	update_a 1 0
	create
	update_a 0 2
	pop_a 1
.d 2 0
	jmp e_Data.Either_eaempty;28
.n 1 e_Data.Either_dempty;28 e_Data.Either_eaempty;28
.o 1 0
e_Data.Either_nempty;28
	push_node _cycle_in_spine 1
.o 2 0
e_Data.Either_eaempty;28
	jsr_eval 0
	repl_r_args 2 0
.o 3 0
e_Data.Either_sempty;28
.o 3 0
s29
	push_a 0
	fillh e_Data.Either_dLeft 1 3
	pop_a 2
.d 1 0
	rtn
.export e_Data.Either_s<|>;27
.export e_Data.Either_ea<|>;27
.descexp e_Data.Either_d<|>;27 e_Data.Either_n<|>;27 e_Data.Either_l<|>;27 3 0 "<|>;27"
.o 3 0
e_Data.Either_i<|>;27
	repl_args 1 1
	create
	jsr_eval 1
	push_r_args 1 2 0
	update_a 4 3
	update_a 5 4
	update_a 2 5
	update_a 1 2
	update_a 0 1
	pop_a 1
.d 5 0
	jmp s28
.ai 3 e_Data.Either_ea<|>;27 e_Data.Either_i<|>;27
.o 2 0
e_Data.Either_l<|>;27
	push_args 0 2 2
	update_a 3 2
	create
	update_a 0 4
	pop_a 1
.d 4 0
	jmp e_Data.Either_ea<|>;27
.n 3 e_Data.Either_d<|>;27 e_Data.Either_ea<|>;27
.o 1 0
e_Data.Either_n<|>;27
	push_node _cycle_in_spine 3
.o 4 0
e_Data.Either_ea<|>;27
	jsr_eval 1
	jsr_eval 0
	repl_r_args 2 0
.o 5 0
e_Data.Either_s<|>;27
.o 5 0
s28
	buildh e_Data.Either_dRight 0
	build_r e_Data.Monoid_rSemigroup; 1 0 2 0
	push_a 5
	push_a 1
	update_a 1 2
	update_a 0 1
	pop_a 1
	buildh e_Data.Either_d\;85;27;37.38 2
	push_a 4
	push_a 2
	update_a 1 3
	update_a 2 1
	update_a 0 2
	pop_a 1
	update_a 2 6
	update_a 1 5
	updatepop_a 0 4
.d 3 0
	jsr s1
.o 1 0
	fill_a 0 1
	pop_a 1
.d 1 0
	rtn
.export e_Data.Either_d\;85;27;37.38
.desc e_Data.Either_d\;85;27;37.38 _hnf l38 3 0 "\;85;27;37.38"
.a 3 ea38
.o 2 0
l38
	push_args 0 2 2
	update_a 3 2
	create
	update_a 0 4
	pop_a 1
.o 4 0
ea38
	jsr_eval 1
	repl_r_args 1 0
.o 4 0
s38
	buildh e_Data.Either_dRight 0
	push_a 1
	push_a 4
	push_a 1
	update_a 1 2
	update_a 0 1
	pop_a 1
	build e_system_dAP 2 e_system_nAP
	buildh e_Data.Either_dLeft 0
	buildh e_Data.Either_d\;15;13;44.45 2
	push_a 3
	push_a 2
	update_a 1 3
	update_a 2 1
	update_a 0 2
	pop_a 1
	update_a 2 5
	update_a 1 4
	updatepop_a 0 3
.d 3 0
	jsr s1
.o 1 0
	fill_a 0 1
	pop_a 1
.d 1 0
	rtn
.export e_Data.Either_d\;15;13;44.45
.desc e_Data.Either_d\;15;13;44.45 _hnf l45 3 0 "\;15;13;44.45"
.a 0 ea45
.o 2 0
l45
	repl_args 2 2
.o 3 0
ea45
.o 3 0
s45
	push_a 2
	push_a 2
	build e_system_dAP 2 e_system_nAP
	push_a 1
	update_a 1 4
	updatepop_a 0 3
	jmp_ap 1
.export e_Data.Either_ssecond;26
.export e_Data.Either_easecond;26
.descexp e_Data.Either_dsecond;26 e_Data.Either_nsecond;26 e_Data.Either_lsecond;26 2 0 "second;26"
.o 3 0
e_Data.Either_isecond;26
	pop_a 1
	create
	jsr_eval 2
	push_a 2
	update_a 1 3
	update_a 2 1
	update_a 0 2
	pop_a 1
.d 3 0
	jmp s27
.ai 2 e_Data.Either_easecond;26 e_Data.Either_isecond;26
.o 2 0
e_Data.Either_lsecond;26
	push_args 0 1 1
	update_a 2 1
	create
	update_a 0 3
	pop_a 1
.d 3 0
	jmp e_Data.Either_easecond;26
.n 2 e_Data.Either_dsecond;26 e_Data.Either_easecond;26
.o 1 0
e_Data.Either_nsecond;26
	push_node _cycle_in_spine 2
.o 3 0
e_Data.Either_ssecond;26
.o 3 0
e_Data.Either_easecond;26
	jsr_eval 1
.o 3 0
s27
	buildh e_Data.Either_d\;10;26;43.44 0
	push_a 2
	push_a 2
	push_a 2
	update_a 2 3
	update_a 1 2
	update_a 0 1
	pop_a 1
	update_a 2 4
	update_a 1 3
	updatepop_a 0 2
.d 4 0
	jmp s25
.export e_Data.Either_d\;10;26;43.44
.desc e_Data.Either_d\;10;26;43.44 _hnf l44 1 0 "\;10;26;43.44"
.o 2 0
l44
	pop_a 1
.o 1 0
ea44
	jsr_eval 0
.o 1 0
s44
.d 1 0
	rtn
.export e_Data.Either_sfirst;25
.export e_Data.Either_eafirst;25
.descexp e_Data.Either_dfirst;25 e_Data.Either_nfirst;25 e_Data.Either_lfirst;25 2 0 "first;25"
.o 3 0
e_Data.Either_ifirst;25
	pop_a 1
	create
	jsr_eval 2
	push_a 2
	update_a 1 3
	update_a 2 1
	update_a 0 2
	pop_a 1
.d 3 0
	jmp s26
.ai 2 e_Data.Either_eafirst;25 e_Data.Either_ifirst;25
.o 2 0
e_Data.Either_lfirst;25
	push_args 0 1 1
	update_a 2 1
	create
	update_a 0 3
	pop_a 1
.d 3 0
	jmp e_Data.Either_eafirst;25
.n 2 e_Data.Either_dfirst;25 e_Data.Either_eafirst;25
.o 1 0
e_Data.Either_nfirst;25
	push_node _cycle_in_spine 2
.o 3 0
e_Data.Either_sfirst;25
.o 3 0
e_Data.Either_eafirst;25
	jsr_eval 1
.o 3 0
s26
	buildh e_Data.Either_d\;8;27;42.43 0
	push_a 2
	push_a 2
	push_a 2
	update_a 2 3
	update_a 0 2
	pop_a 1
	update_a 2 4
	update_a 1 3
	updatepop_a 0 2
.d 4 0
	jmp s25
.export e_Data.Either_d\;8;27;42.43
.desc e_Data.Either_d\;8;27;42.43 _hnf l43 1 0 "\;8;27;42.43"
.o 2 0
l43
	pop_a 1
.o 1 0
ea43
	jsr_eval 0
.o 1 0
s43
.d 1 0
	rtn
.export e_Data.Either_sbifmap;24
.export e_Data.Either_eabifmap;24
.descexp e_Data.Either_dbifmap;24 e_Data.Either_nbifmap;24 e_Data.Either_lbifmap;24 3 0 "bifmap;24"
.o 4 0
e_Data.Either_ibifmap;24
	pop_a 1
	create
	jsr_eval 3
	push_a 3
	update_a 1 4
	update_a 2 1
	update_a 3 2
	update_a 0 3
	pop_a 1
.d 4 0
	jmp s25
.ai 3 e_Data.Either_eabifmap;24 e_Data.Either_ibifmap;24
.o 2 0
e_Data.Either_lbifmap;24
	push_args 0 2 2
	update_a 3 2
	create
	update_a 0 4
	pop_a 1
.d 4 0
	jmp e_Data.Either_eabifmap;24
.n 3 e_Data.Either_dbifmap;24 e_Data.Either_eabifmap;24
.o 1 0
e_Data.Either_nbifmap;24
	push_node _cycle_in_spine 3
.o 4 0
e_Data.Either_eabifmap;24
	jsr_eval 2
.o 4 0
e_Data.Either_sbifmap;24
.o 4 0
s25
	eq_desc e_Data.Either_dLeft 1 2
	jmp_true case.9
	jmp case.10
case.9
	push_args 2 1 1
	buildh _Nil 0
	update_a 0 4
	pop_a 1
	push_a 0
	push_a 2
	build e_system_dAP 2 e_system_nAP
	fillh e_Data.Either_dLeft 1 5
	pop_a 4
.d 1 0
	rtn
case.10
	push_args 2 1 1
	buildh _Nil 0
	update_a 0 4
	pop_a 1
	push_a 0
	push_a 3
	build e_system_dAP 2 e_system_nAP
	fillh e_Data.Either_dRight 1 5
	pop_a 4
.d 1 0
	rtn
.export e_Data.Either_ssequence;21
.descexp e_Data.Either_dsequence;21 e_Data.Either_nsequence;21 e_Data.Either_lsequence;21 2 0 "sequence;21"
.o 4 0
e_Data.Either_isequence;21
	pop_a 1
.d 3 0
	jmp s22
.ai 0 ea22 e_Data.Either_isequence;21
.o 2 0
e_Data.Either_lsequence;21
	repl_args 1 1
.d 2 0
	jmp ea22
.n 2 e_Data.Either_dsequence;21 _
.o 1 0
e_Data.Either_nsequence;21
	push_node _cycle_in_spine 2
.d 2 0
	jsr ea22
.o 1 0
	fill_a 0 1
	pop_a 1
.d 1 0
	rtn
.o 2 0
ea22
	jsr_eval 1
	jsr_eval 0
	repl_r_args 2 0
.o 3 0
e_Data.Either_ssequence;21
.o 3 0
s22
	push_r_args 1 3 0
	push_a 5
	push_a 3
	update_a 1 4
	update_a 2 1
	update_a 3 2
	update_a 0 3
	pop_a 1
	update_a 3 6
	update_a 2 5
	update_a 1 4
	updatepop_a 0 3
.d 4 0
	jmp s23
.export e_Data.Either_ssequenceA;22
.descexp e_Data.Either_dsequenceA;22 e_Data.Either_nsequenceA;22 e_Data.Either_lsequenceA;22 2 0 "sequenceA;22"
.o 5 0
e_Data.Either_isequenceA;22
	pop_a 1
.d 4 0
	jmp s23
.ai 0 ea23 e_Data.Either_isequenceA;22
.o 2 0
e_Data.Either_lsequenceA;22
	repl_args 1 1
.d 2 0
	jmp ea23
.n 2 e_Data.Either_dsequenceA;22 _
.o 1 0
e_Data.Either_nsequenceA;22
	push_node _cycle_in_spine 2
.d 2 0
	jsr ea23
.o 1 0
	fill_a 0 1
	pop_a 1
.d 1 0
	rtn
.o 2 0
ea23
	jsr_eval 1
	jsr_eval 0
	repl_r_args 3 0
.o 4 0
e_Data.Either_ssequenceA;22
.o 4 0
s23
	buildh e_Data.Either_d\;104;29;41.42 0
	push_a 4
	push_a 4
	push_a 4
	push_a 4
	push_a 4
	update_a 4 5
	update_a 0 4
	pop_a 1
	update_a 4 8
	update_a 3 7
	update_a 2 6
	update_a 1 5
	updatepop_a 0 4
.d 5 0
	jmp s24
.export e_Data.Either_d\;104;29;41.42
.desc e_Data.Either_d\;104;29;41.42 _hnf l42 1 0 "\;104;29;41.42"
.o 2 0
l42
	pop_a 1
.o 1 0
ea42
	jsr_eval 0
.o 1 0
s42
.d 1 0
	rtn
.export e_Data.Either_smapM;20
.descexp e_Data.Either_dmapM;20 e_Data.Either_nmapM;20 e_Data.Either_lmapM;20 3 0 "mapM;20"
.o 5 0
e_Data.Either_imapM;20
	pop_a 1
.d 4 0
	jmp s21
.ai 0 ea21 e_Data.Either_imapM;20
.o 2 0
e_Data.Either_lmapM;20
	repl_args 2 2
.d 3 0
	jmp ea21
.n 3 e_Data.Either_dmapM;20 _
.o 1 0
e_Data.Either_nmapM;20
	push_node _cycle_in_spine 3
.d 3 0
	jsr ea21
.o 1 0
	fill_a 0 1
	pop_a 1
.d 1 0
	rtn
.o 3 0
ea21
	jsr_eval 2
	jsr_eval 0
	repl_r_args 2 0
.o 4 0
e_Data.Either_smapM;20
.o 4 0
s21
	push_r_args 1 3 0
	push_a 6
	push_a 6
	push_a 4
	update_a 2 5
	update_a 4 2
	update_a 1 4
	update_a 3 1
	update_a 0 3
	pop_a 1
	update_a 4 8
	update_a 3 7
	update_a 2 6
	update_a 1 5
	updatepop_a 0 4
.d 5 0
	jmp s24
.export e_Data.Either_straverse;23
.descexp e_Data.Either_dtraverse;23 e_Data.Either_ntraverse;23 e_Data.Either_ltraverse;23 3 0 "traverse;23"
.o 6 0
e_Data.Either_itraverse;23
	pop_a 1
.d 5 0
	jmp s24
.ai 0 ea24 e_Data.Either_itraverse;23
.o 2 0
e_Data.Either_ltraverse;23
	repl_args 2 2
.d 3 0
	jmp ea24
.n 3 e_Data.Either_dtraverse;23 _
.o 1 0
e_Data.Either_ntraverse;23
	push_node _cycle_in_spine 3
.d 3 0
	jsr ea24
.o 1 0
	fill_a 0 1
	pop_a 1
.d 1 0
	rtn
.o 3 0
ea24
	jsr_eval 2
	jsr_eval 0
	repl_r_args 3 0
.o 5 0
e_Data.Either_straverse;23
.o 5 0
s24
	eq_desc e_Data.Either_dLeft 1 4
	jmp_true case.11
	jmp case.12
case.11
	push_args 4 1 1
	buildh _Nil 0
	update_a 0 6
	pop_a 1
	push_a 0
	buildh e_Data.Either_dLeft 1
	push_a 3
	update_a 1 7
	updatepop_a 0 6
.d 2 0
	jmp_i 1
case.12
	push_args 4 1 1
	buildh _Nil 0
	update_a 0 6
	pop_a 1
	push_a 0
	push_a 5
	build e_system_dAP 2 e_system_nAP
	buildh e_Data.Either_dRight 0
	push_a 3
	update_a 2 8
	update_a 1 7
	updatepop_a 0 6
.d 3 0
	jmp_i 2
.export e_Data.Either_sfoldr`;19
.descexp e_Data.Either_dfoldr`;19 e_Data.Either_nfoldr`;19 e_Data.Either_lfoldr`;19 3 0 "foldr`;19"
.o 4 0
e_Data.Either_ifoldr`;19
	pop_a 1
.d 3 0
	jmp s20
.ai 0 ea20 e_Data.Either_ifoldr`;19
.o 2 0
e_Data.Either_lfoldr`;19
	repl_args 2 2
.d 3 0
	jmp ea20
.n 3 e_Data.Either_dfoldr`;19 _
.o 1 0
e_Data.Either_nfoldr`;19
	push_node _cycle_in_spine 3
.d 3 0
	jsr ea20
.o 1 0
	fill_a 0 1
	pop_a 1
.d 1 0
	rtn
.o 3 0
ea20
	jsr_eval 2
	jsr_eval 1
.o 3 0
e_Data.Either_sfoldr`;19
.o 3 0
s20
	buildh e_StdFunctions_did 0
	push_a 1
	buildh e_Data.Either_df`;33.34 1
	push_a 4
	push_a 2
	update_a 1 3
	update_a 2 1
	update_a 0 2
	pop_a 1
	update_a 4 5
	update_a 2 4
	update_a 1 3
	updatepop_a 0 2
.d 3 0
	jsr s15
.o 1 0
	push_a 1
	push_a 1
	update_a 1 2
	update_a 0 1
	pop_a 1
	update_a 1 2
	updatepop_a 0 1
	jmp_ap 1
.export e_Data.Either_df`;33.34
.desc e_Data.Either_df`;33.34 _hnf l34 4 0 "f`;33.34"
.a 0 ea34
.o 2 0
l34
	repl_args 3 3
.o 4 0
ea34
	jsr_eval 1
.o 4 0
s34
	push_a 3
	push_a 3
	push_a 2
	build e_Data.Either_d_f1.97 3 e_Data.Either_n_f1.97
	push_a 2
	update_a 1 5
	updatepop_a 0 4
	jmp_ap 1
.export e_Data.Either_d_f1.97
.export e_Data.Either_n_f1.97
.descn e_Data.Either_d_f1.97 e_Data.Either_n_f1.97 3 0 "_f1.97"
.n 3 e_Data.Either_d_f1.97 ea97
.o 1 0
e_Data.Either_n_f1.97
	push_node _cycle_in_spine 3
.o 4 0
ea97
.o 4 0
s97
	push_a 2
	push_a 1
	jsr_eval 0
	push_a 3
	push_a 1
	update_a 1 2
	update_a 0 1
	pop_a 1
	update_a 2 5
	update_a 1 4
	updatepop_a 0 3
	jsr_ap 2
	fill_a 0 1
	pop_a 1
.d 1 0
	rtn
.export e_Data.Either_sfoldr1;18
.descexp e_Data.Either_dfoldr1;18 e_Data.Either_nfoldr1;18 e_Data.Either_lfoldr1;18 2 0 "foldr1;18"
.o 3 0
e_Data.Either_ifoldr1;18
	pop_a 1
.d 2 0
	jmp s19
.ai 0 ea19 e_Data.Either_ifoldr1;18
.o 2 0
e_Data.Either_lfoldr1;18
	repl_args 1 1
.d 2 0
	jmp ea19
.n 2 e_Data.Either_dfoldr1;18 _
.o 1 0
e_Data.Either_nfoldr1;18
	push_node _cycle_in_spine 2
.d 2 0
	jsr ea19
.o 1 0
	fill_a 0 1
	pop_a 1
.d 1 0
	rtn
.o 2 0
ea19
	jsr_eval 1
	jsr_eval 0
.o 2 0
e_Data.Either_sfoldr1;18
.o 2 0
s19
	buildh _Nothing 0
	push_a 1
	buildh e_Data.Either_dmf;35.36 1
	push_a 3
	push_a 2
	update_a 1 3
	update_a 2 1
	update_a 0 2
	pop_a 1
	update_a 2 4
	update_a 1 3
	updatepop_a 0 2
.d 3 0
	jsr s18
.o 1 0
	buildAC "foldr1: empty structure"
	buildh ARRAY 1
	build e_StdMisc_dabort 1 e_StdMisc_nabort
.d 2 0
	jmp e_Data.Maybe_sfromMaybe;67
.export e_Data.Either_dmf;35.36
.desc e_Data.Either_dmf;35.36 _hnf l36 3 0 "mf;35.36"
.a 3 ea36
.o 2 0
l36
	push_args 0 2 2
	update_a 3 2
	create
	update_a 0 4
	pop_a 1
.o 4 0
ea36
	jsr_eval 2
.o 4 0
s36
	eq_desc _Nothing 0 2
	jmp_true case.13
	jmp case.14
case.13
	push_a 1
	jsr_eval 0
	fillh _Just 1 4
	pop_a 3
.d 1 0
	rtn
case.14
	push_args 2 1 1
	buildh _Nil 0
	update_a 0 4
	pop_a 1
	push_a 0
	push_a 2
	jsr_eval 0
	push_a 4
	push_a 1
	update_a 1 2
	update_a 0 1
	pop_a 1
	update_a 2 6
	update_a 1 5
	updatepop_a 0 4
	jsr_ap 2
	fillh _Just 1 1
.d 1 0
	rtn
.export e_Data.Either_sfoldl`;16
.descexp e_Data.Either_dfoldl`;16 e_Data.Either_nfoldl`;16 e_Data.Either_lfoldl`;16 3 0 "foldl`;16"
.o 4 0
e_Data.Either_ifoldl`;16
	pop_a 1
.d 3 0
	jmp s17
.ai 0 ea17 e_Data.Either_ifoldl`;16
.o 2 0
e_Data.Either_lfoldl`;16
	repl_args 2 2
.d 3 0
	jmp ea17
.n 3 e_Data.Either_dfoldl`;16 _
.o 1 0
e_Data.Either_nfoldl`;16
	push_node _cycle_in_spine 3
.d 3 0
	jsr ea17
.o 1 0
	fill_a 0 1
	pop_a 1
.d 1 0
	rtn
.o 3 0
ea17
	jsr_eval 2
	jsr_eval 1
.o 3 0
e_Data.Either_sfoldl`;16
.o 3 0
s17
	buildh e_StdFunctions_did 0
	push_a 1
	buildh e_Data.Either_df`;34.35 1
	push_a 4
	push_a 2
	update_a 1 3
	update_a 2 1
	update_a 0 2
	pop_a 1
	update_a 4 5
	update_a 2 4
	update_a 1 3
	updatepop_a 0 2
.d 3 0
	jsr s18
.o 1 0
	push_a 1
	push_a 1
	update_a 1 2
	update_a 0 1
	pop_a 1
	update_a 1 2
	updatepop_a 0 1
	jmp_ap 1
.export e_Data.Either_sfoldr;17
.descexp e_Data.Either_dfoldr;17 e_Data.Either_nfoldr;17 e_Data.Either_lfoldr;17 3 0 "foldr;17"
.o 4 0
e_Data.Either_ifoldr;17
	pop_a 1
.d 3 0
	jmp s18
.ai 0 ea18 e_Data.Either_ifoldr;17
.o 2 0
e_Data.Either_lfoldr;17
	repl_args 2 2
.d 3 0
	jmp ea18
.n 3 e_Data.Either_dfoldr;17 _
.o 1 0
e_Data.Either_nfoldr;17
	push_node _cycle_in_spine 3
.d 3 0
	jsr ea18
.o 1 0
	fill_a 0 1
	pop_a 1
.d 1 0
	rtn
.o 3 0
ea18
	jsr_eval 2
.o 3 0
e_Data.Either_sfoldr;17
.o 3 0
s18
	eq_desc e_Data.Either_dLeft 1 2
	jmp_true case.15
	jmp case.16
case.15
	push_args 2 1 1
	buildh _Nil 0
	update_a 0 4
	pop_a 1
	pop_a 1
	updatepop_a 1 2
	jmp_eval
case.16
	push_args 2 1 1
	buildh _Nil 0
	update_a 0 4
	pop_a 1
	push_a 2
	push_a 2
	jsr_eval 0
	push_a 2
	push_a 1
	update_a 1 2
	update_a 0 1
	pop_a 1
	update_a 2 6
	update_a 1 5
	updatepop_a 0 4
	jmp_ap 2
.export e_Data.Either_df`;34.35
.desc e_Data.Either_df`;34.35 _hnf l35 4 0 "f`;34.35"
.a 0 ea35
.o 2 0
l35
	repl_args 3 3
.o 4 0
ea35
	jsr_eval 2
.o 4 0
s35
	push_a 1
	push_a 4
	push_a 2
	build e_Data.Either_d_f0.96 3 e_Data.Either_n_f0.96
	push_a 3
	update_a 1 5
	updatepop_a 0 4
	jmp_ap 1
.export e_Data.Either_d_f0.96
.export e_Data.Either_n_f0.96
.descn e_Data.Either_d_f0.96 e_Data.Either_n_f0.96 3 0 "_f0.96"
.n 3 e_Data.Either_d_f0.96 ea96
.o 1 0
e_Data.Either_n_f0.96
	push_node _cycle_in_spine 3
.o 4 0
ea96
.o 4 0
s96
	push_a 2
	push_a 1
	jsr_eval 0
	push_a 3
	push_a 1
	update_a 1 2
	update_a 0 1
	pop_a 1
	update_a 2 5
	update_a 1 4
	updatepop_a 0 3
	jsr_ap 2
	fill_a 0 1
	pop_a 1
.d 1 0
	rtn
.export e_Data.Either_sfoldl1;15
.descexp e_Data.Either_dfoldl1;15 e_Data.Either_nfoldl1;15 e_Data.Either_lfoldl1;15 2 0 "foldl1;15"
.o 3 0
e_Data.Either_ifoldl1;15
	pop_a 1
.d 2 0
	jmp s16
.ai 0 ea16 e_Data.Either_ifoldl1;15
.o 2 0
e_Data.Either_lfoldl1;15
	repl_args 1 1
.d 2 0
	jmp ea16
.n 2 e_Data.Either_dfoldl1;15 _
.o 1 0
e_Data.Either_nfoldl1;15
	push_node _cycle_in_spine 2
.d 2 0
	jsr ea16
.o 1 0
	fill_a 0 1
	pop_a 1
.d 1 0
	rtn
.o 2 0
ea16
	jsr_eval 1
	jsr_eval 0
.o 2 0
e_Data.Either_sfoldl1;15
.o 2 0
s16
	buildh _Nothing 0
	push_a 1
	buildh e_Data.Either_dmf;36.37 1
	push_a 3
	push_a 2
	update_a 1 3
	update_a 2 1
	update_a 0 2
	pop_a 1
	update_a 2 4
	update_a 1 3
	updatepop_a 0 2
.d 3 0
	jsr s15
.o 1 0
	buildAC "foldl1: empty structure"
	buildh ARRAY 1
	build e_StdMisc_dabort 1 e_StdMisc_nabort
.d 2 0
	jmp e_Data.Maybe_sfromMaybe;67
.export e_Data.Either_dmf;36.37
.desc e_Data.Either_dmf;36.37 _hnf l37 3 0 "mf;36.37"
.a 3 ea37
.o 2 0
l37
	push_args 0 2 2
	update_a 3 2
	create
	update_a 0 4
	pop_a 1
.o 4 0
ea37
	jsr_eval 1
.o 4 0
s37
	eq_desc _Nothing 0 1
	jmp_true case.17
	jmp case.18
case.17
	push_a 2
	jsr_eval 0
	fillh _Just 1 4
	pop_a 3
.d 1 0
	rtn
case.18
	push_args 1 1 1
	buildh _Nil 0
	update_a 0 3
	pop_a 1
	push_a 3
	push_a 2
	jsr_eval 0
	push_a 2
	push_a 1
	update_a 1 2
	update_a 0 1
	pop_a 1
	update_a 2 6
	update_a 1 5
	updatepop_a 0 4
	jsr_ap 2
	fillh _Just 1 1
.d 1 0
	rtn
.export e_Data.Either_sfoldl;14
.descexp e_Data.Either_dfoldl;14 e_Data.Either_nfoldl;14 e_Data.Either_lfoldl;14 3 0 "foldl;14"
.o 4 0
e_Data.Either_ifoldl;14
	pop_a 1
.d 3 0
	jmp s15
.ai 0 ea15 e_Data.Either_ifoldl;14
.o 2 0
e_Data.Either_lfoldl;14
	repl_args 2 2
.d 3 0
	jmp ea15
.n 3 e_Data.Either_dfoldl;14 _
.o 1 0
e_Data.Either_nfoldl;14
	push_node _cycle_in_spine 3
.d 3 0
	jsr ea15
.o 1 0
	fill_a 0 1
	pop_a 1
.d 1 0
	rtn
.o 3 0
ea15
	jsr_eval 2
.o 3 0
e_Data.Either_sfoldl;14
.o 3 0
s15
	buildh e_Data.Monoid_dEndo 0
	buildh e_Data.Monoid_dDual 0
	push_a 2
	push_a 2
	update_a 1 3
	update_a 2 1
	update_a 0 2
	pop_a 1
	buildh e_Data.Either_d\;15;13;108.51 3
	create
	push_a 4
	push_a 2
	update_a 2 3
	update_a 1 2
	update_a 0 1
	pop_a 1
	update_a 4 5
	update_a 2 4
	update_a 1 3
	updatepop_a 0 2
.d 3 0
	jsr s52
.o 1 0
.d 1 0
	jsr e_Data.Monoid_sgetDual
.o 1 0
	create
	push_a 1
	update_a 1 2
	update_a 0 1
	pop_a 1
.d 2 0
	jsr e_Data.Monoid_sappEndo
.o 1 0
	push_a 1
	push_a 1
	update_a 1 2
	update_a 0 1
	pop_a 1
	update_a 1 2
	updatepop_a 0 1
	jmp_ap 1
.o 3 0
s52
	eq_desc e_Data.Either_dLeft 1 1
	jmp_true case.19
	jmp case.20
case.19
	push_args 1 1 1
	buildh _Nil 0
	update_a 0 3
	pop_a 1
	pop_a 1
	buildh e_Data.Monoid_dmappend;11 0
	build e_Data.Monoid_dmempty;19 0 e_Data.Monoid_nmempty;19
	update_a 1 3
	updatepop_a 0 2
.d 3 0
	jmp e_Data.Monoid_smempty;18
case.20
	push_args 1 1 1
	buildh _Nil 0
	update_a 0 3
	pop_a 1
	push_a 0
	push_a 2
	update_a 1 4
	updatepop_a 0 3
	jsr_ap 1
	fill_a 0 1
	pop_a 1
.d 1 0
	rtn
.export e_Data.Either_d\;15;13;108.51
.desc e_Data.Either_d\;15;13;108.51 _hnf l51 4 0 "\;15;13;108.51"
.a 0 ea51
.o 2 0
l51
	repl_args 3 3
.o 4 0
ea51
.o 4 0
s51
	push_a 3
	push_a 3
	push_a 3
	build e_Data.Either_d\;15;13;107.50 3 e_Data.Either_n\;15;13;107.50
	push_a 1
	update_a 1 5
	updatepop_a 0 4
	jmp_ap 1
.export e_Data.Either_d\;15;13;107.50
.export e_Data.Either_n\;15;13;107.50
.descn e_Data.Either_d\;15;13;107.50 e_Data.Either_n\;15;13;107.50 3 0 "\;15;13;107.50"
.n 3 e_Data.Either_d\;15;13;107.50 _
.o 1 0
e_Data.Either_n\;15;13;107.50
	push_node _cycle_in_spine 3
.d 3 0
	jsr ea50
.o 1 0
	fill_a 0 1
	pop_a 1
.d 1 0
	rtn
.o 3 0
ea50
	jsr_eval 0
.o 3 0
s50
	push_a 2
	push_a 2
	buildh e_Data.Either_dflip;38.39 2
	push_a 1
	update_a 1 4
	updatepop_a 0 3
	jmp_ap 1
.export e_Data.Either_dflip;38.39
.desc e_Data.Either_dflip;38.39 _hnf l39 3 0 "flip;38.39"
.a 0 ea39
.o 2 0
l39
	repl_args 2 2
.o 3 0
ea39
	jsr_eval 0
.o 3 0
s39
	push_a 1
	push_a 3
	push_a 2
	update_a 2 5
	update_a 1 4
	updatepop_a 0 3
	jmp_ap 2
.export e_Data.Either_sfold;12
.descexp e_Data.Either_dfold;12 e_Data.Either_nfold;12 e_Data.Either_lfold;12 2 0 "fold;12"
.o 4 0
e_Data.Either_ifold;12
	pop_a 1
.d 3 0
	jmp s13
.ai 0 ea13 e_Data.Either_ifold;12
.o 2 0
e_Data.Either_lfold;12
	repl_args 1 1
.d 2 0
	jmp ea13
.n 2 e_Data.Either_dfold;12 _
.o 1 0
e_Data.Either_nfold;12
	push_node _cycle_in_spine 2
.d 2 0
	jsr ea13
.o 1 0
	fill_a 0 1
	pop_a 1
.d 1 0
	rtn
.o 2 0
ea13
	jsr_eval 1
	jsr_eval 0
	repl_r_args 2 0
.o 3 0
e_Data.Either_sfold;12
.o 3 0
s13
	buildh e_StdFunctions_did 0
	push_a 3
	push_a 3
	push_a 3
	push_a 3
	update_a 3 4
	update_a 0 3
	pop_a 1
	update_a 3 6
	update_a 2 5
	update_a 1 4
	updatepop_a 0 3
.d 4 0
	jmp s14
.export e_Data.Either_sfoldMap;13
.descexp e_Data.Either_dfoldMap;13 e_Data.Either_nfoldMap;13 e_Data.Either_lfoldMap;13 3 0 "foldMap;13"
.o 5 0
e_Data.Either_ifoldMap;13
	pop_a 1
.d 4 0
	jmp s14
.ai 0 ea14 e_Data.Either_ifoldMap;13
.o 2 0
e_Data.Either_lfoldMap;13
	repl_args 2 2
.d 3 0
	jmp ea14
.n 3 e_Data.Either_dfoldMap;13 _
.o 1 0
e_Data.Either_nfoldMap;13
	push_node _cycle_in_spine 3
.d 3 0
	jsr ea14
.o 1 0
	fill_a 0 1
	pop_a 1
.d 1 0
	rtn
.o 3 0
ea14
	jsr_eval 2
	jsr_eval 0
	repl_r_args 2 0
.o 4 0
e_Data.Either_sfoldMap;13
.o 4 0
s14
	eq_desc e_Data.Either_dLeft 1 3
	jmp_true case.21
	jmp case.22
case.21
	push_args 3 1 1
	buildh _Nil 0
	update_a 0 5
	pop_a 1
	pop_a 1
	updatepop_a 0 3
	jmp_eval
case.22
	push_args 3 1 1
	buildh _Nil 0
	update_a 0 5
	pop_a 1
	push_a 3
	jsr_eval 0
	push_a 1
	push_a 1
	update_a 1 2
	update_a 0 1
	pop_a 1
	update_a 1 6
	updatepop_a 0 5
	jmp_ap 1
.export e_Data.Either_sbind;11
.export e_Data.Either_eabind;11
.descexp e_Data.Either_dbind;11 e_Data.Either_nbind;11 e_Data.Either_lbind;11 2 0 "bind;11"
.o 3 0
e_Data.Either_ibind;11
	pop_a 1
	create
	push_a 2
	update_a 1 3
	update_a 2 1
	update_a 0 2
	pop_a 1
.d 3 0
	jmp s12
.ai 2 e_Data.Either_eabind;11 e_Data.Either_ibind;11
.o 2 0
e_Data.Either_lbind;11
	push_args 0 1 1
	update_a 2 1
	create
	update_a 0 3
	pop_a 1
.d 3 0
	jmp e_Data.Either_eabind;11
.n 2 e_Data.Either_dbind;11 e_Data.Either_eabind;11
.o 1 0
e_Data.Either_nbind;11
	push_node _cycle_in_spine 2
.o 3 0
e_Data.Either_eabind;11
	jsr_eval 0
.o 3 0
e_Data.Either_sbind;11
.o 3 0
s12
	eq_desc e_Data.Either_dLeft 1 0
	jmp_true case.23
	jmp case.24
case.23
	repl_args 1 1
	push_a 0
	fillh e_Data.Either_dLeft 1 3
	pop_a 2
.d 1 0
	rtn
case.24
	repl_args 1 1
	push_a 1
	jsr_eval 0
	push_a 1
	push_a 1
	update_a 1 2
	update_a 0 1
	pop_a 1
	update_a 1 3
	updatepop_a 0 2
	jsr_ap 1
	fill_a 0 1
	pop_a 1
.d 1 0
	rtn
.export e_Data.Either_s<*;10
.export e_Data.Either_ea<*;10
.descexp e_Data.Either_d<*;10 e_Data.Either_n<*;10 e_Data.Either_l<*;10 2 0 "<*;10"
.o 3 0
e_Data.Either_i<*;10
	pop_a 1
	create
	push_a 2
	update_a 1 3
	update_a 2 1
	update_a 0 2
	pop_a 1
.d 3 0
	jmp s11
.ai 2 e_Data.Either_ea<*;10 e_Data.Either_i<*;10
.o 2 0
e_Data.Either_l<*;10
	push_args 0 1 1
	update_a 2 1
	create
	update_a 0 3
	pop_a 1
.d 3 0
	jmp e_Data.Either_ea<*;10
.n 2 e_Data.Either_d<*;10 e_Data.Either_ea<*;10
.o 1 0
e_Data.Either_n<*;10
	push_node _cycle_in_spine 2
.o 3 0
e_Data.Either_ea<*;10
	jsr_eval 0
.o 3 0
e_Data.Either_s<*;10
.o 3 0
s11
	eq_desc e_Data.Either_dLeft 1 0
	jmp_true case.25
	jmp case.26
case.25
	repl_args 1 1
	push_a 0
	fillh e_Data.Either_dLeft 1 3
	pop_a 2
.d 1 0
	rtn
case.26
	jsr_eval 1
	eq_desc e_Data.Either_dLeft 1 1
	jmp_true case.27
	jmp case.28
case.27
	push_args 1 1 1
	buildh _Nil 0
	update_a 0 3
	pop_a 1
	push_a 0
	fillh e_Data.Either_dLeft 1 4
	pop_a 3
.d 1 0
	rtn
case.28
	fill_a 0 2
	pop_a 2
.d 1 0
	rtn
.export e_Data.Either_s*>;9
.export e_Data.Either_ea*>;9
.descexp e_Data.Either_d*>;9 e_Data.Either_n*>;9 e_Data.Either_l*>;9 2 0 "*>;9"
.o 3 0
e_Data.Either_i*>;9
	pop_a 1
	create
	push_a 2
	update_a 1 3
	update_a 2 1
	update_a 0 2
	pop_a 1
.d 3 0
	jmp s10
.ai 2 e_Data.Either_ea*>;9 e_Data.Either_i*>;9
.o 2 0
e_Data.Either_l*>;9
	push_args 0 1 1
	update_a 2 1
	create
	update_a 0 3
	pop_a 1
.d 3 0
	jmp e_Data.Either_ea*>;9
.n 2 e_Data.Either_d*>;9 e_Data.Either_ea*>;9
.o 1 0
e_Data.Either_n*>;9
	push_node _cycle_in_spine 2
.o 3 0
e_Data.Either_ea*>;9
	jsr_eval 0
.o 3 0
e_Data.Either_s*>;9
.o 3 0
s10
	eq_desc e_Data.Either_dRight 1 0
	jmp_true case.29
	jmp case.30
case.29
	repl_args 1 1
	pop_a 1
	jmp_eval_upd
case.30
	repl_args 1 1
	push_a 0
	fillh e_Data.Either_dLeft 1 3
	pop_a 2
.d 1 0
	rtn
.export e_Data.Either_s<*>;8
.export e_Data.Either_ea<*>;8
.descexp e_Data.Either_d<*>;8 e_Data.Either_n<*>;8 e_Data.Either_l<*>;8 2 0 "<*>;8"
.o 3 0
e_Data.Either_i<*>;8
	pop_a 1
	create
	push_a 2
	update_a 1 3
	update_a 2 1
	update_a 0 2
	pop_a 1
.d 3 0
	jmp s9
.ai 2 e_Data.Either_ea<*>;8 e_Data.Either_i<*>;8
.o 2 0
e_Data.Either_l<*>;8
	push_args 0 1 1
	update_a 2 1
	create
	update_a 0 3
	pop_a 1
.d 3 0
	jmp e_Data.Either_ea<*>;8
.n 2 e_Data.Either_d<*>;8 e_Data.Either_ea<*>;8
.o 1 0
e_Data.Either_n<*>;8
	push_node _cycle_in_spine 2
.o 3 0
e_Data.Either_ea<*>;8
	jsr_eval 0
.o 3 0
e_Data.Either_s<*>;8
.o 3 0
s9
	eq_desc e_Data.Either_dLeft 1 0
	jmp_true case.31
	jmp case.32
case.31
	repl_args 1 1
	push_a 0
	fillh e_Data.Either_dLeft 1 3
	pop_a 2
.d 1 0
	rtn
case.32
	repl_args 1 1
	push_a 1
	jsr_eval 0
	push_a 1
	update_a 1 3
	updatepop_a 0 2
.d 3 0
	jmp s7
.export e_Data.Either_spure;7
.export e_Data.Either_eapure;7
.descexp e_Data.Either_dpure;7 e_Data.Either_npure;7 e_Data.Either_lpure;7 1 0 "pure;7"
.o 2 0
e_Data.Either_ipure;7
	pop_a 1
	create
	push_a 1
	update_a 1 2
	update_a 0 1
	pop_a 1
.d 2 0
	jmp s8
.ai 1 _ e_Data.Either_ipure;7
.o 2 0
e_Data.Either_lpure;7
	update_a 1 0
	create
	update_a 0 2
	pop_a 1
.d 2 0
	jmp e_Data.Either_eapure;7
.n 1 e_Data.Either_dpure;7 e_Data.Either_eapure;7
.o 1 0
e_Data.Either_npure;7
	push_node _cycle_in_spine 1
.o 2 0
e_Data.Either_eapure;7
.o 2 0
e_Data.Either_spure;7
.o 2 0
s8
	push_a 0
	fillh e_Data.Either_dRight 1 2
	pop_a 1
.d 1 0
	rtn
.export e_Data.Either_sfmap;6
.export e_Data.Either_eafmap;6
.descexp e_Data.Either_dfmap;6 e_Data.Either_nfmap;6 e_Data.Either_lfmap;6 2 0 "fmap;6"
.o 3 0
e_Data.Either_ifmap;6
	pop_a 1
	create
	jsr_eval 2
	push_a 2
	update_a 1 3
	update_a 2 1
	update_a 0 2
	pop_a 1
.d 3 0
	jmp s7
.ai 2 e_Data.Either_eafmap;6 e_Data.Either_ifmap;6
.o 2 0
e_Data.Either_lfmap;6
	push_args 0 1 1
	update_a 2 1
	create
	update_a 0 3
	pop_a 1
.d 3 0
	jmp e_Data.Either_eafmap;6
.n 2 e_Data.Either_dfmap;6 e_Data.Either_eafmap;6
.o 1 0
e_Data.Either_nfmap;6
	push_node _cycle_in_spine 2
.o 3 0
e_Data.Either_sfmap;6
.o 3 0
e_Data.Either_eafmap;6
	jsr_eval 1
.o 3 0
s7
	eq_desc e_Data.Either_dLeft 1 1
	jmp_true case.33
	jmp case.34
case.33
	push_args 1 1 1
	buildh _Nil 0
	update_a 0 3
	pop_a 1
	push_a 0
	fillh e_Data.Either_dLeft 1 4
	pop_a 3
.d 1 0
	rtn
case.34
	push_args 1 1 1
	buildh _Nil 0
	update_a 0 3
	pop_a 1
	push_a 0
	push_a 2
	build e_system_dAP 2 e_system_nAP
	fillh e_Data.Either_dRight 1 4
	pop_a 3
.d 1 0
	rtn
.export e_Data.Either_s==;5
.descexp e_Data.Either_d==;5 e_Data.Either_n==;5 e_Data.Either_l==;5 4 0 "==;5"
.o 3 0
e_Data.Either_i==;5
	repl_args 2 2
	jsr_eval 1
	push_r_args 1 1 0
	jsr_eval 1
	push_r_args 1 1 0
	update_a 1 3
	update_a 0 2
	pop_a 2
.d 4 0
	jmp s6
.ai 0 a6 e_Data.Either_i==;5
.o 2 0
e_Data.Either_l==;5
	repl_args 3 3
.o 4 0
a6
.d 4 0
	jsr ea6
.o 0 1 b
	buildB_b 0
	pop_b 1
.d 1 0
	rtn
.n 4 e_Data.Either_d==;5
.o 1 0
e_Data.Either_n==;5
	push_node _cycle_in_spine 4
.d 4 0
	jsr ea6
.o 0 1 b
	fillB_b 0 0
	pop_b 1
.d 1 0
	rtn
.o 4 0
ea6
	jsr_eval 3
	jsr_eval 2
	jsr_eval 1
	jsr_eval 0
	push_r_args 1 1 0
	push_r_args 1 1 0
	update_a 1 3
	update_a 0 2
	pop_a 2
.o 4 0
e_Data.Either_s==;5
.o 4 0
s6
	eq_desc e_Data.Either_dLeft 1 2
	jmp_true case.35
	jmp case.36
case.35
	push_args 2 1 1
	buildh _Nil 0
	update_a 0 4
	pop_a 1
	eq_desc e_Data.Either_dLeft 1 4
	jmp_true case.38
	pop_a 1
	jmp case.37
case.38
	push_args 4 1 1
	buildh _Nil 0
	update_a 0 6
	pop_a 1
	push_a 0
	jsr_eval 0
	push_a 2
	jsr_eval 0
	push_a 4
	update_a 2 8
	update_a 1 7
	updatepop_a 0 6
.d 3 0
	jmp_i 2
case.36
	push_args 2 1 1
	buildh _Nil 0
	update_a 0 4
	pop_a 1
	eq_desc e_Data.Either_dRight 1 4
	jmp_true case.39
	pop_a 1
	jmp case.37
case.39
	push_args 4 1 1
	buildh _Nil 0
	update_a 0 6
	pop_a 1
	push_a 0
	jsr_eval 0
	push_a 2
	jsr_eval 0
	push_a 5
	update_a 2 8
	update_a 1 7
	updatepop_a 0 6
.d 3 0
	jmp_i 2
case.37
	pop_a 4
	pushB FALSE
.d 0 1 b
	rtn
.export e_Data.Either_sfromRight
.descexp e_Data.Either_dfromRight e_Data.Either_nfromRight e_Data.Either_lfromRight 2 0 "fromRight"
.a 0 ea5
.o 2 0
e_Data.Either_lfromRight
	repl_args 1 1
.d 2 0
	jmp ea5
.n 2 e_Data.Either_dfromRight _
.o 1 0
e_Data.Either_nfromRight
	push_node _cycle_in_spine 2
.d 2 0
	jsr ea5
.o 1 0
	fill_a 0 1
	pop_a 1
.d 1 0
	rtn
.o 2 0
ea5
	jsr_eval 1
.o 2 0
e_Data.Either_sfromRight
.o 2 0
s5
	buildh e_StdFunctions_did 0
	push_a 1
	buildh e_StdFunctions_dconst 1
	push_a 3
	push_a 2
	update_a 1 3
	update_a 2 1
	update_a 0 2
	pop_a 1
	update_a 2 4
	update_a 1 3
	updatepop_a 0 2
.d 3 0
	jmp s1
.export e_Data.Either_sfromLeft
.descexp e_Data.Either_dfromLeft e_Data.Either_nfromLeft e_Data.Either_lfromLeft 2 0 "fromLeft"
.a 0 ea4
.o 2 0
e_Data.Either_lfromLeft
	repl_args 1 1
.d 2 0
	jmp ea4
.n 2 e_Data.Either_dfromLeft _
.o 1 0
e_Data.Either_nfromLeft
	push_node _cycle_in_spine 2
.d 2 0
	jsr ea4
.o 1 0
	fill_a 0 1
	pop_a 1
.d 1 0
	rtn
.o 2 0
ea4
	jsr_eval 1
.o 2 0
e_Data.Either_sfromLeft
.o 2 0
s4
	push_a 0
	buildh e_StdFunctions_dconst 1
	buildh e_StdFunctions_did 0
	push_a 3
	push_a 2
	update_a 1 3
	update_a 2 1
	update_a 0 2
	pop_a 1
	update_a 2 4
	update_a 1 3
	updatepop_a 0 2
.d 3 0
	jmp s1
.export e_Data.Either_srights
.export e_Data.Either_earights
.descexp e_Data.Either_drights e_Data.Either_nrights e_Data.Either_lrights 1 0 "rights"
.o 2 0
e_Data.Either_lrights
	update_a 1 0
	create
	update_a 0 2
	pop_a 1
.d 2 0
	jmp e_Data.Either_earights
.n 1 e_Data.Either_drights e_Data.Either_earights
.o 1 0
e_Data.Either_nrights
	push_node _cycle_in_spine 1
.o 2 0
e_Data.Either_earights
	jsr_eval 0
.o 2 0
e_Data.Either_srights
.o 2 0
s3
	push_a 0
	updatepop_a 0 1
.d 2 0
	jmp s33
.export e_Data.Either_dc;97;14;32.33
.export e_Data.Either_nc;97;14;32.33
.descn e_Data.Either_dc;97;14;32.33 e_Data.Either_nc;97;14;32.33 1 0 "c;97;14;32.33"
.n 1 e_Data.Either_dc;97;14;32.33 ea33
.o 1 0
e_Data.Either_nc;97;14;32.33
	push_node _cycle_in_spine 1
.o 2 0
ea33
	jsr_eval 0
.o 2 0
s33
	push_a 0
	updatepop_a 0 1
.d 2 0
	jmp s60
.o 2 0
s60
	eq_desc _Cons 2 0
	jmp_true case.40
	jmp case.41
case.40
	repl_args 2 2
	push_a 0
	jsr_eval 0
	push_a 2
	push_a 1
	update_a 1 2
	update_a 0 1
	pop_a 1
	update_a 1 3
	updatepop_a 0 2
.d 3 0
	jmp s59
case.41
	fillh _Nil 0 1
	pop_a 1
.d 1 0
	rtn
.o 3 0
s59
	eq_desc e_Data.Either_dRight 1 0
	jmp_true case.42
	jmp case.43
case.42
	repl_args 1 1
	push_a 1
	build e_Data.Either_dc;97;14;32.33 1 e_Data.Either_nc;97;14;32.33
	push_a 1
	fillh _Cons 2 4
	pop_a 2
.d 1 0
	rtn
case.43
	push_a 1
	jsr_eval 0
	updatepop_a 0 2
.d 2 0
	jmp s33
.export e_Data.Either_slefts
.export e_Data.Either_ealefts
.descexp e_Data.Either_dlefts e_Data.Either_nlefts e_Data.Either_llefts 1 0 "lefts"
.o 2 0
e_Data.Either_llefts
	update_a 1 0
	create
	update_a 0 2
	pop_a 1
.d 2 0
	jmp e_Data.Either_ealefts
.n 1 e_Data.Either_dlefts e_Data.Either_ealefts
.o 1 0
e_Data.Either_nlefts
	push_node _cycle_in_spine 1
.o 2 0
e_Data.Either_ealefts
	jsr_eval 0
.o 2 0
e_Data.Either_slefts
.o 2 0
s2
	push_a 0
	updatepop_a 0 1
.d 2 0
	jmp s32
.export e_Data.Either_dc;94;13;31.32
.export e_Data.Either_nc;94;13;31.32
.descn e_Data.Either_dc;94;13;31.32 e_Data.Either_nc;94;13;31.32 1 0 "c;94;13;31.32"
.n 1 e_Data.Either_dc;94;13;31.32 ea32
.o 1 0
e_Data.Either_nc;94;13;31.32
	push_node _cycle_in_spine 1
.o 2 0
ea32
	jsr_eval 0
.o 2 0
s32
	push_a 0
	updatepop_a 0 1
.d 2 0
	jmp s58
.o 2 0
s58
	eq_desc _Cons 2 0
	jmp_true case.44
	jmp case.45
case.44
	repl_args 2 2
	push_a 0
	jsr_eval 0
	push_a 2
	push_a 1
	update_a 1 2
	update_a 0 1
	pop_a 1
	update_a 1 3
	updatepop_a 0 2
.d 3 0
	jmp s57
case.45
	fillh _Nil 0 1
	pop_a 1
.d 1 0
	rtn
.o 3 0
s57
	eq_desc e_Data.Either_dLeft 1 0
	jmp_true case.46
	jmp case.47
case.46
	repl_args 1 1
	push_a 1
	build e_Data.Either_dc;94;13;31.32 1 e_Data.Either_nc;94;13;31.32
	push_a 1
	fillh _Cons 2 4
	pop_a 2
.d 1 0
	rtn
case.47
	push_a 1
	jsr_eval 0
	updatepop_a 0 2
.d 2 0
	jmp s32
.export e_Data.Either_seither
.descexp e_Data.Either_deither e_Data.Either_neither e_Data.Either_leither 3 0 "either"
.a 0 ea1
.o 2 0
e_Data.Either_leither
	repl_args 2 2
.d 3 0
	jmp ea1
.n 3 e_Data.Either_deither _
.o 1 0
e_Data.Either_neither
	push_node _cycle_in_spine 3
.d 3 0
	jsr ea1
.o 1 0
	fill_a 0 1
	pop_a 1
.d 1 0
	rtn
.o 3 0
ea1
	jsr_eval 2
.o 3 0
e_Data.Either_seither
.o 3 0
s1
	eq_desc e_Data.Either_dLeft 1 2
	jmp_true case.48
	jmp case.49
case.48
	push_args 2 1 1
	buildh _Nil 0
	update_a 0 4
	pop_a 1
	push_a 1
	jsr_eval 0
	push_a 1
	push_a 1
	update_a 1 2
	update_a 0 1
	pop_a 1
	update_a 1 5
	updatepop_a 0 4
	jmp_ap 1
case.49
	push_args 2 1 1
	buildh _Nil 0
	update_a 0 4
	pop_a 1
	push_a 2
	jsr_eval 0
	push_a 1
	push_a 1
	update_a 1 2
	update_a 0 1
	pop_a 1
	update_a 1 5
	updatepop_a 0 4
	jmp_ap 1
