.comp 920 000011110011000
.start _nostart_
.depend "StdCharList" "20210609153507"
.depend "_SystemArray" "20210609153507"
.depend "StdArray" "20210609153507"
.depend "StdEnv" "20210609153507"
.depend "_SystemEnum" "20210609153507"
.depend "StdEnum" "20210609153507"
.depend "StdTuple" "20210609153507"
.depend "StdOrdList" "20210609153507"
.depend "StdFile" "20210609153507"
.depend "StdMisc" "20210609153507"
.depend "StdOverloadedList" "20210609153507"
.depend "StdFunctions" "20210609153507"
.depend "StdString" "20210609153507"
.depend "_SystemEnumStrict" "20210609153507"
.depend "_SystemStrictLists" "20210609153507"
.depend "StdStrictLists" "20210609153507"
.depend "StdReal" "20210609153507"
.depend "StdChar" "20210609153507"
.depend "StdInt" "20210609153507"
.depend "StdBool" "20210609153507"
.depend "StdClass" "20210609153507"
.depend "StdList" "20210609153507"
.depend "StdOverloaded" "20210609153507"
.depend "_SystemDynamic" "20210609153507"
.depend "Data.Queue" "20210609153506"
.module m_Data.Queue "Data.Queue" "20210609153506"
.endinfo
.impmod _system
.implab _cycle_in_spine
.implab _type_error
.implab _hnf
.impdesc e_system_dind
.implab e_system_nind e_system_eaind
.impdesc e_system_dif
.implab e_system_nif e_system_eaif
.implab e_system_sif
.impdesc e_system_dAP
.implab e_system_nAP e_system_eaAP
.implab e_system_sAP
.impdesc ARRAY
.impdesc _Nil
.impdesc _Cons
.impdesc _Conss
.implab n_Conss ea_Conss
.impdesc _Consts
.implab n_Consts ea_Consts
.impdesc _Conssts
.implab n_Conssts ea_Conssts
.impdesc _Tuple
.impdesc d_S.1
.implab n_S.1 ea_S.1
.impdesc d_S.2
.implab n_S.2 ea_S.2
.impdesc d_S.3
.implab n_S.3 ea_S.3
.impdesc d_S.4
.implab n_S.4 ea_S.4
.impdesc d_S.5
.implab n_S.5 ea_S.5
.impdesc d_S.6
.implab n_S.6 ea_S.6
.implab _driver
.impmod StdOverloadedList
.implab e_StdOverloadedList_sLength;63
.implab e_StdOverloadedList_sReverse;163
.impmod _SystemStrictLists
.impdesc e__SystemStrictLists_d_decons;10
.impmod StdInt
.implab e_StdInt_s+;6
.impmod StdList
.implab e_StdList_s++
.impdesc e_StdList_dreverse
.implab e_StdList_nreverse e_StdList_eareverse
.impmod _SystemStrictLists
.impdesc e__SystemStrictLists_rList;
.export e_Data.Queue_eaQueue
.descexp e_Data.Queue_dQueue e_Data.Queue_nQueue e_Data.Queue_lQueue 2 0 "Queue"
.a 2 e_Data.Queue_eaQueue
.o 2 0
e_Data.Queue_lQueue
	push_args 0 1 1
	update_a 2 1
	create
	update_a 0 3
	pop_a 1
.d 3 0
	jmp e_Data.Queue_eaQueue
.n 2 e_Data.Queue_dQueue e_Data.Queue_eaQueue
.o 1 0
e_Data.Queue_nQueue
	push_node _cycle_in_spine 2
.o 3 0
e_Data.Queue_eaQueue
	jsr_eval 1
	jsr_eval 0
	fill_r e_Data.Queue_kQueue 2 0 2 0 0
	pop_a 2
.d 1 0
	rtn
.export e_Data.Queue_kQueue
.record e_Data.Queue_kQueue daa 2 0 "Queue"
.export e_Data.Queue_sTD;Queue
.export e_Data.Queue_eaTD;Queue
.descexp e_Data.Queue_dTD;Queue e_Data.Queue_nTD;Queue e_Data.Queue_lTD;Queue 1 0 "TD;Queue"
.o 2 0
e_Data.Queue_lTD;Queue
	update_a 1 0
	create
	update_a 0 2
	pop_a 1
.d 2 0
	jmp e_Data.Queue_eaTD;Queue
.n 1 e_Data.Queue_dTD;Queue e_Data.Queue_eaTD;Queue
.o 1 0
e_Data.Queue_nTD;Queue
	push_node _cycle_in_spine 1
.o 2 0
e_Data.Queue_eaTD;Queue
.o 2 0
e_Data.Queue_sTD;Queue
.o 2 0
s6
	fillh _Nil 0 1
	pop_a 1
.d 1 0
	rtn
.export e_Data.Queue_slength;4
.descexp e_Data.Queue_dlength;4 e_Data.Queue_nlength;4 e_Data.Queue_llength;4 1 0 "length;4"
.o 2 0
e_Data.Queue_ilength;4
	pop_a 1
.d 1 0
	jmp s5
.ai 1 _ e_Data.Queue_ilength;4
.o 2 0
e_Data.Queue_llength;4
	pop_a 1
.d 1 0
	jsr ea5
.o 0 1 i
	buildI_b 0
	pop_b 1
.d 1 0
	rtn
.n 1 e_Data.Queue_dlength;4
.o 1 0
e_Data.Queue_nlength;4
	push_node _cycle_in_spine 1
.d 1 0
	jsr ea5
.o 0 1 i
	fillI_b 0 0
	pop_b 1
.d 1 0
	rtn
.o 1 0
ea5
	jsr_eval 0
.o 1 0
e_Data.Queue_slength;4
.o 1 0
s5
	repl_args 2 2
	push_a 1
	update_a 1 2
	updatepop_a 0 1
.d 1 0
	jsr e_StdOverloadedList_sLength;63
.o 0 1 i
	push_a 0
	updatepop_a 0 1
.d 1 0
	jsr e_StdOverloadedList_sLength;63
.o 0 1 i
	addI
.d 0 1 i
	rtn
.export e_Data.Queue_stoList
.export e_Data.Queue_eatoList
.descexp e_Data.Queue_dtoList e_Data.Queue_ntoList e_Data.Queue_ltoList 1 0 "toList"
.o 2 0
e_Data.Queue_ltoList
	update_a 1 0
	create
	update_a 0 2
	pop_a 1
.d 2 0
	jmp e_Data.Queue_eatoList
.n 1 e_Data.Queue_dtoList e_Data.Queue_eatoList
.o 1 0
e_Data.Queue_ntoList
	push_node _cycle_in_spine 1
.o 2 0
e_Data.Queue_eatoList
	jsr_eval 0
.o 2 0
e_Data.Queue_stoList
.o 2 0
s4
	repl_args 2 2
	push_a 1
	build e_Data.Queue_dc;20;62;9.10 1 e_Data.Queue_nc;20;62;9.10
	build e_StdList_dreverse 1 e_StdList_nreverse
	create
	push_a 2
	buildh _Nil 0
	update_a 0 4
	update_a 0 5
	pop_a 1
.d 2 0
	jsr s9
.o 1 0
	update_a 1 3
	updatepop_a 0 2
.d 3 0
	jmp e_StdList_s++
.export e_Data.Queue_dc;20;32;8.9
.export e_Data.Queue_nc;20;32;8.9
.descn e_Data.Queue_dc;20;32;8.9 e_Data.Queue_nc;20;32;8.9 1 0 "c;20;32;8.9"
.n 1 e_Data.Queue_dc;20;32;8.9 ea9
.o 1 0
e_Data.Queue_nc;20;32;8.9
	push_node _cycle_in_spine 1
.o 2 0
ea9
.o 2 0
s9
	push_a 0
	updatepop_a 0 1
.d 2 0
	jmp s14
.o 2 0
s14
	eq_desc _Cons 2 0
	jmp_true case.1
	jmp case.2
case.1
	repl_args 2 2
	push_a 1
	build e_Data.Queue_dc;20;32;8.9 1 e_Data.Queue_nc;20;32;8.9
	push_a 1
	fillh _Cons 2 4
	pop_a 2
.d 1 0
	rtn
case.2
	fillh _Nil 0 1
	pop_a 1
.d 1 0
	rtn
.export e_Data.Queue_dc;20;62;9.10
.export e_Data.Queue_nc;20;62;9.10
.descn e_Data.Queue_dc;20;62;9.10 e_Data.Queue_nc;20;62;9.10 1 0 "c;20;62;9.10"
.n 1 e_Data.Queue_dc;20;62;9.10 ea10
.o 1 0
e_Data.Queue_nc;20;62;9.10
	push_node _cycle_in_spine 1
.o 2 0
ea10
	jsr_eval 0
.o 2 0
s10
	push_a 0
	updatepop_a 0 1
.d 2 0
	jmp s13
.o 2 0
s13
	eq_desc _Cons 2 0
	jmp_true case.3
	jmp case.4
case.3
	repl_args 2 2
	push_a 1
	build e_Data.Queue_dc;20;62;9.10 1 e_Data.Queue_nc;20;62;9.10
	push_a 1
	fillh _Cons 2 4
	pop_a 2
.d 1 0
	rtn
case.4
	fillh _Nil 0 1
	pop_a 1
.d 1 0
	rtn
.export e_Data.Queue_sdequeue
.descexp e_Data.Queue_ddequeue e_Data.Queue_ndequeue e_Data.Queue_ldequeue 1 0 "dequeue"
.o 2 0
e_Data.Queue_ldequeue
	pop_a 1
.d 1 0
	jsr ea3
.o 2 0
	push_a 1
	push_a 1
	buildh _Tuple 2
	updatepop_a 0 2
.d 1 0
	rtn
.n 1 e_Data.Queue_ddequeue
.o 1 0
e_Data.Queue_ndequeue
	push_node _cycle_in_spine 1
.d 1 0
	jsr ea3
.o 2 0
	push_a 1
	push_a 1
	fillh _Tuple 2 4
	pop_a 2
.d 1 0
	rtn
.o 1 0
ea3
	jsr_eval 0
.o 1 0
e_Data.Queue_sdequeue
.o 1 0
s3
	push_args 0 2 2
	eq_desc _Nil 0 0
	jmp_true case.5
	jmp case.6
case.5
	eq_desc _Nil 0 1
	jmp_true case.7
	jmp case.8
case.7
	buildh _Nothing 0
	push_a 3
	push_a 1
	update_a 1 2
	update_a 0 1
	pop_a 1
	update_a 1 4
	updatepop_a 0 3
.d 2 0
	rtn
case.8
	create
	push_a 2
	update_a 1 4
	updatepop_a 0 3
.d 2 0
	jsr e_StdOverloadedList_sReverse;163
.o 1 0
	eq_desc _Cons 2 0
	exit_false selector_m_error
	repl_args 2 2
	buildh _Nil 0
	push_a 2
	buildhr e_Data.Queue_kQueue 2 0
	push_a 1
	buildh _Just 1
	update_a 1 3
	updatepop_a 0 2
.d 2 0
	rtn
case.6
	repl_args 2 2
	push_a 2
	push_a 2
	buildhr e_Data.Queue_kQueue 2 0
	push_a 1
	buildh _Just 1
	update_a 1 5
	updatepop_a 0 4
.d 2 0
	rtn
.export e_Data.Queue_senqueue
.export e_Data.Queue_eaenqueue
.descexp e_Data.Queue_denqueue e_Data.Queue_nenqueue e_Data.Queue_lenqueue 2 0 "enqueue"
.a 2 e_Data.Queue_eaenqueue
.o 2 0
e_Data.Queue_lenqueue
	push_args 0 1 1
	update_a 2 1
	create
	update_a 0 3
	pop_a 1
.d 3 0
	jmp e_Data.Queue_eaenqueue
.n 2 e_Data.Queue_denqueue e_Data.Queue_eaenqueue
.o 1 0
e_Data.Queue_nenqueue
	push_node _cycle_in_spine 2
.d 3 0
	jmp e_Data.Queue_eaenqueue
.o 3 0
e_Data.Queue_senqueue
	jsr_eval 0
.d 3 0
	jmp s2
.o 3 0
e_Data.Queue_eaenqueue
	jsr_eval 1
	jsr_eval 0
.o 3 0
s2
	push_args 1 2 2
	buildh _Nil 0
	update_a 0 4
	pop_a 1
	push_a 1
	push_a 3
	buildh _Cons 2
	push_a 1
	fill_r e_Data.Queue_kQueue 2 0 6 0 0
	pop_a 6
.d 1 0
	rtn
.export e_Data.Queue_snewQueue
.export e_Data.Queue_eanewQueue
.descexp e_Data.Queue_dnewQueue e_Data.Queue_nnewQueue e_Data.Queue_lnewQueue 0 0 "newQueue"
.o 1 0
e_Data.Queue_lnewQueue
	halt
.n 0 e_Data.Queue_dnewQueue e_Data.Queue_eanewQueue
.o 1 0
e_Data.Queue_nnewQueue
	push_node _cycle_in_spine 0
.o 1 0
e_Data.Queue_eanewQueue
.o 1 0
e_Data.Queue_snewQueue
.o 1 0
s1
	buildh _Nil 0
	buildh _Nil 0
	fill_r e_Data.Queue_kQueue 2 0 2 0 0
	pop_a 2
.d 1 0
	rtn
.impmod _system
.implab selector_m_error
