.comp 920 000011110011000
.start _nostart_
.depend "Data.Func" "20210609153506"
.depend "StdTuple" "20210609153507"
.depend "Control.Monad.Fail" "20210609153506"
.depend "Data.Traversable" "20210609153506"
.depend "StdMisc" "20210609153507"
.depend "StdOverloadedList" "20210609153507"
.depend "Data.List" "20210609153506"
.depend "Data.Foldable" "20210609153506"
.depend "Data.GenLexOrd" "20210609153506"
.depend "StdFunctions" "20210609153507"
.depend "StdFunc" "20210609153507"
.depend "StdString" "20210609153507"
.depend "_SystemEnumStrict" "20210609153507"
.depend "_SystemStrictLists" "20210609153507"
.depend "StdStrictLists" "20210609153507"
.depend "StdGeneric" "20210609153507"
.depend "Data.GenEq" "20210609153506"
.depend "StdReal" "20210609153507"
.depend "StdChar" "20210609153507"
.depend "StdInt" "20210609153507"
.depend "StdBool" "20210609153507"
.depend "StdClass" "20210609153507"
.depend "StdList" "20210609153507"
.depend "Data.Monoid" "20210609153506"
.depend "Control.Applicative" "20210609153506"
.depend "Control.Monad" "20210609153506"
.depend "Data.Functor" "20210609153506"
.depend "StdOverloaded" "20210609153507"
.depend "_SystemDynamic" "20210609153507"
.depend "Data.Set" "20210609153506"
.module m_Data.Set "Data.Set" "20210609153506"
.endinfo
.impmod _system
.implab _cycle_in_spine
.implab _type_error
.implab _hnf
.impdesc e_system_dind
.implab e_system_nind e_system_eaind
.impdesc e_system_dif
.implab e_system_nif e_system_eaif
.implab e_system_sif
.impdesc e_system_dAP
.implab e_system_nAP e_system_eaAP
.implab e_system_sAP
.impdesc ARRAY
.impdesc _Nil
.impdesc _Cons
.impdesc _Conss
.implab n_Conss ea_Conss
.impdesc _Consts
.implab n_Consts ea_Consts
.impdesc _Conssts
.implab n_Conssts ea_Conssts
.impdesc _Tuple
.impdesc d_S.1
.implab n_S.1 ea_S.1
.impdesc d_S.2
.implab n_S.2 ea_S.2
.impdesc d_S.3
.implab n_S.3 ea_S.3
.impdesc d_S.4
.implab n_S.4 ea_S.4
.impdesc d_S.5
.implab n_S.5 ea_S.5
.impdesc d_S.6
.implab n_S.6 ea_S.6
.implab _driver
.impmod StdMisc
.implab e_StdMisc_sabort
.impmod Data.GenLexOrd
.implab e_Data.GenLexOrd_sgLexOrd__List;13
.impmod StdFunctions
.impdesc e_StdFunctions_did
.impmod StdString
.implab e_StdString_s<;3
.impmod Data.GenEq
.implab e_Data.GenEq_sgEq__List;14
.impmod StdInt
.implab e_StdInt_s+;6
.implab e_StdInt_s*;9
.implab e_StdInt_s==;16
.implab e_StdInt_s<;17
.impmod StdBool
.implab e_StdBool_snot
.impmod StdList
.implab e_StdList_s==;45
.impmod Data.Monoid
.impdesc e_Data.Monoid_dMonoid;.mempty
.implab e_Data.Monoid_nMonoid;.mempty e_Data.Monoid_eaMonoid;.mempty
.impdesc e_Data.Monoid_dMonoid;.Semigroup
.implab e_Data.Monoid_nMonoid;.Semigroup
.export e_Data.Set_eaBin
.descexp e_Data.Set_dBin e_Data.Set_nBin e_Data.Set_lBin 4 0 "Bin"
.a 4 e_Data.Set_eaBin
.o 2 0 
e_Data.Set_lBin
	push_args 0 3 3
	update_a 4 3
	create 
.d 5 0 
	put_a_jmp 5 e_Data.Set_eaBin
.n 4 e_Data.Set_dBin e_Data.Set_eaBin
.o 1 0 
e_Data.Set_nBin
	push_node _cycle_in_spine 4
.o 5 0 
e_Data.Set_eaBin
	jsr_eval 3
	jsr_eval 2
	jsr_eval 1
	jsr_eval 0
	pushI0_pop_a1 
	fill_r e_Data.Set_kBin 3 1 3 0 0
.d 1 0 
	pop_ab_rtn 3 1
.export e_Data.Set_dTip
.desc e_Data.Set_dTip _hnf _hnf 0 0 "Tip"
.export e_Data.Set_kBin
.record e_Data.Set_kBin diaaa 3 1 "Bin"
.export e_Data.Set_sTD;Set
.export e_Data.Set_eaTD;Set
.descexp e_Data.Set_dTD;Set e_Data.Set_nTD;Set e_Data.Set_lTD;Set 1 0 "TD;Set"
.o 2 0 
e_Data.Set_lTD;Set
	update_a 1 0
	create 
.d 2 0 
	put_a_jmp 2 e_Data.Set_eaTD;Set
.n 1 e_Data.Set_dTD;Set e_Data.Set_eaTD;Set
.o 1 0 
e_Data.Set_nTD;Set
	push_node _cycle_in_spine 1
.o 2 0 
e_Data.Set_eaTD;Set
.o 2 0 
e_Data.Set_sTD;Set
.o 2 0 
s62
	fillh _Nil 0 1
.d 1 0 
	pop_a_rtn 1
.export e_Data.Set_sgLexOrd_Set;60
.export e_Data.Set_eagLexOrd_Set;60
.descexp e_Data.Set_dgLexOrd_Set;60 e_Data.Set_ngLexOrd_Set;60 e_Data.Set_lgLexOrd_Set;60 3 0 "gLexOrd_Set;60"
.o 5 0 
e_Data.Set_igLexOrd_Set;60
.d 4 0 
	pop_a_jmp 1 s61
.ai 3 e_Data.Set_eagLexOrd_Set;60 e_Data.Set_igLexOrd_Set;60
.o 2 0 
e_Data.Set_lgLexOrd_Set;60
	push_args 0 2 2
	update_a 3 2
	create 
.d 4 0 
	put_a_jmp 4 e_Data.Set_eagLexOrd_Set;60
.n 3 e_Data.Set_dgLexOrd_Set;60 e_Data.Set_eagLexOrd_Set;60
.o 1 0 
e_Data.Set_ngLexOrd_Set;60
	push_node _cycle_in_spine 3
.o 4 0 
e_Data.Set_eagLexOrd_Set;60
	jsr_eval 2
	jsr_eval 1
.o 4 0 
e_Data.Set_sgLexOrd_Set;60
.o 4 0 
s61
	buildh _Nil 0
	buildh e_Data.Set_d\;475;41;85.83 0
	push_update_a 0 1
	update_a 5 2
.d 3 0 
	buildh0_put_a_jsr _Nil 6 s35
.o 1 0 
	buildh _Nil 0
	buildh e_Data.Set_d\;475;41;84.82 0
	push_update_a 0 1
	update_a 5 2
.d 3 0 
	buildh0_put_a_jsr _Nil 6 s35
.o 1 0 
	update2_a 0 3
.d 4 0 
	pop_a_jmp 2 e_Data.GenLexOrd_sgLexOrd__List;13
.export e_Data.Set_d\;475;41;84.82
.desc e_Data.Set_d\;475;41;84.82 _hnf l82 2 0 "\;475;41;84.82"
.a 2 ea82
.o 2 0 
l82
	push_args 0 1 1
	update_a 2 1
	create 
	put_a 3
.o 3 0 
ea82
.o 3 0 
s82
	fillh _Cons 2 2
.d 1 0 
	rtn 
.export e_Data.Set_d\;475;41;85.83
.desc e_Data.Set_d\;475;41;85.83 _hnf l83 2 0 "\;475;41;85.83"
.a 2 ea83
.o 2 0 
l83
	push_args 0 1 1
	update_a 2 1
	create 
	put_a 3
.o 3 0 
ea83
.o 3 0 
s83
	fillh _Cons 2 2
.d 1 0 
	rtn 
.export e_Data.Set_sgEq_Set;59
.descexp e_Data.Set_dgEq_Set;59 e_Data.Set_ngEq_Set;59 e_Data.Set_lgEq_Set;59 3 0 "gEq_Set;59"
.o 4 0 
e_Data.Set_igEq_Set;59
.d 3 0 
	pop_a_jmp 1 s60
.ai 0 a60 e_Data.Set_igEq_Set;59
.o 2 0 
e_Data.Set_lgEq_Set;59
	repl_args 2 2
.o 3 0 
a60
.d 3 0 
	jsr ea60
.o 0 1 b
	buildB_b 0
.d 1 0 
	pop_b_rtn 1
.n 3 e_Data.Set_dgEq_Set;59
.o 1 0 
e_Data.Set_ngEq_Set;59
	push_node _cycle_in_spine 3
.d 3 0 
	jsr ea60
.o 0 1 b
	fillB_b 0 0
.d 1 0 
	pop_b_rtn 1
.o 3 0 
ea60
	jsr_eval 2
	jsr_eval 1
.o 3 0 
e_Data.Set_sgEq_Set;59
.o 3 0 
s60
.d 1 0 
	push_a_jsr 2 s178
.o 0 1 i
.d 1 0 
	push_a_jsr 1 s177
.o 0 1 i
	jmp_neI else.1
	buildh _Nil 0
	buildh e_Data.Set_d\;475;41;83.81 0
	push_update_a 0 1
	update_a 5 2
.d 3 0 
	buildh0_put_a_jsr _Nil 6 s35
.o 1 0 
	buildh _Nil 0
	buildh e_Data.Set_d\;475;41;82.80 0
	push_update_a 0 1
	update_a 5 2
.d 3 0 
	buildh0_put_a_jsr _Nil 6 s35
.o 1 0 
	update2_a 0 3
.d 3 0 
	pop_a_jmp 2 e_Data.GenEq_sgEq__List;14
else.1
	pushB FALSE
.d 0 1 b
	pop_a_rtn 3
.o 1 0 
s178
	jmp_ne_desc e_Data.Set_dTip 0 0 case.3
	pushI 0
.d 0 1 i
	pop_a_rtn 1
case.3
	repl_r_args 3 1
.d 0 1 i
	pop_a_rtn 3
.o 1 0 
s177
	jmp_ne_desc e_Data.Set_dTip 0 0 case.5
	pushI 0
.d 0 1 i
	pop_a_rtn 1
case.5
	repl_r_args 3 1
.d 0 1 i
	pop_a_rtn 3
.export e_Data.Set_d\;475;41;82.80
.desc e_Data.Set_d\;475;41;82.80 _hnf l80 2 0 "\;475;41;82.80"
.a 2 ea80
.o 2 0 
l80
	push_args 0 1 1
	update_a 2 1
	create 
	put_a 3
.o 3 0 
ea80
.o 3 0 
s80
	fillh _Cons 2 2
.d 1 0 
	rtn 
.export e_Data.Set_d\;475;41;83.81
.desc e_Data.Set_d\;475;41;83.81 _hnf l81 2 0 "\;475;41;83.81"
.a 2 ea81
.o 2 0 
l81
	push_args 0 1 1
	update_a 2 1
	create 
	put_a 3
.o 3 0 
ea81
.o 3 0 
s81
	fillh _Cons 2 2
.d 1 0 
	rtn 
.export e_Data.Set_sfromList;58
.export e_Data.Set_eafromList;58
.descexp e_Data.Set_dfromList;58 e_Data.Set_nfromList;58 e_Data.Set_lfromList;58 1 0 "fromList;58"
.o 2 0 
e_Data.Set_lfromList;58
	update_a 1 0
	create 
.d 2 0 
	put_a_jmp 2 e_Data.Set_eafromList;58
.n 1 e_Data.Set_dfromList;58 e_Data.Set_eafromList;58
.o 1 0 
e_Data.Set_nfromList;58
	push_node _cycle_in_spine 1
.o 2 0 
e_Data.Set_eafromList;58
	jsr_eval 0
.o 2 0 
e_Data.Set_sfromList;58
.o 2 0 
s59
s132
	create 
.d 1 0 
	jsr s4
.o 1 0 
s133
	jmp_ne_desc _Nil 0 1 case.7
	fill_a 0 2
.d 1 0 
	pop_a_rtn 2
case.7
	push_args 1 2 2
	buildh _Nil 0
	updates2_a 2 0 4
	jsr_eval 0
	push_jsr_eval 1
	push_array 0
	put_a 1
	create 
	push_a2 5 1
	updates2_a_pop_a 0 2 3 1
	buildh0_dup3_a _Nil 5
.d 3 0 
	pop_a_jsr 1 s134
.o 1 0 
	update2pop_a 0 4
.d 3 0 
	jmp s133
.o 3 0 
s134
	swap_a1 
.d 3 0 
	jmp s102
.export e_Data.Set_sfromList;57
.export e_Data.Set_eafromList;57
.descexp e_Data.Set_dfromList;57 e_Data.Set_nfromList;57 e_Data.Set_lfromList;57 1 0 "fromList;57"
.o 2 0 
e_Data.Set_lfromList;57
	update_a 1 0
	create 
.d 2 0 
	put_a_jmp 2 e_Data.Set_eafromList;57
.n 1 e_Data.Set_dfromList;57 e_Data.Set_eafromList;57
.o 1 0 
e_Data.Set_nfromList;57
	push_node _cycle_in_spine 1
.o 2 0 
e_Data.Set_eafromList;57
	jsr_eval 0
.o 2 0 
e_Data.Set_sfromList;57
.o 2 0 
s58
s129
	create 
.d 1 0 
	jsr s4
.o 1 0 
s130
	jmp_ne_desc _Nil 0 1 case.9
	fill_a 0 2
.d 1 0 
	pop_a_rtn 2
case.9
	push_args 1 2 2
	buildh _Nil 0
	updates2_a 2 0 4
	jsr_eval 0
	push_jsr_eval 1
	pushI_a 2
	pop_a 1
	create 
	push_a 4
	buildh0_dup3_a _Nil 4
.d 2 1 i
	pop_a_jsr 1 s131
.o 1 0 
	update2pop_a 0 4
.d 3 0 
	jmp s130
.o 2 1 i
s131
.d 2 1 i
	jmp s101
.export e_Data.Set_ssplitMember;56
.descexp e_Data.Set_dsplitMember;56 e_Data.Set_nsplitMember;56 e_Data.Set_lsplitMember;56 2 0 "splitMember;56"
.a 0 a57
.o 2 0 
e_Data.Set_lsplitMember;56
	repl_args 1 1
.o 2 0 
a57
.d 2 0 
	jsr ea57
.o 2 1 b
	push_a 1
	buildB_b 0
	push_a 2
	buildh _Tuple 3
	updatepop_a 0 2
.d 1 0 
	pop_b_rtn 1
.n 2 e_Data.Set_dsplitMember;56
.o 1 0 
e_Data.Set_nsplitMember;56
	push_node _cycle_in_spine 2
.d 2 0 
	jsr ea57
.o 2 1 b
	push_a 1
	buildB_b 0
	push_a 2
	fillh _Tuple 3 5
.d 1 0 
	pop_ab_rtn 2 1
.o 2 0 
ea57
	jsr_eval 1
	jsr_eval 0
	push_array 0
	put_a 1
.o 2 0 
e_Data.Set_ssplitMember;56
.o 2 0 
s57
.d 2 0 
	jmp s100
.export e_Data.Set_ssplitMember;55
.descexp e_Data.Set_dsplitMember;55 e_Data.Set_nsplitMember;55 e_Data.Set_lsplitMember;55 2 0 "splitMember;55"
.a 0 a56
.o 2 0 
e_Data.Set_lsplitMember;55
	repl_args 1 1
.o 2 0 
a56
.d 2 0 
	jsr ea56
.o 2 1 b
	push_a 1
	buildB_b 0
	push_a 2
	buildh _Tuple 3
	updatepop_a 0 2
.d 1 0 
	pop_b_rtn 1
.n 2 e_Data.Set_dsplitMember;55
.o 1 0 
e_Data.Set_nsplitMember;55
	push_node _cycle_in_spine 2
.d 2 0 
	jsr ea56
.o 2 1 b
	push_a 1
	buildB_b 0
	push_a 2
	fillh _Tuple 3 5
.d 1 0 
	pop_ab_rtn 2 1
.o 2 0 
ea56
	jsr_eval 1
	jsr_eval 0
	pushI0_pop_a1 
.o 1 1 i
e_Data.Set_ssplitMember;55
.o 1 1 i
s56
.d 1 1 i
	jmp s98
.export e_Data.Set_ssplit;54
.descexp e_Data.Set_dsplit;54 e_Data.Set_nsplit;54 e_Data.Set_lsplit;54 2 0 "split;54"
.a 0 a55
.o 2 0 
e_Data.Set_lsplit;54
	repl_args 1 1
.o 2 0 
a55
.d 2 0 
	jsr ea55
.o 2 0 
	buildh _Tuple 2
.d 1 0 
	rtn 
.n 2 e_Data.Set_dsplit;54
.o 1 0 
e_Data.Set_nsplit;54
	push_node _cycle_in_spine 2
.d 2 0 
	jsr ea55
.o 2 0 
	fillh _Tuple 2 2
.d 1 0 
	rtn 
.o 2 0 
ea55
	jsr_eval 1
	jsr_eval 0
	push_array 0
	put_a 1
.o 2 0 
e_Data.Set_ssplit;54
.o 2 0 
s55
.d 2 0 
	jmp s112
.export e_Data.Set_ssplit;53
.descexp e_Data.Set_dsplit;53 e_Data.Set_nsplit;53 e_Data.Set_lsplit;53 2 0 "split;53"
.a 0 a54
.o 2 0 
e_Data.Set_lsplit;53
	repl_args 1 1
.o 2 0 
a54
.d 2 0 
	jsr ea54
.o 2 0 
	buildh _Tuple 2
.d 1 0 
	rtn 
.n 2 e_Data.Set_dsplit;53
.o 1 0 
e_Data.Set_nsplit;53
	push_node _cycle_in_spine 2
.d 2 0 
	jsr ea54
.o 2 0 
	fillh _Tuple 2 2
.d 1 0 
	rtn 
.o 2 0 
ea54
	jsr_eval 1
	jsr_eval 0
	pushI0_pop_a1 
.o 1 1 i
e_Data.Set_ssplit;53
.o 1 1 i
s54
.d 1 1 i
	jmp s110
.export e_Data.Set_sintersections;52
.export e_Data.Set_eaintersections;52
.descexp e_Data.Set_dintersections;52 e_Data.Set_nintersections;52 e_Data.Set_lintersections;52 1 0 "intersections;52"
.o 2 0 
e_Data.Set_lintersections;52
	update_a 1 0
	create 
.d 2 0 
	put_a_jmp 2 e_Data.Set_eaintersections;52
.n 1 e_Data.Set_dintersections;52 e_Data.Set_eaintersections;52
.o 1 0 
e_Data.Set_nintersections;52
	push_node _cycle_in_spine 1
.o 2 0 
e_Data.Set_eaintersections;52
	jsr_eval 0
.o 2 0 
e_Data.Set_sintersections;52
.o 2 0 
s53
s127
	jmp_ne_desc _Cons 2 0 case.11
	repl_args 2 2
	jsr_eval 1
	jmp_ne_desc _Nil 0 1 case.13
	put_a 1
	jmp_eval_upd
case.13
	jsr_eval 0
.d 3 0 
	jmp s128
case.11
	buildAC "intersections called with []\n"
	put_a 1
.d 1 0 
	jsr print_string_
.o 0 0 
	halt
.d 1 0 
	fill_a01_pop_rtn 
.o 3 0 
s128
	jmp_ne_desc _Nil 0 1 case.15
	fill_a 0 2
.d 1 0 
	pop_a_rtn 2
case.15
	push_args 1 2 2
	buildh _Nil 0
	updates2_a 2 0 4
	jsr_eval 0
	push_jsr_eval 1
	create 
	push_a2 5 1
	updates2_a_pop_a 0 2 3 1
	buildh0_dup3_a _Nil 5
.d 3 0 
	pop_a_jsr 1 s119
.o 1 0 
	update2pop_a 0 4
.d 3 0 
	jmp s128
.export e_Data.Set_sintersections;51
.export e_Data.Set_eaintersections;51
.descexp e_Data.Set_dintersections;51 e_Data.Set_nintersections;51 e_Data.Set_lintersections;51 1 0 "intersections;51"
.o 2 0 
e_Data.Set_lintersections;51
	update_a 1 0
	create 
.d 2 0 
	put_a_jmp 2 e_Data.Set_eaintersections;51
.n 1 e_Data.Set_dintersections;51 e_Data.Set_eaintersections;51
.o 1 0 
e_Data.Set_nintersections;51
	push_node _cycle_in_spine 1
.o 2 0 
e_Data.Set_eaintersections;51
	jsr_eval 0
.o 2 0 
e_Data.Set_sintersections;51
.o 2 0 
s52
s125
	jmp_ne_desc _Cons 2 0 case.17
	repl_args 2 2
	jsr_eval 1
	jmp_ne_desc _Nil 0 1 case.19
	put_a 1
	jmp_eval_upd
case.19
	jsr_eval 0
.d 3 0 
	jmp s126
case.17
	buildAC "intersections called with []\n"
	put_a 1
.d 1 0 
	jsr print_string_
.o 0 0 
	halt
.d 1 0 
	fill_a01_pop_rtn 
.o 3 0 
s126
	jmp_ne_desc _Nil 0 1 case.21
	fill_a 0 2
.d 1 0 
	pop_a_rtn 2
case.21
	push_args 1 2 2
	buildh _Nil 0
	updates2_a 2 0 4
	jsr_eval 0
	push_jsr_eval 1
	create 
	push_a2 5 1
	updates2_a_pop_a 0 2 3 1
	buildh0_dup3_a _Nil 5
.d 3 0 
	pop_a_jsr 1 s113
.o 1 0 
	update2pop_a 0 4
.d 3 0 
	jmp s126
.export e_Data.Set_sintersection;50
.export e_Data.Set_eaintersection;50
.descexp e_Data.Set_dintersection;50 e_Data.Set_nintersection;50 e_Data.Set_lintersection;50 2 0 "intersection;50"
.a 2 e_Data.Set_eaintersection;50
.o 2 0 
e_Data.Set_lintersection;50
	push_args 0 1 1
	update_a 2 1
	create 
.d 3 0 
	put_a_jmp 3 e_Data.Set_eaintersection;50
.n 2 e_Data.Set_dintersection;50 e_Data.Set_eaintersection;50
.o 1 0 
e_Data.Set_nintersection;50
	push_node _cycle_in_spine 2
.o 3 0 
e_Data.Set_eaintersection;50
	jsr_eval 1
	jsr_eval 0
.o 3 0 
e_Data.Set_sintersection;50
.o 3 0 
s51
s119
	jmp_ne_desc e_Data.Set_dTip 0 0 case.23
	fillh e_Data.Set_dTip 0 2
.d 1 0 
	pop_a_rtn 2
case.23
	jmp_ne_desc e_Data.Set_dTip 0 1 case.25
	fillh e_Data.Set_dTip 0 2
.d 1 0 
	pop_a_rtn 2
case.25
	buildh _Nothing 0
	buildh _Nothing 0
s120
	jmp_ne_desc e_Data.Set_dTip 0 3 case.27
	fillh e_Data.Set_dTip 0 4
.d 1 0 
	pop_a_rtn 4
case.27
	jmp_ne_desc e_Data.Set_dTip 0 2 case.29
	fillh e_Data.Set_dTip 0 4
.d 1 0 
	pop_a_rtn 4
case.29
	push_r_args 2 3 1
	buildh _Nil 0
	updates2_a 1 0 6
	pop_b 1
	buildh _Just 1
	create 
	push_a2 8 1
.d 4 0 
	push_a_jsr 7 s121
.o 1 0 
	create 
	push_a2 4 2
	push_a2 8 3
	updates2_a_pop_a 0 4 5 1
	buildh0_dup_a _Nil 10
	put_a 8
.d 5 0 
	jsr s120
.o 1 0 
	create 
	push_a2 9 7
.d 4 0 
	push_a_jsr 4 s121
.o 1 0 
	create 
	update_a 4 9
	dup_a 7
	updates2_a 1 6 5
	updates2_a 2 8 4
.d 5 0 
	pop_a_jsr 3 s120
.o 1 0 
	push_a 3
	push_array 3
.d 2 0 
	buildh0_put_a_jsr _Nil 6 s94
.o 0 1 b
	jmp_false else.30
	dup_a 3
	exchange_a 2 1
.d 4 0 
	pop_a_jmp 1 s66
else.30
	dup_a 3
	updatepop_a 1 2
.d 3 0 
	jmp s69
.o 4 0 
s121
	jmp_ne_desc _Nothing 0 0 case.32
	jmp_ne_desc _Nothing 0 1 case.34
	fill_a 2 3
.d 1 0 
	pop_a_rtn 3
case.34
	push_args 1 1 1
	buildh _Nil 0
	updatepop_a 1 3
.d 3 0 
	jmp s122
case.32
	repl_args 1 1
	jmp_ne_desc _Nothing 0 1 case.36
.d 3 0 
	put_a_jmp 1 s123
case.36
	push_args 1 1 1
.d 4 0 
	put_a_jmp 2 s124
.o 3 0 
s122
	jmp_ne_desc e_Data.Set_kBin 0 1 case.38
	push_r_args 1 3 1
	update2pop_a 0 1
	pop_b 1
	push_array 2
	push_array 1
	update2pop_a 0 1
.d 2 0 
	jsr cmpAC
.o 0 1 i
	pushI 0
	gtI
	jmp_true else.39
.d 3 0 
	put_a_jmp 2 s122
else.39
	pop_a_jmp 1 case.38
case.38
	fill_a 1 2
.d 1 0 
	pop_a_rtn 2
.o 3 0 
s123
	jmp_ne_desc e_Data.Set_kBin 0 1 case.41
	push_r_args 1 3 1
	put_a 1
	pop_b 1
	push_array 0
	push_array 3
	update2pop_a 0 1
.d 2 0 
	jsr cmpAC
.o 0 1 i
	pushI 0
	gtI
	jmp_true else.42
.d 3 0 
	put_a_jmp 2 s123
else.42
	pop_a_jmp 1 case.41
case.41
	fill_a 1 2
.d 1 0 
	pop_a_rtn 2
.o 4 0 
s124
	jmp_ne_desc e_Data.Set_kBin 0 2 case.44
	push_r_args 2 3 1
	pop_b 1
	push_jsr_eval 3
	push_array 0
	put_a 1
	push_array 1
	swap_a1 
.d 2 0 
	jsr cmpAC
.o 0 1 i
	pushI 0
	gtI
	jmp_true else.45
	update_a 2 5
.d 4 0 
	pop_a_jmp 3 s124
else.45
	push_jsr_eval 4
	push_array 0
	put_a 1
	push_array 1
	update2pop_a 0 1
.d 2 0 
	jsr cmpAC
.o 0 1 i
	pushI 0
	gtI
	jmp_true else.46
	dup_a 4
.d 4 0 
	pop_a_jmp 2 s124
else.46
	pop_a_jmp 2 case.44
case.44
	fill_a 2 3
.d 1 0 
	pop_a_rtn 3
.export e_Data.Set_sintersection;49
.export e_Data.Set_eaintersection;49
.descexp e_Data.Set_dintersection;49 e_Data.Set_nintersection;49 e_Data.Set_lintersection;49 2 0 "intersection;49"
.a 2 e_Data.Set_eaintersection;49
.o 2 0 
e_Data.Set_lintersection;49
	push_args 0 1 1
	update_a 2 1
	create 
.d 3 0 
	put_a_jmp 3 e_Data.Set_eaintersection;49
.n 2 e_Data.Set_dintersection;49 e_Data.Set_eaintersection;49
.o 1 0 
e_Data.Set_nintersection;49
	push_node _cycle_in_spine 2
.o 3 0 
e_Data.Set_eaintersection;49
	jsr_eval 1
	jsr_eval 0
.o 3 0 
e_Data.Set_sintersection;49
.o 3 0 
s50
s113
	jmp_ne_desc e_Data.Set_dTip 0 0 case.48
	fillh e_Data.Set_dTip 0 2
.d 1 0 
	pop_a_rtn 2
case.48
	jmp_ne_desc e_Data.Set_dTip 0 1 case.50
	fillh e_Data.Set_dTip 0 2
.d 1 0 
	pop_a_rtn 2
case.50
	buildh _Nothing 0
	buildh _Nothing 0
s114
	jmp_ne_desc e_Data.Set_dTip 0 3 case.52
	fillh e_Data.Set_dTip 0 4
.d 1 0 
	pop_a_rtn 4
case.52
	jmp_ne_desc e_Data.Set_dTip 0 2 case.54
	fillh e_Data.Set_dTip 0 4
.d 1 0 
	pop_a_rtn 4
case.54
	push_r_args 2 3 1
	buildh _Nil 0
	updates2_a 1 0 6
	pop_b 1
	buildh _Just 1
	create 
	push_a2 8 1
.d 4 0 
	push_a_jsr 7 s115
.o 1 0 
	create 
	push_a2 4 2
	push_a2 8 3
	updates2_a_pop_a 0 4 5 1
	buildh0_dup_a _Nil 10
	put_a 8
.d 5 0 
	jsr s114
.o 1 0 
	create 
	push_a2 9 7
.d 4 0 
	push_a_jsr 4 s115
.o 1 0 
	create 
	update_a 4 9
	dup_a 7
	updates2_a 1 6 5
	updates2_a 2 8 4
.d 5 0 
	pop_a_jsr 3 s114
.o 1 0 
	push_a 3
	pushI_a 3
.d 1 1 i
	buildh0_put_a_jsr _Nil 5 s93
.o 0 1 b
	jmp_false else.55
	dup_a 3
	exchange_a 2 1
.d 4 0 
	pop_a_jmp 1 s66
else.55
	dup_a 3
	updatepop_a 1 2
.d 3 0 
	jmp s69
.o 4 0 
s115
	jmp_ne_desc _Nothing 0 0 case.57
	jmp_ne_desc _Nothing 0 1 case.59
	fill_a 2 3
.d 1 0 
	pop_a_rtn 3
case.59
	push_args 1 1 1
	buildh _Nil 0
	updatepop_a 1 3
.d 3 0 
	jmp s116
case.57
	repl_args 1 1
	jmp_ne_desc _Nothing 0 1 case.61
.d 3 0 
	put_a_jmp 1 s117
case.61
	push_args 1 1 1
.d 4 0 
	put_a_jmp 2 s118
.o 3 0 
s116
	jmp_ne_desc e_Data.Set_kBin 0 1 case.63
	push_r_args 1 3 1
	update2pop_a 0 1
	pop_b 1
	pushI_a 2
	pushI_a 0
	jmp_ltI else.64
	update_a 1 3
.d 3 0 
	pop_a_jmp 2 s116
else.64
	pop_a_jmp 2 case.63
case.63
	fill_a 1 2
.d 1 0 
	pop_a_rtn 2
.o 3 0 
s117
	jmp_ne_desc e_Data.Set_kBin 0 1 case.66
	push_r_args 1 3 1
	put_a 1
	pop_b 1
	pushI_a 0
	pushI_a 2
	jmp_ltI else.67
	update_a 1 3
.d 3 0 
	pop_a_jmp 2 s117
else.67
	pop_a_jmp 2 case.66
case.66
	fill_a 1 2
.d 1 0 
	pop_a_rtn 2
.o 4 0 
s118
	jmp_ne_desc e_Data.Set_kBin 0 2 case.69
	push_r_args 2 3 1
	pop_b 1
	push_jsr_eval 3
	pushI_a 4
	pop_a 1
	pushI_a 0
	swap_b1 
	jmp_ltI else.70
	update_a 2 5
.d 4 0 
	pop_a_jmp 3 s118
else.70
	push_jsr_eval 4
	pushI_a 5
	pop_a 1
	pushI_a 0
	jmp_ltI else.71
	update_a 1 5
.d 4 0 
	pop_a_jmp 3 s118
else.71
	pop_a_jmp 3 case.69
case.69
	fill_a 2 3
.d 1 0 
	pop_a_rtn 3
.export e_Data.Set_sdifference;48
.export e_Data.Set_eadifference;48
.descexp e_Data.Set_ddifference;48 e_Data.Set_ndifference;48 e_Data.Set_ldifference;48 2 0 "difference;48"
.a 2 e_Data.Set_eadifference;48
.o 2 0 
e_Data.Set_ldifference;48
	push_args 0 1 1
	update_a 2 1
	create 
.d 3 0 
	put_a_jmp 3 e_Data.Set_eadifference;48
.n 2 e_Data.Set_ddifference;48 e_Data.Set_eadifference;48
.o 1 0 
e_Data.Set_ndifference;48
	push_node _cycle_in_spine 2
.o 3 0 
e_Data.Set_eadifference;48
	jsr_eval 1
	jsr_eval 0
.o 3 0 
e_Data.Set_sdifference;48
.o 3 0 
s49
s111
	jmp_ne_desc e_Data.Set_dTip 0 0 case.73
	fillh e_Data.Set_dTip 0 2
.d 1 0 
	pop_a_rtn 2
case.73
	swap_a1 
s176
	jmp_ne_desc e_Data.Set_kBin 0 0 case.75
	repl_r_args 3 1
	pop_b 1
	push_a 3
	push_array 1
	update2pop_a 0 1
.d 2 0 
	jsr s112
.o 2 0 
	exchange_a 3 2
.d 6 0 
	jmp s175
case.75
	fill_a 1 2
.d 1 0 
	pop_a_rtn 2
.o 6 0 
s175
	create 
	push_update_a 1 0
	update_a 5 1
.d 3 0 
	buildh0_put_a_jsr _Nil 6 s111
.o 1 0 
	create 
	updates4_a 0 3 2 1 4
.d 3 0 
	pop_a_jsr 1 s111
.o 1 0 
.d 1 0 
	push_a_jsr 2 s174
.o 0 1 i
.d 1 0 
	push_a_jsr 0 s173
.o 0 1 i
.d 1 0 
	push_a_jsr 1 s172
.o 0 1 i
	addI
	jmp_neI else.76
	fill_a 2 3
.d 1 0 
	pop_a_rtn 3
else.76
.d 3 0 
	put_a_jmp 2 s69
.o 1 0 
s174
	jmp_ne_desc e_Data.Set_dTip 0 0 case.78
	pushI 0
.d 0 1 i
	pop_a_rtn 1
case.78
	repl_r_args 3 1
.d 0 1 i
	pop_a_rtn 3
.o 1 0 
s173
	jmp_ne_desc e_Data.Set_dTip 0 0 case.80
	pushI 0
.d 0 1 i
	pop_a_rtn 1
case.80
	repl_r_args 3 1
.d 0 1 i
	pop_a_rtn 3
.o 1 0 
s172
	jmp_ne_desc e_Data.Set_dTip 0 0 case.82
	pushI 0
.d 0 1 i
	pop_a_rtn 1
case.82
	repl_r_args 3 1
.d 0 1 i
	pop_a_rtn 3
.o 2 0 
s112
	jmp_ne_desc e_Data.Set_kBin 0 1 case.84
	push_r_args 1 3 1
	buildh0_put_a _Nil 5
	pop_b 1
	push_array 0
.d 2 0 
	push_a_jsr 4 cmpAC
.o 0 1 i
	pushI 0
	gtI
	jmp_false else.85
	updates4_a 0 3 1 2 4
.d 2 0 
	pop_a_jsr 1 s112
.o 2 0 
	create 
	swap_a 3
	push_update_a 2 4
	updates2_a 0 2 5
.d 4 0 
	pop_a_jsr 1 s66
.o 1 0 
	swap_a1 
.d 2 0 
	rtn 
else.85
	push_a 3
	push_array 1
.d 2 0 
	jsr cmpAC
.o 0 1 i
	pushI 0
	gtI
	jmp_false else.86
	updates3_a 0 3 1 4
.d 2 0 
	pop_a_jsr 1 s112
.o 2 0 
	create 
	swap_a 3
	push_update_a 4 2
	updates2_a 0 2 3
.d 4 0 
	pop_a_jsr 1 s66
.o 1 0 
.d 2 0 
	rtn 
else.86
	update2pop_a 1 3
.d 2 0 
	rtn 
case.84
	update_a 1 0
.d 2 0 
	rtn 
.export e_Data.Set_sdifference;47
.export e_Data.Set_eadifference;47
.descexp e_Data.Set_ddifference;47 e_Data.Set_ndifference;47 e_Data.Set_ldifference;47 2 0 "difference;47"
.a 2 e_Data.Set_eadifference;47
.o 2 0 
e_Data.Set_ldifference;47
	push_args 0 1 1
	update_a 2 1
	create 
.d 3 0 
	put_a_jmp 3 e_Data.Set_eadifference;47
.n 2 e_Data.Set_ddifference;47 e_Data.Set_eadifference;47
.o 1 0 
e_Data.Set_ndifference;47
	push_node _cycle_in_spine 2
.o 3 0 
e_Data.Set_eadifference;47
	jsr_eval 1
	jsr_eval 0
.o 3 0 
e_Data.Set_sdifference;47
.o 3 0 
s48
s109
	jmp_ne_desc e_Data.Set_dTip 0 0 case.88
	fillh e_Data.Set_dTip 0 2
.d 1 0 
	pop_a_rtn 2
case.88
	swap_a1 
s171
	jmp_ne_desc e_Data.Set_kBin 0 0 case.90
	repl_r_args 3 1
	pop_b 1
	push_a 3
	pushI_a 1
	put_a 1
.d 1 1 i
	jsr s110
.o 2 0 
	exchange_a 3 2
.d 6 0 
	jmp s170
case.90
	fill_a 1 2
.d 1 0 
	pop_a_rtn 2
.o 6 0 
s170
	create 
	push_update_a 1 0
	update_a 5 1
.d 3 0 
	buildh0_put_a_jsr _Nil 6 s109
.o 1 0 
	create 
	updates4_a 0 3 2 1 4
.d 3 0 
	pop_a_jsr 1 s109
.o 1 0 
.d 1 0 
	push_a_jsr 2 s169
.o 0 1 i
.d 1 0 
	push_a_jsr 0 s168
.o 0 1 i
.d 1 0 
	push_a_jsr 1 s167
.o 0 1 i
	addI
	jmp_neI else.91
	fill_a 2 3
.d 1 0 
	pop_a_rtn 3
else.91
.d 3 0 
	put_a_jmp 2 s69
.o 1 0 
s169
	jmp_ne_desc e_Data.Set_dTip 0 0 case.93
	pushI 0
.d 0 1 i
	pop_a_rtn 1
case.93
	repl_r_args 3 1
.d 0 1 i
	pop_a_rtn 3
.o 1 0 
s168
	jmp_ne_desc e_Data.Set_dTip 0 0 case.95
	pushI 0
.d 0 1 i
	pop_a_rtn 1
case.95
	repl_r_args 3 1
.d 0 1 i
	pop_a_rtn 3
.o 1 0 
s167
	jmp_ne_desc e_Data.Set_dTip 0 0 case.97
	pushI 0
.d 0 1 i
	pop_a_rtn 1
case.97
	repl_r_args 3 1
.d 0 1 i
	pop_a_rtn 3
.o 1 1 i
s110
	jmp_ne_desc e_Data.Set_kBin 0 0 case.99
	repl_r_args 3 1
	pop_b 1
	pushI_a 0
	jmp_o_geI 1 else.100
	swap_a1 
.d 1 1 i
	jsr s110
.o 2 0 
	create 
	swap_a 3
	push_update_a 2 4
	updates2_a 0 2 5
.d 4 0 
	pop_a_jsr 1 s66
.o 1 0 
	swap_a1 
.d 2 0 
	rtn 
else.100
	push_b 0
	pushI_a 0
	jmp_geI else.101
	push_a 2
.d 1 1 i
	buildh0_put_a_jsr _Nil 4 s110
.o 2 0 
	create 
	updates3_a 0 4 2 5
	exchange_a 3 1
.d 4 0 
	pop_a_jsr 1 s66
.o 1 0 
.d 2 0 
	rtn 
else.101
.d 2 0 
	pop_ab_rtn 1 1
case.99
	push_a 0
.d 2 0 
	pop_b_rtn 1
.export e_Data.Set_sunion;46
.export e_Data.Set_eaunion;46
.descexp e_Data.Set_dunion;46 e_Data.Set_nunion;46 e_Data.Set_lunion;46 2 0 "union;46"
.a 2 e_Data.Set_eaunion;46
.o 2 0 
e_Data.Set_lunion;46
	push_args 0 1 1
	update_a 2 1
	create 
.d 3 0 
	put_a_jmp 3 e_Data.Set_eaunion;46
.n 2 e_Data.Set_dunion;46 e_Data.Set_eaunion;46
.o 1 0 
e_Data.Set_nunion;46
	push_node _cycle_in_spine 2
.o 3 0 
e_Data.Set_eaunion;46
	jsr_eval 1
	jsr_eval 0
.o 3 0 
e_Data.Set_sunion;46
.o 3 0 
s47
s107
	jmp_ne_desc e_Data.Set_dTip 0 1 case.103
	fill_a 0 2
.d 1 0 
	pop_a_rtn 2
case.103
	push_r_args 1 3 1
	pop_b 1
	jmp_eq_desc e_Data.Set_dTip 0 1 case.105
	pop_a_jmp 3 case.104
case.105
	jmp_eq_desc e_Data.Set_dTip 0 2 case.106
	pop_a_jmp 3 case.104
case.106
	push_a 3
	push_array 1
	update2pop_a 0 5
.d 3 0 
	jmp s102
case.104
	jmp_ne_desc e_Data.Set_kBin 0 0 case.108
	repl_r_args 3 1
	pop_b 1
	jmp_ne_desc e_Data.Set_dTip 0 1 case.110
	jmp_ne_desc e_Data.Set_dTip 0 2 case.110
	push_a 3
	push_array 1
	update2pop_a 0 4
.d 3 0 
	jmp s102
case.110
	push_a 3
	push_array 1
.d 2 0 
	buildh0_put_a_jsr _Nil 6 s108
.o 2 0 
	create 
	updates4_a 3 5 1 4 6
	put_a 3
.d 3 0 
	jsr s107
.o 1 0 
	create 
	push_a2 2 4
	buildh0_dup_a _Nil 7
	put_a 5
.d 3 0 
	jsr s107
.o 1 0 
	update_a 1 4
	updates2_a 0 3 2
.d 4 0 
	pop_a_jmp 2 s66
case.108
	fill_a 1 2
.d 1 0 
	pop_a_rtn 2
.o 2 0 
s108
	jmp_ne_desc e_Data.Set_dTip 0 1 case.113
	buildh0_dup_a e_Data.Set_dTip 2
	pop_a 2
	buildh e_Data.Set_dTip 0
.d 2 0 
	rtn 
case.113
	push_r_args 1 3 1
	buildh0_put_a _Nil 5
	pop_b 1
	push_array 0
.d 2 0 
	push_a_jsr 4 cmpAC
.o 0 1 i
	pushI 0
	gtI
	jmp_false else.114
	updates4_a 0 3 1 2 4
.d 2 0 
	pop_a_jsr 1 s108
.o 2 0 
	create 
	swap_a 3
	push_update_a 2 4
	updates2_a 0 2 5
.d 4 0 
	pop_a_jsr 1 s66
.o 1 0 
	swap_a1 
.d 2 0 
	rtn 
else.114
	push_a 3
	push_array 1
.d 2 0 
	jsr cmpAC
.o 0 1 i
	pushI 0
	gtI
	jmp_false else.115
	updates3_a 0 3 1 4
.d 2 0 
	pop_a_jsr 1 s108
.o 2 0 
	create 
	swap_a 3
	push_update_a 4 2
	updates2_a 0 2 3
.d 4 0 
	pop_a_jsr 1 s66
.o 1 0 
.d 2 0 
	rtn 
else.115
	update2pop_a 1 3
.d 2 0 
	rtn 
.export e_Data.Set_sunion;45
.export e_Data.Set_eaunion;45
.descexp e_Data.Set_dunion;45 e_Data.Set_nunion;45 e_Data.Set_lunion;45 2 0 "union;45"
.a 2 e_Data.Set_eaunion;45
.o 2 0 
e_Data.Set_lunion;45
	push_args 0 1 1
	update_a 2 1
	create 
.d 3 0 
	put_a_jmp 3 e_Data.Set_eaunion;45
.n 2 e_Data.Set_dunion;45 e_Data.Set_eaunion;45
.o 1 0 
e_Data.Set_nunion;45
	push_node _cycle_in_spine 2
.o 3 0 
e_Data.Set_eaunion;45
	jsr_eval 1
	jsr_eval 0
.o 3 0 
e_Data.Set_sunion;45
.o 3 0 
s46
s105
	jmp_ne_desc e_Data.Set_dTip 0 1 case.117
	fill_a 0 2
.d 1 0 
	pop_a_rtn 2
case.117
	push_r_args 1 3 1
	pop_b 1
	jmp_eq_desc e_Data.Set_dTip 0 1 case.119
	pop_a_jmp 3 case.118
case.119
	jmp_eq_desc e_Data.Set_dTip 0 2 case.120
	pop_a_jmp 3 case.118
case.120
	push_a 3
	pushI_a 1
	updatepop_a 0 5
.d 2 1 i
	jmp s101
case.118
	jmp_ne_desc e_Data.Set_kBin 0 0 case.122
	repl_r_args 3 1
	pop_b 1
	jmp_ne_desc e_Data.Set_dTip 0 1 case.124
	jmp_ne_desc e_Data.Set_dTip 0 2 case.124
	push_a 3
	pushI_a 1
	updatepop_a 0 4
.d 2 1 i
	jmp s101
case.124
	push_a 3
	pushI_a 1
.d 1 1 i
	buildh0_put_a_jsr _Nil 5 s106
.o 2 0 
	create 
	updates4_a 3 5 1 4 6
	put_a 3
.d 3 0 
	jsr s105
.o 1 0 
	create 
	push_a2 2 4
	buildh0_dup_a _Nil 7
	put_a 5
.d 3 0 
	jsr s105
.o 1 0 
	update_a 1 4
	updates2_a 0 3 2
.d 4 0 
	pop_a_jmp 2 s66
case.122
	fill_a 1 2
.d 1 0 
	pop_a_rtn 2
.o 1 1 i
s106
	jmp_ne_desc e_Data.Set_dTip 0 0 case.127
	buildh0_put_a e_Data.Set_dTip 1
	buildh e_Data.Set_dTip 0
.d 2 0 
	pop_b_rtn 1
case.127
	repl_r_args 3 1
	pop_b 1
	pushI_a 0
	jmp_o_geI 1 else.128
	swap_a1 
.d 1 1 i
	jsr s106
.o 2 0 
	create 
	swap_a 3
	push_update_a 2 4
	updates2_a 0 2 5
.d 4 0 
	pop_a_jsr 1 s66
.o 1 0 
	swap_a1 
.d 2 0 
	rtn 
else.128
	push_b 0
	pushI_a 0
	jmp_geI else.129
	push_a 2
.d 1 1 i
	buildh0_put_a_jsr _Nil 4 s106
.o 2 0 
	create 
	updates3_a 0 4 2 5
	exchange_a 3 1
.d 4 0 
	pop_a_jsr 1 s66
.o 1 0 
.d 2 0 
	rtn 
else.129
.d 2 0 
	pop_ab_rtn 1 1
.export e_Data.Set_sdelete;44
.export e_Data.Set_eadelete;44
.descexp e_Data.Set_ddelete;44 e_Data.Set_ndelete;44 e_Data.Set_ldelete;44 2 0 "delete;44"
.a 2 e_Data.Set_eadelete;44
.o 2 0 
e_Data.Set_ldelete;44
	push_args 0 1 1
	update_a 2 1
	create 
.d 3 0 
	put_a_jmp 3 e_Data.Set_eadelete;44
.n 2 e_Data.Set_ddelete;44 e_Data.Set_eadelete;44
.o 1 0 
e_Data.Set_ndelete;44
	push_node _cycle_in_spine 2
.o 3 0 
e_Data.Set_eadelete;44
	jsr_eval 1
	jsr_eval 0
	push_array 0
	put_a 1
.o 3 0 
e_Data.Set_sdelete;44
.o 3 0 
s45
s104
	jmp_ne_desc e_Data.Set_kBin 0 1 case.131
	push_r_args 1 3 1
	buildh0_put_a _Nil 5
	pop_b 1
	push_array 0
.d 2 0 
	push_a_jsr 4 cmpAC
.o 0 1 i
	pushI 0
	gtI
	jmp_false else.132
	create 
	updates2_a 0 3 5
	exchange_a 4 1
.d 3 0 
	pop_a_jsr 1 s104
.o 1 0 
	swap_a1 
.d 4 0 
	jmp s72
else.132
	push_a 3
	push_array 1
.d 2 0 
	jsr cmpAC
.o 0 1 i
	pushI 0
	gtI
	jmp_false else.133
	create 
	updates3_a 0 3 2 5
	exchange_a 4 1
.d 3 0 
	pop_a_jsr 1 s104
.o 1 0 
	push_a 1
	updates3pop_a 0 1 3 2
.d 4 0 
	jmp s71
else.133
	update2pop_a 1 3
.d 3 0 
	jmp s70
case.131
	fill_a 1 2
.d 1 0 
	pop_a_rtn 2
.export e_Data.Set_sdelete;43
.export e_Data.Set_eadelete;43
.descexp e_Data.Set_ddelete;43 e_Data.Set_ndelete;43 e_Data.Set_ldelete;43 2 0 "delete;43"
.a 2 e_Data.Set_eadelete;43
.o 2 0 
e_Data.Set_ldelete;43
	push_args 0 1 1
	update_a 2 1
	create 
.d 3 0 
	put_a_jmp 3 e_Data.Set_eadelete;43
.n 2 e_Data.Set_ddelete;43 e_Data.Set_eadelete;43
.o 1 0 
e_Data.Set_ndelete;43
	push_node _cycle_in_spine 2
.o 3 0 
e_Data.Set_eadelete;43
	jsr_eval 1
	jsr_eval 0
	pushI0_pop_a1 
.o 2 1 i
e_Data.Set_sdelete;43
.o 2 1 i
s44
s103
	jmp_ne_desc e_Data.Set_kBin 0 0 case.135
	repl_r_args 3 1
	pop_b 1
	pushI_a 0
	jmp_o_geI 1 else.136
	create 
	push_a 2
	update3pop_a 0 1
.d 2 1 i
	jsr s103
.o 1 0 
	swap_a1 
.d 4 0 
	jmp s72
else.136
	push_b 0
	pushI_a 0
	jmp_geI else.137
	create 
	push_a 3
.d 2 1 i
	buildh0_put_a_jsr _Nil 5 s103
.o 1 0 
.d 4 0 
	put_a_jmp 3 s71
else.137
	pop_b 1
.d 3 0 
	pop_a_jmp 1 s70
case.135
	pop_b 1
.d 1 0 
	fill_a01_pop_rtn 
.export e_Data.Set_sinsert;42
.export e_Data.Set_eainsert;42
.descexp e_Data.Set_dinsert;42 e_Data.Set_ninsert;42 e_Data.Set_linsert;42 2 0 "insert;42"
.a 2 e_Data.Set_eainsert;42
.o 2 0 
e_Data.Set_linsert;42
	push_args 0 1 1
	update_a 2 1
	create 
.d 3 0 
	put_a_jmp 3 e_Data.Set_eainsert;42
.n 2 e_Data.Set_dinsert;42 e_Data.Set_eainsert;42
.o 1 0 
e_Data.Set_ninsert;42
	push_node _cycle_in_spine 2
.o 3 0 
e_Data.Set_eainsert;42
	jsr_eval 1
	jsr_eval 0
	push_array 0
	put_a 1
.o 3 0 
e_Data.Set_sinsert;42
.o 3 0 
s43
s102
	jmp_ne_desc e_Data.Set_kBin 0 1 case.139
	push_r_args 1 3 1
	pop_b 1
	push_array 0
.d 2 0 
	push_a_jsr 4 cmpAC
.o 0 1 i
	pushI 0
	gtI
	jmp_false else.140
	create 
	updates2_a 0 3 5
	exchange_a 4 1
.d 3 0 
	pop_a_jsr 1 s102
.o 1 0 
	swap_a1 
.d 4 0 
	jmp s71
else.140
	push_a 3
	push_array 1
.d 2 0 
	jsr cmpAC
.o 0 1 i
	pushI 0
	gtI
	jmp_false else.141
	create 
	updates3_a 0 3 2 5
	exchange_a 4 1
.d 3 0 
	pop_a_jsr 1 s102
.o 1 0 
	push_a 1
	updates3pop_a 0 1 3 2
.d 4 0 
	jmp s72
else.141
	fill_a 4 5
.d 1 0 
	pop_a_rtn 5
case.139
	push_a 0
	buildh ARRAY 1
	updatepop_a 0 2
.d 2 0 
	jmp s5
.export e_Data.Set_sinsert;41
.export e_Data.Set_eainsert;41
.descexp e_Data.Set_dinsert;41 e_Data.Set_ninsert;41 e_Data.Set_linsert;41 2 0 "insert;41"
.a 2 e_Data.Set_eainsert;41
.o 2 0 
e_Data.Set_linsert;41
	push_args 0 1 1
	update_a 2 1
	create 
.d 3 0 
	put_a_jmp 3 e_Data.Set_eainsert;41
.n 2 e_Data.Set_dinsert;41 e_Data.Set_eainsert;41
.o 1 0 
e_Data.Set_ninsert;41
	push_node _cycle_in_spine 2
.o 3 0 
e_Data.Set_eainsert;41
	jsr_eval 1
	jsr_eval 0
	pushI0_pop_a1 
.o 2 1 i
e_Data.Set_sinsert;41
.o 2 1 i
s42
s101
	jmp_ne_desc e_Data.Set_kBin 0 0 case.143
	push_r_args 0 3 1
	pop_b 1
	pushI_a 0
	jmp_o_geI 1 else.144
	create 
	updates4_a 0 2 1 3 4
.d 2 1 i
	pop_a_jsr 1 s101
.o 1 0 
	swap_a1 
.d 4 0 
	jmp s71
else.144
	push_b 0
	pushI_a 0
	jmp_geI else.145
	create 
	updates2_a 0 2 4
	exchange_a 3 1
.d 2 1 i
	pop_a_jsr 1 s101
.o 1 0 
	push_a 1
	updates3pop_a 0 1 3 2
.d 4 0 
	jmp s72
else.145
	pop_b 1
	fill_a 3 4
.d 1 0 
	pop_a_rtn 4
case.143
	buildI_b 0
	put_a 1
.d 2 0 
	pop_b_jmp 1 s5
.export e_Data.Set_sisSubsetOfX;40
.descexp e_Data.Set_disSubsetOfX;40 e_Data.Set_nisSubsetOfX;40 e_Data.Set_lisSubsetOfX;40 2 0 "isSubsetOfX;40"
.a 0 a41
.o 2 0 
e_Data.Set_lisSubsetOfX;40
	repl_args 1 1
.o 2 0 
a41
.d 2 0 
	jsr ea41
.o 0 1 b
	buildB_b 0
.d 1 0 
	pop_b_rtn 1
.n 2 e_Data.Set_disSubsetOfX;40
.o 1 0 
e_Data.Set_nisSubsetOfX;40
	push_node _cycle_in_spine 2
.d 2 0 
	jsr ea41
.o 0 1 b
	fillB_b 0 0
.d 1 0 
	pop_b_rtn 1
.o 2 0 
ea41
	jsr_eval 1
	jsr_eval 0
.o 2 0 
e_Data.Set_sisSubsetOfX;40
.o 2 0 
s41
s99
	jmp_ne_desc e_Data.Set_kBin 0 0 case.147
	repl_r_args 3 1
	pop_b 1
	jmp_ne_desc e_Data.Set_dTip 0 3 else.148
	pushB FALSE
.d 0 1 b
	pop_a_rtn 4
else.148
	push_a 3
	push_array 1
	update2pop_a 0 1
.d 2 0 
	buildh0_put_a_jsr _Nil 5 s100
.o 2 1 b
	jmp_b_false 0 else.149
	updates4_a 0 2 1 3 4
	pop_b 1
.d 2 0 
	pop_a_jsr 1 s99
.o 0 1 b
	jmp_false else.150
	swap_a1 
.d 2 0 
	jmp s99
else.150
	pushB FALSE
.d 0 1 b
	pop_a_rtn 2
else.149
	pop_b_pushB 1 FALSE
.d 0 1 b
	pop_a_rtn 5
case.147
	pushB TRUE
.d 0 1 b
	pop_a_rtn 2
.o 2 0 
s100
	jmp_ne_desc e_Data.Set_kBin 0 1 case.152
	push_r_args 1 3 1
	buildh0_put_a _Nil 5
	pop_b 1
	push_array 0
.d 2 0 
	push_a_jsr 4 cmpAC
.o 0 1 i
	pushI 0
	gtI
	jmp_false else.153
	updates4_a 0 3 1 2 4
.d 2 0 
	pop_a_jsr 1 s100
.o 2 1 b
	create 
	swap_a 3
	push_update_a 2 4
	updates2_a 0 2 5
.d 4 0 
	pop_a_jsr 1 s66
.o 1 0 
	swap_a1 
.d 2 1 b
	rtn 
else.153
	push_a 3
	push_array 1
.d 2 0 
	jsr cmpAC
.o 0 1 i
	pushI 0
	gtI
	jmp_false else.154
	updates3_a 0 3 1 4
.d 2 0 
	pop_a_jsr 1 s100
.o 2 1 b
	create 
	swap_a 3
	push_update_a 4 2
	updates2_a 0 2 3
.d 4 0 
	pop_a_jsr 1 s66
.o 1 0 
.d 2 1 b
	rtn 
else.154
	update2pop_a 1 3
	pushB TRUE
.d 2 1 b
	rtn 
case.152
	update_a 1 0
	pushB FALSE
.d 2 1 b
	rtn 
.export e_Data.Set_sisSubsetOfX;39
.descexp e_Data.Set_disSubsetOfX;39 e_Data.Set_nisSubsetOfX;39 e_Data.Set_lisSubsetOfX;39 2 0 "isSubsetOfX;39"
.a 0 a40
.o 2 0 
e_Data.Set_lisSubsetOfX;39
	repl_args 1 1
.o 2 0 
a40
.d 2 0 
	jsr ea40
.o 0 1 b
	buildB_b 0
.d 1 0 
	pop_b_rtn 1
.n 2 e_Data.Set_disSubsetOfX;39
.o 1 0 
e_Data.Set_nisSubsetOfX;39
	push_node _cycle_in_spine 2
.d 2 0 
	jsr ea40
.o 0 1 b
	fillB_b 0 0
.d 1 0 
	pop_b_rtn 1
.o 2 0 
ea40
	jsr_eval 1
	jsr_eval 0
.o 2 0 
e_Data.Set_sisSubsetOfX;39
.o 2 0 
s40
s97
	jmp_ne_desc e_Data.Set_kBin 0 0 case.156
	repl_r_args 3 1
	pop_b 1
	jmp_ne_desc e_Data.Set_dTip 0 3 else.157
	pushB FALSE
.d 0 1 b
	pop_a_rtn 4
else.157
	push_a 3
	pushI_a 1
	put_a 1
.d 1 1 i
	buildh0_put_a_jsr _Nil 4 s98
.o 2 1 b
	jmp_b_false 0 else.158
	updates4_a 0 2 1 3 4
	pop_b 1
.d 2 0 
	pop_a_jsr 1 s97
.o 0 1 b
	jmp_false else.159
	swap_a1 
.d 2 0 
	jmp s97
else.159
	pushB FALSE
.d 0 1 b
	pop_a_rtn 2
else.158
	pop_b_pushB 1 FALSE
.d 0 1 b
	pop_a_rtn 5
case.156
	pushB TRUE
.d 0 1 b
	pop_a_rtn 2
.o 1 1 i
s98
	jmp_ne_desc e_Data.Set_kBin 0 0 case.161
	repl_r_args 3 1
	pop_b 1
	pushI_a 0
	jmp_o_geI 1 else.162
	swap_a1 
.d 1 1 i
	jsr s98
.o 2 1 b
	create 
	swap_a 3
	push_update_a 2 4
	updates2_a 0 2 5
.d 4 0 
	pop_a_jsr 1 s66
.o 1 0 
	swap_a1 
.d 2 1 b
	rtn 
else.162
	push_b 0
	pushI_a 0
	jmp_geI else.163
	push_a 2
.d 1 1 i
	buildh0_put_a_jsr _Nil 4 s98
.o 2 1 b
	create 
	updates3_a 0 4 2 5
	exchange_a 3 1
.d 4 0 
	pop_a_jsr 1 s66
.o 1 0 
.d 2 1 b
	rtn 
else.163
	pop_b_pushB 1 TRUE
.d 2 1 b
	pop_a_rtn 1
case.161
	push_a 0
	pop_b_pushB 1 FALSE
.d 2 1 b
	rtn 
.export e_Data.Set_sgetMember;38
.export e_Data.Set_eagetMember;38
.descexp e_Data.Set_dgetMember;38 e_Data.Set_ngetMember;38 e_Data.Set_lgetMember;38 2 0 "getMember;38"
.a 2 e_Data.Set_eagetMember;38
.o 2 0 
e_Data.Set_lgetMember;38
	push_args 0 1 1
	update_a 2 1
	create 
.d 3 0 
	put_a_jmp 3 e_Data.Set_eagetMember;38
.n 2 e_Data.Set_dgetMember;38 e_Data.Set_eagetMember;38
.o 1 0 
e_Data.Set_ngetMember;38
	push_node _cycle_in_spine 2
.o 3 0 
e_Data.Set_eagetMember;38
	jsr_eval 1
	jsr_eval 0
	push_array 0
	put_a 1
.o 3 0 
e_Data.Set_sgetMember;38
.o 3 0 
s39
s96
	jmp_ne_desc e_Data.Set_kBin 0 1 case.165
	push_r_args 1 3 1
	buildh0_put_a _Nil 5
	pop_b 1
	push_array 0
.d 2 0 
	push_a_jsr 4 cmpAC
.o 0 1 i
	pushI 0
	gtI
	jmp_false else.166
	update_a 1 4
.d 3 0 
	pop_a_jmp 3 s96
else.166
	push_a 3
	push_array 1
	update3pop_a 0 1
.d 2 0 
	jsr cmpAC
.o 0 1 i
	pushI 0
	gtI
	jmp_false else.167
	update_a 1 3
.d 3 0 
	pop_a_jmp 2 s96
else.167
	push_a 0
	fillh _Just 1 5
.d 1 0 
	pop_a_rtn 4
case.165
	fillh _Nothing 0 2
.d 1 0 
	pop_a_rtn 2
.export e_Data.Set_sgetMember;37
.export e_Data.Set_eagetMember;37
.descexp e_Data.Set_dgetMember;37 e_Data.Set_ngetMember;37 e_Data.Set_lgetMember;37 2 0 "getMember;37"
.a 2 e_Data.Set_eagetMember;37
.o 2 0 
e_Data.Set_lgetMember;37
	push_args 0 1 1
	update_a 2 1
	create 
.d 3 0 
	put_a_jmp 3 e_Data.Set_eagetMember;37
.n 2 e_Data.Set_dgetMember;37 e_Data.Set_eagetMember;37
.o 1 0 
e_Data.Set_ngetMember;37
	push_node _cycle_in_spine 2
.o 3 0 
e_Data.Set_eagetMember;37
	jsr_eval 1
	jsr_eval 0
	pushI0_pop_a1 
.o 2 1 i
e_Data.Set_sgetMember;37
.o 2 1 i
s38
s95
	jmp_ne_desc e_Data.Set_kBin 0 0 case.169
	repl_r_args 3 1
	pop_b 1
	pushI_a 0
	jmp_o_geI 1 else.170
	updatepop_a 1 2
.d 2 1 i
	jmp s95
else.170
	push_b 0
	pushI_a 0
	jmp_geI else.171
.d 2 1 i
	pop_a_jmp 2 s95
else.171
	push_a 0
	fillh _Just 1 4
.d 1 0 
	pop_ab_rtn 3 1
case.169
	fillh _Nothing 0 1
.d 1 0 
	pop_ab_rtn 1 1
.export e_Data.Set_smember;36
.descexp e_Data.Set_dmember;36 e_Data.Set_nmember;36 e_Data.Set_lmember;36 2 0 "member;36"
.a 0 a37
.o 2 0 
e_Data.Set_lmember;36
	repl_args 1 1
.o 2 0 
a37
.d 2 0 
	jsr ea37
.o 0 1 b
	buildB_b 0
.d 1 0 
	pop_b_rtn 1
.n 2 e_Data.Set_dmember;36
.o 1 0 
e_Data.Set_nmember;36
	push_node _cycle_in_spine 2
.d 2 0 
	jsr ea37
.o 0 1 b
	fillB_b 0 0
.d 1 0 
	pop_b_rtn 1
.o 2 0 
ea37
	jsr_eval 1
	jsr_eval 0
	push_array 0
	put_a 1
.o 2 0 
e_Data.Set_smember;36
.o 2 0 
s37
s94
	jmp_ne_desc e_Data.Set_kBin 0 1 case.173
	push_r_args 1 3 1
	buildh0_put_a _Nil 5
	pop_b 1
	push_array 0
.d 2 0 
	push_a_jsr 4 cmpAC
.o 0 1 i
	pushI 0
	gtI
	jmp_false else.174
	update_a 1 4
.d 2 0 
	pop_a_jmp 3 s94
else.174
	push_a 3
	push_array 1
	update2pop_a 0 2
.d 2 0 
	jsr cmpAC
.o 0 1 i
	pushI 0
	gtI
	jmp_false else.175
.d 2 0 
	put_a_jmp 2 s94
else.175
	pushB TRUE
.d 0 1 b
	pop_a_rtn 3
case.173
	pushB FALSE
.d 0 1 b
	pop_a_rtn 2
.export e_Data.Set_smember;35
.descexp e_Data.Set_dmember;35 e_Data.Set_nmember;35 e_Data.Set_lmember;35 2 0 "member;35"
.a 0 a36
.o 2 0 
e_Data.Set_lmember;35
	repl_args 1 1
.o 2 0 
a36
.d 2 0 
	jsr ea36
.o 0 1 b
	buildB_b 0
.d 1 0 
	pop_b_rtn 1
.n 2 e_Data.Set_dmember;35
.o 1 0 
e_Data.Set_nmember;35
	push_node _cycle_in_spine 2
.d 2 0 
	jsr ea36
.o 0 1 b
	fillB_b 0 0
.d 1 0 
	pop_b_rtn 1
.o 2 0 
ea36
	jsr_eval 1
	jsr_eval 0
	pushI0_pop_a1 
.o 1 1 i
e_Data.Set_smember;35
.o 1 1 i
s36
s93
	jmp_ne_desc e_Data.Set_kBin 0 0 case.177
	repl_r_args 3 1
	pop_b 1
	pushI_a 0
	jmp_o_geI 1 else.178
	updatepop_a 1 2
.d 1 1 i
	jmp s93
else.178
	push_b 0
	pushI_a 0
	jmp_geI else.179
.d 1 1 i
	pop_a_jmp 2 s93
else.179
	pop_b_pushB 1 TRUE
.d 0 1 b
	pop_a_rtn 3
case.177
	pop_b_pushB 1 FALSE
.d 0 1 b
	pop_a_rtn 1
.export e_Data.Set_sfoldr1;33
.descexp e_Data.Set_dfoldr1;33 e_Data.Set_nfoldr1;33 e_Data.Set_lfoldr1;33 2 0 "foldr1;33"
.o 3 0 
e_Data.Set_ifoldr1;33
.d 2 0 
	pop_a_jmp 1 s34
.ai 0 ea34 e_Data.Set_ifoldr1;33
.o 2 0 
e_Data.Set_lfoldr1;33
	repl_args 1 1
.d 2 0 
	jmp ea34
.n 2 e_Data.Set_dfoldr1;33 _
.o 1 0 
e_Data.Set_nfoldr1;33
	push_node _cycle_in_spine 2
.d 2 0 
	jsr ea34
.o 1 0 
.d 1 0 
	fill_a01_pop_rtn 
.o 2 0 
ea34
	jsr_eval 1
	jsr_eval 0
.o 2 0 
e_Data.Set_sfoldr1;33
.o 2 0 
s34
	buildh _Nothing 0
	push_a 1
	buildh e_Data.Set_dmf;92.90 1
	update2pop_a 0 1
.d 3 0 
	jsr s33
.o 1 0 
s164
	jmp_ne_desc _Nothing 0 0 case.181
	buildAC "foldr1: empty structure\n"
	put_a 1
.d 1 0 
	jsr print_string_
.o 0 0 
	halt
.d 1 0 
	rtn 
case.181
	repl_args 1 1
.d 1 0 
	rtn 
.export e_Data.Set_dmf;92.90
.desc e_Data.Set_dmf;92.90 _hnf l90 3 0 "mf;92.90"
.a 3 ea90
.o 2 0 
l90
	push_args 0 2 2
	update_a 3 2
	create 
	put_a 4
.o 4 0 
ea90
	jsr_eval 2
.o 4 0 
s90
	swap_a 2
.d 3 0 
	jsr s163
.o 1 0 
	fillh _Just 1 1
.d 1 0 
	rtn 
.o 3 0 
s163
	jmp_ne_desc _Nothing 0 0 case.183
	updatepop_a 1 2
	jmp_eval
case.183
	repl_args 1 1
	push_a2 0 2
	jsr_eval 0
	update_a 1 4
	updatepop_a 0 2
	jmp_ap 2
.export e_Data.Set_sfoldl`;31
.descexp e_Data.Set_dfoldl`;31 e_Data.Set_nfoldl`;31 e_Data.Set_lfoldl`;31 3 0 "foldl`;31"
.o 4 0 
e_Data.Set_ifoldl`;31
.d 3 0 
	pop_a_jmp 1 s32
.ai 0 ea32 e_Data.Set_ifoldl`;31
.o 2 0 
e_Data.Set_lfoldl`;31
	repl_args 2 2
.d 3 0 
	jmp ea32
.n 3 e_Data.Set_dfoldl`;31 _
.o 1 0 
e_Data.Set_nfoldl`;31
	push_node _cycle_in_spine 3
.d 3 0 
	jsr ea32
.o 1 0 
.d 1 0 
	fill_a01_pop_rtn 
.o 3 0 
ea32
	jsr_eval 2
	jsr_eval 1
.o 3 0 
e_Data.Set_sfoldl`;31
.o 3 0 
s32
	jmp_ne_desc e_Data.Set_kBin 0 2 case.185
	push_r_args 2 3 1
	buildh _Nil 0
	push_a 2
	push2_a 6
	updates2_a 4 3 9
	pop_b 1
	build e_Data.Set_dfoldl`;31 3 e_Data.Set_nfoldl`;31
	push_jsr_eval 5
	update2_a 5 7
	update3pop_a 0 4
	jsr_ap 2
	push_a 2
	update3pop_a 0 1
.d 3 0 
	jmp s32
case.185
	updatepop_a 1 2
.d 1 0 
	rtn 
.export e_Data.Set_sfoldl1;30
.descexp e_Data.Set_dfoldl1;30 e_Data.Set_nfoldl1;30 e_Data.Set_lfoldl1;30 2 0 "foldl1;30"
.o 3 0 
e_Data.Set_ifoldl1;30
.d 2 0 
	pop_a_jmp 1 s31
.ai 0 ea31 e_Data.Set_ifoldl1;30
.o 2 0 
e_Data.Set_lfoldl1;30
	repl_args 1 1
.d 2 0 
	jmp ea31
.n 2 e_Data.Set_dfoldl1;30 _
.o 1 0 
e_Data.Set_nfoldl1;30
	push_node _cycle_in_spine 2
.d 2 0 
	jsr ea31
.o 1 0 
.d 1 0 
	fill_a01_pop_rtn 
.o 2 0 
ea31
	jsr_eval 1
	jsr_eval 0
.o 2 0 
e_Data.Set_sfoldl1;30
.o 2 0 
s31
	buildh _Nothing 0
	push_a 1
	buildh e_Data.Set_dmf;91.89 1
	update2pop_a 0 1
.d 3 0 
	jsr s30
.o 1 0 
s162
	jmp_ne_desc _Nothing 0 0 case.187
	buildAC "foldl1: empty structure\n"
	put_a 1
.d 1 0 
	jsr print_string_
.o 0 0 
	halt
.d 1 0 
	rtn 
case.187
	repl_args 1 1
.d 1 0 
	rtn 
.export e_Data.Set_dmf;91.89
.desc e_Data.Set_dmf;91.89 _hnf l89 3 0 "mf;91.89"
.a 3 ea89
.o 2 0 
l89
	push_args 0 2 2
	update_a 3 2
	create 
	put_a 4
.o 4 0 
ea89
	jsr_eval 1
.o 4 0 
s89
	push_a 1
	updates3pop_a 0 1 3 2
.d 3 0 
	jsr s161
.o 1 0 
	fillh _Just 1 1
.d 1 0 
	rtn 
.o 3 0 
s161
	jmp_ne_desc _Nothing 0 0 case.189
	updatepop_a 1 2
	jmp_eval
case.189
	repl_args 1 1
	push_a2 1 2
	jsr_eval 0
	update_a 1 4
	updates2pop_a 0 2 3
	jmp_ap 2
.export e_Data.Set_sfoldl;29
.descexp e_Data.Set_dfoldl;29 e_Data.Set_nfoldl;29 e_Data.Set_lfoldl;29 3 0 "foldl;29"
.o 4 0 
e_Data.Set_ifoldl;29
.d 3 0 
	pop_a_jmp 1 s30
.ai 0 ea30 e_Data.Set_ifoldl;29
.o 2 0 
e_Data.Set_lfoldl;29
	repl_args 2 2
.d 3 0 
	jmp ea30
.n 3 e_Data.Set_dfoldl;29 _
.o 1 0 
e_Data.Set_nfoldl;29
	push_node _cycle_in_spine 3
.d 3 0 
	jsr ea30
.o 1 0 
.d 1 0 
	fill_a01_pop_rtn 
.o 3 0 
ea30
	jsr_eval 2
.o 3 0 
e_Data.Set_sfoldl;29
.o 3 0 
s30
	jmp_ne_desc e_Data.Set_kBin 0 2 case.191
	push_r_args 2 3 1
	buildh _Nil 0
	push2_a 5
	updates2_a 4 2 8
	pop_b 1
	build e_Data.Set_dfoldl;29 3 e_Data.Set_nfoldl;29
	push_a2 0 4
	update_a 3 2
	build e_Data.Set_d_f0.232 3 e_Data.Set_n_f0.232
	update_a 3 6
	dup_a 5
.d 3 0 
	pop_a_jmp 4 s30
case.191
	updatepop_a 1 2
	jmp_eval
.export e_Data.Set_d_f0.232
.export e_Data.Set_n_f0.232
.descn e_Data.Set_d_f0.232 e_Data.Set_n_f0.232 3 0 "_f0.232"
.n 3 e_Data.Set_d_f0.232 ea232
.o 1 0 
e_Data.Set_n_f0.232
	push_node _cycle_in_spine 3
.o 4 0 
ea232
.o 4 0 
s232
	push_a2 2 0
	jsr_eval 0
	update_a 1 4
	updatepop_a 0 2
	jsr_ap 2
.d 1 0 
	fill_a01_pop_rtn 
.export e_Data.Set_sfold;27
.descexp e_Data.Set_dfold;27 e_Data.Set_nfold;27 e_Data.Set_lfold;27 2 0 "fold;27"
.o 4 0 
e_Data.Set_ifold;27
.d 3 0 
	pop_a_jmp 1 s28
.ai 0 ea28 e_Data.Set_ifold;27
.o 2 0 
e_Data.Set_lfold;27
	repl_args 1 1
.d 2 0 
	jmp ea28
.n 2 e_Data.Set_dfold;27 _
.o 1 0 
e_Data.Set_nfold;27
	push_node _cycle_in_spine 2
.d 2 0 
	jsr ea28
.o 1 0 
.d 1 0 
	fill_a01_pop_rtn 
.o 2 0 
ea28
	jsr_eval 1
	jsr_eval 0
	repl_r_args 2 0
.o 3 0 
e_Data.Set_sfold;27
.o 3 0 
s28
	buildh e_StdFunctions_did 0
	push_a 1
	updates3pop_a 0 1 3 2
.d 4 0 
	jmp s29
.export e_Data.Set_sfoldMap;28
.descexp e_Data.Set_dfoldMap;28 e_Data.Set_nfoldMap;28 e_Data.Set_lfoldMap;28 3 0 "foldMap;28"
.o 5 0 
e_Data.Set_ifoldMap;28
.d 4 0 
	pop_a_jmp 1 s29
.ai 0 ea29 e_Data.Set_ifoldMap;28
.o 2 0 
e_Data.Set_lfoldMap;28
	repl_args 2 2
.d 3 0 
	jmp ea29
.n 3 e_Data.Set_dfoldMap;28 _
.o 1 0 
e_Data.Set_nfoldMap;28
	push_node _cycle_in_spine 3
.d 3 0 
	jsr ea29
.o 1 0 
.d 1 0 
	fill_a01_pop_rtn 
.o 3 0 
ea29
	jsr_eval 2
	jsr_eval 0
	repl_r_args 2 0
.o 4 0 
e_Data.Set_sfoldMap;28
.o 4 0 
s29
	push_a 0
.impdesc e_Data.Monoid_rSemigroup;
	build_r e_Data.Monoid_rSemigroup; 1 0 2 0
	push_update_a 0 4
	buildh e_Data.Set_d\;52;26;90.88 2
	update2pop_a 0 3
.d 3 0 
	jmp s33
.export e_Data.Set_sfoldr;32
.descexp e_Data.Set_dfoldr;32 e_Data.Set_nfoldr;32 e_Data.Set_lfoldr;32 3 0 "foldr;32"
.o 4 0 
e_Data.Set_ifoldr;32
.d 3 0 
	pop_a_jmp 1 s33
.ai 0 ea33 e_Data.Set_ifoldr;32
.o 2 0 
e_Data.Set_lfoldr;32
	repl_args 2 2
.d 3 0 
	jmp ea33
.n 3 e_Data.Set_dfoldr;32 _
.o 1 0 
e_Data.Set_nfoldr;32
	push_node _cycle_in_spine 3
.d 3 0 
	jsr ea33
.o 1 0 
.d 1 0 
	fill_a01_pop_rtn 
.o 3 0 
ea33
	jsr_eval 2
.o 3 0 
e_Data.Set_sfoldr;32
.o 3 0 
s33
	jmp_ne_desc e_Data.Set_kBin 0 2 case.193
	push_r_args 2 3 1
	buildh _Nil 0
	push2_a 5
	updates2_a 5 2 8
	pop_b 1
	build e_Data.Set_dfoldr;32 3 e_Data.Set_nfoldr;32
	push_a2 1 4
	build e_Data.Set_d_f1.233 3 e_Data.Set_n_f1.233
	update_a 2 6
	dup_a 5
.d 3 0 
	pop_a_jmp 4 s33
case.193
	updatepop_a 1 2
	jmp_eval
.export e_Data.Set_d_f1.233
.export e_Data.Set_n_f1.233
.descn e_Data.Set_d_f1.233 e_Data.Set_n_f1.233 3 0 "_f1.233"
.n 3 e_Data.Set_d_f1.233 ea233
.o 1 0 
e_Data.Set_n_f1.233
	push_node _cycle_in_spine 3
.o 4 0 
ea233
.o 4 0 
s233
	push_a2 2 0
	jsr_eval 0
	update_a 1 4
	updatepop_a 0 2
	jsr_ap 2
.d 1 0 
	fill_a01_pop_rtn 
.export e_Data.Set_d\;52;26;90.88
.desc e_Data.Set_d\;52;26;90.88 _hnf l88 3 0 "\;52;26;90.88"
.a 3 ea88
.o 2 0 
l88
	push_args 0 2 2
	update_a 3 2
	create 
	put_a 4
.o 4 0 
ea88
	repl_r_args 1 0
.o 4 0 
s88
	push2_a 2
	build e_system_dAP 2 e_system_nAP
	dup_a 3
	updatepop_a 1 2
	jsr_ap 1
.d 1 0 
	fill_a01_pop_rtn 
.export e_Data.Set_s<;26
.descexp e_Data.Set_d<;26 e_Data.Set_n<;26 e_Data.Set_l<;26 3 0 "<;26"
.o 3 0 
e_Data.Set_i<;26
	repl_args 1 1
	jsr_eval 0
	push_r_args 0 1 0
.d 3 0 
	put_a_jmp 1 s27
.ai 0 a27 e_Data.Set_i<;26
.o 2 0 
e_Data.Set_l<;26
	repl_args 2 2
.o 3 0 
a27
.d 3 0 
	jsr ea27
.o 0 1 b
	buildB_b 0
.d 1 0 
	pop_b_rtn 1
.n 3 e_Data.Set_d<;26
.o 1 0 
e_Data.Set_n<;26
	push_node _cycle_in_spine 3
.d 3 0 
	jsr ea27
.o 0 1 b
	fillB_b 0 0
.d 1 0 
	pop_b_rtn 1
.o 3 0 
ea27
	jsr_eval 2
	jsr_eval 1
	jsr_eval 0
	repl_r_args 1 0
.o 3 0 
e_Data.Set_s<;26
.o 3 0 
s27
	buildh _Nil 0
	buildh e_Data.Set_d\;475;41;89.87 0
	push_update_a 0 1
	update_a 5 2
.d 3 0 
	buildh0_put_a_jsr _Nil 6 s35
.o 1 0 
	buildh _Nil 0
	buildh e_Data.Set_d\;475;41;88.86 0
	push_update_a 0 1
	update_a 5 2
.d 3 0 
	buildh0_put_a_jsr _Nil 6 s35
.o 1 0 
	update2_a 0 3
.d 3 0 
	pop_a_jmp 2 s77
.o 3 0 
s77
	jmp_ne_desc _Nil 0 1 case.195
	jmp_ne_desc _Nil 0 2 case.197
	pushB FALSE
.d 0 1 b
	pop_a_rtn 3
case.197
	pushB TRUE
.d 0 1 b
	pop_a_rtn 3
case.195
	push_args 1 2 2
	buildh0_put_a _Nil 4
	jmp_ne_desc _Nil 0 4 case.199
	pushB FALSE
.d 0 1 b
	pop_a_rtn 5
case.199
	push_args 4 2 2
	buildh0_put_a _Nil 7
	jsr_eval 0
	push_a2 0 2
	jsr_eval 0
	push_a 6
.d 3 0 
	jsr_i 2
.o 0 1 b
	jmp_false else.200
	pushB TRUE
.d 0 1 b
	pop_a_rtn 7
else.200
	push_a2 4 2
	updates2_a_pop_a 0 3 4 1
.d 3 0 
	jsr_i 2
.o 0 1 b
	jmp_false else.201
	pushB FALSE
.d 0 1 b
	pop_a_rtn 5
else.201
	jsr_eval 0
	push_a2 0 1
	jsr_eval 0
	update2_a 0 5
.d 3 0 
	pop_a_jmp 4 s77
.export e_Data.Set_d\;475;41;88.86
.desc e_Data.Set_d\;475;41;88.86 _hnf l86 2 0 "\;475;41;88.86"
.a 2 ea86
.o 2 0 
l86
	push_args 0 1 1
	update_a 2 1
	create 
	put_a 3
.o 3 0 
ea86
.o 3 0 
s86
	fillh _Cons 2 2
.d 1 0 
	rtn 
.export e_Data.Set_d\;475;41;89.87
.desc e_Data.Set_d\;475;41;89.87 _hnf l87 2 0 "\;475;41;89.87"
.a 2 ea87
.o 2 0 
l87
	push_args 0 1 1
	update_a 2 1
	create 
	put_a 3
.o 3 0 
ea87
.o 3 0 
s87
	fillh _Cons 2 2
.d 1 0 
	rtn 
.export e_Data.Set_s==;25
.descexp e_Data.Set_d==;25 e_Data.Set_n==;25 e_Data.Set_l==;25 3 0 "==;25"
.o 3 0 
e_Data.Set_i==;25
	repl_args 1 1
	jsr_eval 0
	push_r_args 0 1 0
.d 3 0 
	put_a_jmp 1 s26
.ai 0 a26 e_Data.Set_i==;25
.o 2 0 
e_Data.Set_l==;25
	repl_args 2 2
.o 3 0 
a26
.d 3 0 
	jsr ea26
.o 0 1 b
	buildB_b 0
.d 1 0 
	pop_b_rtn 1
.n 3 e_Data.Set_d==;25
.o 1 0 
e_Data.Set_n==;25
	push_node _cycle_in_spine 3
.d 3 0 
	jsr ea26
.o 0 1 b
	fillB_b 0 0
.d 1 0 
	pop_b_rtn 1
.o 3 0 
ea26
	jsr_eval 2
	jsr_eval 1
	jsr_eval 0
	repl_r_args 1 0
.o 3 0 
e_Data.Set_s==;25
.o 3 0 
s26
.d 1 0 
	push_a_jsr 2 s160
.o 0 1 i
.d 1 0 
	push_a_jsr 1 s159
.o 0 1 i
	jmp_neI else.202
	buildh _Nil 0
	buildh e_Data.Set_d\;475;41;87.85 0
	push_update_a 0 1
	update_a 5 2
.d 3 0 
	buildh0_put_a_jsr _Nil 6 s35
.o 1 0 
	buildh _Nil 0
	buildh e_Data.Set_d\;475;41;86.84 0
	push_update_a 0 1
	update_a 5 2
.d 3 0 
	buildh0_put_a_jsr _Nil 6 s35
.o 1 0 
	update2_a 0 3
.d 3 0 
	pop_a_jmp 2 e_StdList_s==;45
else.202
	pushB FALSE
.d 0 1 b
	pop_a_rtn 3
.o 1 0 
s160
	jmp_ne_desc e_Data.Set_dTip 0 0 case.204
	pushI 0
.d 0 1 i
	pop_a_rtn 1
case.204
	repl_r_args 3 1
.d 0 1 i
	pop_a_rtn 3
.o 1 0 
s159
	jmp_ne_desc e_Data.Set_dTip 0 0 case.206
	pushI 0
.d 0 1 i
	pop_a_rtn 1
case.206
	repl_r_args 3 1
.d 0 1 i
	pop_a_rtn 3
.export e_Data.Set_sfoldr`;34
.descexp e_Data.Set_dfoldr`;34 e_Data.Set_nfoldr`;34 e_Data.Set_lfoldr`;34 3 0 "foldr`;34"
.o 4 0 
e_Data.Set_ifoldr`;34
.d 3 0 
	pop_a_jmp 1 s35
.ai 0 ea35 e_Data.Set_ifoldr`;34
.o 2 0 
e_Data.Set_lfoldr`;34
	repl_args 2 2
.d 3 0 
	jmp ea35
.n 3 e_Data.Set_dfoldr`;34 _
.o 1 0 
e_Data.Set_nfoldr`;34
	push_node _cycle_in_spine 3
.d 3 0 
	jsr ea35
.o 1 0 
.d 1 0 
	fill_a01_pop_rtn 
.o 3 0 
ea35
	jsr_eval 2
	jsr_eval 1
.o 3 0 
e_Data.Set_sfoldr`;34
.o 3 0 
s35
	jmp_ne_desc e_Data.Set_kBin 0 2 case.208
	push_r_args 2 3 1
	buildh _Nil 0
	push2_a 5
	updates2_a 5 2 8
	pop_b 1
	build e_Data.Set_dfoldr`;34 3 e_Data.Set_nfoldr`;34
	push_jsr_eval 4
	update_a 5 7
	update_a 3 6
	update_a 1 5
	update_a 2 4
	updatepop_a 0 3
	jsr_ap 2
	push_a 2
	update3pop_a 0 1
.d 3 0 
	jmp s35
case.208
	updatepop_a 1 2
.d 1 0 
	rtn 
.export e_Data.Set_d\;475;41;86.84
.desc e_Data.Set_d\;475;41;86.84 _hnf l84 2 0 "\;475;41;86.84"
.a 2 ea84
.o 2 0 
l84
	push_args 0 1 1
	update_a 2 1
	create 
	put_a 3
.o 3 0 
ea84
.o 3 0 
s84
	fillh _Cons 2 2
.d 1 0 
	rtn 
.export e_Data.Set_d\;475;41;87.85
.desc e_Data.Set_d\;475;41;87.85 _hnf l85 2 0 "\;475;41;87.85"
.a 2 ea85
.o 2 0 
l85
	push_args 0 1 1
	update_a 2 1
	create 
	put_a 3
.o 3 0 
ea85
.o 3 0 
s85
	fillh _Cons 2 2
.d 1 0 
	rtn 
.export e_Data.Set_smapSetMonotonic
.export e_Data.Set_eamapSetMonotonic
.descexp e_Data.Set_dmapSetMonotonic e_Data.Set_nmapSetMonotonic e_Data.Set_lmapSetMonotonic 2 0 "mapSetMonotonic"
.a 2 e_Data.Set_eamapSetMonotonic
.o 2 0 
e_Data.Set_lmapSetMonotonic
	push_args 0 1 1
	update_a 2 1
	create 
.d 3 0 
	put_a_jmp 3 e_Data.Set_eamapSetMonotonic
.n 2 e_Data.Set_dmapSetMonotonic e_Data.Set_eamapSetMonotonic
.o 1 0 
e_Data.Set_nmapSetMonotonic
	push_node _cycle_in_spine 2
.o 3 0 
e_Data.Set_eamapSetMonotonic
	jsr_eval 1
	jsr_eval 0
.o 3 0 
e_Data.Set_smapSetMonotonic
.o 3 0 
s25
	jmp_ne_desc e_Data.Set_dTip 0 1 case.210
	fillh e_Data.Set_dTip 0 2
.d 1 0 
	pop_a_rtn 2
case.210
	push_r_args 1 3 1
	buildh0_put_a _Nil 5
	create 
	push_a2 4 2
	updates3_a 0 2 3 4
	pop_a 1
	create 
	push_a2 5 6
.d 3 0 
	buildh0_put_a_jsr _Nil 8 s25
.o 1 0 
	push_a2 4 6
	buildh0_dup_a _Nil 9
	put_a 7
	jsr_ap 1
	push_update_a 0 4
	push_b 0
	fill_r e_Data.Set_kBin 3 1 10 0 0
	pop_b 1
.d 3 0 
	pop_a_jsr 3 s25.2
.o 1 0 
.d 1 0 
	pop_ab_rtn 5 1
.o 3 0 
s25.2
	jmp_ne_desc e_Data.Set_dTip 0 1 case.212
	fillh e_Data.Set_dTip 0 2
.d 1 0 
	pop_a_rtn 2
case.212
	push_r_args 1 3 1
	buildh0_put_a _Nil 5
	create 
	push_a2 4 2
	updates3_a 0 2 3 4
	pop_a 1
	create 
	push_a2 5 6
.d 3 0 
	buildh0_put_a_jsr _Nil 8 s25
.o 1 0 
	push_a2 4 6
	buildh0_dup_a _Nil 9
	put_a 7
	jsr_ap 1
	push_update_a 0 4
	push_b 0
	fill_r e_Data.Set_kBin 3 1 10 0 0
	pop_a 3
	pop_b 1
.keep 7 2
	update3pop_a 0 5
.d 3 0 
	pop_b_jmp 1 s25.2
.export e_Data.Set_sfromList
.export e_Data.Set_eafromList
.descexp e_Data.Set_dfromList e_Data.Set_nfromList e_Data.Set_lfromList 2 0 "fromList"
.a 2 e_Data.Set_eafromList
.o 2 0 
e_Data.Set_lfromList
	push_args 0 1 1
	update_a 2 1
	create 
.d 3 0 
	put_a_jmp 3 e_Data.Set_eafromList
.n 2 e_Data.Set_dfromList e_Data.Set_eafromList
.o 1 0 
e_Data.Set_nfromList
	push_node _cycle_in_spine 2
.o 3 0 
e_Data.Set_eafromList
	jsr_eval 1
	jsr_eval 0
	repl_r_args 1 0
.o 3 0 
e_Data.Set_sfromList
.o 3 0 
s24
	create 
.d 1 0 
	jsr s4
.o 1 0 
.impmod StdOverloaded
.impdesc e_StdOverloaded_r<;
	build_r e_StdOverloaded_r<; 1 0 1 0
	update2pop_a 0 1
s92
	jmp_ne_desc _Nil 0 2 case.214
	fill_a 1 3
.d 1 0 
	pop_a_rtn 3
case.214
	push_args 2 2 2
	buildh _Nil 0
	updates2_a 2 0 5
	jsr_eval 0
	push_jsr_eval 1
	push_r_args 4 1 0
	create 
	push_update_a 1 2
	updates2_a 8 1 3
	buildh0_dup_a _Nil 9
	dup2_a 6
.d 4 0 
	pop_a_jsr 1 s73
.o 1 0 
	update2_a 0 5
.d 4 0 
	pop_a_jmp 4 s92
.o 4 0 
s73
	exchange_a 2 1
.d 4 0 
	jmp s6
.export e_Data.Set_spartition
.descexp e_Data.Set_dpartition e_Data.Set_npartition e_Data.Set_lpartition 2 0 "partition"
.a 0 a21
.o 2 0 
e_Data.Set_lpartition
	repl_args 1 1
.o 2 0 
a21
.d 2 0 
	jsr ea21
.o 2 0 
	buildh _Tuple 2
.d 1 0 
	rtn 
.n 2 e_Data.Set_dpartition
.o 1 0 
e_Data.Set_npartition
	push_node _cycle_in_spine 2
.d 2 0 
	jsr ea21
.o 2 0 
	fillh _Tuple 2 2
.d 1 0 
	rtn 
.o 2 0 
ea21
	jsr_eval 1
	jsr_eval 0
.o 2 0 
e_Data.Set_spartition
.o 2 0 
s21
	jmp_ne_desc e_Data.Set_kBin 0 1 case.216
	push_r_args 1 3 1
	buildh _Nil 0
	updates2_a 4 0 5
	exchange_a 2 1
.d 2 0 
	pop_b_jsr 1 s21
.o 2 0 
	push_a2 3 4
.d 2 0 
	buildh0_put_a_jsr _Nil 6 s21
.o 2 0 
	push_a2 4 6
	buildh0_put_a _Nil 9
	jsr_ap 1
	pushB0_pop_a1 
	jmp_false else.217
	create 
	update_a 5 8
	update_a 3 7
	update2_a 0 5
	updates2_a 2 4 3
.d 3 0 
	pop_a_jsr 3 s69
.o 1 0 
	create 
	push_a2 2 3
	push_a 6
	buildh0_dup3_a _Nil 6
.d 4 0 
	pop_a_jsr 1 s66
.o 1 0 
	update2pop_a 0 3
.d 2 0 
	rtn 
else.217
	create 
	update_a 3 8
	update2_a 0 6
	updates2_a 2 5 3
.d 4 0 
	pop_a_jsr 3 s66
.o 1 0 
	create 
	push_a2 2 3
	buildh0_dup2_a _Nil 5
.d 3 0 
	pop_a_jsr 1 s69
.o 1 0 
	update2pop_a 0 2
.d 2 0 
	rtn 
case.216
	update_a 1 0
.d 2 0 
	rtn 
.export e_Data.Set_sfilter
.export e_Data.Set_eafilter
.descexp e_Data.Set_dfilter e_Data.Set_nfilter e_Data.Set_lfilter 2 0 "filter"
.a 2 e_Data.Set_eafilter
.o 2 0 
e_Data.Set_lfilter
	push_args 0 1 1
	update_a 2 1
	create 
.d 3 0 
	put_a_jmp 3 e_Data.Set_eafilter
.n 2 e_Data.Set_dfilter e_Data.Set_eafilter
.o 1 0 
e_Data.Set_nfilter
	push_node _cycle_in_spine 2
.o 3 0 
e_Data.Set_eafilter
	jsr_eval 1
	jsr_eval 0
.o 3 0 
e_Data.Set_sfilter
.o 3 0 
s20
	jmp_ne_desc e_Data.Set_kBin 0 1 case.219
	push_r_args 1 3 1
	buildh _Nil 0
	push_a 4
	updates2_a 2 1 6
	pop_b 1
	jsr_ap 1
	pushB0_pop_a1 
	jmp_false else.220
	create 
	push_a2 3 4
.d 3 0 
	buildh0_put_a_jsr _Nil 6 s20
.o 1 0 
	create 
	push_a2 3 5
	buildh0_dup_a _Nil 8
	put_a 6
.d 3 0 
	jsr s20
.o 1 0 
	update2_a 0 5
	updatepop_a 2 4
.d 4 0 
	jmp s66
else.220
	create 
	update_a 4 5
	updates4_a 0 3 2 4 1
.d 3 0 
	pop_a_jsr 1 s20
.o 1 0 
	create 
	push_a2 2 3
	buildh0_dup2_a _Nil 5
.d 3 0 
	pop_a_jsr 1 s20
.o 1 0 
	update2pop_a 0 2
.d 3 0 
	jmp s69
case.219
	fill_a 1 2
.d 1 0 
	pop_a_rtn 2
.export e_Data.Set_sintersections
.export e_Data.Set_eaintersections
.descexp e_Data.Set_dintersections e_Data.Set_nintersections e_Data.Set_lintersections 2 0 "intersections"
.a 2 e_Data.Set_eaintersections
.o 2 0 
e_Data.Set_lintersections
	push_args 0 1 1
	update_a 2 1
	create 
.d 3 0 
	put_a_jmp 3 e_Data.Set_eaintersections
.n 2 e_Data.Set_dintersections e_Data.Set_eaintersections
.o 1 0 
e_Data.Set_nintersections
	push_node _cycle_in_spine 2
.o 3 0 
e_Data.Set_eaintersections
	jsr_eval 1
	jsr_eval 0
	repl_r_args 1 0
.o 3 0 
e_Data.Set_sintersections
.o 3 0 
s19
	jmp_ne_desc _Cons 2 1 case.222
	push_args 1 2 2
	buildh0_put_a _Nil 4
	jsr_eval 1
	jmp_ne_desc _Nil 0 1 case.224
	updatepop_a 0 3
	jmp_eval_upd
case.224
	jsr_eval 0
	push_a 0
	build_r e_StdOverloaded_r<; 1 0 3 0
	update_a 3 5
	update2pop_a 0 3
.d 4 0 
	jmp s91
case.222
	buildAC "intersections called with []\n"
	updatepop_a 0 2
.d 1 0 
	jsr print_string_
.o 0 0 
	halt
.d 1 0 
	fill_a01_pop_rtn 
.o 4 0 
s91
	jmp_ne_desc _Nil 0 2 case.226
	fill_a 1 3
.d 1 0 
	pop_a_rtn 3
case.226
	push_args 2 2 2
	buildh _Nil 0
	updates2_a 2 0 5
	jsr_eval 0
	push_jsr_eval 1
	push_r_args 4 1 0
	create 
	push_update_a 1 2
	updates2_a 8 1 3
	buildh0_dup_a _Nil 9
	dup2_a 6
.d 4 0 
	pop_a_jsr 1 s18
.o 1 0 
	update2_a 0 5
.d 4 0 
	pop_a_jmp 4 s91
.export e_Data.Set_sintersection
.export e_Data.Set_eaintersection
.descexp e_Data.Set_dintersection e_Data.Set_nintersection e_Data.Set_lintersection 3 0 "intersection"
.a 3 e_Data.Set_eaintersection
.o 2 0 
e_Data.Set_lintersection
	push_args 0 2 2
	update_a 3 2
	create 
.d 4 0 
	put_a_jmp 4 e_Data.Set_eaintersection
.n 3 e_Data.Set_dintersection e_Data.Set_eaintersection
.o 1 0 
e_Data.Set_nintersection
	push_node _cycle_in_spine 3
.o 4 0 
e_Data.Set_eaintersection
	jsr_eval 2
	jsr_eval 1
	jsr_eval 0
	repl_r_args 1 0
.o 4 0 
e_Data.Set_sintersection
.o 4 0 
s18
	jmp_ne_desc e_Data.Set_dTip 0 1 case.228
	fillh e_Data.Set_dTip 0 3
.d 1 0 
	pop_a_rtn 3
case.228
	jmp_ne_desc e_Data.Set_dTip 0 2 case.230
	fillh e_Data.Set_dTip 0 3
.d 1 0 
	pop_a_rtn 3
case.230
	buildh _Nothing 0
	buildh _Nothing 0
	push_a 2
	update3pop_a 0 1
s64
	jmp_ne_desc e_Data.Set_dTip 0 4 case.232
	fillh e_Data.Set_dTip 0 5
.d 1 0 
	pop_a_rtn 5
case.232
	jmp_ne_desc e_Data.Set_dTip 0 3 case.234
	fillh e_Data.Set_dTip 0 5
.d 1 0 
	pop_a_rtn 5
case.234
	push_r_args 3 3 1
	buildh _Nil 0
	updates2_a 1 0 7
	pop_b 1
	buildh _Just 1
	create 
	push_a2 9 1
	push2_a 8
.d 5 0 
	jsr s65
.o 1 0 
	create 
	push_a2 4 2
	push2_a 9
	exchange_a 5 4
	buildh0_dup_a _Nil 12
	put_a 9
.d 6 0 
	jsr s64
.o 1 0 
	create 
	push_a2 10 8
	push_a2 4 8
.d 5 0 
	jsr s65
.o 1 0 
	create 
	update_a 7 10
	update_a 2 8
	updates2_a 1 6 5
	updates2_a 0 7 2
	exchange_a 9 4
.d 6 0 
	pop_a_jsr 2 s64
.o 1 0 
	push_a2 4 2
	push_a 5
	buildh0_dup2_a _Nil 7
.d 3 0 
	pop_a_jsr 1 s1
.o 0 1 b
	jmp_false else.235
	dup_a 4
	update_a 1 3
.d 4 0 
	pop_a_jmp 2 s66
else.235
	dup_a 4
	updatepop_a 1 3
.d 3 0 
	jmp s69
.o 5 0 
s65
	jmp_ne_desc _Nothing 0 1 case.237
	jmp_ne_desc _Nothing 0 2 case.239
	fill_a 3 4
.d 1 0 
	pop_a_rtn 4
case.239
	push_args 2 1 1
	dup_a 3
	buildh _Nil 0
	updatepop_a 2 3
.d 4 0 
	jmp s75
case.237
	push_args 1 1 1
	buildh0_put_a _Nil 3
	jmp_ne_desc _Nothing 0 3 case.241
	dup_a 3
	updatepop_a 1 2
.d 4 0 
	jmp s74
case.241
	push_args 3 1 1
	dup_a 4
	update_a 1 3
.d 5 0 
	pop_a_jmp 2 s76
.o 5 0 
s76
	jmp_ne_desc e_Data.Set_kBin 0 3 case.243
	push_r_args 3 3 1
	pop_b 1
	push_a2 0 4
	jsr_eval 0
	push_a 5
.d 3 0 
	jsr_i 2
.o 0 1 b
	jmp_true else.244
	update_a 2 6
.d 5 0 
	pop_a_jmp 3 s76
else.244
	push_jsr_eval 5
	push_a2 4 1
	updates2_a_pop_a 0 2 3 1
.d 3 0 
	jsr_i 2
.o 0 1 b
	jmp_true else.245
	dup_a 5
.d 5 0 
	pop_a_jmp 2 s76
else.245
	pop_a_jmp 2 case.243
case.243
	fill_a 3 4
.d 1 0 
	pop_a_rtn 4
.o 4 0 
s75
	jmp_ne_desc e_Data.Set_kBin 0 2 case.247
	push_r_args 2 3 1
	push_a 3
	updates2_a 5 2 3
	pop_b 1
.d 3 0 
	jsr_i 2
.o 0 1 b
	jmp_true else.248
.d 4 0 
	put_a_jmp 3 s75
else.248
	pop_a_jmp 1 case.247
case.247
	fill_a 2 3
.d 1 0 
	pop_a_rtn 3
.o 4 0 
s74
	jmp_ne_desc e_Data.Set_kBin 0 2 case.250
	push_r_args 2 3 1
	push_a 3
	updates2_a 5 1 2
	pop_b 1
.d 3 0 
	jsr_i 2
.o 0 1 b
	jmp_true else.251
.d 4 0 
	put_a_jmp 3 s74
else.251
	pop_a_jmp 1 case.250
case.250
	fill_a 2 3
.d 1 0 
	pop_a_rtn 3
.export e_Data.Set_sdifference
.export e_Data.Set_eadifference
.descexp e_Data.Set_ddifference e_Data.Set_ndifference e_Data.Set_ldifference 3 0 "difference"
.a 3 e_Data.Set_eadifference
.o 2 0 
e_Data.Set_ldifference
	push_args 0 2 2
	update_a 3 2
	create 
.d 4 0 
	put_a_jmp 4 e_Data.Set_eadifference
.n 3 e_Data.Set_ddifference e_Data.Set_eadifference
.o 1 0 
e_Data.Set_ndifference
	push_node _cycle_in_spine 3
.o 4 0 
e_Data.Set_eadifference
	jsr_eval 2
	jsr_eval 1
	jsr_eval 0
	repl_r_args 1 0
.o 4 0 
e_Data.Set_sdifference
.o 4 0 
s17
	jmp_ne_desc e_Data.Set_dTip 0 1 case.253
	fillh e_Data.Set_dTip 0 3
.d 1 0 
	pop_a_rtn 3
case.253
	push_a 2
	update3pop_a 0 1
s158
	jmp_ne_desc e_Data.Set_kBin 0 0 case.255
	repl_r_args 3 1
	pop_b 1
	push_a2 0 3
	update_a 6 2
.d 3 0 
	jsr s22
.o 2 0 
	exchange_a 4 2
.d 7 0 
	jmp s157
case.255
	fill_a 2 3
.d 1 0 
	pop_a_rtn 3
.o 7 0 
s157
	create 
	push_a2 1 3
	updates2_a 7 2 3
.d 4 0 
	buildh0_put_a_jsr _Nil 8 s17
.o 1 0 
	create 
	updates4_a 0 4 3 1 5
.d 4 0 
	pop_a_jsr 1 s17
.o 1 0 
.d 1 0 
	push_a_jsr 2 s156
.o 0 1 i
.d 1 0 
	push_a_jsr 0 s155
.o 0 1 i
.d 1 0 
	push_a_jsr 1 s154
.o 0 1 i
	addI
	jmp_neI else.256
	fill_a 2 3
.d 1 0 
	pop_a_rtn 3
else.256
.d 3 0 
	put_a_jmp 2 s69
.o 1 0 
s156
	jmp_ne_desc e_Data.Set_dTip 0 0 case.258
	pushI 0
.d 0 1 i
	pop_a_rtn 1
case.258
	repl_r_args 3 1
.d 0 1 i
	pop_a_rtn 3
.o 1 0 
s155
	jmp_ne_desc e_Data.Set_dTip 0 0 case.260
	pushI 0
.d 0 1 i
	pop_a_rtn 1
case.260
	repl_r_args 3 1
.d 0 1 i
	pop_a_rtn 3
.o 1 0 
s154
	jmp_ne_desc e_Data.Set_dTip 0 0 case.262
	pushI 0
.d 0 1 i
	pop_a_rtn 1
case.262
	repl_r_args 3 1
.d 0 1 i
	pop_a_rtn 3
.o 3 0 
s69
	jmp_ne_desc e_Data.Set_kBin 0 0 case.264
	push_r_args 0 3 1
	jmp_eq_desc e_Data.Set_kBin 0 4 case.266
	pop_b 1
	pop_a_jmp 3 case.265
case.266
	push_r_args 4 3 1
	push_b 1
	pushI 3
	mulI
	push_b 0
	update_b 2 1
	jmp_geI else.267
	create 
	update_a 7 8
	update2_a 0 5
	update_a 2 4
	push_a 7
	updates2pop_a 0 4 8
.d 3 0 
	pop_b_jsr 2 s69
.o 1 0 
	updates2_a 0 2 3
.d 4 0 
	pop_a_jmp 1 s71
else.267
	push_b 0
	pushI 3
	mulI
	push_b 0
	update_b 3 1
	jmp_geI else.268
	create 
	dup_a 3
	update_a 8 2
	updatepop_a 6 1
	pop_b 2
	buildh0_dup_a _Nil 8
	put_a 6
.d 3 0 
	jsr s69
.o 1 0 
	dup_a 5
	update2pop_a 1 3
.d 4 0 
	jmp s72
else.268
	pop_b 2
.d 3 0 
	pop_a_jmp 6 s70
case.264
	fill_a 1 2
.d 1 0 
	pop_a_rtn 2
case.265
	fill_a 0 2
.d 1 0 
	pop_a_rtn 2
.export e_Data.Set_ssplit
.descexp e_Data.Set_dsplit e_Data.Set_nsplit e_Data.Set_lsplit 3 0 "split"
.a 0 a22
.o 2 0 
e_Data.Set_lsplit
	repl_args 2 2
.o 3 0 
a22
.d 3 0 
	jsr ea22
.o 2 0 
	buildh _Tuple 2
.d 1 0 
	rtn 
.n 3 e_Data.Set_dsplit
.o 1 0 
e_Data.Set_nsplit
	push_node _cycle_in_spine 3
.d 3 0 
	jsr ea22
.o 2 0 
	fillh _Tuple 2 2
.d 1 0 
	rtn 
.o 3 0 
ea22
	jsr_eval 2
	jsr_eval 1
	jsr_eval 0
	repl_r_args 1 0
.o 3 0 
e_Data.Set_ssplit
.o 3 0 
s22
	jmp_ne_desc e_Data.Set_kBin 0 2 case.270
	push_r_args 2 3 1
	buildh _Nil 0
	push2_a 5
	updates2_a 3 2 8
	pop_b 1
.d 3 0 
	jsr_i 2
.o 0 1 b
	jmp_false else.271
	updates3_a 0 4 2 5
	exchange_a 3 1
.d 3 0 
	pop_a_jsr 1 s22
.o 2 0 
	create 
	swap_a 3
	push_update_a 2 4
	updates2_a 0 2 5
.d 4 0 
	pop_a_jsr 1 s66
.o 1 0 
	swap_a1 
.d 2 0 
	rtn 
else.271
	push_a2 4 0
	push_a 5
.d 3 0 
	jsr_i 2
.o 0 1 b
	jmp_false else.272
	updates4_a 4 2 3 1 5
	put_a 4
.d 3 0 
	jsr s22
.o 2 0 
	create 
	swap_a 3
	push_update_a 4 2
	updates2_a 0 2 3
.d 4 0 
	pop_a_jsr 1 s66
.o 1 0 
.d 2 0 
	rtn 
else.272
	update2pop_a 1 4
.d 2 0 
	rtn 
case.270
	updatepop_a 2 1
.d 2 0 
	rtn 
.export e_Data.Set_sunion
.export e_Data.Set_eaunion
.descexp e_Data.Set_dunion e_Data.Set_nunion e_Data.Set_lunion 3 0 "union"
.a 3 e_Data.Set_eaunion
.o 2 0 
e_Data.Set_lunion
	push_args 0 2 2
	update_a 3 2
	create 
.d 4 0 
	put_a_jmp 4 e_Data.Set_eaunion
.n 3 e_Data.Set_dunion e_Data.Set_eaunion
.o 1 0 
e_Data.Set_nunion
	push_node _cycle_in_spine 3
.o 4 0 
e_Data.Set_eaunion
	jsr_eval 2
	jsr_eval 1
	jsr_eval 0
	repl_r_args 1 0
.o 4 0 
e_Data.Set_sunion
.o 4 0 
s16
	jmp_ne_desc e_Data.Set_dTip 0 2 case.274
	fill_a 1 3
.d 1 0 
	pop_a_rtn 3
case.274
	push_r_args 2 3 1
	pop_b 1
	jmp_eq_desc e_Data.Set_dTip 0 1 case.276
	pop_a_jmp 3 case.275
case.276
	jmp_eq_desc e_Data.Set_dTip 0 2 case.277
	pop_a_jmp 3 case.275
case.277
	updates2_a 0 4 5
.d 4 0 
	pop_a_jmp 3 s6
case.275
	jmp_ne_desc e_Data.Set_kBin 0 1 case.279
	push_r_args 1 3 1
	buildh0_put_a _Nil 5
	pop_b 1
	jmp_ne_desc e_Data.Set_dTip 0 1 case.281
	jmp_ne_desc e_Data.Set_dTip 0 2 case.281
	dup_a 4
.d 4 0 
	pop_a_jmp 3 s6
case.281
	push_a2 5 0
	push_a 5
.d 3 0 
	buildh0_put_a_jsr _Nil 9 s63
.o 2 0 
	create 
	push_a2 5 6
	push_update_a 4 3
	updates2_a_pop_a 0 3 4 1
.d 4 0 
	buildh0_put_a_jsr _Nil 8 s16
.o 1 0 
	create 
	push_a2 2 4
	push_a 8
	buildh0_dup_a _Nil 10
	dup_a 8
	put_a 6
.d 4 0 
	jsr s16
.o 1 0 
	update2_a 0 7
	updatepop_a 3 6
.d 4 0 
	jmp s66
case.279
	fill_a 2 3
.d 1 0 
	pop_a_rtn 3
.o 3 0 
s63
	jmp_ne_desc e_Data.Set_dTip 0 2 case.284
	buildh0_dup_a e_Data.Set_dTip 3
	pop_a 3
	buildh e_Data.Set_dTip 0
.d 2 0 
	rtn 
case.284
	push_r_args 2 3 1
	buildh _Nil 0
	push2_a 5
	updates2_a 3 2 8
	pop_b 1
.d 3 0 
	jsr_i 2
.o 0 1 b
	jmp_false else.285
	updates3_a 0 4 2 5
	exchange_a 3 1
.d 3 0 
	pop_a_jsr 1 s63
.o 2 0 
	create 
	swap_a 3
	push_update_a 2 4
	updates2_a 0 2 5
.d 4 0 
	pop_a_jsr 1 s66
.o 1 0 
	swap_a1 
.d 2 0 
	rtn 
else.285
	push_a2 4 0
	push_a 5
.d 3 0 
	jsr_i 2
.o 0 1 b
	jmp_false else.286
	updates4_a 4 2 3 1 5
	put_a 4
.d 3 0 
	jsr s63
.o 2 0 
	create 
	swap_a 3
	push_update_a 4 2
	updates2_a 0 2 3
.d 4 0 
	pop_a_jsr 1 s66
.o 1 0 
.d 2 0 
	rtn 
else.286
	update2pop_a 1 4
.d 2 0 
	rtn 
.export e_Data.Set_smaxView
.export e_Data.Set_eamaxView
.descexp e_Data.Set_dmaxView e_Data.Set_nmaxView e_Data.Set_lmaxView 1 0 "maxView"
.o 2 0 
e_Data.Set_lmaxView
	update_a 1 0
	create 
.d 2 0 
	put_a_jmp 2 e_Data.Set_eamaxView
.n 1 e_Data.Set_dmaxView e_Data.Set_eamaxView
.o 1 0 
e_Data.Set_nmaxView
	push_node _cycle_in_spine 1
.o 2 0 
e_Data.Set_eamaxView
	jsr_eval 0
.o 2 0 
e_Data.Set_smaxView
.o 2 0 
s15
	jmp_ne_desc e_Data.Set_dTip 0 0 case.288
	fillh _Nothing 0 1
.d 1 0 
	pop_a_rtn 1
case.288
.d 1 0 
	jsr s13
.o 2 0 
	buildh _Tuple 2
	fillh _Just 1 1
.d 1 0 
	rtn 
.export e_Data.Set_sminView
.export e_Data.Set_eaminView
.descexp e_Data.Set_dminView e_Data.Set_nminView e_Data.Set_lminView 1 0 "minView"
.o 2 0 
e_Data.Set_lminView
	update_a 1 0
	create 
.d 2 0 
	put_a_jmp 2 e_Data.Set_eaminView
.n 1 e_Data.Set_dminView e_Data.Set_eaminView
.o 1 0 
e_Data.Set_nminView
	push_node _cycle_in_spine 1
.o 2 0 
e_Data.Set_eaminView
	jsr_eval 0
.o 2 0 
e_Data.Set_sminView
.o 2 0 
s14
	jmp_ne_desc e_Data.Set_dTip 0 0 case.290
	fillh _Nothing 0 1
.d 1 0 
	pop_a_rtn 1
case.290
.d 1 0 
	jsr s12
.o 2 0 
	buildh _Tuple 2
	fillh _Just 1 1
.d 1 0 
	rtn 
.export e_Data.Set_sdeleteMax
.export e_Data.Set_eadeleteMax
.descexp e_Data.Set_ddeleteMax e_Data.Set_ndeleteMax e_Data.Set_ldeleteMax 1 0 "deleteMax"
.o 2 0 
e_Data.Set_ldeleteMax
	update_a 1 0
	create 
.d 2 0 
	put_a_jmp 2 e_Data.Set_eadeleteMax
.n 1 e_Data.Set_ddeleteMax e_Data.Set_eadeleteMax
.o 1 0 
e_Data.Set_ndeleteMax
	push_node _cycle_in_spine 1
.o 2 0 
e_Data.Set_eadeleteMax
	jsr_eval 0
.o 2 0 
e_Data.Set_sdeleteMax
.o 2 0 
s11
	jmp_ne_desc e_Data.Set_kBin 0 0 case.292
	repl_r_args 3 1
	pop_b 1
	jmp_ne_desc e_Data.Set_dTip 0 2 case.294
	fill_a 1 3
.d 1 0 
	pop_a_rtn 3
case.294
	create 
	push_a 3
.d 2 0 
	buildh0_put_a_jsr _Nil 5 s11
.o 1 0 
.d 4 0 
	put_a_jmp 3 s71
case.292
	fillh e_Data.Set_dTip 0 1
.d 1 0 
	pop_a_rtn 1
.export e_Data.Set_sdeleteMin
.export e_Data.Set_eadeleteMin
.descexp e_Data.Set_ddeleteMin e_Data.Set_ndeleteMin e_Data.Set_ldeleteMin 1 0 "deleteMin"
.o 2 0 
e_Data.Set_ldeleteMin
	update_a 1 0
	create 
.d 2 0 
	put_a_jmp 2 e_Data.Set_eadeleteMin
.n 1 e_Data.Set_ddeleteMin e_Data.Set_eadeleteMin
.o 1 0 
e_Data.Set_ndeleteMin
	push_node _cycle_in_spine 1
.o 2 0 
e_Data.Set_eadeleteMin
	jsr_eval 0
.o 2 0 
e_Data.Set_sdeleteMin
.o 2 0 
s10
	jmp_ne_desc e_Data.Set_kBin 0 0 case.296
	repl_r_args 3 1
	pop_b 1
	jmp_ne_desc e_Data.Set_dTip 0 1 case.298
	fill_a 2 3
.d 1 0 
	pop_a_rtn 3
case.298
	create 
	push_a 2
	update3pop_a 0 1
.d 2 0 
	jsr s10
.o 1 0 
	swap_a1 
.d 4 0 
	jmp s72
case.296
	fillh e_Data.Set_dTip 0 1
.d 1 0 
	pop_a_rtn 1
.export e_Data.Set_sfindMax
.descexp e_Data.Set_dfindMax e_Data.Set_nfindMax e_Data.Set_lfindMax 1 0 "findMax"
.o 2 0 
e_Data.Set_lfindMax
.d 1 0 
	pop_a_jmp 1 ea9
.n 1 e_Data.Set_dfindMax _
.o 1 0 
e_Data.Set_nfindMax
	push_node _cycle_in_spine 1
.d 1 0 
	jsr ea9
.o 1 0 
.d 1 0 
	fill_a01_pop_rtn 
.o 1 0 
ea9
	jsr_eval 0
.o 1 0 
e_Data.Set_sfindMax
.o 1 0 
s9
	jmp_ne_desc e_Data.Set_kBin 0 0 case.300
	repl_r_args 3 1
	put_a 1
	pop_b 1
	jmp_ne_desc e_Data.Set_dTip 0 1 case.302
	put_a 1
.d 1 0 
	rtn 
case.302
.d 1 0 
	pop_a_jmp 1 s9
case.300
	buildAC "Set.findMax: empty set has no maximal element"
	put_a 1
.d 1 0 
	jsr print_string_
.o 0 0 
	halt
.d 1 0 
	rtn 
.export e_Data.Set_sfindMin
.descexp e_Data.Set_dfindMin e_Data.Set_nfindMin e_Data.Set_lfindMin 1 0 "findMin"
.o 2 0 
e_Data.Set_lfindMin
.d 1 0 
	pop_a_jmp 1 ea8
.n 1 e_Data.Set_dfindMin _
.o 1 0 
e_Data.Set_nfindMin
	push_node _cycle_in_spine 1
.d 1 0 
	jsr ea8
.o 1 0 
.d 1 0 
	fill_a01_pop_rtn 
.o 1 0 
ea8
	jsr_eval 0
.o 1 0 
e_Data.Set_sfindMin
.o 1 0 
s8
	jmp_ne_desc e_Data.Set_kBin 0 0 case.304
	repl_r_args 3 1
	update2pop_a 0 1
	pop_b 1
	jmp_ne_desc e_Data.Set_dTip 0 1 case.306
	put_a 1
.d 1 0 
	rtn 
case.306
.d 1 0 
	pop_a_jmp 1 s8
case.304
	buildAC "Set.findMin: empty set has no minimal element"
	put_a 1
.d 1 0 
	jsr print_string_
.o 0 0 
	halt
.d 1 0 
	rtn 
.export e_Data.Set_sdelete
.export e_Data.Set_eadelete
.descexp e_Data.Set_ddelete e_Data.Set_ndelete e_Data.Set_ldelete 3 0 "delete"
.a 3 e_Data.Set_eadelete
.o 2 0 
e_Data.Set_ldelete
	push_args 0 2 2
	update_a 3 2
	create 
.d 4 0 
	put_a_jmp 4 e_Data.Set_eadelete
.n 3 e_Data.Set_ddelete e_Data.Set_eadelete
.o 1 0 
e_Data.Set_ndelete
	push_node _cycle_in_spine 3
.o 4 0 
e_Data.Set_eadelete
	jsr_eval 2
	jsr_eval 1
	jsr_eval 0
	repl_r_args 1 0
.o 4 0 
e_Data.Set_sdelete
.o 4 0 
s7
	jmp_ne_desc e_Data.Set_kBin 0 2 case.308
	push_r_args 2 3 1
	buildh _Nil 0
	push2_a 5
	updates2_a 3 2 8
	pop_b 1
.d 3 0 
	jsr_i 2
.o 0 1 b
	jmp_false else.309
	create 
	updates4_a 1 5 2 3 6
	updates2_a 0 4 1
.d 4 0 
	pop_a_jsr 1 s7
.o 1 0 
	swap_a1 
.d 4 0 
	jmp s72
else.309
	push_a2 4 0
	push_a 5
.d 3 0 
	jsr_i 2
.o 0 1 b
	jmp_false else.310
	create 
	updates4_a 4 1 5 2 6
	put_a 4
.d 4 0 
	jsr s7
.o 1 0 
	push_a 1
	updates3pop_a 0 1 3 2
.d 4 0 
	jmp s71
else.310
	update2pop_a 1 4
.d 3 0 
	jmp s70
case.308
	fill_a 2 3
.d 1 0 
	pop_a_rtn 3
.o 3 0 
s70
	jmp_ne_desc e_Data.Set_dTip 0 0 case.312
	fill_a 1 2
.d 1 0 
	pop_a_rtn 2
case.312
	jmp_ne_desc e_Data.Set_dTip 0 1 case.314
	fill_a 0 2
.d 1 0 
	pop_a_rtn 2
case.314
.d 1 0 
	push_a_jsr 0 s153
.o 0 1 i
.d 1 0 
	push_a_jsr 1 s152
.o 0 1 i
	jmp_geI else.315
.d 1 0 
	jsr s13
.o 2 0 
.d 4 0 
	jmp s72
else.315
	swap_a1 
.d 1 0 
	jsr s12
.o 2 0 
	exchange_a 2 1
.d 4 0 
	jmp s71
.o 1 0 
s153
	jmp_ne_desc e_Data.Set_dTip 0 0 case.317
	pushI 0
.d 0 1 i
	pop_a_rtn 1
case.317
	repl_r_args 3 1
.d 0 1 i
	pop_a_rtn 3
.o 1 0 
s152
	jmp_ne_desc e_Data.Set_dTip 0 0 case.319
	pushI 0
.d 0 1 i
	pop_a_rtn 1
case.319
	repl_r_args 3 1
.d 0 1 i
	pop_a_rtn 3
.export e_Data.Set_sdeleteFindMin
.descexp e_Data.Set_ddeleteFindMin e_Data.Set_ndeleteFindMin e_Data.Set_ldeleteFindMin 1 0 "deleteFindMin"
.o 2 0 
e_Data.Set_ldeleteFindMin
.d 1 0 
	pop_a_jsr 1 ea12
.o 2 0 
	buildh _Tuple 2
.d 1 0 
	rtn 
.n 1 e_Data.Set_ddeleteFindMin
.o 1 0 
e_Data.Set_ndeleteFindMin
	push_node _cycle_in_spine 1
.d 1 0 
	jsr ea12
.o 2 0 
	fillh _Tuple 2 2
.d 1 0 
	rtn 
.o 1 0 
ea12
	jsr_eval 0
.o 1 0 
e_Data.Set_sdeleteFindMin
.o 1 0 
s12
	jmp_ne_desc e_Data.Set_kBin 0 0 case.321
	repl_r_args 3 1
	pop_b 1
	jmp_ne_desc e_Data.Set_dTip 0 1 case.323
	put_a 1
.d 2 0 
	rtn 
case.323
	swap_a1 
.d 1 0 
	jsr s12
.o 2 0 
	create 
	swap_a 3
	push_update_a 2 4
	updates2_a 0 2 5
.d 4 0 
	pop_a_jsr 1 s72
.o 1 0 
	swap_a1 
.d 2 0 
	rtn 
case.321
	buildh e_Data.Set_dTip 0
	buildAC "Set.deleteFindMin: can not return the minimal element of an empty set"
.d 1 0 
	jsr print_string_
.o 0 0 
	halt
	update2pop_a 0 1
.d 2 0 
	rtn 
.export e_Data.Set_sdeleteFindMax
.descexp e_Data.Set_ddeleteFindMax e_Data.Set_ndeleteFindMax e_Data.Set_ldeleteFindMax 1 0 "deleteFindMax"
.o 2 0 
e_Data.Set_ldeleteFindMax
.d 1 0 
	pop_a_jsr 1 ea13
.o 2 0 
	buildh _Tuple 2
.d 1 0 
	rtn 
.n 1 e_Data.Set_ddeleteFindMax
.o 1 0 
e_Data.Set_ndeleteFindMax
	push_node _cycle_in_spine 1
.d 1 0 
	jsr ea13
.o 2 0 
	fillh _Tuple 2 2
.d 1 0 
	rtn 
.o 1 0 
ea13
	jsr_eval 0
.o 1 0 
e_Data.Set_sdeleteFindMax
.o 1 0 
s13
	jmp_ne_desc e_Data.Set_kBin 0 0 case.325
	repl_r_args 3 1
	pop_b 1
	jmp_ne_desc e_Data.Set_dTip 0 2 case.327
	update2pop_a 0 1
.d 2 0 
	rtn 
case.327
	push_a 2
.d 1 0 
	buildh0_put_a_jsr _Nil 4 s13
.o 2 0 
	create 
	updates4_a 4 2 3 1 5
	put_a 4
.d 4 0 
	jsr s71
.o 1 0 
	swap_a1 
.d 2 0 
	rtn 
case.325
	buildh e_Data.Set_dTip 0
	buildAC "Set.deleteFindMax: can not return the maximal element of an empty set"
.d 1 0 
	jsr print_string_
.o 0 0 
	halt
	update2pop_a 0 1
.d 2 0 
	rtn 
.export e_Data.Set_sinsert
.export e_Data.Set_eainsert
.descexp e_Data.Set_dinsert e_Data.Set_ninsert e_Data.Set_linsert 3 0 "insert"
.a 3 e_Data.Set_eainsert
.o 2 0 
e_Data.Set_linsert
	push_args 0 2 2
	update_a 3 2
	create 
.d 4 0 
	put_a_jmp 4 e_Data.Set_eainsert
.n 3 e_Data.Set_dinsert e_Data.Set_eainsert
.o 1 0 
e_Data.Set_ninsert
	push_node _cycle_in_spine 3
.o 4 0 
e_Data.Set_eainsert
	jsr_eval 2
	jsr_eval 1
	jsr_eval 0
	repl_r_args 1 0
.o 4 0 
e_Data.Set_sinsert
.o 4 0 
s6
	jmp_ne_desc e_Data.Set_kBin 0 2 case.329
	push_r_args 2 3 1
	pop_b 1
	push_a 0
	push2_a 5
.d 3 0 
	jsr_i 2
.o 0 1 b
	jmp_false else.330
	create 
	updates4_a 1 5 2 3 6
	updates2_a 0 4 1
.d 4 0 
	pop_a_jsr 1 s6
.o 1 0 
	swap_a1 
.d 4 0 
	jmp s71
else.330
	push_a2 4 0
	push_a 5
.d 3 0 
	jsr_i 2
.o 0 1 b
	jmp_false else.331
	create 
	updates4_a 4 1 5 2 6
	put_a 4
.d 4 0 
	jsr s6
.o 1 0 
	push_a 1
	updates3pop_a 0 1 3 2
.d 4 0 
	jmp s72
else.331
	fill_a 5 6
.d 1 0 
	pop_a_rtn 6
case.329
	updatepop_a 1 2
.d 2 0 
	jmp s5
.export e_Data.Set_snewSet
.export e_Data.Set_eanewSet
.descexp e_Data.Set_dnewSet e_Data.Set_nnewSet e_Data.Set_lnewSet 0 0 "newSet"
.o 1 0 
e_Data.Set_lnewSet
	halt
.n 0 e_Data.Set_dnewSet e_Data.Set_eanewSet
.o 1 0 
e_Data.Set_nnewSet
	push_node _cycle_in_spine 0
.o 1 0 
e_Data.Set_eanewSet
.o 1 0 
e_Data.Set_snewSet
.o 1 0 
s4
	fillh e_Data.Set_dTip 0 0
.d 1 0 
	rtn 
.export e_Data.Set_sisSubsetOfX
.descexp e_Data.Set_disSubsetOfX e_Data.Set_nisSubsetOfX e_Data.Set_lisSubsetOfX 3 0 "isSubsetOfX"
.a 0 a3
.o 2 0 
e_Data.Set_lisSubsetOfX
	repl_args 2 2
.o 3 0 
a3
.d 3 0 
	jsr ea3
.o 0 1 b
	buildB_b 0
.d 1 0 
	pop_b_rtn 1
.n 3 e_Data.Set_disSubsetOfX
.o 1 0 
e_Data.Set_nisSubsetOfX
	push_node _cycle_in_spine 3
.d 3 0 
	jsr ea3
.o 0 1 b
	fillB_b 0 0
.d 1 0 
	pop_b_rtn 1
.o 3 0 
ea3
	jsr_eval 2
	jsr_eval 1
	jsr_eval 0
	repl_r_args 1 0
.o 3 0 
e_Data.Set_sisSubsetOfX
.o 3 0 
s3
	jmp_ne_desc e_Data.Set_kBin 0 1 case.333
	push_r_args 1 3 1
	buildh0_put_a _Nil 5
	pop_b 1
	jmp_ne_desc e_Data.Set_dTip 0 5 else.334
	pushB FALSE
.d 0 1 b
	pop_a_rtn 6
else.334
	push_a2 0 3
	update_a 7 2
.d 3 0 
	buildh0_put_a_jsr _Nil 8 s23
.o 2 1 b
	jmp_b_false 0 else.335
	push_a2 4 2
	updates3_a 0 2 3 4
	pop_b 1
.d 3 0 
	pop_a_jsr 1 s3
.o 0 1 b
	jmp_false else.336
	dup_a 4
	update_a 1 3
.d 3 0 
	pop_a_jmp 2 s3
else.336
	pushB FALSE
.d 0 1 b
	pop_a_rtn 5
else.335
	pop_b_pushB 1 FALSE
.d 0 1 b
	pop_a_rtn 7
case.333
	pushB TRUE
.d 0 1 b
	pop_a_rtn 3
.export e_Data.Set_ssplitMember
.descexp e_Data.Set_dsplitMember e_Data.Set_nsplitMember e_Data.Set_lsplitMember 3 0 "splitMember"
.a 0 a23
.o 2 0 
e_Data.Set_lsplitMember
	repl_args 2 2
.o 3 0 
a23
.d 3 0 
	jsr ea23
.o 2 1 b
	push_a 1
	buildB_b 0
	push_a 2
	buildh _Tuple 3
	updatepop_a 0 2
.d 1 0 
	pop_b_rtn 1
.n 3 e_Data.Set_dsplitMember
.o 1 0 
e_Data.Set_nsplitMember
	push_node _cycle_in_spine 3
.d 3 0 
	jsr ea23
.o 2 1 b
	push_a 1
	buildB_b 0
	push_a 2
	fillh _Tuple 3 5
.d 1 0 
	pop_ab_rtn 2 1
.o 3 0 
ea23
	jsr_eval 2
	jsr_eval 1
	jsr_eval 0
	repl_r_args 1 0
.o 3 0 
e_Data.Set_ssplitMember
.o 3 0 
s23
	jmp_ne_desc e_Data.Set_kBin 0 2 case.338
	push_r_args 2 3 1
	buildh _Nil 0
	push2_a 5
	updates2_a 3 2 8
	pop_b 1
.d 3 0 
	jsr_i 2
.o 0 1 b
	jmp_false else.339
	updates3_a 0 4 2 5
	exchange_a 3 1
.d 3 0 
	pop_a_jsr 1 s23
.o 2 1 b
	create 
	swap_a 3
	push_update_a 2 4
	updates2_a 0 2 5
.d 4 0 
	pop_a_jsr 1 s66
.o 1 0 
	swap_a1 
.d 2 1 b
	rtn 
else.339
	push_a2 4 0
	push_a 5
.d 3 0 
	jsr_i 2
.o 0 1 b
	jmp_false else.340
	updates4_a 4 2 3 1 5
	put_a 4
.d 3 0 
	jsr s23
.o 2 1 b
	create 
	swap_a 3
	push_update_a 4 2
	updates2_a 0 2 3
.d 4 0 
	pop_a_jsr 1 s66
.o 1 0 
.d 2 1 b
	rtn 
else.340
	update2pop_a 1 4
	pushB TRUE
.d 2 1 b
	rtn 
case.338
	updatepop_a 2 1
	pushB FALSE
.d 2 1 b
	rtn 
.o 4 0 
s66
	jmp_ne_desc e_Data.Set_kBin 0 1 case.342
	push_r_args 1 3 1
	jmp_eq_desc e_Data.Set_kBin 0 5 case.344
	pop_b 1
	pop_a_jmp 3 case.343
case.344
	push_r_args 5 3 1
	push_b 1
	pushI 3
	mulI
	push_b 0
	update_b 2 1
	jmp_geI else.345
	create 
	update_a 8 9
	update2_a 0 5
	updates2_a 7 2 4
	push_update_a 8 7
	updates2_a 0 4 8
	pop_b 2
.d 4 0 
	pop_a_jsr 3 s66
.o 1 0 
	update_a 2 4
	dup_a 3
	updatepop_a 1 2
.d 4 0 
	jmp s71
else.345
	push_b 0
	pushI 3
	mulI
	push_b 0
	update_b 3 1
	jmp_geI else.346
	create 
	dup_a 3
	update_a 9 2
	update_a 6 1
	update_a 7 0
	pop_b 2
	buildh0_dup_a _Nil 10
	put_a 7
.d 4 0 
	jsr s66
.o 1 0 
	dup_a 6
	update2pop_a 1 4
.d 4 0 
	jmp s72
else.346
	updatepop_a 8 5
.d 1 0 
	pop_b_jsr 2 s150
.o 0 1 i
.d 1 0 
	push_a_jsr 1 s149
.o 0 1 i
	addI
	incI
	push3_a 2
	fill_r e_Data.Set_kBin 3 1 6 0 0
.d 1 0 
	pop_ab_rtn 6 1
case.342
.d 3 0 
	put_a_jmp 1 s68
case.343
	update2pop_a 0 1
.d 3 0 
	jmp s67
.o 1 0 
s150
	jmp_ne_desc e_Data.Set_dTip 0 0 case.348
	pushI 0
.d 0 1 i
	pop_a_rtn 1
case.348
	repl_r_args 3 1
.d 0 1 i
	pop_a_rtn 3
.o 1 0 
s149
	jmp_ne_desc e_Data.Set_dTip 0 0 case.350
	pushI 0
.d 0 1 i
	pop_a_rtn 1
case.350
	repl_r_args 3 1
.d 0 1 i
	pop_a_rtn 3
.o 3 0 
s67
	jmp_ne_desc e_Data.Set_kBin 0 1 case.352
	push_r_args 1 3 1
	buildh0_put_a _Nil 5
	pop_b 1
	create 
	updates3_a 0 3 2 5
	exchange_a 4 1
.d 3 0 
	pop_a_jsr 1 s67
.o 1 0 
	push_a 1
	updates3pop_a 0 1 3 2
.d 4 0 
	jmp s72
case.352
.d 2 0 
	put_a_jmp 1 s5
.o 3 0 
s68
	jmp_ne_desc e_Data.Set_kBin 0 1 case.354
	push_r_args 1 3 1
	buildh0_put_a _Nil 5
	pop_b 1
	create 
	updates2_a 0 3 5
	exchange_a 4 1
.d 3 0 
	pop_a_jsr 1 s68
.o 1 0 
	swap_a1 
.d 4 0 
	jmp s71
case.354
.d 2 0 
	put_a_jmp 1 s5
.export e_Data.Set_ssingleton
.export e_Data.Set_easingleton
.descexp e_Data.Set_dsingleton e_Data.Set_nsingleton e_Data.Set_lsingleton 1 0 "singleton"
.o 2 0 
e_Data.Set_lsingleton
	update_a 1 0
	create 
.d 2 0 
	put_a_jmp 2 e_Data.Set_easingleton
.n 1 e_Data.Set_dsingleton e_Data.Set_easingleton
.o 1 0 
e_Data.Set_nsingleton
	push_node _cycle_in_spine 1
.o 2 0 
e_Data.Set_easingleton
	jsr_eval 0
.o 2 0 
e_Data.Set_ssingleton
.o 2 0 
s5
	buildh e_Data.Set_dTip 0
	buildh e_Data.Set_dTip 0
	push_a 2
	pushI 1
	fill_r e_Data.Set_kBin 3 1 4 0 0
.d 1 0 
	pop_ab_rtn 4 1
.o 4 0 
s72
	push_a 1
	updates3pop_a 0 1 3 2
s148
	jmp_ne_desc e_Data.Set_kBin 0 0 case.356
	push_r_args 0 3 1
	push_a 4
	updates3pop_a 0 4 6 5
.d 4 1 i
	jmp s144
case.356
.d 3 0 
	pop_a_jmp 1 s147
.o 3 0 
s147
	jmp_ne_desc e_Data.Set_kBin 0 0 case.358
	push_r_args 0 3 1
	jmp_ne_desc e_Data.Set_kBin 0 1 case.360
	push_r_args 1 3 1
	jmp_ne_desc e_Data.Set_kBin 0 5 case.363
	push_r_args 5 3 1
	pop_a 3
	push_b 0
	pushI 2
	mulI
	jmp_o_geI 2 else.364
	buildh e_Data.Set_dTip 0
	push_b_incI 1
	push_a2 0 8
	update_a 7 2
	buildhr e_Data.Set_kBin 3 1
	push_b_incI 2
	push_a2 0 4
	update_a 8 2
	fill_r e_Data.Set_kBin 3 1 11 0 0
.d 1 0 
	pop_ab_rtn 11 4
else.364
.d 1 0 
	push_a_jsr 2 s146
.o 0 1 i
	push_b_incI 1
	addI
	push_a2 5 2
	push_a 5
	buildhr e_Data.Set_kBin 3 1
	buildh e_Data.Set_dTip 0
	push_a 3
	pop_b 2
	buildh0_dup_a _Nil 9
	dup2_a 6
.d 1 0 
	pop_a_jsr 1 s145
.o 0 1 i
	incI
	push_a2 0 9
	update_a 5 2
	buildhr e_Data.Set_kBin 3 1
	push_b_incI 0
	push_a 2
	fill_r e_Data.Set_kBin 3 1 11 0 0
.d 1 0 
	pop_ab_rtn 11 2
case.363
	buildh e_Data.Set_dTip 0
	buildh e_Data.Set_dTip 0
	push_a 5
	pushI 1
	buildhr e_Data.Set_kBin 3 1
	buildh e_Data.Set_dTip 0
	buildh e_Data.Set_dTip 0
	push_a 10
	pushI 1
	buildhr e_Data.Set_kBin 3 1
	push_a 2
	pushI 3
	fill_r e_Data.Set_kBin 3 1 11 0 0
.d 1 0 
	pop_ab_rtn 11 3
case.360
	jmp_ne_desc e_Data.Set_kBin 0 2 case.361
	buildh e_Data.Set_dTip 0
	buildh e_Data.Set_dTip 0
	push_a 6
	pushI 1
	buildhr e_Data.Set_kBin 3 1
	push_a2 0 1
	update_a 5 2
	pushI 3
	fill_r e_Data.Set_kBin 3 1 8 0 0
.d 1 0 
	pop_ab_rtn 8 2
case.361
	buildh e_Data.Set_dTip 0
	push_a2 0 5
	update_a 6 2
	pushI 2
	fill_r e_Data.Set_kBin 3 1 8 0 0
.d 1 0 
	pop_ab_rtn 8 2
case.358
	buildh e_Data.Set_dTip 0
	buildh e_Data.Set_dTip 0
	push_a 3
	pushI 1
	fill_r e_Data.Set_kBin 3 1 5 0 0
.d 1 0 
	pop_ab_rtn 5 1
.o 1 0 
s146
	jmp_ne_desc e_Data.Set_dTip 0 0 case.367
	pushI 0
.d 0 1 i
	pop_a_rtn 1
case.367
	repl_r_args 3 1
.d 0 1 i
	pop_a_rtn 3
.o 1 0 
s145
	jmp_ne_desc e_Data.Set_dTip 0 0 case.369
	pushI 0
.d 0 1 i
	pop_a_rtn 1
case.369
	repl_r_args 3 1
.d 0 1 i
	pop_a_rtn 3
.o 4 1 i
s144
	jmp_ne_desc e_Data.Set_kBin 0 0 case.371
	push_r_args 0 3 1
	push_b 1
	pushI 3
	mulI
	push_b 0
	update_b 2 1
	jmp_geI else.372
	push_a 1
	eq_desc e_Data.Set_kBin 0 0
	exit_false selector_m_error
	repl_r_args 3 1
	push_a 5
	eq_desc e_Data.Set_kBin 0 0
	exit_false selector_m_error
	repl_r_args 3 1
	pop_a 3
	push_b 0
	pushI 2
	mulI
	jmp_o_geI 2 else.373
	push_b_incI 3
	push_b 0
	update_b 3 1
	addI
	push_a 4
	push2_a 9
	buildhr e_Data.Set_kBin 3 1
	push_b_incI 3
	push_b 0
	update_b 4 1
	addI
	push_a2 0 4
	update_a 8 2
	fill_r e_Data.Set_kBin 3 1 12 0 0
.d 1 0 
	pop_ab_rtn 12 5
else.373
	push_jsr_eval 1
	push_jsr_eval 3
	push_a 0
	buildh0_dup2_a _Nil 5
.d 1 0 
	pop_a_jsr 1 s143
.o 0 1 i
	push_b_incI 1
	addI
	push_a2 7 0
	push_a 7
	buildhr e_Data.Set_kBin 3 1
	push_a 2
	pop_b 1
	buildh0_dup_a _Nil 10
	dup_a 8
	put_a 3
.d 1 0 
	jsr s142
.o 0 1 i
	push_b_incI 3
	addI
	push_a 2
	push2_a 12
	buildhr e_Data.Set_kBin 3 1
	push_jsr_eval 4
	push_b_incI 2
	push_b 0
	update_b 3 1
	addI
	fill_r e_Data.Set_kBin 3 1 14 0 0
.d 1 0 
	pop_ab_rtn 14 4
else.372
	push_b_incI 1
	push_b 0
	update_b 2 1
	addI
	push_a 3
	push2_a 6
	fill_r e_Data.Set_kBin 3 1 9 0 0
.d 1 0 
	pop_ab_rtn 9 3
case.371
	buildh e_Data.Set_dTip 0
	push_b_incI 0
	push2_a 3
	fill_r e_Data.Set_kBin 3 1 6 0 0
.d 1 0 
	pop_ab_rtn 6 2
.o 1 0 
s143
	jmp_ne_desc e_Data.Set_dTip 0 0 case.375
	pushI 0
.d 0 1 i
	pop_a_rtn 1
case.375
	repl_r_args 3 1
.d 0 1 i
	pop_a_rtn 3
.o 1 0 
s142
	jmp_ne_desc e_Data.Set_dTip 0 0 case.377
	pushI 0
.d 0 1 i
	pop_a_rtn 1
case.377
	repl_r_args 3 1
.d 0 1 i
	pop_a_rtn 3
.o 4 0 
s71
	swap_a 2
s141
	jmp_ne_desc e_Data.Set_kBin 0 0 case.379
	push_r_args 0 3 1
	push_a 4
	updates3pop_a 0 4 6 5
.d 4 1 i
	jmp s137
case.379
.d 3 0 
	pop_a_jmp 1 s140
.o 3 0 
s140
	jmp_ne_desc e_Data.Set_kBin 0 0 case.381
	push_r_args 0 3 1
	jmp_ne_desc e_Data.Set_kBin 0 1 case.383
	push_r_args 1 3 1
	pop_a 3
	jmp_ne_desc e_Data.Set_kBin 0 2 case.386
	push_r_args 2 3 1
	push_b 1
	pushI 2
	mulI
	jmp_o_geI 1 else.387
	buildh e_Data.Set_dTip 0
	push_b_incI 0
	push_a2 6 8
	buildhr e_Data.Set_kBin 3 1
	push_b_incI 2
	push2_a 5
	fill_r e_Data.Set_kBin 3 1 11 0 0
.d 1 0 
	pop_ab_rtn 11 4
else.387
	buildh e_Data.Set_dTip 0
	push_a 3
.d 1 0 
	pop_b_jsr 1 s139
.o 0 1 i
	incI
	push_a2 3 8
	buildhr e_Data.Set_kBin 3 1
	push_a 2
	buildh0_dup_a _Nil 10
	put_a 5
.d 1 0 
	jsr s138
.o 0 1 i
	push_b_incI 1
	addI
	push_a 2
	push2_a 6
	buildhr e_Data.Set_kBin 3 1
	push_b_incI 1
	push_a 2
	fill_r e_Data.Set_kBin 3 1 11 0 0
.d 1 0 
	pop_ab_rtn 11 3
case.386
	buildh e_Data.Set_dTip 0
	buildh e_Data.Set_dTip 0
	push_a 6
	pushI 1
	buildhr e_Data.Set_kBin 3 1
	push2_a 2
	pushI 3
	fill_r e_Data.Set_kBin 3 1 8 0 0
.d 1 0 
	pop_ab_rtn 8 3
case.383
	jmp_ne_desc e_Data.Set_kBin 0 2 case.384
	push_r_args 2 3 1
	buildh0_dup_a _Nil 6
	updatepop_a 1 3
	pop_b 1
	buildh e_Data.Set_dTip 0
	buildh e_Data.Set_dTip 0
	push_a 7
	pushI 1
	buildhr e_Data.Set_kBin 3 1
	buildh e_Data.Set_dTip 0
	buildh e_Data.Set_dTip 0
	push_a 4
	pushI 1
	buildhr e_Data.Set_kBin 3 1
	push_a 2
	pushI 3
	fill_r e_Data.Set_kBin 3 1 9 0 0
.d 1 0 
	pop_ab_rtn 9 2
case.384
	buildh e_Data.Set_dTip 0
	push_a2 4 5
	pushI 2
	fill_r e_Data.Set_kBin 3 1 8 0 0
.d 1 0 
	pop_ab_rtn 8 2
case.381
	buildh e_Data.Set_dTip 0
	buildh e_Data.Set_dTip 0
	push_a 3
	pushI 1
	fill_r e_Data.Set_kBin 3 1 5 0 0
.d 1 0 
	pop_ab_rtn 5 1
.o 1 0 
s139
	jmp_ne_desc e_Data.Set_dTip 0 0 case.390
	pushI 0
.d 0 1 i
	pop_a_rtn 1
case.390
	repl_r_args 3 1
.d 0 1 i
	pop_a_rtn 3
.o 1 0 
s138
	jmp_ne_desc e_Data.Set_dTip 0 0 case.392
	pushI 0
.d 0 1 i
	pop_a_rtn 1
case.392
	repl_r_args 3 1
.d 0 1 i
	pop_a_rtn 3
.o 4 1 i
s137
	jmp_ne_desc e_Data.Set_kBin 0 0 case.394
	push_r_args 0 3 1
	push_b 1
	pushI 3
	mulI
	push_b 0
	update_b 2 1
	jmp_geI else.395
	push_a 2
	eq_desc e_Data.Set_kBin 0 0
	exit_false selector_m_error
	repl_r_args 3 1
	push_a 4
	eq_desc e_Data.Set_kBin 0 0
	exit_false selector_m_error
	repl_r_args 3 1
	pop_a 3
	push_b 0
	pushI 2
	mulI
	jmp_o_geI 2 else.396
	push_b_incI 3
	push_b 0
	update_b 3 1
	addI
	push_a2 8 5
	push_a 9
	buildhr e_Data.Set_kBin 3 1
	push_b_incI 2
	push_b 0
	update_b 5 1
	addI
	push2_a 5
	fill_r e_Data.Set_kBin 3 1 12 0 0
.d 1 0 
	pop_ab_rtn 12 5
else.396
	push_jsr_eval 1
	push_jsr_eval 3
	push_a 0
	buildh0_dup2_a _Nil 5
.d 1 0 
	pop_a_jsr 1 s136
.o 0 1 i
	push_b_incI 4
	addI
	push_a2 10 0
	push_a 11
	buildhr e_Data.Set_kBin 3 1
	push_a 2
	buildh0_dup2_a _Nil 12
	put_a 3
.d 1 0 
	jsr s135
.o 0 1 i
	push_b_incI 1
	addI
	push_a 2
	push2_a 8
	buildhr e_Data.Set_kBin 3 1
	push_jsr_eval 4
	push_b_incI 2
	push_b 0
	update_b 5 1
	addI
	fill_r e_Data.Set_kBin 3 1 14 0 0
.d 1 0 
	pop_ab_rtn 14 5
else.395
	push_b_incI 0
	push_b 0
	update_b 3 1
	addI
	push_a2 5 3
	push_a 6
	fill_r e_Data.Set_kBin 3 1 9 0 0
.d 1 0 
	pop_ab_rtn 9 3
case.394
	buildh e_Data.Set_dTip 0
	push_b_incI 0
	push_a2 0 2
	update_a 5 2
	fill_r e_Data.Set_kBin 3 1 6 0 0
.d 1 0 
	pop_ab_rtn 6 2
.o 1 0 
s136
	jmp_ne_desc e_Data.Set_dTip 0 0 case.398
	pushI 0
.d 0 1 i
	pop_a_rtn 1
case.398
	repl_r_args 3 1
.d 0 1 i
	pop_a_rtn 3
.o 1 0 
s135
	jmp_ne_desc e_Data.Set_dTip 0 0 case.400
	pushI 0
.d 0 1 i
	pop_a_rtn 1
case.400
	repl_r_args 3 1
.d 0 1 i
	pop_a_rtn 3
.export e_Data.Set_sgetMember
.export e_Data.Set_eagetMember
.descexp e_Data.Set_dgetMember e_Data.Set_ngetMember e_Data.Set_lgetMember 3 0 "getMember"
.a 3 e_Data.Set_eagetMember
.o 2 0 
e_Data.Set_lgetMember
	push_args 0 2 2
	update_a 3 2
	create 
.d 4 0 
	put_a_jmp 4 e_Data.Set_eagetMember
.n 3 e_Data.Set_dgetMember e_Data.Set_eagetMember
.o 1 0 
e_Data.Set_ngetMember
	push_node _cycle_in_spine 3
.o 4 0 
e_Data.Set_eagetMember
	jsr_eval 2
	jsr_eval 1
	jsr_eval 0
	repl_r_args 1 0
.o 4 0 
e_Data.Set_sgetMember
.o 4 0 
s2
	jmp_ne_desc e_Data.Set_kBin 0 2 case.402
	push_r_args 2 3 1
	buildh _Nil 0
	push2_a 5
	updates2_a 3 2 8
	pop_b 1
.d 3 0 
	jsr_i 2
.o 0 1 b
	jmp_false else.403
	update_a 1 5
.d 4 0 
	pop_a_jmp 3 s2
else.403
	push_a2 0 3
	updates2_a 6 2 3
.d 3 0 
	jsr_i 2
.o 0 1 b
	jmp_false else.404
	update_a 1 4
.d 4 0 
	pop_a_jmp 2 s2
else.404
	push_a 0
	fillh _Just 1 6
.d 1 0 
	pop_a_rtn 5
case.402
	fillh _Nothing 0 3
.d 1 0 
	pop_a_rtn 3
.export e_Data.Set_smember
.descexp e_Data.Set_dmember e_Data.Set_nmember e_Data.Set_lmember 3 0 "member"
.a 0 a1
.o 2 0 
e_Data.Set_lmember
	repl_args 2 2
.o 3 0 
a1
.d 3 0 
	jsr ea1
.o 0 1 b
	buildB_b 0
.d 1 0 
	pop_b_rtn 1
.n 3 e_Data.Set_dmember
.o 1 0 
e_Data.Set_nmember
	push_node _cycle_in_spine 3
.d 3 0 
	jsr ea1
.o 0 1 b
	fillB_b 0 0
.d 1 0 
	pop_b_rtn 1
.o 3 0 
ea1
	jsr_eval 2
	jsr_eval 1
	jsr_eval 0
	repl_r_args 1 0
.o 3 0 
e_Data.Set_smember
.o 3 0 
s1
	jmp_ne_desc e_Data.Set_kBin 0 2 case.406
	push_r_args 2 3 1
	buildh _Nil 0
	push2_a 5
	updates2_a 3 2 8
	pop_b 1
.d 3 0 
	jsr_i 2
.o 0 1 b
	jmp_false else.407
	update_a 1 5
.d 3 0 
	pop_a_jmp 3 s1
else.407
	push_a 3
	update_a 5 2
.d 3 0 
	jsr_i 2
.o 0 1 b
	jmp_false else.408
.d 3 0 
	put_a_jmp 3 s1
else.408
	pushB TRUE
.d 0 1 b
	pop_a_rtn 4
case.406
	pushB FALSE
.d 0 1 b
	pop_a_rtn 3
.impmod _system
.implab selector_m_error
