.comp 920 000011110011000
.start _nostart_
.depend "StdCharList" "20210613154827"
.depend "_SystemArray" "20210613154827"
.depend "StdArray" "20210613154827"
.depend "StdEnv" "20210613154827"
.depend "_SystemEnum" "20210613154827"
.depend "StdEnum" "20210613154827"
.depend "StdTuple" "20210613154827"
.depend "StdOrdList" "20210613154827"
.depend "StdFile" "20210613154827"
.depend "StdString" "20210613154827"
.depend "StdMisc" "20210613154827"
.depend "StdFunctions" "20210613154827"
.depend "_SystemEnumStrict" "20210613154827"
.depend "_SystemStrictLists" "20210613154827"
.depend "StdStrictLists" "20210613154827"
.depend "StdReal" "20210613154827"
.depend "StdChar" "20210613154827"
.depend "StdInt" "20210613154827"
.depend "StdBool" "20210613154827"
.depend "StdClass" "20210613154827"
.depend "StdList" "20210613154827"
.depend "StdOverloaded" "20210613154827"
.depend "_SystemDynamic" "20210613154827"
.depend "symbols_in_program" "20210613154824"
.module m_symbols_in_program "symbols_in_program" "20210613154824"
.endinfo
.impmod _system
.implab _cycle_in_spine
.implab _type_error
.implab _hnf
.impdesc e_system_dind
.implab e_system_nind e_system_eaind
.impdesc e_system_dif
.implab e_system_nif e_system_eaif
.implab e_system_sif
.impdesc e_system_dAP
.implab e_system_nAP e_system_eaAP
.implab e_system_sAP
.impdesc ARRAY
.impdesc _Nil
.impdesc _Cons
.impdesc _Conss
.implab n_Conss ea_Conss
.impdesc _Consts
.implab n_Consts ea_Consts
.impdesc _Conssts
.implab n_Conssts ea_Conssts
.impdesc _Tuple
.impdesc d_S.1
.implab n_S.1 ea_S.1
.impdesc d_S.2
.implab n_S.2 ea_S.2
.impdesc d_S.3
.implab n_S.3 ea_S.3
.impdesc d_S.4
.implab n_S.4 ea_S.4
.impdesc d_S.5
.implab n_S.5 ea_S.5
.impdesc d_S.6
.implab n_S.6 ea_S.6
.implab _driver
.impmod _SystemArray
.impmod StdOrdList
.implab e_StdOrdList_ssortBy
.impmod StdFile
.implab e_StdFile_sfreadc
.implab e_StdFile_sfreadi
.implab e_StdFile_sfreads
.implab e_StdFile_sfseek
.implab e_StdFile_sfclose;27
.implab e_StdFile_sfopen;28
.impmod StdString
.implab e_StdString_s==;2
.implab e_StdString_s<;3
.implab e_StdString_s%;10
.implab e_StdString_s+++;11
.impmod StdMisc
.implab e_StdMisc_sabort
.impmod StdChar
.implab e_StdChar_s==;18
.implab e_StdChar_s<;19
.impmod StdInt
.implab e_StdInt_sbitand
.implab e_StdInt_s<<
.implab e_StdInt_s>>
.implab e_StdInt_s+;6
.implab e_StdInt_s-;7
.implab e_StdInt_sone;11
.implab e_StdInt_s==;16
.implab e_StdInt_s<;17
.impmod StdBool
.implab e_StdBool_snot
.export e_symbols_in_program_rSymbol
.record e_symbols_in_program_rSymbol ai 1 1 "Symbol"
.descexp e_symbols_in_program_tSymbol e_symbols_in_program_cSymbol _hnf 2 1 "Symbol"
.n 2 e_symbols_in_program_tSymbol
.o 1 0
e_symbols_in_program_cSymbol
	push_node _cycle_in_spine 2
	jsr_eval 1
	jsr_eval 0
	pushI_a 1
	push_array 0
	update_a 0 2
	pop_a 2
.impmod symbols_in_program
.impdesc e_symbols_in_program_rSymbol
	fill_r e_symbols_in_program_rSymbol 1 1 1 0 0
	pop_a 1
	pop_b 1
.d 1 0
	rtn
.export e_symbols_in_program_dSymbol.symbol_name
.export e_symbols_in_program_nSymbol.symbol_name
.desc e_symbols_in_program_dSymbol.symbol_name e_symbols_in_program_nSymbol.symbol_name _hnf 1 0 "Symbol.symbol_name"
.n 1 e_symbols_in_program_dSymbol.symbol_name
.o 1 0
e_symbols_in_program_nSymbol.symbol_name
	push_node _cycle_in_spine 1
	jsr_eval 0
	repl_r_args_a 1 1 1 1
	fillh ARRAY 1 1
.d 1 0
	rtn
.export e_symbols_in_program_dSymbol.symbol_value
.export e_symbols_in_program_nSymbol.symbol_value
.descs e_symbols_in_program_dSymbol.symbol_value e_symbols_in_program_nSymbol.symbol_value INT 2 0 "Symbol.symbol_value"
.n -3 e_symbols_in_program_dSymbol.symbol_value
.o 1 0
e_symbols_in_program_nSymbol.symbol_value
	push_node _cycle_in_spine 1
	jsr_eval 0
	push_r_args_b 0 1 1 1 1
	pop_a 1
	fillI_b 0 0
	pop_b 1
.d 1 0
	rtn
.export e_symbols_in_program_rSectionHeaders
.record e_symbols_in_program_rSectionHeaders iiiiii 0 6 "SectionHeaders"
.export e_symbols_in_program_tSectionHeaders
.export e_symbols_in_program_cSectionHeaders
.descn e_symbols_in_program_tSectionHeaders e_symbols_in_program_cSectionHeaders 6 1 "SectionHeaders"
.n 6 e_symbols_in_program_tSectionHeaders
.o 1 0
e_symbols_in_program_cSectionHeaders
	push_node _cycle_in_spine 6
	jsr_eval 5
	jsr_eval 4
	jsr_eval 3
	jsr_eval 2
	jsr_eval 1
	jsr_eval 0
	pushI_a 5
	pushI_a 4
	pushI_a 3
	pushI_a 2
	pushI_a 1
	pushI_a 0
	pop_a 6
.impdesc e_symbols_in_program_rSectionHeaders
	fill_r e_symbols_in_program_rSectionHeaders 0 6 0 0 0
	pop_b 6
.d 1 0
	rtn
.export e_symbols_in_program_sTD;SectionHeaders
.export e_symbols_in_program_eaTD;SectionHeaders
.descexp e_symbols_in_program_dTD;SectionHeaders e_symbols_in_program_nTD;SectionHeaders e_symbols_in_program_lTD;SectionHeaders 1 0 "TD;SectionHeaders"
.o 2 0
e_symbols_in_program_lTD;SectionHeaders
	update_a 1 0
	create
	update_a 0 2
	pop_a 1
.d 2 0
	jmp e_symbols_in_program_eaTD;SectionHeaders
.n 1 e_symbols_in_program_dTD;SectionHeaders e_symbols_in_program_eaTD;SectionHeaders
.o 1 0
e_symbols_in_program_nTD;SectionHeaders
	push_node _cycle_in_spine 1
.o 2 0
e_symbols_in_program_eaTD;SectionHeaders
.o 2 0
e_symbols_in_program_sTD;SectionHeaders
.o 2 0
s11
	fillh _Nil 0 1
	pop_a 1
.d 1 0
	rtn
.export e_symbols_in_program_sTD;Symbol
.export e_symbols_in_program_eaTD;Symbol
.descexp e_symbols_in_program_dTD;Symbol e_symbols_in_program_nTD;Symbol e_symbols_in_program_lTD;Symbol 1 0 "TD;Symbol"
.o 2 0
e_symbols_in_program_lTD;Symbol
	update_a 1 0
	create
	update_a 0 2
	pop_a 1
.d 2 0
	jmp e_symbols_in_program_eaTD;Symbol
.n 1 e_symbols_in_program_dTD;Symbol e_symbols_in_program_eaTD;Symbol
.o 1 0
e_symbols_in_program_nTD;Symbol
	push_node _cycle_in_spine 1
.o 2 0
e_symbols_in_program_eaTD;Symbol
.o 2 0
e_symbols_in_program_sTD;Symbol
.o 2 0
s3
	fillh _Nil 0 1
	pop_a 1
.d 1 0
	rtn
.export e_symbols_in_program_sget_symbol_value
.descexp e_symbols_in_program_dget_symbol_value e_symbols_in_program_nget_symbol_value e_symbols_in_program_lget_symbol_value 2 0 "get_symbol_value"
.a 0 a2
.o 2 0
e_symbols_in_program_lget_symbol_value
	repl_args 1 1
.o 2 0
a2
.d 2 0
	jsr ea2
.o 0 1 i
	buildI_b 0
	pop_b 1
.d 1 0
	rtn
.n 2 e_symbols_in_program_dget_symbol_value
.o 1 0
e_symbols_in_program_nget_symbol_value
	push_node _cycle_in_spine 2
.d 2 0
	jsr ea2
.o 0 1 i
	fillI_b 0 0
	pop_b 1
.d 1 0
	rtn
.o 2 0
ea2
	jsr_eval 1
	jsr_eval 0
	push_array 1
	push_array 1
	update_a 1 3
	update_a 0 2
	pop_a 2
.o 2 0
e_symbols_in_program_sget_symbol_value
.o 2 0
s2
	push_a 1
	push_arraysize e_symbols_in_program_rSymbol 1 1
	push_a 1
	push_a 1
	pushI 0
	update_a 1 3
	updatepop_a 0 2
.d 2 2 ii
	jmp s10
.o 2 2 ii
s10
	push_b 1
	push_b 1
	ltI
	jmp_false else.1
	push_b 0
	push_b 2
	subI
	pushI 1
	push_b 1
	update_b 1 2
	update_b 0 1
	pop_b 1
	shiftr%
	push_b 1
	addI
	push_b 0
	push_a 1
	select e_symbols_in_program_rSymbol 1 1
	pop_b 1
	push_a 0
	push_a 2
.d 2 0
	jsr eqAC
.o 0 1 b
	jmp_false else.2
	push_b 0
	push_a 2
	updatepop_b 0 3
	updatepop_a 0 3
	select e_symbols_in_program_rSymbol 1 1
	pop_a 1
.d 0 1 i
	rtn
else.2
	push_a 0
	push_a 2
	update_a 1 2
	updatepop_a 0 1
.d 2 0
	jsr cmpAC
.o 0 1 i
	pushI 0
	gtI
	jmp_false else.3
	push_a 1
	push_a 1
	push_b 0
	push_b 2
	update_a 1 3
	updatepop_a 0 2
	update_b 1 4
	updatepop_b 0 3
.d 2 2 ii
	jmp s10
else.3
	pushI 1
	push_b 1
	addI
	push_a 1
	push_a 1
	push_b 3
	push_b 1
	update_b 1 2
	update_b 0 1
	pop_b 1
	update_a 1 3
	updatepop_a 0 2
	update_b 1 4
	updatepop_b 0 3
.d 2 2 ii
	jmp s10
else.1
	pop_a 2
	pop_b 2
	pushI -1
.d 0 1 i
	rtn
.export e_symbols_in_program_sread_symbols
.descexp e_symbols_in_program_dread_symbols e_symbols_in_program_nread_symbols e_symbols_in_program_lread_symbols 2 0 "read_symbols"
.a 0 a1
.o 2 0
e_symbols_in_program_lread_symbols
	repl_args 1 1
.o 2 0
a1
.d 2 0
	jsr ea1
.o 2 0
	push_a 1
	push_a 1
	buildh ARRAY 1
	buildh _Tuple 2
	updatepop_a 0 2
.d 1 0
	rtn
.n 2 e_symbols_in_program_dread_symbols
.o 1 0
e_symbols_in_program_nread_symbols
	push_node _cycle_in_spine 2
.d 2 0
	jsr ea1
.o 2 0
	push_a 1
	push_a 1
	buildh ARRAY 1
	fillh _Tuple 2 4
	pop_a 2
.d 1 0
	rtn
.o 2 0
ea1
	jsr_eval 1
	jsr_eval 0
	push_array 0
	update_a 0 1
	pop_a 1
.o 2 0
e_symbols_in_program_sread_symbols
.o 2 0
s1
	push_a 1
	pushI 3
	push_a 1
	update_a 2 3
	update_a 1 2
	updatepop_a 0 1
.d 2 1 i
	jsr e_StdFile_sfopen;28
.o 1 3 bf
	push_b 0
	notB
	jmp_false else.4
	push_a 1
	buildAC "Could not open file "
	pop_b 3
	update_a 1 3
	updatepop_a 0 2
.d 2 0
	jsr catAC
.o 1 0
.d 1 0
	jsr print_string_
.o 0 0
	halt
	repl_args 2 2
	jsr_eval 1
	jsr_eval 0
	push_array 0
	update_a 0 1
	pop_a 1
.d 2 0
	rtn
else.4
	push_b 2
	push_b 2
	update_b 1 4
	updatepop_b 0 3
	update_a 0 1
	pop_a 1
.d 0 2 f
	jsr readFI
.o 0 4 b i f
	push_b 0
	notB
	jmp_true then.5
	pop_b 1
.d 0 0
	jsr s9
.o 0 1 i
	pushI 4294967295
	push_b 2
	and%
	eqI
	notB
	pushI 0
	update_b 1 0
	jmp_false else.5
then.5
	buildAC "Not a Mach-O x64 file (error in header)"
	updatepop_a 0 1
	pop_b 4
.d 1 0
	jsr print_string_
.o 0 0
	halt
	repl_args 2 2
	jsr_eval 1
	jsr_eval 0
	push_array 0
	update_a 0 1
	pop_a 1
.d 2 0
	rtn
else.5
	pushI 0
	pushI 16
	push_b 5
	push_b 5
	update_b 3 7
	update_b 2 6
	update_b 1 5
	updatepop_b 0 4
.d 0 4 f i i
	jsr seekF
.o 0 3 b f
	pop_b 1
.d 0 2 f
	jsr readFI
.o 0 4 b i f
	push_b 0
	notB
	jmp_false else.7
	buildAC "No 'number of load commands' in header."
	updatepop_a 0 1
	pop_b 4
.d 1 0
	jsr print_string_
.o 0 0
	halt
	repl_args 2 2
	jsr_eval 1
	jsr_eval 0
	push_array 0
	update_a 0 1
	pop_a 1
.d 2 0
	rtn
else.7
	pushI 32
	pushI 0
	push_b 1
	push_b 6
	push_b 6
.d 0 4 f i i
	jsr seekF
.o 0 3 b f
	push_b 0
	notB
	jmp_false else.8
	buildAC "fseek failed"
	updatepop_a 0 1
	pop_b 8
.d 1 0
	jsr print_string_
.o 0 0
	halt
	repl_args 2 2
	jsr_eval 1
	jsr_eval 0
	push_array 0
	update_a 0 1
	pop_a 1
.d 2 0
	rtn
else.8
	buildh _Nil 0
	push_b 2
	push_b 2
	push_b 5
	push_b 8
	pushI 0
	update_b 4 12
	update_b 3 11
	update_b 2 10
	update_b 1 9
	updatepop_b 0 8
.d 1 5 iiif
	jsr s35
.o 1 2 f
	buildh e_symbols_in_program_d\;179;25;27.14 0
	create
	push_a 2
	push_a 2
	update_a 2 3
	update_a 1 2
	update_a 0 1
	pop_a 1
	update_a 2 3
	update_a 1 2
	updatepop_a 0 1
.d 3 0
	jsr e_StdOrdList_ssortBy
.o 1 0
	push_a 1
	push_b 1
	push_b 1
	update_b 1 3
	updatepop_b 0 2
	update_a 1 2
	updatepop_a 0 1
.d 1 2 f
	jsr e_StdFile_sfclose;27
.o 1 1 b
	pop_b 1
	push_a 1
	pushI 0
.d 1 1 i
	jsr s16
.o 0 1 i
	create_array_ e_symbols_in_program_rSymbol 1 1
	push_a 2
	buildI 0
	push_a 2
	update_a 2 3
	update_a 1 2
	update_a 0 1
	pop_a 1
	buildh _Nil 0
	update_a 0 5
	pop_a 1
.d 3 0
	jsr s15
.o 1 0
	update_a 1 2
	updatepop_a 0 1
.d 2 0
	rtn
.o 0 0
s9
	pushI 4277009103
.d 0 1 i
	rtn
.o 1 1 i
s16
	push_b 0
	push_a 0
	updatepop_a 0 1
	updatepop_b 0 1
.d 1 1 i
	jmp s21
.o 1 1 i
s21
	eq_desc _Cons 2 0
	jmp_true case.9
	jmp case.10
case.9
	repl_args 2 2
	push_a 1
	jsr_eval 0
	push_a 1
	jsr_eval 0
	repl_args 2 2
	push_b 0
	update_a 2 4
	update_a 1 3
	updatepop_a 0 2
	updatepop_b 0 1
.d 3 1 i
	jmp s20
case.10
	pop_a 1
.d 0 1 i
	rtn
.o 3 1 i
s20
case.11
	pushI 1
	push_b 1
	addI
	push_a 2
	updatepop_a 0 3
	updatepop_b 0 1
.d 1 1 i
	jmp s16
case.12
	push_a 2
	push_b 0
	updatepop_a 0 3
	updatepop_b 0 1
.d 1 1 i
	jmp s16
.o 3 0
s15
	push_a 1
	push_a 1
	push_a 4
	update_a 2 5
	update_a 1 4
	updatepop_a 0 3
.d 3 0
	jmp s19
.o 3 0
s19
	eq_desc _Cons 2 0
	jmp_true case.13
	jmp case.14
case.13
	repl_args 2 2
	push_a 1
	jsr_eval 0
	push_a 4
	jsr_eval 0
	pushI_a 5
	pop_a 1
	push_a 1
	jsr_eval 0
	repl_args 2 2
	jsr_eval 1
	jsr_eval 0
	pushI_a 1
	push_array 0
	update_a 0 2
	pop_a 2
	push_a 4
	push_a 1
	update_a 1 2
	update_a 0 1
	pop_a 1
	update_a 2 6
	update_a 1 5
	updatepop_a 0 4
.d 3 2 ii
	jmp s18
case.14
	updatepop_a 1 2
.d 1 0
	rtn
.o 3 2 ii
s18
case.15
	push_b 1
	build_u e_symbols_in_program_d_f0.38 0 1 e_symbols_in_program_n_f0.38
	push_b 0
	push_a 1
	push_b 2
	push_a 3
	update_b 1 3
	updatepop_b 0 2
	buildh _Nil 0
	update_a 0 5
	update_a 0 4
	pop_a 1
	update e_symbols_in_program_rSymbol 1 1
	push_a 4
	push_a 2
	update_a 1 3
	update_a 2 1
	update_a 0 2
	pop_a 1
	update_a 2 5
	update_a 1 4
	updatepop_a 0 3
.d 3 0
	jmp s15
case.16
	push_b 1
	build_u e_symbols_in_program_d_f1.39 0 1 e_symbols_in_program_n_f1.39
	push_a 3
	push_a 3
	push_a 2
	update_a 2 3
	update_a 0 2
	pop_a 1
	update_a 2 5
	update_a 1 4
	updatepop_a 0 3
	pop_b 2
.d 3 0
	jmp s15
.export e_symbols_in_program_d_f1.39
.export e_symbols_in_program_n_f1.39
.descn e_symbols_in_program_d_f1.39 e_symbols_in_program_n_f1.39 1 0 "_f1.39"
.nu 0 1 e_symbols_in_program_d_f1.39 _
.o 1 0
e_symbols_in_program_n_f1.39
	push_node_u _cycle_in_spine 0 1
.o 1 1 i
ea39
.o 1 1 i
s39
	pushI 1
	push_b 1
	update_b 1 2
	updatepop_b 0 1
	addI
	fillI_b 0 0
	pop_b 1
.d 1 0
	rtn
.export e_symbols_in_program_d_f0.38
.export e_symbols_in_program_n_f0.38
.descn e_symbols_in_program_d_f0.38 e_symbols_in_program_n_f0.38 1 0 "_f0.38"
.nu 0 1 e_symbols_in_program_d_f0.38 _
.o 1 0
e_symbols_in_program_n_f0.38
	push_node_u _cycle_in_spine 0 1
.o 1 1 i
ea38
.o 1 1 i
s38
	pushI 1
	push_b 1
	update_b 1 2
	updatepop_b 0 1
	addI
	fillI_b 0 0
	pop_b 1
.d 1 0
	rtn
.export e_symbols_in_program_d\;179;25;27.14
.desc e_symbols_in_program_d\;179;25;27.14 _hnf l14 2 0 "\;179;25;27.14"
.a 0 a14
.o 2 0
l14
	repl_args 1 1
.o 2 0
a14
.d 2 0
	jsr ea14
.o 0 1 b
	buildB_b 0
	pop_b 1
.d 1 0
	rtn
.o 2 0
ea14
	push_a 1
	jsr_eval 0
	repl_args 2 2
	jsr_eval 0
	push_a 2
	jsr_eval 0
	repl_args 2 2
	jsr_eval 0
	push_array 2
	push_array 1
	update_a 5 7
	update_a 3 5
	update_a 1 6
	update_a 0 4
	pop_a 4
.o 4 0
s14
	push_a 2
	push_a 1
	update_a 1 5
	updatepop_a 0 4
.d 2 0
	jsr cmpAC
.o 0 1 i
	pushI 0
	gtI
.d 0 1 b
	rtn
.o 0 0
s7
	pushI 2
.d 0 1 i
	rtn
.o 1 1 i
s4
	pushI 0
	push_b 1
	eqI
	jmp_false else.17
	pop_a 1
	pop_b 1
	pushB FALSE
.d 0 1 b
	rtn
else.17
	push_b 0
	push_a 0
	select CHAR 0 1
	pushC 'e'
	push_b 1
	update_b 1 2
	update_b 0 1
	pop_b 1
	eqC
	jmp_false else.18
	pushI 1
	push_b 1
	addI
	push_a 0
	select CHAR 0 1
	pushC '_'
	push_b 1
	update_b 1 2
	update_b 0 1
	pop_b 1
	eqC
	jmp_false else.18
	pushI 2
	push_b 1
	addI
	push_a 0
	select CHAR 0 1
	pushC '_'
	push_b 1
	update_b 1 2
	update_b 0 1
	pop_b 1
	eqC
	jmp_false else.18
	pop_a 1
	pop_b 1
	pushB TRUE
.d 0 1 b
	rtn
else.18
	push_b 0
	push_a 0
	select CHAR 0 1
	pushC '_'
	push_b 1
	update_b 1 2
	update_b 0 1
	pop_b 1
	eqC
	jmp_false else.21
	pushI 1
	push_b 1
	addI
	push_a 0
	select CHAR 0 1
	pushC '_'
	push_b 1
	update_b 1 2
	update_b 0 1
	pop_b 1
	eqC
	jmp_false else.21
	pushI 2
	push_b 1
	addI
	push_a 0
	select CHAR 0 1
	pushC 'S'
	push_b 1
	update_b 1 2
	update_b 0 1
	pop_b 1
	eqC
	jmp_false else.23
	pushI 3
	push_b 1
	addI
	push_a 0
	select CHAR 0 1
	pushC 'T'
	push_b 1
	update_b 1 2
	update_b 0 1
	pop_b 1
	eqC
	jmp_false else.23
	pushI 4
	push_b 1
	addI
	push_a 0
	select CHAR 0 1
	pushC 'R'
	push_b 1
	update_b 1 2
	update_b 0 1
	pop_b 1
	eqC
	jmp_false else.23
	pushI 5
	push_b 1
	addI
	push_a 0
	select CHAR 0 1
	pushC 'I'
	push_b 1
	update_b 1 2
	update_b 0 1
	pop_b 1
	eqC
	jmp_false else.23
	pushI 6
	push_b 1
	addI
	push_a 0
	select CHAR 0 1
	pushC 'N'
	push_b 1
	update_b 1 2
	update_b 0 1
	pop_b 1
	eqC
	jmp_false else.23
	pushI 7
	push_b 1
	addI
	push_a 0
	select CHAR 0 1
	pushC 'G'
	push_b 1
	update_b 1 2
	update_b 0 1
	pop_b 1
	eqC
	jmp_false else.23
	pushI 8
	push_b 1
	addI
	push_a 0
	select CHAR 0 1
	pushC '_'
	push_b 1
	update_b 1 2
	update_b 0 1
	pop_b 1
	eqC
	jmp_false else.23
	pushI 9
	push_b 1
	addI
	push_a 0
	select CHAR 0 1
	pushC '_'
	push_b 1
	update_b 1 2
	update_b 0 1
	pop_b 1
	eqC
	jmp_false else.23
	pushI 10
	push_b 1
	addI
	push_a 0
	select CHAR 0 1
	pushC '\000'
	push_b 1
	update_b 1 2
	update_b 0 1
	pop_b 1
	eqC
	jmp_false else.23
	pop_a 1
	pop_b 1
	pushB TRUE
.d 0 1 b
	rtn
else.23
	pushI 2
	push_b 1
	addI
	push_a 0
	select CHAR 0 1
	pushC 'A'
	push_b 1
	update_b 1 2
	update_b 0 1
	pop_b 1
	eqC
	jmp_false else.32
	pushI 3
	push_b 1
	addI
	push_a 0
	select CHAR 0 1
	pushC 'R'
	push_b 1
	update_b 1 2
	update_b 0 1
	pop_b 1
	eqC
	jmp_false else.32
	pushI 4
	push_b 1
	addI
	push_a 0
	select CHAR 0 1
	pushC 'R'
	push_b 1
	update_b 1 2
	update_b 0 1
	pop_b 1
	eqC
	jmp_false else.32
	pushI 5
	push_b 1
	addI
	push_a 0
	select CHAR 0 1
	pushC 'A'
	push_b 1
	update_b 1 2
	update_b 0 1
	pop_b 1
	eqC
	jmp_false else.32
	pushI 6
	push_b 1
	addI
	push_a 0
	select CHAR 0 1
	pushC 'Y'
	push_b 1
	update_b 1 2
	update_b 0 1
	pop_b 1
	eqC
	jmp_false else.32
	pushI 7
	push_b 1
	addI
	push_a 0
	select CHAR 0 1
	pushC '_'
	push_b 1
	update_b 1 2
	update_b 0 1
	pop_b 1
	eqC
	jmp_false else.32
	pushI 8
	push_b 1
	addI
	push_a 0
	select CHAR 0 1
	pushC '_'
	push_b 1
	update_b 1 2
	update_b 0 1
	pop_b 1
	eqC
	jmp_false else.32
	pushI 9
	push_b 1
	addI
	push_a 0
	select CHAR 0 1
	pushC '\000'
	push_b 1
	update_b 1 2
	update_b 0 1
	pop_b 1
	eqC
	jmp_false else.32
	pop_a 1
	pop_b 1
	pushB TRUE
.d 0 1 b
	rtn
else.32
	pushI 2
	push_b 1
	addI
	push_a 0
	select CHAR 0 1
	pushC 'C'
	push_b 1
	update_b 1 2
	update_b 0 1
	pop_b 1
	eqC
	jmp_false else.40
	pushI 3
	push_b 1
	addI
	push_a 0
	select CHAR 0 1
	pushC 'o'
	push_b 1
	update_b 1 2
	update_b 0 1
	pop_b 1
	eqC
	jmp_false else.40
	pushI 4
	push_b 1
	addI
	push_a 0
	select CHAR 0 1
	pushC 'n'
	push_b 1
	update_b 1 2
	update_b 0 1
	pop_b 1
	eqC
	jmp_false else.40
	pushI 5
	push_b 1
	addI
	push_a 0
	select CHAR 0 1
	pushC 's'
	push_b 1
	update_b 1 2
	update_b 0 1
	pop_b 1
	eqC
	jmp_false else.40
	pushI 6
	push_b 1
	addI
	push_a 0
	select CHAR 0 1
	pushC '\000'
	push_b 1
	update_b 1 2
	update_b 0 1
	pop_b 1
	eqC
	jmp_false else.44
	pop_a 1
	pop_b 1
	pushB TRUE
.d 0 1 b
	rtn
else.44
	pushI 6
	push_b 1
	addI
	push_a 0
	select CHAR 0 1
	pushC 's'
	push_b 1
	update_b 1 2
	update_b 0 1
	pop_b 1
	eqC
	jmp_true then.45
	pushI 6
	push_b 1
	addI
	push_a 0
	select CHAR 0 1
	pushC 'i'
	push_b 1
	update_b 1 2
	update_b 0 1
	pop_b 1
	eqC
	jmp_true then.45
	pushI 6
	push_b 1
	addI
	push_a 0
	select CHAR 0 1
	pushC 'c'
	push_b 1
	update_b 1 2
	update_b 0 1
	pop_b 1
	eqC
	jmp_true then.45
	pushI 6
	push_b 1
	addI
	push_a 0
	select CHAR 0 1
	pushC 'r'
	push_b 1
	update_b 1 2
	update_b 0 1
	pop_b 1
	eqC
	jmp_true then.45
	pushI 6
	push_b 1
	addI
	push_a 0
	select CHAR 0 1
	pushC 'b'
	push_b 1
	update_b 1 2
	update_b 0 1
	pop_b 1
	eqC
	jmp_true then.45
	pushI 6
	push_b 1
	addI
	push_a 0
	select CHAR 0 1
	pushC 'f'
	push_b 1
	update_b 1 2
	update_b 0 1
	pop_b 1
	eqC
	jmp_false else.45
then.45
	pushI 7
	push_b 1
	addI
	push_a 0
	select CHAR 0 1
	pushC '\000'
	push_b 1
	update_b 1 2
	update_b 0 1
	pop_b 1
	eqC
	jmp_false else.51
	pop_a 1
	pop_b 1
	pushB TRUE
.d 0 1 b
	rtn
else.51
	pushI 7
	push_b 1
	addI
	push_a 0
	select CHAR 0 1
	pushC 't'
	push_b 1
	update_b 1 2
	update_b 0 1
	pop_b 1
	eqC
	jmp_false else.52
	pushI 8
	push_b 1
	addI
	push_a 0
	select CHAR 0 1
	pushC 's'
	push_b 1
	update_b 1 2
	update_b 0 1
	pop_b 1
	eqC
	jmp_false else.52
	pushI 9
	push_b 1
	addI
	push_a 0
	updatepop_b 0 1
	updatepop_a 0 1
	select CHAR 0 1
	pushC '\000'
	push_b 1
	update_b 1 2
	update_b 0 1
	pop_b 1
	eqC
	buildh _Nil 0
	pushI 0
	update_b 1 0
	jmp_false else.52
	pop_a 1
	pop_b 1
	pushB TRUE
.d 0 1 b
	rtn
else.52
	pop_a 1
	pop_b 1
	pushB FALSE
.d 0 1 b
	rtn
else.45
	pushI 6
	push_b 1
	addI
	push_a 0
	select CHAR 0 1
	pushC 'a'
	push_b 1
	update_b 1 2
	update_b 0 1
	pop_b 1
	eqC
	jmp_false else.55
	pushI 7
	push_b 1
	addI
	push_a 0
	select CHAR 0 1
	pushC '\000'
	push_b 1
	update_b 1 2
	update_b 0 1
	pop_b 1
	eqC
	jmp_false else.55
	pop_a 1
	pop_b 1
	pushB TRUE
.d 0 1 b
	rtn
else.55
	pushI 6
	push_b 1
	addI
	push_a 0
	select CHAR 0 1
	pushC 't'
	push_b 1
	update_b 1 2
	update_b 0 1
	pop_b 1
	eqC
	jmp_false else.57
	pushI 7
	push_b 1
	addI
	push_a 0
	select CHAR 0 1
	pushC 's'
	push_b 1
	update_b 1 2
	update_b 0 1
	pop_b 1
	eqC
	jmp_false else.57
	pushI 8
	push_b 1
	addI
	push_a 0
	updatepop_b 0 1
	updatepop_a 0 1
	select CHAR 0 1
	pushC '\000'
	push_b 1
	update_b 1 2
	update_b 0 1
	pop_b 1
	eqC
	buildh _Nil 0
	pushI 0
	update_b 1 0
	jmp_false else.57
	pop_a 1
	pop_b 1
	pushB TRUE
.d 0 1 b
	rtn
else.57
	pop_a 1
	pop_b 1
	pushB FALSE
.d 0 1 b
	rtn
else.40
	pushI 2
	push_b 1
	addI
	push_a 0
	select CHAR 0 1
	pushC 'N'
	push_b 1
	update_b 1 2
	update_b 0 1
	pop_b 1
	eqC
	jmp_false else.60
	pushI 3
	push_b 1
	addI
	push_a 0
	select CHAR 0 1
	pushC 'i'
	push_b 1
	update_b 1 2
	update_b 0 1
	pop_b 1
	eqC
	jmp_false else.61
	pushI 4
	push_b 1
	addI
	push_a 0
	select CHAR 0 1
	pushC 'l'
	push_b 1
	update_b 1 2
	update_b 0 1
	pop_b 1
	eqC
	jmp_false else.61
	pushI 5
	push_b 1
	addI
	push_a 0
	select CHAR 0 1
	pushC '\000'
	push_b 1
	update_b 1 2
	update_b 0 1
	pop_b 1
	eqC
	jmp_false else.61
	pop_a 1
	pop_b 1
	pushB TRUE
.d 0 1 b
	rtn
else.61
	pushI 3
	push_b 1
	addI
	push_a 0
	select CHAR 0 1
	pushC 'o'
	push_b 1
	update_b 1 2
	update_b 0 1
	pop_b 1
	eqC
	jmp_false else.64
	pushI 4
	push_b 1
	addI
	push_a 0
	select CHAR 0 1
	pushC 'n'
	push_b 1
	update_b 1 2
	update_b 0 1
	pop_b 1
	eqC
	jmp_false else.64
	pushI 5
	push_b 1
	addI
	push_a 0
	select CHAR 0 1
	pushC 'e'
	push_b 1
	update_b 1 2
	update_b 0 1
	pop_b 1
	eqC
	jmp_false else.64
	pushI 6
	push_b 1
	addI
	push_a 0
	updatepop_b 0 1
	updatepop_a 0 1
	select CHAR 0 1
	pushC '\000'
	push_b 1
	update_b 1 2
	update_b 0 1
	pop_b 1
	eqC
	buildh _Nil 0
	pushI 0
	update_b 1 0
	jmp_false else.64
	pop_a 1
	pop_b 1
	pushB TRUE
.d 0 1 b
	rtn
else.64
	pop_a 1
	pop_b 1
	pushB FALSE
.d 0 1 b
	rtn
else.60
	pushI 2
	push_b 1
	addI
	push_a 0
	select CHAR 0 1
	pushC 'T'
	push_b 1
	update_b 1 2
	update_b 0 1
	pop_b 1
	eqC
	jmp_false else.68
	pushI 3
	push_b 1
	addI
	push_a 0
	select CHAR 0 1
	pushC 'u'
	push_b 1
	update_b 1 2
	update_b 0 1
	pop_b 1
	eqC
	jmp_false else.68
	pushI 4
	push_b 1
	addI
	push_a 0
	select CHAR 0 1
	pushC 'p'
	push_b 1
	update_b 1 2
	update_b 0 1
	pop_b 1
	eqC
	jmp_false else.68
	pushI 5
	push_b 1
	addI
	push_a 0
	select CHAR 0 1
	pushC 'l'
	push_b 1
	update_b 1 2
	update_b 0 1
	pop_b 1
	eqC
	jmp_false else.68
	pushI 6
	push_b 1
	addI
	push_a 0
	select CHAR 0 1
	pushC 'e'
	push_b 1
	update_b 1 2
	update_b 0 1
	pop_b 1
	eqC
	jmp_false else.68
	pushI 7
	push_b 1
	addI
	push_a 0
	select CHAR 0 1
	pushC '\000'
	push_b 1
	update_b 1 2
	update_b 0 1
	pop_b 1
	eqC
	jmp_false else.68
	pop_a 1
	pop_b 1
	pushB TRUE
.d 0 1 b
	rtn
else.68
	pushI 2
	push_b 1
	addI
	push_a 0
	select CHAR 0 1
	pushC 'J'
	push_b 1
	update_b 1 2
	update_b 0 1
	pop_b 1
	eqC
	jmp_false else.74
	pushI 3
	push_b 1
	addI
	push_a 0
	select CHAR 0 1
	pushC 'u'
	push_b 1
	update_b 1 2
	update_b 0 1
	pop_b 1
	eqC
	jmp_false else.74
	pushI 4
	push_b 1
	addI
	push_a 0
	select CHAR 0 1
	pushC 's'
	push_b 1
	update_b 1 2
	update_b 0 1
	pop_b 1
	eqC
	jmp_false else.74
	pushI 5
	push_b 1
	addI
	push_a 0
	select CHAR 0 1
	pushC 't'
	push_b 1
	update_b 1 2
	update_b 0 1
	pop_b 1
	eqC
	jmp_false else.74
	pushI 6
	push_b 1
	addI
	push_a 0
	select CHAR 0 1
	pushC '\000'
	push_b 1
	update_b 1 2
	update_b 0 1
	pop_b 1
	eqC
	jmp_false else.78
	pop_a 1
	pop_b 1
	pushB TRUE
.d 0 1 b
	rtn
else.78
	pushI 6
	push_b 1
	addI
	push_a 0
	select CHAR 0 1
	pushC 's'
	push_b 1
	update_b 1 2
	update_b 0 1
	pop_b 1
	eqC
	jmp_true then.79
	pushI 6
	push_b 1
	addI
	push_a 0
	select CHAR 0 1
	pushC 'i'
	push_b 1
	update_b 1 2
	update_b 0 1
	pop_b 1
	eqC
	jmp_true then.79
	pushI 6
	push_b 1
	addI
	push_a 0
	select CHAR 0 1
	pushC 'c'
	push_b 1
	update_b 1 2
	update_b 0 1
	pop_b 1
	eqC
	jmp_true then.79
	pushI 6
	push_b 1
	addI
	push_a 0
	select CHAR 0 1
	pushC 'r'
	push_b 1
	update_b 1 2
	update_b 0 1
	pop_b 1
	eqC
	jmp_true then.79
	pushI 6
	push_b 1
	addI
	push_a 0
	select CHAR 0 1
	pushC 'b'
	push_b 1
	update_b 1 2
	update_b 0 1
	pop_b 1
	eqC
	jmp_true then.79
	pushI 6
	push_b 1
	addI
	push_a 0
	select CHAR 0 1
	pushC 'f'
	push_b 1
	update_b 1 2
	update_b 0 1
	pop_b 1
	eqC
	jmp_true then.79
	pushI 6
	push_b 1
	addI
	push_a 0
	select CHAR 0 1
	pushC 'a'
	push_b 1
	update_b 1 2
	update_b 0 1
	pop_b 1
	eqC
	jmp_false else.79
then.79
	pushI 7
	push_b 1
	addI
	push_a 0
	updatepop_b 0 1
	updatepop_a 0 1
	select CHAR 0 1
	pushC '\000'
	push_b 1
	update_b 1 2
	update_b 0 1
	pop_b 1
	eqC
	jmp_false else.86
	pushB TRUE
.d 0 1 b
	rtn
else.86
	pushB FALSE
.d 0 1 b
	rtn
else.79
	pop_a 1
	pop_b 1
	pushB FALSE
.d 0 1 b
	rtn
else.74
	pop_a 1
	pop_b 1
	pushB FALSE
.d 0 1 b
	rtn
else.21
	push_b 0
	push_a 0
	select CHAR 0 1
	pushC 'I'
	push_b 1
	update_b 1 2
	update_b 0 1
	pop_b 1
	eqC
	jmp_false else.87
	pushI 1
	push_b 1
	addI
	push_a 0
	select CHAR 0 1
	pushC 'N'
	push_b 1
	update_b 1 2
	update_b 0 1
	pop_b 1
	eqC
	jmp_false else.87
	pushI 2
	push_b 1
	addI
	push_a 0
	select CHAR 0 1
	pushC 'T'
	push_b 1
	update_b 1 2
	update_b 0 1
	pop_b 1
	eqC
	jmp_false else.87
	pushI 3
	push_b 1
	addI
	push_a 0
	select CHAR 0 1
	pushC '\000'
	push_b 1
	update_b 1 2
	update_b 0 1
	pop_b 1
	eqC
	jmp_false else.87
	pop_a 1
	pop_b 1
	pushB TRUE
.d 0 1 b
	rtn
else.87
	push_b 0
	push_a 0
	select CHAR 0 1
	pushC 'C'
	push_b 1
	update_b 1 2
	update_b 0 1
	pop_b 1
	eqC
	jmp_false else.91
	pushI 1
	push_b 1
	addI
	push_a 0
	select CHAR 0 1
	pushC 'H'
	push_b 1
	update_b 1 2
	update_b 0 1
	pop_b 1
	eqC
	jmp_false else.91
	pushI 2
	push_b 1
	addI
	push_a 0
	select CHAR 0 1
	pushC 'A'
	push_b 1
	update_b 1 2
	update_b 0 1
	pop_b 1
	eqC
	jmp_false else.91
	pushI 3
	push_b 1
	addI
	push_a 0
	select CHAR 0 1
	pushC 'R'
	push_b 1
	update_b 1 2
	update_b 0 1
	pop_b 1
	eqC
	jmp_false else.91
	pushI 4
	push_b 1
	addI
	push_a 0
	select CHAR 0 1
	pushC '\000'
	push_b 1
	update_b 1 2
	update_b 0 1
	pop_b 1
	eqC
	jmp_false else.91
	pop_a 1
	pop_b 1
	pushB TRUE
.d 0 1 b
	rtn
else.91
	push_b 0
	push_a 0
	select CHAR 0 1
	pushC 'R'
	push_b 1
	update_b 1 2
	update_b 0 1
	pop_b 1
	eqC
	jmp_false else.96
	pushI 1
	push_b 1
	addI
	push_a 0
	select CHAR 0 1
	pushC 'E'
	push_b 1
	update_b 1 2
	update_b 0 1
	pop_b 1
	eqC
	jmp_false else.96
	pushI 2
	push_b 1
	addI
	push_a 0
	select CHAR 0 1
	pushC 'A'
	push_b 1
	update_b 1 2
	update_b 0 1
	pop_b 1
	eqC
	jmp_false else.96
	pushI 3
	push_b 1
	addI
	push_a 0
	select CHAR 0 1
	pushC 'L'
	push_b 1
	update_b 1 2
	update_b 0 1
	pop_b 1
	eqC
	jmp_false else.96
	pushI 4
	push_b 1
	addI
	push_a 0
	select CHAR 0 1
	pushC '\000'
	push_b 1
	update_b 1 2
	update_b 0 1
	pop_b 1
	eqC
	jmp_false else.96
	pop_a 1
	pop_b 1
	pushB TRUE
.d 0 1 b
	rtn
else.96
	push_b 0
	push_a 0
	select CHAR 0 1
	pushC 'B'
	push_b 1
	update_b 1 2
	update_b 0 1
	pop_b 1
	eqC
	jmp_false else.101
	pushI 1
	push_b 1
	addI
	push_a 0
	select CHAR 0 1
	pushC 'O'
	push_b 1
	update_b 1 2
	update_b 0 1
	pop_b 1
	eqC
	jmp_false else.101
	pushI 2
	push_b 1
	addI
	push_a 0
	select CHAR 0 1
	pushC 'O'
	push_b 1
	update_b 1 2
	update_b 0 1
	pop_b 1
	eqC
	jmp_false else.101
	pushI 3
	push_b 1
	addI
	push_a 0
	select CHAR 0 1
	pushC 'L'
	push_b 1
	update_b 1 2
	update_b 0 1
	pop_b 1
	eqC
	jmp_false else.101
	pushI 4
	push_b 1
	addI
	push_a 0
	select CHAR 0 1
	pushC '\000'
	push_b 1
	update_b 1 2
	update_b 0 1
	pop_b 1
	eqC
	jmp_false else.101
	pop_a 1
	pop_b 1
	pushB TRUE
.d 0 1 b
	rtn
else.101
	push_b 0
	push_a 0
	select CHAR 0 1
	pushC 'A'
	push_b 1
	update_b 1 2
	update_b 0 1
	pop_b 1
	eqC
	jmp_false else.106
	pushI 1
	push_b 1
	addI
	push_a 0
	select CHAR 0 1
	pushC 'R'
	push_b 1
	update_b 1 2
	update_b 0 1
	pop_b 1
	eqC
	jmp_false else.106
	pushI 2
	push_b 1
	addI
	push_a 0
	select CHAR 0 1
	pushC 'R'
	push_b 1
	update_b 1 2
	update_b 0 1
	pop_b 1
	eqC
	jmp_false else.106
	pushI 3
	push_b 1
	addI
	push_a 0
	select CHAR 0 1
	pushC 'A'
	push_b 1
	update_b 1 2
	update_b 0 1
	pop_b 1
	eqC
	jmp_false else.106
	pushI 4
	push_b 1
	addI
	push_a 0
	select CHAR 0 1
	pushC 'Y'
	push_b 1
	update_b 1 2
	update_b 0 1
	pop_b 1
	eqC
	jmp_false else.106
	pushI 5
	push_b 1
	addI
	push_a 0
	select CHAR 0 1
	pushC '\000'
	push_b 1
	update_b 1 2
	update_b 0 1
	pop_b 1
	eqC
	jmp_false else.106
	pop_a 1
	pop_b 1
	pushB TRUE
.d 0 1 b
	rtn
else.106
	push_b 0
	push_a 0
	select CHAR 0 1
	pushC 'n'
	push_b 1
	update_b 1 2
	update_b 0 1
	pop_b 1
	eqC
	jmp_false else.112
	pushI 1
	push_b 1
	addI
	push_a 0
	select CHAR 0 1
	pushC '_'
	push_b 1
	update_b 1 2
	update_b 0 1
	pop_b 1
	eqC
	jmp_false else.112
	pushI 2
	push_b 1
	addI
	push_a 0
	select CHAR 0 1
	pushC '_'
	push_b 1
	update_b 1 2
	update_b 0 1
	pop_b 1
	eqC
	jmp_false else.112
	pushI 3
	push_b 1
	addI
	push_a 0
	select CHAR 0 1
	pushC 'S'
	push_b 1
	update_b 1 2
	update_b 0 1
	pop_b 1
	eqC
	jmp_false else.115
	pushI 4
	push_b 1
	addI
	push_a 0
	select CHAR 0 1
	pushC '_'
	push_b 1
	update_b 1 2
	update_b 0 1
	pop_b 1
	eqC
	jmp_false else.115
	pushI 5
	push_b 1
	addI
	push_a 0
	select CHAR 0 1
	pushC 'P'
	push_b 1
	update_b 1 2
	update_b 0 1
	pop_b 1
	eqC
	jmp_false else.115
	pushI 6
	push_b 1
	addI
	push_a 0
	select CHAR 0 1
	pushC '1'
	push_b 1
	update_b 1 2
	update_b 0 1
	pop_b 1
	ltC
	notB
	jmp_false else.115
	pushI 6
	push_b 1
	addI
	push_a 0
	select CHAR 0 1
	pushC '6'
	ltC
	notB
	jmp_false else.115
	pushI 7
	push_b 1
	addI
	push_a 0
	select CHAR 0 1
	pushC '\000'
	push_b 1
	update_b 1 2
	update_b 0 1
	pop_b 1
	eqC
	jmp_false else.115
	pop_a 1
	pop_b 1
	pushB TRUE
.d 0 1 b
	rtn
else.115
	pushI 3
	push_b 1
	addI
	push_a 0
	select CHAR 0 1
	pushC 'C'
	push_b 1
	update_b 1 2
	update_b 0 1
	pop_b 1
	eqC
	jmp_false else.121
	pushI 4
	push_b 1
	addI
	push_a 0
	select CHAR 0 1
	pushC 'o'
	push_b 1
	update_b 1 2
	update_b 0 1
	pop_b 1
	eqC
	jmp_false else.121
	pushI 5
	push_b 1
	addI
	push_a 0
	select CHAR 0 1
	pushC 'n'
	push_b 1
	update_b 1 2
	update_b 0 1
	pop_b 1
	eqC
	jmp_false else.121
	pushI 6
	push_b 1
	addI
	push_a 0
	select CHAR 0 1
	pushC 's'
	push_b 1
	update_b 1 2
	update_b 0 1
	pop_b 1
	eqC
	jmp_false else.121
	pushI 7
	push_b 1
	addI
	push_a 0
	select CHAR 0 1
	pushC 's'
	push_b 1
	update_b 1 2
	update_b 0 1
	pop_b 1
	eqC
	jmp_false else.125
	pushI 8
	push_b 1
	addI
	push_a 0
	select CHAR 0 1
	pushC '\000'
	push_b 1
	update_b 1 2
	update_b 0 1
	pop_b 1
	eqC
	jmp_false else.126
	pop_a 1
	pop_b 1
	pushB TRUE
.d 0 1 b
	rtn
else.126
	pushI 8
	push_b 1
	addI
	push_a 0
	select CHAR 0 1
	pushC 't'
	push_b 1
	update_b 1 2
	update_b 0 1
	pop_b 1
	eqC
	jmp_false else.127
	pushI 9
	push_b 1
	addI
	push_a 0
	select CHAR 0 1
	pushC 's'
	push_b 1
	update_b 1 2
	update_b 0 1
	pop_b 1
	eqC
	jmp_false else.127
	pushI 10
	push_b 1
	addI
	push_a 0
	updatepop_b 0 1
	updatepop_a 0 1
	select CHAR 0 1
	pushC '\000'
	push_b 1
	update_b 1 2
	update_b 0 1
	pop_b 1
	eqC
	buildh _Nil 0
	pushI 0
	update_b 1 0
	jmp_false else.127
	pop_a 1
	pop_b 1
	pushB TRUE
.d 0 1 b
	rtn
else.127
	pop_a 1
	pop_b 1
	pushB FALSE
.d 0 1 b
	rtn
else.125
	pushI 7
	push_b 1
	addI
	push_a 0
	select CHAR 0 1
	pushC 't'
	push_b 1
	update_b 1 2
	update_b 0 1
	pop_b 1
	eqC
	jmp_false else.130
	pushI 8
	push_b 1
	addI
	push_a 0
	select CHAR 0 1
	pushC 's'
	push_b 1
	update_b 1 2
	update_b 0 1
	pop_b 1
	eqC
	jmp_false else.130
	pushI 9
	push_b 1
	addI
	push_a 0
	updatepop_b 0 1
	updatepop_a 0 1
	select CHAR 0 1
	pushC '\000'
	push_b 1
	update_b 1 2
	update_b 0 1
	pop_b 1
	eqC
	buildh _Nil 0
	pushI 0
	update_b 1 0
	jmp_false else.130
	pop_a 1
	pop_b 1
	pushB TRUE
.d 0 1 b
	rtn
else.130
	pop_a 1
	pop_b 1
	pushB FALSE
.d 0 1 b
	rtn
else.121
	pushI 3
	push_b 1
	addI
	push_a 0
	select CHAR 0 1
	pushC 'J'
	push_b 1
	update_b 1 2
	update_b 0 1
	pop_b 1
	eqC
	jmp_false else.133
	pushI 4
	push_b 1
	addI
	push_a 0
	select CHAR 0 1
	pushC 'u'
	push_b 1
	update_b 1 2
	update_b 0 1
	pop_b 1
	eqC
	jmp_false else.133
	pushI 5
	push_b 1
	addI
	push_a 0
	select CHAR 0 1
	pushC 's'
	push_b 1
	update_b 1 2
	update_b 0 1
	pop_b 1
	eqC
	jmp_false else.133
	pushI 6
	push_b 1
	addI
	push_a 0
	select CHAR 0 1
	pushC 't'
	push_b 1
	update_b 1 2
	update_b 0 1
	pop_b 1
	eqC
	jmp_false else.133
	pushI 7
	push_b 1
	addI
	push_a 0
	select CHAR 0 1
	pushC 's'
	push_b 1
	update_b 1 2
	update_b 0 1
	pop_b 1
	eqC
	jmp_false else.133
	pushI 8
	push_b 1
	addI
	push_a 0
	updatepop_b 0 1
	updatepop_a 0 1
	select CHAR 0 1
	pushC '\000'
	push_b 1
	update_b 1 2
	update_b 0 1
	pop_b 1
	eqC
	buildh _Nil 0
	pushI 0
	update_b 1 0
	jmp_false else.133
	pop_a 1
	pop_b 1
	pushB TRUE
.d 0 1 b
	rtn
else.133
	pop_a 1
	pop_b 1
	pushB FALSE
.d 0 1 b
	rtn
else.112
	pop_a 1
	pop_b 1
	pushB FALSE
.d 0 1 b
	rtn
.export e_symbols_in_program_dstring_from_string_table;26.13
.export e_symbols_in_program_nstring_from_string_table;26.13
.descn e_symbols_in_program_dstring_from_string_table;26.13 e_symbols_in_program_nstring_from_string_table;26.13 2 0 "string_from_string_table;26.13"
.nu 1 1 e_symbols_in_program_dstring_from_string_table;26.13
.o 1 0
e_symbols_in_program_nstring_from_string_table;26.13
	push_node_u _cycle_in_spine 1 1
.d 1 1 i
	jsr ea13
.o 1 0
	fillh ARRAY 1 1
.d 1 0
	rtn
.o 1 1 i
ea13
	jsr_eval 0
	push_array 0
	update_a 0 1
	pop_a 1
.o 1 1 i
s13
	push_a 0
	push_b 0
.d 1 1 i
	jsr s12
.o 0 1 i
	pushI 1
	push_b 1
	update_b 1 2
	update_b 0 1
	pop_b 1
	subI
	push_b 1
	push_a 0
	updatepop_a 0 1
	update_b 1 2
	updatepop_b 0 1
.d 1 2 ii
	jsr sliceAC
.o 1 0
.d 1 0
	rtn
.o 1 1 i
s12
	push_a 0
	push_arraysize CHAR 0 1
	push_b 1
	ltI
	jmp_false else.139
	push_b 0
	push_a 0
	select CHAR 0 1
	pushC '\000'
	push_b 1
	update_b 1 2
	update_b 0 1
	pop_b 1
	eqC
	notB
	jmp_false else.139
	pushI 1
	push_b 1
	addI
	push_a 0
	updatepop_a 0 1
	updatepop_b 0 1
.d 1 1 i
	jmp s12
else.139
	pop_a 1
.d 0 1 i
	rtn
.o 2 3 bf
s34
	eqB_b TRUE 0
	jmp_true case.141
	jmp case.142
case.141
	push_b 2
	push_b 2
	push_a 1
	push_a 1
	update_a 1 3
	updatepop_a 0 2
	update_b 1 4
	updatepop_b 0 3
.d 2 2 f
	jmp s36
case.142
	push_b 2
	push_b 2
	push_a 1
	updatepop_a 0 2
	update_b 1 4
	updatepop_b 0 3
.d 1 2 f
	rtn
.o 1 5 iiif
s35
	push_b 1
	push_b 1
	ltI
	notB
	jmp_false else.143
	push_a 0
	jsr_eval 0
	push_b 4
	push_b 4
	updatepop_a 0 1
	update_b 1 6
	updatepop_b 0 5
.d 1 2 f
	rtn
else.143
	push_b 4
	push_b 4
.d 0 2 f
	jsr readFI
.o 0 4 b i f
	push_b 0
	notB
	jmp_false else.144
	buildAC "No cmd in load_command."
	updatepop_a 0 1
	pop_b 9
.d 1 0
	jsr print_string_
.o 0 0
	halt
	repl_args 2 2
	jsr_eval 1
	jsr_eval 0
	pushF_a 1
	update_a 0 1
	pop_a 1
.d 1 2 f
	rtn
else.144
	push_b 3
	push_b 3
	update_b 1 2
	updatepop_b 0 1
.d 0 2 f
	jsr readFI
.o 0 4 b i f
	push_b 0
	notB
	jmp_false else.145
	buildAC "No cmdsize in load_command"
	updatepop_a 0 1
	pop_b 12
.d 1 0
	jsr print_string_
.o 0 0
	halt
	repl_args 2 2
	jsr_eval 1
	jsr_eval 0
	pushF_a 1
	update_a 0 1
	pop_a 1
.d 1 2 f
	rtn
else.145
	pop_b 1
.d 0 0
	jsr s7
.o 0 1 i
	pushI 4294967295
	push_b 5
	and%
	eqI
	push_b 3
	push_b 3
	push_a 0
	buildI_b 11
	push_b 2
	update_b 2 3
	update_b 1 2
	update_b 0 1
	pop_b 1
	update_a 1 2
	updatepop_a 0 1
.d 2 3 bf
	jsr s34
.o 1 2 f
	push_b 2
	push_b 11
	addI
	pushI 0
	push_b 1
	push_b 4
	push_b 4
.d 0 4 f i i
	jsr seekF
.o 0 3 b f
	push_b 0
	notB
	jmp_false else.146
	buildAC "fseek error"
	updatepop_a 0 1
	pop_b 17
.d 1 0
	jsr print_string_
.o 0 0
	halt
	repl_args 2 2
	jsr_eval 1
	jsr_eval 0
	pushF_a 1
	update_a 0 1
	pop_a 1
.d 1 2 f
	rtn
else.146
	pushI 1
	push_b 13
	addI
	push_b 3
	push_b 3
	push_a 0
	push_b 6
	push_b 17
	push_b 4
	update_b 4 5
	update_b 3 4
	update_b 2 3
	update_b 1 2
	update_b 0 1
	pop_b 1
	updatepop_a 0 1
	update_b 4 21
	update_b 3 20
	update_b 2 19
	update_b 1 18
	updatepop_b 0 17
.d 1 5 iiif
	jmp s35
.o 2 2 f
s36
	push_b 1
	push_b 1
	update_b 1 3
	updatepop_b 0 2
	pop_a 1
.d 0 2 f
	jsr readFI
.o 0 4 b i f
	push_b 0
	notB
	jmp_false else.147
	buildAC "No symoff in symtab_command."
	updatepop_a 0 1
	pop_b 4
.d 1 0
	jsr print_string_
.o 0 0
	halt
	repl_args 2 2
	jsr_eval 1
	pushF_a 1
	update_a 0 1
	pop_a 1
.d 1 2 f
	rtn
else.147
	push_b 3
	push_b 3
	update_b 1 2
	updatepop_b 0 1
.d 0 2 f
	jsr readFI
.o 0 4 b i f
	push_b 0
	notB
	jmp_false else.148
	buildAC "No nsyms in symtab_command."
	updatepop_a 0 1
	pop_b 7
.d 1 0
	jsr print_string_
.o 0 0
	halt
	repl_args 2 2
	jsr_eval 1
	pushF_a 1
	update_a 0 1
	pop_a 1
.d 1 2 f
	rtn
else.148
	push_b 3
	push_b 3
	update_b 1 2
	updatepop_b 0 1
.d 0 2 f
	jsr readFI
.o 0 4 b i f
	push_b 0
	notB
	jmp_false else.149
	buildAC "No stroff in symtab_command."
	updatepop_a 0 1
	pop_b 10
.d 1 0
	jsr print_string_
.o 0 0
	halt
	repl_args 2 2
	jsr_eval 1
	pushF_a 1
	update_a 0 1
	pop_a 1
.d 1 2 f
	rtn
else.149
	push_b 3
	push_b 3
	update_b 1 2
	updatepop_b 0 1
.d 0 2 f
	jsr readFI
.o 0 4 b i f
	push_b 0
	notB
	jmp_false else.150
	buildAC "No strsize in symtab_command."
	updatepop_a 0 1
	pop_b 13
.d 1 0
	jsr print_string_
.o 0 0
	halt
	repl_args 2 2
	jsr_eval 1
	pushF_a 1
	update_a 0 1
	pop_a 1
.d 1 2 f
	rtn
else.150
	pushI 0
	push_b 5
	push_b 5
	push_b 5
	update_b 3 4
	update_b 2 3
	update_b 1 2
	updatepop_b 0 1
.d 0 4 f i i
	jsr seekF
.o 0 3 b f
	push_b 0
	notB
	jmp_false else.151
	buildAC "fseek to string table error"
	updatepop_a 0 1
	pop_b 15
.d 1 0
	jsr print_string_
.o 0 0
	halt
	repl_args 2 2
	jsr_eval 1
	pushF_a 1
	update_a 0 1
	pop_a 1
.d 1 2 f
	rtn
else.151
	push_b 3
	push_b 3
	push_b 3
	update_b 2 5
	update_b 1 4
	updatepop_b 0 3
.d 0 3 f i
	jsr readFS
.o 1 2 f
	push_a 0
	push_arraysize CHAR 0 1
	push_b 3
	push_b 1
	update_b 1 2
	update_b 0 1
	pop_b 1
	eqI
	notB
	jmp_false else.152
	buildAC "Error reading string table"
	updatepop_a 0 2
	pop_b 14
.d 1 0
	jsr print_string_
.o 0 0
	halt
	repl_args 2 2
	jsr_eval 1
	pushF_a 1
	update_a 0 1
	pop_a 1
.d 1 2 f
	rtn
else.152
	pushI 0
	push_b 12
	push_b 3
	push_b 3
	update_b 3 5
	update_b 2 4
	update_b 1 3
	updatepop_b 0 2
.d 0 4 f i i
	jsr seekF
.o 0 3 b f
	push_b 0
	notB
	jmp_false else.153
	buildAC "fseek to symbol table error"
	updatepop_a 0 2
	pop_b 15
.d 1 0
	jsr print_string_
.o 0 0
	halt
	repl_args 2 2
	jsr_eval 1
	pushF_a 1
	update_a 0 1
	pop_a 1
.d 1 2 f
	rtn
else.153
	push_b 2
	push_b 2
	push_a 1
	push_a 1
	buildh ARRAY 1
	push_b 11
	pushI 0
	update_a 1 3
	updatepop_a 0 2
	update_b 3 18
	update_b 2 17
	update_b 1 16
	updatepop_b 0 15
.d 2 4 iif
	jmp s37
.o 2 4 iif
s37
	push_b 1
	push_b 1
	ltI
	notB
	jmp_false else.154
	push_b 3
	push_b 3
	push_a 1
	updatepop_a 0 2
	update_b 1 5
	updatepop_b 0 4
.d 1 2 f
	rtn
else.154
	push_b 3
	push_b 3
.d 0 2 f
	jsr readFI
.o 0 4 b i f
	push_b 0
	notB
	jmp_false else.155
	buildAC "No n_strx in nlist."
	updatepop_a 0 2
	pop_b 8
.d 1 0
	jsr print_string_
.o 0 0
	halt
	repl_args 2 2
	jsr_eval 1
	pushF_a 1
	update_a 0 1
	pop_a 1
.d 1 2 f
	rtn
else.155
	push_b 3
	push_b 3
	update_b 1 2
	updatepop_b 0 1
.d 0 2 f
	jsr readFC
.o 0 4 b c f
	push_b 0
	notB
	jmp_false else.156
	buildAC "No n_type in nlist."
	updatepop_a 0 2
	pop_b 11
.d 1 0
	jsr print_string_
.o 0 0
	halt
	repl_args 2 2
	jsr_eval 1
	pushF_a 1
	update_a 0 1
	pop_a 1
.d 1 2 f
	rtn
else.156
	push_b 3
	push_b 3
	update_b 1 5
	updatepop_b 0 4
.d 0 2 f
	jsr readFC
.o 0 4 b c f
	push_b 0
	notB
	jmp_false else.157
	buildAC "No n_sec in nlist."
	updatepop_a 0 2
	pop_b 11
.d 1 0
	jsr print_string_
.o 0 0
	halt
	repl_args 2 2
	jsr_eval 1
	pushF_a 1
	update_a 0 1
	pop_a 1
.d 1 2 f
	rtn
else.157
	push_b 3
	push_b 3
	update_b 1 5
	updatepop_b 0 4
.d 0 2 f
	jsr readFC
.o 0 4 b c f
	push_b 0
	notB
	jmp_false else.158
	buildAC "No _desc in nlist."
	updatepop_a 0 2
	pop_b 11
.d 1 0
	jsr print_string_
.o 0 0
	halt
	repl_args 2 2
	jsr_eval 1
	pushF_a 1
	update_a 0 1
	pop_a 1
.d 1 2 f
	rtn
else.158
	push_b 3
	push_b 3
	update_b 1 5
	updatepop_b 0 4
.d 0 2 f
	jsr readFC
.o 0 4 b c f
	push_b 0
	notB
	jmp_false else.159
	buildAC "No _desc in nlist."
	updatepop_a 0 2
	pop_b 11
.d 1 0
	jsr print_string_
.o 0 0
	halt
	repl_args 2 2
	jsr_eval 1
	pushF_a 1
	update_a 0 1
	pop_a 1
.d 1 2 f
	rtn
else.159
	push_b 3
	push_b 3
	update_b 1 5
	updatepop_b 0 4
.d 0 2 f
	jsr readFI
.o 0 4 b i f
	push_b 0
	notB
	jmp_false else.160
	buildAC "No _value in nlist."
	updatepop_a 0 2
	pop_b 11
.d 1 0
	jsr print_string_
.o 0 0
	halt
	repl_args 2 2
	jsr_eval 1
	pushF_a 1
	update_a 0 1
	pop_a 1
.d 1 2 f
	rtn
else.160
	push_b 3
	push_b 3
	update_b 1 2
	updatepop_b 0 1
.d 0 2 f
	jsr readFI
.o 0 4 b i f
	push_b 0
	notB
	jmp_false else.161
	buildAC "No _value in nlist."
	updatepop_a 0 2
	pop_b 14
.d 1 0
	jsr print_string_
.o 0 0
	halt
	repl_args 2 2
	jsr_eval 1
	pushF_a 1
	update_a 0 1
	pop_a 1
.d 1 2 f
	rtn
else.161
	push_a 0
	jsr_eval 0
	push_array 0
	updatepop_a 0 1
	push_b 7
	updatepop_b 0 1
.d 1 1 i
	jsr s4
.o 0 1 b
	jmp_false else.162
	push_a 1
	buildI_b 3
	buildI_b 0
	build e_symbols_in_program_d_f2.40 2 e_symbols_in_program_n_f2.40
	push_a 2
	push_b 6
	build_u e_symbols_in_program_dstring_from_string_table;26.13 1 1 e_symbols_in_program_nstring_from_string_table;26.13
	buildh _Tuple 2
	buildh _Cons 2
	pushI 1
	push_b 10
	addI
	push_b 3
	push_b 3
	push_a 1
	push_b 13
	push_b 3
	update_b 3 4
	update_b 2 3
	update_b 1 2
	update_b 0 1
	pop_b 1
	update_a 1 3
	updatepop_a 0 2
	update_b 3 16
	update_b 2 15
	update_b 1 14
	updatepop_b 0 13
.d 2 4 iif
	jmp s37
else.162
	pushI 1
	push_b 10
	addI
	push_b 3
	push_b 3
	push_a 1
	push_a 1
	push_b 13
	push_b 3
	update_b 3 4
	update_b 2 3
	update_b 1 2
	update_b 0 1
	pop_b 1
	update_a 1 3
	updatepop_a 0 2
	update_b 3 16
	update_b 2 15
	update_b 1 14
	updatepop_b 0 13
.d 2 4 iif
	jmp s37
.export e_symbols_in_program_d_f2.40
.export e_symbols_in_program_n_f2.40
.descn e_symbols_in_program_d_f2.40 e_symbols_in_program_n_f2.40 2 0 "_f2.40"
.n 2 e_symbols_in_program_d_f2.40 ea40
.o 1 0
e_symbols_in_program_n_f2.40
	push_node _cycle_in_spine 2
.o 3 0
ea40
.o 3 0
s40
	push_a 1
	jsr_eval 0
	pushI_a 2
	pop_a 1
	push_a 0
	jsr_eval 0
	pushI_a 1
	pop_a 1
	pushI 32
	push_b 1
	update_b 1 2
	update_b 0 1
	pop_b 1
	shiftl%
	pop_a 2
	addI
	fillI_b 0 0
	pop_b 1
.d 1 0
	rtn
