.comp 920 000011110011000
.start _nostart_
.depend "Data.Func" "20210430140248"
.depend "StdCharList" "20210430140248"
.depend "_SystemArray" "20210430140248"
.depend "StdArray" "20210430140248"
.depend "StdEnv" "20210430140248"
.depend "iTasks.Internal.TaskIO" "20210430140248"
.depend "iTasks.Internal.WebService" "20210430140248"
.depend "iTasks.Internal.SDSService" "20210430140248"
.depend "iTasks.Internal.Serialization" "20210430140248"
.depend "_SystemEnum" "20210430140248"
.depend "StdEnum" "20210430140248"
.depend "StdTuple" "20210430140248"
.depend "StdOrdList" "20210430140248"
.depend "Control.Monad.Trans" "20210430140248"
.depend "StdMaybe" "20210430140248"
.depend "Data.Maybe" "20210430140248"
.depend "iTasks.Extensions.Admin.WorkflowAdmin" "20210430140248"
.depend "iTasks.Extensions.User" "20210430140248"
.depend "iTasks.Extensions.Admin.UserAdmin" "20210430140248"
.depend "iTasks.UI.Layout.Common" "20210430140248"
.depend "iTasks.UI.Editor.Modifiers" "20210430140248"
.depend "iTasks.UI.Editor.Containers" "20210430140248"
.depend "iTasks.UI.Tune" "20210430140248"
.depend "iTasks.Internal.Distributed.Domain" "20210430140248"
.depend "iTasks.WF.Combinators.Common" "20210430140248"
.depend "iTasks.WF.Combinators.SDS" "20210430140248"
.depend "iTasks.UI.Editor.Controls" "20210430140248"
.depend "iTasks.WF.Tasks.Interaction" "20210430140248"
.depend "iTasks.WF.Tasks.System" "20210430140248"
.depend "iTasks.WF.Tasks.SDS" "20210430140248"
.depend "iTasks.WF.Tasks.Core" "20210430140248"
.depend "System.Time.GenJSON" "20210430140248"
.depend "Text.HTML.GenJSON" "20210430140248"
.depend "Data.Map.GenJSON" "20210430140248"
.depend "Data.Error.GenJSON" "20210430140248"
.depend "Data.Either.GenJSON" "20210430140248"
.depend "iTasks.WF.Derives" "20210430140248"
.depend "iTasks.SDS.Combinators.Common" "20210430140248"
.depend "iTasks.SDS.Combinators.Core" "20210430140248"
.depend "iTasks.SDS.Sources.System" "20210430140248"
.depend "iTasks.SDS.Sources.Store" "20210430140248"
.depend "iTasks.SDS.Sources.Core" "20210430140248"
.depend "System._Signal" "20210430140248"
.depend "System.Signal" "20210430140248"
.depend "_SystemStrictMaybes" "20210430140248"
.depend "Text.GenPrint" "20210430140248"
.depend "iTasks.Extensions.DateTime" "20210430140248"
.depend "iTasks.Internal.TaskServer" "20210430140248"
.depend "iTasks.Extensions.Document" "20210430140248"
.depend "System.File" "20210430140248"
.depend "iTasks.Util.DeferredJSON" "20210430140248"
.depend "iTasks.Internal.SDS" "20210430140248"
.depend "iTasks.Internal.TaskEval" "20210430140248"
.depend "iTasks.UI.Layout" "20210430140248"
.depend "iTasks.Internal.TaskState" "20210430140248"
.depend "iTasks.WF.Combinators.Core" "20210430140248"
.depend "Data.IntMap.Base" "20210430140248"
.depend "Data.IntMap.Strict" "20210430140248"
.depend "Data.CircularStack" "20210430140248"
.depend "System._Process" "20210430140248"
.depend "System.Process" "20210430140248"
.depend "System.OS" "20210430140248"
.depend "Data.GenHash" "20210430140248"
.depend "Data.Maybe.Ord" "20210430140248"
.depend "Control.GenBimap" "20210430140248"
.depend "ABC.Interpreter.JavaScript" "20210430140248"
.depend "ABC.Interpreter" "20210430140248"
.depend "iTasks.UI.Editor" "20210430140248"
.depend "iTasks.UI.Editor.Generic" "20210430140248"
.depend "iTasks.Internal.Generic.Defaults" "20210430140248"
.depend "Data.GenDefault" "20210430140248"
.depend "Data.Integer" "20210430140248"
.depend "Text.HTML" "20210430140248"
.depend "iTasks.Internal.Generic.Visualization" "20210430140248"
.depend "iTasks.SDS.Definition" "20210430140248"
.depend "TCPStringChannelsInternal" "20210430140248"
.depend "TCPStringChannels" "20210430140248"
.depend "TCPEvent" "20210430140248"
.depend "tcp_bytestreams" "20210430140248"
.depend "TCPDef" "20210430140248"
.depend "TCPChannels" "20210430140248"
.depend "TCPIP" "20210430140248"
.depend "iTasks.WF.Tasks.IO" "20210430140248"
.depend "iTasks.Internal.Task" "20210430140248"
.depend "iTasks.UI.Definition" "20210430140248"
.depend "Text.GenJSON" "20210430140248"
.depend "Data.Bifunctor" "20210430140248"
.depend "Data.Either" "20210430140248"
.depend "Data.Queue" "20210430140248"
.depend "StdFile" "20210430140248"
.depend "symbols_in_program" "20210430140248"
.depend "iTasks.Internal.IWorld" "20210430140248"
.depend "iTasks.WF.Definition" "20210430140248"
.depend "tcp" "20210430140248"
.depend "TCPChannelClass" "20210430140248"
.depend "System._Time" "20210430140248"
.depend "System.Time" "20210430140248"
.depend "System.GetOpt" "20210430140248"
.depend "System.OSError" "20210430140248"
.depend "System.FilePath" "20210430140248"
.depend "StdString" "20210430140248"
.depend "Internet.HTTP" "20210430140248"
.depend "Control.Monad.Fail" "20210430140248"
.depend "Data.Traversable" "20210430140248"
.depend "StdMisc" "20210430140248"
.depend "StdOverloadedList" "20210430140248"
.depend "Data.List" "20210430140248"
.depend "Data.Foldable" "20210430140248"
.depend "Data.Set" "20210430140248"
.depend "Data.GenLexOrd" "20210430140248"
.depend "StdFunctions" "20210430140248"
.depend "StdFunc" "20210430140248"
.depend "Data.Map" "20210430140248"
.depend "_SystemEnumStrict" "20210430140248"
.depend "_SystemStrictLists" "20210430140248"
.depend "StdStrictLists" "20210430140248"
.depend "StdGeneric" "20210430140248"
.depend "Data.GenEq" "20210430140248"
.depend "StdReal" "20210430140248"
.depend "StdChar" "20210430140248"
.depend "StdInt" "20210430140248"
.depend "StdBool" "20210430140248"
.depend "StdClass" "20210430140248"
.depend "StdList" "20210430140248"
.depend "Data.Monoid" "20210430140248"
.depend "Control.Applicative" "20210430140248"
.depend "Control.Monad" "20210430140248"
.depend "Data.Functor" "20210430140248"
.depend "Data.Error" "20210430140248"
.depend "iTasks.Engine" "20210430140248"
.depend "iTasks" "20210430140248"
.depend "StdOverloaded" "20210430140248"
.depend "_SystemDynamic" "20210430140248"
.depend "iTasks.Extensions.Clock" "20210430140248"
.module m_iTasks.Extensions.Clock "iTasks.Extensions.Clock" "20210430140248"
.endinfo
.impmod _system
.implab _cycle_in_spine
.implab _type_error
.implab _hnf
.impdesc e_system_dind
.implab e_system_nind e_system_eaind
.impdesc e_system_dif
.implab e_system_nif e_system_eaif
.implab e_system_sif
.impdesc e_system_dAP
.implab e_system_nAP e_system_eaAP
.implab e_system_sAP
.impdesc ARRAY
.impdesc _Nil
.impdesc _Cons
.impdesc _Conss
.implab n_Conss ea_Conss
.impdesc _Consts
.implab n_Consts ea_Consts
.impdesc _Conssts
.implab n_Conssts ea_Conssts
.impdesc _Tuple
.impdesc d_S.1
.implab n_S.1 ea_S.1
.impdesc d_S.2
.implab n_S.2 ea_S.2
.impdesc d_S.3
.implab n_S.3 ea_S.3
.impdesc d_S.4
.implab n_S.4 ea_S.4
.impdesc d_S.5
.implab n_S.5 ea_S.5
.impdesc d_S.6
.implab n_S.6 ea_S.6
.implab _driver
.impmod _SystemArray
.impmod StdMaybe
.implab e_StdMaybe_s==;7
.impmod Data.Maybe
.impdesc e_Data.Maybe_dfromMaybe;67
.implab e_Data.Maybe_nfromMaybe;67 _
.impmod iTasks.Extensions.DateTime
.impdesc e_iTasks.Extensions.DateTime_dJSONEncode_Time;31
.implab e_iTasks.Extensions.DateTime_nJSONEncode_Time;31 e_iTasks.Extensions.DateTime_eaJSONEncode_Time;31
.implab e_iTasks.Extensions.DateTime_sJSONDecode_Time;34
.implab e_iTasks.Extensions.DateTime_sgEq_Time;37
.impdesc e_iTasks.Extensions.DateTime_dgText_Time;40
.impmod ABC.Interpreter.JavaScript
.implab e_ABC.Interpreter.JavaScript_sjsValToString
.implab e_ABC.Interpreter.JavaScript_s.?
.implab e_ABC.Interpreter.JavaScript_s.=
.implab e_ABC.Interpreter.JavaScript_s.$!
.implab e_ABC.Interpreter.JavaScript_sjsWrapFun
.implab e_ABC.Interpreter.JavaScript_sjsTrace
.implab e_ABC.Interpreter.JavaScript_s.#;46
.implab e_ABC.Interpreter.JavaScript_s.#;47
.impdesc e_ABC.Interpreter.JavaScript_dtoJSArgs;57
.implab e_ABC.Interpreter.JavaScript_s.??;64
.impdesc e_ABC.Interpreter.JavaScript_dgToJS__String;70
.impdesc e_ABC.Interpreter.JavaScript_dgToJS_JSVal;72
.impmod iTasks.UI.Editor
.implab e_iTasks.UI.Editor_sleafEditorToEditor
.implab e_iTasks.UI.Editor_swithClientSideInit
.impmod Text.HTML
.implab e_Text.HTML_stoString;7
.impmod iTasks.Internal.Generic.Visualization
.impdesc e_iTasks.Internal.Generic.Visualization_dgText_CONS;8
.implab e_iTasks.Internal.Generic.Visualization_sgText_OBJECT;9
.impmod iTasks.UI.Definition
.impdesc e_iTasks.UI.Definition_duia
.implab e_iTasks.UI.Definition_nuia e_iTasks.UI.Definition_eauia
.impdesc e_iTasks.UI.Definition_dsizeAttr
.implab e_iTasks.UI.Definition_nsizeAttr e_iTasks.UI.Definition_easizeAttr
.impdesc e_iTasks.UI.Definition_dvalueAttr
.implab e_iTasks.UI.Definition_nvalueAttr e_iTasks.UI.Definition_eavalueAttr
.impmod Text.GenJSON
.implab e_Text.GenJSON_stoJSON
.impdesc e_Text.GenJSON_dJSONEncode_Int;12
.implab e_Text.GenJSON_sJSONEncode__List;17
.implab e_Text.GenJSON_sJSONEncode__Tuple2;24
.impdesc e_Text.GenJSON_dJSONDecode__Unit;53
.impmod StdString
.impdesc e_StdString_d==;2
.implab e_StdString_s==;2
.implab e_StdString_stoString;5
.impdesc e_StdString_dtoString;9
.implab e_StdString_s+++;11
.impmod Data.Map
.impdesc e_Data.Map_dunions;70
.implab e_Data.Map_nunions;70 e_Data.Map_eaunions;70
.impmod StdInt
.implab e_StdInt_s+;6
.implab e_StdInt_s-;7
.implab e_StdInt_s*;9
.implab e_StdInt_sone;11
.implab e_StdInt_s==;16
.implab e_StdInt_s<;17
.impmod StdBool
.implab e_StdBool_snot
.impmod StdList
.impdesc e_StdList_d++
.implab e_StdList_s++
.implab e_StdList_n++ e_StdList_ea++
.impmod iTasks.Extensions.DateTime
.impdesc e_iTasks.Extensions.DateTime_rTime
.impdesc e_iTasks.Extensions.DateTime_dTime.hour
.implab e_iTasks.Extensions.DateTime_nTime.hour
.impdesc e_iTasks.Extensions.DateTime_dTime.min
.implab e_iTasks.Extensions.DateTime_nTime.min
.impdesc e_iTasks.Extensions.DateTime_dTime.sec
.implab e_iTasks.Extensions.DateTime_nTime.sec
.impmod ABC.Interpreter.JavaScript
.impdesc e_ABC.Interpreter.JavaScript_rtoJSArgs;
.impmod iTasks.UI.Editor
.impdesc e_iTasks.UI.Editor_rLeafEditor
.impmod Text.HTML
.impdesc e_Text.HTML_kSvgTag
.impdesc e_Text.HTML_kHeightAttr
.impdesc e_Text.HTML_kStyleAttr
.impdesc e_Text.HTML_kWidthAttr
.impdesc e_Text.HTML_kRectElt
.impdesc e_Text.HTML_kTransformAttr
.impdesc e_Text.HTML_kViewBoxAttr
.impdesc e_Text.HTML_kXAttr
.impdesc e_Text.HTML_kYAttr
.impdesc e_Text.HTML_dSVGLength
.impdesc e_Text.HTML_dPX
.impdesc e_Text.HTML_kRotateTransform
.impmod iTasks.UI.Definition
.impdesc e_iTasks.UI.Definition_dNoChange
.impdesc e_iTasks.UI.Definition_dChangeUI
.impdesc e_iTasks.UI.Definition_kSetAttribute
.impdesc e_iTasks.UI.Definition_dSetAttribute
.implab e_iTasks.UI.Definition_nSetAttribute e_iTasks.UI.Definition_eaSetAttribute
.impdesc e_iTasks.UI.Definition_dUIHtmlView
.impdesc e_iTasks.UI.Definition_kExactSize
.impmod Text.GenJSON
.impdesc e_Text.GenJSON_kJSONString
.impdesc e_Text.GenJSON_dJSONString
.implab e_Text.GenJSON_nJSONString e_Text.GenJSON_eaJSONString
.impdesc e_Text.GenJSON_kJSONArray
.impmod StdGeneric
.impdesc e_StdGeneric_dCONS
.impdesc e_StdGeneric_rGenericTypeDefDescriptor
.impdesc e_StdGeneric_rGenericConsDescriptor
.impdesc e_StdGeneric_dGenConsNoPrio
.impdesc e_StdGeneric_dGenTypeCons
.impdesc e_StdGeneric_dGenTypeArrow
.impmod Data.Error
.impdesc e_Data.Error_dOk
.impmod StdOverloaded
.impdesc e_StdOverloaded_r==;
.impdesc e_StdOverloaded_rtoString;
.impmod _SystemDynamic
.impdesc e__SystemDynamic_kTypeCons
.impdesc e__SystemDynamic_rTypeCodeConstructor
.impmod _predef
.impdesc e__predef_d_Unit
.export e_iTasks.Extensions.Clock_eaAnalogClock
.descexp e_iTasks.Extensions.Clock_dAnalogClock e_iTasks.Extensions.Clock_nAnalogClock e_iTasks.Extensions.Clock_lAnalogClock 1 0 "AnalogClock"
.o 2 0
e_iTasks.Extensions.Clock_lAnalogClock
	update_a 1 0
	create
	update_a 0 2
	pop_a 1
.d 2 0
	jmp e_iTasks.Extensions.Clock_eaAnalogClock
.n 1 e_iTasks.Extensions.Clock_dAnalogClock e_iTasks.Extensions.Clock_eaAnalogClock
.o 1 0
e_iTasks.Extensions.Clock_nAnalogClock
	push_node _cycle_in_spine 1
.o 2 0
e_iTasks.Extensions.Clock_eaAnalogClock
	jsr_eval 0
	repl_r_args 0 3
	fill_r e_iTasks.Extensions.Clock_kAnalogClock 0 3 0 0 0
	pop_b 3
.d 1 0
	rtn
.export e_iTasks.Extensions.Clock_kAnalogClock
.record e_iTasks.Extensions.Clock_kAnalogClock d{iii} 0 3 e_iTasks.Extensions.DateTime_rTime "AnalogClock"
.export e_iTasks.Extensions.Clock_rJSONEncode_s;
.record e_iTasks.Extensions.Clock_rJSONEncode_s; a 1 0 "JSONEncode_s;"
.export e_iTasks.Extensions.Clock_tJSONEncode_s;
.export e_iTasks.Extensions.Clock_cJSONEncode_s;
.descn e_iTasks.Extensions.Clock_tJSONEncode_s; e_iTasks.Extensions.Clock_cJSONEncode_s; 1 1 "JSONEncode_s;"
.n 1 e_iTasks.Extensions.Clock_tJSONEncode_s;
.o 1 0
e_iTasks.Extensions.Clock_cJSONEncode_s;
	push_node _cycle_in_spine 1
	jsr_eval 0
.impmod iTasks.Extensions.Clock
.impdesc e_iTasks.Extensions.Clock_rJSONEncode_s;
	fill_r e_iTasks.Extensions.Clock_rJSONEncode_s; 1 0 1 0 0
	pop_a 1
.d 1 0
	rtn
.export e_iTasks.Extensions.Clock_rJSONDecode_s;
.record e_iTasks.Extensions.Clock_rJSONDecode_s; a 1 0 "JSONDecode_s;"
.export e_iTasks.Extensions.Clock_tJSONDecode_s;
.export e_iTasks.Extensions.Clock_cJSONDecode_s;
.descn e_iTasks.Extensions.Clock_tJSONDecode_s; e_iTasks.Extensions.Clock_cJSONDecode_s; 1 1 "JSONDecode_s;"
.n 1 e_iTasks.Extensions.Clock_tJSONDecode_s;
.o 1 0
e_iTasks.Extensions.Clock_cJSONDecode_s;
	push_node _cycle_in_spine 1
	jsr_eval 0
.impdesc e_iTasks.Extensions.Clock_rJSONDecode_s;
	fill_r e_iTasks.Extensions.Clock_rJSONDecode_s; 1 0 1 0 0
	pop_a 1
.d 1 0
	rtn
.export e_iTasks.Extensions.Clock_rgToJS_s;
.record e_iTasks.Extensions.Clock_rgToJS_s; a 1 0 "gToJS_s;"
.export e_iTasks.Extensions.Clock_tgToJS_s;
.export e_iTasks.Extensions.Clock_cgToJS_s;
.descn e_iTasks.Extensions.Clock_tgToJS_s; e_iTasks.Extensions.Clock_cgToJS_s; 1 1 "gToJS_s;"
.n 1 e_iTasks.Extensions.Clock_tgToJS_s;
.o 1 0
e_iTasks.Extensions.Clock_cgToJS_s;
	push_node _cycle_in_spine 1
	jsr_eval 0
.impdesc e_iTasks.Extensions.Clock_rgToJS_s;
	fill_r e_iTasks.Extensions.Clock_rgToJS_s; 1 0 1 0 0
	pop_a 1
.d 1 0
	rtn
.export e_iTasks.Extensions.Clock_sTD;AnalogClock
.export e_iTasks.Extensions.Clock_eaTD;AnalogClock
.descexp e_iTasks.Extensions.Clock_dTD;AnalogClock e_iTasks.Extensions.Clock_nTD;AnalogClock e_iTasks.Extensions.Clock_lTD;AnalogClock 1 0 "TD;AnalogClock"
.o 2 0
e_iTasks.Extensions.Clock_lTD;AnalogClock
	update_a 1 0
	create
	update_a 0 2
	pop_a 1
.d 2 0
	jmp e_iTasks.Extensions.Clock_eaTD;AnalogClock
.n 1 e_iTasks.Extensions.Clock_dTD;AnalogClock e_iTasks.Extensions.Clock_eaTD;AnalogClock
.o 1 0
e_iTasks.Extensions.Clock_nTD;AnalogClock
	push_node _cycle_in_spine 1
.o 2 0
e_iTasks.Extensions.Clock_eaTD;AnalogClock
.o 2 0
e_iTasks.Extensions.Clock_sTD;AnalogClock
.o 2 0
s6
	fillh _Nil 0 1
	pop_a 1
.d 1 0
	rtn
.export e_iTasks.Extensions.Clock_sgText_AnalogClock;4
.export e_iTasks.Extensions.Clock_eagText_AnalogClock;4
.descexp e_iTasks.Extensions.Clock_dgText_AnalogClock;4 e_iTasks.Extensions.Clock_ngText_AnalogClock;4 e_iTasks.Extensions.Clock_lgText_AnalogClock;4 2 0 "gText_AnalogClock;4"
.o 4 0
e_iTasks.Extensions.Clock_igText_AnalogClock;4
	pop_a 1
.d 3 0
	jmp s5
.ai 2 e_iTasks.Extensions.Clock_eagText_AnalogClock;4 e_iTasks.Extensions.Clock_igText_AnalogClock;4
.o 2 0
e_iTasks.Extensions.Clock_lgText_AnalogClock;4
	push_args 0 1 1
	update_a 2 1
	create
	update_a 0 3
	pop_a 1
.d 3 0
	jmp e_iTasks.Extensions.Clock_eagText_AnalogClock;4
.n 2 e_iTasks.Extensions.Clock_dgText_AnalogClock;4 e_iTasks.Extensions.Clock_eagText_AnalogClock;4
.o 1 0
e_iTasks.Extensions.Clock_ngText_AnalogClock;4
	push_node _cycle_in_spine 2
.o 3 0
e_iTasks.Extensions.Clock_eagText_AnalogClock;4
	jsr_eval 0
.o 3 0
e_iTasks.Extensions.Clock_sgText_AnalogClock;4
.o 3 0
s5
	push_a 1
	build e_iTasks.Extensions.Clock_dbimapToGeneric;32.33 1 e_iTasks.Extensions.Clock_nbimapToGeneric;32.33
	buildh e_iTasks.Extensions.DateTime_dgText_Time;40 0
	build e_iTasks.Extensions.Clock_dtdi_AnalogClock;19.20 0 e_iTasks.Extensions.Clock_ntdi_AnalogClock;19.20
	buildAC "AnalogClock"
	buildh ARRAY 1
	buildh e_iTasks.Internal.Generic.Visualization_dgText_CONS;8 3
	push_a 2
	push_a 1
	update_a 1 2
	update_a 0 1
	pop_a 1
	update_a 2 4
	update_a 1 3
	updatepop_a 0 2
.d 4 0
	jmp e_iTasks.Internal.Generic.Visualization_sgText_OBJECT;9
.export e_iTasks.Extensions.Clock_dcdi_AnalogClock;21.22
.export e_iTasks.Extensions.Clock_ncdi_AnalogClock;21.22
.descn e_iTasks.Extensions.Clock_dcdi_AnalogClock;21.22 e_iTasks.Extensions.Clock_ncdi_AnalogClock;21.22 0 0 "cdi_AnalogClock;21.22"
.n 0 e_iTasks.Extensions.Clock_dcdi_AnalogClock;21.22
.o 1 0
e_iTasks.Extensions.Clock_ncdi_AnalogClock;21.22
	push_node _cycle_in_spine 0
.o 0 0
ea22
	build e_iTasks.Extensions.Clock_dgti_AnalogClock;20.21 0 e_iTasks.Extensions.Clock_ngti_AnalogClock;20.21
	build e_iTasks.Extensions.Clock_dtdi_AnalogClock;19.20 0 e_iTasks.Extensions.Clock_ntdi_AnalogClock;19.20
	buildh e_StdGeneric_dGenConsNoPrio 0
	buildI 0
	buildI 1
	buildAC "AnalogClock"
	buildh ARRAY 1
	push_a 5
	update_a 3 6
	update_a 4 3
	update_a 5 4
	update_a 0 5
	pop_a 1
	fill_r e_StdGeneric_rGenericConsDescriptor 6 0 6 0 0
	pop_a 6
.d 1 0
	rtn
.export e_iTasks.Extensions.Clock_dcli_AnalogClock;18.19
.export e_iTasks.Extensions.Clock_ncli_AnalogClock;18.19
.descn e_iTasks.Extensions.Clock_dcli_AnalogClock;18.19 e_iTasks.Extensions.Clock_ncli_AnalogClock;18.19 0 0 "cli_AnalogClock;18.19"
.n 0 e_iTasks.Extensions.Clock_dcli_AnalogClock;18.19 ea19
.o 1 0
e_iTasks.Extensions.Clock_ncli_AnalogClock;18.19
	push_node _cycle_in_spine 0
.o 1 0
ea19
.o 1 0
s19
	buildh _Nil 0
	build e_iTasks.Extensions.Clock_dcdi_AnalogClock;21.22 0 e_iTasks.Extensions.Clock_ncdi_AnalogClock;21.22
	fillh _Cons 2 2
.d 1 0
	rtn
.export e_iTasks.Extensions.Clock_dtdi_AnalogClock;19.20
.export e_iTasks.Extensions.Clock_ntdi_AnalogClock;19.20
.descn e_iTasks.Extensions.Clock_dtdi_AnalogClock;19.20 e_iTasks.Extensions.Clock_ntdi_AnalogClock;19.20 0 0 "tdi_AnalogClock;19.20"
.n 0 e_iTasks.Extensions.Clock_dtdi_AnalogClock;19.20
.o 1 0
e_iTasks.Extensions.Clock_ntdi_AnalogClock;19.20
	push_node _cycle_in_spine 0
.o 0 0
ea20
	build e_iTasks.Extensions.Clock_dcli_AnalogClock;18.19 0 e_iTasks.Extensions.Clock_ncli_AnalogClock;18.19
	buildI 1
	buildI 0
	buildAC "AnalogClock"
	buildh ARRAY 1
	fill_r e_StdGeneric_rGenericTypeDefDescriptor 4 0 4 0 0
	pop_a 4
.d 1 0
	rtn
.export e_iTasks.Extensions.Clock_dgti_AnalogClock;20.21
.export e_iTasks.Extensions.Clock_ngti_AnalogClock;20.21
.descn e_iTasks.Extensions.Clock_dgti_AnalogClock;20.21 e_iTasks.Extensions.Clock_ngti_AnalogClock;20.21 0 0 "gti_AnalogClock;20.21"
.n 0 e_iTasks.Extensions.Clock_dgti_AnalogClock;20.21 ea21
.o 1 0
e_iTasks.Extensions.Clock_ngti_AnalogClock;20.21
	push_node _cycle_in_spine 0
.o 1 0
ea21
.o 1 0
s21
	buildAC "AnalogClock"
	buildh ARRAY 1
	buildh e_StdGeneric_dGenTypeCons 1
	buildAC "Time"
	buildh ARRAY 1
	buildh e_StdGeneric_dGenTypeCons 1
	fillh e_StdGeneric_dGenTypeArrow 2 2
.d 1 0
	rtn
.export e_iTasks.Extensions.Clock_dbimapToGeneric;32.33
.export e_iTasks.Extensions.Clock_nbimapToGeneric;32.33
.descn e_iTasks.Extensions.Clock_dbimapToGeneric;32.33 e_iTasks.Extensions.Clock_nbimapToGeneric;32.33 1 0 "bimapToGeneric;32.33"
.n 1 e_iTasks.Extensions.Clock_dbimapToGeneric;32.33 ea33
.o 1 0
e_iTasks.Extensions.Clock_nbimapToGeneric;32.33
	push_node _cycle_in_spine 1
.o 2 0
ea33
	jsr_eval 0
.o 2 0
s33
	eq_desc _Just 1 0
	jmp_true case.1
	jmp case.2
case.1
	repl_args 1 1
	create
	push_a 1
	update_a 1 2
	updatepop_a 0 1
.d 2 0
	jsr s24
.o 1 0
	fillh _Just 1 1
.d 1 0
	rtn
case.2
	fillh _None 0 1
	pop_a 1
.d 1 0
	rtn
.export e_iTasks.Extensions.Clock_sgEq_AnalogClock;3
.descexp e_iTasks.Extensions.Clock_dgEq_AnalogClock;3 e_iTasks.Extensions.Clock_ngEq_AnalogClock;3 e_iTasks.Extensions.Clock_lgEq_AnalogClock;3 2 0 "gEq_AnalogClock;3"
.o 3 0
e_iTasks.Extensions.Clock_igEq_AnalogClock;3
	pop_a 1
.d 2 0
	jmp s4
.ai 0 a4 e_iTasks.Extensions.Clock_igEq_AnalogClock;3
.o 2 0
e_iTasks.Extensions.Clock_lgEq_AnalogClock;3
	repl_args 1 1
.o 2 0
a4
.d 2 0
	jsr ea4
.o 0 1 b
	buildB_b 0
	pop_b 1
.d 1 0
	rtn
.n 2 e_iTasks.Extensions.Clock_dgEq_AnalogClock;3
.o 1 0
e_iTasks.Extensions.Clock_ngEq_AnalogClock;3
	push_node _cycle_in_spine 2
.d 2 0
	jsr ea4
.o 0 1 b
	fillB_b 0 0
	pop_b 1
.d 1 0
	rtn
.o 2 0
ea4
	jsr_eval 1
	jsr_eval 0
.o 2 0
e_iTasks.Extensions.Clock_sgEq_AnalogClock;3
.o 2 0
s4
	create
	push_a 2
	update_a 2 3
	update_a 1 2
	updatepop_a 0 1
.d 2 0
	jsr s24
.o 1 0
	create
	push_a 2
	buildh _Nil 0
	update_a 0 4
	pop_a 1
.d 2 0
	jsr s24
.o 1 0
	update_a 1 2
	updatepop_a 0 1
.d 2 0
	jmp s47
.o 2 0
s47
	push_a 1
	push_a 1
	update_a 1 3
	updatepop_a 0 2
.d 2 0
	jmp s46
.o 2 0
s46
	repl_args 1 1
	push_args 1 1 1
	buildh _Nil 0
	update_a 0 3
	pop_a 1
	push_a 0
	jsr_eval 0
	repl_r_args 0 3
	push_a 1
	jsr_eval 0
	repl_r_args 0 3
	pop_a 3
.d 0 6 iiiiii
	jmp e_iTasks.Extensions.DateTime_sgEq_Time;37
.export e_iTasks.Extensions.Clock_sgEditor_AnalogClock;2
.descexp e_iTasks.Extensions.Clock_dgEditor_AnalogClock;2 e_iTasks.Extensions.Clock_ngEditor_AnalogClock;2 e_iTasks.Extensions.Clock_lgEditor_AnalogClock;2 1 0 "gEditor_AnalogClock;2"
.o 2 0
e_iTasks.Extensions.Clock_igEditor_AnalogClock;2
	pop_a 1
.d 1 0
	jmp s3
.ai 1 _ e_iTasks.Extensions.Clock_igEditor_AnalogClock;2
.o 2 0
e_iTasks.Extensions.Clock_lgEditor_AnalogClock;2
	pop_a 1
.d 1 0
	jsr ea3
.o 4 0
.impmod iTasks.UI.Editor
.impdesc e_iTasks.UI.Editor_rEditor
	buildhr e_iTasks.UI.Editor_rEditor 4 0
.d 1 0
	rtn
.n 1 e_iTasks.Extensions.Clock_dgEditor_AnalogClock;2
.o 1 0
e_iTasks.Extensions.Clock_ngEditor_AnalogClock;2
	push_node _cycle_in_spine 1
.d 1 0
	jsr ea3
.o 4 0
	fill_r e_iTasks.UI.Editor_rEditor 4 0 4 0 0
	pop_a 4
.d 1 0
	rtn
.o 1 0
ea3
	jsr_eval 0
.o 1 0
e_iTasks.Extensions.Clock_sgEditor_AnalogClock;2
.o 1 0
s3
	pop_a 1
.d 0 0
	jmp s7
.export e_iTasks.Extensions.Clock_sJSONDecode_AnalogClock;1
.descexp e_iTasks.Extensions.Clock_dJSONDecode_AnalogClock;1 e_iTasks.Extensions.Clock_nJSONDecode_AnalogClock;1 e_iTasks.Extensions.Clock_lJSONDecode_AnalogClock;1 2 0 "JSONDecode_AnalogClock;1"
.o 2 1 b
e_iTasks.Extensions.Clock_iJSONDecode_AnalogClock;1
	pop_a 1
.d 1 1 b
	jmp s2
.ai 0 a2 e_iTasks.Extensions.Clock_iJSONDecode_AnalogClock;1
.o 2 0
e_iTasks.Extensions.Clock_lJSONDecode_AnalogClock;1
	repl_args 1 1
.o 2 0
a2
.d 2 0
	jsr ea2
.o 2 0
	push_a 1
	push_a 1
	buildh _Tuple 2
	updatepop_a 0 2
.d 1 0
	rtn
.n 2 e_iTasks.Extensions.Clock_dJSONDecode_AnalogClock;1
.o 1 0
e_iTasks.Extensions.Clock_nJSONDecode_AnalogClock;1
	push_node _cycle_in_spine 2
.d 2 0
	jsr ea2
.o 2 0
	push_a 1
	push_a 1
	fillh _Tuple 2 4
	pop_a 2
.d 1 0
	rtn
.o 2 0
ea2
	jsr_eval 1
	jsr_eval 0
	pushB_a 0
	pop_a 1
.o 1 1 b
e_iTasks.Extensions.Clock_sJSONDecode_AnalogClock;1
.o 1 1 b
s2
	push_a 0
	push_b 0
	buildAC "AnalogClock"
	buildh ARRAY 1
	updatepop_b 0 1
	update_a 1 2
	updatepop_a 0 1
.d 2 1 b
	jsr s45
.o 2 0
.d 2 0
	jmp s268
.o 2 1 b
s45
	push_a 1
	pushB FALSE
	push_a 1
	updatepop_b 0 1
	update_a 1 2
	updatepop_a 0 1
.d 2 1 b
	jsr s44
.o 2 0
	push_a 2
	push_a 2
	update_a 1 3
	update_a 2 1
	update_a 0 2
	pop_a 1
	update_a 2 3
	update_a 1 2
	updatepop_a 0 1
.d 3 0
	jmp s267
.o 2 1 b
s44
	eq_desc _Cons 2 1
	jmp_true case.3
	jmp case.4
case.3
	push_args 1 2 2
	jsr_eval 0
	eq_desc e_Text.GenJSON_kJSONArray 0 0
	jmp_true case.5
	pop_a 2
	jmp case.4
case.5
	repl_args 1 1
	eq_desc _Cons 2 0
	jmp_true case.6
	pop_a 2
	jmp case.4
case.6
	repl_args 2 2
	jsr_eval 0
	eq_desc e_Text.GenJSON_kJSONString 0 0
	jmp_true case.7
	pop_a 3
	jmp case.4
case.7
	repl_args 1 1
	push_array 3
	push_a 1
	pop_b 1
	update_a 1 2
	updatepop_a 0 1
	buildh _Nil 0
	update_a 0 5
	pop_a 1
.d 2 0
	jsr eqAC
.o 0 1 b
	jmp_false else.8
	push_a 0
	jsr_eval 0
	pushB FALSE
	update_a 2 3
	updatepop_a 0 2
.d 1 1 b
	jsr e_iTasks.Extensions.DateTime_sJSONDecode_Time;34
.o 2 0
	push_a 3
	push_a 3
	push_a 3
	update_a 2 4
	update_a 0 2
	update_a 3 0
	update_a 1 3
	update_a 0 1
	pop_a 1
	update_a 3 5
	update_a 2 4
	update_a 1 3
	updatepop_a 0 2
.d 4 0
	jmp s266
else.8
	buildh _None 0
	push_a 4
	push_a 1
	update_a 1 2
	update_a 0 1
	pop_a 1
	update_a 1 5
	updatepop_a 0 4
.d 2 0
	rtn
case.4
	buildh _None 0
	push_a 2
	push_a 1
	update_a 1 2
	update_a 0 1
	pop_a 1
	update_a 1 3
	updatepop_a 0 2
	pop_b 1
.d 2 0
	rtn
.o 2 0
s29
	eq_desc _Just 1 0
	jmp_true case.9
	jmp case.10
case.9
	repl_args 1 1
	create
	push_a 1
	update_a 1 2
	updatepop_a 0 1
.d 2 0
	jsr s23
.o 1 0
	fillh _Just 1 1
.d 1 0
	rtn
case.10
	fillh _None 0 1
	pop_a 1
.d 1 0
	rtn
.o 2 0
s23
	repl_args 1 1
	push_a 0
	jsr_eval 0
	repl_r_args 0 3
	fill_r e_iTasks.Extensions.Clock_kAnalogClock 0 3 1 0 0
	pop_a 1
	pop_b 3
.d 1 0
	rtn
.export e_iTasks.Extensions.Clock_sJSONEncode_AnalogClock;0
.export e_iTasks.Extensions.Clock_eaJSONEncode_AnalogClock;0
.descexp e_iTasks.Extensions.Clock_dJSONEncode_AnalogClock;0 e_iTasks.Extensions.Clock_nJSONEncode_AnalogClock;0 e_iTasks.Extensions.Clock_lJSONEncode_AnalogClock;0 2 0 "JSONEncode_AnalogClock;0"
.o 3 1 b
e_iTasks.Extensions.Clock_iJSONEncode_AnalogClock;0
	pop_a 1
.d 2 1 b
	jmp s1
.ai 2 e_iTasks.Extensions.Clock_eaJSONEncode_AnalogClock;0 e_iTasks.Extensions.Clock_iJSONEncode_AnalogClock;0
.o 2 0
e_iTasks.Extensions.Clock_lJSONEncode_AnalogClock;0
	push_args 0 1 1
	update_a 2 1
	create
	update_a 0 3
	pop_a 1
.d 3 0
	jmp e_iTasks.Extensions.Clock_eaJSONEncode_AnalogClock;0
.n 2 e_iTasks.Extensions.Clock_dJSONEncode_AnalogClock;0 e_iTasks.Extensions.Clock_eaJSONEncode_AnalogClock;0
.o 1 0
e_iTasks.Extensions.Clock_nJSONEncode_AnalogClock;0
	push_node _cycle_in_spine 2
.o 3 0
e_iTasks.Extensions.Clock_eaJSONEncode_AnalogClock;0
	jsr_eval 1
	jsr_eval 0
	pushB_a 0
	pop_a 1
.o 2 1 b
e_iTasks.Extensions.Clock_sJSONEncode_AnalogClock;0
.o 2 1 b
s1
	create
	push_a 1
	update_a 1 2
	updatepop_a 0 1
.d 2 0
	jsr s24
.o 1 0
	push_b 0
	buildAC "AnalogClock"
	buildh ARRAY 1
	updatepop_b 0 1
.d 3 1 b
	jmp s43
.o 3 1 b
s43
	push_a 1
	pushB FALSE
	push_a 1
	update_a 1 3
	updatepop_a 0 2
	updatepop_b 0 1
.d 3 1 b
	jmp s42
.o 3 1 b
s42
	push_args 1 1 1
	buildh _Nil 0
	update_a 0 3
	pop_a 1
	buildh _Nil 0
	push_a 1
	buildB FALSE
	build e_iTasks.Extensions.DateTime_dJSONEncode_Time;31 2 e_iTasks.Extensions.DateTime_nJSONEncode_Time;31
	push_a 3
	build e_Text.GenJSON_dJSONString 1 e_Text.GenJSON_nJSONString
	buildh _Cons 2
	buildhr e_Text.GenJSON_kJSONArray 1 0
	fillh _Cons 2 5
	pop_a 3
	pop_b 1
.d 1 0
	rtn
.o 2 0
s24
	repl_r_args 0 3
	build_r e_iTasks.Extensions.DateTime_rTime 0 3 0 0
	fillh e_StdGeneric_dCONS 1 1
	pop_b 3
.d 1 0
	rtn
.o 0 0
s7
	buildh e_iTasks.Extensions.Clock_dwriteValue;17.18 0
	buildh e_iTasks.Extensions.Clock_donRefresh;15.16 0
	buildh e_iTasks.Extensions.Clock_donEdit;16.17 0
	buildI 11
	buildI 0
	build e_iTasks.Extensions.Clock_dc;45;146;7.8 2 e_iTasks.Extensions.Clock_nc;45;146;7.8
	buildh _Nil 0
	buildh e_Text.HTML_dPX 0
	buildAC "0"
	buildh ARRAY 1
	buildh e_Text.HTML_dSVGLength 2
	buildhr e_Text.HTML_kYAttr 1 0
	buildh _Cons 2
	buildh e_Text.HTML_dPX 0
	buildAC "0"
	buildh ARRAY 1
	buildh e_Text.HTML_dSVGLength 2
	buildhr e_Text.HTML_kXAttr 1 0
	buildh _Cons 2
	buildh _Nil 0
	buildAC "fill:#ccc;stroke: #000;stroke-width: 3px"
	buildhr e_Text.HTML_kStyleAttr 1 0
	buildh _Cons 2
	buildAC "100px"
	buildhr e_Text.HTML_kHeightAttr 1 0
	buildh _Cons 2
	buildAC "100px"
	buildhr e_Text.HTML_kWidthAttr 1 0
	buildh _Cons 2
	buildhr e_Text.HTML_kRectElt 2 0
	buildh _Cons 2
	buildh e_iTasks.Extensions.Clock_donReset;571.41 1
	buildh e_Text.GenJSON_dJSONDecode__Unit;53 0
	buildh e_iTasks.Extensions.Clock_dTD;AnalogClock 0
	buildhr e__SystemDynamic_kTypeCons 1 0
.d 6 0
	jsr e_iTasks.UI.Editor_sleafEditorToEditor
.o 4 0
	buildh e_iTasks.Extensions.Clock_dinitUI;11.12 0
.d 5 0
	jmp e_iTasks.UI.Editor_swithClientSideInit
.export e_iTasks.Extensions.Clock_donReset;571.41
.desc e_iTasks.Extensions.Clock_donReset;571.41 _hnf l41 4 0 "onReset;571.41"
.a 0 a41
.o 2 0
l41
	repl_args 3 3
.o 4 0
a41
.o 4 0
ea41
	pushI 0
	pushI 0
	pushI 0
	buildhr e_iTasks.Extensions.Clock_kAnalogClock 0 3
	push_a 3
	push_a 1
	update_a 1 2
	update_a 0 1
	pop_a 1
	build e_Data.Maybe_dfromMaybe;67 2 e_Data.Maybe_nfromMaybe;67
	push_a 0
	build e_iTasks.Extensions.Clock_d_match0.279 1 e_iTasks.Extensions.Clock_n_match0.279
	buildh _None 0
	buildh _Nil 0
	push_a 5
	buildh _Cons 2
	push_a 2
	build e_iTasks.Extensions.DateTime_dTime.sec -3 e_iTasks.Extensions.DateTime_nTime.sec
	push_a 3
	build e_iTasks.Extensions.DateTime_dTime.min -3 e_iTasks.Extensions.DateTime_nTime.min
	push_a 4
	build e_iTasks.Extensions.DateTime_dTime.hour -3 e_iTasks.Extensions.DateTime_nTime.hour
	push_a 7
	build e_iTasks.Extensions.Clock_dsvgClock;8.9 4 e_iTasks.Extensions.Clock_nsvgClock;8.9
	build e_iTasks.Extensions.Clock_d_f5.274 1 e_iTasks.Extensions.Clock_n_f5.274
	build e_iTasks.UI.Definition_dvalueAttr 1 e_iTasks.UI.Definition_nvalueAttr
	buildh _Cons 2
	pushI 100
	buildhr e_iTasks.UI.Definition_kExactSize 0 1
	pushI 100
	buildhr e_iTasks.UI.Definition_kExactSize 0 1
	build e_iTasks.UI.Definition_dsizeAttr 2 e_iTasks.UI.Definition_nsizeAttr
	buildh _Cons 2
	build e_Data.Map_dunions;70 1 e_Data.Map_nunions;70
	buildh e_iTasks.UI.Definition_dUIHtmlView 0
	build e_iTasks.UI.Definition_duia 2 e_iTasks.UI.Definition_nuia
	push_a 3
	push_a 1
	update_a 1 2
	update_a 0 1
	pop_a 1
	buildh _Tuple 3
	buildh e_Data.Error_dOk 1
	push_a 6
	push_a 1
	update_a 1 2
	update_a 0 1
	pop_a 1
	update_a 1 7
	updatepop_a 0 6
	push_a 1
	push_a 1
	buildh _Tuple 2
	updatepop_a 0 2
.d 1 0
	rtn
.export e_iTasks.Extensions.Clock_d_match0.279
.export e_iTasks.Extensions.Clock_n_match0.279
.descn e_iTasks.Extensions.Clock_d_match0.279 e_iTasks.Extensions.Clock_n_match0.279 1 0 "_match0.279"
.n 1 e_iTasks.Extensions.Clock_d_match0.279
.o 1 0
e_iTasks.Extensions.Clock_n_match0.279
	push_node _cycle_in_spine 1
.d 1 0
	jsr ea279
.o 0 3 iii
	fill_r e_iTasks.Extensions.DateTime_rTime 0 3 0 0 0
	pop_b 3
.d 1 0
	rtn
.o 1 0
ea279
	jsr_eval 0
.o 1 0
s279
	repl_r_args 0 3
.d 0 3 iii
	rtn
.export e_iTasks.Extensions.Clock_d_f5.274
.export e_iTasks.Extensions.Clock_n_f5.274
.descn e_iTasks.Extensions.Clock_d_f5.274 e_iTasks.Extensions.Clock_n_f5.274 1 0 "_f5.274"
.n 1 e_iTasks.Extensions.Clock_d_f5.274 ea274
.o 1 0
e_iTasks.Extensions.Clock_n_f5.274
	push_node _cycle_in_spine 1
.o 2 0
ea274
.o 2 0
s274
	push_a 0
	jsr_eval 0
	updatepop_a 0 1
.d 1 0
	jsr e_Text.HTML_stoString;7
.o 1 0
	fill_r e_Text.GenJSON_kJSONString 1 0 1 0 0
	pop_a 1
.d 1 0
	rtn
.export e_iTasks.Extensions.Clock_dc;45;146;7.8
.export e_iTasks.Extensions.Clock_nc;45;146;7.8
.descn e_iTasks.Extensions.Clock_dc;45;146;7.8 e_iTasks.Extensions.Clock_nc;45;146;7.8 2 0 "c;45;146;7.8"
.n 2 e_iTasks.Extensions.Clock_dc;45;146;7.8 ea8
.o 1 0
e_iTasks.Extensions.Clock_nc;45;146;7.8
	push_node _cycle_in_spine 2
.o 3 0
ea8
	pushI_a 1
	pushI_a 0
	pop_a 2
.o 1 2 ii
s8
	push_b 0
	push_b 2
	ltI
	notB
	jmp_false else.11
	push_b 1
	push_b 1
	build_u e_iTasks.Extensions.Clock_d_f4.273 0 2 e_iTasks.Extensions.Clock_n_f4.273
	buildh _Nil 0
	buildh _Nil 0
	buildAC "50"
	buildh ARRAY 1
	buildAC "50"
	buildh ARRAY 1
	buildh _Tuple 2
	buildh _Just 1
	push_b 0
	build_u e_iTasks.Extensions.Clock_d_f3.272 1 1 e_iTasks.Extensions.Clock_n_f3.272
	buildh _Cons 2
	buildhr e_Text.HTML_kTransformAttr 1 0
	buildh _Cons 2
	buildh e_Text.HTML_dPX 0
	buildAC "50"
	buildh ARRAY 1
	buildh e_Text.HTML_dSVGLength 2
	buildhr e_Text.HTML_kYAttr 1 0
	buildh _Cons 2
	buildh e_Text.HTML_dPX 0
	buildAC "90"
	buildh ARRAY 1
	buildh e_Text.HTML_dSVGLength 2
	buildhr e_Text.HTML_kXAttr 1 0
	buildh _Cons 2
	buildh _Nil 0
	buildAC "fill: #ddd;"
	buildhr e_Text.HTML_kStyleAttr 1 0
	buildh _Cons 2
	buildAC "2px"
	buildhr e_Text.HTML_kHeightAttr 1 0
	buildh _Cons 2
	buildAC "10px"
	buildhr e_Text.HTML_kWidthAttr 1 0
	buildh _Cons 2
	buildhr e_Text.HTML_kRectElt 2 0
	fillh _Cons 2 2
	pop_b 2
.d 1 0
	rtn
else.11
	fillh _Nil 0 0
	pop_b 2
.d 1 0
	rtn
.export e_iTasks.Extensions.Clock_d_f4.273
.export e_iTasks.Extensions.Clock_n_f4.273
.descn e_iTasks.Extensions.Clock_d_f4.273 e_iTasks.Extensions.Clock_n_f4.273 2 0 "_f4.273"
.nu 0 2 e_iTasks.Extensions.Clock_d_f4.273 _
.o 1 0
e_iTasks.Extensions.Clock_n_f4.273
	push_node_u _cycle_in_spine 0 2
.o 1 2 ii
ea273
.o 1 2 ii
s273
	pushI 1
	push_b 1
	addI
	push_b 2
	push_b 1
	update_b 1 2
	update_b 0 1
	pop_b 1
	update_b 1 3
	updatepop_b 0 2
.d 1 2 ii
	jmp s8
.export e_iTasks.Extensions.Clock_d_f3.272
.export e_iTasks.Extensions.Clock_n_f3.272
.descn e_iTasks.Extensions.Clock_d_f3.272 e_iTasks.Extensions.Clock_n_f3.272 2 0 "_f3.272"
.nu 1 1 e_iTasks.Extensions.Clock_d_f3.272 _
.o 1 0
e_iTasks.Extensions.Clock_n_f3.272
	push_node_u _cycle_in_spine 1 1
.o 2 1 i
ea272
.o 2 1 i
s272
	push_a 0
	jsr_eval 0
	push_b 0
	pushI 30
	mulI
	updatepop_b 0 1
	buildh _Nil 0
	update_a 0 2
	pop_a 1
.d 0 1 i
	jsr ItoAC
.o 1 0
	fill_r e_Text.HTML_kRotateTransform 2 0 3 0 0
	pop_a 3
.d 1 0
	rtn
.export e_iTasks.Extensions.Clock_dinitUI;11.12
.desc e_iTasks.Extensions.Clock_dinitUI;11.12 _hnf l12 3 0 "initUI;11.12"
.a 3 ea12
.o 2 0
l12
	push_args 0 2 2
	update_a 3 2
	create
	update_a 0 4
	pop_a 1
.o 4 0
ea12
	jsr_eval 2
	jsr_eval 1
.o 4 0
s12
	push_a 1
	buildh e_iTasks.Extensions.Clock_donAttributeChange;570.40 1
	push_a 3
	push_a 3
	push_a 2
	update_a 2 3
	update_a 1 2
	update_a 0 1
	pop_a 1
	update_a 4 5
	update_a 2 4
	update_a 1 3
	updatepop_a 0 2
.d 3 0
	jsr e_ABC.Interpreter.JavaScript_sjsWrapFun
.o 2 0
	create
	buildAC "onAttributeChange"
	push_a 4
	buildh _Nil 0
	update_a 0 6
	pop_a 1
.d 3 0
	jsr e_ABC.Interpreter.JavaScript_s.#;46
.o 1 0
	buildh e_ABC.Interpreter.JavaScript_dgToJS_JSVal;72 0
	push_a 3
	push_a 3
	push_a 3
	update_a 2 4
	update_a 0 2
	update_a 3 0
	update_a 1 3
	update_a 0 1
	pop_a 1
	update_a 3 6
	update_a 2 5
	update_a 1 4
	updatepop_a 0 3
.d 5 0
	jmp e_ABC.Interpreter.JavaScript_s.=
.export e_iTasks.Extensions.Clock_donAttributeChange;570.40
.desc e_iTasks.Extensions.Clock_donAttributeChange;570.40 _hnf l40 3 0 "onAttributeChange;570.40"
.a 3 ea40
.o 2 0
l40
	push_args 0 2 2
	update_a 3 2
	create
	update_a 0 4
	pop_a 1
.o 4 0
ea40
	jsr_eval 2
	jsr_eval 1
	push_array 1
	update_a 0 2
	pop_a 1
.o 4 0
s40
	pushI 0
	push_a 1
	update_a 1 2
	updatepop_a 0 1
	push_a 0
	select _ 1 0
	pushI 1
	push_a 1
	update_a 1 2
	updatepop_a 0 1
	push_a 0
	select _ 1 0
	buildAC "diff"
	buildh ARRAY 1
	buildh _Just 1
	create
	push_a 4
	buildh _Nil 0
	update_a 0 6
	update_a 0 5
	pop_a 1
.d 2 0
	jsr e_ABC.Interpreter.JavaScript_sjsValToString
.o 1 0
	buildh e_StdString_d==;2 0
	update_a 3 5
	update_a 2 4
	update_a 1 3
	updatepop_a 0 2
.d 3 0
	jsr e_StdMaybe_s==;7
.o 0 1 b
	jmp_false else.12
	push_a 2
	pushI 0
	create
	buildAC "length"
	push_a 3
	buildh _Nil 0
	update_a 0 7
	pop_a 1
.d 3 0
	jsr e_ABC.Interpreter.JavaScript_s.#;46
.o 1 0
.d 2 1 i
	jsr e_ABC.Interpreter.JavaScript_s.??;64
.o 1 1 i
	pushI 2
	push_b 1
	ltI
	jmp_false else.13
	create
	pushI 0
	push_a 2
	update_a 4 5
	update_a 2 4
	update_a 1 3
	updatepop_a 0 2
.d 2 1 i
	jsr e_ABC.Interpreter.JavaScript_s.#;47
.o 1 0
	push_a 2
	jsr_eval 0
	push_a 2
	push_a 2
	update_a 1 3
	update_a 2 1
	update_a 0 2
	pop_a 1
	update_a 2 4
	update_a 1 3
	updatepop_a 0 2
	pop_b 1
.d 4 0
	jmp s14
else.13
	pushI 3
	push_b 1
	ltI
	jmp_false else.14
	create
	pushI 0
	push_a 2
.d 2 1 i
	jsr e_ABC.Interpreter.JavaScript_s.#;47
.o 1 0
	push_a 3
	jsr_eval 0
	create
	push_a 3
	push_a 3
	update_a 2 4
	update_a 0 2
	update_a 3 0
	update_a 1 3
	update_a 0 1
	pop_a 1
	update_a 3 4
	update_a 2 3
	update_a 1 2
	updatepop_a 0 1
.d 4 0
	jsr s14
.o 1 0
	create
	pushI 1
	push_a 2
	buildh _Nil 0
	update_a 0 4
	pop_a 1
.d 2 1 i
	jsr e_ABC.Interpreter.JavaScript_s.#;47
.o 1 0
	push_a 3
	update_a 2 5
	update_a 1 4
	updatepop_a 0 3
	pop_b 1
.d 4 0
	jmp s14
else.14
	create
	pushI 0
	push_a 2
.d 2 1 i
	jsr e_ABC.Interpreter.JavaScript_s.#;47
.o 1 0
	push_a 3
	jsr_eval 0
	create
	push_a 3
	push_a 3
	update_a 2 4
	update_a 0 2
	update_a 3 0
	update_a 1 3
	update_a 0 1
	pop_a 1
	update_a 3 4
	update_a 2 3
	update_a 1 2
	updatepop_a 0 1
.d 4 0
	jsr s14
.o 1 0
	create
	pushI 1
	push_a 2
.d 2 1 i
	jsr e_ABC.Interpreter.JavaScript_s.#;47
.o 1 0
	create
	push_a 4
	push_a 3
	update_a 2 4
	update_a 3 2
	update_a 0 3
	pop_a 1
.d 4 0
	jsr s14
.o 1 0
	create
	pushI 2
	push_a 2
	buildh _Nil 0
	update_a 0 4
	pop_a 1
.d 2 1 i
	jsr e_ABC.Interpreter.JavaScript_s.#;47
.o 1 0
	push_a 3
	update_a 2 5
	update_a 1 4
	updatepop_a 0 3
	pop_b 1
.d 4 0
	jmp s14
else.12
	buildh e_StdString_dtoString;9 0
	push_a 3
	buildAC "Unknown attribute change"
	buildh ARRAY 1
	push_a 2
	update_a 2 3
	update_a 1 2
	update_a 0 1
	pop_a 1
	update_a 2 5
	update_a 1 4
	updatepop_a 0 3
.d 3 0
	jsr e_ABC.Interpreter.JavaScript_sjsTrace
.o 1 0
	fill_a 0 1
	pop_a 1
.d 1 0
	rtn
.o 4 0
s14
	push_a 2
	pushI 0
	create
	pushI 0
	push_a 3
	buildh _Nil 0
	update_a 0 6
	pop_a 1
.d 2 1 i
	jsr e_ABC.Interpreter.JavaScript_s.#;47
.o 1 0
.d 2 1 i
	jsr e_ABC.Interpreter.JavaScript_s.??;64
.o 1 1 i
	push_a 0
	pushI 0
	create
	pushI 1
	push_a 4
	buildh _Nil 0
	update_a 0 6
	update_a 0 4
	pop_a 1
.d 2 1 i
	jsr e_ABC.Interpreter.JavaScript_s.#;47
.o 1 0
	update_a 3 5
	update_a 1 4
	updatepop_a 0 3
.d 2 1 i
	jsr e_ABC.Interpreter.JavaScript_s.??;64
.o 1 1 i
	push_b 1
	pushI 13
	addI
	create
	buildAC "domEl.children"
	push_a 3
	update_a 3 4
	update_a 2 3
	update_a 1 2
	updatepop_a 0 1
.d 3 0
	jsr e_ABC.Interpreter.JavaScript_s.#;46
.o 1 0
	create
	pushI 0
	push_a 1
	update_a 1 2
	update_a 0 1
	pop_a 1
.d 2 1 i
	jsr e_ABC.Interpreter.JavaScript_s.#;47
.o 1 0
	create
	buildAC "children"
	push_a 2
	update_a 2 3
	update_a 1 2
	update_a 0 1
	pop_a 1
.d 3 0
	jsr e_ABC.Interpreter.JavaScript_s.#;46
.o 1 0
	create
	push_a 1
	update_a 1 2
	update_a 0 1
	pop_a 1
.d 2 1 i
	jsr e_ABC.Interpreter.JavaScript_s.#;47
.o 1 0
	push_a 1
	push_a 1
	update_a 1 2
	update_a 0 1
	pop_a 1
	update_a 1 2
	updatepop_a 0 1
.d 2 0
	jsr e_ABC.Interpreter.JavaScript_s.?
.o 2 0
	buildI_b 0
	push_b 1
	build_u e_iTasks.Extensions.Clock_d_f9.278 1 1 e_iTasks.Extensions.Clock_n_f9.278
	buildAC "transform"
	buildh ARRAY 1
	buildh _Tuple 2
	create
	buildAC "setAttribute"
	push_a 3
	pop_b 1
	buildh _Nil 0
	update_a 0 5
	pop_a 1
.d 3 0
	jsr e_ABC.Interpreter.JavaScript_s.#;46
.o 1 0
	buildh e_ABC.Interpreter.JavaScript_dgToJS__String;70 0
	buildhr e_iTasks.Extensions.Clock_rgToJS_s; 1 0
	buildh e_ABC.Interpreter.JavaScript_dgToJS__String;70 0
	buildhr e_iTasks.Extensions.Clock_rgToJS_s; 1 0
	buildh e_ABC.Interpreter.JavaScript_dtoJSArgs;57 2
	push_a 4
	push_a 3
	update_a 1 4
	update_a 2 1
	update_a 3 2
	update_a 0 3
	pop_a 1
	update_a 3 5
	update_a 2 4
	update_a 1 3
	updatepop_a 0 2
	pop_b 1
.d 5 0
	jmp e_ABC.Interpreter.JavaScript_s.$!
.export e_iTasks.Extensions.Clock_d_f9.278
.export e_iTasks.Extensions.Clock_n_f9.278
.descn e_iTasks.Extensions.Clock_d_f9.278 e_iTasks.Extensions.Clock_n_f9.278 2 0 "_f9.278"
.nu 1 1 e_iTasks.Extensions.Clock_d_f9.278 _
.o 1 0
e_iTasks.Extensions.Clock_n_f9.278
	push_node_u _cycle_in_spine 1 1
.o 2 1 i
ea278
.o 2 1 i
s278
	push_a 0
	jsr_eval 0
	pushI_a 1
	pop_a 1
	push_b 1
	update_b 1 2
	updatepop_b 0 1
	pop_a 1
.d 0 2 ii
	jsr s15
.o 0 1 i
	pushI 90
	push_b 1
	update_b 1 2
	update_b 0 1
	pop_b 1
	subI
.d 0 1 i
	jsr ItoAC
.o 1 0
	buildAC " 50 50)"
	push_a 1
	update_a 1 2
	update_a 0 1
	pop_a 1
.d 2 0
	jsr catAC
.o 1 0
	buildAC "rotate("
.d 2 0
	jsr catAC
.o 1 0
	fillh ARRAY 1 1
.d 1 0
	rtn
.export e_iTasks.Extensions.Clock_dwriteValue;17.18
.desc e_iTasks.Extensions.Clock_dwriteValue;17.18 _hnf l18 1 0 "writeValue;17.18"
.o 2 0
l18
	update_a 1 0
	create
	update_a 0 2
	pop_a 1
.o 2 0
ea18
.o 2 0
s18
	buildh _None 0
	fillh e_Data.Error_dOk 1 2
	pop_a 1
.d 1 0
	rtn
.export e_iTasks.Extensions.Clock_donRefresh;15.16
.desc e_iTasks.Extensions.Clock_donRefresh;15.16 _hnf l16 3 0 "onRefresh;15.16"
.a 0 a16
.o 2 0
l16
	repl_args 2 2
.o 3 0
a16
.d 3 0
	jsr ea16
.o 2 0
	push_a 1
	push_a 1
	buildh _Tuple 2
	updatepop_a 0 2
.d 1 0
	rtn
.o 3 0
ea16
	jsr_eval 1
	jsr_eval 0
.o 3 0
s16
	push_r_args 0 0 3
	push_r_args 1 0 3
	build_r e_iTasks.Extensions.DateTime_rTime 0 3 0 3
	buildI_b 3
	buildI_b 0
	build e_iTasks.Extensions.Clock_d_f1.270 3 e_iTasks.Extensions.Clock_n_f1.270
	build_r e_iTasks.Extensions.DateTime_rTime 0 3 0 3
	buildI_b 4
	buildI_b 1
	build e_iTasks.Extensions.Clock_d_f0.269 3 e_iTasks.Extensions.Clock_n_f0.269
	build e_StdList_d++ 2 e_StdList_n++
	build_r e_iTasks.Extensions.DateTime_rTime 0 3 0 3
	push_b 5
	push_b 3
	eqI
	create
	push_a 1
	update_a 1 2
	update_a 0 1
	pop_a 1
	updatepop_b 0 6
.d 2 1 b
	jsr s48
.o 1 0
	create
	push_a 2
	update_a 1 3
	update_a 2 1
	update_a 0 2
	pop_a 1
.d 3 0
	jsr e_StdList_s++
.o 1 0
	push_a 1
	push_a 4
	push_a 4
	push_a 3
	update_a 3 4
	update_a 2 3
	update_a 1 2
	update_a 0 1
	pop_a 1
	update_a 3 6
	update_a 2 5
	update_a 1 4
	updatepop_a 0 3
.d 4 0
	jmp s51
.export e_iTasks.Extensions.Clock_d_f1.270
.export e_iTasks.Extensions.Clock_n_f1.270
.descn e_iTasks.Extensions.Clock_d_f1.270 e_iTasks.Extensions.Clock_n_f1.270 3 0 "_f1.270"
.n 3 e_iTasks.Extensions.Clock_d_f1.270 ea270
.o 1 0
e_iTasks.Extensions.Clock_n_f1.270
	push_node _cycle_in_spine 3
.o 4 0
ea270
.o 4 0
s270
	push_a 1
	jsr_eval 0
	pushI_a 2
	pop_a 1
	push_a 0
	jsr_eval 0
	pushI_a 1
	pop_a 1
	eqI
	push_a 2
	updatepop_a 0 3
.d 2 1 b
	jmp s50
.export e_iTasks.Extensions.Clock_d_f0.269
.export e_iTasks.Extensions.Clock_n_f0.269
.descn e_iTasks.Extensions.Clock_d_f0.269 e_iTasks.Extensions.Clock_n_f0.269 3 0 "_f0.269"
.n 3 e_iTasks.Extensions.Clock_d_f0.269 ea269
.o 1 0
e_iTasks.Extensions.Clock_n_f0.269
	push_node _cycle_in_spine 3
.o 4 0
ea269
.o 4 0
s269
	push_a 1
	jsr_eval 0
	pushI_a 2
	pop_a 1
	push_a 0
	jsr_eval 0
	pushI_a 1
	pop_a 1
	eqI
	push_a 2
	updatepop_a 0 3
.d 2 1 b
	jmp s49
.o 4 0
s51
	eq_desc _Nil 0 0
	jmp_true case.15
	jmp case.16
case.15
	buildh _None 0
	buildh e_iTasks.UI.Definition_dNoChange 0
	push_a 3
	push_a 1
	update_a 1 2
	update_a 0 1
	pop_a 1
	buildh _Tuple 3
	buildh e_Data.Error_dOk 1
	push_a 3
	push_a 1
	update_a 1 2
	update_a 0 1
	pop_a 1
	update_a 1 5
	updatepop_a 0 4
.d 2 0
	rtn
case.16
	buildh _None 0
	buildh _Nil 0
	buildh _Nil 0
	push_a 3
	build e_iTasks.Extensions.Clock_d_f2.271 1 e_iTasks.Extensions.Clock_n_f2.271
	buildAC "diff"
	buildh ARRAY 1
	build e_iTasks.UI.Definition_dSetAttribute 2 e_iTasks.UI.Definition_nSetAttribute
	buildh _Cons 2
	buildh e_iTasks.UI.Definition_dChangeUI 2
	push_a 5
	push_a 1
	update_a 1 2
	update_a 0 1
	pop_a 1
	buildh _Tuple 3
	buildh e_Data.Error_dOk 1
	push_a 3
	push_a 1
	update_a 1 2
	update_a 0 1
	pop_a 1
	update_a 1 5
	updatepop_a 0 4
.d 2 0
	rtn
.export e_iTasks.Extensions.Clock_d_f2.271
.export e_iTasks.Extensions.Clock_n_f2.271
.descn e_iTasks.Extensions.Clock_d_f2.271 e_iTasks.Extensions.Clock_n_f2.271 1 0 "_f2.271"
.n 1 e_iTasks.Extensions.Clock_d_f2.271 ea271
.o 1 0
e_iTasks.Extensions.Clock_n_f2.271
	push_node _cycle_in_spine 1
.o 2 0
ea271
.o 2 0
s271
	buildh e_iTasks.Extensions.Clock_dJSONEncode_s;568.38 0
	push_a 1
	push_a 1
	update_a 1 2
	update_a 0 1
	pop_a 1
	update_a 1 2
	updatepop_a 0 1
.d 3 0
	jmp e_Text.GenJSON_stoJSON
.o 2 1 b
s50
	eqB_b TRUE 0
	jmp_true case.17
	jmp case.18
case.17
	fillh _Nil 0 1
	pop_a 1
	pop_b 1
.d 1 0
	rtn
case.18
	buildh _Nil 0
	push_r_args_b 1 0 3 1 1
	buildI_b 0
	pop_b 1
	buildI 2
	buildh _Tuple 2
	fillh _Cons 2 3
	pop_a 1
	pop_b 1
.d 1 0
	rtn
.o 2 1 b
s49
	eqB_b TRUE 0
	jmp_true case.19
	jmp case.20
case.19
	fillh _Nil 0 1
	pop_a 1
	pop_b 1
.d 1 0
	rtn
case.20
	buildh _Nil 0
	push_r_args_b 1 0 3 2 1
	buildI_b 0
	pop_b 1
	buildI 1
	buildh _Tuple 2
	fillh _Cons 2 3
	pop_a 1
	pop_b 1
.d 1 0
	rtn
.o 2 1 b
s48
	eqB_b TRUE 0
	jmp_true case.21
	jmp case.22
case.21
	fillh _Nil 0 1
	pop_a 1
	pop_b 1
.d 1 0
	rtn
case.22
	buildh _Nil 0
	push_r_args_b 1 0 3 3 1
	buildI_b 0
	pop_b 1
	buildI 0
	buildh _Tuple 2
	fillh _Cons 2 3
	pop_a 1
	pop_b 1
.d 1 0
	rtn
.export e_iTasks.Extensions.Clock_dJSONEncode_s;568.38
.desc e_iTasks.Extensions.Clock_dJSONEncode_s;568.38 _hnf l38 2 0 "JSONEncode_s;568.38"
.o 3 1 b
i38
	pop_a 1
.d 2 1 b
	jmp s38
.ai 2 ea38 i38
.o 2 0
l38
	push_args 0 1 1
	update_a 2 1
	create
	update_a 0 3
	pop_a 1
.o 3 0
ea38
	jsr_eval 1
	jsr_eval 0
	pushB_a 0
	pop_a 1
.o 2 1 b
s38
	buildh e_iTasks.Extensions.Clock_dJSONEncode_s;569.39 0
	push_a 1
	push_b 0
	push_a 1
	update_a 1 2
	update_a 0 1
	pop_a 1
	update_a 1 2
	updatepop_a 0 1
	updatepop_b 0 1
.d 3 1 b
	jmp e_Text.GenJSON_sJSONEncode__List;17
.export e_iTasks.Extensions.Clock_dJSONEncode_s;569.39
.desc e_iTasks.Extensions.Clock_dJSONEncode_s;569.39 _hnf l39 2 0 "JSONEncode_s;569.39"
.o 3 1 b
i39
	pop_a 1
	push_args 0 2 2
	update_a 1 2
	update_a 0 1
	pop_a 1
.d 3 1 b
	jmp s39
.ai 2 ea39 i39
.o 2 0
l39
	push_args 0 1 1
	update_a 2 1
	create
	update_a 0 3
	pop_a 1
.o 3 0
ea39
	push_a 1
	jsr_eval 0
	repl_args 2 2
	jsr_eval 2
	pushB_a 2
	update_a 1 3
	update_a 0 2
	pop_a 2
.o 3 1 b
s39
	buildh e_Text.GenJSON_dJSONEncode_Int;12 0
	buildh e_Text.GenJSON_dJSONEncode_Int;12 0
	push_a 3
	push_a 3
	push_b 0
	push_a 3
	update_a 2 4
	update_a 0 2
	update_a 3 0
	update_a 1 3
	update_a 0 1
	pop_a 1
	update_a 3 5
	update_a 2 4
	update_a 1 3
	updatepop_a 0 2
	updatepop_b 0 1
.d 5 1 b
	jmp e_Text.GenJSON_sJSONEncode__Tuple2;24
.export e_iTasks.Extensions.Clock_donEdit;16.17
.desc e_iTasks.Extensions.Clock_donEdit;16.17 _hnf l17 3 0 "onEdit;16.17"
.a 0 a17
.o 2 0
l17
	repl_args 2 2
.o 3 0
a17
.o 3 0
ea17
	jsr_eval 0
	buildh _None 0
	buildh e_iTasks.UI.Definition_dNoChange 0
	push_a 3
	push_a 1
	update_a 1 2
	update_a 0 1
	pop_a 1
	buildh _Tuple 3
	buildh e_Data.Error_dOk 1
	push_a 3
	push_a 1
	update_a 1 2
	update_a 0 1
	pop_a 1
	update_a 1 4
	updatepop_a 0 3
	push_a 1
	push_a 1
	buildh _Tuple 2
	updatepop_a 0 2
.d 1 0
	rtn
.export e_iTasks.Extensions.Clock_dsvgClock;8.9
.export e_iTasks.Extensions.Clock_nsvgClock;8.9
.descn e_iTasks.Extensions.Clock_dsvgClock;8.9 e_iTasks.Extensions.Clock_nsvgClock;8.9 4 0 "svgClock;8.9"
.n 4 e_iTasks.Extensions.Clock_dsvgClock;8.9 ea9
.o 1 0
e_iTasks.Extensions.Clock_nsvgClock;8.9
	push_node _cycle_in_spine 4
.o 5 0
ea9
	jsr_eval 0
.o 5 0
s9
	buildh _Nil 0
	push_a 2
	buildI 2
	build e_iTasks.Extensions.Clock_ddegrees;14.15 2 e_iTasks.Extensions.Clock_ndegrees;14.15
	buildAC "#999"
	buildh ARRAY 1
	buildI 40
	push_a 2
	update_a 2 3
	update_a 0 2
	pop_a 1
	build e_iTasks.Extensions.Clock_dhand;566.36 3 e_iTasks.Extensions.Clock_nhand;566.36
	buildh _Cons 2
	push_a 3
	buildI 1
	build e_iTasks.Extensions.Clock_ddegrees;14.15 2 e_iTasks.Extensions.Clock_ndegrees;14.15
	buildAC "#666"
	buildh ARRAY 1
	buildI 50
	push_a 2
	update_a 2 3
	update_a 0 2
	pop_a 1
	build e_iTasks.Extensions.Clock_dhand;566.36 3 e_iTasks.Extensions.Clock_nhand;566.36
	buildh _Cons 2
	push_a 4
	buildI 0
	build e_iTasks.Extensions.Clock_ddegrees;14.15 2 e_iTasks.Extensions.Clock_ndegrees;14.15
	buildAC "#000"
	buildh ARRAY 1
	buildI 45
	push_a 2
	update_a 2 3
	update_a 0 2
	pop_a 1
	build e_iTasks.Extensions.Clock_dhand;566.36 3 e_iTasks.Extensions.Clock_nhand;566.36
	buildh _Cons 2
	create
	push_a 2
	push_a 2
	update_a 2 3
	update_a 0 2
	pop_a 1
	update_a 2 6
	update_a 1 5
	updatepop_a 0 4
.d 3 0
	jsr e_StdList_s++
.o 1 0
	buildh _Nil 0
	buildAC "100"
	buildAC "100"
	buildAC "0"
	buildAC "0"
	buildhr e_Text.HTML_kViewBoxAttr 4 0
	buildh _Cons 2
	buildh _Nil 0
	buildAC "flex: 1; align-self: stretch;"
	buildhr e_Text.HTML_kStyleAttr 1 0
	buildh _Cons 2
	fill_r e_Text.HTML_kSvgTag 3 0 3 0 0
	pop_a 3
.d 1 0
	rtn
.export e_iTasks.Extensions.Clock_dhand;566.36
.export e_iTasks.Extensions.Clock_nhand;566.36
.descn e_iTasks.Extensions.Clock_dhand;566.36 e_iTasks.Extensions.Clock_nhand;566.36 3 0 "hand;566.36"
.n 3 e_iTasks.Extensions.Clock_dhand;566.36 ea36
.o 1 0
e_iTasks.Extensions.Clock_nhand;566.36
	push_node _cycle_in_spine 3
.o 4 0
ea36
.o 4 0
s36
	buildh _Nil 0
	buildh _Nil 0
	buildAC "50"
	buildh ARRAY 1
	buildAC "50"
	buildh ARRAY 1
	buildh _Tuple 2
	buildh _Just 1
	push_a 4
	build e_iTasks.Extensions.Clock_d_f8.277 2 e_iTasks.Extensions.Clock_n_f8.277
	buildh _Cons 2
	buildhr e_Text.HTML_kTransformAttr 1 0
	buildh _Cons 2
	buildh e_Text.HTML_dPX 0
	buildAC "50"
	buildh ARRAY 1
	buildh e_Text.HTML_dSVGLength 2
	buildhr e_Text.HTML_kYAttr 1 0
	buildh _Cons 2
	buildh e_Text.HTML_dPX 0
	buildAC "50"
	buildh ARRAY 1
	buildh e_Text.HTML_dSVGLength 2
	buildhr e_Text.HTML_kXAttr 1 0
	buildh _Cons 2
	buildh _Nil 0
	push_a 4
	build e_iTasks.Extensions.Clock_d_f7.276 1 e_iTasks.Extensions.Clock_n_f7.276
	buildh _Cons 2
	buildAC "2px"
	buildhr e_Text.HTML_kHeightAttr 1 0
	buildh _Cons 2
	push_a 2
	build e_iTasks.Extensions.Clock_d_f6.275 1 e_iTasks.Extensions.Clock_n_f6.275
	buildh _Cons 2
	fill_r e_Text.HTML_kRectElt 2 0 5 0 0
	pop_a 5
.d 1 0
	rtn
.export e_iTasks.Extensions.Clock_d_f8.277
.export e_iTasks.Extensions.Clock_n_f8.277
.descn e_iTasks.Extensions.Clock_d_f8.277 e_iTasks.Extensions.Clock_n_f8.277 2 0 "_f8.277"
.n 2 e_iTasks.Extensions.Clock_d_f8.277 ea277
.o 1 0
e_iTasks.Extensions.Clock_n_f8.277
	push_node _cycle_in_spine 2
.o 3 0
ea277
.o 3 0
s277
	push_a 1
	jsr_eval 0
	push_a 1
	jsr_eval 0
	pushI_a 2
	pop_a 1
	pushI 90
	push_b 1
	update_b 1 2
	update_b 0 1
	pop_b 1
	subI
	buildh _Nil 0
	update_a 0 2
	update_a 0 3
	pop_a 1
.d 0 1 i
	jsr ItoAC
.o 1 0
	fill_r e_Text.HTML_kRotateTransform 2 0 4 0 0
	pop_a 4
.d 1 0
	rtn
.export e_iTasks.Extensions.Clock_d_f7.276
.export e_iTasks.Extensions.Clock_n_f7.276
.descn e_iTasks.Extensions.Clock_d_f7.276 e_iTasks.Extensions.Clock_n_f7.276 1 0 "_f7.276"
.n 1 e_iTasks.Extensions.Clock_d_f7.276 ea276
.o 1 0
e_iTasks.Extensions.Clock_n_f7.276
	push_node _cycle_in_spine 1
.o 2 0
ea276
.o 2 0
s276
	push_a 0
	jsr_eval 0
	push_array 0
	updatepop_a 0 1
	buildAC "fill: "
	update_a 1 2
	updatepop_a 0 1
.d 2 0
	jsr catAC
.o 1 0
	fill_r e_Text.HTML_kStyleAttr 1 0 1 0 0
	pop_a 1
.d 1 0
	rtn
.export e_iTasks.Extensions.Clock_d_f6.275
.export e_iTasks.Extensions.Clock_n_f6.275
.descn e_iTasks.Extensions.Clock_d_f6.275 e_iTasks.Extensions.Clock_n_f6.275 1 0 "_f6.275"
.n 1 e_iTasks.Extensions.Clock_d_f6.275 ea275
.o 1 0
e_iTasks.Extensions.Clock_n_f6.275
	push_node _cycle_in_spine 1
.o 2 0
ea275
.o 2 0
s275
	push_a 0
	jsr_eval 0
	pushI_a 1
	pop_a 1
	pop_a 1
.d 0 1 i
	jsr ItoAC
.o 1 0
	buildAC "px"
	push_a 1
	update_a 1 2
	update_a 0 1
	pop_a 1
.d 2 0
	jsr catAC
.o 1 0
	fill_r e_Text.HTML_kWidthAttr 1 0 1 0 0
	pop_a 1
.d 1 0
	rtn
.export e_iTasks.Extensions.Clock_ddegrees;14.15
.export e_iTasks.Extensions.Clock_ndegrees;14.15
.descn e_iTasks.Extensions.Clock_ddegrees;14.15 e_iTasks.Extensions.Clock_ndegrees;14.15 2 0 "degrees;14.15"
.n 2 e_iTasks.Extensions.Clock_ddegrees;14.15
.o 1 0
e_iTasks.Extensions.Clock_ndegrees;14.15
	push_node _cycle_in_spine 2
.d 2 0
	jsr ea15
.o 0 1 i
	fillI_b 0 0
	pop_b 1
.d 1 0
	rtn
.o 2 0
ea15
	jsr_eval 1
	jsr_eval 0
	pushI_a 1
	pushI_a 0
	pop_a 2
.o 0 2 ii
s15
	eqI_b 0 0
	jmp_true case.23
	eqI_b 1 0
	jmp_true case.24
	eqI_b 2 0
	jmp_true case.25
	jmp s15.1
case.23
	push_b 1
	pushI 6
	update_b 1 3
	updatepop_b 0 2
	mulI
.d 0 1 i
	rtn
case.24
	push_b 1
	pushI 6
	update_b 1 3
	updatepop_b 0 2
	mulI
.d 0 1 i
	rtn
case.25
	push_b 1
	pushI 30
	update_b 1 3
	updatepop_b 0 2
	mulI
.d 0 1 i
	rtn
s15.1
	pop_b 2
	pushD m_iTasks.Extensions.Clock
	pushD e_iTasks.Extensions.Clock_ddegrees;14.15
.d 0 2 ii
	jmp _match_error
.o 4 0
s266
case.26
	eq_desc _Just 1 0
	jmp_true case.28
	jmp case.27
case.28
	repl_args 1 1
	push_a 2
	jsr_eval 0
	push_a 1
	buildh e_StdGeneric_dCONS 1
	buildh _Just 1
	update_a 1 5
	updatepop_a 0 4
.d 2 0
	rtn
case.27
	buildh _None 0
	push_a 4
	push_a 1
	update_a 1 2
	update_a 0 1
	pop_a 1
	update_a 1 5
	updatepop_a 0 4
.d 2 0
	rtn
.o 3 0
s267
case.29
	eq_desc _Just 1 0
	jmp_true case.31
	jmp case.30
case.31
	repl_args 1 1
	push_a 0
	buildh _Just 1
	push_a 2
	push_a 1
	update_a 1 2
	update_a 0 1
	pop_a 1
	update_a 1 4
	updatepop_a 0 3
.d 2 0
	rtn
case.30
	buildh _None 0
	push_a 3
	push_a 1
	update_a 1 2
	update_a 0 1
	pop_a 1
	update_a 1 4
	updatepop_a 0 3
.d 2 0
	rtn
.o 2 0
s268
	create
	push_a 1
	update_a 1 2
	updatepop_a 0 1
.d 2 0
	jsr s29
.o 1 0
	push_a 1
	push_a 1
	update_a 1 2
	update_a 0 1
	pop_a 1
	update_a 1 2
	updatepop_a 0 1
.d 2 0
	rtn
.impmod _system
.implab _match_error
