.comp 920 000011110011000
.start _nostart_
.depend "Text" "20210430140248"
.depend "Data.Func" "20210430140248"
.depend "iTasks.Internal.TaskIO" "20210430140248"
.depend "iTasks.Internal.WebService" "20210430140248"
.depend "iTasks.Internal.SDSService" "20210430140248"
.depend "iTasks.Internal.Serialization" "20210430140248"
.depend "_SystemEnum" "20210430140248"
.depend "StdEnum" "20210430140248"
.depend "StdTuple" "20210430140248"
.depend "StdOrdList" "20210430140248"
.depend "Control.Monad.Trans" "20210430140248"
.depend "StdMaybe" "20210430140248"
.depend "Data.Maybe" "20210430140248"
.depend "iTasks.Extensions.Admin.WorkflowAdmin" "20210430140248"
.depend "iTasks.Extensions.User" "20210430140248"
.depend "iTasks.Extensions.Admin.UserAdmin" "20210430140248"
.depend "iTasks.UI.Layout.Common" "20210430140248"
.depend "iTasks.UI.Editor.Modifiers" "20210430140248"
.depend "iTasks.UI.Editor.Containers" "20210430140248"
.depend "iTasks.UI.Tune" "20210430140248"
.depend "iTasks.Internal.Distributed.Domain" "20210430140248"
.depend "iTasks.WF.Combinators.Common" "20210430140248"
.depend "iTasks.WF.Combinators.SDS" "20210430140248"
.depend "iTasks.UI.Editor.Controls" "20210430140248"
.depend "iTasks.WF.Tasks.Interaction" "20210430140248"
.depend "iTasks.WF.Tasks.System" "20210430140248"
.depend "iTasks.WF.Tasks.SDS" "20210430140248"
.depend "iTasks.WF.Tasks.Core" "20210430140248"
.depend "System.Time.GenJSON" "20210430140248"
.depend "Text.HTML.GenJSON" "20210430140248"
.depend "Data.Map.GenJSON" "20210430140248"
.depend "Data.Error.GenJSON" "20210430140248"
.depend "Data.Either.GenJSON" "20210430140248"
.depend "iTasks.WF.Derives" "20210430140248"
.depend "iTasks.SDS.Combinators.Common" "20210430140248"
.depend "iTasks.SDS.Combinators.Core" "20210430140248"
.depend "iTasks.SDS.Sources.System" "20210430140248"
.depend "iTasks.SDS.Sources.Store" "20210430140248"
.depend "iTasks.SDS.Sources.Core" "20210430140248"
.depend "System._Signal" "20210430140248"
.depend "System.Signal" "20210430140248"
.depend "_SystemStrictMaybes" "20210430140248"
.depend "Text.GenPrint" "20210430140248"
.depend "iTasks.Extensions.DateTime" "20210430140248"
.depend "iTasks.Internal.TaskServer" "20210430140248"
.depend "iTasks.Extensions.Document" "20210430140248"
.depend "System.File" "20210430140248"
.depend "iTasks.Util.DeferredJSON" "20210430140248"
.depend "iTasks.Internal.SDS" "20210430140248"
.depend "iTasks.Internal.TaskEval" "20210430140248"
.depend "iTasks.UI.Layout" "20210430140248"
.depend "iTasks.Internal.TaskState" "20210430140248"
.depend "iTasks.WF.Combinators.Core" "20210430140248"
.depend "Data.IntMap.Base" "20210430140248"
.depend "Data.IntMap.Strict" "20210430140248"
.depend "Data.CircularStack" "20210430140248"
.depend "System._Process" "20210430140248"
.depend "System.Process" "20210430140248"
.depend "System.OS" "20210430140248"
.depend "Data.GenHash" "20210430140248"
.depend "Data.Maybe.Ord" "20210430140248"
.depend "Control.GenBimap" "20210430140248"
.depend "ABC.Interpreter.JavaScript" "20210430140248"
.depend "ABC.Interpreter" "20210430140248"
.depend "iTasks.UI.Editor" "20210430140248"
.depend "iTasks.UI.Editor.Generic" "20210430140248"
.depend "iTasks.Internal.Generic.Defaults" "20210430140248"
.depend "Data.GenDefault" "20210430140248"
.depend "Data.Integer" "20210430140248"
.depend "Text.HTML" "20210430140248"
.depend "iTasks.Internal.Generic.Visualization" "20210430140248"
.depend "iTasks.SDS.Definition" "20210430140248"
.depend "TCPStringChannelsInternal" "20210430140248"
.depend "TCPStringChannels" "20210430140248"
.depend "TCPEvent" "20210430140248"
.depend "tcp_bytestreams" "20210430140248"
.depend "TCPDef" "20210430140248"
.depend "TCPChannels" "20210430140248"
.depend "TCPIP" "20210430140248"
.depend "iTasks.WF.Tasks.IO" "20210430140248"
.depend "iTasks.Internal.Task" "20210430140248"
.depend "iTasks.UI.Definition" "20210430140248"
.depend "Text.GenJSON" "20210430140248"
.depend "Data.Bifunctor" "20210430140248"
.depend "Data.Either" "20210430140248"
.depend "Data.Queue" "20210430140248"
.depend "StdFile" "20210430140248"
.depend "symbols_in_program" "20210430140248"
.depend "iTasks.Internal.IWorld" "20210430140248"
.depend "iTasks.WF.Definition" "20210430140248"
.depend "tcp" "20210430140248"
.depend "TCPChannelClass" "20210430140248"
.depend "System._Time" "20210430140248"
.depend "System.Time" "20210430140248"
.depend "System.GetOpt" "20210430140248"
.depend "System.OSError" "20210430140248"
.depend "System.FilePath" "20210430140248"
.depend "StdString" "20210430140248"
.depend "Internet.HTTP" "20210430140248"
.depend "Control.Monad.Fail" "20210430140248"
.depend "Data.Traversable" "20210430140248"
.depend "StdMisc" "20210430140248"
.depend "StdOverloadedList" "20210430140248"
.depend "Data.List" "20210430140248"
.depend "Data.Foldable" "20210430140248"
.depend "Data.Set" "20210430140248"
.depend "Data.GenLexOrd" "20210430140248"
.depend "StdFunctions" "20210430140248"
.depend "StdFunc" "20210430140248"
.depend "Data.Map" "20210430140248"
.depend "_SystemEnumStrict" "20210430140248"
.depend "_SystemStrictLists" "20210430140248"
.depend "StdStrictLists" "20210430140248"
.depend "StdGeneric" "20210430140248"
.depend "Data.GenEq" "20210430140248"
.depend "StdReal" "20210430140248"
.depend "StdChar" "20210430140248"
.depend "StdInt" "20210430140248"
.depend "StdBool" "20210430140248"
.depend "StdClass" "20210430140248"
.depend "StdList" "20210430140248"
.depend "Data.Monoid" "20210430140248"
.depend "Control.Applicative" "20210430140248"
.depend "Control.Monad" "20210430140248"
.depend "Data.Functor" "20210430140248"
.depend "Data.Error" "20210430140248"
.depend "iTasks.Engine" "20210430140248"
.depend "iTasks" "20210430140248"
.depend "StdOverloaded" "20210430140248"
.depend "_SystemDynamic" "20210430140248"
.depend "iTasks.Extensions.Currency" "20210430140248"
.module m_iTasks.Extensions.Currency "iTasks.Extensions.Currency" "20210430140248"
.endinfo
.impmod _system
.implab _cycle_in_spine
.implab _type_error
.implab _hnf
.impdesc e_system_dind
.implab e_system_nind e_system_eaind
.impdesc e_system_dif
.implab e_system_nif e_system_eaif
.implab e_system_sif
.impdesc e_system_dAP
.implab e_system_nAP e_system_eaAP
.implab e_system_sAP
.impdesc ARRAY
.impdesc _Nil
.impdesc _Cons
.impdesc _Conss
.implab n_Conss ea_Conss
.impdesc _Consts
.implab n_Consts ea_Consts
.impdesc _Conssts
.implab n_Conssts ea_Conssts
.impdesc _Tuple
.impdesc d_S.1
.implab n_S.1 ea_S.1
.impdesc d_S.2
.implab n_S.2 ea_S.2
.impdesc d_S.3
.implab n_S.3 ea_S.3
.impdesc d_S.4
.implab n_S.4 ea_S.4
.impdesc d_S.5
.implab n_S.5 ea_S.5
.impdesc d_S.6
.implab n_S.6 ea_S.6
.implab _driver
.impmod Text
.implab e_Text_slpad;11
.impmod Data.Maybe
.implab e_Data.Maybe_sfmap;5
.impdesc e_Data.Maybe_dmaybe;63
.implab e_Data.Maybe_nmaybe;63 _
.impmod iTasks.UI.Editor.Modifiers
.implab e_iTasks.UI.Editor.Modifiers_swithDynamicHintAttributes
.implab e_iTasks.UI.Editor.Modifiers_smapEditorRead
.implab e_iTasks.UI.Editor.Modifiers_smapEditorWrite
.impmod iTasks.UI.Editor.Controls
.implab e_iTasks.UI.Editor.Controls_sdecimalField
.implab e_iTasks.UI.Editor.Controls_stextView
.impmod Data.GenHash
.implab e_Data.GenHash_sshiftrU
.implab e_Data.GenHash_sgHash_Int;2
.impmod Data.GenDefault
.impdesc e_Data.GenDefault_dgDefault_Int;2
.implab e_Data.GenDefault_ngDefault_Int;2
.impdesc e_Data.GenDefault_dgDefault_CONS;9
.implab e_Data.GenDefault_ngDefault_CONS;9 e_Data.GenDefault_eagDefault_CONS;9
.implab e_Data.GenDefault_sgDefault_OBJECT;11
.impmod Text.GenJSON
.impdesc e_Text.GenJSON_dJSONEncode_Int;12
.implab e_Text.GenJSON_nJSONEncode_Int;12 e_Text.GenJSON_eaJSONEncode_Int;12
.implab e_Text.GenJSON_sJSONDecode_Int;42
.impmod StdString
.implab e_StdString_s==;2
.implab e_StdString_stoString;5
.implab e_StdString_s+++;11
.impmod StdFunctions
.impdesc e_StdFunctions_dconst
.impmod Data.GenEq
.implab e_Data.GenEq_sgEq_Int;7
.impmod StdReal
.implab e_StdReal_s*;4
.implab e_StdReal_s/;5
.implab e_StdReal_stoReal;13
.impmod StdInt
.implab e_StdInt_sbitxor
.implab e_StdInt_s+;6
.implab e_StdInt_s-;7
.implab e_StdInt_s*;9
.implab e_StdInt_s/;10
.implab e_StdInt_s==;16
.implab e_StdInt_s<;17
.implab e_StdInt_stoInt;22
.implab e_StdInt_srem;28
.impmod iTasks.UI.Editor.Generic
.impdesc e_iTasks.UI.Editor.Generic_dEditValue
.impdesc e_iTasks.UI.Editor.Generic_dViewValue
.impmod Text.GenJSON
.impdesc e_Text.GenJSON_kJSONString
.impdesc e_Text.GenJSON_dJSONString
.implab e_Text.GenJSON_nJSONString e_Text.GenJSON_eaJSONString
.impdesc e_Text.GenJSON_kJSONArray
.impmod StdGeneric
.impdesc e_StdGeneric_dCONS
.export e_iTasks.Extensions.Currency_eaEUR
.descexp e_iTasks.Extensions.Currency_dEUR e_iTasks.Extensions.Currency_nEUR e_iTasks.Extensions.Currency_lEUR 1 0 "EUR"
.o 2 0 
e_iTasks.Extensions.Currency_lEUR
	update_a 1 0
	create 
.d 2 0 
	put_a_jmp 2 e_iTasks.Extensions.Currency_eaEUR
.n 1 e_iTasks.Extensions.Currency_dEUR e_iTasks.Extensions.Currency_eaEUR
.o 1 0 
e_iTasks.Extensions.Currency_nEUR
	push_node _cycle_in_spine 1
.o 2 0 
e_iTasks.Extensions.Currency_eaEUR
	jsr_eval 0
	pushI0_pop_a1 
	fill_r e_iTasks.Extensions.Currency_kEUR 0 1 0 0 0
.d 1 0 
	pop_b_rtn 1
.export e_iTasks.Extensions.Currency_kEUR
.record e_iTasks.Extensions.Currency_kEUR di 0 1 "EUR"
.export e_iTasks.Extensions.Currency_eaUSD
.descexp e_iTasks.Extensions.Currency_dUSD e_iTasks.Extensions.Currency_nUSD e_iTasks.Extensions.Currency_lUSD 1 0 "USD"
.o 2 0 
e_iTasks.Extensions.Currency_lUSD
	update_a 1 0
	create 
.d 2 0 
	put_a_jmp 2 e_iTasks.Extensions.Currency_eaUSD
.n 1 e_iTasks.Extensions.Currency_dUSD e_iTasks.Extensions.Currency_eaUSD
.o 1 0 
e_iTasks.Extensions.Currency_nUSD
	push_node _cycle_in_spine 1
.o 2 0 
e_iTasks.Extensions.Currency_eaUSD
	jsr_eval 0
	pushI0_pop_a1 
	fill_r e_iTasks.Extensions.Currency_kUSD 0 1 0 0 0
.d 1 0 
	pop_b_rtn 1
.export e_iTasks.Extensions.Currency_kUSD
.record e_iTasks.Extensions.Currency_kUSD di 0 1 "USD"
.export e_iTasks.Extensions.Currency_sTD;USD
.export e_iTasks.Extensions.Currency_eaTD;USD
.descexp e_iTasks.Extensions.Currency_dTD;USD e_iTasks.Extensions.Currency_nTD;USD e_iTasks.Extensions.Currency_lTD;USD 1 0 "TD;USD"
.o 2 0 
e_iTasks.Extensions.Currency_lTD;USD
	update_a 1 0
	create 
.d 2 0 
	put_a_jmp 2 e_iTasks.Extensions.Currency_eaTD;USD
.n 1 e_iTasks.Extensions.Currency_dTD;USD e_iTasks.Extensions.Currency_eaTD;USD
.o 1 0 
e_iTasks.Extensions.Currency_nTD;USD
	push_node _cycle_in_spine 1
.o 2 0 
e_iTasks.Extensions.Currency_eaTD;USD
.o 2 0 
e_iTasks.Extensions.Currency_sTD;USD
.o 2 0 
s30
	fillh _Nil 0 1
.d 1 0 
	pop_a_rtn 1
.export e_iTasks.Extensions.Currency_sTD;EUR
.export e_iTasks.Extensions.Currency_eaTD;EUR
.descexp e_iTasks.Extensions.Currency_dTD;EUR e_iTasks.Extensions.Currency_nTD;EUR e_iTasks.Extensions.Currency_lTD;EUR 1 0 "TD;EUR"
.o 2 0 
e_iTasks.Extensions.Currency_lTD;EUR
	update_a 1 0
	create 
.d 2 0 
	put_a_jmp 2 e_iTasks.Extensions.Currency_eaTD;EUR
.n 1 e_iTasks.Extensions.Currency_dTD;EUR e_iTasks.Extensions.Currency_eaTD;EUR
.o 1 0 
e_iTasks.Extensions.Currency_nTD;EUR
	push_node _cycle_in_spine 1
.o 2 0 
e_iTasks.Extensions.Currency_eaTD;EUR
.o 2 0 
e_iTasks.Extensions.Currency_sTD;EUR
.o 2 0 
s29
	fillh _Nil 0 1
.d 1 0 
	pop_a_rtn 1
.export e_iTasks.Extensions.Currency_sgHash_USD;27
.descexp e_iTasks.Extensions.Currency_dgHash_USD;27 e_iTasks.Extensions.Currency_ngHash_USD;27 e_iTasks.Extensions.Currency_lgHash_USD;27 1 0 "gHash_USD;27"
.o 2 0 
e_iTasks.Extensions.Currency_igHash_USD;27
.d 1 0 
	pop_a_jmp 1 s28
.ai 1 _ e_iTasks.Extensions.Currency_igHash_USD;27
.o 2 0 
e_iTasks.Extensions.Currency_lgHash_USD;27
.d 1 0 
	pop_a_jsr 1 ea28
.o 0 1 i
	buildI_b 0
.d 1 0 
	pop_b_rtn 1
.n 1 e_iTasks.Extensions.Currency_dgHash_USD;27
.o 1 0 
e_iTasks.Extensions.Currency_ngHash_USD;27
	push_node _cycle_in_spine 1
.d 1 0 
	jsr ea28
.o 0 1 i
	fillI_b 0 0
.d 1 0 
	pop_b_rtn 1
.o 1 0 
ea28
	jsr_eval 0
.o 1 0 
e_iTasks.Extensions.Currency_sgHash_USD;27
.o 1 0 
s28
	create 
	swap_a1 
.d 2 0 
	jsr s39
.o 1 0 
	pushI 0
.d 1 1 i
	jmp s59
.export e_iTasks.Extensions.Currency_sgHash_EUR;26
.descexp e_iTasks.Extensions.Currency_dgHash_EUR;26 e_iTasks.Extensions.Currency_ngHash_EUR;26 e_iTasks.Extensions.Currency_lgHash_EUR;26 1 0 "gHash_EUR;26"
.o 2 0 
e_iTasks.Extensions.Currency_igHash_EUR;26
.d 1 0 
	pop_a_jmp 1 s27
.ai 1 _ e_iTasks.Extensions.Currency_igHash_EUR;26
.o 2 0 
e_iTasks.Extensions.Currency_lgHash_EUR;26
.d 1 0 
	pop_a_jsr 1 ea27
.o 0 1 i
	buildI_b 0
.d 1 0 
	pop_b_rtn 1
.n 1 e_iTasks.Extensions.Currency_dgHash_EUR;26
.o 1 0 
e_iTasks.Extensions.Currency_ngHash_EUR;26
	push_node _cycle_in_spine 1
.d 1 0 
	jsr ea27
.o 0 1 i
	fillI_b 0 0
.d 1 0 
	pop_b_rtn 1
.o 1 0 
ea27
	jsr_eval 0
.o 1 0 
e_iTasks.Extensions.Currency_sgHash_EUR;26
.o 1 0 
s27
	create 
	swap_a1 
.d 2 0 
	jsr s37
.o 1 0 
	pushI 0
s59
s58
	repl_args 1 1
	pushI -4132994306676758123
	swap_b1 
	mulI
	jsr_eval 0
	pushI0_pop_a1 
.d 0 1 i
	jsr e_Data.GenHash_sgHash_Int;2
.o 0 1 i
	pushI 47
.d 0 2 ii
	push_b_jsr 2 e_Data.GenHash_sshiftrU
.o 0 1 i
	push_b 2
	xor%
	xor%
	pushI -4132994306676758123
	put_b 2
	mulI
.d 0 1 i
	rtn 
.export e_iTasks.Extensions.Currency_sgEditor_USD;25
.descexp e_iTasks.Extensions.Currency_dgEditor_USD;25 e_iTasks.Extensions.Currency_ngEditor_USD;25 e_iTasks.Extensions.Currency_lgEditor_USD;25 1 0 "gEditor_USD;25"
.o 2 0 
e_iTasks.Extensions.Currency_igEditor_USD;25
.d 1 0 
	pop_a_jmp 1 s26
.ai 1 _ e_iTasks.Extensions.Currency_igEditor_USD;25
.o 2 0 
e_iTasks.Extensions.Currency_lgEditor_USD;25
.d 1 0 
	pop_a_jsr 1 ea26
.o 4 0 
.impmod iTasks.UI.Editor
.impdesc e_iTasks.UI.Editor_rEditor
	buildhr e_iTasks.UI.Editor_rEditor 4 0
.d 1 0 
	rtn 
.n 1 e_iTasks.Extensions.Currency_dgEditor_USD;25
.o 1 0 
e_iTasks.Extensions.Currency_ngEditor_USD;25
	push_node _cycle_in_spine 1
.d 1 0 
	jsr ea26
.o 4 0 
	fill_r e_iTasks.UI.Editor_rEditor 4 0 4 0 0
.d 1 0 
	pop_a_rtn 4
.o 1 0 
ea26
	jsr_eval 0
.o 1 0 
e_iTasks.Extensions.Currency_sgEditor_USD;25
.o 1 0 
s26
	jmp_ne_desc e_iTasks.UI.Editor.Generic_dViewValue 0 0 case.2
.d 0 0 
	pop_a_jsr 1 e_iTasks.UI.Editor.Controls_stextView
.o 4 0 
	buildh e_iTasks.Extensions.Currency_dtoString;1 0
.d 5 0 
	jsr e_iTasks.UI.Editor.Modifiers_smapEditorRead
.o 4 0 
	buildh _None 0
	buildh e_StdFunctions_dconst 1
.d 5 0 
	jmp e_iTasks.UI.Editor.Modifiers_smapEditorWrite
case.2
.d 0 0 
	pop_a_jsr 1 e_iTasks.UI.Editor.Controls_sdecimalField
.o 4 0 
	buildAC "amount in USD"
.d 5 0 
	jsr e_iTasks.UI.Editor.Modifiers_swithDynamicHintAttributes
.o 4 0 
	buildh e_iTasks.Extensions.Currency_dfromUSD;33.34 0
.d 5 0 
	jsr e_iTasks.UI.Editor.Modifiers_smapEditorRead
.o 4 0 
	buildh e_iTasks.Extensions.Currency_d_f0.280 0
.d 5 0 
	jmp e_iTasks.UI.Editor.Modifiers_smapEditorWrite
.export e_iTasks.Extensions.Currency_d_f0.280
.desc e_iTasks.Extensions.Currency_d_f0.280 _hnf l280 1 0 "_f0.280"
.o 2 0 
l280
	update_a 1 0
	create 
	put_a 2
.o 2 0 
ea280
.o 2 0 
s280
	buildh e_iTasks.Extensions.Currency_dtoUSD;34.35 0
.d 3 0 
	jmp e_Data.Maybe_sfmap;5
.export e_iTasks.Extensions.Currency_dtoUSD;34.35
.desc e_iTasks.Extensions.Currency_dtoUSD;34.35 _hnf l35 1 0 "toUSD;34.35"
.o 2 0 
l35
	update_a 1 0
	create 
	put_a 2
.o 2 0 
ea35
	jsr_eval 0
	pushR_a 0
	pop_a 1
.o 1 1 r
s35
	push_b 0
	pushR 100.0
	mulR
	RtoI
	fill_r e_iTasks.Extensions.Currency_kUSD 0 1 0 0 0
.d 1 0 
	pop_b_rtn 2
.export e_iTasks.Extensions.Currency_dfromUSD;33.34
.desc e_iTasks.Extensions.Currency_dfromUSD;33.34 _hnf l34 1 0 "fromUSD;33.34"
.o 2 0 
l34
.d 1 0 
	pop_a_jsr 1 ea34
.o 0 1 r
	buildR_b 0
.d 1 0 
	pop_b_rtn 1
.o 1 0 
ea34
	jsr_eval 0
.o 1 0 
s34
	repl_r_args 0 1
	push_b 0
	ItoR
	pushR 100.0
	put_b 2
	divR
.d 0 1 r
	rtn 
.export e_iTasks.Extensions.Currency_sgEditor_EUR;24
.descexp e_iTasks.Extensions.Currency_dgEditor_EUR;24 e_iTasks.Extensions.Currency_ngEditor_EUR;24 e_iTasks.Extensions.Currency_lgEditor_EUR;24 1 0 "gEditor_EUR;24"
.o 2 0 
e_iTasks.Extensions.Currency_igEditor_EUR;24
.d 1 0 
	pop_a_jmp 1 s25
.ai 1 _ e_iTasks.Extensions.Currency_igEditor_EUR;24
.o 2 0 
e_iTasks.Extensions.Currency_lgEditor_EUR;24
.d 1 0 
	pop_a_jsr 1 ea25
.o 4 0 
	buildhr e_iTasks.UI.Editor_rEditor 4 0
.d 1 0 
	rtn 
.n 1 e_iTasks.Extensions.Currency_dgEditor_EUR;24
.o 1 0 
e_iTasks.Extensions.Currency_ngEditor_EUR;24
	push_node _cycle_in_spine 1
.d 1 0 
	jsr ea25
.o 4 0 
	fill_r e_iTasks.UI.Editor_rEditor 4 0 4 0 0
.d 1 0 
	pop_a_rtn 4
.o 1 0 
ea25
	jsr_eval 0
.o 1 0 
e_iTasks.Extensions.Currency_sgEditor_EUR;24
.o 1 0 
s25
	jmp_ne_desc e_iTasks.UI.Editor.Generic_dViewValue 0 0 case.4
.d 0 0 
	pop_a_jsr 1 e_iTasks.UI.Editor.Controls_stextView
.o 4 0 
	buildh e_iTasks.Extensions.Currency_dtoString;0 0
.d 5 0 
	jsr e_iTasks.UI.Editor.Modifiers_smapEditorRead
.o 4 0 
	buildh _None 0
	buildh e_StdFunctions_dconst 1
.d 5 0 
	jmp e_iTasks.UI.Editor.Modifiers_smapEditorWrite
case.4
.d 0 0 
	pop_a_jsr 1 e_iTasks.UI.Editor.Controls_sdecimalField
.o 4 0 
	buildAC "amount in EUR"
.d 5 0 
	jsr e_iTasks.UI.Editor.Modifiers_swithDynamicHintAttributes
.o 4 0 
	buildh e_iTasks.Extensions.Currency_dfromEUR;31.32 0
.d 5 0 
	jsr e_iTasks.UI.Editor.Modifiers_smapEditorRead
.o 4 0 
	buildh e_iTasks.Extensions.Currency_d_f1.281 0
.d 5 0 
	jmp e_iTasks.UI.Editor.Modifiers_smapEditorWrite
.export e_iTasks.Extensions.Currency_d_f1.281
.desc e_iTasks.Extensions.Currency_d_f1.281 _hnf l281 1 0 "_f1.281"
.o 2 0 
l281
	update_a 1 0
	create 
	put_a 2
.o 2 0 
ea281
.o 2 0 
s281
	buildh e_iTasks.Extensions.Currency_dtoEUR;32.33 0
.d 3 0 
	jmp e_Data.Maybe_sfmap;5
.export e_iTasks.Extensions.Currency_dtoEUR;32.33
.desc e_iTasks.Extensions.Currency_dtoEUR;32.33 _hnf l33 1 0 "toEUR;32.33"
.o 2 0 
l33
	update_a 1 0
	create 
	put_a 2
.o 2 0 
ea33
	jsr_eval 0
	pushR_a 0
	pop_a 1
.o 1 1 r
s33
	push_b 0
	pushR 100.0
	mulR
	RtoI
	fill_r e_iTasks.Extensions.Currency_kEUR 0 1 0 0 0
.d 1 0 
	pop_b_rtn 2
.export e_iTasks.Extensions.Currency_dfromEUR;31.32
.desc e_iTasks.Extensions.Currency_dfromEUR;31.32 _hnf l32 1 0 "fromEUR;31.32"
.o 2 0 
l32
.d 1 0 
	pop_a_jsr 1 ea32
.o 0 1 r
	buildR_b 0
.d 1 0 
	pop_b_rtn 1
.o 1 0 
ea32
	jsr_eval 0
.o 1 0 
s32
	repl_r_args 0 1
	push_b 0
	ItoR
	pushR 100.0
	put_b 2
	divR
.d 0 1 r
	rtn 
.export e_iTasks.Extensions.Currency_sgText_USD;23
.export e_iTasks.Extensions.Currency_eagText_USD;23
.descexp e_iTasks.Extensions.Currency_dgText_USD;23 e_iTasks.Extensions.Currency_ngText_USD;23 e_iTasks.Extensions.Currency_lgText_USD;23 2 0 "gText_USD;23"
.o 4 0 
e_iTasks.Extensions.Currency_igText_USD;23
.d 3 0 
	pop_a_jmp 1 s24
.ai 2 e_iTasks.Extensions.Currency_eagText_USD;23 e_iTasks.Extensions.Currency_igText_USD;23
.o 2 0 
e_iTasks.Extensions.Currency_lgText_USD;23
	push_args 0 1 1
	update_a 2 1
	create 
.d 3 0 
	put_a_jmp 3 e_iTasks.Extensions.Currency_eagText_USD;23
.n 2 e_iTasks.Extensions.Currency_dgText_USD;23 e_iTasks.Extensions.Currency_eagText_USD;23
.o 1 0 
e_iTasks.Extensions.Currency_ngText_USD;23
	push_node _cycle_in_spine 2
.o 3 0 
e_iTasks.Extensions.Currency_eagText_USD;23
	jsr_eval 0
.o 3 0 
e_iTasks.Extensions.Currency_sgText_USD;23
.o 3 0 
s24
	buildh _Nil 0
	buildh e_iTasks.Extensions.Currency_dtoString;1 0
	push_a 3
	buildAC ""
	buildh ARRAY 1
	exchange_a 2 1
	build e_Data.Maybe_dmaybe;63 3 e_Data.Maybe_nmaybe;63
	fillh _Cons 2 4
.d 1 0 
	pop_a_rtn 2
.export e_iTasks.Extensions.Currency_sgText_EUR;22
.export e_iTasks.Extensions.Currency_eagText_EUR;22
.descexp e_iTasks.Extensions.Currency_dgText_EUR;22 e_iTasks.Extensions.Currency_ngText_EUR;22 e_iTasks.Extensions.Currency_lgText_EUR;22 2 0 "gText_EUR;22"
.o 4 0 
e_iTasks.Extensions.Currency_igText_EUR;22
.d 3 0 
	pop_a_jmp 1 s23
.ai 2 e_iTasks.Extensions.Currency_eagText_EUR;22 e_iTasks.Extensions.Currency_igText_EUR;22
.o 2 0 
e_iTasks.Extensions.Currency_lgText_EUR;22
	push_args 0 1 1
	update_a 2 1
	create 
.d 3 0 
	put_a_jmp 3 e_iTasks.Extensions.Currency_eagText_EUR;22
.n 2 e_iTasks.Extensions.Currency_dgText_EUR;22 e_iTasks.Extensions.Currency_eagText_EUR;22
.o 1 0 
e_iTasks.Extensions.Currency_ngText_EUR;22
	push_node _cycle_in_spine 2
.o 3 0 
e_iTasks.Extensions.Currency_eagText_EUR;22
	jsr_eval 0
.o 3 0 
e_iTasks.Extensions.Currency_sgText_EUR;22
.o 3 0 
s23
	buildh _Nil 0
	buildh e_iTasks.Extensions.Currency_dtoString;0 0
	push_a 3
	buildAC ""
	buildh ARRAY 1
	exchange_a 2 1
	build e_Data.Maybe_dmaybe;63 3 e_Data.Maybe_nmaybe;63
	fillh _Cons 2 4
.d 1 0 
	pop_a_rtn 2
.export e_iTasks.Extensions.Currency_sgEq_USD;21
.descexp e_iTasks.Extensions.Currency_dgEq_USD;21 e_iTasks.Extensions.Currency_ngEq_USD;21 e_iTasks.Extensions.Currency_lgEq_USD;21 2 0 "gEq_USD;21"
.o 3 0 
e_iTasks.Extensions.Currency_igEq_USD;21
.d 2 0 
	pop_a_jmp 1 s22
.ai 0 a22 e_iTasks.Extensions.Currency_igEq_USD;21
.o 2 0 
e_iTasks.Extensions.Currency_lgEq_USD;21
	repl_args 1 1
.o 2 0 
a22
.d 2 0 
	jsr ea22
.o 0 1 b
	buildB_b 0
.d 1 0 
	pop_b_rtn 1
.n 2 e_iTasks.Extensions.Currency_dgEq_USD;21
.o 1 0 
e_iTasks.Extensions.Currency_ngEq_USD;21
	push_node _cycle_in_spine 2
.d 2 0 
	jsr ea22
.o 0 1 b
	fillB_b 0 0
.d 1 0 
	pop_b_rtn 1
.o 2 0 
ea22
	jsr_eval 1
	jsr_eval 0
.o 2 0 
e_iTasks.Extensions.Currency_sgEq_USD;21
.o 2 0 
s22
	create 
	push_a 2
	update3pop_a 0 1
.d 2 0 
	jsr s39
.o 1 0 
	create 
	push_a 2
.d 2 0 
	buildh0_put_a_jsr _Nil 4 s39
.o 1 0 
	update2pop_a 0 1
.d 2 0 
	jmp s57
.export e_iTasks.Extensions.Currency_sgEq_EUR;20
.descexp e_iTasks.Extensions.Currency_dgEq_EUR;20 e_iTasks.Extensions.Currency_ngEq_EUR;20 e_iTasks.Extensions.Currency_lgEq_EUR;20 2 0 "gEq_EUR;20"
.o 3 0 
e_iTasks.Extensions.Currency_igEq_EUR;20
.d 2 0 
	pop_a_jmp 1 s21
.ai 0 a21 e_iTasks.Extensions.Currency_igEq_EUR;20
.o 2 0 
e_iTasks.Extensions.Currency_lgEq_EUR;20
	repl_args 1 1
.o 2 0 
a21
.d 2 0 
	jsr ea21
.o 0 1 b
	buildB_b 0
.d 1 0 
	pop_b_rtn 1
.n 2 e_iTasks.Extensions.Currency_dgEq_EUR;20
.o 1 0 
e_iTasks.Extensions.Currency_ngEq_EUR;20
	push_node _cycle_in_spine 2
.d 2 0 
	jsr ea21
.o 0 1 b
	fillB_b 0 0
.d 1 0 
	pop_b_rtn 1
.o 2 0 
ea21
	jsr_eval 1
	jsr_eval 0
.o 2 0 
e_iTasks.Extensions.Currency_sgEq_EUR;20
.o 2 0 
s21
	create 
	push_a 2
	update3pop_a 0 1
.d 2 0 
	jsr s37
.o 1 0 
	create 
	push_a 2
.d 2 0 
	buildh0_put_a_jsr _Nil 4 s37
.o 1 0 
	update2pop_a 0 1
s57
s56
	repl_args 1 1
	push_args 1 1 1
	buildh0_put_a _Nil 3
	jsr_eval 0
	pushI_a 0
	push_jsr_eval 1
	pushI_a 2
.d 0 2 ii
	pop_a_jmp 4 e_Data.GenEq_sgEq_Int;7
.export e_iTasks.Extensions.Currency_sgDefault_USD;19
.export e_iTasks.Extensions.Currency_eagDefault_USD;19
.descexp e_iTasks.Extensions.Currency_dgDefault_USD;19 e_iTasks.Extensions.Currency_ngDefault_USD;19 e_iTasks.Extensions.Currency_lgDefault_USD;19 0 0 "gDefault_USD;19"
.o 1 0 
e_iTasks.Extensions.Currency_igDefault_USD;19
	pop_a 1
	create 
.d 1 0 
	jmp s20
.o 1 0 
e_iTasks.Extensions.Currency_lgDefault_USD;19
	halt
.n 0 e_iTasks.Extensions.Currency_dgDefault_USD;19 e_iTasks.Extensions.Currency_eagDefault_USD;19
.o 1 0 
e_iTasks.Extensions.Currency_ngDefault_USD;19
	push_node _cycle_in_spine 0
.o 1 0 
e_iTasks.Extensions.Currency_eagDefault_USD;19
.o 1 0 
e_iTasks.Extensions.Currency_sgDefault_USD;19
.o 1 0 
s20
	build e_Data.GenDefault_dgDefault_Int;2 0 e_Data.GenDefault_ngDefault_Int;2
	build e_Data.GenDefault_dgDefault_CONS;9 1 e_Data.GenDefault_ngDefault_CONS;9
.d 1 0 
	jsr e_Data.GenDefault_sgDefault_OBJECT;11
.o 1 0 
.d 2 0 
	jmp s38
.export e_iTasks.Extensions.Currency_sgDefault_EUR;18
.export e_iTasks.Extensions.Currency_eagDefault_EUR;18
.descexp e_iTasks.Extensions.Currency_dgDefault_EUR;18 e_iTasks.Extensions.Currency_ngDefault_EUR;18 e_iTasks.Extensions.Currency_lgDefault_EUR;18 0 0 "gDefault_EUR;18"
.o 1 0 
e_iTasks.Extensions.Currency_igDefault_EUR;18
	pop_a 1
	create 
.d 1 0 
	jmp s19
.o 1 0 
e_iTasks.Extensions.Currency_lgDefault_EUR;18
	halt
.n 0 e_iTasks.Extensions.Currency_dgDefault_EUR;18 e_iTasks.Extensions.Currency_eagDefault_EUR;18
.o 1 0 
e_iTasks.Extensions.Currency_ngDefault_EUR;18
	push_node _cycle_in_spine 0
.o 1 0 
e_iTasks.Extensions.Currency_eagDefault_EUR;18
.o 1 0 
e_iTasks.Extensions.Currency_sgDefault_EUR;18
.o 1 0 
s19
	build e_Data.GenDefault_dgDefault_Int;2 0 e_Data.GenDefault_ngDefault_Int;2
	build e_Data.GenDefault_dgDefault_CONS;9 1 e_Data.GenDefault_ngDefault_CONS;9
.d 1 0 
	jsr e_Data.GenDefault_sgDefault_OBJECT;11
.o 1 0 
.d 2 0 
	jmp s36
.export e_iTasks.Extensions.Currency_sJSONDecode_USD;17
.descexp e_iTasks.Extensions.Currency_dJSONDecode_USD;17 e_iTasks.Extensions.Currency_nJSONDecode_USD;17 e_iTasks.Extensions.Currency_lJSONDecode_USD;17 2 0 "JSONDecode_USD;17"
.o 2 1 b
e_iTasks.Extensions.Currency_iJSONDecode_USD;17
.d 1 1 b
	pop_a_jmp 1 s18
.ai 0 a18 e_iTasks.Extensions.Currency_iJSONDecode_USD;17
.o 2 0 
e_iTasks.Extensions.Currency_lJSONDecode_USD;17
	repl_args 1 1
.o 2 0 
a18
.d 2 0 
	jsr ea18
.o 2 0 
	buildh _Tuple 2
.d 1 0 
	rtn 
.n 2 e_iTasks.Extensions.Currency_dJSONDecode_USD;17
.o 1 0 
e_iTasks.Extensions.Currency_nJSONDecode_USD;17
	push_node _cycle_in_spine 2
.d 2 0 
	jsr ea18
.o 2 0 
	fillh _Tuple 2 2
.d 1 0 
	rtn 
.o 2 0 
ea18
	jsr_eval 1
	jsr_eval 0
	pushB0_pop_a1 
.o 1 1 b
e_iTasks.Extensions.Currency_sJSONDecode_USD;17
.o 1 1 b
s18
	push_ab 0 0
	buildAC "USD"
	buildh ARRAY 1
	put_b 1
	update2pop_a 0 1
.d 2 1 b
	jsr s55
.o 2 0 
.d 2 0 
	jmp s279
.o 2 0 
s46
	jmp_ne_desc _Just 1 0 case.6
	repl_args 1 1
	create 
	swap_a1 
.d 2 0 
	jsr s38
.o 1 0 
	fillh _Just 1 1
.d 1 0 
	rtn 
case.6
	fillh _None 0 1
.d 1 0 
	pop_a_rtn 1
.o 2 0 
s38
	repl_args 1 1
	jsr_eval 0
	pushI_a 0
	fill_r e_iTasks.Extensions.Currency_kUSD 0 1 1 0 0
.d 1 0 
	pop_ab_rtn 1 1
.export e_iTasks.Extensions.Currency_sJSONDecode_EUR;16
.descexp e_iTasks.Extensions.Currency_dJSONDecode_EUR;16 e_iTasks.Extensions.Currency_nJSONDecode_EUR;16 e_iTasks.Extensions.Currency_lJSONDecode_EUR;16 2 0 "JSONDecode_EUR;16"
.o 2 1 b
e_iTasks.Extensions.Currency_iJSONDecode_EUR;16
.d 1 1 b
	pop_a_jmp 1 s17
.ai 0 a17 e_iTasks.Extensions.Currency_iJSONDecode_EUR;16
.o 2 0 
e_iTasks.Extensions.Currency_lJSONDecode_EUR;16
	repl_args 1 1
.o 2 0 
a17
.d 2 0 
	jsr ea17
.o 2 0 
	buildh _Tuple 2
.d 1 0 
	rtn 
.n 2 e_iTasks.Extensions.Currency_dJSONDecode_EUR;16
.o 1 0 
e_iTasks.Extensions.Currency_nJSONDecode_EUR;16
	push_node _cycle_in_spine 2
.d 2 0 
	jsr ea17
.o 2 0 
	fillh _Tuple 2 2
.d 1 0 
	rtn 
.o 2 0 
ea17
	jsr_eval 1
	jsr_eval 0
	pushB0_pop_a1 
.o 1 1 b
e_iTasks.Extensions.Currency_sJSONDecode_EUR;16
.o 1 1 b
s17
	push_ab 0 0
	buildAC "EUR"
	buildh ARRAY 1
	put_b 1
	update2pop_a 0 1
.d 2 1 b
	jsr s55
.o 2 0 
.d 2 0 
	jmp s278
.o 2 1 b
s55
	push_update_a 0 1
	pop_b_pushB 1 FALSE
.d 2 1 b
	jsr s54
.o 2 0 
.d 3 0 
	jmp s277
.o 2 1 b
s54
	jmp_ne_desc _Cons 2 1 case.8
	push_args 1 2 2
	jsr_eval 0
	jmp_eq_desc e_Text.GenJSON_kJSONArray 0 0 case.9
	pop_a_jmp 2 case.8
case.9
	repl_args 1 1
	jmp_eq_desc _Cons 2 0 case.10
	pop_a_jmp 2 case.8
case.10
	repl_args 2 2
	jsr_eval 0
	jmp_eq_desc e_Text.GenJSON_kJSONString 0 0 case.11
	pop_a_jmp 3 case.8
case.11
	repl_args 1 1
	push_array 3
	swap_a1 
	pop_b 1
.d 2 0 
	buildh0_put_a_jsr _Nil 5 eqAC
.o 0 1 b
	jmp_false else.12
	jsr_eval 0
	update2pop_a 0 1
	pushB FALSE
.d 1 1 b
	jsr e_Text.GenJSON_sJSONDecode_Int;42
.o 2 0 
.d 4 0 
	jmp s276
else.12
	pop_a 3
	buildh _None 0
.d 2 0 
	rtn 
case.8
	pop_a 1
	buildh _None 0
.d 2 0 
	pop_b_rtn 1
.o 2 0 
s44
	jmp_ne_desc _Just 1 0 case.14
	repl_args 1 1
	create 
	swap_a1 
.d 2 0 
	jsr s36
.o 1 0 
	fillh _Just 1 1
.d 1 0 
	rtn 
case.14
	fillh _None 0 1
.d 1 0 
	pop_a_rtn 1
.o 2 0 
s36
	repl_args 1 1
	jsr_eval 0
	pushI_a 0
	fill_r e_iTasks.Extensions.Currency_kEUR 0 1 1 0 0
.d 1 0 
	pop_ab_rtn 1 1
.export e_iTasks.Extensions.Currency_sJSONEncode_USD;15
.export e_iTasks.Extensions.Currency_eaJSONEncode_USD;15
.descexp e_iTasks.Extensions.Currency_dJSONEncode_USD;15 e_iTasks.Extensions.Currency_nJSONEncode_USD;15 e_iTasks.Extensions.Currency_lJSONEncode_USD;15 2 0 "JSONEncode_USD;15"
.o 3 1 b
e_iTasks.Extensions.Currency_iJSONEncode_USD;15
.d 2 1 b
	pop_a_jmp 1 s16
.ai 2 e_iTasks.Extensions.Currency_eaJSONEncode_USD;15 e_iTasks.Extensions.Currency_iJSONEncode_USD;15
.o 2 0 
e_iTasks.Extensions.Currency_lJSONEncode_USD;15
	push_args 0 1 1
	update_a 2 1
	create 
.d 3 0 
	put_a_jmp 3 e_iTasks.Extensions.Currency_eaJSONEncode_USD;15
.n 2 e_iTasks.Extensions.Currency_dJSONEncode_USD;15 e_iTasks.Extensions.Currency_eaJSONEncode_USD;15
.o 1 0 
e_iTasks.Extensions.Currency_nJSONEncode_USD;15
	push_node _cycle_in_spine 2
.o 3 0 
e_iTasks.Extensions.Currency_eaJSONEncode_USD;15
	jsr_eval 1
	jsr_eval 0
	pushB0_pop_a1 
.o 2 1 b
e_iTasks.Extensions.Currency_sJSONEncode_USD;15
.o 2 1 b
s16
	create 
	swap_a1 
.d 2 0 
	jsr s39
.o 1 0 
	push_b 0
	buildAC "USD"
	buildh ARRAY 1
.d 3 1 b
	put_b_jmp 1 s53
.o 2 0 
s39
	repl_r_args 0 1
	buildI_b 0
	fillh e_StdGeneric_dCONS 1 1
.d 1 0 
	pop_b_rtn 1
.export e_iTasks.Extensions.Currency_sJSONEncode_EUR;14
.export e_iTasks.Extensions.Currency_eaJSONEncode_EUR;14
.descexp e_iTasks.Extensions.Currency_dJSONEncode_EUR;14 e_iTasks.Extensions.Currency_nJSONEncode_EUR;14 e_iTasks.Extensions.Currency_lJSONEncode_EUR;14 2 0 "JSONEncode_EUR;14"
.o 3 1 b
e_iTasks.Extensions.Currency_iJSONEncode_EUR;14
.d 2 1 b
	pop_a_jmp 1 s15
.ai 2 e_iTasks.Extensions.Currency_eaJSONEncode_EUR;14 e_iTasks.Extensions.Currency_iJSONEncode_EUR;14
.o 2 0 
e_iTasks.Extensions.Currency_lJSONEncode_EUR;14
	push_args 0 1 1
	update_a 2 1
	create 
.d 3 0 
	put_a_jmp 3 e_iTasks.Extensions.Currency_eaJSONEncode_EUR;14
.n 2 e_iTasks.Extensions.Currency_dJSONEncode_EUR;14 e_iTasks.Extensions.Currency_eaJSONEncode_EUR;14
.o 1 0 
e_iTasks.Extensions.Currency_nJSONEncode_EUR;14
	push_node _cycle_in_spine 2
.o 3 0 
e_iTasks.Extensions.Currency_eaJSONEncode_EUR;14
	jsr_eval 1
	jsr_eval 0
	pushB0_pop_a1 
.o 2 1 b
e_iTasks.Extensions.Currency_sJSONEncode_EUR;14
.o 2 1 b
s15
	create 
	swap_a1 
.d 2 0 
	jsr s37
.o 1 0 
	push_b 0
	buildAC "EUR"
	buildh ARRAY 1
.d 3 1 b
	put_b_jmp 1 s53
.o 3 1 b
s53
	pop_b_pushB 1 FALSE
s52
	push_args 1 1 1
	buildh0_put_a _Nil 3
	buildh _Nil 0
	push_a 1
	buildB FALSE
	build e_Text.GenJSON_dJSONEncode_Int;12 2 e_Text.GenJSON_nJSONEncode_Int;12
	buildo1 e_Text.GenJSON_nJSONString 3
	buildh _Cons 2
	buildhr e_Text.GenJSON_kJSONArray 1 0
	fillh _Cons 2 5
.d 1 0 
	pop_ab_rtn 3 1
.o 2 0 
s37
	repl_r_args 0 1
	buildI_b 0
	fillh e_StdGeneric_dCONS 1 1
.d 1 0 
	pop_b_rtn 1
.export e_iTasks.Extensions.Currency_szero;13
.export e_iTasks.Extensions.Currency_eazero;13
.descexp e_iTasks.Extensions.Currency_dzero;13 e_iTasks.Extensions.Currency_nzero;13 e_iTasks.Extensions.Currency_lzero;13 0 0 "zero;13"
.o 1 0 
e_iTasks.Extensions.Currency_izero;13
	pop_a 1
	create 
.d 1 0 
	jmp s14
.o 1 0 
e_iTasks.Extensions.Currency_lzero;13
	halt
.n 0 e_iTasks.Extensions.Currency_dzero;13 e_iTasks.Extensions.Currency_eazero;13
.o 1 0 
e_iTasks.Extensions.Currency_nzero;13
	push_node _cycle_in_spine 0
.o 1 0 
e_iTasks.Extensions.Currency_eazero;13
.o 1 0 
e_iTasks.Extensions.Currency_szero;13
.o 1 0 
s14
	pushI 0
	fill_r e_iTasks.Extensions.Currency_kUSD 0 1 0 0 0
.d 1 0 
	pop_b_rtn 1
.export e_iTasks.Extensions.Currency_szero;12
.export e_iTasks.Extensions.Currency_eazero;12
.descexp e_iTasks.Extensions.Currency_dzero;12 e_iTasks.Extensions.Currency_nzero;12 e_iTasks.Extensions.Currency_lzero;12 0 0 "zero;12"
.o 1 0 
e_iTasks.Extensions.Currency_izero;12
	pop_a 1
	create 
.d 1 0 
	jmp s13
.o 1 0 
e_iTasks.Extensions.Currency_lzero;12
	halt
.n 0 e_iTasks.Extensions.Currency_dzero;12 e_iTasks.Extensions.Currency_eazero;12
.o 1 0 
e_iTasks.Extensions.Currency_nzero;12
	push_node _cycle_in_spine 0
.o 1 0 
e_iTasks.Extensions.Currency_eazero;12
.o 1 0 
e_iTasks.Extensions.Currency_szero;12
.o 1 0 
s13
	pushI 0
	fill_r e_iTasks.Extensions.Currency_kEUR 0 1 0 0 0
.d 1 0 
	pop_b_rtn 1
.export e_iTasks.Extensions.Currency_s<;9
.descexp e_iTasks.Extensions.Currency_d<;9 e_iTasks.Extensions.Currency_n<;9 e_iTasks.Extensions.Currency_l<;9 2 0 "<;9"
.o 3 0 
e_iTasks.Extensions.Currency_i<;9
.d 2 0 
	pop_a_jmp 1 s10
.ai 0 a10 e_iTasks.Extensions.Currency_i<;9
.o 2 0 
e_iTasks.Extensions.Currency_l<;9
	repl_args 1 1
.o 2 0 
a10
.d 2 0 
	jsr ea10
.o 0 1 b
	buildB_b 0
.d 1 0 
	pop_b_rtn 1
.n 2 e_iTasks.Extensions.Currency_d<;9
.o 1 0 
e_iTasks.Extensions.Currency_n<;9
	push_node _cycle_in_spine 2
.d 2 0 
	jsr ea10
.o 0 1 b
	fillB_b 0 0
.d 1 0 
	pop_b_rtn 1
.o 2 0 
ea10
	jsr_eval 1
	jsr_eval 0
.o 2 0 
e_iTasks.Extensions.Currency_s<;9
.o 2 0 
s10
	repl_r_args 0 1
	repl_r_args 0 1
	swap_b1 
	ltI
.d 0 1 b
	rtn 
.export e_iTasks.Extensions.Currency_s<;8
.descexp e_iTasks.Extensions.Currency_d<;8 e_iTasks.Extensions.Currency_n<;8 e_iTasks.Extensions.Currency_l<;8 2 0 "<;8"
.o 3 0 
e_iTasks.Extensions.Currency_i<;8
.d 2 0 
	pop_a_jmp 1 s9
.ai 0 a9 e_iTasks.Extensions.Currency_i<;8
.o 2 0 
e_iTasks.Extensions.Currency_l<;8
	repl_args 1 1
.o 2 0 
a9
.d 2 0 
	jsr ea9
.o 0 1 b
	buildB_b 0
.d 1 0 
	pop_b_rtn 1
.n 2 e_iTasks.Extensions.Currency_d<;8
.o 1 0 
e_iTasks.Extensions.Currency_n<;8
	push_node _cycle_in_spine 2
.d 2 0 
	jsr ea9
.o 0 1 b
	fillB_b 0 0
.d 1 0 
	pop_b_rtn 1
.o 2 0 
ea9
	jsr_eval 1
	jsr_eval 0
.o 2 0 
e_iTasks.Extensions.Currency_s<;8
.o 2 0 
s9
	repl_r_args 0 1
	repl_r_args 0 1
	swap_b1 
	ltI
.d 0 1 b
	rtn 
.export e_iTasks.Extensions.Currency_s==;7
.descexp e_iTasks.Extensions.Currency_d==;7 e_iTasks.Extensions.Currency_n==;7 e_iTasks.Extensions.Currency_l==;7 2 0 "==;7"
.o 3 0 
e_iTasks.Extensions.Currency_i==;7
.d 2 0 
	pop_a_jmp 1 s8
.ai 0 a8 e_iTasks.Extensions.Currency_i==;7
.o 2 0 
e_iTasks.Extensions.Currency_l==;7
	repl_args 1 1
.o 2 0 
a8
.d 2 0 
	jsr ea8
.o 0 1 b
	buildB_b 0
.d 1 0 
	pop_b_rtn 1
.n 2 e_iTasks.Extensions.Currency_d==;7
.o 1 0 
e_iTasks.Extensions.Currency_n==;7
	push_node _cycle_in_spine 2
.d 2 0 
	jsr ea8
.o 0 1 b
	fillB_b 0 0
.d 1 0 
	pop_b_rtn 1
.o 2 0 
ea8
	jsr_eval 1
	jsr_eval 0
.o 2 0 
e_iTasks.Extensions.Currency_s==;7
.o 2 0 
s8
	repl_r_args 0 1
	repl_r_args 0 1
	eqI
.d 0 1 b
	rtn 
.export e_iTasks.Extensions.Currency_s==;6
.descexp e_iTasks.Extensions.Currency_d==;6 e_iTasks.Extensions.Currency_n==;6 e_iTasks.Extensions.Currency_l==;6 2 0 "==;6"
.o 3 0 
e_iTasks.Extensions.Currency_i==;6
.d 2 0 
	pop_a_jmp 1 s7
.ai 0 a7 e_iTasks.Extensions.Currency_i==;6
.o 2 0 
e_iTasks.Extensions.Currency_l==;6
	repl_args 1 1
.o 2 0 
a7
.d 2 0 
	jsr ea7
.o 0 1 b
	buildB_b 0
.d 1 0 
	pop_b_rtn 1
.n 2 e_iTasks.Extensions.Currency_d==;6
.o 1 0 
e_iTasks.Extensions.Currency_n==;6
	push_node _cycle_in_spine 2
.d 2 0 
	jsr ea7
.o 0 1 b
	fillB_b 0 0
.d 1 0 
	pop_b_rtn 1
.o 2 0 
ea7
	jsr_eval 1
	jsr_eval 0
.o 2 0 
e_iTasks.Extensions.Currency_s==;6
.o 2 0 
s7
	repl_r_args 0 1
	repl_r_args 0 1
	eqI
.d 0 1 b
	rtn 
.export e_iTasks.Extensions.Currency_s-;5
.export e_iTasks.Extensions.Currency_ea-;5
.descexp e_iTasks.Extensions.Currency_d-;5 e_iTasks.Extensions.Currency_n-;5 e_iTasks.Extensions.Currency_l-;5 2 0 "-;5"
.o 3 0 
e_iTasks.Extensions.Currency_i-;5
	pop_a 1
	create 
	push_a 1
	updates3pop_a 0 1 3 2
.d 3 0 
	jmp s6
.ai 2 e_iTasks.Extensions.Currency_ea-;5 e_iTasks.Extensions.Currency_i-;5
.o 2 0 
e_iTasks.Extensions.Currency_l-;5
	push_args 0 1 1
	update_a 2 1
	create 
.d 3 0 
	put_a_jmp 3 e_iTasks.Extensions.Currency_ea-;5
.n 2 e_iTasks.Extensions.Currency_d-;5 e_iTasks.Extensions.Currency_ea-;5
.o 1 0 
e_iTasks.Extensions.Currency_n-;5
	push_node _cycle_in_spine 2
.o 3 0 
e_iTasks.Extensions.Currency_ea-;5
	jsr_eval 1
	jsr_eval 0
.o 3 0 
e_iTasks.Extensions.Currency_s-;5
.o 3 0 
s6
	repl_r_args 0 1
	repl_r_args 0 1
	push_b2 0 1
	subI
	fill_r e_iTasks.Extensions.Currency_kUSD 0 1 0 0 0
.d 1 0 
	pop_b_rtn 3
.export e_iTasks.Extensions.Currency_s-;4
.export e_iTasks.Extensions.Currency_ea-;4
.descexp e_iTasks.Extensions.Currency_d-;4 e_iTasks.Extensions.Currency_n-;4 e_iTasks.Extensions.Currency_l-;4 2 0 "-;4"
.o 3 0 
e_iTasks.Extensions.Currency_i-;4
	pop_a 1
	create 
	push_a 1
	updates3pop_a 0 1 3 2
.d 3 0 
	jmp s5
.ai 2 e_iTasks.Extensions.Currency_ea-;4 e_iTasks.Extensions.Currency_i-;4
.o 2 0 
e_iTasks.Extensions.Currency_l-;4
	push_args 0 1 1
	update_a 2 1
	create 
.d 3 0 
	put_a_jmp 3 e_iTasks.Extensions.Currency_ea-;4
.n 2 e_iTasks.Extensions.Currency_d-;4 e_iTasks.Extensions.Currency_ea-;4
.o 1 0 
e_iTasks.Extensions.Currency_n-;4
	push_node _cycle_in_spine 2
.o 3 0 
e_iTasks.Extensions.Currency_ea-;4
	jsr_eval 1
	jsr_eval 0
.o 3 0 
e_iTasks.Extensions.Currency_s-;4
.o 3 0 
s5
	repl_r_args 0 1
	repl_r_args 0 1
	push_b2 0 1
	subI
	fill_r e_iTasks.Extensions.Currency_kEUR 0 1 0 0 0
.d 1 0 
	pop_b_rtn 3
.export e_iTasks.Extensions.Currency_s+;3
.export e_iTasks.Extensions.Currency_ea+;3
.descexp e_iTasks.Extensions.Currency_d+;3 e_iTasks.Extensions.Currency_n+;3 e_iTasks.Extensions.Currency_l+;3 2 0 "+;3"
.o 3 0 
e_iTasks.Extensions.Currency_i+;3
	pop_a 1
	create 
	push_a 1
	updates3pop_a 0 1 3 2
.d 3 0 
	jmp s4
.ai 2 e_iTasks.Extensions.Currency_ea+;3 e_iTasks.Extensions.Currency_i+;3
.o 2 0 
e_iTasks.Extensions.Currency_l+;3
	push_args 0 1 1
	update_a 2 1
	create 
.d 3 0 
	put_a_jmp 3 e_iTasks.Extensions.Currency_ea+;3
.n 2 e_iTasks.Extensions.Currency_d+;3 e_iTasks.Extensions.Currency_ea+;3
.o 1 0 
e_iTasks.Extensions.Currency_n+;3
	push_node _cycle_in_spine 2
.o 3 0 
e_iTasks.Extensions.Currency_ea+;3
	jsr_eval 1
	jsr_eval 0
.o 3 0 
e_iTasks.Extensions.Currency_s+;3
.o 3 0 
s4
	repl_r_args 0 1
	repl_r_args 0 1
	push_b2 0 1
	addI
	fill_r e_iTasks.Extensions.Currency_kUSD 0 1 0 0 0
.d 1 0 
	pop_b_rtn 3
.export e_iTasks.Extensions.Currency_s+;2
.export e_iTasks.Extensions.Currency_ea+;2
.descexp e_iTasks.Extensions.Currency_d+;2 e_iTasks.Extensions.Currency_n+;2 e_iTasks.Extensions.Currency_l+;2 2 0 "+;2"
.o 3 0 
e_iTasks.Extensions.Currency_i+;2
	pop_a 1
	create 
	push_a 1
	updates3pop_a 0 1 3 2
.d 3 0 
	jmp s3
.ai 2 e_iTasks.Extensions.Currency_ea+;2 e_iTasks.Extensions.Currency_i+;2
.o 2 0 
e_iTasks.Extensions.Currency_l+;2
	push_args 0 1 1
	update_a 2 1
	create 
.d 3 0 
	put_a_jmp 3 e_iTasks.Extensions.Currency_ea+;2
.n 2 e_iTasks.Extensions.Currency_d+;2 e_iTasks.Extensions.Currency_ea+;2
.o 1 0 
e_iTasks.Extensions.Currency_n+;2
	push_node _cycle_in_spine 2
.o 3 0 
e_iTasks.Extensions.Currency_ea+;2
	jsr_eval 1
	jsr_eval 0
.o 3 0 
e_iTasks.Extensions.Currency_s+;2
.o 3 0 
s3
	repl_r_args 0 1
	repl_r_args 0 1
	push_b2 0 1
	addI
	fill_r e_iTasks.Extensions.Currency_kEUR 0 1 0 0 0
.d 1 0 
	pop_b_rtn 3
.export e_iTasks.Extensions.Currency_stoString;1
.descexp e_iTasks.Extensions.Currency_dtoString;1 e_iTasks.Extensions.Currency_ntoString;1 e_iTasks.Extensions.Currency_ltoString;1 1 0 "toString;1"
.o 2 0 
e_iTasks.Extensions.Currency_itoString;1
.d 1 0 
	pop_a_jmp 1 s2
.ai 1 _ e_iTasks.Extensions.Currency_itoString;1
.o 2 0 
e_iTasks.Extensions.Currency_ltoString;1
.d 1 0 
	pop_a_jsr 1 ea2
.o 1 0 
	buildh ARRAY 1
.d 1 0 
	rtn 
.n 1 e_iTasks.Extensions.Currency_dtoString;1
.o 1 0 
e_iTasks.Extensions.Currency_ntoString;1
	push_node _cycle_in_spine 1
.d 1 0 
	jsr ea2
.o 1 0 
	fillh ARRAY 1 1
.d 1 0 
	rtn 
.o 1 0 
ea2
	jsr_eval 0
.o 1 0 
e_iTasks.Extensions.Currency_stoString;1
.o 1 0 
s2
.d 1 0 
	jsr s12
.o 0 1 i
.d 0 1 i
	jsr s31
.o 1 0 
	buildAC "USD "
.d 2 0 
	jsr catAC
.o 1 0 
.d 1 0 
	rtn 
.export e_iTasks.Extensions.Currency_stoInt;11
.descexp e_iTasks.Extensions.Currency_dtoInt;11 e_iTasks.Extensions.Currency_ntoInt;11 e_iTasks.Extensions.Currency_ltoInt;11 1 0 "toInt;11"
.o 2 0 
e_iTasks.Extensions.Currency_itoInt;11
.d 1 0 
	pop_a_jmp 1 s12
.ai 1 _ e_iTasks.Extensions.Currency_itoInt;11
.o 2 0 
e_iTasks.Extensions.Currency_ltoInt;11
.d 1 0 
	pop_a_jsr 1 ea12
.o 0 1 i
	buildI_b 0
.d 1 0 
	pop_b_rtn 1
.n 1 e_iTasks.Extensions.Currency_dtoInt;11
.o 1 0 
e_iTasks.Extensions.Currency_ntoInt;11
	push_node _cycle_in_spine 1
.d 1 0 
	jsr ea12
.o 0 1 i
	fillI_b 0 0
.d 1 0 
	pop_b_rtn 1
.o 1 0 
ea12
	jsr_eval 0
.o 1 0 
e_iTasks.Extensions.Currency_stoInt;11
.o 1 0 
s12
	repl_r_args 0 1
.d 0 1 i
	rtn 
.export e_iTasks.Extensions.Currency_stoString;0
.descexp e_iTasks.Extensions.Currency_dtoString;0 e_iTasks.Extensions.Currency_ntoString;0 e_iTasks.Extensions.Currency_ltoString;0 1 0 "toString;0"
.o 2 0 
e_iTasks.Extensions.Currency_itoString;0
.d 1 0 
	pop_a_jmp 1 s1
.ai 1 _ e_iTasks.Extensions.Currency_itoString;0
.o 2 0 
e_iTasks.Extensions.Currency_ltoString;0
.d 1 0 
	pop_a_jsr 1 ea1
.o 1 0 
	buildh ARRAY 1
.d 1 0 
	rtn 
.n 1 e_iTasks.Extensions.Currency_dtoString;0
.o 1 0 
e_iTasks.Extensions.Currency_ntoString;0
	push_node _cycle_in_spine 1
.d 1 0 
	jsr ea1
.o 1 0 
	fillh ARRAY 1 1
.d 1 0 
	rtn 
.o 1 0 
ea1
	jsr_eval 0
.o 1 0 
e_iTasks.Extensions.Currency_stoString;0
.o 1 0 
s1
.d 1 0 
	jsr s11
.o 0 1 i
.d 0 1 i
	jsr s31
.o 1 0 
	buildAC "EUR "
.d 2 0 
	jsr catAC
.o 1 0 
.d 1 0 
	rtn 
.export e_iTasks.Extensions.Currency_stoInt;10
.descexp e_iTasks.Extensions.Currency_dtoInt;10 e_iTasks.Extensions.Currency_ntoInt;10 e_iTasks.Extensions.Currency_ltoInt;10 1 0 "toInt;10"
.o 2 0 
e_iTasks.Extensions.Currency_itoInt;10
.d 1 0 
	pop_a_jmp 1 s11
.ai 1 _ e_iTasks.Extensions.Currency_itoInt;10
.o 2 0 
e_iTasks.Extensions.Currency_ltoInt;10
.d 1 0 
	pop_a_jsr 1 ea11
.o 0 1 i
	buildI_b 0
.d 1 0 
	pop_b_rtn 1
.n 1 e_iTasks.Extensions.Currency_dtoInt;10
.o 1 0 
e_iTasks.Extensions.Currency_ntoInt;10
	push_node _cycle_in_spine 1
.d 1 0 
	jsr ea11
.o 0 1 i
	fillI_b 0 0
.d 1 0 
	pop_b_rtn 1
.o 1 0 
ea11
	jsr_eval 0
.o 1 0 
e_iTasks.Extensions.Currency_stoInt;10
.o 1 0 
s11
	repl_r_args 0 1
.d 0 1 i
	rtn 
.o 0 1 i
s31
	pushI 100
	push_b 1
	remI
.d 0 1 i
	jsr ItoAC
.o 1 0 
	pushC '0'
	pushI 2
.d 1 2 ic
	jsr e_Text_slpad;11
.o 1 0 
	buildAC "."
.d 2 0 
	jsr catAC
.o 1 0 
	pushI 100
	push_b 1
	divI
	put_b 1
.d 0 1 i
	jsr ItoAC
.o 1 0 
.d 2 0 
	jsr catAC
.o 1 0 
.d 1 0 
	rtn 
.o 4 0 
s276
case.15
	jmp_ne_desc _Just 1 0 case.16
	repl_args 1 1
	push_jsr_eval 2
	push_a 1
	buildh e_StdGeneric_dCONS 1
	buildh _Just 1
	update2pop_a 0 4
.d 2 0 
	rtn 
case.16
	pop_a 3
	buildh _None 0
.d 2 0 
	rtn 
.o 3 0 
s277
case.18
	jmp_ne_desc _Just 1 0 case.19
	repl_args 1 1
	push_a 0
	buildh _Just 1
	updates2pop_a 0 2 3
.d 2 0 
	rtn 
case.19
	pop_a 2
	buildh _None 0
.d 2 0 
	rtn 
.o 2 0 
s278
	create 
	swap_a1 
.d 2 0 
	jsr s44
.o 1 0 
.d 2 0 
	rtn 
.o 2 0 
s279
	create 
	swap_a1 
.d 2 0 
	jsr s46
.o 1 0 
.d 2 0 
	rtn 
