.comp 920 000011110011000
.start _nostart_
.depend "Text" "20210613122637"
.depend "StdCharList" "20210613122638"
.depend "_SystemArray" "20210613122638"
.depend "StdArray" "20210613122638"
.depend "StdEnv" "20210613122638"
.depend "iTasks.Internal.SDSService" "20210613122637"
.depend "iTasks.Internal.Serialization" "20210613122637"
.depend "_SystemEnum" "20210613122638"
.depend "StdEnum" "20210613122638"
.depend "StdTuple" "20210613122638"
.depend "StdOrdList" "20210613122638"
.depend "Control.Monad.Trans" "20210613122637"
.depend "StdMaybe" "20210613122638"
.depend "Data.Maybe" "20210613122637"
.depend "iTasks.Extensions.Admin.WorkflowAdmin" "20210613122637"
.depend "iTasks.Extensions.User" "20210613122637"
.depend "iTasks.Extensions.Admin.UserAdmin" "20210613122637"
.depend "iTasks.UI.Layout.Common" "20210613122637"
.depend "iTasks.UI.Editor.Modifiers" "20210613122637"
.depend "iTasks.UI.Editor.Containers" "20210613122637"
.depend "iTasks.UI.Tune" "20210613122637"
.depend "iTasks.Internal.Distributed.Domain" "20210613122637"
.depend "iTasks.WF.Combinators.Common" "20210613122637"
.depend "iTasks.WF.Combinators.SDS" "20210613122637"
.depend "iTasks.UI.Editor.Controls" "20210613122637"
.depend "iTasks.WF.Tasks.Interaction" "20210613122637"
.depend "iTasks.WF.Tasks.System" "20210613122637"
.depend "iTasks.WF.Tasks.SDS" "20210613122637"
.depend "iTasks.WF.Tasks.Core" "20210613122637"
.depend "System.Time.GenJSON" "20210613122637"
.depend "Text.HTML.GenJSON" "20210613122637"
.depend "Data.Map.GenJSON" "20210613122637"
.depend "Data.Error.GenJSON" "20210613122637"
.depend "Data.Either.GenJSON" "20210613122637"
.depend "iTasks.WF.Derives" "20210613122637"
.depend "iTasks.SDS.Combinators.Common" "20210613122637"
.depend "iTasks.SDS.Combinators.Core" "20210613122637"
.depend "iTasks.SDS.Sources.System" "20210613122637"
.depend "iTasks.SDS.Sources.Store" "20210613122637"
.depend "iTasks.SDS.Sources.Core" "20210613122637"
.depend "iTasks.Internal.TaskIO" "20210613122637"
.depend "System._Signal" "20210613122637"
.depend "System.Signal" "20210613122637"
.depend "_SystemStrictMaybes" "20210613122638"
.depend "Text.GenPrint" "20210613122637"
.depend "iTasks.Extensions.DateTime" "20210613122637"
.depend "iTasks.Internal.TaskServer" "20210613122637"
.depend "AsyncIO" "20210613122637"
.depend "System._Process" "20210613122637"
.depend "System.Process" "20210613122637"
.depend "System.OS" "20210613122637"
.depend "TCPStringChannelsInternal" "20210613122630"
.depend "TCPStringChannels" "20210613122630"
.depend "TCPEvent" "20210613122630"
.depend "tcp_bytestreams" "20210613122630"
.depend "TCPDef" "20210613122630"
.depend "TCPChannels" "20210613122630"
.depend "TCPIP" "20210613122630"
.depend "iTasks.WF.Tasks.IO" "20210613122637"
.depend "Data.IntMap.Base" "20210613122637"
.depend "Data.IntMap.Strict" "20210613122637"
.depend "Data.CircularStack" "20210613122637"
.depend "iTasks.Extensions.Document" "20210613122637"
.depend "System.File" "20210613122637"
.depend "iTasks.Util.DeferredJSON" "20210613122637"
.depend "iTasks.UI.Layout" "20210613122637"
.depend "iTasks.Internal.TaskState" "20210613122637"
.depend "iTasks.Internal.SDS" "20210613122637"
.depend "Data.GenHash" "20210613122637"
.depend "Data.Maybe.Ord" "20210613122637"
.depend "Control.GenBimap" "20210613122637"
.depend "ABC.Interpreter.JavaScript" "20210613122638"
.depend "ABC.Interpreter" "20210613122638"
.depend "iTasks.UI.Editor" "20210613122637"
.depend "iTasks.UI.Editor.Generic" "20210613122637"
.depend "iTasks.Internal.Generic.Defaults" "20210613122637"
.depend "Data.GenDefault" "20210613122637"
.depend "Data.Integer" "20210613122637"
.depend "Text.HTML" "20210613122638"
.depend "iTasks.Internal.Generic.Visualization" "20210613122637"
.depend "iTasks.SDS.Definition" "20210613122637"
.depend "iTasks.WF.Combinators.Core" "20210613122637"
.depend "iTasks.Internal.TaskEval" "20210613122637"
.depend "iTasks.Internal.Task" "20210613122637"
.depend "iTasks.UI.Definition" "20210613122637"
.depend "Text.GenJSON" "20210613122637"
.depend "Data.Bifunctor" "20210613122637"
.depend "Data.Either" "20210613122637"
.depend "Data.Queue" "20210613122637"
.depend "StdFile" "20210613122638"
.depend "symbols_in_program" "20210613122637"
.depend "iTasks.Internal.IWorld" "20210613122637"
.depend "iTasks.Internal.WebService" "20210613122637"
.depend "tcp" "20210613122630"
.depend "TCPChannelClass" "20210613122630"
.depend "System._Time" "20210613122637"
.depend "System.Time" "20210613122637"
.depend "System.GetOpt" "20210613122637"
.depend "System.OSError" "20210613122637"
.depend "System.FilePath" "20210613122637"
.depend "StdString" "20210613122638"
.depend "Internet.HTTP" "20210613122637"
.depend "Control.Monad.Fail" "20210613122637"
.depend "Data.Traversable" "20210613122637"
.depend "StdMisc" "20210613122638"
.depend "StdOverloadedList" "20210613122638"
.depend "Data.List" "20210613122637"
.depend "Data.Foldable" "20210613122637"
.depend "Data.Set" "20210613122637"
.depend "Data.GenLexOrd" "20210613122637"
.depend "StdFunctions" "20210613122638"
.depend "StdFunc" "20210613122638"
.depend "Data.Map" "20210613122637"
.depend "_SystemEnumStrict" "20210613122638"
.depend "_SystemStrictLists" "20210613122638"
.depend "StdStrictLists" "20210613122638"
.depend "StdGeneric" "20210613122638"
.depend "Data.GenEq" "20210613122637"
.depend "StdReal" "20210613122638"
.depend "StdChar" "20210613122638"
.depend "StdInt" "20210613122638"
.depend "StdBool" "20210613122638"
.depend "StdClass" "20210613122638"
.depend "StdList" "20210613122638"
.depend "Data.Monoid" "20210613122637"
.depend "Control.Applicative" "20210613122637"
.depend "Control.Monad" "20210613122637"
.depend "Data.Functor" "20210613122637"
.depend "Data.Error" "20210613122637"
.depend "iTasks.Engine" "20210613122637"
.depend "iTasks" "20210613122637"
.depend "StdOverloaded" "20210613122638"
.depend "_SystemDynamic" "20210613122638"
.depend "iTasks.WF.Definition" "20210613122637"
.module m_iTasks.WF.Definition "iTasks.WF.Definition" "20210613122637"
.endinfo
.impmod _system
.implab _cycle_in_spine
.implab _type_error
.implab _hnf
.impdesc e_system_dind
.implab e_system_nind e_system_eaind
.impdesc e_system_dif
.implab e_system_nif e_system_eaif
.implab e_system_sif
.impdesc e_system_dAP
.implab e_system_nAP e_system_eaAP
.implab e_system_sAP
.impdesc ARRAY
.impdesc _Nil
.impdesc _Cons
.impdesc _Conss
.implab n_Conss ea_Conss
.impdesc _Consts
.implab n_Consts ea_Consts
.impdesc _Conssts
.implab n_Conssts ea_Conssts
.impdesc _Tuple
.impdesc d_S.1
.implab n_S.1 ea_S.1
.impdesc d_S.2
.implab n_S.2 ea_S.2
.impdesc d_S.3
.implab n_S.3 ea_S.3
.impdesc d_S.4
.implab n_S.4 ea_S.4
.impdesc d_S.5
.implab n_S.5 ea_S.5
.impdesc d_S.6
.implab n_S.6 ea_S.6
.implab _driver
.impmod Text
.implab e_Text_sjoin;9
.implab e_Text_ssplit;16
.impmod iTasks.Internal.TaskIO
.impdesc e_iTasks.Internal.TaskIO_dclearEventsFor
.implab e_iTasks.Internal.TaskIO_nclearEventsFor e_iTasks.Internal.TaskIO_eaclearEventsFor
.impmod iTasks.Internal.SDS
.impdesc e_iTasks.Internal.SDS_dclearTaskSDSRegistrations
.implab e_iTasks.Internal.SDS_nclearTaskSDSRegistrations e_iTasks.Internal.SDS_eaclearTaskSDSRegistrations
.impmod StdString
.impdesc e_StdString_dtoString;5
.implab e_StdString_ntoString;5
.impmod Data.Set
.impdesc e_Data.Set_dsingleton
.implab e_Data.Set_nsingleton e_Data.Set_easingleton
.impmod StdInt
.implab e_StdInt_s==;16
.implab e_StdInt_s<;17
.implab e_StdInt_stoInt;23
.impmod StdList
.implab e_StdList_smap
.impmod _SystemDynamic
.impdesc e__SystemDynamic_d_initial_unification_environment
.implab e__SystemDynamic_n_initial_unification_environment e__SystemDynamic_ea_initial_unification_environment
.impdesc e__SystemDynamic_d_bind_global_type_pattern_var
.implab e__SystemDynamic_n_bind_global_type_pattern_var e__SystemDynamic_ea_bind_global_type_pattern_var
.impdesc e__SystemDynamic_d_normalise
.implab e__SystemDynamic_n_normalise e__SystemDynamic_ea_normalise
.impdesc e__SystemDynamic_rDynamicTemp
.impdesc e__SystemDynamic_kTypeVar
.export e_iTasks.WF.Definition_eaEditEvent
.descexp e_iTasks.WF.Definition_dEditEvent e_iTasks.WF.Definition_nEditEvent e_iTasks.WF.Definition_lEditEvent 3 0 "EditEvent"
.a 3 e_iTasks.WF.Definition_eaEditEvent
.o 2 0 
e_iTasks.WF.Definition_lEditEvent
	push_args 0 2 2
	update_a 3 2
	create 
.d 4 0 
	put_a_jmp 4 e_iTasks.WF.Definition_eaEditEvent
.n 3 e_iTasks.WF.Definition_dEditEvent e_iTasks.WF.Definition_eaEditEvent
.o 1 0 
e_iTasks.WF.Definition_nEditEvent
	push_node _cycle_in_spine 3
.o 4 0 
e_iTasks.WF.Definition_eaEditEvent
	jsr_eval 2
	jsr_eval 1
	jsr_eval 0
	push_array 1
	put_a 2
	fill_r e_iTasks.WF.Definition_kEditEvent 3 0 3 0 0
.d 1 0 
	pop_a_rtn 3
.export e_iTasks.WF.Definition_eaActionEvent
.descexp e_iTasks.WF.Definition_dActionEvent e_iTasks.WF.Definition_nActionEvent e_iTasks.WF.Definition_lActionEvent 2 0 "ActionEvent"
.a 2 e_iTasks.WF.Definition_eaActionEvent
.o 2 0 
e_iTasks.WF.Definition_lActionEvent
	push_args 0 1 1
	update_a 2 1
	create 
.d 3 0 
	put_a_jmp 3 e_iTasks.WF.Definition_eaActionEvent
.n 2 e_iTasks.WF.Definition_dActionEvent e_iTasks.WF.Definition_eaActionEvent
.o 1 0 
e_iTasks.WF.Definition_nActionEvent
	push_node _cycle_in_spine 2
.o 3 0 
e_iTasks.WF.Definition_eaActionEvent
	jsr_eval 1
	jsr_eval 0
	push_array 1
	put_a 2
	fill_r e_iTasks.WF.Definition_kActionEvent 2 0 2 0 0
.d 1 0 
	pop_a_rtn 2
.export e_iTasks.WF.Definition_eaRefreshEvent
.descexp e_iTasks.WF.Definition_dRefreshEvent e_iTasks.WF.Definition_nRefreshEvent e_iTasks.WF.Definition_lRefreshEvent 1 0 "RefreshEvent"
.o 2 0 
e_iTasks.WF.Definition_lRefreshEvent
	update_a 1 0
	create 
.d 2 0 
	put_a_jmp 2 e_iTasks.WF.Definition_eaRefreshEvent
.n 1 e_iTasks.WF.Definition_dRefreshEvent e_iTasks.WF.Definition_eaRefreshEvent
.o 1 0 
e_iTasks.WF.Definition_nRefreshEvent
	push_node _cycle_in_spine 1
.o 2 0 
e_iTasks.WF.Definition_eaRefreshEvent
	jsr_eval 0
	fill_r e_iTasks.WF.Definition_kRefreshEvent 1 0 1 0 0
.d 1 0 
	pop_a_rtn 1
.export e_iTasks.WF.Definition_kEditEvent
.record e_iTasks.WF.Definition_kEditEvent daaa 3 0 "EditEvent"
.export e_iTasks.WF.Definition_kActionEvent
.record e_iTasks.WF.Definition_kActionEvent daa 2 0 "ActionEvent"
.export e_iTasks.WF.Definition_kRefreshEvent
.record e_iTasks.WF.Definition_kRefreshEvent da 1 0 "RefreshEvent"
.export e_iTasks.WF.Definition_dResetEvent
.desc e_iTasks.WF.Definition_dResetEvent _hnf _hnf 0 0 "ResetEvent"
.export e_iTasks.WF.Definition_dServerInterruptedEvent
.desc e_iTasks.WF.Definition_dServerInterruptedEvent _hnf _hnf 0 0 "ServerInterruptedEvent"
.export e_iTasks.WF.Definition_dDestroyEvent
.desc e_iTasks.WF.Definition_dDestroyEvent _hnf _hnf 0 0 "DestroyEvent"
.export e_iTasks.WF.Definition_eaValueResult
.descexp e_iTasks.WF.Definition_dValueResult e_iTasks.WF.Definition_nValueResult e_iTasks.WF.Definition_lValueResult 4 0 "ValueResult"
.a 4 e_iTasks.WF.Definition_eaValueResult
.o 2 0 
e_iTasks.WF.Definition_lValueResult
	push_args 0 3 3
	update_a 4 3
	create 
.d 5 0 
	put_a_jmp 5 e_iTasks.WF.Definition_eaValueResult
.n 4 e_iTasks.WF.Definition_dValueResult e_iTasks.WF.Definition_eaValueResult
.o 1 0 
e_iTasks.WF.Definition_nValueResult
	push_node _cycle_in_spine 4
.o 5 0 
e_iTasks.WF.Definition_eaValueResult
	jsr_eval 3
	jsr_eval 2
	jsr_eval 1
	jsr_eval 0
	fill_r e_iTasks.WF.Definition_kValueResult 4 0 4 0 0
.d 1 0 
	pop_a_rtn 4
.export e_iTasks.WF.Definition_eaExceptionResult
.descexp e_iTasks.WF.Definition_dExceptionResult e_iTasks.WF.Definition_nExceptionResult e_iTasks.WF.Definition_lExceptionResult 1 0 "ExceptionResult"
.o 2 0 
e_iTasks.WF.Definition_lExceptionResult
	update_a 1 0
	create 
.d 2 0 
	put_a_jmp 2 e_iTasks.WF.Definition_eaExceptionResult
.n 1 e_iTasks.WF.Definition_dExceptionResult e_iTasks.WF.Definition_eaExceptionResult
.o 1 0 
e_iTasks.WF.Definition_nExceptionResult
	push_node _cycle_in_spine 1
.o 2 0 
e_iTasks.WF.Definition_eaExceptionResult
	jsr_eval 0
	repl_args 2 2
	jsr_eval 1
	jsr_eval 0
	push_array 1
	push_r_args 1 2 0
	update3pop_a 0 2
	fill_r e_iTasks.WF.Definition_kExceptionResult 3 0 3 0 0
.d 1 0 
	pop_a_rtn 3
.export e_iTasks.WF.Definition_kValueResult
.record e_iTasks.WF.Definition_kValueResult daaaa 4 0 "ValueResult"
.export e_iTasks.WF.Definition_kExceptionResult
.record e_iTasks.WF.Definition_kExceptionResult d({aa},a) 3 0 e__SystemDynamic_rDynamicTemp "ExceptionResult"
.export e_iTasks.WF.Definition_dDestroyedResult
.desc e_iTasks.WF.Definition_dDestroyedResult _hnf _hnf 0 0 "DestroyedResult"
.export e_iTasks.WF.Definition_eaValue
.descexp e_iTasks.WF.Definition_dValue e_iTasks.WF.Definition_nValue e_iTasks.WF.Definition_lValue 2 0 "Value"
.a 2 e_iTasks.WF.Definition_eaValue
.o 2 0 
e_iTasks.WF.Definition_lValue
	push_args 0 1 1
	update_a 2 1
	create 
.d 3 0 
	put_a_jmp 3 e_iTasks.WF.Definition_eaValue
.n 2 e_iTasks.WF.Definition_dValue e_iTasks.WF.Definition_eaValue
.o 1 0 
e_iTasks.WF.Definition_nValue
	push_node _cycle_in_spine 2
.o 3 0 
e_iTasks.WF.Definition_eaValue
	jsr_eval 1
	jsr_eval 0
	pushB_a 1
	put_a 1
	fill_r e_iTasks.WF.Definition_kValue 1 1 1 0 0
.d 1 0 
	pop_ab_rtn 1 1
.export e_iTasks.WF.Definition_dNoValue
.desc e_iTasks.WF.Definition_dNoValue _hnf _hnf 0 0 "NoValue"
.export e_iTasks.WF.Definition_kValue
.record e_iTasks.WF.Definition_kValue dab 1 1 "Value"
.export e_iTasks.WF.Definition_eaTaskId
.descexp e_iTasks.WF.Definition_dTaskId e_iTasks.WF.Definition_nTaskId e_iTasks.WF.Definition_lTaskId 2 0 "TaskId"
.a 2 e_iTasks.WF.Definition_eaTaskId
.o 2 0 
e_iTasks.WF.Definition_lTaskId
	push_args 0 1 1
	update_a 2 1
	create 
.d 3 0 
	put_a_jmp 3 e_iTasks.WF.Definition_eaTaskId
.n 2 e_iTasks.WF.Definition_dTaskId e_iTasks.WF.Definition_eaTaskId
.o 1 0 
e_iTasks.WF.Definition_nTaskId
	push_node _cycle_in_spine 2
.o 3 0 
e_iTasks.WF.Definition_eaTaskId
	jsr_eval 1
	jsr_eval 0
	pushI_a 1
	pushI_a 0
	pop_a 2
	fill_r e_iTasks.WF.Definition_kTaskId 0 2 0 0 0
.d 1 0 
	pop_b_rtn 2
.export e_iTasks.WF.Definition_kTaskId
.record e_iTasks.WF.Definition_kTaskId dii 0 2 "TaskId"
.export e_iTasks.WF.Definition_rTaskListItem
.record e_iTasks.WF.Definition_rTaskListItem aabbaaa 5 2 "TaskListItem"
.descexp e_iTasks.WF.Definition_tTaskListItem e_iTasks.WF.Definition_cTaskListItem _hnf 7 1 "TaskListItem"
.n 7 e_iTasks.WF.Definition_tTaskListItem
.o 1 0 
e_iTasks.WF.Definition_cTaskListItem
	push_node _cycle_in_spine 7
	jsr_eval 6
	jsr_eval 5
	jsr_eval 4
	jsr_eval 3
	jsr_eval 2
	jsr_eval 1
	jsr_eval 0
	pushB_a 3
	pushB_a 2
	update2pop_a 0 2
.impmod iTasks.WF.Definition
.impdesc e_iTasks.WF.Definition_rTaskListItem
	fill_r e_iTasks.WF.Definition_rTaskListItem 5 2 5 0 0
.d 1 0 
	pop_ab_rtn 5 2
.export e_iTasks.WF.Definition_dTaskListItem.taskId
.export e_iTasks.WF.Definition_nTaskListItem.taskId
.export e_iTasks.WF.Definition_eaTaskListItem.taskId
.descs e_iTasks.WF.Definition_dTaskListItem.taskId e_iTasks.WF.Definition_nTaskListItem.taskId _ 1 0 "TaskListItem.taskId"
.n -4 e_iTasks.WF.Definition_dTaskListItem.taskId e_iTasks.WF.Definition_eaTaskListItem.taskId
.o 1 0 
e_iTasks.WF.Definition_nTaskListItem.taskId
	push_node _cycle_in_spine 1
.o 2 0 
e_iTasks.WF.Definition_eaTaskListItem.taskId
	jsr_eval 0
	repl_r_args_a 5 2 1 1
.d 1 0 
	fill_a01_pop_rtn 
.export e_iTasks.WF.Definition_dTaskListItem.listId
.export e_iTasks.WF.Definition_nTaskListItem.listId
.export e_iTasks.WF.Definition_eaTaskListItem.listId
.descs e_iTasks.WF.Definition_dTaskListItem.listId e_iTasks.WF.Definition_nTaskListItem.listId _ 3 0 "TaskListItem.listId"
.n -4 e_iTasks.WF.Definition_dTaskListItem.listId e_iTasks.WF.Definition_eaTaskListItem.listId
.o 1 0 
e_iTasks.WF.Definition_nTaskListItem.listId
	push_node _cycle_in_spine 1
.o 2 0 
e_iTasks.WF.Definition_eaTaskListItem.listId
	jsr_eval 0
	repl_r_args_a 5 2 2 1
.d 1 0 
	fill_a01_pop_rtn 
.export e_iTasks.WF.Definition_dTaskListItem.detached
.export e_iTasks.WF.Definition_nTaskListItem.detached
.descs e_iTasks.WF.Definition_dTaskListItem.detached e_iTasks.WF.Definition_nTaskListItem.detached BOOL 7 0 "TaskListItem.detached"
.n -3 e_iTasks.WF.Definition_dTaskListItem.detached
.o 1 0 
e_iTasks.WF.Definition_nTaskListItem.detached
	push_node _cycle_in_spine 1
	jsr_eval 0
	push_r_args_b 0 5 2 1 1
	pop_a 1
	fillB_b 0 0
.d 1 0 
	pop_b_rtn 1
.export e_iTasks.WF.Definition_dTaskListItem.self
.export e_iTasks.WF.Definition_nTaskListItem.self
.descs e_iTasks.WF.Definition_dTaskListItem.self e_iTasks.WF.Definition_nTaskListItem.self BOOL 8 0 "TaskListItem.self"
.n -3 e_iTasks.WF.Definition_dTaskListItem.self
.o 1 0 
e_iTasks.WF.Definition_nTaskListItem.self
	push_node _cycle_in_spine 1
	jsr_eval 0
	push_r_args_b 0 5 2 2 1
	pop_a 1
	fillB_b 0 0
.d 1 0 
	pop_b_rtn 1
.export e_iTasks.WF.Definition_dTaskListItem.value
.export e_iTasks.WF.Definition_nTaskListItem.value
.export e_iTasks.WF.Definition_eaTaskListItem.value
.descs e_iTasks.WF.Definition_dTaskListItem.value e_iTasks.WF.Definition_nTaskListItem.value _ 4 0 "TaskListItem.value"
.n -4 e_iTasks.WF.Definition_dTaskListItem.value e_iTasks.WF.Definition_eaTaskListItem.value
.o 1 0 
e_iTasks.WF.Definition_nTaskListItem.value
	push_node _cycle_in_spine 1
.o 2 0 
e_iTasks.WF.Definition_eaTaskListItem.value
	jsr_eval 0
	repl_r_args_a 5 2 3 1
.d 1 0 
	fill_a01_pop_rtn 
.export e_iTasks.WF.Definition_dTaskListItem.taskAttributes
.export e_iTasks.WF.Definition_nTaskListItem.taskAttributes
.export e_iTasks.WF.Definition_eaTaskListItem.taskAttributes
.descs e_iTasks.WF.Definition_dTaskListItem.taskAttributes e_iTasks.WF.Definition_nTaskListItem.taskAttributes _ 5 0 "TaskListItem.taskAttributes"
.n -4 e_iTasks.WF.Definition_dTaskListItem.taskAttributes e_iTasks.WF.Definition_eaTaskListItem.taskAttributes
.o 1 0 
e_iTasks.WF.Definition_nTaskListItem.taskAttributes
	push_node _cycle_in_spine 1
.o 2 0 
e_iTasks.WF.Definition_eaTaskListItem.taskAttributes
	jsr_eval 0
	repl_r_args_a 5 2 4 1
.d 1 0 
	fill_a01_pop_rtn 
.export e_iTasks.WF.Definition_dTaskListItem.managementAttributes
.export e_iTasks.WF.Definition_nTaskListItem.managementAttributes
.export e_iTasks.WF.Definition_eaTaskListItem.managementAttributes
.descs e_iTasks.WF.Definition_dTaskListItem.managementAttributes e_iTasks.WF.Definition_nTaskListItem.managementAttributes _ 6 0 "TaskListItem.managementAttributes"
.n -4 e_iTasks.WF.Definition_dTaskListItem.managementAttributes e_iTasks.WF.Definition_eaTaskListItem.managementAttributes
.o 1 0 
e_iTasks.WF.Definition_nTaskListItem.managementAttributes
	push_node _cycle_in_spine 1
.o 2 0 
e_iTasks.WF.Definition_eaTaskListItem.managementAttributes
	jsr_eval 0
	repl_r_args_a 5 2 5 1
.d 1 0 
	fill_a01_pop_rtn 
.export e_iTasks.WF.Definition_rTaskListFilter
.record e_iTasks.WF.Definition_rTaskListFilter aaaabbbbb 4 5 "TaskListFilter"
.descexp e_iTasks.WF.Definition_tTaskListFilter e_iTasks.WF.Definition_cTaskListFilter _hnf 9 1 "TaskListFilter"
.n 9 e_iTasks.WF.Definition_tTaskListFilter
.o 1 0 
e_iTasks.WF.Definition_cTaskListFilter
	push_node _cycle_in_spine 9
	jsr_eval 8
	jsr_eval 7
	jsr_eval 6
	jsr_eval 5
	jsr_eval 4
	jsr_eval 3
	jsr_eval 2
	jsr_eval 1
	jsr_eval 0
	pushB_a 8
	pushB_a 7
	pushB_a 6
	pushB_a 5
	pushB_a 4
	update_a 3 8
	update3pop_a 0 5
.impdesc e_iTasks.WF.Definition_rTaskListFilter
	fill_r e_iTasks.WF.Definition_rTaskListFilter 4 5 4 0 0
.d 1 0 
	pop_ab_rtn 4 5
.export e_iTasks.WF.Definition_dTaskListFilter.onlyIndex
.export e_iTasks.WF.Definition_nTaskListFilter.onlyIndex
.export e_iTasks.WF.Definition_eaTaskListFilter.onlyIndex
.descs e_iTasks.WF.Definition_dTaskListFilter.onlyIndex e_iTasks.WF.Definition_nTaskListFilter.onlyIndex _ 1 0 "TaskListFilter.onlyIndex"
.n -4 e_iTasks.WF.Definition_dTaskListFilter.onlyIndex e_iTasks.WF.Definition_eaTaskListFilter.onlyIndex
.o 1 0 
e_iTasks.WF.Definition_nTaskListFilter.onlyIndex
	push_node _cycle_in_spine 1
.o 2 0 
e_iTasks.WF.Definition_eaTaskListFilter.onlyIndex
	jsr_eval 0
	repl_r_args_a 4 5 1 1
.d 1 0 
	fill_a01_pop_rtn 
.export e_iTasks.WF.Definition_dTaskListFilter.onlyTaskId
.export e_iTasks.WF.Definition_nTaskListFilter.onlyTaskId
.export e_iTasks.WF.Definition_eaTaskListFilter.onlyTaskId
.descs e_iTasks.WF.Definition_dTaskListFilter.onlyTaskId e_iTasks.WF.Definition_nTaskListFilter.onlyTaskId _ 3 0 "TaskListFilter.onlyTaskId"
.n -4 e_iTasks.WF.Definition_dTaskListFilter.onlyTaskId e_iTasks.WF.Definition_eaTaskListFilter.onlyTaskId
.o 1 0 
e_iTasks.WF.Definition_nTaskListFilter.onlyTaskId
	push_node _cycle_in_spine 1
.o 2 0 
e_iTasks.WF.Definition_eaTaskListFilter.onlyTaskId
	jsr_eval 0
	repl_r_args_a 4 5 2 1
.d 1 0 
	fill_a01_pop_rtn 
.export e_iTasks.WF.Definition_dTaskListFilter.notTaskId
.export e_iTasks.WF.Definition_nTaskListFilter.notTaskId
.export e_iTasks.WF.Definition_eaTaskListFilter.notTaskId
.descs e_iTasks.WF.Definition_dTaskListFilter.notTaskId e_iTasks.WF.Definition_nTaskListFilter.notTaskId _ 4 0 "TaskListFilter.notTaskId"
.n -4 e_iTasks.WF.Definition_dTaskListFilter.notTaskId e_iTasks.WF.Definition_eaTaskListFilter.notTaskId
.o 1 0 
e_iTasks.WF.Definition_nTaskListFilter.notTaskId
	push_node _cycle_in_spine 1
.o 2 0 
e_iTasks.WF.Definition_eaTaskListFilter.notTaskId
	jsr_eval 0
	repl_r_args_a 4 5 3 1
.d 1 0 
	fill_a01_pop_rtn 
.export e_iTasks.WF.Definition_dTaskListFilter.onlyAttribute
.export e_iTasks.WF.Definition_nTaskListFilter.onlyAttribute
.export e_iTasks.WF.Definition_eaTaskListFilter.onlyAttribute
.descs e_iTasks.WF.Definition_dTaskListFilter.onlyAttribute e_iTasks.WF.Definition_nTaskListFilter.onlyAttribute _ 5 0 "TaskListFilter.onlyAttribute"
.n -4 e_iTasks.WF.Definition_dTaskListFilter.onlyAttribute e_iTasks.WF.Definition_eaTaskListFilter.onlyAttribute
.o 1 0 
e_iTasks.WF.Definition_nTaskListFilter.onlyAttribute
	push_node _cycle_in_spine 1
.o 2 0 
e_iTasks.WF.Definition_eaTaskListFilter.onlyAttribute
	jsr_eval 0
	repl_r_args_a 4 5 4 1
.d 1 0 
	fill_a01_pop_rtn 
.export e_iTasks.WF.Definition_dTaskListFilter.onlySelf
.export e_iTasks.WF.Definition_nTaskListFilter.onlySelf
.descs e_iTasks.WF.Definition_dTaskListFilter.onlySelf e_iTasks.WF.Definition_nTaskListFilter.onlySelf BOOL 6 0 "TaskListFilter.onlySelf"
.n -3 e_iTasks.WF.Definition_dTaskListFilter.onlySelf
.o 1 0 
e_iTasks.WF.Definition_nTaskListFilter.onlySelf
	push_node _cycle_in_spine 1
	jsr_eval 0
	push_r_args_b 0 4 5 1 1
	pop_a 1
	fillB_b 0 0
.d 1 0 
	pop_b_rtn 1
.export e_iTasks.WF.Definition_dTaskListFilter.includeValue
.export e_iTasks.WF.Definition_nTaskListFilter.includeValue
.descs e_iTasks.WF.Definition_dTaskListFilter.includeValue e_iTasks.WF.Definition_nTaskListFilter.includeValue BOOL 7 0 "TaskListFilter.includeValue"
.n -3 e_iTasks.WF.Definition_dTaskListFilter.includeValue
.o 1 0 
e_iTasks.WF.Definition_nTaskListFilter.includeValue
	push_node _cycle_in_spine 1
	jsr_eval 0
	push_r_args_b 0 4 5 2 1
	pop_a 1
	fillB_b 0 0
.d 1 0 
	pop_b_rtn 1
.export e_iTasks.WF.Definition_dTaskListFilter.includeTaskAttributes
.export e_iTasks.WF.Definition_nTaskListFilter.includeTaskAttributes
.descs e_iTasks.WF.Definition_dTaskListFilter.includeTaskAttributes e_iTasks.WF.Definition_nTaskListFilter.includeTaskAttributes BOOL 8 0 "TaskListFilter.includeTaskAttributes"
.n -3 e_iTasks.WF.Definition_dTaskListFilter.includeTaskAttributes
.o 1 0 
e_iTasks.WF.Definition_nTaskListFilter.includeTaskAttributes
	push_node _cycle_in_spine 1
	jsr_eval 0
	push_r_args_b 0 4 5 3 1
	pop_a 1
	fillB_b 0 0
.d 1 0 
	pop_b_rtn 1
.export e_iTasks.WF.Definition_dTaskListFilter.includeManagementAttributes
.export e_iTasks.WF.Definition_nTaskListFilter.includeManagementAttributes
.descs e_iTasks.WF.Definition_dTaskListFilter.includeManagementAttributes e_iTasks.WF.Definition_nTaskListFilter.includeManagementAttributes BOOL 9 0 "TaskListFilter.includeManagementAttributes"
.n -3 e_iTasks.WF.Definition_dTaskListFilter.includeManagementAttributes
.o 1 0 
e_iTasks.WF.Definition_nTaskListFilter.includeManagementAttributes
	push_node _cycle_in_spine 1
	jsr_eval 0
	push_r_args_b 0 4 5 4 1
	pop_a 1
	fillB_b 0 0
.d 1 0 
	pop_b_rtn 1
.export e_iTasks.WF.Definition_dTaskListFilter.includeProgress
.export e_iTasks.WF.Definition_nTaskListFilter.includeProgress
.descs e_iTasks.WF.Definition_dTaskListFilter.includeProgress e_iTasks.WF.Definition_nTaskListFilter.includeProgress BOOL 10 0 "TaskListFilter.includeProgress"
.n -3 e_iTasks.WF.Definition_dTaskListFilter.includeProgress
.o 1 0 
e_iTasks.WF.Definition_nTaskListFilter.includeProgress
	push_node _cycle_in_spine 1
	jsr_eval 0
	push_r_args_b 0 4 5 5 1
	pop_a 1
	fillB_b 0 0
.d 1 0 
	pop_b_rtn 1
.export e_iTasks.WF.Definition_rtoInstanceNo;
.record e_iTasks.WF.Definition_rtoInstanceNo; a 1 0 "toInstanceNo;"
.descexp e_iTasks.WF.Definition_ttoInstanceNo; e_iTasks.WF.Definition_ctoInstanceNo; _hnf 1 1 "toInstanceNo;"
.n 1 e_iTasks.WF.Definition_ttoInstanceNo;
.o 1 0 
e_iTasks.WF.Definition_ctoInstanceNo;
	push_node _cycle_in_spine 1
	jsr_eval 0
.impdesc e_iTasks.WF.Definition_rtoInstanceNo;
	fill_r e_iTasks.WF.Definition_rtoInstanceNo; 1 0 1 0 0
.d 1 0 
	pop_a_rtn 1
.export e_iTasks.WF.Definition_dtoInstanceNo;.toInstanceNo
.export e_iTasks.WF.Definition_ntoInstanceNo;.toInstanceNo
.export e_iTasks.WF.Definition_eatoInstanceNo;.toInstanceNo
.descs e_iTasks.WF.Definition_dtoInstanceNo;.toInstanceNo e_iTasks.WF.Definition_ntoInstanceNo;.toInstanceNo _ 1 0 "toInstanceNo;.toInstanceNo"
.n -4 e_iTasks.WF.Definition_dtoInstanceNo;.toInstanceNo e_iTasks.WF.Definition_eatoInstanceNo;.toInstanceNo
.o 1 0 
e_iTasks.WF.Definition_ntoInstanceNo;.toInstanceNo
	push_node _cycle_in_spine 1
.o 2 0 
e_iTasks.WF.Definition_eatoInstanceNo;.toInstanceNo
	jsr_eval 0
	repl_r_args_a 1 0 1 1
.d 1 0 
	fill_a01_pop_rtn 
.impmod StdGeneric
.impdesc e_StdGeneric_rGenericDict
.export e_iTasks.WF.Definition_riTask;
.record e_iTasks.WF.Definition_riTask; {a}{a}{a}{a}{a}a 6 0 e_StdGeneric_rGenericDict e_StdGeneric_rGenericDict e_StdGeneric_rGenericDict e_StdGeneric_rGenericDict e_StdGeneric_rGenericDict "iTask;"
.descexp e_iTasks.WF.Definition_tiTask; e_iTasks.WF.Definition_ciTask; _hnf 6 1 "iTask;"
.n 6 e_iTasks.WF.Definition_tiTask;
.o 1 0 
e_iTasks.WF.Definition_ciTask;
	push_node _cycle_in_spine 6
	jsr_eval 5
	jsr_eval 4
	jsr_eval 3
	jsr_eval 2
	jsr_eval 1
	jsr_eval 0
	push_r_args 4 1 0
	push_r_args 4 1 0
	push_r_args 4 1 0
	push_r_args 4 1 0
	push_r_args 4 1 0
	update2_a 3 8
	update3pop_a 0 5
.impmod iTasks.WF.Definition
.impdesc e_iTasks.WF.Definition_riTask;
	fill_r e_iTasks.WF.Definition_riTask; 6 0 6 0 0
.d 1 0 
	pop_a_rtn 6
.export e_iTasks.WF.Definition_diTask;.gEditor_s
.export e_iTasks.WF.Definition_niTask;.gEditor_s
.desc e_iTasks.WF.Definition_diTask;.gEditor_s e_iTasks.WF.Definition_niTask;.gEditor_s _hnf 1 0 "iTask;.gEditor_s"
.n 1 e_iTasks.WF.Definition_diTask;.gEditor_s
.o 1 0 
e_iTasks.WF.Definition_niTask;.gEditor_s
	push_node _cycle_in_spine 1
	jsr_eval 0
	repl_r_args_a 6 0 1 1
	fill_r e_StdGeneric_rGenericDict 1 0 1 0 0
.d 1 0 
	pop_a_rtn 1
.export e_iTasks.WF.Definition_diTask;.gText_s
.export e_iTasks.WF.Definition_niTask;.gText_s
.desc e_iTasks.WF.Definition_diTask;.gText_s e_iTasks.WF.Definition_niTask;.gText_s _hnf 1 0 "iTask;.gText_s"
.n 1 e_iTasks.WF.Definition_diTask;.gText_s
.o 1 0 
e_iTasks.WF.Definition_niTask;.gText_s
	push_node _cycle_in_spine 1
	jsr_eval 0
	repl_r_args_a 6 0 2 1
	fill_r e_StdGeneric_rGenericDict 1 0 1 0 0
.d 1 0 
	pop_a_rtn 1
.export e_iTasks.WF.Definition_diTask;.JSONEncode_s
.export e_iTasks.WF.Definition_niTask;.JSONEncode_s
.desc e_iTasks.WF.Definition_diTask;.JSONEncode_s e_iTasks.WF.Definition_niTask;.JSONEncode_s _hnf 1 0 "iTask;.JSONEncode_s"
.n 1 e_iTasks.WF.Definition_diTask;.JSONEncode_s
.o 1 0 
e_iTasks.WF.Definition_niTask;.JSONEncode_s
	push_node _cycle_in_spine 1
	jsr_eval 0
	repl_r_args_a 6 0 3 1
	fill_r e_StdGeneric_rGenericDict 1 0 1 0 0
.d 1 0 
	pop_a_rtn 1
.export e_iTasks.WF.Definition_diTask;.JSONDecode_s
.export e_iTasks.WF.Definition_niTask;.JSONDecode_s
.desc e_iTasks.WF.Definition_diTask;.JSONDecode_s e_iTasks.WF.Definition_niTask;.JSONDecode_s _hnf 1 0 "iTask;.JSONDecode_s"
.n 1 e_iTasks.WF.Definition_diTask;.JSONDecode_s
.o 1 0 
e_iTasks.WF.Definition_niTask;.JSONDecode_s
	push_node _cycle_in_spine 1
	jsr_eval 0
	repl_r_args_a 6 0 4 1
	fill_r e_StdGeneric_rGenericDict 1 0 1 0 0
.d 1 0 
	pop_a_rtn 1
.export e_iTasks.WF.Definition_diTask;.gEq_s
.export e_iTasks.WF.Definition_niTask;.gEq_s
.desc e_iTasks.WF.Definition_diTask;.gEq_s e_iTasks.WF.Definition_niTask;.gEq_s _hnf 1 0 "iTask;.gEq_s"
.n 1 e_iTasks.WF.Definition_diTask;.gEq_s
.o 1 0 
e_iTasks.WF.Definition_niTask;.gEq_s
	push_node _cycle_in_spine 1
	jsr_eval 0
	repl_r_args_a 6 0 5 1
	fill_r e_StdGeneric_rGenericDict 1 0 1 0 0
.d 1 0 
	pop_a_rtn 1
.export e_iTasks.WF.Definition_diTask;.TC
.export e_iTasks.WF.Definition_niTask;.TC
.export e_iTasks.WF.Definition_eaiTask;.TC
.descs e_iTasks.WF.Definition_diTask;.TC e_iTasks.WF.Definition_niTask;.TC _ 7 0 "iTask;.TC"
.n -4 e_iTasks.WF.Definition_diTask;.TC e_iTasks.WF.Definition_eaiTask;.TC
.o 1 0 
e_iTasks.WF.Definition_niTask;.TC
	push_node _cycle_in_spine 1
.o 2 0 
e_iTasks.WF.Definition_eaiTask;.TC
	jsr_eval 0
	repl_r_args_a 6 0 6 1
.d 1 0 
	fill_a01_pop_rtn 
.export e_iTasks.WF.Definition_sTD;iTask;
.export e_iTasks.WF.Definition_eaTD;iTask;
.descexp e_iTasks.WF.Definition_dTD;iTask; e_iTasks.WF.Definition_nTD;iTask; e_iTasks.WF.Definition_lTD;iTask; 1 0 "TD;iTask;"
.o 2 0 
e_iTasks.WF.Definition_lTD;iTask;
	update_a 1 0
	create 
.d 2 0 
	put_a_jmp 2 e_iTasks.WF.Definition_eaTD;iTask;
.n 1 e_iTasks.WF.Definition_dTD;iTask; e_iTasks.WF.Definition_eaTD;iTask;
.o 1 0 
e_iTasks.WF.Definition_nTD;iTask;
	push_node _cycle_in_spine 1
.o 2 0 
e_iTasks.WF.Definition_eaTD;iTask;
.o 2 0 
e_iTasks.WF.Definition_sTD;iTask;
.o 2 0 
s30
	fillh _Nil 0 1
.d 1 0 
	pop_a_rtn 1
.export e_iTasks.WF.Definition_sTD;toInstanceNo;
.export e_iTasks.WF.Definition_eaTD;toInstanceNo;
.descexp e_iTasks.WF.Definition_dTD;toInstanceNo; e_iTasks.WF.Definition_nTD;toInstanceNo; e_iTasks.WF.Definition_lTD;toInstanceNo; 1 0 "TD;toInstanceNo;"
.o 2 0 
e_iTasks.WF.Definition_lTD;toInstanceNo;
	update_a 1 0
	create 
.d 2 0 
	put_a_jmp 2 e_iTasks.WF.Definition_eaTD;toInstanceNo;
.n 1 e_iTasks.WF.Definition_dTD;toInstanceNo; e_iTasks.WF.Definition_eaTD;toInstanceNo;
.o 1 0 
e_iTasks.WF.Definition_nTD;toInstanceNo;
	push_node _cycle_in_spine 1
.o 2 0 
e_iTasks.WF.Definition_eaTD;toInstanceNo;
.o 2 0 
e_iTasks.WF.Definition_sTD;toInstanceNo;
.o 2 0 
s29
	fillh _Nil 0 1
.d 1 0 
	pop_a_rtn 1
.export e_iTasks.WF.Definition_sTD;Cookies
.export e_iTasks.WF.Definition_eaTD;Cookies
.descexp e_iTasks.WF.Definition_dTD;Cookies e_iTasks.WF.Definition_nTD;Cookies e_iTasks.WF.Definition_lTD;Cookies 1 0 "TD;Cookies"
.o 2 0 
e_iTasks.WF.Definition_lTD;Cookies
	update_a 1 0
	create 
.d 2 0 
	put_a_jmp 2 e_iTasks.WF.Definition_eaTD;Cookies
.n 1 e_iTasks.WF.Definition_dTD;Cookies e_iTasks.WF.Definition_eaTD;Cookies
.o 1 0 
e_iTasks.WF.Definition_nTD;Cookies
	push_node _cycle_in_spine 1
.o 2 0 
e_iTasks.WF.Definition_eaTD;Cookies
.o 2 0 
e_iTasks.WF.Definition_sTD;Cookies
.o 2 0 
s28
	fillh _Nil 0 1
.d 1 0 
	pop_a_rtn 1
.export e_iTasks.WF.Definition_sTD;TaskListFilter
.export e_iTasks.WF.Definition_eaTD;TaskListFilter
.descexp e_iTasks.WF.Definition_dTD;TaskListFilter e_iTasks.WF.Definition_nTD;TaskListFilter e_iTasks.WF.Definition_lTD;TaskListFilter 1 0 "TD;TaskListFilter"
.o 2 0 
e_iTasks.WF.Definition_lTD;TaskListFilter
	update_a 1 0
	create 
.d 2 0 
	put_a_jmp 2 e_iTasks.WF.Definition_eaTD;TaskListFilter
.n 1 e_iTasks.WF.Definition_dTD;TaskListFilter e_iTasks.WF.Definition_eaTD;TaskListFilter
.o 1 0 
e_iTasks.WF.Definition_nTD;TaskListFilter
	push_node _cycle_in_spine 1
.o 2 0 
e_iTasks.WF.Definition_eaTD;TaskListFilter
.o 2 0 
e_iTasks.WF.Definition_sTD;TaskListFilter
.o 2 0 
s27
	fillh _Nil 0 1
.d 1 0 
	pop_a_rtn 1
.export e_iTasks.WF.Definition_sTD;TaskListItem
.export e_iTasks.WF.Definition_eaTD;TaskListItem
.descexp e_iTasks.WF.Definition_dTD;TaskListItem e_iTasks.WF.Definition_nTD;TaskListItem e_iTasks.WF.Definition_lTD;TaskListItem 1 0 "TD;TaskListItem"
.o 2 0 
e_iTasks.WF.Definition_lTD;TaskListItem
	update_a 1 0
	create 
.d 2 0 
	put_a_jmp 2 e_iTasks.WF.Definition_eaTD;TaskListItem
.n 1 e_iTasks.WF.Definition_dTD;TaskListItem e_iTasks.WF.Definition_eaTD;TaskListItem
.o 1 0 
e_iTasks.WF.Definition_nTD;TaskListItem
	push_node _cycle_in_spine 1
.o 2 0 
e_iTasks.WF.Definition_eaTD;TaskListItem
.o 2 0 
e_iTasks.WF.Definition_sTD;TaskListItem
.o 2 0 
s26
	fillh _Nil 0 1
.d 1 0 
	pop_a_rtn 1
.export e_iTasks.WF.Definition_sTD;TaskList
.export e_iTasks.WF.Definition_eaTD;TaskList
.descexp e_iTasks.WF.Definition_dTD;TaskList e_iTasks.WF.Definition_nTD;TaskList e_iTasks.WF.Definition_lTD;TaskList 1 0 "TD;TaskList"
.o 2 0 
e_iTasks.WF.Definition_lTD;TaskList
	update_a 1 0
	create 
.d 2 0 
	put_a_jmp 2 e_iTasks.WF.Definition_eaTD;TaskList
.n 1 e_iTasks.WF.Definition_dTD;TaskList e_iTasks.WF.Definition_eaTD;TaskList
.o 1 0 
e_iTasks.WF.Definition_nTD;TaskList
	push_node _cycle_in_spine 1
.o 2 0 
e_iTasks.WF.Definition_eaTD;TaskList
.o 2 0 
e_iTasks.WF.Definition_sTD;TaskList
.o 2 0 
s25
	fillh _Nil 0 1
.d 1 0 
	pop_a_rtn 1
.export e_iTasks.WF.Definition_sTD;InstanceKey
.export e_iTasks.WF.Definition_eaTD;InstanceKey
.descexp e_iTasks.WF.Definition_dTD;InstanceKey e_iTasks.WF.Definition_nTD;InstanceKey e_iTasks.WF.Definition_lTD;InstanceKey 1 0 "TD;InstanceKey"
.o 2 0 
e_iTasks.WF.Definition_lTD;InstanceKey
	update_a 1 0
	create 
.d 2 0 
	put_a_jmp 2 e_iTasks.WF.Definition_eaTD;InstanceKey
.n 1 e_iTasks.WF.Definition_dTD;InstanceKey e_iTasks.WF.Definition_eaTD;InstanceKey
.o 1 0 
e_iTasks.WF.Definition_nTD;InstanceKey
	push_node _cycle_in_spine 1
.o 2 0 
e_iTasks.WF.Definition_eaTD;InstanceKey
.o 2 0 
e_iTasks.WF.Definition_sTD;InstanceKey
.o 2 0 
s24
	fillh _Nil 0 1
.d 1 0 
	pop_a_rtn 1
.export e_iTasks.WF.Definition_sTD;TaskAttributes
.export e_iTasks.WF.Definition_eaTD;TaskAttributes
.descexp e_iTasks.WF.Definition_dTD;TaskAttributes e_iTasks.WF.Definition_nTD;TaskAttributes e_iTasks.WF.Definition_lTD;TaskAttributes 1 0 "TD;TaskAttributes"
.o 2 0 
e_iTasks.WF.Definition_lTD;TaskAttributes
	update_a 1 0
	create 
.d 2 0 
	put_a_jmp 2 e_iTasks.WF.Definition_eaTD;TaskAttributes
.n 1 e_iTasks.WF.Definition_dTD;TaskAttributes e_iTasks.WF.Definition_eaTD;TaskAttributes
.o 1 0 
e_iTasks.WF.Definition_nTD;TaskAttributes
	push_node _cycle_in_spine 1
.o 2 0 
e_iTasks.WF.Definition_eaTD;TaskAttributes
.o 2 0 
e_iTasks.WF.Definition_sTD;TaskAttributes
.o 2 0 
s23
	fillh _Nil 0 1
.d 1 0 
	pop_a_rtn 1
.export e_iTasks.WF.Definition_sTD;TaskNo
.export e_iTasks.WF.Definition_eaTD;TaskNo
.descexp e_iTasks.WF.Definition_dTD;TaskNo e_iTasks.WF.Definition_nTD;TaskNo e_iTasks.WF.Definition_lTD;TaskNo 1 0 "TD;TaskNo"
.o 2 0 
e_iTasks.WF.Definition_lTD;TaskNo
	update_a 1 0
	create 
.d 2 0 
	put_a_jmp 2 e_iTasks.WF.Definition_eaTD;TaskNo
.n 1 e_iTasks.WF.Definition_dTD;TaskNo e_iTasks.WF.Definition_eaTD;TaskNo
.o 1 0 
e_iTasks.WF.Definition_nTD;TaskNo
	push_node _cycle_in_spine 1
.o 2 0 
e_iTasks.WF.Definition_eaTD;TaskNo
.o 2 0 
e_iTasks.WF.Definition_sTD;TaskNo
.o 2 0 
s22
	fillh _Nil 0 1
.d 1 0 
	pop_a_rtn 1
.export e_iTasks.WF.Definition_sTD;InstanceNo
.export e_iTasks.WF.Definition_eaTD;InstanceNo
.descexp e_iTasks.WF.Definition_dTD;InstanceNo e_iTasks.WF.Definition_nTD;InstanceNo e_iTasks.WF.Definition_lTD;InstanceNo 1 0 "TD;InstanceNo"
.o 2 0 
e_iTasks.WF.Definition_lTD;InstanceNo
	update_a 1 0
	create 
.d 2 0 
	put_a_jmp 2 e_iTasks.WF.Definition_eaTD;InstanceNo
.n 1 e_iTasks.WF.Definition_dTD;InstanceNo e_iTasks.WF.Definition_eaTD;InstanceNo
.o 1 0 
e_iTasks.WF.Definition_nTD;InstanceNo
	push_node _cycle_in_spine 1
.o 2 0 
e_iTasks.WF.Definition_eaTD;InstanceNo
.o 2 0 
e_iTasks.WF.Definition_sTD;InstanceNo
.o 2 0 
s21
	fillh _Nil 0 1
.d 1 0 
	pop_a_rtn 1
.export e_iTasks.WF.Definition_sTD;TaskId
.export e_iTasks.WF.Definition_eaTD;TaskId
.descexp e_iTasks.WF.Definition_dTD;TaskId e_iTasks.WF.Definition_nTD;TaskId e_iTasks.WF.Definition_lTD;TaskId 1 0 "TD;TaskId"
.o 2 0 
e_iTasks.WF.Definition_lTD;TaskId
	update_a 1 0
	create 
.d 2 0 
	put_a_jmp 2 e_iTasks.WF.Definition_eaTD;TaskId
.n 1 e_iTasks.WF.Definition_dTD;TaskId e_iTasks.WF.Definition_eaTD;TaskId
.o 1 0 
e_iTasks.WF.Definition_nTD;TaskId
	push_node _cycle_in_spine 1
.o 2 0 
e_iTasks.WF.Definition_eaTD;TaskId
.o 2 0 
e_iTasks.WF.Definition_sTD;TaskId
.o 2 0 
s20
	fillh _Nil 0 1
.d 1 0 
	pop_a_rtn 1
.export e_iTasks.WF.Definition_sTD;ExceptionList
.export e_iTasks.WF.Definition_eaTD;ExceptionList
.descexp e_iTasks.WF.Definition_dTD;ExceptionList e_iTasks.WF.Definition_nTD;ExceptionList e_iTasks.WF.Definition_lTD;ExceptionList 1 0 "TD;ExceptionList"
.o 2 0 
e_iTasks.WF.Definition_lTD;ExceptionList
	update_a 1 0
	create 
.d 2 0 
	put_a_jmp 2 e_iTasks.WF.Definition_eaTD;ExceptionList
.n 1 e_iTasks.WF.Definition_dTD;ExceptionList e_iTasks.WF.Definition_eaTD;ExceptionList
.o 1 0 
e_iTasks.WF.Definition_nTD;ExceptionList
	push_node _cycle_in_spine 1
.o 2 0 
e_iTasks.WF.Definition_eaTD;ExceptionList
.o 2 0 
e_iTasks.WF.Definition_sTD;ExceptionList
.o 2 0 
s19
	fillh _Nil 0 1
.d 1 0 
	pop_a_rtn 1
.export e_iTasks.WF.Definition_sTD;TaskException
.export e_iTasks.WF.Definition_eaTD;TaskException
.descexp e_iTasks.WF.Definition_dTD;TaskException e_iTasks.WF.Definition_nTD;TaskException e_iTasks.WF.Definition_lTD;TaskException 1 0 "TD;TaskException"
.o 2 0 
e_iTasks.WF.Definition_lTD;TaskException
	update_a 1 0
	create 
.d 2 0 
	put_a_jmp 2 e_iTasks.WF.Definition_eaTD;TaskException
.n 1 e_iTasks.WF.Definition_dTD;TaskException e_iTasks.WF.Definition_eaTD;TaskException
.o 1 0 
e_iTasks.WF.Definition_nTD;TaskException
	push_node _cycle_in_spine 1
.o 2 0 
e_iTasks.WF.Definition_eaTD;TaskException
.o 2 0 
e_iTasks.WF.Definition_sTD;TaskException
.o 2 0 
s18
	fillh _Nil 0 1
.d 1 0 
	pop_a_rtn 1
.export e_iTasks.WF.Definition_sTD;Stability
.export e_iTasks.WF.Definition_eaTD;Stability
.descexp e_iTasks.WF.Definition_dTD;Stability e_iTasks.WF.Definition_nTD;Stability e_iTasks.WF.Definition_lTD;Stability 1 0 "TD;Stability"
.o 2 0 
e_iTasks.WF.Definition_lTD;Stability
	update_a 1 0
	create 
.d 2 0 
	put_a_jmp 2 e_iTasks.WF.Definition_eaTD;Stability
.n 1 e_iTasks.WF.Definition_dTD;Stability e_iTasks.WF.Definition_eaTD;Stability
.o 1 0 
e_iTasks.WF.Definition_nTD;Stability
	push_node _cycle_in_spine 1
.o 2 0 
e_iTasks.WF.Definition_eaTD;Stability
.o 2 0 
e_iTasks.WF.Definition_sTD;Stability
.o 2 0 
s17
	fillh _Nil 0 1
.d 1 0 
	pop_a_rtn 1
.export e_iTasks.WF.Definition_sTD;TaskValue
.export e_iTasks.WF.Definition_eaTD;TaskValue
.descexp e_iTasks.WF.Definition_dTD;TaskValue e_iTasks.WF.Definition_nTD;TaskValue e_iTasks.WF.Definition_lTD;TaskValue 1 0 "TD;TaskValue"
.o 2 0 
e_iTasks.WF.Definition_lTD;TaskValue
	update_a 1 0
	create 
.d 2 0 
	put_a_jmp 2 e_iTasks.WF.Definition_eaTD;TaskValue
.n 1 e_iTasks.WF.Definition_dTD;TaskValue e_iTasks.WF.Definition_eaTD;TaskValue
.o 1 0 
e_iTasks.WF.Definition_nTD;TaskValue
	push_node _cycle_in_spine 1
.o 2 0 
e_iTasks.WF.Definition_eaTD;TaskValue
.o 2 0 
e_iTasks.WF.Definition_sTD;TaskValue
.o 2 0 
s16
	fillh _Nil 0 1
.d 1 0 
	pop_a_rtn 1
.export e_iTasks.WF.Definition_sTD;TaskResult
.export e_iTasks.WF.Definition_eaTD;TaskResult
.descexp e_iTasks.WF.Definition_dTD;TaskResult e_iTasks.WF.Definition_nTD;TaskResult e_iTasks.WF.Definition_lTD;TaskResult 1 0 "TD;TaskResult"
.o 2 0 
e_iTasks.WF.Definition_lTD;TaskResult
	update_a 1 0
	create 
.d 2 0 
	put_a_jmp 2 e_iTasks.WF.Definition_eaTD;TaskResult
.n 1 e_iTasks.WF.Definition_dTD;TaskResult e_iTasks.WF.Definition_eaTD;TaskResult
.o 1 0 
e_iTasks.WF.Definition_nTD;TaskResult
	push_node _cycle_in_spine 1
.o 2 0 
e_iTasks.WF.Definition_eaTD;TaskResult
.o 2 0 
e_iTasks.WF.Definition_sTD;TaskResult
.o 2 0 
s15
	fillh _Nil 0 1
.d 1 0 
	pop_a_rtn 1
.export e_iTasks.WF.Definition_sTD;Event
.export e_iTasks.WF.Definition_eaTD;Event
.descexp e_iTasks.WF.Definition_dTD;Event e_iTasks.WF.Definition_nTD;Event e_iTasks.WF.Definition_lTD;Event 1 0 "TD;Event"
.o 2 0 
e_iTasks.WF.Definition_lTD;Event
	update_a 1 0
	create 
.d 2 0 
	put_a_jmp 2 e_iTasks.WF.Definition_eaTD;Event
.n 1 e_iTasks.WF.Definition_dTD;Event e_iTasks.WF.Definition_eaTD;Event
.o 1 0 
e_iTasks.WF.Definition_nTD;Event
	push_node _cycle_in_spine 1
.o 2 0 
e_iTasks.WF.Definition_eaTD;Event
.o 2 0 
e_iTasks.WF.Definition_sTD;Event
.o 2 0 
s14
	fillh _Nil 0 1
.d 1 0 
	pop_a_rtn 1
.export e_iTasks.WF.Definition_sTD;Task
.export e_iTasks.WF.Definition_eaTD;Task
.descexp e_iTasks.WF.Definition_dTD;Task e_iTasks.WF.Definition_nTD;Task e_iTasks.WF.Definition_lTD;Task 1 0 "TD;Task"
.o 2 0 
e_iTasks.WF.Definition_lTD;Task
	update_a 1 0
	create 
.d 2 0 
	put_a_jmp 2 e_iTasks.WF.Definition_eaTD;Task
.n 1 e_iTasks.WF.Definition_dTD;Task e_iTasks.WF.Definition_eaTD;Task
.o 1 0 
e_iTasks.WF.Definition_nTD;Task
	push_node _cycle_in_spine 1
.o 2 0 
e_iTasks.WF.Definition_eaTD;Task
.o 2 0 
e_iTasks.WF.Definition_sTD;Task
.o 2 0 
s13
	fillh _Nil 0 1
.d 1 0 
	pop_a_rtn 1
.export e_iTasks.WF.Definition_stoInstanceNo;11
.descexp e_iTasks.WF.Definition_dtoInstanceNo;11 e_iTasks.WF.Definition_ntoInstanceNo;11 e_iTasks.WF.Definition_ltoInstanceNo;11 1 0 "toInstanceNo;11"
.o 2 0 
e_iTasks.WF.Definition_itoInstanceNo;11
	pop_a 1
	jsr_eval 0
.d 1 0 
	jmp s12
.ai 1 _ e_iTasks.WF.Definition_itoInstanceNo;11
.o 2 0 
e_iTasks.WF.Definition_ltoInstanceNo;11
.d 1 0 
	pop_a_jsr 1 ea12
.o 0 1 i
	buildI_b 0
.d 1 0 
	pop_b_rtn 1
.n 1 e_iTasks.WF.Definition_dtoInstanceNo;11
.o 1 0 
e_iTasks.WF.Definition_ntoInstanceNo;11
	push_node _cycle_in_spine 1
.d 1 0 
	jsr ea12
.o 0 1 i
	fillI_b 0 0
.d 1 0 
	pop_b_rtn 1
.o 1 0 
e_iTasks.WF.Definition_stoInstanceNo;11
.o 1 0 
ea12
	jsr_eval 0
.o 1 0 
s12
	repl_r_args 0 2
	put_b 1
.d 0 1 i
	rtn 
.export e_iTasks.WF.Definition_stoInstanceNo;10
.descexp e_iTasks.WF.Definition_dtoInstanceNo;10 e_iTasks.WF.Definition_ntoInstanceNo;10 e_iTasks.WF.Definition_ltoInstanceNo;10 1 0 "toInstanceNo;10"
.o 2 0 
e_iTasks.WF.Definition_itoInstanceNo;10
	pop_a 1
	jsr_eval 0
	pushI0_pop_a1 
.d 0 1 i
	jmp s11
.ai 1 _ e_iTasks.WF.Definition_itoInstanceNo;10
.o 2 0 
e_iTasks.WF.Definition_ltoInstanceNo;10
.d 1 0 
	pop_a_jsr 1 ea11
.o 0 1 i
	buildI_b 0
.d 1 0 
	pop_b_rtn 1
.n 1 e_iTasks.WF.Definition_dtoInstanceNo;10
.o 1 0 
e_iTasks.WF.Definition_ntoInstanceNo;10
	push_node _cycle_in_spine 1
.d 1 0 
	jsr ea11
.o 0 1 i
	fillI_b 0 0
.d 1 0 
	pop_b_rtn 1
.o 1 0 
e_iTasks.WF.Definition_stoInstanceNo;10
.o 1 0 
ea11
	jsr_eval 0
	pushI0_pop_a1 
.o 0 1 i
s11
.d 0 1 i
	rtn 
.export e_iTasks.WF.Definition_s<;9
.descexp e_iTasks.WF.Definition_d<;9 e_iTasks.WF.Definition_n<;9 e_iTasks.WF.Definition_l<;9 2 0 "<;9"
.o 3 0 
e_iTasks.WF.Definition_i<;9
.d 2 0 
	pop_a_jmp 1 s10
.ai 0 a10 e_iTasks.WF.Definition_i<;9
.o 2 0 
e_iTasks.WF.Definition_l<;9
	repl_args 1 1
.o 2 0 
a10
.d 2 0 
	jsr ea10
.o 0 1 b
	buildB_b 0
.d 1 0 
	pop_b_rtn 1
.n 2 e_iTasks.WF.Definition_d<;9
.o 1 0 
e_iTasks.WF.Definition_n<;9
	push_node _cycle_in_spine 2
.d 2 0 
	jsr ea10
.o 0 1 b
	fillB_b 0 0
.d 1 0 
	pop_b_rtn 1
.o 2 0 
ea10
	jsr_eval 1
	jsr_eval 0
.o 2 0 
e_iTasks.WF.Definition_s<;9
.o 2 0 
s10
	repl_r_args 0 2
	repl_r_args 0 2
	push_b2 0 2
	jmp_neI else.1
	updates2_b 1 3 2
	pop_b 2
	ltI
.d 0 1 b
	rtn 
else.1
	update_b 0 3
	pop_b 2
	ltI
.d 0 1 b
	rtn 
.export e_iTasks.WF.Definition_s==;8
.descexp e_iTasks.WF.Definition_d==;8 e_iTasks.WF.Definition_n==;8 e_iTasks.WF.Definition_l==;8 2 0 "==;8"
.o 3 0 
e_iTasks.WF.Definition_i==;8
.d 2 0 
	pop_a_jmp 1 s9
.ai 0 a9 e_iTasks.WF.Definition_i==;8
.o 2 0 
e_iTasks.WF.Definition_l==;8
	repl_args 1 1
.o 2 0 
a9
.d 2 0 
	jsr ea9
.o 0 1 b
	buildB_b 0
.d 1 0 
	pop_b_rtn 1
.n 2 e_iTasks.WF.Definition_d==;8
.o 1 0 
e_iTasks.WF.Definition_n==;8
	push_node _cycle_in_spine 2
.d 2 0 
	jsr ea9
.o 0 1 b
	fillB_b 0 0
.d 1 0 
	pop_b_rtn 1
.o 2 0 
ea9
	jsr_eval 1
	jsr_eval 0
.o 2 0 
e_iTasks.WF.Definition_s==;8
.o 2 0 
s9
	repl_r_args 0 2
	repl_r_args 0 2
	push_b2 0 2
	jmp_neI else.2
	updates2_b 1 3 2
	pop_b 2
	eqI
.d 0 1 b
	rtn 
else.2
	pop_b_pushB 4 FALSE
.d 0 1 b
	rtn 
.export e_iTasks.WF.Definition_sfromString;7
.export e_iTasks.WF.Definition_eafromString;7
.descexp e_iTasks.WF.Definition_dfromString;7 e_iTasks.WF.Definition_nfromString;7 e_iTasks.WF.Definition_lfromString;7 1 0 "fromString;7"
.o 2 0 
e_iTasks.WF.Definition_ifromString;7
	pop_a 1
	create 
	swap_a1 
.d 2 0 
	jmp s8
.ai 1 _ e_iTasks.WF.Definition_ifromString;7
.o 2 0 
e_iTasks.WF.Definition_lfromString;7
	update_a 1 0
	create 
.d 2 0 
	put_a_jmp 2 e_iTasks.WF.Definition_eafromString;7
.n 1 e_iTasks.WF.Definition_dfromString;7 e_iTasks.WF.Definition_eafromString;7
.o 1 0 
e_iTasks.WF.Definition_nfromString;7
	push_node _cycle_in_spine 1
.o 2 0 
e_iTasks.WF.Definition_eafromString;7
	jsr_eval 0
	push_array 0
	put_a 1
.o 2 0 
e_iTasks.WF.Definition_sfromString;7
.o 2 0 
s8
	create 
	push_a 1
	buildAC "-"
	update3pop_a 0 1
.d 3 0 
	jsr e_Text_ssplit;16
.o 1 0 
s139
	jmp_ne_desc _Cons 2 0 case.4
	repl_args 2 2
	jsr_eval 1
	jmp_eq_desc _Cons 2 1 case.5
	pop_a_jmp 1 case.4
case.5
	push_args 1 2 2
	buildh0_put_a _Nil 4
	jsr_eval 1
	jmp_eq_desc _Nil 0 1 case.6
	pop_a_jmp 3 case.4
case.6
	jsr_eval 0
	push_a 0
	push_array 0
	updates2pop_a 0 4 5
.d 1 0 
	jsr e_StdInt_stoInt;23
.o 0 1 i
	jsr_eval 0
	push_a 0
	push_array 0
	updatepop_a 0 2
.d 1 0 
	jsr e_StdInt_stoInt;23
.o 0 1 i
	fill_r e_iTasks.WF.Definition_kTaskId 0 2 0 0 0
.d 1 0 
	pop_b_rtn 2
case.4
	pushI 0
	pushI 0
	fill_r e_iTasks.WF.Definition_kTaskId 0 2 1 0 0
.d 1 0 
	pop_ab_rtn 1 2
.export e_iTasks.WF.Definition_stoString;6
.descexp e_iTasks.WF.Definition_dtoString;6 e_iTasks.WF.Definition_ntoString;6 e_iTasks.WF.Definition_ltoString;6 1 0 "toString;6"
.o 2 0 
e_iTasks.WF.Definition_itoString;6
.d 1 0 
	pop_a_jmp 1 s7
.ai 1 _ e_iTasks.WF.Definition_itoString;6
.o 2 0 
e_iTasks.WF.Definition_ltoString;6
.d 1 0 
	pop_a_jsr 1 ea7
.o 1 0 
	buildh ARRAY 1
.d 1 0 
	rtn 
.n 1 e_iTasks.WF.Definition_dtoString;6
.o 1 0 
e_iTasks.WF.Definition_ntoString;6
	push_node _cycle_in_spine 1
.d 1 0 
	jsr ea7
.o 1 0 
	fillh ARRAY 1 1
.d 1 0 
	rtn 
.o 1 0 
ea7
	jsr_eval 0
.o 1 0 
e_iTasks.WF.Definition_stoString;6
.o 1 0 
s7
	repl_r_args 0 2
	buildh _Nil 0
	buildI_b 1
	build e_StdString_dtoString;5 1 e_StdString_ntoString;5
	buildh _Cons 2
	buildI_b 0
	build e_StdString_dtoString;5 1 e_StdString_ntoString;5
	buildh _Cons 2
	buildAC "-"
.d 2 0 
	pop_b_jmp 2 e_Text_sjoin;9
.export e_iTasks.WF.Definition_stoString;5
.descexp e_iTasks.WF.Definition_dtoString;5 e_iTasks.WF.Definition_ntoString;5 e_iTasks.WF.Definition_ltoString;5 1 0 "toString;5"
.o 2 0 
e_iTasks.WF.Definition_itoString;5
.d 1 0 
	pop_a_jmp 1 s6
.ai 1 _ e_iTasks.WF.Definition_itoString;5
.o 2 0 
e_iTasks.WF.Definition_ltoString;5
.d 1 0 
	pop_a_jsr 1 ea6
.o 1 0 
	buildh ARRAY 1
.d 1 0 
	rtn 
.n 1 e_iTasks.WF.Definition_dtoString;5
.o 1 0 
e_iTasks.WF.Definition_ntoString;5
	push_node _cycle_in_spine 1
.d 1 0 
	jsr ea6
.o 1 0 
	fillh ARRAY 1 1
.d 1 0 
	rtn 
.o 1 0 
ea6
	jsr_eval 0
.o 1 0 
e_iTasks.WF.Definition_stoString;5
.o 1 0 
s6
	buildh e_iTasks.WF.Definition_dsnd;36.37 0
	create 
	push_a 1
	updates3pop_a 0 1 3 2
.d 3 0 
	jsr e_StdList_smap
.o 1 0 
	buildAC "\n"
.d 2 0 
	jmp e_Text_sjoin;9
.export e_iTasks.WF.Definition_dsnd;36.37
.desc e_iTasks.WF.Definition_dsnd;36.37 _hnf l37 1 0 "snd;36.37"
.o 2 0 
l37
	pop_a 1
.o 1 0 
ea37
	jsr_eval 0
	repl_args 2 2
	jsr_eval 1
.o 2 0 
s37
.d 1 0 
	pop_a_rtn 1
.export e_iTasks.WF.Definition_sfmap;4
.export e_iTasks.WF.Definition_eafmap;4
.descexp e_iTasks.WF.Definition_dfmap;4 e_iTasks.WF.Definition_nfmap;4 e_iTasks.WF.Definition_lfmap;4 2 0 "fmap;4"
.o 3 0 
e_iTasks.WF.Definition_ifmap;4
	pop_a 1
	create 
	jsr_eval 2
	push_a 1
	updates3pop_a 0 1 3 2
.d 3 0 
	jmp s5
.ai 2 e_iTasks.WF.Definition_eafmap;4 e_iTasks.WF.Definition_ifmap;4
.o 2 0 
e_iTasks.WF.Definition_lfmap;4
	push_args 0 1 1
	update_a 2 1
	create 
.d 3 0 
	put_a_jmp 3 e_iTasks.WF.Definition_eafmap;4
.n 2 e_iTasks.WF.Definition_dfmap;4 e_iTasks.WF.Definition_eafmap;4
.o 1 0 
e_iTasks.WF.Definition_nfmap;4
	push_node _cycle_in_spine 2
.o 3 0 
e_iTasks.WF.Definition_sfmap;4
.o 3 0 
e_iTasks.WF.Definition_eafmap;4
	jsr_eval 1
.o 3 0 
s5
	jmp_ne_desc e_iTasks.WF.Definition_dNoValue 0 1 case.8
	fillh e_iTasks.WF.Definition_dNoValue 0 2
.d 1 0 
	pop_a_rtn 2
case.8
	push_r_args 1 1 1
	buildh _Nil 0
	updates2_a 2 0 3
	jsr_eval 0
	update2pop_a 0 2
	jsr_ap 1
	push_b 0
	fill_r e_iTasks.WF.Definition_kValue 1 1 1 0 0
.d 1 0 
	pop_ab_rtn 1 2
.export e_iTasks.WF.Definition_sfullTaskListFilter
.descexp e_iTasks.WF.Definition_dfullTaskListFilter e_iTasks.WF.Definition_nfullTaskListFilter e_iTasks.WF.Definition_lfullTaskListFilter 0 0 "fullTaskListFilter"
.o 1 0 
e_iTasks.WF.Definition_lfullTaskListFilter
	halt
.n 0 e_iTasks.WF.Definition_dfullTaskListFilter
.o 1 0 
e_iTasks.WF.Definition_nfullTaskListFilter
	push_node _cycle_in_spine 0
.d 0 0 
	jsr ea4
.o 4 5 bbbbb
	fill_r e_iTasks.WF.Definition_rTaskListFilter 4 5 4 0 0
.d 1 0 
	pop_ab_rtn 4 5
.o 0 0 
ea4
.o 0 0 
e_iTasks.WF.Definition_sfullTaskListFilter
.o 0 0 
s4
	buildh _Nothing 0
	buildh _Nothing 0
	buildh _Nothing 0
	buildh _Nothing 0
	pushB FALSE
	pushB FALSE
	pushB FALSE
	pushB FALSE
	pushB FALSE
.d 4 5 bbbbb
	rtn 
.export e_iTasks.WF.Definition_sexception
.descexp e_iTasks.WF.Definition_dexception e_iTasks.WF.Definition_nexception e_iTasks.WF.Definition_lexception 3 0 "exception"
.a 0 a3
.o 2 0 
e_iTasks.WF.Definition_lexception
	repl_args 2 2
.o 3 0 
a3
.d 3 0 
	jsr ea3
.o 3 0 
	push_a 2
	buildh ARRAY 1
	build_r e__SystemDynamic_rDynamicTemp 2 0 1 0
	buildh _Tuple 2
	updatepop_a 0 3
.d 1 0 
	rtn 
.n 3 e_iTasks.WF.Definition_dexception
.o 1 0 
e_iTasks.WF.Definition_nexception
	push_node _cycle_in_spine 3
.d 3 0 
	jsr ea3
.o 3 0 
	push_a 2
	buildh ARRAY 1
	build_r e__SystemDynamic_rDynamicTemp 2 0 1 0
	fillh _Tuple 2 5
.d 1 0 
	pop_a_rtn 3
.o 3 0 
ea3
	jsr_eval 2
	jsr_eval 1
	jsr_eval 0
	push_r_args 1 1 0
	put_a 2
.o 3 0 
e_iTasks.WF.Definition_sexception
.o 3 0 
s3
	push_update_a 1 0
	update_a 3 1
.d 2 0 
	jsr_i 1
.o 1 0 
	pushI 0
	buildhr e__SystemDynamic_kTypeVar 0 1
	buildI 0
	buildI 1
	build e__SystemDynamic_d_initial_unification_environment 2 e__SystemDynamic_n_initial_unification_environment
	pushI 0
	buildhr e__SystemDynamic_kTypeVar 0 1
	push_update_a 0 4
	build e__SystemDynamic_d_bind_global_type_pattern_var 3 e__SystemDynamic_n_bind_global_type_pattern_var
	build e__SystemDynamic_d_normalise 2 e__SystemDynamic_n_normalise
	dup_a 2
	exchange_a 3 1
.d 3 0 
	pop_a_rtn 1
.export e_iTasks.WF.Definition_sapTask
.descexp e_iTasks.WF.Definition_dapTask e_iTasks.WF.Definition_napTask e_iTasks.WF.Definition_lapTask 4 0 "apTask"
.a 0 a2
.o 2 0 
e_iTasks.WF.Definition_lapTask
	repl_args 3 3
.o 4 0 
a2
.d 4 0 
	jsr ea2
.o 2 0 
	buildh _Tuple 2
.d 1 0 
	rtn 
.n 4 e_iTasks.WF.Definition_dapTask
.o 1 0 
e_iTasks.WF.Definition_napTask
	push_node _cycle_in_spine 4
.d 4 0 
	jsr ea2
.o 2 0 
	fillh _Tuple 2 2
.d 1 0 
	rtn 
.o 4 0 
e_iTasks.WF.Definition_sapTask
	jsr_eval 2
	push_r_args 2 1 2
.d 4 2 bi
	put_a_jmp 3 s2
.o 4 0 
ea2
	jsr_eval 3
	jsr_eval 2
	jsr_eval 1
	jsr_eval 0
	push_r_args 2 1 2
	put_a 3
.o 4 2 bi
s2
	jmp_eq_desc e_iTasks.WF.Definition_dDestroyEvent 0 1 then.9
	jmp_ne_desc e_iTasks.WF.Definition_dServerInterruptedEvent 0 1 else.9
then.9
.impmod iTasks.Internal.TaskEval
.impdesc e_iTasks.Internal.TaskEval_rTaskEvalOpts
	build_r e_iTasks.Internal.TaskEval_rTaskEvalOpts 1 2 2 0
	push_a 0
	push2_a 3
	update_a 7 3
	build e_iTasks.WF.Definition_d_f0.479 4 e_iTasks.WF.Definition_n_f0.479
	buildo1 n_S.2 0
	push_a 4
	build e_iTasks.Internal.TaskIO_dclearEventsFor 2 e_iTasks.Internal.TaskIO_nclearEventsFor
	buildo1 e_Data.Set_nsingleton 4
	build e_iTasks.Internal.SDS_dclearTaskSDSRegistrations 2 e_iTasks.Internal.SDS_nclearTaskSDSRegistrations
	buildo1 n_S.1 1
	update2pop_a 0 5
.d 2 0 
	pop_b_rtn 2
else.9
	build_r e_iTasks.Internal.TaskEval_rTaskEvalOpts 1 2 2 0
	push_a 0
	push2_a 3
	update_a 7 3
	build e_iTasks.WF.Definition_d_f1.480 4 e_iTasks.WF.Definition_n_f1.480
	buildo1 n_S.2 0
	buildo1 n_S.1 1
	update2pop_a 0 5
.d 2 0 
	pop_b_rtn 2
.export e_iTasks.WF.Definition_d_f1.480
.export e_iTasks.WF.Definition_n_f1.480
.descn e_iTasks.WF.Definition_d_f1.480 e_iTasks.WF.Definition_n_f1.480 4 0 "_f1.480"
.n 4 e_iTasks.WF.Definition_d_f1.480 ea480
.o 1 0 
e_iTasks.WF.Definition_n_f1.480
	push_node _cycle_in_spine 4
.o 5 0 
ea480
.o 5 0 
s480
	jsr_ap 3
.d 1 0 
	fill_a01_pop_rtn 
.export e_iTasks.WF.Definition_d_f0.479
.export e_iTasks.WF.Definition_n_f0.479
.descn e_iTasks.WF.Definition_d_f0.479 e_iTasks.WF.Definition_n_f0.479 4 0 "_f0.479"
.n 4 e_iTasks.WF.Definition_d_f0.479 ea479
.o 1 0 
e_iTasks.WF.Definition_n_f0.479
	push_node _cycle_in_spine 4
.o 5 0 
ea479
.o 5 0 
s479
	jsr_ap 3
.d 1 0 
	fill_a01_pop_rtn 
.export e_iTasks.WF.Definition_sTask
.export e_iTasks.WF.Definition_eaTask
.descexp e_iTasks.WF.Definition_dTask e_iTasks.WF.Definition_nTask e_iTasks.WF.Definition_lTask 1 0 "Task"
.o 2 0 
e_iTasks.WF.Definition_lTask
	update_a 1 0
	create 
.d 2 0 
	put_a_jmp 2 e_iTasks.WF.Definition_eaTask
.n 1 e_iTasks.WF.Definition_dTask e_iTasks.WF.Definition_eaTask
.o 1 0 
e_iTasks.WF.Definition_nTask
	push_node _cycle_in_spine 1
.o 2 0 
e_iTasks.WF.Definition_eaTask
	jsr_eval 0
.o 2 0 
e_iTasks.WF.Definition_sTask
.o 2 0 
s1
.d 1 0 
	fill_a01_pop_rtn 
