.comp 920 000011110011000
.start _nostart_
.depend "graph_copy_with_names" "20210613122637"
.depend "Text.Encodings.Base64" "20210613122637"
.depend "_SystemArray" "20210613122638"
.depend "iTasks.Internal.SDSService" "20210613122637"
.depend "iTasks.Internal.Serialization" "20210613122637"
.depend "_SystemEnum" "20210613122638"
.depend "StdEnum" "20210613122638"
.depend "StdTuple" "20210613122638"
.depend "StdOrdList" "20210613122638"
.depend "Control.Monad.Trans" "20210613122637"
.depend "StdMaybe" "20210613122638"
.depend "Data.Maybe" "20210613122637"
.depend "iTasks.Extensions.Admin.WorkflowAdmin" "20210613122637"
.depend "iTasks.Extensions.User" "20210613122637"
.depend "iTasks.Extensions.Admin.UserAdmin" "20210613122637"
.depend "iTasks.UI.Layout.Common" "20210613122637"
.depend "iTasks.UI.Editor.Modifiers" "20210613122637"
.depend "iTasks.UI.Editor.Containers" "20210613122637"
.depend "iTasks.UI.Tune" "20210613122637"
.depend "iTasks.Internal.Distributed.Domain" "20210613122637"
.depend "iTasks.WF.Combinators.Common" "20210613122637"
.depend "iTasks.WF.Combinators.SDS" "20210613122637"
.depend "iTasks.UI.Editor.Controls" "20210613122637"
.depend "iTasks.WF.Tasks.Interaction" "20210613122637"
.depend "iTasks.WF.Tasks.System" "20210613122637"
.depend "iTasks.WF.Tasks.SDS" "20210613122637"
.depend "iTasks.WF.Tasks.Core" "20210613122637"
.depend "System.Time.GenJSON" "20210613122637"
.depend "Text.HTML.GenJSON" "20210613122637"
.depend "Data.Map.GenJSON" "20210613122637"
.depend "Data.Error.GenJSON" "20210613122637"
.depend "Data.Either.GenJSON" "20210613122637"
.depend "iTasks.WF.Derives" "20210613122637"
.depend "iTasks.SDS.Combinators.Common" "20210613122637"
.depend "iTasks.SDS.Combinators.Core" "20210613122637"
.depend "iTasks.SDS.Sources.System" "20210613122637"
.depend "iTasks.SDS.Sources.Store" "20210613122637"
.depend "iTasks.SDS.Sources.Core" "20210613122637"
.depend "iTasks.Internal.TaskIO" "20210613122637"
.depend "System._Signal" "20210613122637"
.depend "System.Signal" "20210613122637"
.depend "_SystemStrictMaybes" "20210613122638"
.depend "Text.GenPrint" "20210613122637"
.depend "iTasks.Extensions.DateTime" "20210613122637"
.depend "iTasks.Internal.TaskServer" "20210613122637"
.depend "AsyncIO" "20210613122637"
.depend "System._Process" "20210613122637"
.depend "System.Process" "20210613122637"
.depend "System.OS" "20210613122637"
.depend "TCPStringChannelsInternal" "20210613122630"
.depend "TCPStringChannels" "20210613122630"
.depend "TCPEvent" "20210613122630"
.depend "tcp_bytestreams" "20210613122630"
.depend "TCPDef" "20210613122630"
.depend "TCPChannels" "20210613122630"
.depend "TCPIP" "20210613122630"
.depend "iTasks.WF.Tasks.IO" "20210613122637"
.depend "Data.IntMap.Base" "20210613122637"
.depend "Data.IntMap.Strict" "20210613122637"
.depend "Data.CircularStack" "20210613122637"
.depend "iTasks.Extensions.Document" "20210613122637"
.depend "System.File" "20210613122637"
.depend "iTasks.Util.DeferredJSON" "20210613122637"
.depend "iTasks.UI.Layout" "20210613122637"
.depend "iTasks.Internal.TaskState" "20210613122637"
.depend "iTasks.Internal.SDS" "20210613122637"
.depend "Data.GenHash" "20210613122637"
.depend "Data.Maybe.Ord" "20210613122637"
.depend "Control.GenBimap" "20210613122637"
.depend "ABC.Interpreter.JavaScript" "20210613122638"
.depend "ABC.Interpreter" "20210613122638"
.depend "iTasks.UI.Editor" "20210613122637"
.depend "iTasks.UI.Editor.Generic" "20210613122637"
.depend "iTasks.Internal.Generic.Defaults" "20210613122637"
.depend "Data.GenDefault" "20210613122637"
.depend "Data.Integer" "20210613122637"
.depend "Text.HTML" "20210613122638"
.depend "iTasks.Internal.Generic.Visualization" "20210613122637"
.depend "iTasks.SDS.Definition" "20210613122637"
.depend "iTasks.WF.Combinators.Core" "20210613122637"
.depend "iTasks.Internal.TaskEval" "20210613122637"
.depend "iTasks.WF.Definition" "20210613122637"
.depend "iTasks.Internal.Task" "20210613122637"
.depend "iTasks.UI.Definition" "20210613122637"
.depend "Text.GenJSON" "20210613122637"
.depend "Data.Bifunctor" "20210613122637"
.depend "Data.Either" "20210613122637"
.depend "Data.Queue" "20210613122637"
.depend "StdFile" "20210613122638"
.depend "symbols_in_program" "20210613122637"
.depend "iTasks.Internal.IWorld" "20210613122637"
.depend "iTasks.Internal.WebService" "20210613122637"
.depend "tcp" "20210613122630"
.depend "TCPChannelClass" "20210613122630"
.depend "System._Time" "20210613122637"
.depend "System.Time" "20210613122637"
.depend "System.GetOpt" "20210613122637"
.depend "System.OSError" "20210613122637"
.depend "System.FilePath" "20210613122637"
.depend "StdString" "20210613122638"
.depend "Internet.HTTP" "20210613122637"
.depend "Control.Monad.Fail" "20210613122637"
.depend "Data.Traversable" "20210613122637"
.depend "StdMisc" "20210613122638"
.depend "StdOverloadedList" "20210613122638"
.depend "Data.List" "20210613122637"
.depend "Data.Foldable" "20210613122637"
.depend "Data.Set" "20210613122637"
.depend "Data.GenLexOrd" "20210613122637"
.depend "StdFunctions" "20210613122638"
.depend "StdFunc" "20210613122638"
.depend "Data.Map" "20210613122637"
.depend "_SystemEnumStrict" "20210613122638"
.depend "_SystemStrictLists" "20210613122638"
.depend "StdStrictLists" "20210613122638"
.depend "StdGeneric" "20210613122638"
.depend "Data.GenEq" "20210613122637"
.depend "StdReal" "20210613122638"
.depend "StdChar" "20210613122638"
.depend "StdInt" "20210613122638"
.depend "StdBool" "20210613122638"
.depend "StdClass" "20210613122638"
.depend "StdList" "20210613122638"
.depend "Data.Monoid" "20210613122637"
.depend "Control.Applicative" "20210613122637"
.depend "Control.Monad" "20210613122637"
.depend "Data.Functor" "20210613122637"
.depend "Data.Error" "20210613122637"
.depend "iTasks.Engine" "20210613122637"
.depend "iTasks" "20210613122637"
.depend "StdOverloaded" "20210613122638"
.depend "_SystemDynamic" "20210613122638"
.depend "iTasks.Internal.Distributed.Formatter" "20210613122637"
.module m_iTasks.Internal.Distributed.Formatter "iTasks.Internal.Distributed.Formatter" "20210613122637"
.endinfo
.impmod _system
.implab _cycle_in_spine
.implab _type_error
.implab _hnf
.impdesc e_system_dind
.implab e_system_nind e_system_eaind
.impdesc e_system_dif
.implab e_system_nif e_system_eaif
.implab e_system_sif
.impdesc e_system_dAP
.implab e_system_nAP e_system_eaAP
.implab e_system_sAP
.impdesc ARRAY
.impdesc _Nil
.impdesc _Cons
.impdesc _Conss
.implab n_Conss ea_Conss
.impdesc _Consts
.implab n_Consts ea_Consts
.impdesc _Conssts
.implab n_Conssts ea_Conssts
.impdesc _Tuple
.impdesc d_S.1
.implab n_S.1 ea_S.1
.impdesc d_S.2
.implab n_S.2 ea_S.2
.impdesc d_S.3
.implab n_S.3 ea_S.3
.impdesc d_S.4
.implab n_S.4 ea_S.4
.impdesc d_S.5
.implab n_S.5 ea_S.5
.impdesc d_S.6
.implab n_S.6 ea_S.6
.implab _driver
.impmod graph_copy_with_names
.implab e_graph_copy_with_names_scopy_to_string_with_names
.implab e_graph_copy_with_names_scopy_from_string_with_names
.impmod Text.Encodings.Base64
.impdesc e_Text.Encodings.Base64_dbase64Encode
.implab e_Text.Encodings.Base64_sbase64Encode
.implab e_Text.Encodings.Base64_nbase64Encode
.impdesc e_Text.Encodings.Base64_dbase64Decode
.implab e_Text.Encodings.Base64_sbase64Decode
.implab e_Text.Encodings.Base64_nbase64Decode
.impmod _SystemArray
.impmod Text.GenJSON
.implab e_Text.GenJSON_stoJSON
.implab e_Text.GenJSON_sfromJSON
.implab e_Text.GenJSON_stoString;7
.implab e_Text.GenJSON_sfromString;8
.impdesc e_Text.GenJSON_dJSONEncode__String;16
.implab e_Text.GenJSON_sJSONEncode__List;17
.impdesc e_Text.GenJSON_dJSONDecode__String;46
.implab e_Text.GenJSON_sJSONDecode__List;47
.impmod StdString
.impdesc e_StdString_dtoString;5
.implab e_StdString_ntoString;5
.implab e_StdString_stoString;9
.implab e_StdString_s+++;11
.impmod StdMisc
.implab e_StdMisc_sabort
.impmod StdInt
.implab e_StdInt_s+;6
.implab e_StdInt_s-;7
.implab e_StdInt_sone;11
.implab e_StdInt_s<;17
.impdesc e_StdInt_dtoInt;23
.implab e_StdInt_ntoInt;23
.impmod StdBool
.implab e_StdBool_snot
.impmod StdList
.implab e_StdList_s++
.impmod graph_copy_with_names
.impdesc e_graph_copy_with_names_rDescInfo
.impdesc e_graph_copy_with_names_tDescInfo
.implab e_graph_copy_with_names_cDescInfo
.impdesc e_graph_copy_with_names_dDescInfo.di_prefix_arity_and_mod
.implab e_graph_copy_with_names_nDescInfo.di_prefix_arity_and_mod
.impdesc e_graph_copy_with_names_dDescInfo.di_name
.implab e_graph_copy_with_names_nDescInfo.di_name
.export e_iTasks.Internal.Distributed.Formatter_rJSONEncode_s;
.record e_iTasks.Internal.Distributed.Formatter_rJSONEncode_s; a 1 0 "JSONEncode_s;"
.export e_iTasks.Internal.Distributed.Formatter_tJSONEncode_s;
.export e_iTasks.Internal.Distributed.Formatter_cJSONEncode_s;
.descn e_iTasks.Internal.Distributed.Formatter_tJSONEncode_s; e_iTasks.Internal.Distributed.Formatter_cJSONEncode_s; 1 1 "JSONEncode_s;"
.n 1 e_iTasks.Internal.Distributed.Formatter_tJSONEncode_s;
.o 1 0
e_iTasks.Internal.Distributed.Formatter_cJSONEncode_s;
	push_node _cycle_in_spine 1
	jsr_eval 0
.impmod iTasks.Internal.Distributed.Formatter
.impdesc e_iTasks.Internal.Distributed.Formatter_rJSONEncode_s;
	fill_r e_iTasks.Internal.Distributed.Formatter_rJSONEncode_s; 1 0 1 0 0
	pop_a 1
.d 1 0
	rtn
.export e_iTasks.Internal.Distributed.Formatter_rJSONDecode_s;
.record e_iTasks.Internal.Distributed.Formatter_rJSONDecode_s; a 1 0 "JSONDecode_s;"
.export e_iTasks.Internal.Distributed.Formatter_tJSONDecode_s;
.export e_iTasks.Internal.Distributed.Formatter_cJSONDecode_s;
.descn e_iTasks.Internal.Distributed.Formatter_tJSONDecode_s; e_iTasks.Internal.Distributed.Formatter_cJSONDecode_s; 1 1 "JSONDecode_s;"
.n 1 e_iTasks.Internal.Distributed.Formatter_tJSONDecode_s;
.o 1 0
e_iTasks.Internal.Distributed.Formatter_cJSONDecode_s;
	push_node _cycle_in_spine 1
	jsr_eval 0
.impdesc e_iTasks.Internal.Distributed.Formatter_rJSONDecode_s;
	fill_r e_iTasks.Internal.Distributed.Formatter_rJSONDecode_s; 1 0 1 0 0
	pop_a 1
.d 1 0
	rtn
.export e_iTasks.Internal.Distributed.Formatter_sserializeToBase64
.descexp e_iTasks.Internal.Distributed.Formatter_dserializeToBase64 e_iTasks.Internal.Distributed.Formatter_nserializeToBase64 e_iTasks.Internal.Distributed.Formatter_lserializeToBase64 1 0 "serializeToBase64"
.o 2 0
e_iTasks.Internal.Distributed.Formatter_lserializeToBase64
	pop_a 1
.d 1 0
	jsr ea2
.o 1 0
	buildh ARRAY 1
.d 1 0
	rtn
.n 1 e_iTasks.Internal.Distributed.Formatter_dserializeToBase64
.o 1 0
e_iTasks.Internal.Distributed.Formatter_nserializeToBase64
	push_node _cycle_in_spine 1
.d 1 0
	jsr ea2
.o 1 0
	fillh ARRAY 1 1
.d 1 0
	rtn
.o 1 0
e_iTasks.Internal.Distributed.Formatter_sserializeToBase64
.o 1 0
ea2
	jsr_eval 0
.o 1 0
s2
	push_a 0
.d 1 0
	jsr s3
.o 0 1 b
	jmp_false else.1
	push_a 0
	updatepop_a 0 1
.d 1 0
	jsr e_graph_copy_with_names_scopy_to_string_with_names
.o 3 0
	push_a 0
	buildh ARRAY 1
	update_a 0 1
	pop_a 1
	create
	push_a 3
	update_a 1 4
	update_a 2 1
	update_a 3 2
	update_a 0 3
	pop_a 1
.d 4 0
	jsr s5
.o 1 0
	buildh e_iTasks.Internal.Distributed.Formatter_dJSONEncode_s;565.27 0
	create
	push_a 2
	update_a 1 3
	update_a 2 1
	update_a 0 2
	pop_a 1
.d 3 0
	jsr e_Text.GenJSON_stoJSON
.o 1 0
.d 1 0
	jsr e_Text.GenJSON_stoString;7
.o 1 0
.d 1 0
	jmp e_Text.Encodings.Base64_sbase64Encode
else.1
	jmp s2.1
s2.1
	pop_a 1
	pushD m_iTasks.Internal.Distributed.Formatter
	pushD e_iTasks.Internal.Distributed.Formatter_dserializeToBase64
.d 0 2 ii
	jmp _match_error
.export e_iTasks.Internal.Distributed.Formatter_dJSONEncode_s;565.27
.desc e_iTasks.Internal.Distributed.Formatter_dJSONEncode_s;565.27 _hnf l27 2 0 "JSONEncode_s;565.27"
.o 3 1 b
i27
	pop_a 1
.d 2 1 b
	jmp s27
.ai 2 ea27 i27
.o 2 0
l27
	push_args 0 1 1
	update_a 2 1
	create
	update_a 0 3
	pop_a 1
.o 3 0
ea27
	jsr_eval 1
	jsr_eval 0
	pushB_a 0
	pop_a 1
.o 2 1 b
s27
	buildh e_Text.GenJSON_dJSONEncode__String;16 0
	push_a 1
	push_b 0
	push_a 1
	update_a 1 2
	update_a 0 1
	pop_a 1
	update_a 1 2
	updatepop_a 0 1
	updatepop_b 0 1
.d 3 1 b
	jmp e_Text.GenJSON_sJSONEncode__List;17
.o 4 0
s5
	push_a 1
	buildh ARRAY 1
	build e_iTasks.Internal.Distributed.Formatter_dusize;555 1 e_iTasks.Internal.Distributed.Formatter_nusize;555
	push_a 3
	build e_iTasks.Internal.Distributed.Formatter_dpackModule;9.10 1 e_iTasks.Internal.Distributed.Formatter_npackModule;9.10
	push_a 1
	build d_S.2 -1 n_S.2
	push_a 2
	build d_S.1 -1 n_S.1
	build e_iTasks.Internal.Distributed.Formatter_d_f2.249 2 e_iTasks.Internal.Distributed.Formatter_n_f2.249
	build e_iTasks.Internal.Distributed.Formatter_dpackDescInfo;8.9 1 e_iTasks.Internal.Distributed.Formatter_npackDescInfo;8.9
	push_a 3
	build e_Text.Encodings.Base64_dbase64Encode 1 e_Text.Encodings.Base64_nbase64Encode
	buildh _Cons 2
	buildAC "State"
	buildh ARRAY 1
	buildh _Cons 2
	update_a 1 5
	updatepop_a 0 4
.d 3 0
	jmp e_StdList_s++
.export e_iTasks.Internal.Distributed.Formatter_d_f2.249
.export e_iTasks.Internal.Distributed.Formatter_n_f2.249
.descn e_iTasks.Internal.Distributed.Formatter_d_f2.249 e_iTasks.Internal.Distributed.Formatter_n_f2.249 2 0 "_f2.249"
.n 2 e_iTasks.Internal.Distributed.Formatter_d_f2.249 ea249
.o 1 0
e_iTasks.Internal.Distributed.Formatter_n_f2.249
	push_node _cycle_in_spine 2
.o 3 0
ea249
.o 3 0
s249
	push_a 0
	jsr_eval 0
	pushI_a 1
	pop_a 1
	pushI 1
	push_b 1
	update_b 1 2
	update_b 0 1
	pop_b 1
	subI
	push_a 1
	pushI 0
	updatepop_a 0 2
.d 2 2 ii
	jmp s26
.o 2 2 ii
s26
	push_b 0
	push_b 2
	ltI
	notB
	jmp_false else.2
	push_a 0
	jsr_eval 0
	push_array 0
	updatepop_a 0 1
	push_b 0
	updatepop_a 0 1
	push_a 0
	select e_graph_copy_with_names_rDescInfo 1 1
	push_a 1
	buildh ARRAY 1
	push_a 0
	push_b 2
	push_b 2
	build_u e_iTasks.Internal.Distributed.Formatter_d_f3.250 1 2 e_iTasks.Internal.Distributed.Formatter_n_f3.250
	build_r e_graph_copy_with_names_rDescInfo 1 1 2 0
	fillh _Cons 2 5
	pop_a 3
	pop_b 3
.d 1 0
	rtn
else.2
	fillh _Nil 0 1
	pop_a 1
	pop_b 2
.d 1 0
	rtn
.export e_iTasks.Internal.Distributed.Formatter_d_f3.250
.export e_iTasks.Internal.Distributed.Formatter_n_f3.250
.descn e_iTasks.Internal.Distributed.Formatter_d_f3.250 e_iTasks.Internal.Distributed.Formatter_n_f3.250 3 0 "_f3.250"
.nu 1 2 e_iTasks.Internal.Distributed.Formatter_d_f3.250 _
.o 1 0
e_iTasks.Internal.Distributed.Formatter_n_f3.250
	push_node_u _cycle_in_spine 1 2
.o 2 2 ii
ea250
.o 2 2 ii
s250
	pushI 1
	push_b 1
	addI
	push_a 0
	push_b 2
	push_b 1
	update_b 1 2
	update_b 0 1
	pop_b 1
	updatepop_a 0 1
	update_b 1 3
	updatepop_b 0 2
.d 2 2 ii
	jmp s26
.export e_iTasks.Internal.Distributed.Formatter_dpackDescInfo;8.9
.export e_iTasks.Internal.Distributed.Formatter_npackDescInfo;8.9
.descn e_iTasks.Internal.Distributed.Formatter_dpackDescInfo;8.9 e_iTasks.Internal.Distributed.Formatter_npackDescInfo;8.9 1 0 "packDescInfo;8.9"
.n 1 e_iTasks.Internal.Distributed.Formatter_dpackDescInfo;8.9 ea9
.o 1 0
e_iTasks.Internal.Distributed.Formatter_npackDescInfo;8.9
	push_node _cycle_in_spine 1
.o 2 0
ea9
	jsr_eval 0
.o 2 0
s9
	eq_desc _Nil 0 0
	jmp_true case.3
	jmp case.4
case.3
	fillh _Nil 0 1
	pop_a 1
.d 1 0
	rtn
case.4
	repl_args 2 2
	push_a 1
	build e_iTasks.Internal.Distributed.Formatter_dpackDescInfo;8.9 1 e_iTasks.Internal.Distributed.Formatter_npackDescInfo;8.9
	push_a 1
	build e_graph_copy_with_names_dDescInfo.di_name 1 e_graph_copy_with_names_nDescInfo.di_name
	build e_iTasks.Internal.Distributed.Formatter_d_f5.252 1 e_iTasks.Internal.Distributed.Formatter_n_f5.252
	buildh _Cons 2
	push_a 1
	build e_graph_copy_with_names_dDescInfo.di_prefix_arity_and_mod -3 e_graph_copy_with_names_nDescInfo.di_prefix_arity_and_mod
	build e_StdString_dtoString;5 1 e_StdString_ntoString;5
	buildh _Cons 2
	buildAC "DescInfo"
	buildh ARRAY 1
	fillh _Cons 2 4
	pop_a 2
.d 1 0
	rtn
.export e_iTasks.Internal.Distributed.Formatter_d_f5.252
.export e_iTasks.Internal.Distributed.Formatter_n_f5.252
.descn e_iTasks.Internal.Distributed.Formatter_d_f5.252 e_iTasks.Internal.Distributed.Formatter_n_f5.252 1 0 "_f5.252"
.n 1 e_iTasks.Internal.Distributed.Formatter_d_f5.252 ea252
.o 1 0
e_iTasks.Internal.Distributed.Formatter_n_f5.252
	push_node _cycle_in_spine 1
.o 2 0
ea252
.o 2 0
s252
	push_a 0
	jsr_eval 0
	push_array 0
	updatepop_a 0 1
	updatepop_a 0 1
.d 1 0
	jsr e_Text.Encodings.Base64_sbase64Encode
.o 1 0
	no_op
	fillh ARRAY 1 1
.d 1 0
	rtn
.export e_iTasks.Internal.Distributed.Formatter_dpackModule;9.10
.export e_iTasks.Internal.Distributed.Formatter_npackModule;9.10
.descn e_iTasks.Internal.Distributed.Formatter_dpackModule;9.10 e_iTasks.Internal.Distributed.Formatter_npackModule;9.10 1 0 "packModule;9.10"
.n 1 e_iTasks.Internal.Distributed.Formatter_dpackModule;9.10 ea10
.o 1 0
e_iTasks.Internal.Distributed.Formatter_npackModule;9.10
	push_node _cycle_in_spine 1
.o 2 0
ea10
.o 2 0
s10
	push_a 0
	updatepop_a 0 1
	push_a 0
	push_arraysize _ 1 0
	pushI 1
	push_b 1
	subI
	push_a 0
	buildh ARRAY 1
	pushI 0
	updatepop_a 0 1
	update_b 1 2
	updatepop_b 0 1
.d 2 2 ii
	jmp s25
.o 2 2 ii
s25
	push_b 0
	push_b 2
	ltI
	notB
	jmp_false else.5
	push_b 0
	push_array 0
	updatepop_a 0 1
	push_a 0
	select _ 1 0
	push_a 1
	buildh ARRAY 1
	push_a 0
	push_b 1
	push_b 1
	build_u e_iTasks.Internal.Distributed.Formatter_d_f4.251 1 2 e_iTasks.Internal.Distributed.Formatter_n_f4.251
	push_a 2
	buildh ARRAY 1
	build e_Text.Encodings.Base64_dbase64Encode 1 e_Text.Encodings.Base64_nbase64Encode
	fillh _Cons 2 5
	pop_a 3
	pop_b 2
.d 1 0
	rtn
else.5
	fillh _Nil 0 1
	pop_a 1
	pop_b 2
.d 1 0
	rtn
.export e_iTasks.Internal.Distributed.Formatter_d_f4.251
.export e_iTasks.Internal.Distributed.Formatter_n_f4.251
.descn e_iTasks.Internal.Distributed.Formatter_d_f4.251 e_iTasks.Internal.Distributed.Formatter_n_f4.251 3 0 "_f4.251"
.nu 1 2 e_iTasks.Internal.Distributed.Formatter_d_f4.251 _
.o 1 0
e_iTasks.Internal.Distributed.Formatter_n_f4.251
	push_node_u _cycle_in_spine 1 2
.o 2 2 ii
ea251
.o 2 2 ii
s251
	pushI 1
	push_b 1
	addI
	push_a 0
	push_b 2
	push_b 1
	update_b 1 2
	update_b 0 1
	pop_b 1
	updatepop_a 0 1
	update_b 1 3
	updatepop_b 0 2
.d 2 2 ii
	jmp s25
.o 1 0
s3
.d 1 0
	jsr	_eval_to_nf
.o 0 0
	pushB TRUE
.d 0 1 b
	rtn
.export e_iTasks.Internal.Distributed.Formatter_sdeserializeFromBase64
.descexp e_iTasks.Internal.Distributed.Formatter_ddeserializeFromBase64 e_iTasks.Internal.Distributed.Formatter_ndeserializeFromBase64 e_iTasks.Internal.Distributed.Formatter_ldeserializeFromBase64 2 0 "deserializeFromBase64"
.a 0 ea1
.o 2 0
e_iTasks.Internal.Distributed.Formatter_ldeserializeFromBase64
	repl_args 1 1
.d 2 0
	jmp ea1
.n 2 e_iTasks.Internal.Distributed.Formatter_ddeserializeFromBase64 _
.o 1 0
e_iTasks.Internal.Distributed.Formatter_ndeserializeFromBase64
	push_node _cycle_in_spine 2
.d 2 0
	jsr ea1
.o 1 0
	fill_a 0 1
	pop_a 1
.d 1 0
	rtn
.o 2 0
e_iTasks.Internal.Distributed.Formatter_sdeserializeFromBase64
	jsr_eval 0
	push_array 0
	update_a 0 1
	pop_a 1
.d 2 0
	jmp s1
.o 2 0
ea1
	jsr_eval 1
	jsr_eval 0
	push_array 1
	push_array 1
	update_a 1 3
	update_a 0 2
	pop_a 2
.o 2 0
s1
	push_a 0
.d 1 0
	jsr e_Text.Encodings.Base64_sbase64Decode
.o 1 0
	no_op
	create
	push_a 1
.d 2 0
	jsr s4
.o 1 0
	push_a 1
	push_a 3
	push_a 5
	push_a 3
	update_a 3 4
	update_a 2 3
	update_a 1 2
	update_a 0 1
	pop_a 1
	update_a 3 6
	update_a 2 5
	update_a 1 4
	updatepop_a 0 3
.d 4 0
	jmp s38
.o 4 0
s38
	eq_desc _Just 1 0
	jmp_true case.6
	jmp case.7
case.6
	repl_args 1 1
	push_a 0
	update_a 2 4
	updatepop_a 0 3
.d 1 0
	jsr s6
.o 3 0
	push_a 3
	push_a 3
	push_a 3
	push_a 3
	update_a 3 7
	update_a 2 6
	update_a 1 5
	updatepop_a 0 4
.d 4 0
	jsr e_graph_copy_with_names_scopy_from_string_with_names
.o 1 1 i
	pop_b 1
	jmp_eval
case.7
	push_a 3
	buildAC "\n\nString:\n"
	update_a 4 5
	update_a 1 4
	updatepop_a 0 3
.d 2 0
	jsr catAC
.o 1 0
	push_a 1
	update_a 1 2
	updatepop_a 0 1
.d 2 0
	jsr catAC
.o 1 0
	buildAC "Could not deserialize.\nInput:\n"
.d 2 0
	jsr catAC
.o 1 0
.d 1 0
	jsr print_string_
.o 0 0
	halt
.d 1 0
	rtn
.o 1 0
s6
	eq_desc _Cons 2 0
	jmp_true case.8
	jmp s6.1
case.8
	repl_args 2 2
	jsr_eval 0
	push_array 0
	eqAC_a "State"
	jmp_true case.9
	pop_a 1
	jmp s6.1
case.9
	jsr_eval 1
	eq_desc _Cons 2 1
	jmp_true case.10
	pop_a 1
	jmp s6.1
case.10
	push_args 1 2 2
	buildh _Nil 0
	update_a 0 4
	pop_a 1
	push_a 1
	jsr_eval 0
	update_a 1 4
	updatepop_a 0 3
.d 1 0
	jsr s245
.o 2 0
	push_a 1
	pushI 0
.d 1 1 i
	jsr s24
.o 0 1 i
	create_array_ _ 1 0
	push_a 2
	buildI 0
	push_a 2
	update_a 2 3
	update_a 1 2
	update_a 0 1
	pop_a 1
	update_a 3 4
	update_a 2 3
	update_a 1 2
	updatepop_a 0 1
.d 3 0
	jsr s22
.o 1 0
	push_a 1
	pushI 0
.d 1 1 i
	jsr s23
.o 0 1 i
	create_array_ e_graph_copy_with_names_rDescInfo 1 1
	push_a 2
	buildI 0
	push_a 2
	update_a 2 3
	update_a 1 2
	update_a 0 1
	pop_a 1
	buildh _Nil 0
	update_a 0 5
	pop_a 1
.d 3 0
	jsr s20
.o 1 0
	push_a 3
	jsr_eval 0
	push_array 0
	updatepop_a 0 1
	buildh _Nil 0
	update_a 0 5
	pop_a 1
.d 1 0
	jsr e_Text.Encodings.Base64_sbase64Decode
.o 1 0
	update_a 2 4
	update_a 1 3
	updatepop_a 0 2
.d 3 0
	rtn
s6.1
	pop_a 1
	pushD m_iTasks.Internal.Distributed.Formatter
	pushD x_6
.d 0 2 ii
	jmp _match_error
.string x_6 "deserializeFromString"
.o 1 1 i
s23
	push_b 0
	push_a 0
	updatepop_a 0 1
	updatepop_b 0 1
.d 1 1 i
	jmp s37
.o 1 1 i
s37
	eq_desc _Cons 2 0
	jmp_true case.11
	jmp case.12
case.11
	repl_args 2 2
	pop_a 1
	push_a 0
	jsr_eval 0
	pushI 1
	push_b 1
	addI
	updatepop_a 0 1
	updatepop_b 0 1
.d 1 1 i
	jmp s23
case.12
	pop_a 1
.d 0 1 i
	rtn
.o 1 1 i
s24
	push_b 0
	push_a 0
	updatepop_a 0 1
	updatepop_b 0 1
.d 1 1 i
	jmp s36
.o 1 1 i
s36
	eq_desc _Cons 2 0
	jmp_true case.13
	jmp case.14
case.13
	repl_args 2 2
	pop_a 1
	push_a 0
	jsr_eval 0
	pushI 1
	push_b 1
	addI
	updatepop_a 0 1
	updatepop_b 0 1
.d 1 1 i
	jmp s24
case.14
	pop_a 1
.d 0 1 i
	rtn
.o 3 0
s20
	push_a 1
	push_a 1
	push_a 4
	update_a 2 5
	update_a 1 4
	updatepop_a 0 3
.d 3 0
	jmp s35
.o 3 0
s35
	eq_desc _Cons 2 0
	jmp_true case.15
	jmp case.16
case.15
	repl_args 2 2
	push_a 1
	jsr_eval 0
	push_a 4
	build e_iTasks.Internal.Distributed.Formatter_d_f1.248 1 e_iTasks.Internal.Distributed.Formatter_n_f1.248
	push_a 2
	jsr_eval 0
	repl_r_args 1 1
	push_a 6
	jsr_eval 0
	pushI_a 7
	pop_a 1
	push_a 5
	buildh _Nil 0
	update_a 0 7
	update_a 0 8
	update_a 0 5
	update_a 0 6
	pop_a 1
	update e_graph_copy_with_names_rDescInfo 1 1
	update_a 2 6
	update_a 1 5
	updatepop_a 0 4
.d 3 0
	jmp s20
case.16
	updatepop_a 1 2
.d 1 0
	rtn
.export e_iTasks.Internal.Distributed.Formatter_d_f1.248
.export e_iTasks.Internal.Distributed.Formatter_n_f1.248
.descn e_iTasks.Internal.Distributed.Formatter_d_f1.248 e_iTasks.Internal.Distributed.Formatter_n_f1.248 1 0 "_f1.248"
.n 1 e_iTasks.Internal.Distributed.Formatter_d_f1.248 ea248
.o 1 0
e_iTasks.Internal.Distributed.Formatter_n_f1.248
	push_node _cycle_in_spine 1
.o 2 0
ea248
.o 2 0
s248
	pushI 1
	push_a 0
	jsr_eval 0
	pushI_a 1
	pop_a 1
	pop_a 1
	addI
	fillI_b 0 0
	pop_b 1
.d 1 0
	rtn
.o 3 0
s22
	push_a 1
	push_a 1
	push_a 4
	update_a 2 5
	update_a 1 4
	updatepop_a 0 3
.d 3 0
	jmp s33
.o 3 0
s33
	eq_desc _Cons 2 0
	jmp_true case.17
	jmp case.18
case.17
	repl_args 2 2
	push_a 1
	jsr_eval 0
	push_a 4
	build e_iTasks.Internal.Distributed.Formatter_d_f0.247 1 e_iTasks.Internal.Distributed.Formatter_n_f0.247
	push_a 2
	jsr_eval 0
	push_array 0
	updatepop_a 0 1
	buildh _Nil 0
	update_a 0 4
	update_a 0 5
	pop_a 1
.d 1 0
	jsr e_Text.Encodings.Base64_sbase64Decode
.o 1 0
	push_a 6
	jsr_eval 0
	pushI_a 7
	pop_a 1
	push_a 5
	buildh _Nil 0
	update_a 0 7
	update_a 0 8
	pop_a 1
	update _ 1 0
	update_a 2 6
	update_a 1 5
	updatepop_a 0 4
.d 3 0
	jmp s22
case.18
	updatepop_a 1 2
.d 1 0
	rtn
.export e_iTasks.Internal.Distributed.Formatter_d_f0.247
.export e_iTasks.Internal.Distributed.Formatter_n_f0.247
.descn e_iTasks.Internal.Distributed.Formatter_d_f0.247 e_iTasks.Internal.Distributed.Formatter_n_f0.247 1 0 "_f0.247"
.n 1 e_iTasks.Internal.Distributed.Formatter_d_f0.247 ea247
.o 1 0
e_iTasks.Internal.Distributed.Formatter_n_f0.247
	push_node _cycle_in_spine 1
.o 2 0
ea247
.o 2 0
s247
	pushI 1
	push_a 0
	jsr_eval 0
	pushI_a 1
	pop_a 1
	pop_a 1
	addI
	fillI_b 0 0
	pop_b 1
.d 1 0
	rtn
.o 2 0
s4
	create
	push_a 1
	update_a 1 2
	updatepop_a 0 1
.d 2 0
	jsr e_Text.GenJSON_sfromString;8
.o 1 0
	buildh e_iTasks.Internal.Distributed.Formatter_dJSONDecode_s;556.18 0
.d 3 0
	jmp e_Text.GenJSON_sfromJSON
.export e_iTasks.Internal.Distributed.Formatter_dJSONDecode_s;556.18
.desc e_iTasks.Internal.Distributed.Formatter_dJSONDecode_s;556.18 _hnf l18 2 0 "JSONDecode_s;556.18"
.o 2 1 b
i18
	pop_a 1
.d 1 1 b
	jmp s18
.ai 0 a18 i18
.o 2 0
l18
	repl_args 1 1
.o 2 0
a18
.d 2 0
	jsr ea18
.o 2 0
	push_a 1
	push_a 1
	buildh _Tuple 2
	updatepop_a 0 2
.d 1 0
	rtn
.o 2 0
ea18
	jsr_eval 1
	jsr_eval 0
	pushB_a 0
	pop_a 1
.o 1 1 b
s18
	buildh e_Text.GenJSON_dJSONDecode__String;46 0
	push_a 1
	push_b 0
	push_a 1
	update_a 1 2
	update_a 0 1
	pop_a 1
	update_a 1 2
	updatepop_a 0 1
	updatepop_b 0 1
.d 2 1 b
	jmp e_Text.GenJSON_sJSONDecode__List;47
.o 1 0
s245
	eq_desc _Nil 0 0
	jmp_true case.19
	jmp case.20
case.19
	buildh _Nil 0
	buildh _Nil 0
	update_a 1 2
	updatepop_a 0 1
.d 2 0
	rtn
case.20
	push_args 0 2 2
	jsr_eval 0
	push_array 0
	eqAC_a "DescInfo"
	jmp_true case.22
	pop_a 2
	jmp case.21
case.22
	jsr_eval 1
	eq_desc _Cons 2 1
	jmp_true case.23
	pop_a 2
	jmp case.21
case.23
	push_args 1 2 2
	buildh _Nil 0
	update_a 0 4
	pop_a 1
	jsr_eval 1
	eq_desc _Cons 2 1
	jmp_true case.24
	pop_a 4
	jmp case.21
case.24
	push_args 1 2 2
	buildh _Nil 0
	update_a 0 4
	pop_a 1
	push_a 1
	jsr_eval 0
	update_a 3 6
	update_a 1 5
	updatepop_a 0 4
.d 1 0
	jsr s246
.o 2 0
	push_a 0
	push_a 3
	build e_Text.Encodings.Base64_dbase64Decode 1 e_Text.Encodings.Base64_nbase64Decode
	push_a 5
	build e_StdInt_dtoInt;23 1 e_StdInt_ntoInt;23
	build e_graph_copy_with_names_tDescInfo 2 e_graph_copy_with_names_cDescInfo
	buildh _Cons 2
	push_a 2
	push_a 1
	update_a 1 2
	update_a 0 1
	pop_a 1
	update_a 1 6
	updatepop_a 0 5
.d 2 0
	rtn
case.21
	buildh _Nil 0
	push_a 1
	push_a 1
	update_a 1 2
	update_a 0 1
	pop_a 1
	update_a 1 2
	updatepop_a 0 1
.d 2 0
	rtn
.o 1 0
s246
	eq_desc _Nil 0 0
	jmp_true case.25
	jmp case.26
case.25
	buildh _Nil 0
	buildh _Nil 0
	update_a 1 2
	updatepop_a 0 1
.d 2 0
	rtn
case.26
	push_args 0 2 2
	jsr_eval 0
	push_array 0
	eqAC_a "DescInfo"
	jmp_true case.28
	pop_a 2
	jmp case.27
case.28
	jsr_eval 1
	eq_desc _Cons 2 1
	jmp_true case.29
	pop_a 2
	jmp case.27
case.29
	push_args 1 2 2
	buildh _Nil 0
	update_a 0 4
	pop_a 1
	jsr_eval 1
	eq_desc _Cons 2 1
	jmp_true case.30
	pop_a 4
	jmp case.27
case.30
	push_args 1 2 2
	buildh _Nil 0
	update_a 0 4
	pop_a 1
	push_a 1
	jsr_eval 0
	update_a 3 6
	update_a 1 5
	updatepop_a 0 4
.d 1 0
	jsr s246
.o 2 0
	push_a 0
	push_a 3
	build e_Text.Encodings.Base64_dbase64Decode 1 e_Text.Encodings.Base64_nbase64Decode
	push_a 5
	build e_StdInt_dtoInt;23 1 e_StdInt_ntoInt;23
	build e_graph_copy_with_names_tDescInfo 2 e_graph_copy_with_names_cDescInfo
	buildh _Cons 2
	push_a 2
	push_a 1
	update_a 1 2
	update_a 0 1
	pop_a 1
	update_a 1 6
	updatepop_a 0 5
.d 2 0
	rtn
case.27
	buildh _Nil 0
	push_a 1
	push_a 1
	update_a 1 2
	update_a 0 1
	pop_a 1
	update_a 1 2
	updatepop_a 0 1
.d 2 0
	rtn
.export e_iTasks.Internal.Distributed.Formatter_dusize;555
.export e_iTasks.Internal.Distributed.Formatter_nusize;555
.descn e_iTasks.Internal.Distributed.Formatter_dusize;555 _ 1 0 "usize;555"
.n 1 e_iTasks.Internal.Distributed.Formatter_dusize;555
.o 1 0
e_iTasks.Internal.Distributed.Formatter_nusize;555
	push_node _cycle_in_spine 1
.d 1 0
	jsr eausize;555
.o 1 1 i
	push_a 0
	buildh ARRAY 1
	buildI_b 0
	fillh _Tuple 2 3
	pop_a 1
	pop_b 1
.d 1 0
	rtn
.o 1 0
eausize;555
	jsr_eval 0
	push_array 0
	update_a 0 1
	pop_a 1
	push_a 0
	push_arraysize e_graph_copy_with_names_rDescInfo 1 1
.d 1 1 i
	rtn
.impmod _system
.implab _match_error
