.comp 920 000011110011000
.start _nostart_
.depend "System._Signal" "20210609153506"
.depend "System.Signal" "20210609153506"
.depend "Text.GenPrint" "20210609153507"
.depend "iTasks.Extensions.DateTime" "20210609153500"
.depend "iTasks.Internal.TaskServer" "20210609153501"
.depend "iTasks.Extensions.Document" "20210609153500"
.depend "System.File" "20210609153506"
.depend "iTasks.Util.DeferredJSON" "20210609153501"
.depend "iTasks.Internal.SDS" "20210609153501"
.depend "iTasks.Internal.TaskEval" "20210609153501"
.depend "iTasks.UI.Layout" "20210609153501"
.depend "iTasks.Internal.TaskState" "20210609153501"
.depend "iTasks.WF.Combinators.Core" "20210609153501"
.depend "Data.IntMap.Base" "20210609153506"
.depend "Data.IntMap.Strict" "20210609153506"
.depend "Data.CircularStack" "20210609153506"
.depend "System._Process" "20210609153506"
.depend "System.Process" "20210609153506"
.depend "System.OS" "20210609153506"
.depend "Data.GenHash" "20210609153506"
.depend "Data.Maybe.Ord" "20210609153506"
.depend "Control.GenBimap" "20210609153506"
.depend "ABC.Interpreter.JavaScript" "20210609153507"
.depend "ABC.Interpreter" "20210609153507"
.depend "iTasks.UI.Editor" "20210609153501"
.depend "iTasks.UI.Editor.Generic" "20210609153501"
.depend "iTasks.Internal.Generic.Defaults" "20210609153501"
.depend "Data.GenDefault" "20210609153506"
.depend "Data.Integer" "20210609153506"
.depend "Text.HTML" "20210609153506"
.depend "iTasks.Internal.Generic.Visualization" "20210609153501"
.depend "iTasks.SDS.Definition" "20210609153501"
.depend "TCPStringChannelsInternal" "20210609153507"
.depend "TCPStringChannels" "20210609153507"
.depend "TCPEvent" "20210609153507"
.depend "tcp_bytestreams" "20210609153507"
.depend "TCPDef" "20210609153507"
.depend "TCPChannels" "20210609153507"
.depend "TCPIP" "20210609153507"
.depend "iTasks.WF.Tasks.IO" "20210609153501"
.depend "iTasks.Internal.Task" "20210609153501"
.depend "iTasks.UI.Definition" "20210609153501"
.depend "Text.GenJSON" "20210609153506"
.depend "Data.Bifunctor" "20210609153506"
.depend "Data.Either" "20210609153506"
.depend "Data.Queue" "20210609153506"
.depend "StdFile" "20210609153507"
.depend "symbols_in_program" "20210609153507"
.depend "iTasks.Internal.IWorld" "20210609153501"
.depend "iTasks.WF.Definition" "20210609153501"
.depend "tcp" "20210609153507"
.depend "TCPChannelClass" "20210609153507"
.depend "Control.Monad.Fail" "20210609153506"
.depend "Data.Traversable" "20210609153506"
.depend "StdMisc" "20210609153507"
.depend "StdOverloadedList" "20210609153507"
.depend "Data.List" "20210609153506"
.depend "Data.Foldable" "20210609153506"
.depend "Data.Set" "20210609153506"
.depend "Data.GenLexOrd" "20210609153506"
.depend "StdFunctions" "20210609153507"
.depend "StdFunc" "20210609153507"
.depend "Data.Map" "20210609153506"
.depend "StdString" "20210609153507"
.depend "Internet.HTTP" "20210609153506"
.depend "System._Time" "20210609153506"
.depend "System.Time" "20210609153506"
.depend "System.OSError" "20210609153506"
.depend "System.FilePath" "20210609153506"
.depend "_SystemEnumStrict" "20210609153507"
.depend "_SystemStrictLists" "20210609153507"
.depend "StdStrictLists" "20210609153507"
.depend "StdGeneric" "20210609153507"
.depend "Data.GenEq" "20210609153506"
.depend "StdReal" "20210609153507"
.depend "StdChar" "20210609153507"
.depend "StdInt" "20210609153507"
.depend "StdBool" "20210609153507"
.depend "StdClass" "20210609153507"
.depend "StdList" "20210609153507"
.depend "Data.Monoid" "20210609153506"
.depend "Control.Applicative" "20210609153506"
.depend "Control.Monad" "20210609153506"
.depend "Data.Functor" "20210609153506"
.depend "Data.Error" "20210609153506"
.depend "iTasks.Engine" "20210609153501"
.depend "StdOverloaded" "20210609153507"
.depend "_SystemDynamic" "20210609153507"
.depend "iTasks.Internal.DynamicUtil" "20210609153501"
.module m_iTasks.Internal.DynamicUtil "iTasks.Internal.DynamicUtil" "20210609153501"
.endinfo
.impmod _system
.implab _cycle_in_spine
.implab _type_error
.implab _hnf
.impdesc e_system_dind
.implab e_system_nind e_system_eaind
.impdesc e_system_dif
.implab e_system_nif e_system_eaif
.implab e_system_sif
.impdesc e_system_dAP
.implab e_system_nAP e_system_eaAP
.implab e_system_sAP
.impdesc ARRAY
.impdesc _Nil
.impdesc _Cons
.impdesc _Conss
.implab n_Conss ea_Conss
.impdesc _Consts
.implab n_Consts ea_Consts
.impdesc _Conssts
.implab n_Conssts ea_Conssts
.impdesc _Tuple
.impdesc d_S.1
.implab n_S.1 ea_S.1
.impdesc d_S.2
.implab n_S.2 ea_S.2
.impdesc d_S.3
.implab n_S.3 ea_S.3
.impdesc d_S.4
.implab n_S.4 ea_S.4
.impdesc d_S.5
.implab n_S.5 ea_S.5
.impdesc d_S.6
.implab n_S.6 ea_S.6
.implab _driver
.impmod iTasks.WF.Definition
.impdesc e_iTasks.WF.Definition_dTD;Task
.impdesc e_iTasks.WF.Definition_dTD;TaskValue
.impmod _SystemDynamic
.impdesc e__SystemDynamic_d_initial_unification_environment
.implab e__SystemDynamic_s_initial_unification_environment
.implab e__SystemDynamic_n_initial_unification_environment e__SystemDynamic_ea_initial_unification_environment
.impdesc e__SystemDynamic_d_bind_global_type_pattern_var
.implab e__SystemDynamic_s_bind_global_type_pattern_var
.implab e__SystemDynamic_n_bind_global_type_pattern_var e__SystemDynamic_ea_bind_global_type_pattern_var
.implab e__SystemDynamic_s_unify
.impdesc e__SystemDynamic_d_normalise
.implab e__SystemDynamic_n_normalise e__SystemDynamic_ea_normalise
.impdesc e__SystemDynamic_rDynamicTemp
.impdesc e__SystemDynamic_kTypeVar
.impdesc e__SystemDynamic_kTypeCons
.impdesc e__SystemDynamic_kTypeApp
.impdesc e__SystemDynamic_rTypeCodeConstructor
.export e_iTasks.Internal.DynamicUtil_rMyTypeCodeConstructor
.record e_iTasks.Internal.DynamicUtil_rMyTypeCodeConstructor a 1 0 "MyTypeCodeConstructor"
.export e_iTasks.Internal.DynamicUtil_tMyTypeCodeConstructor
.export e_iTasks.Internal.DynamicUtil_cMyTypeCodeConstructor
.descn e_iTasks.Internal.DynamicUtil_tMyTypeCodeConstructor e_iTasks.Internal.DynamicUtil_cMyTypeCodeConstructor 1 1 "MyTypeCodeConstructor"
.n 1 e_iTasks.Internal.DynamicUtil_tMyTypeCodeConstructor
.o 1 0 
e_iTasks.Internal.DynamicUtil_cMyTypeCodeConstructor
	push_node _cycle_in_spine 1
	jsr_eval 0
.impmod iTasks.Internal.DynamicUtil
.impdesc e_iTasks.Internal.DynamicUtil_rMyTypeCodeConstructor
	fill_r e_iTasks.Internal.DynamicUtil_rMyTypeCodeConstructor 1 0 1 0 0
.d 1 0 
	pop_a_rtn 1
.export e_iTasks.Internal.DynamicUtil_rMyDynamic
.record e_iTasks.Internal.DynamicUtil_rMyDynamic aa 2 0 "MyDynamic"
.export e_iTasks.Internal.DynamicUtil_sTD;MyDynamic
.export e_iTasks.Internal.DynamicUtil_eaTD;MyDynamic
.descexp e_iTasks.Internal.DynamicUtil_dTD;MyDynamic e_iTasks.Internal.DynamicUtil_nTD;MyDynamic e_iTasks.Internal.DynamicUtil_lTD;MyDynamic 1 0 "TD;MyDynamic"
.o 2 0 
e_iTasks.Internal.DynamicUtil_lTD;MyDynamic
	update_a 1 0
	create 
.d 2 0 
	put_a_jmp 2 e_iTasks.Internal.DynamicUtil_eaTD;MyDynamic
.n 1 e_iTasks.Internal.DynamicUtil_dTD;MyDynamic e_iTasks.Internal.DynamicUtil_eaTD;MyDynamic
.o 1 0 
e_iTasks.Internal.DynamicUtil_nTD;MyDynamic
	push_node _cycle_in_spine 1
.o 2 0 
e_iTasks.Internal.DynamicUtil_eaTD;MyDynamic
.o 2 0 
e_iTasks.Internal.DynamicUtil_sTD;MyDynamic
.o 2 0 
s8
	fillh _Nil 0 1
.d 1 0 
	pop_a_rtn 1
.export e_iTasks.Internal.DynamicUtil_sTD;MyTypeCodeConstructor
.export e_iTasks.Internal.DynamicUtil_eaTD;MyTypeCodeConstructor
.descexp e_iTasks.Internal.DynamicUtil_dTD;MyTypeCodeConstructor e_iTasks.Internal.DynamicUtil_nTD;MyTypeCodeConstructor e_iTasks.Internal.DynamicUtil_lTD;MyTypeCodeConstructor 1 0 "TD;MyTypeCodeConstructor"
.o 2 0 
e_iTasks.Internal.DynamicUtil_lTD;MyTypeCodeConstructor
	update_a 1 0
	create 
.d 2 0 
	put_a_jmp 2 e_iTasks.Internal.DynamicUtil_eaTD;MyTypeCodeConstructor
.n 1 e_iTasks.Internal.DynamicUtil_dTD;MyTypeCodeConstructor e_iTasks.Internal.DynamicUtil_eaTD;MyTypeCodeConstructor
.o 1 0 
e_iTasks.Internal.DynamicUtil_nTD;MyTypeCodeConstructor
	push_node _cycle_in_spine 1
.o 2 0 
e_iTasks.Internal.DynamicUtil_eaTD;MyTypeCodeConstructor
.o 2 0 
e_iTasks.Internal.DynamicUtil_sTD;MyTypeCodeConstructor
.o 2 0 
s7
	fillh _Nil 0 1
.d 1 0 
	pop_a_rtn 1
.export e_iTasks.Internal.DynamicUtil_sunwrapTask
.export e_iTasks.Internal.DynamicUtil_eaunwrapTask
.descexp e_iTasks.Internal.DynamicUtil_dunwrapTask e_iTasks.Internal.DynamicUtil_nunwrapTask e_iTasks.Internal.DynamicUtil_lunwrapTask 2 0 "unwrapTask"
.a 2 e_iTasks.Internal.DynamicUtil_eaunwrapTask
.o 2 0 
e_iTasks.Internal.DynamicUtil_lunwrapTask
	push_args 0 1 1
	update_a 2 1
	create 
.d 3 0 
	put_a_jmp 3 e_iTasks.Internal.DynamicUtil_eaunwrapTask
.n 2 e_iTasks.Internal.DynamicUtil_dunwrapTask e_iTasks.Internal.DynamicUtil_eaunwrapTask
.o 1 0 
e_iTasks.Internal.DynamicUtil_nunwrapTask
	push_node _cycle_in_spine 2
.d 3 0 
	jmp e_iTasks.Internal.DynamicUtil_eaunwrapTask
.o 3 0 
e_iTasks.Internal.DynamicUtil_sunwrapTask
	jsr_eval 1
	push_r_args 1 2 0
	updates3_a 0 2 1 3
.d 4 0 
	pop_a_jmp 1 s5
.o 3 0 
e_iTasks.Internal.DynamicUtil_eaunwrapTask
	jsr_eval 1
	jsr_eval 0
	push_r_args 1 2 0
	updates3_a 0 2 1 3
	pop_a 1
.o 4 0 
s5
	push_a 1
	updates3pop_a 0 1 3 2
s11
	pushI 0
	buildhr e__SystemDynamic_kTypeVar 0 1
	buildh e_iTasks.WF.Definition_dTD;Task 0
	buildhr e__SystemDynamic_kTypeCons 1 0
	buildhr e__SystemDynamic_kTypeApp 2 0
	push_jsr_eval 2
	create 
	pushI 0
	pushI 1
.d 1 2 ii
	buildh0_put_a_jsr _Nil 5 e__SystemDynamic_s_initial_unification_environment
.o 1 0 
	pushI 0
	buildhr e__SystemDynamic_kTypeVar 0 1
	create 
	push_update_a 1 2
	updates2_a 8 1 3
.d 4 0 
	buildh0_put_a_jsr _Nil 9 e__SystemDynamic_s_bind_global_type_pattern_var
.o 1 0 
.d 3 0 
	jsr e__SystemDynamic_s_unify
.o 1 1 b
	jmp_b_false 0 else.1
	pop_b 1
	updatepop_a 1 3
	jmp_eval_upd
else.1
	pop_b 1
	pop_a_jmp 1 s11.1
s11.1
	pushD m_iTasks.Internal.DynamicUtil
	pushD x_11
.d 0 2 ii
	pop_a_jmp 4 _match_error
.string x_11 "_f501;501"
.export e_iTasks.Internal.DynamicUtil_scast_to_TaskValue
.export e_iTasks.Internal.DynamicUtil_eacast_to_TaskValue
.descexp e_iTasks.Internal.DynamicUtil_dcast_to_TaskValue e_iTasks.Internal.DynamicUtil_ncast_to_TaskValue e_iTasks.Internal.DynamicUtil_lcast_to_TaskValue 3 0 "cast_to_TaskValue"
.a 3 e_iTasks.Internal.DynamicUtil_eacast_to_TaskValue
.o 2 0 
e_iTasks.Internal.DynamicUtil_lcast_to_TaskValue
	push_args 0 2 2
	update_a 3 2
	create 
.d 4 0 
	put_a_jmp 4 e_iTasks.Internal.DynamicUtil_eacast_to_TaskValue
.n 3 e_iTasks.Internal.DynamicUtil_dcast_to_TaskValue e_iTasks.Internal.DynamicUtil_eacast_to_TaskValue
.o 1 0 
e_iTasks.Internal.DynamicUtil_ncast_to_TaskValue
	push_node _cycle_in_spine 3
.d 4 0 
	jmp e_iTasks.Internal.DynamicUtil_eacast_to_TaskValue
.o 4 0 
e_iTasks.Internal.DynamicUtil_scast_to_TaskValue
	jsr_eval 2
.d 4 0 
	jmp s4
.o 4 0 
e_iTasks.Internal.DynamicUtil_eacast_to_TaskValue
	jsr_eval 2
	jsr_eval 1
	jsr_eval 0
.o 4 0 
s4
	exchange_a 2 1
.d 2 0 
	jsr s2
.o 2 0 
	buildhr e__SystemDynamic_rDynamicTemp 2 0
s10
	push_args_u 0 2 2
	pushI 0
	buildhr e__SystemDynamic_kTypeVar 0 1
	buildh e_iTasks.WF.Definition_dTD;TaskValue 0
	buildhr e__SystemDynamic_kTypeCons 1 0
	buildhr e__SystemDynamic_kTypeApp 2 0
	push_jsr_eval 2
	create 
	pushI 0
	pushI 1
.d 1 2 ii
	buildh0_put_a_jsr _Nil 5 e__SystemDynamic_s_initial_unification_environment
.o 1 0 
	pushI 0
	buildhr e__SystemDynamic_kTypeVar 0 1
	create 
	push_update_a 1 2
	updates2_a 9 1 3
.d 4 0 
	buildh0_put_a_jsr _Nil 10 e__SystemDynamic_s_bind_global_type_pattern_var
.o 1 0 
.d 3 0 
	jsr e__SystemDynamic_s_unify
.o 1 1 b
	jmp_b_false 0 else.2
	pop_b 1
	updatepop_a 1 4
	jmp_eval_upd
else.2
	pop_b 1
	pop_a_jmp 3 s10.1
s10.1
	pushD m_iTasks.Internal.DynamicUtil
	pushD x_10
.d 0 2 ii
	pop_a_jmp 3 _match_error
.string x_10 "_f500;500"
.export e_iTasks.Internal.DynamicUtil_scast
.descexp e_iTasks.Internal.DynamicUtil_dcast e_iTasks.Internal.DynamicUtil_ncast e_iTasks.Internal.DynamicUtil_lcast 3 0 "cast"
.a 0 ea3
.o 2 0 
e_iTasks.Internal.DynamicUtil_lcast
	repl_args 2 2
.d 3 0 
	jmp ea3
.n 3 e_iTasks.Internal.DynamicUtil_dcast _
.o 1 0 
e_iTasks.Internal.DynamicUtil_ncast
	push_node _cycle_in_spine 3
.d 3 0 
	jsr ea3
.o 1 0 
.d 1 0 
	fill_a01_pop_rtn 
.o 3 0 
e_iTasks.Internal.DynamicUtil_scast
	jsr_eval 2
.d 3 0 
	jmp s3
.o 3 0 
ea3
	jsr_eval 2
	jsr_eval 1
	jsr_eval 0
.o 3 0 
s3
	exchange_a 2 1
.d 2 0 
	jsr s2
.o 2 0 
	buildhr e__SystemDynamic_rDynamicTemp 2 0
s9
	push_args_u 0 2 2
	pushI 0
	buildhr e__SystemDynamic_kTypeVar 0 1
	push_jsr_eval 2
	create 
	pushI 0
	pushI 1
.d 1 2 ii
	buildh0_put_a_jsr _Nil 5 e__SystemDynamic_s_initial_unification_environment
.o 1 0 
	pushI 0
	buildhr e__SystemDynamic_kTypeVar 0 1
	create 
	push_update_a 1 2
	updates2_a 9 1 3
.d 4 0 
	buildh0_put_a_jsr _Nil 10 e__SystemDynamic_s_bind_global_type_pattern_var
.o 1 0 
.d 3 0 
	jsr e__SystemDynamic_s_unify
.o 1 1 b
	jmp_b_false 0 else.3
	updatepop_a 1 4
	pop_b 1
	jmp_eval
else.3
	pop_b 1
	pop_a_jmp 3 s9.1
s9.1
	pushD m_iTasks.Internal.DynamicUtil
	pushD x_9
.d 0 2 ii
	pop_a_jmp 2 _match_error
.string x_9 "_f499;499"
.export e_iTasks.Internal.DynamicUtil_stoDyn
.descexp e_iTasks.Internal.DynamicUtil_dtoDyn e_iTasks.Internal.DynamicUtil_ntoDyn e_iTasks.Internal.DynamicUtil_ltoDyn 2 0 "toDyn"
.a 0 a2
.o 2 0 
e_iTasks.Internal.DynamicUtil_ltoDyn
	repl_args 1 1
.o 2 0 
a2
.d 2 0 
	jsr ea2
.o 2 0 
	buildhr e__SystemDynamic_rDynamicTemp 2 0
.d 1 0 
	rtn 
.n 2 e_iTasks.Internal.DynamicUtil_dtoDyn
.o 1 0 
e_iTasks.Internal.DynamicUtil_ntoDyn
	push_node _cycle_in_spine 2
.d 2 0 
	jsr ea2
.o 2 0 
	fill_r e__SystemDynamic_rDynamicTemp 2 0 2 0 0
.d 1 0 
	pop_a_rtn 2
.o 2 0 
ea2
	jsr_eval 0
.o 2 0 
e_iTasks.Internal.DynamicUtil_stoDyn
.o 2 0 
s2
	pushI 0
	buildhr e__SystemDynamic_kTypeVar 0 1
	buildI 0
	buildI 1
	build e__SystemDynamic_d_initial_unification_environment 2 e__SystemDynamic_n_initial_unification_environment
	pushI 0
	buildhr e__SystemDynamic_kTypeVar 0 1
	push_update_a 0 3
	build e__SystemDynamic_d_bind_global_type_pattern_var 3 e__SystemDynamic_n_bind_global_type_pattern_var
	build e__SystemDynamic_d_normalise 2 e__SystemDynamic_n_normalise
	updates2_a 0 2 1
.d 2 0 
	pop_a_rtn 1
.export e_iTasks.Internal.DynamicUtil_sunpackType
.export e_iTasks.Internal.DynamicUtil_eaunpackType
.descexp e_iTasks.Internal.DynamicUtil_dunpackType e_iTasks.Internal.DynamicUtil_nunpackType e_iTasks.Internal.DynamicUtil_lunpackType 1 0 "unpackType"
.o 2 0 
e_iTasks.Internal.DynamicUtil_lunpackType
	update_a 1 0
	create 
.d 2 0 
	put_a_jmp 2 e_iTasks.Internal.DynamicUtil_eaunpackType
.n 1 e_iTasks.Internal.DynamicUtil_dunpackType e_iTasks.Internal.DynamicUtil_eaunpackType
.o 1 0 
e_iTasks.Internal.DynamicUtil_nunpackType
	push_node _cycle_in_spine 1
.o 2 0 
e_iTasks.Internal.DynamicUtil_eaunpackType
	jsr_eval 0
	repl_r_args 2 0
.o 3 0 
e_iTasks.Internal.DynamicUtil_sunpackType
.o 3 0 
s1
.d 2 0 
	jsr s6
.o 2 0 
	pop_a 1
	jmp_eval_upd
.o 2 0 
s6
.d 2 0 
	rtn 
.impmod _system
.implab _match_error
