.comp 920 000011110011000
.start _nostart_
.depend "Text.Encodings.Base64" "20210609153506"
.depend "StdDynamic" "20210609153507"
.depend "dynamic_string" "20210609153507"
.depend "graph_copy" "20210609153507"
.depend "StdCharList" "20210609153507"
.depend "_SystemArray" "20210609153507"
.depend "StdArray" "20210609153507"
.depend "StdEnv" "20210609153507"
.depend "_SystemEnum" "20210609153507"
.depend "StdEnum" "20210609153507"
.depend "StdTuple" "20210609153507"
.depend "StdOrdList" "20210609153507"
.depend "System._Signal" "20210609153506"
.depend "System.Signal" "20210609153506"
.depend "Text.GenPrint" "20210609153507"
.depend "iTasks.Extensions.DateTime" "20210609153500"
.depend "iTasks.Internal.TaskServer" "20210609153501"
.depend "iTasks.Extensions.Document" "20210609153500"
.depend "System.File" "20210609153506"
.depend "iTasks.Util.DeferredJSON" "20210609153501"
.depend "iTasks.Internal.SDS" "20210609153501"
.depend "iTasks.Internal.TaskEval" "20210609153501"
.depend "iTasks.UI.Layout" "20210609153501"
.depend "iTasks.Internal.TaskState" "20210609153501"
.depend "iTasks.WF.Combinators.Core" "20210609153501"
.depend "Data.IntMap.Base" "20210609153506"
.depend "Data.IntMap.Strict" "20210609153506"
.depend "Data.CircularStack" "20210609153506"
.depend "System._Process" "20210609153506"
.depend "System.Process" "20210609153506"
.depend "System.OS" "20210609153506"
.depend "Data.GenHash" "20210609153506"
.depend "Data.Maybe.Ord" "20210609153506"
.depend "Control.GenBimap" "20210609153506"
.depend "ABC.Interpreter.JavaScript" "20210609153507"
.depend "ABC.Interpreter" "20210609153507"
.depend "iTasks.UI.Editor" "20210609153501"
.depend "iTasks.UI.Editor.Generic" "20210609153501"
.depend "iTasks.Internal.Generic.Defaults" "20210609153501"
.depend "Data.GenDefault" "20210609153506"
.depend "Data.Integer" "20210609153506"
.depend "Text.HTML" "20210609153506"
.depend "iTasks.Internal.Generic.Visualization" "20210609153501"
.depend "iTasks.SDS.Definition" "20210609153501"
.depend "TCPStringChannelsInternal" "20210609153507"
.depend "TCPStringChannels" "20210609153507"
.depend "TCPEvent" "20210609153507"
.depend "tcp_bytestreams" "20210609153507"
.depend "TCPDef" "20210609153507"
.depend "TCPChannels" "20210609153507"
.depend "TCPIP" "20210609153507"
.depend "iTasks.WF.Tasks.IO" "20210609153501"
.depend "iTasks.Internal.Task" "20210609153501"
.depend "iTasks.UI.Definition" "20210609153501"
.depend "Text.GenJSON" "20210609153506"
.depend "Data.Bifunctor" "20210609153506"
.depend "Data.Either" "20210609153506"
.depend "Data.Queue" "20210609153506"
.depend "StdFile" "20210609153507"
.depend "symbols_in_program" "20210609153507"
.depend "iTasks.Internal.IWorld" "20210609153501"
.depend "iTasks.WF.Definition" "20210609153501"
.depend "tcp" "20210609153507"
.depend "TCPChannelClass" "20210609153507"
.depend "Control.Monad.Fail" "20210609153506"
.depend "Data.Traversable" "20210609153506"
.depend "StdMisc" "20210609153507"
.depend "StdOverloadedList" "20210609153507"
.depend "Data.List" "20210609153506"
.depend "Data.Foldable" "20210609153506"
.depend "Data.Set" "20210609153506"
.depend "Data.GenLexOrd" "20210609153506"
.depend "StdFunctions" "20210609153507"
.depend "StdFunc" "20210609153507"
.depend "Data.Map" "20210609153506"
.depend "StdString" "20210609153507"
.depend "Internet.HTTP" "20210609153506"
.depend "System._Time" "20210609153506"
.depend "System.Time" "20210609153506"
.depend "System.OSError" "20210609153506"
.depend "System.FilePath" "20210609153506"
.depend "_SystemEnumStrict" "20210609153507"
.depend "_SystemStrictLists" "20210609153507"
.depend "StdStrictLists" "20210609153507"
.depend "StdGeneric" "20210609153507"
.depend "Data.GenEq" "20210609153506"
.depend "StdReal" "20210609153507"
.depend "StdChar" "20210609153507"
.depend "StdInt" "20210609153507"
.depend "StdBool" "20210609153507"
.depend "StdClass" "20210609153507"
.depend "StdList" "20210609153507"
.depend "Data.Monoid" "20210609153506"
.depend "Control.Applicative" "20210609153506"
.depend "Control.Monad" "20210609153506"
.depend "Data.Functor" "20210609153506"
.depend "Data.Error" "20210609153506"
.depend "iTasks.Engine" "20210609153501"
.depend "StdOverloaded" "20210609153507"
.depend "_SystemDynamic" "20210609153507"
.depend "iTasks.Internal.Serialization" "20210609153501"
.module m_iTasks.Internal.Serialization "iTasks.Internal.Serialization" "20210609153501"
.endinfo
.impmod _system
.implab _cycle_in_spine
.implab _type_error
.implab _hnf
.impdesc e_system_dind
.implab e_system_nind e_system_eaind
.impdesc e_system_dif
.implab e_system_nif e_system_eaif
.implab e_system_sif
.impdesc e_system_dAP
.implab e_system_nAP e_system_eaAP
.implab e_system_sAP
.impdesc ARRAY
.impdesc _Nil
.impdesc _Cons
.impdesc _Conss
.implab n_Conss ea_Conss
.impdesc _Consts
.implab n_Consts ea_Consts
.impdesc _Conssts
.implab n_Conssts ea_Conssts
.impdesc _Tuple
.impdesc d_S.1
.implab n_S.1 ea_S.1
.impdesc d_S.2
.implab n_S.2 ea_S.2
.impdesc d_S.3
.implab n_S.3 ea_S.3
.impdesc d_S.4
.implab n_S.4 ea_S.4
.impdesc d_S.5
.implab n_S.5 ea_S.5
.impdesc d_S.6
.implab n_S.6 ea_S.6
.implab _driver
.impmod Text.Encodings.Base64
.implab e_Text.Encodings.Base64_sbase64URLEncode
.implab e_Text.Encodings.Base64_sbase64URLDecode
.impmod dynamic_string
.implab e_dynamic_string_sdynamic_to_string
.implab e_dynamic_string_sstring_to_dynamic
.impmod graph_copy
.implab e_graph_copy_scopy_to_string
.impdesc e_graph_copy_dcopy_from_string
.implab e_graph_copy_scopy_from_string
.implab e_graph_copy_ncopy_from_string
.impmod _SystemArray
.impmod ABC.Interpreter.JavaScript
.implab e_ABC.Interpreter.JavaScript_sjsSerializeGraph
.impmod StdInt
.implab e_StdInt_s+;6
.implab e_StdInt_s-;7
.implab e_StdInt_sone;11
.implab e_StdInt_s<;17
.impmod StdBool
.implab e_StdBool_snot
.impmod StdList
.implab e_StdList_smap
.implab e_StdList_sand
.impmod Text.GenJSON
.impdesc e_Text.GenJSON_kJSONString
.impdesc e_Text.GenJSON_kJSONArray
.impdesc e_Text.GenJSON_kJSONObject
.impmod Data.Error
.impdesc e_Data.Error_dOk
.export e_iTasks.Internal.Serialization_sJSONDecode_ARROW;11
.descexp e_iTasks.Internal.Serialization_dJSONDecode_ARROW;11 e_iTasks.Internal.Serialization_nJSONDecode_ARROW;11 e_iTasks.Internal.Serialization_lJSONDecode_ARROW;11 4 0 "JSONDecode_ARROW;11"
.o 4 1 b
e_iTasks.Internal.Serialization_iJSONDecode_ARROW;11
.d 3 1 b
	pop_a_jmp 1 s12
.ai 0 a12 e_iTasks.Internal.Serialization_iJSONDecode_ARROW;11
.o 2 0 
e_iTasks.Internal.Serialization_lJSONDecode_ARROW;11
	repl_args 3 3
.o 4 0 
a12
.d 4 0 
	jsr ea12
.o 2 0 
	buildh _Tuple 2
.d 1 0 
	rtn 
.n 4 e_iTasks.Internal.Serialization_dJSONDecode_ARROW;11
.o 1 0 
e_iTasks.Internal.Serialization_nJSONDecode_ARROW;11
	push_node _cycle_in_spine 4
.d 4 0 
	jsr ea12
.o 2 0 
	fillh _Tuple 2 2
.d 1 0 
	rtn 
.o 4 0 
ea12
	jsr_eval 3
	jsr_eval 2
	pushB_a 2
	update2pop_a 0 1
.o 3 1 b
e_iTasks.Internal.Serialization_sJSONDecode_ARROW;11
.o 3 1 b
s12
	jmp_ne_desc _Cons 2 2 case.2
	push_args 2 2 2
	jsr_eval 0
	jmp_eq_desc e_Text.GenJSON_kJSONArray 0 0 case.3
	pop_a_jmp 2 case.2
case.3
	repl_args 1 1
	jmp_eq_desc _Cons 2 0 case.4
	pop_a_jmp 2 case.2
case.4
	repl_args 2 2
	jsr_eval 0
	jmp_eq_desc e_Text.GenJSON_kJSONString 0 0 case.5
	pop_a_jmp 3 case.2
case.5
	repl_args 1 1
	jmp_eqACio "_FUNCTION_" 0 case.6
	pop_a_jmp 3 case.2
case.6
	jsr_eval 1
	jmp_eq_desc _Cons 2 1 case.7
	pop_a_jmp 3 case.2
case.7
	push_args 1 2 2
	buildh0_put_a _Nil 4
	jsr_eval 0
	jmp_eq_desc e_Text.GenJSON_kJSONString 0 0 case.8
	pop_a_jmp 5 case.2
case.8
	repl_args 1 1
	jsr_eval 1
	jmp_eq_desc _Nil 0 1 case.9
	pop_a_jmp 5 case.2
case.9
	update_a 4 6
	updatepop_a 0 5
.d 1 0 
	pop_b_jsr 1 e_Text.Encodings.Base64_sbase64URLDecode
.o 1 0 
	push_arraysize_a CHAR 0 1 0
	decI
	push_jsr_eval 1
	push_b_incI 0
	buildh0_put_a _Nil 3
	create_array_ CHAR 0 1
	push_update_a 0 2
	pushI 0
.d 2 2 ii
	buildh0_put_a_jsr _Nil 4 s19
.o 1 0 
.d 1 0 
	jsr e_graph_copy_scopy_from_string
.o 1 1 i
	jsr_eval 0
	pop_b 1
	buildh _Just 1
	update2pop_a 0 3
.d 2 0 
	rtn 
case.2
	pop_a 2
	buildh _Nothing 0
.d 2 0 
	pop_b_rtn 1
.o 2 2 ii
s19
	push_b2 0 1
	jmp_ltI else.10
	push_ab 1 0
	exchange_a 2 1
	select CHAR 0 1
	push_b_incI 1
	push_b2 1 2
	swap_a1 
	update CHAR 0 1
	updatepop_b 0 2
.d 2 2 ii
	jmp s19
else.10
	put_a 1
.d 1 0 
	pop_b_rtn 2
.export e_iTasks.Internal.Serialization_sJSONDecode_Dynamic;10
.descexp e_iTasks.Internal.Serialization_dJSONDecode_Dynamic;10 e_iTasks.Internal.Serialization_nJSONDecode_Dynamic;10 e_iTasks.Internal.Serialization_lJSONDecode_Dynamic;10 2 0 "JSONDecode_Dynamic;10"
.o 2 1 b
e_iTasks.Internal.Serialization_iJSONDecode_Dynamic;10
.d 1 1 b
	pop_a_jmp 1 s11
.ai 0 a11 e_iTasks.Internal.Serialization_iJSONDecode_Dynamic;10
.o 2 0 
e_iTasks.Internal.Serialization_lJSONDecode_Dynamic;10
	repl_args 1 1
.o 2 0 
a11
.d 2 0 
	jsr ea11
.o 2 0 
	buildh _Tuple 2
.d 1 0 
	rtn 
.n 2 e_iTasks.Internal.Serialization_dJSONDecode_Dynamic;10
.o 1 0 
e_iTasks.Internal.Serialization_nJSONDecode_Dynamic;10
	push_node _cycle_in_spine 2
.d 2 0 
	jsr ea11
.o 2 0 
	fillh _Tuple 2 2
.d 1 0 
	rtn 
.o 2 0 
ea11
	jsr_eval 1
	jsr_eval 0
	pushB0_pop_a1 
.o 1 1 b
e_iTasks.Internal.Serialization_sJSONDecode_Dynamic;10
.o 1 1 b
s11
	jmp_ne_desc _Cons 2 0 case.12
	push_args 0 2 2
	jsr_eval 0
	jmp_eq_desc e_Text.GenJSON_kJSONArray 0 0 case.13
	pop_a_jmp 2 case.12
case.13
	repl_args 1 1
	jmp_eq_desc _Cons 2 0 case.14
	pop_a_jmp 2 case.12
case.14
	repl_args 2 2
	jsr_eval 0
	jmp_eq_desc e_Text.GenJSON_kJSONString 0 0 case.15
	pop_a_jmp 3 case.12
case.15
	repl_args 1 1
	jmp_eqACio "_DYNAMIC_" 0 case.16
	pop_a_jmp 3 case.12
case.16
	jsr_eval 1
	jmp_eq_desc _Cons 2 1 case.17
	pop_a_jmp 3 case.12
case.17
	push_args 1 2 2
	buildh0_put_a _Nil 4
	jsr_eval 0
	jmp_eq_desc e_Text.GenJSON_kJSONString 0 0 case.18
	pop_a_jmp 5 case.12
case.18
	repl_args 1 1
	jsr_eval 1
	jmp_eq_desc _Nil 0 1 case.19
	pop_a_jmp 5 case.12
case.19
	push_jsr_eval 4
	push_a 1
	pop_b 1
	buildh0_dup_a _Nil 7
	put_a 3
.d 1 0 
	jsr e_Text.Encodings.Base64_sbase64URLDecode
.o 1 0 
.d 1 0 
	jsr s4
.o 2 0 
.impmod _SystemDynamic
.impdesc e__SystemDynamic_rDynamicTemp
	buildhr e__SystemDynamic_rDynamicTemp 2 0
	buildh _Just 1
	update2pop_a 0 6
.d 2 0 
	rtn 
case.12
	buildh _Nothing 0
.d 2 0 
	pop_b_rtn 1
.export e_iTasks.Internal.Serialization_sJSONEncode_ARROW;9
.export e_iTasks.Internal.Serialization_eaJSONEncode_ARROW;9
.descexp e_iTasks.Internal.Serialization_dJSONEncode_ARROW;9 e_iTasks.Internal.Serialization_nJSONEncode_ARROW;9 e_iTasks.Internal.Serialization_lJSONEncode_ARROW;9 4 0 "JSONEncode_ARROW;9"
.o 5 1 b
e_iTasks.Internal.Serialization_iJSONEncode_ARROW;9
.d 4 1 b
	pop_a_jmp 1 s10
.ai 4 e_iTasks.Internal.Serialization_eaJSONEncode_ARROW;9 e_iTasks.Internal.Serialization_iJSONEncode_ARROW;9
.o 2 0 
e_iTasks.Internal.Serialization_lJSONEncode_ARROW;9
	push_args 0 3 3
	update_a 4 3
	create 
.d 5 0 
	put_a_jmp 5 e_iTasks.Internal.Serialization_eaJSONEncode_ARROW;9
.n 4 e_iTasks.Internal.Serialization_dJSONEncode_ARROW;9 e_iTasks.Internal.Serialization_eaJSONEncode_ARROW;9
.o 1 0 
e_iTasks.Internal.Serialization_nJSONEncode_ARROW;9
	push_node _cycle_in_spine 4
.o 5 0 
e_iTasks.Internal.Serialization_eaJSONEncode_ARROW;9
	jsr_eval 3
	jsr_eval 2
	pushB_a 2
	update2pop_a 0 1
.o 4 1 b
e_iTasks.Internal.Serialization_sJSONEncode_ARROW;9
.o 4 1 b
s10
	buildh _Nil 0
	buildh _Nil 0
	buildo1 e_iTasks.Internal.Serialization_n_f0.226 4
	buildh _Cons 2
	buildAC "_FUNCTION_"
	buildhr e_Text.GenJSON_kJSONString 1 0
	buildh _Cons 2
	buildhr e_Text.GenJSON_kJSONArray 1 0
	fillh _Cons 2 5
.d 1 0 
	pop_ab_rtn 3 1
.export e_iTasks.Internal.Serialization_d_f0.226
.export e_iTasks.Internal.Serialization_n_f0.226
.descn e_iTasks.Internal.Serialization_d_f0.226 e_iTasks.Internal.Serialization_n_f0.226 1 0 "_f0.226"
.n 1 e_iTasks.Internal.Serialization_d_f0.226 ea226
.o 1 0 
e_iTasks.Internal.Serialization_n_f0.226
	push_node _cycle_in_spine 1
.o 2 0 
ea226
.o 2 0 
s226
.d 1 0 
	jsr s1
.o 1 0 
.d 1 0 
	jsr e_Text.Encodings.Base64_sbase64URLEncode
.o 1 0 
	fill_r e_Text.GenJSON_kJSONString 1 0 1 0 0
.d 1 0 
	pop_a_rtn 1
.export e_iTasks.Internal.Serialization_sJSONEncode_Dynamic;8
.export e_iTasks.Internal.Serialization_eaJSONEncode_Dynamic;8
.descexp e_iTasks.Internal.Serialization_dJSONEncode_Dynamic;8 e_iTasks.Internal.Serialization_nJSONEncode_Dynamic;8 e_iTasks.Internal.Serialization_lJSONEncode_Dynamic;8 2 0 "JSONEncode_Dynamic;8"
.o 3 1 b
e_iTasks.Internal.Serialization_iJSONEncode_Dynamic;8
	pop_a 1
	push_r_args 0 2 0
	update2pop_a 0 1
.d 3 1 b
	jmp s9
.ai 2 e_iTasks.Internal.Serialization_eaJSONEncode_Dynamic;8 e_iTasks.Internal.Serialization_iJSONEncode_Dynamic;8
.o 2 0 
e_iTasks.Internal.Serialization_lJSONEncode_Dynamic;8
	push_args 0 1 1
	update_a 2 1
	create 
.d 3 0 
	put_a_jmp 3 e_iTasks.Internal.Serialization_eaJSONEncode_Dynamic;8
.n 2 e_iTasks.Internal.Serialization_dJSONEncode_Dynamic;8 e_iTasks.Internal.Serialization_eaJSONEncode_Dynamic;8
.o 1 0 
e_iTasks.Internal.Serialization_nJSONEncode_Dynamic;8
	push_node _cycle_in_spine 2
.o 3 0 
e_iTasks.Internal.Serialization_eaJSONEncode_Dynamic;8
	jsr_eval 1
	jsr_eval 0
	push_r_args 1 2 0
	pushB_a 2
	update2pop_a 0 2
.o 3 1 b
e_iTasks.Internal.Serialization_sJSONEncode_Dynamic;8
.o 3 1 b
s9
	buildh _Nil 0
	buildh _Nil 0
	build_r e__SystemDynamic_rDynamicTemp 2 0 2 0
	build e_iTasks.Internal.Serialization_d_f1.227 1 e_iTasks.Internal.Serialization_n_f1.227
	buildh _Cons 2
	buildAC "_DYNAMIC_"
	buildhr e_Text.GenJSON_kJSONString 1 0
	buildh _Cons 2
	buildhr e_Text.GenJSON_kJSONArray 1 0
	fillh _Cons 2 4
.d 1 0 
	pop_ab_rtn 2 1
.export e_iTasks.Internal.Serialization_d_f1.227
.export e_iTasks.Internal.Serialization_n_f1.227
.descn e_iTasks.Internal.Serialization_d_f1.227 e_iTasks.Internal.Serialization_n_f1.227 1 0 "_f1.227"
.n 1 e_iTasks.Internal.Serialization_d_f1.227 ea227
.o 1 0 
e_iTasks.Internal.Serialization_n_f1.227
	push_node _cycle_in_spine 1
.o 2 0 
ea227
.o 2 0 
s227
	push_r_args 0 2 0
	update2pop_a 0 1
.d 2 0 
	jsr s3
.o 1 0 
.d 1 0 
	jsr e_Text.Encodings.Base64_sbase64URLEncode
.o 1 0 
	fill_r e_Text.GenJSON_kJSONString 1 0 1 0 0
.d 1 0 
	pop_a_rtn 1
.export e_iTasks.Internal.Serialization_sserializeForClient
.descexp e_iTasks.Internal.Serialization_dserializeForClient e_iTasks.Internal.Serialization_nserializeForClient e_iTasks.Internal.Serialization_lserializeForClient 2 0 "serializeForClient"
.a 0 a8
.o 2 0 
e_iTasks.Internal.Serialization_lserializeForClient
	repl_args 1 1
.o 2 0 
a8
.d 2 0 
	jsr ea8
.o 5 3 ibi
.impmod iTasks.UI.Editor
.impdesc e_iTasks.UI.Editor_rVSt
	build_r e_iTasks.UI.Editor_rVSt 4 3 1 0
	push_a 1
	buildh ARRAY 1
	buildh _Tuple 2
	updatepop_a 0 5
.d 1 0 
	pop_b_rtn 3
.n 2 e_iTasks.Internal.Serialization_dserializeForClient
.o 1 0 
e_iTasks.Internal.Serialization_nserializeForClient
	push_node _cycle_in_spine 2
.d 2 0 
	jsr ea8
.o 5 3 ibi
	build_r e_iTasks.UI.Editor_rVSt 4 3 1 0
	push_a 1
	buildh ARRAY 1
	fillh _Tuple 2 7
.d 1 0 
	pop_ab_rtn 5 3
.o 2 0 
ea8
	jsr_eval 1
	push_r_args 1 4 3
	updates4_a 2 4 1 3 5
	put_a 2
.o 5 3 ibi
e_iTasks.Internal.Serialization_sserializeForClient
.o 5 3 ibi
s8
	push_r_args 3 4 2
	push_update_a 4 3
	update_a 3 4
	update3pop_a 0 1
.d 5 2 ii
	jsr e_ABC.Interpreter.JavaScript_sjsSerializeGraph
.o 1 0 
.d 5 3 ibi
	rtn 
.export e_iTasks.Internal.Serialization_sdynamicJSONDecode
.export e_iTasks.Internal.Serialization_eadynamicJSONDecode
.descexp e_iTasks.Internal.Serialization_ddynamicJSONDecode e_iTasks.Internal.Serialization_ndynamicJSONDecode e_iTasks.Internal.Serialization_ldynamicJSONDecode 1 0 "dynamicJSONDecode"
.o 2 0 
e_iTasks.Internal.Serialization_ldynamicJSONDecode
	update_a 1 0
	create 
.d 2 0 
	put_a_jmp 2 e_iTasks.Internal.Serialization_eadynamicJSONDecode
.n 1 e_iTasks.Internal.Serialization_ddynamicJSONDecode e_iTasks.Internal.Serialization_eadynamicJSONDecode
.o 1 0 
e_iTasks.Internal.Serialization_ndynamicJSONDecode
	push_node _cycle_in_spine 1
.o 2 0 
e_iTasks.Internal.Serialization_eadynamicJSONDecode
	jsr_eval 0
.o 2 0 
e_iTasks.Internal.Serialization_sdynamicJSONDecode
.o 2 0 
s7
	jmp_ne_desc e_Text.GenJSON_kJSONArray 0 0 case.21
	repl_args 1 1
	jmp_ne_desc _Cons 2 0 case.21
	repl_args 2 2
	jsr_eval 0
	jmp_eq_desc e_Text.GenJSON_kJSONString 0 0 case.23
	pop_a_jmp 1 case.21
case.23
	repl_args 1 1
	jmp_eqACio "_DYNAMICENCODE_" 0 case.24
	pop_a_jmp 1 case.21
case.24
	jsr_eval 1
	jmp_eq_desc _Cons 2 1 case.25
	pop_a_jmp 1 case.21
case.25
	push_args 1 2 2
	buildh0_put_a _Nil 4
	jsr_eval 0
	jmp_eq_desc e_Text.GenJSON_kJSONString 0 0 case.26
	pop_a_jmp 3 case.21
case.26
	repl_args 1 1
	jsr_eval 1
	jmp_eq_desc _Nil 0 1 case.27
	pop_a_jmp 3 case.21
case.27
	updatepop_a 0 3
.d 1 0 
	jsr e_Text.Encodings.Base64_sbase64URLDecode
.o 1 0 
.d 1 0 
	jsr e_graph_copy_scopy_from_string
.o 1 1 i
	jsr_eval 0
	pop_b 1
	fillh _Just 1 1
.d 1 0 
	rtn 
case.21
	fillh _Nothing 0 1
.d 1 0 
	pop_a_rtn 1
.export e_iTasks.Internal.Serialization_sdynamicJSONEncode
.export e_iTasks.Internal.Serialization_eadynamicJSONEncode
.descexp e_iTasks.Internal.Serialization_ddynamicJSONEncode e_iTasks.Internal.Serialization_ndynamicJSONEncode e_iTasks.Internal.Serialization_ldynamicJSONEncode 1 0 "dynamicJSONEncode"
.o 2 0 
e_iTasks.Internal.Serialization_ldynamicJSONEncode
	update_a 1 0
	create 
.d 2 0 
	put_a_jmp 2 e_iTasks.Internal.Serialization_eadynamicJSONEncode
.n 1 e_iTasks.Internal.Serialization_ddynamicJSONEncode e_iTasks.Internal.Serialization_eadynamicJSONEncode
.o 1 0 
e_iTasks.Internal.Serialization_ndynamicJSONEncode
	push_node _cycle_in_spine 1
.o 2 0 
e_iTasks.Internal.Serialization_eadynamicJSONEncode
	jsr_eval 0
.o 2 0 
e_iTasks.Internal.Serialization_sdynamicJSONEncode
.o 2 0 
s6
	buildh _Nil 0
	buildo1 e_iTasks.Internal.Serialization_n_f2.228 1
	buildh _Cons 2
	buildAC "_DYNAMICENCODE_"
	buildhr e_Text.GenJSON_kJSONString 1 0
	buildh _Cons 2
	fill_r e_Text.GenJSON_kJSONArray 1 0 2 0 0
.d 1 0 
	pop_a_rtn 2
.export e_iTasks.Internal.Serialization_d_f2.228
.export e_iTasks.Internal.Serialization_n_f2.228
.descn e_iTasks.Internal.Serialization_d_f2.228 e_iTasks.Internal.Serialization_n_f2.228 1 0 "_f2.228"
.n 1 e_iTasks.Internal.Serialization_d_f2.228 ea228
.o 1 0 
e_iTasks.Internal.Serialization_n_f2.228
	push_node _cycle_in_spine 1
.o 2 0 
ea228
.o 2 0 
s228
.d 1 0 
	jsr e_graph_copy_scopy_to_string
.o 1 0 
.d 1 0 
	jsr e_Text.Encodings.Base64_sbase64URLEncode
.o 1 0 
	fill_r e_Text.GenJSON_kJSONString 1 0 1 0 0
.d 1 0 
	pop_a_rtn 1
.export e_iTasks.Internal.Serialization_d\;15;13;511.17
.desc e_iTasks.Internal.Serialization_d\;15;13;511.17 _hnf l17 1 0 "\;15;13;511.17"
.o 2 0 
l17
.d 1 0 
	pop_a_jsr 1 ea17
.o 0 1 b
	buildB_b 0
.d 1 0 
	pop_b_rtn 1
.o 1 0 
ea17
	jsr_eval 0
	repl_args 2 2
	jsr_eval 1
.o 2 0 
s17
.d 2 0 
	jsr s14
.o 1 0 
.d 1 0 
	jmp s5
.export e_iTasks.Internal.Serialization_sfunctionFree
.descexp e_iTasks.Internal.Serialization_dfunctionFree e_iTasks.Internal.Serialization_nfunctionFree e_iTasks.Internal.Serialization_lfunctionFree 1 0 "functionFree"
.o 2 0 
e_iTasks.Internal.Serialization_lfunctionFree
.d 1 0 
	pop_a_jsr 1 ea5
.o 0 1 b
	buildB_b 0
.d 1 0 
	pop_b_rtn 1
.n 1 e_iTasks.Internal.Serialization_dfunctionFree
.o 1 0 
e_iTasks.Internal.Serialization_nfunctionFree
	push_node _cycle_in_spine 1
.d 1 0 
	jsr ea5
.o 0 1 b
	fillB_b 0 0
.d 1 0 
	pop_b_rtn 1
.o 1 0 
ea5
	jsr_eval 0
.o 1 0 
e_iTasks.Internal.Serialization_sfunctionFree
.o 1 0 
s5
	pushD_a_jmp_eqD_b2 0 e_Text.GenJSON_kJSONString 0 case.28 e_Text.GenJSON_kJSONArray 0 case.29
	jmp_eqD_b e_Text.GenJSON_kJSONObject 0 case.30
	pop_b_jmp 1 case.31
case.28
	pop_b 1
	repl_args 1 1
	jmp_eqACio "_FUNCTION_" 0 case.32
	jmp_eqACio "_DYNAMIC_" 0 case.33
	jmp_eqACio "_DYNAMICENCODE_" 0 case.34
	jmp case.31
case.32
	pushB FALSE
.d 0 1 b
	pop_a_rtn 1
case.33
	pushB FALSE
.d 0 1 b
	pop_a_rtn 1
case.34
	pushB FALSE
.d 0 1 b
	pop_a_rtn 1
case.29
	pop_b 1
	repl_args 1 1
	buildh e_iTasks.Internal.Serialization_dfunctionFree 0
	create 
	push_a 1
	updates3pop_a 0 1 3 2
.d 3 0 
	jsr e_StdList_smap
.o 1 0 
.d 1 0 
	jmp e_StdList_sand
case.30
	pop_b 1
	repl_args 1 1
	buildh e_iTasks.Internal.Serialization_d\;15;13;511.17 0
	create 
	push_a 1
	updates3pop_a 0 1 3 2
.d 3 0 
	jsr e_StdList_smap
.o 1 0 
.d 1 0 
	jmp e_StdList_sand
case.31
	pushB TRUE
.d 0 1 b
	pop_a_rtn 1
.o 2 0 
s14
.d 1 0 
	pop_a_rtn 1
.export e_iTasks.Internal.Serialization_sdeserializeDynamic
.descexp e_iTasks.Internal.Serialization_ddeserializeDynamic e_iTasks.Internal.Serialization_ndeserializeDynamic e_iTasks.Internal.Serialization_ldeserializeDynamic 1 0 "deserializeDynamic"
.o 2 0 
e_iTasks.Internal.Serialization_ldeserializeDynamic
.d 1 0 
	pop_a_jsr 1 ea4
.o 2 0 
	buildhr e__SystemDynamic_rDynamicTemp 2 0
.d 1 0 
	rtn 
.n 1 e_iTasks.Internal.Serialization_ddeserializeDynamic
.o 1 0 
e_iTasks.Internal.Serialization_ndeserializeDynamic
	push_node _cycle_in_spine 1
.d 1 0 
	jsr ea4
.o 2 0 
	fill_r e__SystemDynamic_rDynamicTemp 2 0 2 0 0
.d 1 0 
	pop_a_rtn 2
.o 1 0 
ea4
	jsr_eval 0
	push_array 0
	put_a 1
.o 1 0 
e_iTasks.Internal.Serialization_sdeserializeDynamic
.o 1 0 
s4
	push_a 0
	buildh ARRAY 1
.d 1 0 
	put_a_jmp 1 e_dynamic_string_sstring_to_dynamic
.export e_iTasks.Internal.Serialization_sserializeDynamic
.descexp e_iTasks.Internal.Serialization_dserializeDynamic e_iTasks.Internal.Serialization_nserializeDynamic e_iTasks.Internal.Serialization_lserializeDynamic 1 0 "serializeDynamic"
.o 2 0 
e_iTasks.Internal.Serialization_lserializeDynamic
.d 1 0 
	pop_a_jsr 1 ea3
.o 1 0 
	buildh ARRAY 1
.d 1 0 
	rtn 
.n 1 e_iTasks.Internal.Serialization_dserializeDynamic
.o 1 0 
e_iTasks.Internal.Serialization_nserializeDynamic
	push_node _cycle_in_spine 1
.d 1 0 
	jsr ea3
.o 1 0 
	fillh ARRAY 1 1
.d 1 0 
	rtn 
.o 1 0 
ea3
	jsr_eval 0
	repl_r_args 2 0
.o 2 0 
e_iTasks.Internal.Serialization_sserializeDynamic
.o 2 0 
s3
.d 2 0 
	jmp e_dynamic_string_sdynamic_to_string
.export e_iTasks.Internal.Serialization_sdeserialize
.export e_iTasks.Internal.Serialization_eadeserialize
.descexp e_iTasks.Internal.Serialization_ddeserialize e_iTasks.Internal.Serialization_ndeserialize e_iTasks.Internal.Serialization_ldeserialize 1 0 "deserialize"
.o 2 0 
e_iTasks.Internal.Serialization_ldeserialize
	update_a 1 0
	create 
.d 2 0 
	put_a_jmp 2 e_iTasks.Internal.Serialization_eadeserialize
.n 1 e_iTasks.Internal.Serialization_ddeserialize e_iTasks.Internal.Serialization_eadeserialize
.o 1 0 
e_iTasks.Internal.Serialization_ndeserialize
	push_node _cycle_in_spine 1
.o 2 0 
e_iTasks.Internal.Serialization_eadeserialize
	jsr_eval 0
	push_array 0
	put_a 1
.o 2 0 
e_iTasks.Internal.Serialization_sdeserialize
.o 2 0 
s2
	push_a 0
	buildh ARRAY 1
	build e_graph_copy_dcopy_from_string 1 e_graph_copy_ncopy_from_string
	build d_S.1 -1 n_S.1
	fillh e_Data.Error_dOk 1 2
.d 1 0 
	pop_a_rtn 1
.export e_iTasks.Internal.Serialization_sserialize
.descexp e_iTasks.Internal.Serialization_dserialize e_iTasks.Internal.Serialization_nserialize e_iTasks.Internal.Serialization_lserialize 1 0 "serialize"
.o 2 0 
e_iTasks.Internal.Serialization_lserialize
.d 1 0 
	pop_a_jsr 1 ea1
.o 1 0 
	buildh ARRAY 1
.d 1 0 
	rtn 
.n 1 e_iTasks.Internal.Serialization_dserialize
.o 1 0 
e_iTasks.Internal.Serialization_nserialize
	push_node _cycle_in_spine 1
.d 1 0 
	jsr ea1
.o 1 0 
	fillh ARRAY 1 1
.d 1 0 
	rtn 
.o 1 0 
ea1
	jsr_eval 0
.o 1 0 
e_iTasks.Internal.Serialization_sserialize
.o 1 0 
s1
.d 1 0 
	jmp e_graph_copy_scopy_to_string
