.comp 920 000011110011000
.start _nostart_
.depend "Text.GenJSON" "20210430140248"
.depend "StdFile" "20210430140248"
.depend "StdString" "20210430140248"
.depend "Control.Monad.Fail" "20210430140248"
.depend "Data.Traversable" "20210430140248"
.depend "StdMisc" "20210430140248"
.depend "StdOverloadedList" "20210430140248"
.depend "Data.List" "20210430140248"
.depend "Data.Foldable" "20210430140248"
.depend "Data.Set" "20210430140248"
.depend "Data.GenLexOrd" "20210430140248"
.depend "StdFunctions" "20210430140248"
.depend "StdFunc" "20210430140248"
.depend "Data.Map" "20210430140248"
.depend "_SystemEnumStrict" "20210430140248"
.depend "_SystemStrictLists" "20210430140248"
.depend "StdStrictLists" "20210430140248"
.depend "StdGeneric" "20210430140248"
.depend "Data.GenEq" "20210430140248"
.depend "StdReal" "20210430140248"
.depend "StdChar" "20210430140248"
.depend "StdInt" "20210430140248"
.depend "StdBool" "20210430140248"
.depend "StdClass" "20210430140248"
.depend "StdList" "20210430140248"
.depend "Data.Monoid" "20210430140248"
.depend "Control.Applicative" "20210430140248"
.depend "Control.Monad" "20210430140248"
.depend "Data.Functor" "20210430140248"
.depend "StdOverloaded" "20210430140248"
.depend "_SystemDynamic" "20210430140248"
.depend "Data.Map.GenJSON" "20210430140248"
.module m_Data.Map.GenJSON "Data.Map.GenJSON" "20210430140248"
.endinfo
.impmod _system
.implab _cycle_in_spine
.implab _type_error
.implab _hnf
.impdesc e_system_dind
.implab e_system_nind e_system_eaind
.impdesc e_system_dif
.implab e_system_nif e_system_eaif
.implab e_system_sif
.impdesc e_system_dAP
.implab e_system_nAP e_system_eaAP
.implab e_system_sAP
.impdesc ARRAY
.impdesc _Nil
.impdesc _Cons
.impdesc _Conss
.implab n_Conss ea_Conss
.impdesc _Consts
.implab n_Consts ea_Consts
.impdesc _Conssts
.implab n_Conssts ea_Conssts
.impdesc _Tuple
.impdesc d_S.1
.implab n_S.1 ea_S.1
.impdesc d_S.2
.implab n_S.2 ea_S.2
.impdesc d_S.3
.implab n_S.3 ea_S.3
.impdesc d_S.4
.implab n_S.4 ea_S.4
.impdesc d_S.5
.implab n_S.5 ea_S.5
.impdesc d_S.6
.implab n_S.6 ea_S.6
.implab _driver
.impmod Text.GenJSON
.implab e_Text.GenJSON_sJSONEncode_Int;12
.implab e_Text.GenJSON_sJSONDecode_Int;42
.impmod StdString
.implab e_StdString_s==;2
.impmod Text.GenJSON
.impdesc e_Text.GenJSON_kJSONString
.impdesc e_Text.GenJSON_dJSONString
.implab e_Text.GenJSON_nJSONString e_Text.GenJSON_eaJSONString
.impdesc e_Text.GenJSON_kJSONArray
.impmod Data.Map
.impdesc e_Data.Map_kBin
.impdesc e_Data.Map_dTip
.impmod StdGeneric
.impdesc e_StdGeneric_dUNIT
.impdesc e_StdGeneric_dLEFT
.impdesc e_StdGeneric_dRIGHT
.impdesc e_StdGeneric_dPAIR
.impdesc e_StdGeneric_dCONS
.o 4 1 b
s35
	push_update_a 0 1
	update_a 4 2
	pop_b_pushB 1 FALSE
.d 3 1 b
	jsr s2
.o 2 0 
	push_a 2
	update3pop_a 0 1
.d 4 0 
	jmp s15
.o 6 0 
s37
	jmp_ne_desc _Just 1 3 case.2
	push_args 3 1 1
	buildh _Nil 0
	updates2_a 4 0 5
	jsr_eval 0
	updates2_a 1 6 5
	dup_a 4
	pushB FALSE
.d 4 1 b
	pop_a_jsr 2 s35
.o 2 0 
	push_a 2
	update3pop_a 0 1
.d 4 0 
	jmp s16
case.2
	pop_a 5
	buildh _None 0
.d 2 0 
	rtn 
.o 5 1 b
s36
	push_a 4
	buildB FALSE
	push_a 2
	update3pop_a 0 1
	pop_b 1
	jsr_ap 2
	repl_args 2 2
	jsr_eval 1
	jsr_eval 0
	push_update_a 2 4
	update_a 2 5
	updates3pop_a 0 1 4 2
.d 6 0 
	jmp s37
.o 7 0 
s47
	jmp_ne_desc _Just 1 4 case.4
	push_args 4 1 1
	buildh _Nil 0
	updates2_a 2 0 6
	jsr_eval 0
	updates2_a 1 7 6
	updatepop_a 0 2
	pushB FALSE
.d 5 1 b
	jsr s36
.o 2 0 
	push_a 2
	update3pop_a 0 1
.d 4 0 
	jmp s16
case.4
	pop_a 6
	buildh _None 0
.d 2 0 
	rtn 
.o 6 1 b
s46
	push_update_a 0 5
	pop_b_pushB 1 FALSE
.d 2 1 b
	jsr s34
.o 2 0 
	push_a 2
	updates3pop_a 0 1 5 3
	push_update_a 3 5
	updates2_a 0 2 6
.d 7 0 
	pop_a_jmp 1 s47
.o 7 1 b
s45
	jmp_ne_desc _Cons 2 6 case.6
	push_args 6 2 2
	jsr_eval 0
	jmp_eq_desc e_Text.GenJSON_kJSONArray 0 0 case.7
	pop_a_jmp 2 case.6
case.7
	repl_args 1 1
	jmp_eq_desc _Cons 2 0 case.8
	pop_a_jmp 2 case.6
case.8
	repl_args 2 2
	jsr_eval 0
	jmp_eq_desc e_Text.GenJSON_kJSONString 0 0 case.9
	pop_a_jmp 3 case.6
case.9
	repl_args 1 1
	push_jsr_eval 3
	push_array 0
	updates2_a_pop_a 0 2 1 1
	pop_b 1
.d 2 0 
	buildh0_put_a_jsr _Nil 5 eqAC
.o 0 1 b
	jmp_false else.10
	jsr_eval 0
	push_a2 0 3
	jsr_eval 0
	pushB FALSE
	updates3_a 3 9 7 5
	updates3_a 1 8 6 4
	updatepop_a 0 3
.d 6 1 b
	jsr s46
.o 2 0 
.d 4 0 
	jmp s162
else.10
	pop_a 8
	buildh _None 0
.d 2 0 
	rtn 
case.6
	pop_a 6
	buildh _None 0
.d 2 0 
	pop_b_rtn 1
.o 8 1 b
s49
	push_update_a 0 1
	updates4_a 6 5 4 3 2
	update_a 8 6
	pop_b_pushB 1 FALSE
.d 7 1 b
	jsr s45
.o 2 0 
.d 4 0 
	jmp s161
.o 8 1 b
s48
	push_update_a 0 1
	updates4_a 6 5 4 3 2
	updates2_a 8 7 6
	pop_b_pushB 1 FALSE
.d 8 1 b
	jsr s49
.o 2 0 
.d 3 0 
	jmp s160
.export e_Data.Map.GenJSON_sJSONDecode_Map;1
.descexp e_Data.Map.GenJSON_dJSONDecode_Map;1 e_Data.Map.GenJSON_nJSONDecode_Map;1 e_Data.Map.GenJSON_lJSONDecode_Map;1 4 0 "JSONDecode_Map;1"
.o 4 1 b
e_Data.Map.GenJSON_iJSONDecode_Map;1
.d 3 1 b
	pop_a_jmp 1 s2
.ai 0 a2 e_Data.Map.GenJSON_iJSONDecode_Map;1
.o 2 0 
e_Data.Map.GenJSON_lJSONDecode_Map;1
	repl_args 3 3
.o 4 0 
a2
.d 4 0 
	jsr ea2
.o 2 0 
	buildh _Tuple 2
.d 1 0 
	rtn 
.n 4 e_Data.Map.GenJSON_dJSONDecode_Map;1
.o 1 0 
e_Data.Map.GenJSON_nJSONDecode_Map;1
	push_node _cycle_in_spine 4
.d 4 0 
	jsr ea2
.o 2 0 
	fillh _Tuple 2 2
.d 1 0 
	rtn 
.o 4 0 
ea2
	jsr_eval 3
	jsr_eval 2
	pushB_a 2
	update2pop_a 0 1
.o 3 1 b
e_Data.Map.GenJSON_sJSONDecode_Map;1
.o 3 1 b
s2
	buildho2 e_Data.Map.GenJSON_dJSONDecode_Map;1 0 1
	push_ab 3 0
	buildAC "Tip"
	buildh ARRAY 1
	push2_a 4
	push2_a 6
	buildAC "Bin"
	buildh ARRAY 1
	update2_a 5 9
	updates2_a 4 7 8
	update_a 3 6
	update3pop_a 0 3
	put_b 1
.d 8 1 b
	jsr s48
.o 2 0 
.d 2 0 
	jmp s159
.o 2 1 b
s34
	push_a 1
	pop_b_pushB 1 FALSE
.d 1 1 b
	jsr e_Text.GenJSON_sJSONDecode_Int;42
.o 2 0 
	push_a 2
	update3pop_a 0 1
.d 4 0 
	jmp s15
.o 2 1 b
s40
	jmp_ne_desc _Cons 2 1 case.12
	push_args 1 2 2
	jsr_eval 0
	jmp_eq_desc e_Text.GenJSON_kJSONArray 0 0 case.13
	pop_a_jmp 2 case.12
case.13
	repl_args 1 1
	jmp_eq_desc _Cons 2 0 case.14
	pop_a_jmp 2 case.12
case.14
	repl_args 2 2
	jsr_eval 0
	jmp_eq_desc e_Text.GenJSON_kJSONString 0 0 case.15
	pop_a_jmp 3 case.12
case.15
	repl_args 1 1
	push_jsr_eval 3
	push_array 0
	updates2_a_pop_a 0 2 1 1
	pop_b 1
.d 2 0 
	buildh0_put_a_jsr _Nil 5 eqAC
.o 0 1 b
	jmp_false else.16
	jsr_eval 0
	update2pop_a 0 1
	pushB FALSE
.d 1 1 b
	jsr s17
.o 2 0 
.d 4 0 
	jmp s155
else.16
	pop_a 3
	buildh _None 0
.d 2 0 
	rtn 
case.12
	pop_a 1
	buildh _None 0
.d 2 0 
	pop_b_rtn 1
.o 2 0 
s18
	jmp_ne_desc _Just 1 0 case.18
	repl_args 1 1
	create 
	swap_a1 
.d 2 0 
	jsr s3
.o 1 0 
	fillh _Just 1 1
.d 1 0 
	rtn 
case.18
	fillh _None 0 1
.d 1 0 
	pop_a_rtn 1
.o 2 0 
s3
	jmp_ne_desc e_StdGeneric_dLEFT 1 0 case.20
	repl_args 1 1
	jsr_eval 0
	repl_args 1 1
	jsr_eval 0
	repl_args 2 2
	jsr_eval 0
	repl_args 2 2
	jsr_eval 2
	push_args 2 2 2
	buildh0_put_a _Nil 5
	jsr_eval 1
	push_args 1 2 2
	buildh _Nil 0
	updates2_a 2 0 4
	jsr_eval 0
	push_jsr_eval 1
	push_jsr_eval 4
	push_jsr_eval 8
	push_jsr_eval 8
	pushI_a 9
	pop_a 1
	fill_r e_Data.Map_kBin 4 1 11 0 0
.d 1 0 
	pop_ab_rtn 11 1
case.20
	repl_args 1 1
	jsr_eval 0
	repl_args 1 1
	jsr_eval 0
	fillh e_Data.Map_dTip 0 1
.d 1 0 
	pop_a_rtn 1
.o 4 0 
s15
	jmp_ne_desc _Just 1 1 case.22
	push_args 1 1 1
	buildh _Nil 0
	updates2_a 4 0 3
	buildB FALSE
	update2_a 1 4
	updates2_a_pop_a 0 3 2 2
	jsr_ap 2
	repl_args 2 2
	jsr_eval 1
	jsr_eval 0
	push_a 2
	update3pop_a 0 1
.d 4 0 
	jmp s16
case.22
	pop_a 3
	buildh _None 0
.d 2 0 
	rtn 
.o 4 0 
s16
	jmp_ne_desc _Just 1 1 case.24
	push_args 1 1 1
	buildh _Nil 0
	push_a 2
	updates2_a 2 1 4
	buildh e_StdGeneric_dPAIR 2
	buildh _Just 1
	updates2pop_a 0 4 5
.d 2 0 
	rtn 
case.24
	pop_a 3
	buildh _None 0
.d 2 0 
	rtn 
.o 1 1 b
s17
	buildh e_StdGeneric_dUNIT 0
	buildh _Just 1
.d 2 0 
	pop_b_rtn 1
.o 5 1 b
s21
	push_args 3 2 2
	buildh _Nil 0
	updates2_a 2 0 6
	buildB FALSE
	updates2_a 2 5 7
	dup_a 3
	updates3_a 1 4 6 2
	pop_a 2
	pop_b 1
	jsr_ap 2
	push_jsr_eval 1
	create 
	pushB FALSE
	push2_a 5
	exchange_a 3 2
	buildh0_dup3_a _Nil 6
.d 4 1 b
	pop_a_jsr 1 s1
.o 1 0 
	update2pop_a 0 3
.d 3 0 
	jmp s9
.o 6 1 b
s22
	push_args 4 2 2
	buildh _Nil 0
	updates2_a 2 0 7
	jsr_eval 0
	create 
	pushB FALSE
	updates3_a 2 7 4 8
	updates2_a 0 6 3
	updates2_a_pop_a 1 5 2 2
	put_b 1
.d 5 1 b
	jsr s21
.o 1 0 
	push_a 1
	buildB FALSE
	push_a 4
	buildh0_dup2_a _Nil 5
	pop_a 1
	jsr_ap 2
	update2pop_a 0 2
.d 3 0 
	jmp s9
.export e_Data.Map.GenJSON_dJSONEncode_PAIR;224.31
.export e_Data.Map.GenJSON_nJSONEncode_PAIR;224.31
.descn e_Data.Map.GenJSON_dJSONEncode_PAIR;224.31 e_Data.Map.GenJSON_nJSONEncode_PAIR;224.31 7 0 "JSONEncode_PAIR;224.31"
.n 7 e_Data.Map.GenJSON_dJSONEncode_PAIR;224.31 ea31
.o 1 0 
e_Data.Map.GenJSON_nJSONEncode_PAIR;224.31
	push_node _cycle_in_spine 7
.o 8 0 
ea31
	jsr_eval 6
	jsr_eval 4
	jsr_eval 1
	jsr_eval 0
	pushB_a 5
	update2_a 3 4
	update3pop_a 0 1
.o 7 1 b
s31
	push_args 5 2 2
	buildh _Nil 0
	updates2_a 2 0 8
	jsr_eval 0
	create 
	pushB FALSE
	updates3_a 0 7 4 9
	updates2_a 1 6 3
	push_a 5
	updates3pop_a 0 3 9 6
	put_b 1
.d 6 1 b
	jsr s22
.o 1 0 
	push_jsr_eval 1
	create 
	pushB FALSE
	push_a2 4 1
	updates2_a_pop_a 0 2 3 1
	buildh0_dup2_a _Nil 5
.d 3 1 b
	pop_a_jsr 1 s20
.o 1 0 
	update2pop_a 0 2
.d 3 0 
	jmp s9
.o 8 1 b
s30
	push_args 6 1 1
	buildh0_put_a _Nil 8
	buildh _Nil 0
	push_a 1
	buildB FALSE
	push3_a 9
	push2_a 9
	build e_Data.Map.GenJSON_dJSONEncode_PAIR;224.31 7 e_Data.Map.GenJSON_nJSONEncode_PAIR;224.31
	buildo1 e_Text.GenJSON_nJSONString 3
	buildh _Cons 2
	buildhr e_Text.GenJSON_kJSONArray 1 0
	fillh _Cons 2 10
.d 1 0 
	pop_ab_rtn 8 1
.o 9 1 b
s33
	jmp_ne_desc e_StdGeneric_dLEFT 1 7 case.26
	push_args 7 1 1
	buildh0_put_a _Nil 9
	jsr_eval 0
	dup_a 8
	update3_a 4 5
	update3pop_a 1 2
	pop_b_pushB 1 FALSE
.d 8 1 b
	jmp s30
case.26
	push_args 7 1 1
	buildh0_put_a _Nil 9
	jsr_eval 0
	dup_a 8
	pop_b_pushB 1 FALSE
.d 3 1 b
	pop_a_jmp 7 s25
.o 9 1 b
s32
	pop_b_pushB 1 FALSE
.d 9 1 b
	jmp s33
.export e_Data.Map.GenJSON_sJSONEncode_Map;0
.export e_Data.Map.GenJSON_eaJSONEncode_Map;0
.descexp e_Data.Map.GenJSON_dJSONEncode_Map;0 e_Data.Map.GenJSON_nJSONEncode_Map;0 e_Data.Map.GenJSON_lJSONEncode_Map;0 4 0 "JSONEncode_Map;0"
.o 5 1 b
e_Data.Map.GenJSON_iJSONEncode_Map;0
.d 4 1 b
	pop_a_jmp 1 s1
.ai 4 e_Data.Map.GenJSON_eaJSONEncode_Map;0 e_Data.Map.GenJSON_iJSONEncode_Map;0
.o 2 0 
e_Data.Map.GenJSON_lJSONEncode_Map;0
	push_args 0 3 3
	update_a 4 3
	create 
.d 5 0 
	put_a_jmp 5 e_Data.Map.GenJSON_eaJSONEncode_Map;0
.n 4 e_Data.Map.GenJSON_dJSONEncode_Map;0 e_Data.Map.GenJSON_eaJSONEncode_Map;0
.o 1 0 
e_Data.Map.GenJSON_nJSONEncode_Map;0
	push_node _cycle_in_spine 4
.o 5 0 
e_Data.Map.GenJSON_eaJSONEncode_Map;0
	jsr_eval 3
	jsr_eval 2
	pushB_a 2
	update2pop_a 0 1
.o 4 1 b
e_Data.Map.GenJSON_sJSONEncode_Map;0
.o 4 1 b
s1
	create 
	push_a 3
.d 2 0 
	buildh0_put_a_jsr _Nil 5 s4
.o 1 0 
	buildho2 e_Data.Map.GenJSON_dJSONEncode_Map;0 1 2
	push_b 0
	buildAC "Tip"
	buildh ARRAY 1
	push2_a 4
	push2_a 6
	buildAC "Bin"
	buildh ARRAY 1
	update_a 7 10
	update_a 5 9
	update_a 6 8
	update2_a 3 6
	update3pop_a 0 3
.d 9 1 b
	put_b_jmp 1 s32
.o 3 1 b
s20
	push_args 1 2 2
	buildh _Nil 0
	updates2_a 2 0 4
	buildB FALSE
	update_a 2 5
	dup_a 3
	updates2_a_pop_a 1 4 2 2
	pop_b 1
	jsr_ap 2
	push_jsr_eval 1
	pushI_a 2
	pop_a 1
	create 
	pushB FALSE
.d 1 2 bi
	buildh0_put_a_jsr _Nil 3 e_Text.GenJSON_sJSONEncode_Int;12
.o 1 0 
	update2pop_a 0 1
.d 3 0 
	jmp s9
.o 3 1 b
s25
	push_args 1 1 1
	buildh0_put_a _Nil 3
	buildh _Nil 0
	push_a 1
	buildB FALSE
	build e_Data.Map.GenJSON_dJSONEncode_UNIT;15.10 2 e_Data.Map.GenJSON_nJSONEncode_UNIT;15.10
	buildo1 e_Text.GenJSON_nJSONString 3
	buildh _Cons 2
	buildhr e_Text.GenJSON_kJSONArray 1 0
	fillh _Cons 2 5
.d 1 0 
	pop_ab_rtn 3 1
.export e_Data.Map.GenJSON_d++;14.9
.export e_Data.Map.GenJSON_n++;14.9
.descn e_Data.Map.GenJSON_d++;14.9 e_Data.Map.GenJSON_n++;14.9 2 0 "++;14.9"
.n 2 e_Data.Map.GenJSON_d++;14.9 ea9
.o 1 0 
e_Data.Map.GenJSON_n++;14.9
	push_node _cycle_in_spine 2
.o 3 0 
ea9
	jsr_eval 0
.o 3 0 
s9
	jmp_ne_desc _Cons 2 0 case.28
	repl_args 2 2
	push2_a 2
	build e_Data.Map.GenJSON_d++;14.9 2 e_Data.Map.GenJSON_n++;14.9
	push_a 1
	fillh _Cons 2 5
.d 1 0 
	pop_a_rtn 3
case.28
	fill_a 1 2
.d 1 0 
	pop_a_rtn 2
.export e_Data.Map.GenJSON_dJSONEncode_UNIT;15.10
.export e_Data.Map.GenJSON_nJSONEncode_UNIT;15.10
.descn e_Data.Map.GenJSON_dJSONEncode_UNIT;15.10 e_Data.Map.GenJSON_nJSONEncode_UNIT;15.10 2 0 "JSONEncode_UNIT;15.10"
.n 2 e_Data.Map.GenJSON_dJSONEncode_UNIT;15.10 ea10
.o 1 0 
e_Data.Map.GenJSON_nJSONEncode_UNIT;15.10
	push_node _cycle_in_spine 2
.o 3 0 
ea10
	jsr_eval 1
	pushB0_pop_a1 
.o 2 1 b
s10
	fillh _Nil 0 1
.d 1 0 
	pop_ab_rtn 1 1
.o 2 0 
s4
	jmp_ne_desc e_Data.Map_kBin 0 0 case.30
	repl_r_args 4 1
	buildho2 e_StdGeneric_dPAIR 2 3
	push_a 2
	buildh e_StdGeneric_dPAIR 2
	push_a 1
	buildI_b 0
	buildh e_StdGeneric_dPAIR 2
	buildh e_StdGeneric_dPAIR 2
	buildh e_StdGeneric_dCONS 1
	fillh e_StdGeneric_dLEFT 1 5
.d 1 0 
	pop_ab_rtn 4 1
case.30
	buildh e_StdGeneric_dUNIT 0
	buildh e_StdGeneric_dCONS 1
	fillh e_StdGeneric_dRIGHT 1 2
.d 1 0 
	pop_a_rtn 1
.o 4 0 
s155
case.31
	jmp_ne_desc _Just 1 0 case.32
	repl_args 1 1
	push_jsr_eval 2
	push_a 1
	buildh e_StdGeneric_dCONS 1
	buildh _Just 1
	update2pop_a 0 4
.d 2 0 
	rtn 
case.32
	pop_a 3
	buildh _None 0
.d 2 0 
	rtn 
.o 2 0 
s159
	create 
	swap_a1 
.d 2 0 
	jsr s18
.o 1 0 
.d 2 0 
	rtn 
.o 3 0 
s160
case.34
	jmp_ne_desc _Just 1 0 case.35
	repl_args 1 1
	push_a 0
	buildh _Just 1
	updates2pop_a 0 2 3
.d 2 0 
	rtn 
case.35
	pop_a 2
	buildh _None 0
.d 2 0 
	rtn 
.o 4 0 
s161
	jmp_ne_desc _Just 1 0 case.38
	repl_args 1 1
	push_a 0
	buildh e_StdGeneric_dLEFT 1
	buildh _Just 1
	update_a 2 4
	updatepop_a 0 3
.d 2 0 
	rtn 
case.38
	updates2_a 3 2 1
	pushB FALSE
.d 2 1 b
	pop_a_jsr 1 s40
.o 2 0 
.d 3 0 
	jmp s166
.o 4 0 
s162
case.39
	jmp_ne_desc _Just 1 0 case.40
	repl_args 1 1
	push_jsr_eval 2
	push_a 1
	buildh e_StdGeneric_dCONS 1
	buildh _Just 1
	update2pop_a 0 4
.d 2 0 
	rtn 
case.40
	pop_a 3
	buildh _None 0
.d 2 0 
	rtn 
.o 3 0 
s166
	jmp_ne_desc _Just 1 0 case.43
	repl_args 1 1
	push_a 0
	buildh e_StdGeneric_dRIGHT 1
	buildh _Just 1
	updates2pop_a 0 2 3
.d 2 0 
	rtn 
case.43
	pop_a 2
	buildh _None 0
.d 2 0 
	rtn 
