.comp 920 000011110011000
.start _nostart_
.depend "System._Directory" "20210613143555"
.depend "Data.Tuple" "20210613143554"
.depend "Data.Tree" "20210613143554"
.depend "Data.Func" "20210613143554"
.depend "StdCharList" "20210613143554"
.depend "_SystemArray" "20210613143554"
.depend "StdArray" "20210613143554"
.depend "StdEnv" "20210613143554"
.depend "_SystemEnum" "20210613143554"
.depend "StdEnum" "20210613143554"
.depend "StdTuple" "20210613143554"
.depend "StdOrdList" "20210613143554"
.depend "Control.Monad.Trans" "20210613143554"
.depend "StdMaybe" "20210613143554"
.depend "Data.Maybe" "20210613143554"
.depend "_SystemStrictMaybes" "20210613143554"
.depend "System.File" "20210613143555"
.depend "Data.Bifunctor" "20210613143554"
.depend "StdFile" "20210613143554"
.depend "System._Time" "20210613143555"
.depend "System.Time" "20210613143555"
.depend "System.OSError" "20210613143555"
.depend "System.FilePath" "20210613143555"
.depend "StdString" "20210613143554"
.depend "Control.Monad.Fail" "20210613143554"
.depend "Data.Traversable" "20210613143554"
.depend "StdMisc" "20210613143554"
.depend "StdOverloadedList" "20210613143554"
.depend "Data.List" "20210613143554"
.depend "Data.Foldable" "20210613143554"
.depend "StdFunctions" "20210613143554"
.depend "StdFunc" "20210613143554"
.depend "_SystemEnumStrict" "20210613143554"
.depend "_SystemStrictLists" "20210613143554"
.depend "StdStrictLists" "20210613143554"
.depend "StdGeneric" "20210613143554"
.depend "Data.GenEq" "20210613143554"
.depend "StdReal" "20210613143554"
.depend "StdChar" "20210613143554"
.depend "StdInt" "20210613143554"
.depend "StdBool" "20210613143554"
.depend "StdClass" "20210613143554"
.depend "StdList" "20210613143554"
.depend "Data.Monoid" "20210613143554"
.depend "Control.Applicative" "20210613143554"
.depend "Control.Monad" "20210613143554"
.depend "Data.Functor" "20210613143554"
.depend "Data.Error" "20210613143554"
.depend "StdOverloaded" "20210613143554"
.depend "_SystemDynamic" "20210613143554"
.depend "System.Directory" "20210613143555"
.module m_System.Directory "System.Directory" "20210613143555"
.endinfo
.impmod _system
.implab _cycle_in_spine
.implab _type_error
.implab _hnf
.impdesc e_system_dind
.implab e_system_nind e_system_eaind
.impdesc e_system_dif
.implab e_system_nif e_system_eaif
.implab e_system_sif
.impdesc e_system_dAP
.implab e_system_nAP e_system_eaAP
.implab e_system_sAP
.impdesc ARRAY
.impdesc _Nil
.impdesc _Cons
.impdesc _Conss
.implab n_Conss ea_Conss
.impdesc _Consts
.implab n_Consts ea_Consts
.impdesc _Conssts
.implab n_Conssts ea_Conssts
.impdesc _Tuple
.impdesc d_S.1
.implab n_S.1 ea_S.1
.impdesc d_S.2
.implab n_S.2 ea_S.2
.impdesc d_S.3
.implab n_S.3 ea_S.3
.impdesc d_S.4
.implab n_S.4 ea_S.4
.impdesc d_S.5
.implab n_S.5 ea_S.5
.impdesc d_S.6
.implab n_S.6 ea_S.6
.implab _driver
.impmod System._Directory
.implab e_System._Directory_screateDirectory
.implab e_System._Directory_sremoveDirectory
.implab e_System._Directory_sreadDirectory
.implab e_System._Directory_sgetCurrentDirectory
.implab e_System._Directory_ssetCurrentDirectory
.impmod Data.Func
.impdesc e_Data.Func_dmapSt
.implab e_Data.Func_smapSt
.implab e_Data.Func_nmapSt
.impmod _SystemArray
.impmod Data.Maybe
.impdesc e_Data.Maybe_dmaybe;63
.implab e_Data.Maybe_nmaybe;63 _
.impmod System.File
.implab e_System.File_sfileExists
.implab e_System.File_sdeleteFile
.implab e_System.File_sgetFileInfo
.impmod System.FilePath
.impdesc e_System.FilePath_d</>
.implab e_System.FilePath_s</>
.implab e_System.FilePath_n</>
.implab e_System.FilePath_stakeDirectory
.impmod StdString
.impdesc e_StdString_d==;2
.implab e_StdString_s==;2
.impmod Data.List
.implab e_Data.List_selem
.impmod StdFunctions
.impdesc e_StdFunctions_did
.impmod StdInt
.implab e_StdInt_s-;7
.implab e_StdInt_sone;11
.implab e_StdInt_s==;16
.impmod StdBool
.implab e_StdBool_snot
.impmod StdList
.impdesc e_StdList_dfilter
.implab e_StdList_sfilter
.implab e_StdList_nfilter e_StdList_eafilter
.impmod Control.Monad
.implab e_Control.Monad_ssequence
.impmod Data.Error
.implab e_Data.Error_sisError
.impdesc e_Data.Error_dfromOk
.implab e_Data.Error_sfromOk
.implab e_Data.Error_nfromOk _
.impdesc e_Data.Error_dfromError
.implab e_Data.Error_nfromError _
.impdesc e_Data.Error_dliftError
.implab e_Data.Error_sliftError
.implab e_Data.Error_nliftError e_Data.Error_ealiftError
.impdesc e_Data.Error_dfmap;14
.impdesc e_Data.Error_dpure;15
.impdesc e_Data.Error_d<*>;16
.impdesc e_Data.Error_dbind;17
.impmod Data.Tree
.impdesc e_Data.Tree_dRNode
.impmod Control.Applicative
.impdesc e_Control.Applicative_rpure;
.impdesc e_Control.Applicative_r<*>;
.impdesc e_Control.Applicative_rApplicative;
.impmod Control.Monad
.impdesc e_Control.Monad_rMonad;
.impmod Data.Functor
.impdesc e_Data.Functor_rFunctor;
.impmod Data.Error
.impdesc e_Data.Error_dError
.impdesc e_Data.Error_dOk
.impmod StdOverloaded
.impdesc e_StdOverloaded_r==;
.export e_System.Directory_ssetCurrentDirectory
.descexp e_System.Directory_dsetCurrentDirectory e_System.Directory_nsetCurrentDirectory e_System.Directory_lsetCurrentDirectory 2 0 "setCurrentDirectory"
.a 0 a9
.o 2 0 
e_System.Directory_lsetCurrentDirectory
	repl_args 1 1
.o 2 0 
a9
.d 2 0 
	jsr ea9
.o 2 0 
	buildh _Tuple 2
.d 1 0 
	rtn 
.n 2 e_System.Directory_dsetCurrentDirectory
.o 1 0 
e_System.Directory_nsetCurrentDirectory
	push_node _cycle_in_spine 2
.d 2 0 
	jsr ea9
.o 2 0 
	fillh _Tuple 2 2
.d 1 0 
	rtn 
.o 2 0 
ea9
	jsr_eval 1
	jsr_eval 0
	push_array 0
	put_a 1
.o 2 0 
e_System.Directory_ssetCurrentDirectory
.o 2 0 
s9
.d 2 0 
	jmp e_System._Directory_ssetCurrentDirectory
.export e_System.Directory_sgetCurrentDirectory
.descexp e_System.Directory_dgetCurrentDirectory e_System.Directory_ngetCurrentDirectory e_System.Directory_lgetCurrentDirectory 1 0 "getCurrentDirectory"
.o 2 0 
e_System.Directory_lgetCurrentDirectory
.d 1 0 
	pop_a_jsr 1 ea8
.o 2 0 
	buildh _Tuple 2
.d 1 0 
	rtn 
.n 1 e_System.Directory_dgetCurrentDirectory
.o 1 0 
e_System.Directory_ngetCurrentDirectory
	push_node _cycle_in_spine 1
.d 1 0 
	jsr ea8
.o 2 0 
	fillh _Tuple 2 2
.d 1 0 
	rtn 
.o 1 0 
ea8
	jsr_eval 0
.o 1 0 
e_System.Directory_sgetCurrentDirectory
.o 1 0 
s8
.d 1 0 
	jmp e_System._Directory_sgetCurrentDirectory
.export e_System.Directory_sreadDirectoryTree
.descexp e_System.Directory_dreadDirectoryTree e_System.Directory_nreadDirectoryTree e_System.Directory_lreadDirectoryTree 3 0 "readDirectoryTree"
.a 0 a4
.o 2 0 
e_System.Directory_lreadDirectoryTree
	repl_args 2 2
.o 3 0 
a4
.d 3 0 
	jsr ea4
.o 2 0 
	buildh _Tuple 2
.d 1 0 
	rtn 
.n 3 e_System.Directory_dreadDirectoryTree
.o 1 0 
e_System.Directory_nreadDirectoryTree
	push_node _cycle_in_spine 3
.d 3 0 
	jsr ea4
.o 2 0 
	fillh _Tuple 2 2
.d 1 0 
	rtn 
.o 3 0 
ea4
	jsr_eval 2
	jsr_eval 1
	jsr_eval 0
	push_array 0
	put_a 1
.o 3 0 
e_System.Directory_sreadDirectoryTree
.o 3 0 
s4
	buildh e_StdFunctions_did 0
	push_a 2
	buildI -1
	exchange_a 2 1
	build e_Data.Maybe_dmaybe;63 3 e_Data.Maybe_nmaybe;63
	push_a 3
	buildAC ""
	update2_a 0 4
.d 4 0 
	pop_a_jmp 2 s59
.export e_System.Directory_dscan;16.17
.desc e_System.Directory_dscan;16.17 _hnf l17 4 0 "scan;16.17"
.a 0 a17
.o 2 0 
l17
	repl_args 3 3
.o 4 0 
a17
.d 4 0 
	jsr ea17
.o 2 0 
	buildh _Tuple 2
.d 1 0 
	rtn 
.o 4 0 
ea17
	jsr_eval 3
	jsr_eval 2
	jsr_eval 1
	push_array 2
	push_array 2
	update2_a 0 3
	pop_a 2
.o 4 0 
s17
	push_arraysize_a CHAR 0 1 2
	eqIi 0
	push_a 1
	updates3pop_a 0 1 3 2
.d 2 1 b
	jsr s23
.o 1 0 
	push_a2 2 0
.d 2 0 
	buildh0_put_a_jsr _Nil 5 e_System.File_sgetFileInfo
.o 2 0 
.d 1 0 
	push_a_jsr 0 e_Data.Error_sisError
.o 0 1 b
	jmp_false else.1
	buildh _Nil 0
	buildo1 e_Data.Error_nliftError 1
	push_a 4
	buildh ARRAY 1
	buildh _Tuple 2
	buildh e_Data.Tree_dRNode 2
	update_a 2 5
	updatepop_a 0 4
.d 2 0 
	rtn 
else.1
	push_jsr_eval 3
	pushI_a 4
	pop_a 1
	jmp_neIi 0 else.2
	buildh _Nil 0
	push_a2 1 3
	buildh ARRAY 1
	buildh _Tuple 2
	buildh e_Data.Tree_dRNode 2
	update_a 2 5
	updatepop_a 0 4
.d 2 0 
	rtn 
else.2
	push_a 0
	eq_desc e_Data.Error_dOk 1 0
	exit_false selector_m_error
	repl_args 1 1
	jsr_eval 0
	repl_r_args 3 3
	push_b 0
	jmp_true else.3
	buildh _Nil 0
	push_a2 4 6
	buildh ARRAY 1
	buildh _Tuple 2
	buildh e_Data.Tree_dRNode 2
	update_a 5 8
	updatepop_a 0 7
.d 2 0 
	pop_b_rtn 3
else.3
	push_a 3
.d 1 0 
	buildh0_put_a_jsr _Nil 5 e_Data.Error_sisError
.o 0 1 b
	jmp_false else.4
	push_a2 4 5
	buildh ARRAY 1
	build e_System.Directory_dreadDirectory 2 e_System.Directory_nreadDirectory
	buildo1 n_S.2 0
	buildh _Nil 0
	buildo1 n_S.1 2
	build e_Data.Error_dliftError 1 e_Data.Error_nliftError
	push_a 9
	buildh ARRAY 1
	buildh _Tuple 2
	buildh e_Data.Tree_dRNode 2
	update2pop_a 0 9
.d 2 0 
	pop_b_rtn 3
else.4
	push_a2 4 5
	buildh ARRAY 1
	build e_System.Directory_dreadDirectory 2 e_System.Directory_nreadDirectory
	buildo1 n_S.2 0
	buildo1 n_S.1 1
	build e_Data.Error_dfromOk 1 e_Data.Error_nfromOk
	buildh e_System.Directory_d\;76;51;15.16 0
	build e_StdList_dfilter 2 e_StdList_nfilter
	buildo1 e_System.Directory_n_f3.68 9
	push_a 9
	buildh ARRAY 1
	swap_a1 
	buildh e_System.Directory_dscan;16.17 2
	build e_Data.Func_dmapSt 3 e_Data.Func_nmapSt
	buildo1 n_S.2 0
	buildo1 n_S.1 1
.impmod System.File
.impdesc e_System.File_rFileInfo
	build_r e_System.File_rFileInfo 3 3 4 0
	buildh e_Data.Error_dOk 1
	push_a 10
	buildh ARRAY 1
	buildh _Tuple 2
	buildh e_Data.Tree_dRNode 2
	update2pop_a 0 10
.d 2 0 
	pop_b_rtn 3
.export e_System.Directory_d_f3.68
.export e_System.Directory_n_f3.68
.descn e_System.Directory_d_f3.68 e_System.Directory_n_f3.68 1 0 "_f3.68"
.n 1 e_System.Directory_d_f3.68 ea68
.o 1 0 
e_System.Directory_n_f3.68
	push_node _cycle_in_spine 1
.o 2 0 
ea68
.o 2 0 
s68
	jsr_eval 0
	pushI 1
	pushI0_pop_a1 
	subI
	fillI_b 0 0
.d 1 0 
	pop_b_rtn 1
.o 2 1 b
s23
	eqB_b TRUE 0
	jmp_false case.6
	put_a 1
.d 1 0 
	pop_b_rtn 1
case.6
.d 2 0 
	pop_b_jmp 1 e_System.FilePath_s</>
.export e_System.Directory_d\;76;51;15.16
.desc e_System.Directory_d\;76;51;15.16 _hnf l16 1 0 "\;76;51;15.16"
.o 2 0 
l16
.d 1 0 
	pop_a_jsr 1 ea16
.o 0 1 b
	buildB_b 0
.d 1 0 
	pop_b_rtn 1
.o 1 0 
ea16
.o 1 0 
s16
	buildh _Nil 0
	buildAC ".."
	buildh ARRAY 1
	buildh _Cons 2
	buildAC "."
	buildh ARRAY 1
	buildh _Cons 2
	buildh e_StdString_d==;2 0
	exchange_a 2 1
.d 3 0 
	jsr e_Data.List_selem
.o 0 1 b
	notB
.d 0 1 b
	rtn 
.export e_System.Directory_sscanDirectory
.descexp e_System.Directory_dscanDirectory e_System.Directory_nscanDirectory e_System.Directory_lscanDirectory 4 0 "scanDirectory"
.a 0 a3
.o 2 0 
e_System.Directory_lscanDirectory
	repl_args 3 3
.o 4 0 
a3
.d 4 0 
	jsr ea3
.o 3 0 
	push3_a 2
	buildh _Tuple 3
	updatepop_a 0 3
.d 1 0 
	rtn 
.n 4 e_System.Directory_dscanDirectory
.o 1 0 
e_System.Directory_nscanDirectory
	push_node _cycle_in_spine 4
.d 4 0 
	jsr ea3
.o 3 0 
	fillh _Tuple 3 3
.d 1 0 
	rtn 
.o 4 0 
ea3
	jsr_eval 3
	jsr_eval 2
	jsr_eval 1
	jsr_eval 0
	push_array 2
	put_a 3
.o 4 0 
e_System.Directory_sscanDirectory
.o 4 0 
s3
	buildh _Nil 0
	push_update_a 1 3
	updates3pop_a 0 1 3 4
.d 5 0 
	jmp s58
.export e_System.Directory_dscan;13.14
.desc e_System.Directory_dscan;13.14 _hnf l14 5 0 "scan;13.14"
.a 0 a14
.o 2 0 
l14
	repl_args 4 4
.o 5 0 
a14
.d 5 0 
	jsr ea14
.o 3 0 
	push3_a 2
	buildh _Tuple 3
	updatepop_a 0 3
.d 1 0 
	rtn 
.o 5 0 
ea14
	jsr_eval 4
	jsr_eval 1
	push_array 1
	put_a 2
.o 5 0 
s14
	push_a2 4 1
.d 2 0 
	buildh0_put_a_jsr _Nil 7 e_System.File_sgetFileInfo
.o 2 0 
.d 1 0 
	push_a_jsr 0 e_Data.Error_sisError
.o 0 1 b
	jmp_false else.7
	push_a 3
	buildh ARRAY 1
	push2_a 3
	push2_a 8
	push_a 5
	build e_System.Directory_d_c;48;21;70.20 6 e_System.Directory_n_c;48;21;70.20
	buildo1 n_S.3 0
	buildo1 n_S.2 1
	buildo1 n_S.1 2
	update3pop_a 0 8
.d 3 0 
	rtn 
else.7
.d 1 0 
	push_a_jsr 0 e_Data.Error_sfromOk
.o 1 0 
	repl_r_args 3 3
	updatepop_b 0 2
	pop_a 3
	jmp_true else.8
	push_a 3
	buildh ARRAY 1
	push2_a 3
	push2_a 8
	push_a 5
	build e_System.Directory_d_c;48;21;71.21 6 e_System.Directory_n_c;48;21;71.21
	buildo1 n_S.3 0
	buildo1 n_S.2 1
	buildo1 n_S.1 2
	update3pop_a 0 8
.d 3 0 
	rtn 
else.8
	push_a 0
	update_a 4 7
	updates3_a 3 4 5 1
	push_update_a 6 3
	updates2_a 0 3 4
.d 6 0 
	pop_a_jsr 1 s57
.o 3 0 
	push_a2 2 4
.d 2 0 
	buildh0_put_a_jsr _Nil 5 s7
.o 2 0 
.d 1 0 
	push_a_jsr 0 e_Data.Error_sisError
.o 0 1 b
	jmp_false else.9
	push_a2 2 0
	build e_Data.Error_dfromError 1 e_Data.Error_nfromError
	buildh _Cons 2
	update_a 2 7
	update_a 4 6
	updatepop_a 0 5
.d 3 0 
	rtn 
else.9
.d 1 0 
	jsr e_Data.Error_sfromOk
.o 1 0 
	create 
	push_a 7
	buildh ARRAY 1
	exchange_a 2 1
.d 3 0 
	buildh0_put_a_jsr _Nil 9 s13
.o 1 0 
	push_a 5
	buildh e_System.Directory_dscan;13.14 1
	update_a 2 7
	update2_a 3 5
	update2pop_a 0 3
.d 5 0 
	jmp s15
.export e_System.Directory_d_c;48;21;71.21
.export e_System.Directory_n_c;48;21;71.21
.descn e_System.Directory_d_c;48;21;71.21 e_System.Directory_n_c;48;21;71.21 6 0 "_c;48;21;71.21"
.n 6 e_System.Directory_d_c;48;21;71.21
.o 1 0 
e_System.Directory_n_c;48;21;71.21
	push_node _cycle_in_spine 6
.d 6 0 
	jsr ea21
.o 3 0 
	fillh _Tuple 3 3
.d 1 0 
	rtn 
.o 6 0 
ea21
.o 6 0 
s21
	jmp_ne_desc e_Data.Error_dError 1 0 case.11
	repl_args 1 1
	buildho2 _Cons 0 1
	update2_a 3 5
	updatepop_a 0 4
.d 3 0 
	rtn 
case.11
	repl_args 1 1
	push2_a 3
	push_a2 2 6
	jsr_eval 0
	update3_a 1 6
	dup_a 4
	exchange_a 9 5
	pop_a 4
	jsr_ap 4
	repl_args 2 2
	push_a 2
	update3pop_a 0 1
.d 3 0 
	jmp s12
.export e_System.Directory_d_c;48;21;70.20
.export e_System.Directory_n_c;48;21;70.20
.descn e_System.Directory_d_c;48;21;70.20 e_System.Directory_n_c;48;21;70.20 6 0 "_c;48;21;70.20"
.n 6 e_System.Directory_d_c;48;21;70.20
.o 1 0 
e_System.Directory_n_c;48;21;70.20
	push_node _cycle_in_spine 6
.d 6 0 
	jsr ea20
.o 3 0 
	fillh _Tuple 3 3
.d 1 0 
	rtn 
.o 6 0 
ea20
.o 6 0 
s20
	jmp_ne_desc e_Data.Error_dError 1 0 case.13
	repl_args 1 1
	buildho2 _Cons 0 1
	update2_a 3 5
	updatepop_a 0 4
.d 3 0 
	rtn 
case.13
	repl_args 1 1
	push2_a 3
	push_a2 2 6
	jsr_eval 0
	update3_a 1 6
	dup_a 4
	exchange_a 9 5
	pop_a 4
	jsr_ap 4
	repl_args 2 2
	push_a 2
	update3pop_a 0 1
.d 3 0 
	jmp s12
.o 5 0 
s15
	jmp_ne_desc _Nil 0 1 case.15
.d 3 0 
	pop_a_rtn 2
case.15
	push_args 1 2 2
	buildh _Nil 0
	push2_a 6
	push_a2 3 5
	updates2_a 11 4 8
	build e_System.Directory_d_f0.65 5 e_System.Directory_n_f0.65
	buildo1 n_S.3 0
	buildo1 n_S.2 1
	buildo1 n_S.1 2
	push_jsr_eval 5
	update4_a 0 8
.d 5 0 
	pop_a_jmp 7 s15
.export e_System.Directory_d_f0.65
.export e_System.Directory_n_f0.65
.descn e_System.Directory_d_f0.65 e_System.Directory_n_f0.65 5 0 "_f0.65"
.n 5 e_System.Directory_d_f0.65 ea65
.o 1 0 
e_System.Directory_n_f0.65
	push_node _cycle_in_spine 5
.o 6 0 
ea65
.o 6 0 
s65
	push3_a 4
	push_jsr_eval 3
	update3_a 1 6
	updatepop_a 0 4
	jsr_ap 4
.d 1 0 
	fill_a01_pop_rtn 
.export e_System.Directory_dc;56;30;12.13
.export e_System.Directory_nc;56;30;12.13
.descn e_System.Directory_dc;56;30;12.13 e_System.Directory_nc;56;30;12.13 2 0 "c;56;30;12.13"
.n 2 e_System.Directory_dc;56;30;12.13 ea13
.o 1 0 
e_System.Directory_nc;56;30;12.13
	push_node _cycle_in_spine 2
.o 3 0 
ea13
	jsr_eval 1
.o 3 0 
s13
	swap_a1 
s19
	jmp_ne_desc _Cons 2 0 case.17
	repl_args 2 2
	jsr_eval 0
	push_a 0
	push_array 0
	put_a 1
	buildAC "."
	swap_a1 
.d 2 0 
	jsr eqAC
.o 0 1 b
	jmp_true else.18
	buildAC ".."
	push_array 1
.d 2 0 
	jsr eqAC
.o 0 1 b
	jmp_true else.18
	push_a2 1 2
	build e_System.Directory_dc;56;30;12.13 2 e_System.Directory_nc;56;30;12.13
	push_a2 1 3
	build e_System.FilePath_d</> 2 e_System.FilePath_n</>
	fillh _Cons 2 5
.d 1 0 
	pop_a_rtn 3
else.18
	push_jsr_eval 1
	updates2_a 0 3 2
.d 3 0 
	pop_a_jmp 2 s13
case.17
	fillh _Nil 0 2
.d 1 0 
	pop_a_rtn 2
.o 3 0 
s12
.d 3 0 
	rtn 
.export e_System.Directory_d\;35;30;9.10
.desc e_System.Directory_d\;35;30;9.10 _hnf l10 2 0 "\;35;30;9.10"
.a 2 ea10
.o 2 0 
l10
	push_args 0 1 1
	update_a 2 1
	create 
	put_a 3
.o 3 0 
ea10
.o 3 0 
s10
	push2_a 1
	build e_System.FilePath_d</> 2 e_System.FilePath_n</>
	fillh e_System.Directory_drecursiveDelete 1 3
.d 1 0 
	pop_a_rtn 2
.export e_System.Directory_srecursiveDelete
.descexp e_System.Directory_drecursiveDelete e_System.Directory_nrecursiveDelete e_System.Directory_lrecursiveDelete 2 0 "recursiveDelete"
.a 0 a2
.o 2 0 
e_System.Directory_lrecursiveDelete
	repl_args 1 1
.o 2 0 
a2
.d 2 0 
	jsr ea2
.o 2 0 
	buildh _Tuple 2
.d 1 0 
	rtn 
.n 2 e_System.Directory_drecursiveDelete
.o 1 0 
e_System.Directory_nrecursiveDelete
	push_node _cycle_in_spine 2
.d 2 0 
	jsr ea2
.o 2 0 
	fillh _Tuple 2 2
.d 1 0 
	rtn 
.o 2 0 
ea2
	jsr_eval 1
	jsr_eval 0
	push_array 0
	put_a 1
.o 2 0 
e_System.Directory_srecursiveDelete
.o 2 0 
s2
	push_a2 0 1
	updates2_a 0 2 3
.d 2 0 
	pop_a_jsr 1 e_System.File_sgetFileInfo
.o 2 0 
.d 1 0 
	push_a_jsr 0 e_Data.Error_sisError
.o 0 1 b
	jmp_false else.20
	create 
	updates2_a 0 2 3
.d 2 0 
	pop_a_jsr 1 e_Data.Error_sliftError
.o 1 0 
.d 2 0 
	rtn 
else.20
.d 1 0 
	jsr e_Data.Error_sfromOk
.o 1 0 
	repl_r_args 3 3
	updatepop_b 0 2
	pop_a 3
	jmp_false else.21
.d 2 0 
	push_a_jsr 1 s7
.o 2 0 
.d 1 0 
	push_a_jsr 0 e_Data.Error_sisError
.o 0 1 b
	jmp_false else.22
	create 
	updates2_a 0 2 3
.d 2 0 
	pop_a_jsr 1 e_Data.Error_sliftError
.o 1 0 
.d 2 0 
	rtn 
else.22
.d 1 0 
	jsr e_Data.Error_sfromOk
.o 1 0 
	buildh e_System.Directory_d\;36;22;10.11 0
	create 
	push_a 1
	updates3pop_a 0 1 3 2
.d 3 0 
	jsr e_StdList_sfilter
.o 1 0 
	push_a 2
	buildh ARRAY 1
	buildh e_System.Directory_d\;35;30;9.10 1
.d 3 0 
	jsr e_Data.Func_smapSt
.o 2 0 
	buildh e_Data.Error_d<*>;16 0
	buildh e_Data.Error_dpure;15 0
	buildh e_Data.Error_dfmap;14 0
	buildhr e_Control.Applicative_rApplicative; 3 0
	buildh e_Data.Error_dbind;17 0
.d 3 0 
	jsr e_Control.Monad_ssequence
.o 1 0 
.d 1 0 
	push_a_jsr 0 e_Data.Error_sisError
.o 0 1 b
	jmp_false else.23
	push_jsr_eval 1
	create 
	push_a 2
	buildh0_dup3_a _Nil 4
.d 2 0 
	pop_a_jsr 1 e_Data.Error_sliftError
.o 1 0 
	update2pop_a 0 3
.d 2 0 
	rtn 
else.23
	push_jsr_eval 1
	updates2_a 0 3 2
.d 2 0 
	pop_a_jmp 2 s6
else.21
	swap_a1 
.d 2 0 
	jmp e_System.File_sdeleteFile
.export e_System.Directory_sremoveDirectory
.descexp e_System.Directory_dremoveDirectory e_System.Directory_nremoveDirectory e_System.Directory_lremoveDirectory 2 0 "removeDirectory"
.a 0 a6
.o 2 0 
e_System.Directory_lremoveDirectory
	repl_args 1 1
.o 2 0 
a6
.d 2 0 
	jsr ea6
.o 2 0 
	buildh _Tuple 2
.d 1 0 
	rtn 
.n 2 e_System.Directory_dremoveDirectory
.o 1 0 
e_System.Directory_nremoveDirectory
	push_node _cycle_in_spine 2
.d 2 0 
	jsr ea6
.o 2 0 
	fillh _Tuple 2 2
.d 1 0 
	rtn 
.o 2 0 
ea6
	jsr_eval 1
	jsr_eval 0
	push_array 0
	put_a 1
.o 2 0 
e_System.Directory_sremoveDirectory
.o 2 0 
s6
.d 2 0 
	jmp e_System._Directory_sremoveDirectory
.export e_System.Directory_d\;36;22;10.11
.desc e_System.Directory_d\;36;22;10.11 _hnf l11 1 0 "\;36;22;10.11"
.o 2 0 
l11
.d 1 0 
	pop_a_jsr 1 ea11
.o 0 1 b
	buildB_b 0
.d 1 0 
	pop_b_rtn 1
.o 1 0 
ea11
	jsr_eval 0
	push_array 0
	put_a 1
.o 1 0 
s11
	buildAC "."
.d 2 0 
	push_a_jsr 1 eqAC
.o 0 1 b
	jmp_true else.24
	buildAC ".."
	swap_a1 
.d 2 0 
	jsr eqAC
.o 0 1 b
	notB
.d 0 1 b
	rtn 
else.24
	pushB FALSE
.d 0 1 b
	pop_a_rtn 1
.export e_System.Directory_sreadDirectory
.descexp e_System.Directory_dreadDirectory e_System.Directory_nreadDirectory e_System.Directory_lreadDirectory 2 0 "readDirectory"
.a 0 a7
.o 2 0 
e_System.Directory_lreadDirectory
	repl_args 1 1
.o 2 0 
a7
.d 2 0 
	jsr ea7
.o 2 0 
	buildh _Tuple 2
.d 1 0 
	rtn 
.n 2 e_System.Directory_dreadDirectory
.o 1 0 
e_System.Directory_nreadDirectory
	push_node _cycle_in_spine 2
.d 2 0 
	jsr ea7
.o 2 0 
	fillh _Tuple 2 2
.d 1 0 
	rtn 
.o 2 0 
ea7
	jsr_eval 1
	jsr_eval 0
	push_array 0
	put_a 1
.o 2 0 
e_System.Directory_sreadDirectory
.o 2 0 
s7
.d 2 0 
	jmp e_System._Directory_sreadDirectory
.export e_System.Directory_sensureDirectoryExists
.descexp e_System.Directory_densureDirectoryExists e_System.Directory_nensureDirectoryExists e_System.Directory_lensureDirectoryExists 2 0 "ensureDirectoryExists"
.a 0 a1
.o 2 0 
e_System.Directory_lensureDirectoryExists
	repl_args 1 1
.o 2 0 
a1
.d 2 0 
	jsr ea1
.o 2 0 
	buildh _Tuple 2
.d 1 0 
	rtn 
.n 2 e_System.Directory_densureDirectoryExists
.o 1 0 
e_System.Directory_nensureDirectoryExists
	push_node _cycle_in_spine 2
.d 2 0 
	jsr ea1
.o 2 0 
	fillh _Tuple 2 2
.d 1 0 
	rtn 
.o 2 0 
ea1
	jsr_eval 1
	jsr_eval 0
	push_array 0
	put_a 1
.o 2 0 
e_System.Directory_sensureDirectoryExists
.o 2 0 
s1
.d 1 0 
	push_a_jsr 0 e_System.FilePath_stakeDirectory
.o 1 0 
	exchange_a 2 1
.d 2 0 
	jsr s56
.o 2 0 
.d 1 0 
	push_a_jsr 0 e_Data.Error_sisError
.o 0 1 b
	jmp_false else.25
	push_jsr_eval 1
	dup_a 3
	updatepop_a 1 2
.d 2 0 
	rtn 
else.25
	push_jsr_eval 1
	dup_a 2
	updatepop_a 3 1
.d 2 0 
	jsr e_System.File_sfileExists
.o 1 1 b
	jmp_b_false 0 else.26
	buildh e__predef_d_Unit 0
	buildh e_Data.Error_dOk 1
	update2pop_a 0 1
.d 2 0 
	pop_b_rtn 1
else.26
	swap_a1 
.d 2 0 
	pop_b_jmp 1 s5
.export e_System.Directory_screateDirectory
.descexp e_System.Directory_dcreateDirectory e_System.Directory_ncreateDirectory e_System.Directory_lcreateDirectory 2 0 "createDirectory"
.a 0 a5
.o 2 0 
e_System.Directory_lcreateDirectory
	repl_args 1 1
.o 2 0 
a5
.d 2 0 
	jsr ea5
.o 2 0 
	buildh _Tuple 2
.d 1 0 
	rtn 
.n 2 e_System.Directory_dcreateDirectory
.o 1 0 
e_System.Directory_ncreateDirectory
	push_node _cycle_in_spine 2
.d 2 0 
	jsr ea5
.o 2 0 
	fillh _Tuple 2 2
.d 1 0 
	rtn 
.o 2 0 
ea5
	jsr_eval 1
	jsr_eval 0
	push_array 0
	put_a 1
.o 2 0 
e_System.Directory_screateDirectory
.o 2 0 
s5
.d 2 0 
	jmp e_System._Directory_screateDirectory
.o 2 0 
s56
	push_a 0
	eqAC_a ""
	jmp_false case.28
	buildh e__predef_d_Unit 0
	buildh e_Data.Error_dOk 1
	put_a 1
.d 2 0 
	rtn 
case.28
.d 2 0 
	jmp s1
.o 6 0 
s57
	jmp_ne_desc e_Data.Error_dError 1 0 case.30
	repl_args 1 1
	buildho2 _Cons 0 1
	update2_a 3 5
	updatepop_a 0 4
.d 3 0 
	rtn 
case.30
	repl_args 1 1
	push2_a 3
	push_a2 2 6
	jsr_eval 0
	push_a 9
	buildh ARRAY 1
	update_a 6 10
	update3_a 2 7
	dup_a 6
	updatepop_a 1 5
	jsr_ap 4
	repl_args 2 2
	jsr_eval 1
	push_a 2
	update3pop_a 0 1
.d 3 0 
	jmp s63
.o 5 0 
s58
	push_a2 4 1
.d 2 0 
	buildh0_put_a_jsr _Nil 7 e_System.File_sgetFileInfo
.o 2 0 
.d 1 0 
	push_a_jsr 0 e_Data.Error_sisError
.o 0 1 b
	jmp_false else.31
	updates3_a 2 5 3 6
	updates3pop_a 0 1 4 2
.d 6 0 
	jsr s62
.o 3 0 
.d 3 0 
	rtn 
else.31
.d 1 0 
	push_a_jsr 0 e_Data.Error_sfromOk
.o 1 0 
	repl_r_args 3 3
	updatepop_b 0 2
	pop_a 3
	jmp_true else.32
	updates3_a 2 5 3 6
	updates3pop_a 0 1 4 2
.d 6 0 
	jsr s61
.o 3 0 
.d 3 0 
	rtn 
else.32
	push_a 0
	update_a 4 7
	updates3_a 3 4 5 1
	push_update_a 6 3
	updates2_a 0 3 4
.d 6 0 
	pop_a_jsr 1 s57
.o 3 0 
	push_a2 2 4
.d 2 0 
	buildh0_put_a_jsr _Nil 5 s7
.o 2 0 
.d 1 0 
	push_a_jsr 0 e_Data.Error_sisError
.o 0 1 b
	jmp_false else.33
	push_jsr_eval 3
	push_a2 3 1
	build e_Data.Error_dfromError 1 e_Data.Error_nfromError
	buildh _Cons 2
	update_a 3 8
	update2pop_a 0 6
.d 3 0 
	rtn 
else.33
.d 1 0 
	jsr e_Data.Error_sfromOk
.o 1 0 
	create 
	push_a 7
	buildh ARRAY 1
	exchange_a 2 1
.d 3 0 
	buildh0_put_a_jsr _Nil 9 s13
.o 1 0 
	push_a 5
	buildh e_System.Directory_dscan;13.14 1
	update_a 2 7
	update2_a 3 5
	update2pop_a 0 3
.d 5 0 
	jmp s60
.o 4 0 
s59
	push_arraysize_a CHAR 0 1 2
	eqIi 0
	push_a 1
	updates3pop_a 0 1 3 2
.d 2 1 b
	jsr s23
.o 1 0 
	push_a2 2 0
.d 2 0 
	buildh0_put_a_jsr _Nil 5 e_System.File_sgetFileInfo
.o 2 0 
.d 1 0 
	push_a_jsr 0 e_Data.Error_sisError
.o 0 1 b
	jmp_false else.34
	buildh _Nil 0
	buildo1 e_Data.Error_nliftError 1
	push_a 4
	buildh ARRAY 1
	buildh _Tuple 2
	buildh e_Data.Tree_dRNode 2
	update_a 2 5
	updatepop_a 0 4
.d 2 0 
	rtn 
else.34
	push_jsr_eval 3
	pushI_a 4
	pop_a 1
	jmp_neIi 0 else.35
	buildh _Nil 0
	push_a2 1 3
	buildh ARRAY 1
	buildh _Tuple 2
	buildh e_Data.Tree_dRNode 2
	update_a 2 5
	updatepop_a 0 4
.d 2 0 
	rtn 
else.35
	push_a 0
	eq_desc e_Data.Error_dOk 1 0
	exit_false selector_m_error
	repl_args 1 1
	jsr_eval 0
	repl_r_args 3 3
	push_b 0
	jmp_true else.36
	buildh _Nil 0
	push_a2 4 6
	buildh ARRAY 1
	buildh _Tuple 2
	buildh e_Data.Tree_dRNode 2
	update_a 5 8
	updatepop_a 0 7
.d 2 0 
	pop_b_rtn 3
else.36
	push_a 3
.d 1 0 
	buildh0_put_a_jsr _Nil 5 e_Data.Error_sisError
.o 0 1 b
	jmp_false else.37
	update2_a 4 6
	pop_b 3
.d 2 0 
	pop_a_jsr 5 s7
.o 2 0 
	buildh _Nil 0
	buildo1 e_Data.Error_nliftError 1
	push_a 4
	buildh ARRAY 1
	buildh _Tuple 2
	buildh e_Data.Tree_dRNode 2
	updates2pop_a 0 2 3
.d 2 0 
	rtn 
else.37
	push_a2 4 5
.d 2 0 
	buildh0_put_a_jsr _Nil 7 s7
.o 2 0 
.d 1 0 
	jsr e_Data.Error_sfromOk
.o 1 0 
	buildh e_System.Directory_d\;76;51;15.16 0
	create 
	push_a 1
	updates3pop_a 0 1 3 2
.d 3 0 
	jsr e_StdList_sfilter
.o 1 0 
	buildo1 e_System.Directory_n_f2.67 8
	push_a 8
	buildh ARRAY 1
	swap_a1 
	buildh e_System.Directory_dscan;16.17 2
.d 3 0 
	buildh0_put_a_jsr _Nil 10 e_Data.Func_smapSt
.o 2 0 
	push_jsr_eval 1
	push_a 1
	build_r e_System.File_rFileInfo 3 3 4 0
	buildh e_Data.Error_dOk 1
	push_a 10
	buildh ARRAY 1
	buildh _Tuple 2
	buildh e_Data.Tree_dRNode 2
	update2pop_a 0 10
.d 2 0 
	pop_b_rtn 3
.export e_System.Directory_d_f2.67
.export e_System.Directory_n_f2.67
.descn e_System.Directory_d_f2.67 e_System.Directory_n_f2.67 1 0 "_f2.67"
.n 1 e_System.Directory_d_f2.67 ea67
.o 1 0 
e_System.Directory_n_f2.67
	push_node _cycle_in_spine 1
.o 2 0 
ea67
.o 2 0 
s67
	jsr_eval 0
	pushI 1
	pushI0_pop_a1 
	subI
	fillI_b 0 0
.d 1 0 
	pop_b_rtn 1
.o 5 0 
s60
	jmp_ne_desc _Nil 0 1 case.39
	push_jsr_eval 4
	push_jsr_eval 4
	push_jsr_eval 4
	update3pop_a 0 5
.d 3 0 
	rtn 
case.39
	push_args 1 2 2
	buildh _Nil 0
	push2_a 6
	push_a2 3 5
	updates2_a 11 4 8
	build e_System.Directory_d_f1.66 5 e_System.Directory_n_f1.66
	buildo1 n_S.3 0
	buildo1 n_S.2 1
	buildo1 n_S.1 2
	push_jsr_eval 5
	update4_a 0 8
.d 5 0 
	pop_a_jmp 7 s60
.export e_System.Directory_d_f1.66
.export e_System.Directory_n_f1.66
.descn e_System.Directory_d_f1.66 e_System.Directory_n_f1.66 5 0 "_f1.66"
.n 5 e_System.Directory_d_f1.66 ea66
.o 1 0 
e_System.Directory_n_f1.66
	push_node _cycle_in_spine 5
.o 6 0 
ea66
.o 6 0 
s66
	push3_a 4
	push_jsr_eval 3
	update3_a 1 6
	updatepop_a 0 4
	jsr_ap 4
.d 1 0 
	fill_a01_pop_rtn 
.o 6 0 
s61
	jmp_ne_desc e_Data.Error_dError 1 0 case.41
	repl_args 1 1
	buildho2 _Cons 0 1
	update2_a 3 5
	updatepop_a 0 4
.d 3 0 
	rtn 
case.41
	repl_args 1 1
	push2_a 3
	push_a2 2 7
	buildh ARRAY 1
	update_a 5 9
	update3_a 0 5
	updates2_a_pop_a 3 8 4 4
	jsr_ap 4
	repl_args 2 2
	jsr_eval 1
	jsr_eval 0
	push_a 2
	update3pop_a 0 1
.d 3 0 
	jmp s64
.o 6 0 
s62
	jmp_ne_desc e_Data.Error_dError 1 0 case.43
	repl_args 1 1
	buildho2 _Cons 0 1
	update2_a 3 5
	updatepop_a 0 4
.d 3 0 
	rtn 
case.43
	repl_args 1 1
	push2_a 3
	push_a2 2 7
	buildh ARRAY 1
	update_a 5 9
	update3_a 0 5
	updates2_a_pop_a 3 8 4 4
	jsr_ap 4
	repl_args 2 2
	jsr_eval 1
	jsr_eval 0
	push_a 2
	update3pop_a 0 1
.d 3 0 
	jmp s64
.o 3 0 
s63
.d 3 0 
	rtn 
.o 3 0 
s64
.d 3 0 
	rtn 
.impmod _system
.implab selector_m_error
