.comp 920 000111010010000
.start _nostart_
.depend "Data.Bifunctor" "20210613131543"
.depend "Data.Tuple" "20210613131543"
.depend "Text" "20210613131543"
.depend "Control.Monad.Trans" "20210613131543"
.depend "Data.Maybe" "20210613131543"
.depend "Control.Monad.Fail" "20210613131543"
.depend "Data.Traversable" "20210613131543"
.depend "StdFunc" "20210613131542"
.depend "Data.Foldable" "20210613131543"
.depend "StdOverloadedList" "20210613131542"
.depend "Data.List" "20210613131543"
.depend "Data.Func" "20210613131543"
.depend "StdGeneric" "20210613131542"
.depend "Data.GenEq" "20210613131543"
.depend "Data.Error" "20210613131543"
.depend "Data.Monoid" "20210613131543"
.depend "Data.Functor" "20210613131543"
.depend "Control.Monad" "20210613131543"
.depend "Control.Applicative" "20210613131543"
.depend "_SystemStrictMaybes" "20210613131542"
.depend "StdMaybe" "20210613131542"
.depend "_SystemEnumStrict" "20210613131542"
.depend "_SystemStrictLists" "20210613131542"
.depend "StdStrictLists" "20210613131542"
.depend "StdMisc" "20210613131542"
.depend "StdFunctions" "20210613131542"
.depend "StdOrdList" "20210613131542"
.depend "StdList" "20210613131542"
.depend "StdClass" "20210613131542"
.depend "StdString" "20210613131542"
.depend "_SystemArray" "20210613131542"
.depend "StdArray" "20210613131542"
.depend "StdChar" "20210613131542"
.depend "StdReal" "20210613131542"
.depend "StdInt" "20210613131542"
.depend "StdOverloaded" "20210613131542"
.depend "StdBool" "20210613131542"
.depend "System.Options" "20210613131543"
.module m_System.Options "System.Options" "20210613131543"
.endinfo
.impmod _system
.implab _cycle_in_spine
.implab _type_error
.implab _hnf
.impdesc e_system_dind
.implab e_system_nind e_system_eaind
.impdesc e_system_dif
.implab e_system_nif e_system_eaif
.implab e_system_sif
.impdesc e_system_dAP
.implab e_system_nAP e_system_eaAP
.implab e_system_sAP
.impdesc ARRAY
.impdesc _Nil
.impdesc _Cons
.impdesc _Conss
.implab n_Conss ea_Conss
.impdesc _Consts
.implab n_Consts ea_Consts
.impdesc _Conssts
.implab n_Conssts ea_Conssts
.impdesc _Tuple
.impdesc d_S.1
.implab n_S.1 ea_S.1
.impdesc d_S.2
.implab n_S.2 ea_S.2
.impdesc d_S.3
.implab n_S.3 ea_S.3
.impdesc d_S.4
.implab n_S.4 ea_S.4
.impdesc d_S.5
.implab n_S.5 ea_S.5
.impdesc d_S.6
.implab n_S.6 ea_S.6
.implab _driver
.impmod Data.Tuple
.impdesc e_Data.Tuple_dappFst3
.impmod Text
.implab e_Text_sjoin;9
.implab e_Text_srpad;14
.impmod Data.Maybe
.implab e_Data.Maybe_sfmap;5
.impmod Data.List
.implab e_Data.List_sconcatMap
.implab e_Data.List_sfoldr1;103
.impmod Data.Error
.impdesc e_Data.Error_dfmap;14
.implab e_Data.Error_sfmap;14
.impmod StdMaybe
.impdesc e_StdMaybe_dcatMaybes;22
.implab e_StdMaybe_scatMaybes;22
.implab e_StdMaybe_ncatMaybes;22 e_StdMaybe_eacatMaybes;22
.impmod StdOrdList
.impdesc e_StdOrdList_dmaxList;15
.implab e_StdOrdList_nmaxList;15
.impmod StdList
.impdesc e_StdList_d++
.implab e_StdList_n++ e_StdList_ea++
.implab e_StdList_shd
.impdesc e_StdList_dmap
.implab e_StdList_smap
.implab e_StdList_nmap e_StdList_eamap
.implab e_StdList_sisMember
.implab e_StdList_slength;47
.implab e_StdList_ssum;72
.impmod StdString
.impdesc e_StdString_d==;2
.implab e_StdString_s==;2
.implab e_StdString_s+++;11
.impmod _SystemArray
.impdesc e__SystemArray_dsize;20
.impmod StdChar
.implab e_StdChar_s==;18
.impmod StdInt
.implab e_StdInt_s+;6
.implab e_StdInt_s-;7
.impmod StdBool
.implab e_StdBool_snot
.impmod Data.Error
.impdesc e_Data.Error_dError
.impdesc e_Data.Error_dOk
.impmod StdClass
.impdesc e_StdClass_rEq;
.impmod StdOverloaded
.impdesc e_StdOverloaded_r==;
.export e_System.Options_rOptParserState
.record e_System.Options_rOptParserState a 1 0 "OptParserState"
.descexp e_System.Options_tOptParserState e_System.Options_cOptParserState _hnf 1 1 "OptParserState"
.n 1 e_System.Options_tOptParserState
.o 1 0
e_System.Options_cOptParserState
	push_node _cycle_in_spine 1
	jsr_eval 0
.impmod System.Options
.impdesc e_System.Options_rOptParserState
	fill_r e_System.Options_rOptParserState 1 0 1 0 0
	pop_a 1
.d 1 0
	rtn
.export e_System.Options_dOptParserState.operands_state
.export e_System.Options_nOptParserState.operands_state
.export e_System.Options_eaOptParserState.operands_state
.descs e_System.Options_dOptParserState.operands_state e_System.Options_nOptParserState.operands_state _ 1 0 "OptParserState.operands_state"
.n -4 e_System.Options_dOptParserState.operands_state e_System.Options_eaOptParserState.operands_state
.o 1 0
e_System.Options_nOptParserState.operands_state
	push_node _cycle_in_spine 1
.o 2 0
e_System.Options_eaOptParserState.operands_state
	jsr_eval 0
	repl_r_args_a 1 0 1 1
	fill_a 0 1
	pop_a 1
.d 1 0
	rtn
.export e_System.Options_dNoOperandsSeenYet
.desc0 e_System.Options_dNoOperandsSeenYet 0 "NoOperandsSeenYet"
.export e_System.Options_dOnlyOperands
.desc0 e_System.Options_dOnlyOperands 1 "OnlyOperands"
.export e_System.Options_dOperandsIncludingHyphens
.desc0 e_System.Options_dOperandsIncludingHyphens 2 "OperandsIncludingHyphens"
.export e_System.Options_dOptParser
.desc e_System.Options_dOptParser _hnf _add_arg 1 0 "OptParser"
.export e_System.Options_dOptionHelpText
.desc e_System.Options_dOptionHelpText _hnf _add_arg 4 0 "OptionHelpText"
.export e_System.Options_dOperandHelpText
.desc e_System.Options_dOperandHelpText _hnf _add_arg 3 0 "OperandHelpText"
.export e_System.Options_eaShorthand
.descexp e_System.Options_dShorthand e_System.Options_nShorthand e_System.Options_lShorthand 4 0 "Shorthand"
.a 4 e_System.Options_eaShorthand
.o 2 0
e_System.Options_lShorthand
	push_args 0 3 3
	update_a 4 3
	create
	update_a 0 5
	pop_a 1
.d 5 0
	jmp e_System.Options_eaShorthand
.n 4 e_System.Options_dShorthand e_System.Options_eaShorthand
.o 1 0
e_System.Options_nShorthand
	push_node _cycle_in_spine 4
.o 5 0
e_System.Options_eaShorthand
	jsr_eval 0
	fill_r e_System.Options_kShorthand 4 0 4 0 0
	pop_a 4
.d 1 0
	rtn
.export e_System.Options_eaOptions
.descexp e_System.Options_dOptions e_System.Options_nOptions e_System.Options_lOptions 2 0 "Options"
.a 2 e_System.Options_eaOptions
.o 2 0
e_System.Options_lOptions
	push_args 0 1 1
	update_a 2 1
	create
	update_a 0 3
	pop_a 1
.d 3 0
	jmp e_System.Options_eaOptions
.n 2 e_System.Options_dOptions e_System.Options_eaOptions
.o 1 0
e_System.Options_nOptions
	push_node _cycle_in_spine 2
.o 3 0
e_System.Options_eaOptions
	jsr_eval 0
	fill_r e_System.Options_kOptions 2 0 2 0 0
	pop_a 2
.d 1 0
	rtn
.export e_System.Options_eaWithHelp
.descexp e_System.Options_dWithHelp e_System.Options_nWithHelp e_System.Options_lWithHelp 3 0 "WithHelp"
.a 3 e_System.Options_eaWithHelp
.o 2 0
e_System.Options_lWithHelp
	push_args 0 2 2
	update_a 3 2
	create
	update_a 0 4
	pop_a 1
.d 4 0
	jmp e_System.Options_eaWithHelp
.n 3 e_System.Options_dWithHelp e_System.Options_eaWithHelp
.o 1 0
e_System.Options_nWithHelp
	push_node _cycle_in_spine 3
.o 4 0
e_System.Options_eaWithHelp
	jsr_eval 0
	fill_r e_System.Options_kWithHelp 3 0 3 0 0
	pop_a 3
.d 1 0
	rtn
.export e_System.Options_eaBiject
.descexp e_System.Options_dBiject e_System.Options_nBiject e_System.Options_lBiject 4 0 "Biject"
.a 4 e_System.Options_eaBiject
.o 2 0
e_System.Options_lBiject
	push_args 0 3 3
	update_a 4 3
	create
	update_a 0 5
	pop_a 1
.d 5 0
	jmp e_System.Options_eaBiject
.n 4 e_System.Options_dBiject e_System.Options_eaBiject
.o 1 0
e_System.Options_nBiject
	push_node _cycle_in_spine 4
.o 5 0
e_System.Options_eaBiject
	jsr_eval 0
	fill_r e_System.Options_kBiject 4 0 4 0 0
	pop_a 4
.d 1 0
	rtn
.export e_System.Options_eaAddHelpLines
.descexp e_System.Options_dAddHelpLines e_System.Options_nAddHelpLines e_System.Options_lAddHelpLines 3 0 "AddHelpLines"
.a 3 e_System.Options_eaAddHelpLines
.o 2 0
e_System.Options_lAddHelpLines
	push_args 0 2 2
	update_a 3 2
	create
	update_a 0 4
	pop_a 1
.d 4 0
	jmp e_System.Options_eaAddHelpLines
.n 3 e_System.Options_dAddHelpLines e_System.Options_eaAddHelpLines
.o 1 0
e_System.Options_nAddHelpLines
	push_node _cycle_in_spine 3
.o 4 0
e_System.Options_eaAddHelpLines
	jsr_eval 0
	fill_r e_System.Options_kAddHelpLines 3 0 3 0 0
	pop_a 3
.d 1 0
	rtn
.export e_System.Options_dFlag
.desc e_System.Options_dFlag _hnf _add_arg 3 0 "Flag"
.export e_System.Options_dOption
.desc e_System.Options_dOption _hnf _add_arg 4 0 "Option"
.export e_System.Options_dOperand
.desc e_System.Options_dOperand _hnf _add_arg 4 0 "Operand"
.export e_System.Options_kShorthand
.record e_System.Options_kShorthand daaaa 4 0 "Shorthand"
.export e_System.Options_kOptions
.record e_System.Options_kOptions daa 2 0 "Options"
.export e_System.Options_kWithHelp
.record e_System.Options_kWithHelp daaa 3 0 "WithHelp"
.export e_System.Options_kBiject
.record e_System.Options_kBiject daaaa 4 0 "Biject"
.export e_System.Options_kAddHelpLines
.record e_System.Options_kAddHelpLines daaa 3 0 "AddHelpLines"
.export e_System.Options_rOptionDescription;
.record e_System.Options_rOptionDescription; aa 2 0 "OptionDescription;"
.descexp e_System.Options_tOptionDescription; e_System.Options_cOptionDescription; _hnf 2 1 "OptionDescription;"
.n 2 e_System.Options_tOptionDescription;
.o 1 0
e_System.Options_cOptionDescription;
	push_node _cycle_in_spine 2
	jsr_eval 1
	jsr_eval 0
.impdesc e_System.Options_rOptionDescription;
	fill_r e_System.Options_rOptionDescription; 2 0 2 0 0
	pop_a 2
.d 1 0
	rtn
.export e_System.Options_dOptionDescription;.helpText
.export e_System.Options_nOptionDescription;.helpText
.export e_System.Options_eaOptionDescription;.helpText
.descs e_System.Options_dOptionDescription;.helpText e_System.Options_nOptionDescription;.helpText _ 1 0 "OptionDescription;.helpText"
.n -4 e_System.Options_dOptionDescription;.helpText e_System.Options_eaOptionDescription;.helpText
.o 1 0
e_System.Options_nOptionDescription;.helpText
	push_node _cycle_in_spine 1
.o 2 0
e_System.Options_eaOptionDescription;.helpText
	jsr_eval 0
	repl_r_args_a 2 0 1 1
	fill_a 0 1
	pop_a 1
.d 1 0
	rtn
.export e_System.Options_dOptionDescription;.optParser
.export e_System.Options_nOptionDescription;.optParser
.export e_System.Options_eaOptionDescription;.optParser
.descs e_System.Options_dOptionDescription;.optParser e_System.Options_nOptionDescription;.optParser _ 2 0 "OptionDescription;.optParser"
.n -4 e_System.Options_dOptionDescription;.optParser e_System.Options_eaOptionDescription;.optParser
.o 1 0
e_System.Options_nOptionDescription;.optParser
	push_node _cycle_in_spine 1
.o 2 0
e_System.Options_eaOptionDescription;.optParser
	jsr_eval 0
	repl_r_args_a 2 0 2 1
	fill_a 0 1
	pop_a 1
.d 1 0
	rtn
.export e_System.Options_soptParser;4
.export e_System.Options_eaoptParser;4
.descexp e_System.Options_doptParser;4 e_System.Options_noptParser;4 e_System.Options_loptParser;4 1 0 "optParser;4"
.o 3 0
e_System.Options_ioptParser;4
	pop_a 1
.d 2 0
	jmp s5
.ai 1 _ e_System.Options_ioptParser;4
.o 2 0
e_System.Options_loptParser;4
	update_a 1 0
	create
	update_a 0 2
	pop_a 1
.d 2 0
	jmp e_System.Options_eaoptParser;4
.n 1 e_System.Options_doptParser;4 e_System.Options_eaoptParser;4
.o 1 0
e_System.Options_noptParser;4
	push_node _cycle_in_spine 1
.o 2 0
e_System.Options_eaoptParser;4
	jsr_eval 0
.o 2 0
e_System.Options_soptParser;4
.o 2 0
s5
	pushD_a 0
	jmpD be e_System.Options_dOption 4 case.1 case.2
	jmpD be e_System.Options_kShorthand 0 case.3 case.4
	jmpD be e_System.Options_kWithHelp 0 case.5 case.6
	eqD_b e_System.Options_kBiject 0
	jmp_true case.7
	jmp case.8
case.1
	pop_b 1
	repl_args 3 3
	update_a 1 2
	update_a 0 1
	pop_a 1
	push_a 0
	push_a 2
	buildh d11 2
	fillh e_System.Options_dOptParser 1 3
	pop_a 2
.d 1 0
	rtn
case.2
	pop_b 1
	repl_args 4 4
	update_a 1 3
	update_a 0 2
	pop_a 2
	push_a 0
	push_a 2
	buildh d13 2
	fillh e_System.Options_dOptParser 1 3
	pop_a 2
.d 1 0
	rtn
case.3
	pop_b 1
	repl_args 4 4
	update_a 1 3
	update_a 0 2
	pop_a 2
	push_a 0
	push_a 2
	buildh d21 2
	fillh e_System.Options_dOptParser 1 3
	pop_a 2
.d 1 0
	rtn
case.4
	pop_b 1
	repl_args 4 4
	push_a 3
	push_a 2
	push_a 4
	push_a 3
	buildh d14 4
	fillh e_System.Options_dOptParser 1 5
	pop_a 4
.d 1 0
	rtn
case.5
	pop_b 1
	repl_args 2 2
	push_r_args_a 0 2 0 2 1
	push_a 2
	push_a 1
	update_a 1 2
	update_a 0 1
	pop_a 1
	build e_StdList_dmap 2 e_StdList_nmap
	build _ 1 n16
	buildh d23 1
	fillh e_System.Options_dOptParser 1 3
	pop_a 2
.d 1 0
	rtn
case.6
	pop_b 1
	push_args 0 3 3
	push_a 2
	push_a 2
	push_a 5
	push_a 3
	buildh d22 4
	fillh e_System.Options_dOptParser 1 5
	pop_a 4
.d 1 0
	rtn
case.7
	pop_b 1
	repl_args 4 4
	push_r_args_a 0 2 0 2 1
	push_a 4
	push_a 1
	update_a 1 2
	update_a 0 1
	pop_a 1
	build e_system_dAP 2 e_system_nAP
	build d_S.1 -1 n_S.1
	push_a 2
	push_a 4
	buildh d24 3
	fillh e_System.Options_dOptParser 1 5
	pop_a 4
.d 1 0
	rtn
case.8
	pop_b 1
	repl_args 3 3
	update_a 0 1
	pop_a 1
	push_a 1
	jsr_eval 0
	push_r_args_a 1 2 0 2 1
	update_a 1 3
	updatepop_a 0 2
.d 3 0
	jmp_i 1
.desc d11 _hnf l11 5 0 "<lambda>[line:63];42;11"
.a 5 ea11
.o 2 0
l11
	push_args 0 4 4
	update_a 5 4
	create
	update_a 0 6
	pop_a 1
.o 6 0
ea11
	jsr_eval 2
.o 6 0
s11
	push_a 4
	push_a 1
	push_a 5
	push_a 4
	push_a 6
	update_a 4 9
	update_a 3 8
	update_a 2 7
	update_a 1 6
	updatepop_a 0 5
.d 6 0
	jmp s44
.o 6 0
s44
	eq_desc _Cons 2 0
	jmp_true case.9
	jmp case.10
case.9
	repl_args 2 2
	push_a 2
	jsr_eval 0
	push_array 0
	updatepop_a 0 1
	push_a 1
	jsr_eval 0
	push_array 0
	updatepop_a 0 1
	update_a 1 2
	updatepop_a 0 1
.d 2 0
	jsr eqAC
.o 0 1 b
	jmp_false else.11
	jsr_eval 2
	push_r_args_a 2 1 0 1 1
	push_a 2
	push_a 6
	push_a 6
	push_a 4
	push_a 7
	push_a 5
	update_a 5 6
	update_a 4 5
	update_a 3 4
	update_a 2 3
	update_a 1 2
	update_a 0 1
	pop_a 1
	update_a 5 10
	update_a 4 9
	update_a 3 8
	update_a 2 7
	update_a 1 6
	updatepop_a 0 5
.d 7 0
	jmp s43
else.11
	jmp case.10
case.10
	fillh _None 0 5
	pop_a 5
.d 1 0
	rtn
.o 7 0
s43
	eq_desc e_System.Options_dNoOperandsSeenYet 0 0
	jmp_true case.12
	jmp case.13
case.12
	push_a 3
	jsr_eval 0
	push_a 5
	push_a 1
	update_a 1 2
	update_a 0 1
	pop_a 1
	update_a 4 7
	update_a 3 6
	update_a 1 5
	updatepop_a 0 4
	jsr_ap 1
	push_a 2
	push_a 2
	buildh d10 2
	create
	push_a 2
	update_a 1 3
	update_a 2 1
	update_a 0 2
	pop_a 1
	update_a 2 4
	update_a 1 3
	updatepop_a 0 2
.d 3 0
	jsr e_Data.Error_sfmap;14
.o 1 0
	fillh _Just 1 1
.d 1 0
	rtn
case.13
	buildh _Nil 0
	push_a 6
	build _ 1 n105
	buildh _Cons 2
	buildh e_Data.Error_dError 1
	fillh _Just 1 7
	pop_a 6
.d 1 0
	rtn
.n 1 _ ea105
.o 1 0
n105
	push_node _cycle_in_spine 1
.o 2 0
ea105
.o 2 0
s105
	push_a 0
	jsr_eval 0
	push_array 0
	updatepop_a 0 1
	buildAC " not allowed after operands"
	push_a 1
	update_a 1 2
	update_a 0 1
	pop_a 1
	update_a 1 2
	updatepop_a 0 1
.d 2 0
	jsr catAC
.o 1 0
	buildAC "Flag "
.d 2 0
	jsr catAC
.o 1 0
	fillh ARRAY 1 1
.d 1 0
	rtn
.desc d10 _hnf l10 3 0 "<lambda>[line:65];43;10"
.a 0 a10
.o 2 0
l10
	repl_args 2 2
.o 3 0
a10
.o 3 0
ea10
	push_a 1
	push_a 1
	push_a 4
	update_a 2 5
	update_a 1 4
	updatepop_a 0 3
	push_a 2
	push_a 2
	push_a 2
	buildh _Tuple 3
	updatepop_a 0 3
.d 1 0
	rtn
.desc d13 _hnf l13 5 0 "<lambda>[line:68];48;13"
.a 5 ea13
.o 2 0
l13
	push_args 0 4 4
	update_a 5 4
	create
	update_a 0 6
	pop_a 1
.o 6 0
ea13
	jsr_eval 2
.o 6 0
s13
	push_a 4
	push_a 1
	push_a 5
	push_a 4
	push_a 6
	update_a 4 9
	update_a 3 8
	update_a 2 7
	update_a 1 6
	updatepop_a 0 5
.d 6 0
	jmp s42
.o 6 0
s42
	eq_desc _Cons 2 0
	jmp_true case.14
	jmp case.15
case.14
	repl_args 2 2
	push_a 2
	jsr_eval 0
	push_array 0
	updatepop_a 0 1
	push_a 1
	jsr_eval 0
	push_array 0
	updatepop_a 0 1
	update_a 1 2
	updatepop_a 0 1
.d 2 0
	jsr eqAC
.o 0 1 b
	jmp_false else.16
	jsr_eval 2
	push_r_args_a 2 1 0 1 1
	push_a 2
	push_a 6
	push_a 6
	push_a 6
	push_a 5
	push_a 5
	update_a 5 6
	update_a 4 5
	update_a 3 4
	update_a 2 3
	update_a 1 2
	update_a 0 1
	pop_a 1
	update_a 5 10
	update_a 4 9
	update_a 3 8
	update_a 2 7
	update_a 1 6
	updatepop_a 0 5
.d 7 0
	jmp s41
else.16
	jmp case.15
case.15
	fillh _None 0 5
	pop_a 5
.d 1 0
	rtn
.o 7 0
s41
	eq_desc e_System.Options_dNoOperandsSeenYet 0 0
	jmp_true case.17
	jmp case.18
case.17
	push_a 1
	jsr_eval 0
	push_a 6
	push_a 6
	push_a 6
	push_a 6
	push_a 4
	update_a 4 5
	update_a 3 4
	update_a 2 3
	update_a 1 2
	update_a 0 1
	pop_a 1
	update_a 4 10
	update_a 3 9
	update_a 2 8
	update_a 1 7
	updatepop_a 0 6
.d 6 0
	jmp s40
case.18
	buildh _Nil 0
	push_a 6
	build _ 1 n103
	buildh _Cons 2
	buildh e_Data.Error_dError 1
	fillh _Just 1 7
	pop_a 6
.d 1 0
	rtn
.n 1 _ ea103
.o 1 0
n103
	push_node _cycle_in_spine 1
.o 2 0
ea103
.o 2 0
s103
	push_a 0
	jsr_eval 0
	push_array 0
	updatepop_a 0 1
	buildAC " not allowed after operands"
	push_a 1
	update_a 1 2
	update_a 0 1
	pop_a 1
	update_a 1 2
	updatepop_a 0 1
.d 2 0
	jsr catAC
.o 1 0
	buildAC "Option "
.d 2 0
	jsr catAC
.o 1 0
	fillh ARRAY 1 1
.d 1 0
	rtn
.o 6 0
s40
	eq_desc _Cons 2 0
	jmp_true case.19
	jmp case.20
case.19
	repl_args 2 2
	push_a 4
	push_a 4
	jsr_eval 0
	push_a 2
	push_a 1
	update_a 1 2
	update_a 0 1
	pop_a 1
	update_a 5 8
	update_a 4 7
	update_a 2 6
	update_a 1 5
	updatepop_a 0 4
	jsr_ap 2
	push_a 1
	push_a 3
	buildh d12 2
	create
	push_a 2
	update_a 1 3
	update_a 2 1
	update_a 0 2
	pop_a 1
	update_a 2 4
	update_a 1 3
	updatepop_a 0 2
.d 3 0
	jsr e_Data.Error_sfmap;14
.o 1 0
	fillh _Just 1 1
.d 1 0
	rtn
case.20
	buildh _Nil 0
	push_a 5
	build _ 1 n104
	buildh _Cons 2
	buildh e_Data.Error_dError 1
	fillh _Just 1 6
	pop_a 5
.d 1 0
	rtn
.n 1 _ ea104
.o 1 0
n104
	push_node _cycle_in_spine 1
.o 2 0
ea104
.o 2 0
s104
	push_a 0
	jsr_eval 0
	push_array 0
	updatepop_a 0 1
	buildAC "' requires an argument"
	push_a 1
	update_a 1 2
	update_a 0 1
	pop_a 1
	update_a 1 2
	updatepop_a 0 1
.d 2 0
	jsr catAC
.o 1 0
	buildAC "'"
.d 2 0
	jsr catAC
.o 1 0
	fillh ARRAY 1 1
.d 1 0
	rtn
.desc d12 _hnf l12 3 0 "<lambda>[line:71];40;12"
.a 0 a12
.o 2 0
l12
	repl_args 2 2
.o 3 0
a12
.o 3 0
ea12
	push_a 1
	push_a 1
	push_a 4
	update_a 2 5
	update_a 1 4
	updatepop_a 0 3
	push_a 2
	push_a 2
	push_a 2
	buildh _Tuple 3
	updatepop_a 0 3
.d 1 0
	rtn
.desc d21 _hnf l21 5 0 "<lambda>[line:75];60;78"
.a 5 ea21
.o 2 0
l21
	push_args 0 4 4
	update_a 5 4
	create
	update_a 0 6
	pop_a 1
.o 6 0
ea21
	jsr_eval 2
.o 6 0
s21
	push_a 4
	push_a 1
	push_a 5
	push_a 4
	push_a 6
	update_a 4 9
	update_a 3 8
	update_a 2 7
	update_a 1 6
	updatepop_a 0 5
.d 6 0
	jmp s39
.o 6 0
s39
	eq_desc _Cons 2 0
	jmp_true case.21
	jmp case.22
case.21
	repl_args 2 2
	push_a 0
	jsr_eval 0
	push_array 0
	updatepop_a 0 1
	pushI 0
	select CHAR 0 1
	pushC '-'
	push_b 1
	update_b 1 2
	update_b 0 1
	pop_b 1
	eqC
	jmp_false else.23
	push_a 2
	jsr_eval 0
	pushB_a 3
	pop_a 1
	notB
	jmp_false else.23
	jsr_eval 3
	push_r_args_a 3 1 0 1 1
	buildh _Nil 0
	update_a 0 4
	pop_a 1
	eq_desc e_System.Options_dOperandsIncludingHyphens 0 0
	pop_a 1
	notB
	jmp_false else.23
	fillh _None 0 6
	pop_a 6
.d 1 0
	rtn
else.23
	push_a 5
	push_a 5
	jsr_eval 0
	push_a 2
	push_a 1
	update_a 1 2
	update_a 0 1
	pop_a 1
	update_a 6 8
	update_a 4 7
	update_a 2 6
	update_a 1 5
	updatepop_a 0 4
	jsr_ap 2
	push_a 1
	push_a 3
	push_a 2
	update_a 2 3
	update_a 1 2
	update_a 0 1
	pop_a 1
	update_a 2 4
	update_a 1 3
	updatepop_a 0 2
.d 4 0
	jmp s38
case.22
	fillh _None 0 5
	pop_a 5
.d 1 0
	rtn
.o 4 0
s38
	eq_desc _None 0 0
	jmp_true case.26
	jmp case.27
case.26
	fillh _None 0 3
	pop_a 3
.d 1 0
	rtn
case.27
	repl_args 1 1
	eq_desc e_Data.Error_dError 1 0
	jmp_true case.28
	jmp case.29
case.28
	repl_args 1 1
	push_a 0
	buildh e_Data.Error_dError 1
	fillh _Just 1 4
	pop_a 3
.d 1 0
	rtn
case.29
	repl_args 1 1
	push_a 1
	build e_System.Options_dOptParserState.operands_state -4 e_System.Options_nOptParserState.operands_state
	push_a 2
	push_a 1
	update_a 1 2
	update_a 0 1
	pop_a 1
	build _ 2 n37
	push_a 3
	push_a 2
	push_a 2
	update_a 2 3
	update_a 0 2
	pop_a 1
	buildh _Tuple 3
	buildh e_Data.Error_dOk 1
	fillh _Just 1 4
	pop_a 3
.d 1 0
	rtn
.n 2 _
.o 1 0
n37
	push_node _cycle_in_spine 2
.d 2 0
	jsr ea37
.o 1 0
	fill_r e_System.Options_rOptParserState 1 0 1 0 0
	pop_a 1
.d 1 0
	rtn
.o 2 0
ea37
	jsr_eval 1
	jsr_eval 0
	push_r_args 1 1 0
	update_a 0 2
	pop_a 1
.o 2 0
s37
	eq_desc e_System.Options_dNoOperandsSeenYet 0 0
	jmp_true case.30
	jmp case.31
case.30
	buildh e_System.Options_dOnlyOperands 0
	push_a 2
	update_a 1 0
	updatepop_a 0 3
.d 1 0
	rtn
case.31
	pop_a 1
.d 1 0
	rtn
.desc d14 _hnf l14 7 0 "<lambda>[line:87];56;16"
.a 7 ea14
.o 2 0
l14
	push_args 0 6 6
	update_a 7 6
	create
	update_a 0 8
	pop_a 1
.o 8 0
ea14
	jsr_eval 3
	repl_r_args 2 0
.o 9 0
s14
	push_a 7
	push_a 7
	push_a 5
	push_a 5
	buildh d20 2
	push_a 8
	push_a 1
	update_a 1 2
	update_a 0 1
	pop_a 1
	build e_StdList_dmap 2 e_StdList_nmap
	create
	push_a 5
	push_a 9
	push_a 1
	update_a 1 2
	update_a 0 1
	pop_a 1
	buildh _Nil 0
	update_a 0 11
	update_a 0 7
	update_a 0 8
	update_a 0 12
	update_a 0 9
	update_a 0 10
	update_a 0 13
	update_a 0 14
	pop_a 1
.d 3 0
	jsr_i 1
.o 1 0
	repl_args 1 1
	jsr_eval 0
	update_a 3 11
	update_a 2 10
	update_a 1 9
	updatepop_a 0 8
	jsr_ap 3
	fill_a 0 1
	pop_a 1
.d 1 0
	rtn
.desc d20 _hnf l20 3 0 "<lambda>[line:89];18;77"
.a 0 a20
.o 2 0
l20
	repl_args 2 2
.o 3 0
a20
.d 3 0
	jsr ea20
.o 1 0
	buildh ARRAY 1
.d 1 0
	rtn
.o 3 0
ea20
	jsr_eval 2
	jsr_eval 1
	push_array 2
	push_array 2
	update_a 1 4
	update_a 0 3
	pop_a 2
.o 3 0
s20
	push_a 1
	push_a 3
	update_a 2 3
	update_a 1 2
	updatepop_a 0 1
.d 2 0
	jsr eqAC
.o 0 1 b
	jmp_false else.32
	jsr_eval 0
	updatepop_a 0 1
	push_array 0
	updatepop_a 0 1
.d 1 0
	rtn
else.32
	pop_a 1
.d 1 0
	rtn
.desc d23 _hnf l23 4 0 "<lambda>[line:90];40;82"
.a 4 ea23
.o 2 0
l23
	push_args 0 3 3
	update_a 4 3
	create
	update_a 0 5
	pop_a 1
.o 5 0
ea23
	jsr_eval 0
.o 5 0
s23
	create
	push_a 1
	push_a 5
	push_a 5
	push_a 5
	update_a 4 8
	update_a 3 7
	update_a 2 6
	update_a 1 5
	updatepop_a 0 4
.d 5 0
	jsr s15
.o 1 0
	create
	push_a 1
	update_a 1 2
	update_a 0 1
	pop_a 1
.d 2 0
	jsr e_StdMaybe_scatMaybes;22
.o 1 0
.d 2 0
	jmp s35
.o 2 0
s35
	eq_desc _Nil 0 0
	jmp_true case.33
	jmp case.34
case.33
	fillh _None 0 1
	pop_a 1
.d 1 0
	rtn
case.34
	buildh d18 0
	push_a 1
	push_a 1
	update_a 1 2
	update_a 0 1
	pop_a 1
	update_a 1 2
	updatepop_a 0 1
.d 2 0
	jsr e_Data.List_sfoldr1;103
.o 1 0
	fillh _Just 1 1
.d 1 0
	rtn
.desc d18 _hnf l18 2 0 "<|>;23"
.o 3 0
i18
	pop_a 1
	create
	push_a 2
	update_a 1 3
	update_a 2 1
	update_a 0 2
	pop_a 1
.d 3 0
	jmp s18
.ai 2 ea18 i18
.o 2 0
l18
	push_args 0 1 1
	update_a 2 1
	create
	update_a 0 3
	pop_a 1
.o 3 0
ea18
	jsr_eval 0
.o 3 0
s18
	eq_desc e_Data.Error_dOk 1 0
	jmp_true case.35
	jmp case.36
case.35
	push_args 0 1 1
	pop_a 1
	fill_a 0 2
	pop_a 2
.d 1 0
	rtn
case.36
	repl_args 1 1
	jsr_eval 1
	eq_desc e_Data.Error_dError 1 1
	jmp_true case.37
	jmp case.38
case.37
	push_args 1 1 1
	buildh _Nil 0
	update_a 0 3
	pop_a 1
	pop_a 1
	push_a 0
	fillh e_Data.Error_dError 1 3
	pop_a 2
.d 1 0
	rtn
case.38
	fill_a 1 2
	pop_a 2
.d 1 0
	rtn
.n 4 _ ea15
.o 1 0
n15
	push_node _cycle_in_spine 4
.o 5 0
ea15
	jsr_eval 3
.o 5 0
s15
	push_a 2
	push_a 2
	push_a 2
	push_a 6
	update_a 3 7
	update_a 2 6
	update_a 1 5
	updatepop_a 0 4
.d 5 0
	jmp s34
.o 5 0
s34
	eq_desc _Cons 2 0
	jmp_true case.39
	jmp case.40
case.39
	repl_args 2 2
	push_a 1
	push_a 5
	push_a 5
	push_a 5
	build _ 4 n15
	push_a 5
	push_a 5
	push_a 5
	push_a 4
	build _ 4 n102
	fillh _Cons 2 7
	pop_a 5
.d 1 0
	rtn
case.40
	fillh _Nil 0 4
	pop_a 4
.d 1 0
	rtn
.n 4 _ ea102
.o 1 0
n102
	push_node _cycle_in_spine 4
.o 5 0
ea102
.o 5 0
s102
	push_a 3
	push_a 3
	push_a 2
	jsr_eval 0
	push_a 4
	push_a 1
	update_a 1 2
	update_a 0 1
	pop_a 1
	update_a 3 7
	update_a 2 6
	update_a 1 5
	updatepop_a 0 4
	jsr_ap 3
	fill_a 0 1
	pop_a 1
.d 1 0
	rtn
.n 1 _ ea16
.o 1 0
n16
	push_node _cycle_in_spine 1
.o 2 0
ea16
	jsr_eval 0
.o 2 0
s16
	push_a 0
	updatepop_a 0 1
.d 2 0
	jmp s33
.o 2 0
s33
	eq_desc _Cons 2 0
	jmp_true case.41
	jmp case.42
case.41
	repl_args 2 2
	push_a 0
	jsr_eval 0
	push_a 2
	push_a 1
	update_a 1 2
	update_a 0 1
	pop_a 1
	update_a 1 3
	updatepop_a 0 2
.d 3 0
	jmp s32
case.42
	fillh _Nil 0 1
	pop_a 1
.d 1 0
	rtn
.o 3 0
s32
	jmp case.43
case.43
	repl_args 1 1
	push_a 1
	build _ 1 n16
	push_a 1
	fillh _Cons 2 4
	pop_a 2
.d 1 0
	rtn
case.44
	push_a 1
	jsr_eval 0
	updatepop_a 0 2
.d 2 0
	jmp s16
.desc d22 _hnf l22 7 0 "<lambda>[line:95];50;80"
.a 7 ea22
.o 2 0
l22
	push_args 0 6 6
	update_a 7 6
	create
	update_a 0 8
	pop_a 1
.o 8 0
ea22
	jsr_eval 4
	repl_r_args 2 0
.o 9 0
s22
	push_a 7
	push_a 7
	push_a 6
	push_a 4
	push_a 4
	push_a 7
	push_a 9
	push_a 12
	update_a 7 15
	update_a 6 14
	update_a 5 13
	update_a 4 12
	update_a 3 11
	update_a 2 10
	update_a 1 9
	updatepop_a 0 8
.d 9 0
	jmp s31
.o 9 0
s31
	eq_desc _Cons 2 0
	jmp_true case.45
	jmp case.46
case.45
	push_args 0 2 2
	update_a 0 1
	pop_a 1
	push_a 2
	build _ 1 n30
	buildAC "--help"
	buildh ARRAY 1
	buildh _Cons 2
	buildh e_StdString_d==;2 0
	push_a 2
	push_a 1
	update_a 1 2
	update_a 0 1
	pop_a 1
	update_a 2 3
	update_a 1 2
	updatepop_a 0 1
	buildh _Nil 0
	update_a 0 5
	pop_a 1
.d 3 0
	jsr e_StdList_sisMember
.o 0 1 b
	jmp_false else.47
	buildh _Nil 0
	push_a 3
	build e_System.Options_dhelpText;3 1 e_System.Options_nhelpText;3
	build e_System.Options_dcleanupHelpText 1 e_System.Options_ncleanupHelpText
	build e_System.Options_dshowHelpText 1 e_System.Options_nshowHelpText
	buildh _Cons 2
	buildh e_Data.Error_dError 1
	fillh _Just 1 9
	pop_a 8
.d 1 0
	rtn
else.47
	jmp case.46
case.46
	push_a 7
	push_a 7
	create
	push_a 8
	jsr_eval 0
	push_a 8
	buildh _Nil 0
	update_a 0 9
	update_a 0 10
	update_a 0 11
	update_a 0 12
	update_a 0 13
	update_a 0 8
	update_a 0 7
	pop_a 1
.d 3 0
	jsr_i 1
.o 1 0
	repl_args 1 1
	jsr_eval 0
	push_a 3
	push_a 1
	update_a 1 2
	update_a 0 1
	pop_a 1
	update_a 3 11
	update_a 2 10
	update_a 1 9
	updatepop_a 0 8
	jsr_ap 3
	fill_a 0 1
	pop_a 1
.d 1 0
	rtn
.n 1 _ ea30
.o 1 0
n30
	push_node _cycle_in_spine 1
.o 2 0
ea30
	jsr_eval 0
	pushB_a 0
	pop_a 1
.o 1 1 b
s30
	eqB_b TRUE 0
	jmp_true case.48
	jmp case.49
case.48
	buildh _Nil 0
	buildAC "-h"
	buildh ARRAY 1
	fillh _Cons 2 2
	pop_b 1
.d 1 0
	rtn
case.49
	fillh _Nil 0 0
	pop_b 1
.d 1 0
	rtn
.desc d24 _hnf l24 6 0 "<lambda>[line:99];47;83"
.a 6 ea24
.o 2 0
l24
	push_args 0 5 5
	update_a 6 5
	create
	update_a 0 7
	pop_a 1
.o 7 0
ea24
.o 7 0
s24
	push_a 5
	push_a 2
	build e_system_dAP 2 e_system_nAP
	push_a 5
	push_a 5
	push_a 5
	build _ 4 n101
	push_a 6
	push_a 2
	build e_system_dAP 2 e_system_nAP
	buildh e_Data.Tuple_dappFst3 1
	buildh e_Data.Error_dfmap;14 1
	update_a 1 7
	updatepop_a 0 6
.d 3 0
	jmp e_Data.Maybe_sfmap;5
.n 4 _ ea101
.o 1 0
n101
	push_node _cycle_in_spine 4
.o 5 0
ea101
.o 5 0
s101
	push_a 3
	push_a 3
	push_a 2
	jsr_eval 0
	push_a 4
	push_a 1
	update_a 1 2
	update_a 0 1
	pop_a 1
	update_a 3 7
	update_a 2 6
	update_a 1 5
	updatepop_a 0 4
	jsr_ap 3
	fill_a 0 1
	pop_a 1
.d 1 0
	rtn
.export e_System.Options_shelpText;3
.export e_System.Options_eahelpText;3
.descexp e_System.Options_dhelpText;3 e_System.Options_nhelpText;3 e_System.Options_lhelpText;3 1 0 "helpText;3"
.o 3 0
e_System.Options_ihelpText;3
	pop_a 1
.d 2 0
	jmp s4
.ai 1 _ e_System.Options_ihelpText;3
.o 2 0
e_System.Options_lhelpText;3
	update_a 1 0
	create
	update_a 0 2
	pop_a 1
.d 2 0
	jmp e_System.Options_eahelpText;3
.n 1 e_System.Options_dhelpText;3 e_System.Options_eahelpText;3
.o 1 0
e_System.Options_nhelpText;3
	push_node _cycle_in_spine 1
.o 2 0
e_System.Options_eahelpText;3
	jsr_eval 0
.o 2 0
e_System.Options_shelpText;3
.o 2 0
s4
	pushD_a 0
	jmpD be e_System.Options_dOption 4 case.50 case.51
	jmpD be e_System.Options_kShorthand 0 case.52 case.53
	jmpD be e_System.Options_kWithHelp 0 case.54 case.55
	eqD_b e_System.Options_kBiject 0
	jmp_true case.56
	jmp case.57
case.50
	pop_b 1
	repl_args 3 3
	update_a 0 1
	pop_a 1
	buildh _Nil 0
	buildh _Nil 0
	push_a 3
	buildh _Nil 0
	buildh _Nil 0
	push_a 5
	buildh _Cons 2
	buildh e_System.Options_dOptionHelpText 4
	fillh _Cons 2 4
	pop_a 2
.d 1 0
	rtn
case.51
	pop_b 1
	repl_args 4 4
	update_a 0 1
	pop_a 1
	buildh _Nil 0
	buildh _Nil 0
	push_a 4
	buildh _Nil 0
	push_a 5
	buildh _Cons 2
	buildh _Nil 0
	push_a 5
	buildh _Cons 2
	buildh e_System.Options_dOptionHelpText 4
	fillh _Cons 2 5
	pop_a 3
.d 1 0
	rtn
case.52
	pop_b 1
	repl_args 4 4
	pop_a 2
	buildh _Nil 0
	buildh _Nil 0
	push_a 3
	push_a 3
	buildh e_System.Options_dOperandHelpText 3
	fillh _Cons 2 4
	pop_a 2
.d 1 0
	rtn
case.53
	pop_b 1
	repl_args 4 4
	create
	push_a 4
	jsr_eval 0
	push_r_args_a 2 2 0 1 1
	update_a 2 3
	update_a 1 2
	updatepop_a 0 1
	buildh _Nil 0
	update_a 0 6
	pop_a 1
.d 3 0
	jsr_i 1
.o 1 0
	push_a 2
	push_a 2
	buildh d17 2
	update_a 1 4
	updatepop_a 0 3
.d 3 0
	jmp e_StdList_smap
case.54
	pop_b 1
	repl_args 2 2
	push_a 1
	jsr_eval 0
	push_r_args_a 1 2 0 1 1
	update_a 1 3
	updatepop_a 0 2
.d 3 0
	jmp e_Data.List_sconcatMap
case.55
	pop_b 1
	repl_args 3 3
	push_r_args_a 0 2 0 1 1
	push_a 3
	push_a 1
	update_a 1 2
	update_a 0 1
	pop_a 1
	build e_system_dAP 2 e_system_nAP
	buildh _Nil 0
	buildAC "Show this help text"
	buildh ARRAY 1
	buildh _Nil 0
	push_a 5
	build _ 1 n28
	buildAC "--help"
	buildh ARRAY 1
	buildh _Cons 2
	buildh e_System.Options_dOptionHelpText 4
	fillh _Cons 2 5
	pop_a 3
.d 1 0
	rtn
case.56
	pop_b 1
	repl_args 4 4
	update_a 0 2
	pop_a 2
	push_a 1
	jsr_eval 0
	push_r_args_a 1 2 0 1 1
	update_a 1 3
	updatepop_a 0 2
.d 3 0
	jmp_i 1
case.57
	pop_b 1
	repl_args 3 3
	create
	push_a 3
	jsr_eval 0
	push_r_args_a 2 2 0 1 1
	update_a 4 5
	update_a 2 4
	update_a 1 3
	updatepop_a 0 2
.d 3 0
	jsr_i 1
.o 1 0
	push_a 1
	push_a 1
	update_a 1 2
	update_a 0 1
	pop_a 1
	update_a 1 2
	updatepop_a 0 1
.d 3 0
	jmp s29
.o 3 0
s29
	eq_desc _Cons 2 0
	jmp_true case.58
	jmp case.59
case.58
	repl_args 2 2
	jsr_eval 0
	eq_desc e_System.Options_dOptionHelpText 4 0
	jmp_true case.60
	jmp case.61
case.60
	repl_args 4 4
	push_a 5
	push_a 4
	build e_StdList_d++ 2 e_StdList_n++
	push_a 3
	push_a 3
	push_a 3
	buildh e_System.Options_dOptionHelpText 4
	push_a 5
	push_a 1
	update_a 1 2
	update_a 0 1
	pop_a 1
	fillh _Cons 2 8
	pop_a 6
.d 1 0
	rtn
case.61
	repl_args 3 3
	push_a 4
	push_a 3
	build e_StdList_d++ 2 e_StdList_n++
	push_a 2
	push_a 2
	buildh e_System.Options_dOperandHelpText 3
	push_a 4
	push_a 1
	update_a 1 2
	update_a 0 1
	pop_a 1
	fillh _Cons 2 7
	pop_a 5
.d 1 0
	rtn
case.59
	fillh _Nil 0 2
	pop_a 2
.d 1 0
	rtn
.n 1 _ ea28
.o 1 0
n28
	push_node _cycle_in_spine 1
.o 2 0
ea28
	jsr_eval 0
	pushB_a 0
	pop_a 1
.o 1 1 b
s28
	eqB_b TRUE 0
	jmp_true case.62
	jmp case.63
case.62
	buildh _Nil 0
	buildAC "-h"
	buildh ARRAY 1
	fillh _Cons 2 2
	pop_b 1
.d 1 0
	rtn
case.63
	fillh _Nil 0 0
	pop_b 1
.d 1 0
	rtn
.desc d17 _hnf l17 3 0 "upd;22"
.a 3 ea17
.o 2 0
l17
	push_args 0 2 2
	update_a 3 2
	create
	update_a 0 4
	pop_a 1
.o 4 0
ea17
	jsr_eval 2
.o 4 0
s17
	eq_desc e_System.Options_dOptionHelpText 4 2
	jmp_true case.64
	jmp case.65
case.64
	push_args 2 4 4
	push_a 0
	jsr_eval 0
	buildh e_StdString_d==;2 0
	push_a 7
	push_a 1
	update_a 1 2
	update_a 0 1
	pop_a 1
	buildh _Nil 0
	update_a 0 9
	pop_a 1
.d 3 0
	jsr e_StdList_sisMember
.o 0 1 b
	jmp_false else.66
	buildh _Nil 0
	push_a 5
	buildh _Cons 2
	push_a 1
	build e_StdList_d++ 2 e_StdList_n++
	push_a 4
	push_a 4
	push_a 4
	push_a 3
	update_a 3 4
	update_a 2 3
	update_a 1 2
	update_a 0 1
	pop_a 1
	fillh e_System.Options_dOptionHelpText 4 11
	pop_a 7
.d 1 0
	rtn
else.66
	fill_a 6 7
	pop_a 7
.d 1 0
	rtn
case.65
	push_args 2 3 3
	pop_a 3
	fill_a 2 3
	pop_a 3
.d 1 0
	rtn
.export e_System.Options_scleanupHelpText
.export e_System.Options_eacleanupHelpText
.descexp e_System.Options_dcleanupHelpText e_System.Options_ncleanupHelpText e_System.Options_lcleanupHelpText 1 0 "cleanupHelpText"
.o 2 0
e_System.Options_lcleanupHelpText
	update_a 1 0
	create
	update_a 0 2
	pop_a 1
.d 2 0
	jmp e_System.Options_eacleanupHelpText
.n 1 e_System.Options_dcleanupHelpText e_System.Options_eacleanupHelpText
.o 1 0
e_System.Options_ncleanupHelpText
	push_node _cycle_in_spine 1
.o 2 0
e_System.Options_eacleanupHelpText
	jsr_eval 0
.o 2 0
e_System.Options_scleanupHelpText
.o 2 0
s3
	eq_desc _Cons 2 0
	jmp_true case.67
	jmp case.68
case.67
	repl_args 2 2
	jsr_eval 0
	eq_desc e_System.Options_dOptionHelpText 4 0
	jmp_true case.69
	jmp case.70
case.69
	push_args 0 4 4
	update_a 0 3
	pop_a 3
	push_a 0
	buildh d9 1
	push_a 3
	push_a 1
	update_a 1 2
	update_a 0 1
	pop_a 1
	build e_StdList_dmap 2 e_StdList_nmap
	build e_StdMaybe_dcatMaybes;22 1 e_StdMaybe_ncatMaybes;22
	build e_System.Options_dcleanupHelpText 1 e_System.Options_ncleanupHelpText
	push_a 2
	fillh _Cons 2 5
	pop_a 3
.d 1 0
	rtn
case.70
	push_args 0 3 3
	pop_a 3
	push_a 1
	build e_System.Options_dcleanupHelpText 1 e_System.Options_ncleanupHelpText
	push_a 1
	fillh _Cons 2 4
	pop_a 2
.d 1 0
	rtn
case.68
	fillh _Nil 0 1
	pop_a 1
.d 1 0
	rtn
.desc d9 _hnf l9 2 0 "cleanup;9"
.a 2 ea9
.o 2 0
l9
	push_args 0 1 1
	update_a 2 1
	create
	update_a 0 3
	pop_a 1
.o 3 0
ea9
	jsr_eval 1
.o 3 0
s9
	eq_desc e_System.Options_dOptionHelpText 4 1
	jmp_true case.71
	jmp case.72
case.71
	push_args 1 4 4
	buildh _Nil 0
	update_a 0 6
	pop_a 1
	push_a 0
	jsr_eval 0
	create
	push_a 6
	push_a 2
	update_a 2 3
	update_a 0 2
	pop_a 1
	update_a 2 3
	update_a 1 2
	updatepop_a 0 1
	buildh _Nil 0
	update_a 0 7
	pop_a 1
.d 3 0
	jsr s19
.o 1 0
	push_a 3
	push_a 3
	push_a 3
	push_a 3
	update_a 3 4
	update_a 2 3
	update_a 1 2
	update_a 0 1
	pop_a 1
	update_a 3 8
	update_a 2 7
	update_a 1 6
	updatepop_a 0 5
.d 5 0
	jmp s27
case.72
	push_a 1
	fillh _Just 1 3
	pop_a 2
.d 1 0
	rtn
.o 5 0
s27
	eq_desc _Nil 0 0
	jmp_true case.73
	jmp case.74
case.73
	fillh _None 0 4
	pop_a 4
.d 1 0
	rtn
case.74
	push_a 3
	push_a 3
	push_a 3
	push_a 3
	buildh e_System.Options_dOptionHelpText 4
	fillh _Just 1 5
	pop_a 4
.d 1 0
	rtn
.n 2 _ ea19
.o 1 0
n19
	push_node _cycle_in_spine 2
.o 3 0
ea19
	jsr_eval 1
.o 3 0
s19
	push_a 0
	push_a 2
	update_a 1 3
	updatepop_a 0 2
.d 3 0
	jmp s26
.o 3 0
s26
	eq_desc _Cons 2 0
	jmp_true case.75
	jmp case.76
case.75
	repl_args 2 2
	push_a 2
	jsr_eval 0
	buildh e_StdString_d==;2 0
	push_a 2
	push_a 1
	update_a 1 2
	update_a 0 1
	pop_a 1
.d 3 0
	jsr e_StdList_sisMember
.o 0 1 b
	notB
	jmp_false else.77
	push_a 1
	push_a 3
	build _ 2 n19
	push_a 1
	fillh _Cons 2 5
	pop_a 3
.d 1 0
	rtn
else.77
	push_a 1
	jsr_eval 0
	push_a 3
	update_a 1 4
	updatepop_a 0 3
.d 3 0
	jmp s19
case.76
	fillh _Nil 0 2
	pop_a 2
.d 1 0
	rtn
.export e_System.Options_sparseOptions
.export e_System.Options_eaparseOptions
.descexp e_System.Options_dparseOptions e_System.Options_nparseOptions e_System.Options_lparseOptions 4 0 "parseOptions"
.a 4 e_System.Options_eaparseOptions
.o 2 0
e_System.Options_lparseOptions
	push_args 0 3 3
	update_a 4 3
	create
	update_a 0 5
	pop_a 1
.d 5 0
	jmp e_System.Options_eaparseOptions
.n 4 e_System.Options_dparseOptions e_System.Options_eaparseOptions
.o 1 0
e_System.Options_nparseOptions
	push_node _cycle_in_spine 4
.o 5 0
e_System.Options_eaparseOptions
	jsr_eval 3
	jsr_eval 2
	jsr_eval 1
	jsr_eval 0
	repl_r_args 2 0
.o 6 0
e_System.Options_sparseOptions
.o 6 0
s2
	buildh e_System.Options_dNoOperandsSeenYet 0
	buildhr e_System.Options_rOptParserState 1 0
	push_a 2
	push_a 4
	push_a 1
	update_a 1 2
	update_a 0 1
	pop_a 1
	build e_system_dAP 2 e_system_nAP
	push_a 6
	push_a 6
	push_a 3
	update_a 2 4
	update_a 1 2
	update_a 3 1
	update_a 0 3
	pop_a 1
	update_a 3 8
	update_a 2 7
	update_a 1 6
	updatepop_a 0 5
.d 5 0
	jmp s8
.o 5 0
s8
	eq_desc _Nil 0 1
	jmp_true case.78
	jmp case.79
case.78
	push_a 3
	fillh e_Data.Error_dOk 1 5
	pop_a 4
.d 1 0
	rtn
case.79
	push_args 1 2 2
	jsr_eval 0
	push_array 0
	eqAC_a "--"
	jmp_true case.81
	pop_a 2
	jmp case.80
case.81
	buildh e_System.Options_dOperandsIncludingHyphens 0
	push_a 5
	build _ 2 n106
	push_a 2
	jsr_eval 0
	push_a 7
	push_a 5
	push_a 3
	update_a 2 4
	update_a 3 2
	update_a 0 3
	pop_a 1
	update_a 3 9
	update_a 2 8
	update_a 1 7
	updatepop_a 0 6
.d 5 0
	jmp s8
case.80
	jsr_eval 0
	push_args 0 1 1
	push_a 4
	push_a 4
	push_a 2
	jsr_eval 0
	push_a 5
	push_a 1
	update_a 1 2
	update_a 0 1
	pop_a 1
	update_a 6 8
	update_a 5 7
	update_a 3 6
	update_a 2 5
	update_a 1 4
	updatepop_a 0 3
	jsr_ap 3
	push_a 1
	push_a 3
	push_a 2
	update_a 2 3
	update_a 1 2
	update_a 0 1
	pop_a 1
	update_a 2 4
	update_a 1 3
	updatepop_a 0 2
.d 4 0
	jmp s25
.n 2 _
.o 1 0
n106
	push_node _cycle_in_spine 2
.o 2 0
ea106
	jsr_eval 1
	push_a 1
	push_a 1
	jsr_eval 0
	repl_r_args 1 0
	update_a 1 0
	fill_r e_System.Options_rOptParserState 1 0 4 0 0
	pop_a 4
.d 1 0
	rtn
.o 4 0
s25
	eq_desc _None 0 0
	jmp_true case.82
	jmp case.83
case.82
	buildh _Nil 0
	push_a 2
	build _ 1 n100
	buildh _Cons 2
	fillh e_Data.Error_dError 1 4
	pop_a 3
.d 1 0
	rtn
case.83
	repl_args 1 1
	eq_desc e_Data.Error_dError 1 0
	jmp_true case.84
	jmp case.85
case.84
	repl_args 1 1
	push_a 0
	fillh e_Data.Error_dError 1 4
	pop_a 3
.d 1 0
	rtn
case.85
	repl_args 1 1
	jsr_eval 0
	repl_args 3 3
	push_a 2
	jsr_eval 0
	push_a 1
	push_a 3
	push_a 7
	push_a 3
	update_a 3 4
	update_a 2 3
	update_a 0 2
	pop_a 1
	update_a 3 8
	update_a 2 7
	update_a 1 6
	updatepop_a 0 5
.d 5 0
	jmp s8
.n 1 _ ea100
.o 1 0
n100
	push_node _cycle_in_spine 1
.o 2 0
ea100
.o 2 0
s100
	push_a 0
	jsr_eval 0
	updatepop_a 0 1
.d 1 0
	jsr e_StdList_shd
.o 1 0
	push_array 0
	updatepop_a 0 1
	buildAC "'"
	push_a 1
	update_a 1 2
	update_a 0 1
	pop_a 1
.d 2 0
	jsr catAC
.o 1 0
	buildAC "Unknown option '"
.d 2 0
	jsr catAC
.o 1 0
	fillh ARRAY 1 1
.d 1 0
	rtn
.export e_System.Options_sshowHelpText
.descexp e_System.Options_dshowHelpText e_System.Options_nshowHelpText e_System.Options_lshowHelpText 1 0 "showHelpText"
.o 2 0
e_System.Options_lshowHelpText
	pop_a 1
.d 1 0
	jsr ea1
.o 1 0
	buildh ARRAY 1
.d 1 0
	rtn
.n 1 e_System.Options_dshowHelpText
.o 1 0
e_System.Options_nshowHelpText
	push_node _cycle_in_spine 1
.d 1 0
	jsr ea1
.o 1 0
	fillh ARRAY 1 1
.d 1 0
	rtn
.o 1 0
ea1
	jsr_eval 0
.o 1 0
e_System.Options_sshowHelpText
.o 1 0
s1
	buildh d6 0
	push_a 1
	push_a 1
	update_a 1 2
	update_a 0 1
	pop_a 1
	build e_StdList_dmap 2 e_StdList_nmap
	build e_StdOrdList_dmaxList;15 1 e_StdOrdList_nmaxList;15
	buildh d7 1
	create
	push_a 2
	push_a 2
	update_a 2 3
	update_a 1 2
	update_a 0 1
	pop_a 1
	update_a 2 3
	update_a 1 2
	updatepop_a 0 1
.d 3 0
	jsr e_StdList_smap
.o 1 0
	buildAC "\n"
.d 2 0
	jmp e_Text_sjoin;9
.desc d7 _hnf l7 2 0 "show;6"
.a 0 a7
.o 2 0
l7
	repl_args 1 1
.o 2 0
a7
.d 2 0
	jsr ea7
.o 1 0
	buildh ARRAY 1
.d 1 0
	rtn
.o 2 0
ea7
	jsr_eval 1
	jsr_eval 0
	pushI_a 0
	pop_a 1
.o 1 1 i
s7
	eq_desc e_System.Options_dOptionHelpText 4 0
	jmp_true case.86
	jmp case.87
case.86
	repl_args 4 4
	push_a 3
	push_a 3
	buildh _Cons 2
	buildAC "\n  "
	update_a 3 5
	update_a 2 4
	update_a 1 3
	updatepop_a 0 2
.d 2 0
	jsr e_Text_sjoin;9
.o 1 0
	pushI 2
	push_b 1
	addI
	push_a 2
	jsr_eval 0
	buildAC " "
	buildh _Nil 0
	update_a 0 5
	pop_a 1
.d 2 0
	jsr e_Text_sjoin;9
.o 1 0
	buildAC " "
.d 2 0
	jsr catAC
.o 1 0
	push_a 2
	jsr_eval 0
	buildAC "/"
	buildh _Nil 0
	update_a 0 5
	pop_a 1
.d 2 0
	jsr e_Text_sjoin;9
.o 1 0
.d 2 0
	jsr catAC
.o 1 0
	pushC ' '
	push_b 1
	update_b 1 2
	update_b 0 1
	pop_b 1
	update_b 1 2
	updatepop_b 0 1
.d 1 2 ic
	jsr e_Text_srpad;14
.o 1 0
	update_a 1 3
	updatepop_a 0 2
.d 2 0
	jsr catAC
.o 1 0
.d 1 0
	rtn
case.87
	repl_args 3 3
	push_a 2
	push_a 2
	buildh _Cons 2
	buildAC "\n  "
	update_a 2 4
	update_a 1 3
	updatepop_a 0 2
.d 2 0
	jsr e_Text_sjoin;9
.o 1 0
	pushI 2
	push_b 1
	addI
	push_a 1
	jsr_eval 0
	push_array 0
	updatepop_a 0 1
	pushC ' '
	push_b 1
	update_b 1 2
	update_b 0 1
	pop_b 1
	update_b 1 2
	updatepop_b 0 1
	buildh _Nil 0
	update_a 0 3
	pop_a 1
.d 1 2 ic
	jsr e_Text_srpad;14
.o 1 0
	update_a 1 2
	updatepop_a 0 1
.d 2 0
	jsr catAC
.o 1 0
.d 1 0
	rtn
.desc d6 _hnf l6 1 0 "leftWidth;5"
.o 2 0
l6
	pop_a 1
.d 1 0
	jsr ea6
.o 0 1 i
	buildI_b 0
	pop_b 1
.d 1 0
	rtn
.o 1 0
ea6
	jsr_eval 0
.o 1 0
s6
	eq_desc e_System.Options_dOptionHelpText 4 0
	jmp_true case.88
	jmp case.89
case.88
	repl_args 4 4
	update_a 1 3
	update_a 0 2
	pop_a 2
	push_a 1
	jsr_eval 0
.d 1 0
	jsr e_StdList_slength;47
.o 0 1 i
	buildh e__SystemArray_dsize;20 0
	create
	push_a 3
	push_a 2
	update_a 2 3
	update_a 1 2
	update_a 0 1
	pop_a 1
	update_a 3 4
	update_a 2 3
	update_a 1 2
	updatepop_a 0 1
.d 3 0
	jsr e_StdList_smap
.o 1 0
.d 1 0
	jsr e_StdList_ssum;72
.o 0 1 i
	push_a 0
	jsr_eval 0
.d 1 0
	jsr e_StdList_slength;47
.o 0 1 i
	buildh e__SystemArray_dsize;20 0
	create
	push_a 2
	push_a 2
	update_a 2 3
	update_a 1 2
	update_a 0 1
	pop_a 1
	update_a 2 3
	update_a 1 2
	updatepop_a 0 1
.d 3 0
	jsr e_StdList_smap
.o 1 0
.d 1 0
	jsr e_StdList_ssum;72
.o 0 1 i
	addI
	pushI 1
	push_b 1
	update_b 1 2
	update_b 0 1
	pop_b 1
	subI
	pushI 1
	push_b 1
	update_b 1 2
	update_b 0 1
	pop_b 1
	addI
	addI
	addI
	pushI 1
	push_b 1
	update_b 1 2
	update_b 0 1
	pop_b 1
	subI
.d 0 1 i
	rtn
case.89
	repl_args 3 3
	update_a 0 2
	pop_a 2
	push_a 0
	jsr_eval 0
	push_array 0
	updatepop_a 0 1
	updatepop_a 0 1
	push_arraysize CHAR 0 1
	pushI 1
	push_b 1
	update_b 1 2
	update_b 0 1
	pop_b 1
	addI
.d 0 1 i
	rtn
