.comp 920 000011110011000
.start _nostart_
.depend "StdCharList" "20210613143554"
.depend "_SystemArray" "20210613143554"
.depend "StdArray" "20210613143554"
.depend "StdEnv" "20210613143554"
.depend "_SystemEnum" "20210613143554"
.depend "StdEnum" "20210613143554"
.depend "StdTuple" "20210613143554"
.depend "StdOrdList" "20210613143554"
.depend "System._Signal" "20210613143555"
.depend "StdFile" "20210613143554"
.depend "System.OSError" "20210613143555"
.depend "StdString" "20210613143554"
.depend "StdMisc" "20210613143554"
.depend "StdFunctions" "20210613143554"
.depend "_SystemEnumStrict" "20210613143554"
.depend "_SystemStrictLists" "20210613143554"
.depend "StdStrictLists" "20210613143554"
.depend "StdGeneric" "20210613143554"
.depend "Data.GenEq" "20210613143554"
.depend "StdReal" "20210613143554"
.depend "StdChar" "20210613143554"
.depend "StdInt" "20210613143554"
.depend "StdBool" "20210613143554"
.depend "StdClass" "20210613143554"
.depend "StdList" "20210613143554"
.depend "Data.Monoid" "20210613143554"
.depend "Control.Applicative" "20210613143554"
.depend "Control.Monad" "20210613143554"
.depend "Data.Functor" "20210613143554"
.depend "Data.Error" "20210613143554"
.depend "StdOverloaded" "20210613143554"
.depend "_SystemDynamic" "20210613143554"
.depend "System.Signal" "20210613143555"
.impobj "systemsignal.o"
.module m_System.Signal "System.Signal" "20210613143555"
.endinfo
.impmod _system
.implab _cycle_in_spine
.implab _type_error
.implab _hnf
.impdesc e_system_dind
.implab e_system_nind e_system_eaind
.impdesc e_system_dif
.implab e_system_nif e_system_eaif
.implab e_system_sif
.impdesc e_system_dAP
.implab e_system_nAP e_system_eaAP
.implab e_system_sAP
.impdesc ARRAY
.impdesc _Nil
.impdesc _Cons
.impdesc _Conss
.implab n_Conss ea_Conss
.impdesc _Consts
.implab n_Consts ea_Consts
.impdesc _Conssts
.implab n_Conssts ea_Conssts
.impdesc _Tuple
.impdesc d_S.1
.implab n_S.1 ea_S.1
.impdesc d_S.2
.implab n_S.2 ea_S.2
.impdesc d_S.3
.implab n_S.3 ea_S.3
.impdesc d_S.4
.implab n_S.4 ea_S.4
.impdesc d_S.5
.implab n_S.5 ea_S.5
.impdesc d_S.6
.implab n_S.6 ea_S.6
.implab _driver
.impmod System.OSError
.implab e_System.OSError_sgetLastOSError
.impmod StdInt
.implab e_StdInt_s==;16
.impmod StdBool
.implab e_StdBool_snot
.impmod Data.Error
.impdesc e_Data.Error_dError
.impdesc e_Data.Error_dOk
.export e_System.Signal_sTD;SigHandler
.export e_System.Signal_eaTD;SigHandler
.descexp e_System.Signal_dTD;SigHandler e_System.Signal_nTD;SigHandler e_System.Signal_lTD;SigHandler 1 0 "TD;SigHandler"
.o 2 0 
e_System.Signal_lTD;SigHandler
	update_a 1 0
	create 
.d 2 0 
	put_a_jmp 2 e_System.Signal_eaTD;SigHandler
.n 1 e_System.Signal_dTD;SigHandler e_System.Signal_eaTD;SigHandler
.o 1 0 
e_System.Signal_nTD;SigHandler
	push_node _cycle_in_spine 1
.o 2 0 
e_System.Signal_eaTD;SigHandler
.o 2 0 
e_System.Signal_sTD;SigHandler
.o 2 0 
s4
	fillh _Nil 0 1
.d 1 0 
	pop_a_rtn 1
.export e_System.Signal_ssignalIgnore
.descexp e_System.Signal_dsignalIgnore e_System.Signal_nsignalIgnore e_System.Signal_lsignalIgnore 2 0 "signalIgnore"
.a 0 a3
.o 2 0 
e_System.Signal_lsignalIgnore
	repl_args 1 1
.o 2 0 
a3
.d 2 0 
	jsr ea3
.o 2 0 
	buildh _Tuple 2
.d 1 0 
	rtn 
.n 2 e_System.Signal_dsignalIgnore
.o 1 0 
e_System.Signal_nsignalIgnore
	push_node _cycle_in_spine 2
.d 2 0 
	jsr ea3
.o 2 0 
	fillh _Tuple 2 2
.d 1 0 
	rtn 
.o 2 0 
ea3
	jsr_eval 1
	jsr_eval 0
	pushI0_pop_a1 
.o 1 1 i
e_System.Signal_ssignalIgnore
.o 1 1 i
s3
.d 1 1 i
	jsr s7
.o 1 1 b
	push_ab 0 0
	jmp_false else.1
	put_a 1
.d 1 0 
	pop_b_jmp 1 e_System.OSError_sgetLastOSError
else.1
	buildh e__predef_d_Unit 0
	buildh e_Data.Error_dOk 1
	update2pop_a 0 1
.d 2 0 
	pop_b_rtn 1
.o 1 1 i
s7
	ccall signal_ignore "I:I:A"
.d 1 1 b
	rtn 
.export e_System.Signal_ssignalPoll
.descexp e_System.Signal_dsignalPoll e_System.Signal_nsignalPoll e_System.Signal_lsignalPoll 2 0 "signalPoll"
.a 0 a2
.o 2 0 
e_System.Signal_lsignalPoll
	repl_args 1 1
.o 2 0 
a2
.d 2 0 
	jsr ea2
.o 2 1 i
	push_a 1
	buildI_b 0
	push_a 2
	buildh _Tuple 3
	updatepop_a 0 2
.d 1 0 
	pop_b_rtn 1
.n 2 e_System.Signal_dsignalPoll
.o 1 0 
e_System.Signal_nsignalPoll
	push_node _cycle_in_spine 2
.d 2 0 
	jsr ea2
.o 2 1 i
	push_a 1
	buildI_b 0
	push_a 2
	fillh _Tuple 3 5
.d 1 0 
	pop_ab_rtn 2 1
.o 2 0 
e_System.Signal_ssignalPoll
	pushI0_pop_a1 
.d 1 1 i
	jsr s2
.o 2 1 i
	buildI_b 0
	swap_a1 
.d 3 0 
	pop_b_rtn 1
.o 2 0 
ea2
	jsr_eval 1
	jsr_eval 0
	pushI0_pop_a1 
.o 1 1 i
s2
.d 1 1 i
	jsr s6
.o 1 3 ibi
	jmp_eqI_b 0 0 else.2
	buildAC "Invalid handler"
	buildh ARRAY 1
	buildh e_Data.Error_dError 1
.d 2 1 i
	pop_b_rtn 2
else.2
	buildB_b 1
	buildh e_Data.Error_dOk 1
.d 2 1 i
	pop_b_rtn 2
.o 1 1 i
s6
	ccall signal_poll "I:VIII:A"
.d 1 3 ibi
	rtn 
.export e_System.Signal_ssignalInstall
.descexp e_System.Signal_dsignalInstall e_System.Signal_nsignalInstall e_System.Signal_lsignalInstall 2 0 "signalInstall"
.a 0 a1
.o 2 0 
e_System.Signal_lsignalInstall
	repl_args 1 1
.o 2 0 
a1
.d 2 0 
	jsr ea1
.o 2 0 
	buildh _Tuple 2
.d 1 0 
	rtn 
.n 2 e_System.Signal_dsignalInstall
.o 1 0 
e_System.Signal_nsignalInstall
	push_node _cycle_in_spine 2
.d 2 0 
	jsr ea1
.o 2 0 
	fillh _Tuple 2 2
.d 1 0 
	rtn 
.o 2 0 
ea1
	jsr_eval 1
	jsr_eval 0
	pushI0_pop_a1 
.o 1 1 i
e_System.Signal_ssignalInstall
.o 1 1 i
s1
.d 1 1 i
	jsr s5
.o 1 2 ii
	jmp_eqI_b 0 0 else.3
.d 1 0 
	pop_b_jmp 2 e_System.OSError_sgetLastOSError
else.3
	buildI_b 1
	buildh e_Data.Error_dOk 1
.d 2 0 
	pop_b_rtn 2
.o 1 1 i
s5
	ccall signal_install "I:VII:A"
.d 1 2 ii
	rtn 
