.comp 920 000011110011000
.start _nostart_
.depend "ABC.Interpreter.Util" "20210613144730"
.depend "ABC.Interpreter.Internal" "20210613144730"
.depend "graph_copy_with_names" "20210613144730"
.depend "graph_copy" "20210613144730"
.depend "_SystemArray" "20210613144732"
.depend "StdArray" "20210613144732"
.depend "StdOrdList" "20210613144732"
.depend "StdFile" "20210613144732"
.depend "symbols_in_program" "20210613144730"
.depend "StdString" "20210613144732"
.depend "StdMisc" "20210613144732"
.depend "_SystemStrictLists" "20210613144732"
.depend "StdReal" "20210613144732"
.depend "StdChar" "20210613144732"
.depend "StdInt" "20210613144732"
.depend "StdBool" "20210613144732"
.depend "StdClass" "20210613144732"
.depend "StdList" "20210613144732"
.depend "StdOverloaded" "20210613144732"
.depend "_SystemDynamic" "20210613144732"
.depend "ABC.Interpreter" "20210613144730"
.module m_ABC.Interpreter "ABC.Interpreter" "20210613144730"
.endinfo
.impmod _system
.implab _cycle_in_spine
.implab _type_error
.implab _hnf
.impdesc e_system_dind
.implab e_system_nind e_system_eaind
.impdesc e_system_dif
.implab e_system_nif e_system_eaif
.implab e_system_sif
.impdesc e_system_dAP
.implab e_system_nAP e_system_eaAP
.implab e_system_sAP
.impdesc ARRAY
.impdesc _Nil
.impdesc _Cons
.impdesc _Conss
.implab n_Conss ea_Conss
.impdesc _Consts
.implab n_Consts ea_Consts
.impdesc _Conssts
.implab n_Conssts ea_Conssts
.impdesc _Tuple
.impdesc d_S.1
.implab n_S.1 ea_S.1
.impdesc d_S.2
.implab n_S.2 ea_S.2
.impdesc d_S.3
.implab n_S.3 ea_S.3
.impdesc d_S.4
.implab n_S.4 ea_S.4
.impdesc d_S.5
.implab n_S.5 ea_S.5
.impdesc d_S.6
.implab n_S.6 ea_S.6
.implab _driver
.impmod ABC.Interpreter.Util
.implab e_ABC.Interpreter.Util_sensure_interpreter_init
.implab e_ABC.Interpreter.Util_sparse
.implab e_ABC.Interpreter.Util_sfree_to_false
.implab e_ABC.Interpreter.Util_screate_array_
.impmod ABC.Interpreter.Internal
.impdesc e_ABC.Interpreter.Internal_dinterpret
.implab e_ABC.Interpreter.Internal_ninterpret _
.impmod graph_copy_with_names
.implab e_graph_copy_with_names_scopy_to_string_with_names
.implab e_graph_copy_with_names_sreplace_desc_numbers_by_descs
.implab e_graph_copy_with_names_smake_symbol_name
.impmod graph_copy
.implab e_graph_copy_scopy_from_string
.impmod _SystemArray
.impdesc e__SystemArray_dselect;43
.implab e__SystemArray_nselect;43
.impdesc e__SystemArray_dusize;47
.implab e__SystemArray_nusize;47
.impdesc e__SystemArray_d_createArray;104
.impdesc e__SystemArray_dcreateArray;105
.impdesc e__SystemArray_dreplace;106
.impdesc e__SystemArray_dselect;107
.impdesc e__SystemArray_dsize;108
.impdesc e__SystemArray_dupdate;109
.impdesc e__SystemArray_duselect;110
.impdesc e__SystemArray_dusize;111
.impmod StdOrdList
.implab e_StdOrdList_ssortBy
.impmod StdFile
.implab e_StdFile_sfreadi
.implab e_StdFile_sfreads
.implab e_StdFile_sfposition
.implab e_StdFile_sfseek
.implab e_StdFile_sfclose;31
.implab e_StdFile_sfopen;32
.implab e_StdFile_saccFiles;35
.implab e_StdFile_s<<<;37
.implab e_StdFile_s<<<;39
.impmod symbols_in_program
.impdesc e_symbols_in_program_dread_symbols
.implab e_symbols_in_program_sget_symbol_value
.impmod StdString
.implab e_StdString_s==;2
.implab e_StdString_stoString;5
.implab e_StdString_s%;10
.implab e_StdString_s+++;11
.impmod StdMisc
.implab e_StdMisc_sabort
.impmod StdChar
.implab e_StdChar_s==;18
.implab e_StdChar_stoChar;21
.impmod StdInt
.implab e_StdInt_sbitand
.implab e_StdInt_s<<
.implab e_StdInt_s>>
.impdesc e_StdInt_d+;6
.implab e_StdInt_s+;6
.implab e_StdInt_n+;6
.impdesc e_StdInt_d-;7
.implab e_StdInt_s-;7
.implab e_StdInt_n-;7
.implab e_StdInt_s*;9
.impdesc e_StdInt_d/;10
.implab e_StdInt_s/;10
.implab e_StdInt_n/;10
.implab e_StdInt_sone;11
.implab e_StdInt_s==;16
.implab e_StdInt_s<;17
.implab e_StdInt_stoInt;20
.implab e_StdInt_srem;28
.impmod StdBool
.implab e_StdBool_snot
.impmod StdList
.implab e_StdList_ssum;72
.impmod graph_copy_with_names
.impdesc e_graph_copy_with_names_rDescInfo
.impdesc e_graph_copy_with_names_dDescInfo.di_name
.implab e_graph_copy_with_names_nDescInfo.di_name
.impmod _SystemArray
.impdesc e__SystemArray_rArray;
.impmod symbols_in_program
.impdesc e_symbols_in_program_rSymbol
.export e_ABC.Interpreter_rDeserializationSettings
.record e_ABC.Interpreter_rDeserializationSettings iib 0 3 "DeserializationSettings"
.descexp e_ABC.Interpreter_tDeserializationSettings e_ABC.Interpreter_cDeserializationSettings _hnf 3 1 "DeserializationSettings"
.n 3 e_ABC.Interpreter_tDeserializationSettings
.o 1 0 
e_ABC.Interpreter_cDeserializationSettings
	push_node _cycle_in_spine 3
	jsr_eval 2
	jsr_eval 1
	jsr_eval 0
	pushB_a 2
	pushI_a 1
	pushI_a 0
	pop_a 3
.impmod ABC.Interpreter
.impdesc e_ABC.Interpreter_rDeserializationSettings
	fill_r e_ABC.Interpreter_rDeserializationSettings 0 3 0 0 0
.d 1 0 
	pop_b_rtn 3
.export e_ABC.Interpreter_dDeserializationSettings.heap_size
.export e_ABC.Interpreter_nDeserializationSettings.heap_size
.descs e_ABC.Interpreter_dDeserializationSettings.heap_size e_ABC.Interpreter_nDeserializationSettings.heap_size INT 1 0 "DeserializationSettings.heap_size"
.n -3 e_ABC.Interpreter_dDeserializationSettings.heap_size
.o 1 0 
e_ABC.Interpreter_nDeserializationSettings.heap_size
	push_node _cycle_in_spine 1
	jsr_eval 0
	push_r_args_b 0 0 3 1 1
	pop_a 1
	fillI_b 0 0
.d 1 0 
	pop_b_rtn 1
.export e_ABC.Interpreter_dDeserializationSettings.stack_size
.export e_ABC.Interpreter_nDeserializationSettings.stack_size
.descs e_ABC.Interpreter_dDeserializationSettings.stack_size e_ABC.Interpreter_nDeserializationSettings.stack_size INT 3 0 "DeserializationSettings.stack_size"
.n -3 e_ABC.Interpreter_dDeserializationSettings.stack_size
.o 1 0 
e_ABC.Interpreter_nDeserializationSettings.stack_size
	push_node _cycle_in_spine 1
	jsr_eval 0
	push_r_args_b 0 0 3 2 1
	pop_a 1
	fillI_b 0 0
.d 1 0 
	pop_b_rtn 1
.export e_ABC.Interpreter_dDeserializationSettings.file_io
.export e_ABC.Interpreter_nDeserializationSettings.file_io
.descs e_ABC.Interpreter_dDeserializationSettings.file_io e_ABC.Interpreter_nDeserializationSettings.file_io BOOL 4 0 "DeserializationSettings.file_io"
.n -3 e_ABC.Interpreter_dDeserializationSettings.file_io
.o 1 0 
e_ABC.Interpreter_nDeserializationSettings.file_io
	push_node _cycle_in_spine 1
	jsr_eval 0
	push_r_args_b 0 0 3 3 1
	pop_a 1
	fillB_b 0 0
.d 1 0 
	pop_b_rtn 1
.export e_ABC.Interpreter_rSerializedGraph
.record e_ABC.Interpreter_rSerializedGraph aaaa 4 0 "SerializedGraph"
.descexp e_ABC.Interpreter_tSerializedGraph e_ABC.Interpreter_cSerializedGraph _hnf 4 1 "SerializedGraph"
.n 4 e_ABC.Interpreter_tSerializedGraph
.o 1 0 
e_ABC.Interpreter_cSerializedGraph
	push_node _cycle_in_spine 4
	jsr_eval 3
	jsr_eval 2
	jsr_eval 1
	jsr_eval 0
	push_array 3
	push_array 3
	push_array 3
	push_array 3
	update_a 3 7
	update3pop_a 0 4
.impdesc e_ABC.Interpreter_rSerializedGraph
	fill_r e_ABC.Interpreter_rSerializedGraph 4 0 4 0 0
.d 1 0 
	pop_a_rtn 4
.export e_ABC.Interpreter_rInterpretationEnvironment
.record e_ABC.Interpreter_rInterpretationEnvironment aia 2 1 "InterpretationEnvironment"
.export e_ABC.Interpreter_euInterpretationEnvironment
.descexp e_ABC.Interpreter_tInterpretationEnvironment e_ABC.Interpreter_cInterpretationEnvironment _hnf 3 1 "InterpretationEnvironment"
.n 3 e_ABC.Interpreter_tInterpretationEnvironment e_ABC.Interpreter_euInterpretationEnvironment
.o 1 0 
e_ABC.Interpreter_cInterpretationEnvironment
	push_node _cycle_in_spine 3
.o 4 0 
e_ABC.Interpreter_euInterpretationEnvironment
	jsr_eval 2
	jsr_eval 1
	jsr_eval 0
	push_array 2
	pushI_a 2
	dup_a 3
	updatepop_a 1 2
.impdesc e_ABC.Interpreter_rInterpretationEnvironment
	fill_r e_ABC.Interpreter_rInterpretationEnvironment 2 1 2 0 0
.d 1 0 
	pop_ab_rtn 2 1
.export e_ABC.Interpreter_eaDV_Ok
.descexp e_ABC.Interpreter_dDV_Ok e_ABC.Interpreter_nDV_Ok e_ABC.Interpreter_lDV_Ok 1 0 "DV_Ok"
.o 2 0 
e_ABC.Interpreter_lDV_Ok
	update_a 1 0
	create 
.d 2 0 
	put_a_jmp 2 e_ABC.Interpreter_eaDV_Ok
.n 1 e_ABC.Interpreter_dDV_Ok e_ABC.Interpreter_eaDV_Ok
.o 1 0 
e_ABC.Interpreter_nDV_Ok
	push_node _cycle_in_spine 1
.o 2 0 
e_ABC.Interpreter_eaDV_Ok
	jsr_eval 0
	fill_r e_ABC.Interpreter_kDV_Ok 1 0 1 0 0
.d 1 0 
	pop_a_rtn 1
.export e_ABC.Interpreter_dDV_ParseError
.desc e_ABC.Interpreter_dDV_ParseError _hnf _hnf 0 0 "DV_ParseError"
.export e_ABC.Interpreter_dDV_HeapFull
.desc e_ABC.Interpreter_dDV_HeapFull _hnf _hnf 0 0 "DV_HeapFull"
.export e_ABC.Interpreter_dDV_StackOverflow
.desc e_ABC.Interpreter_dDV_StackOverflow _hnf _hnf 0 0 "DV_StackOverflow"
.export e_ABC.Interpreter_dDV_FloatingPointException
.desc e_ABC.Interpreter_dDV_FloatingPointException _hnf _hnf 0 0 "DV_FloatingPointException"
.export e_ABC.Interpreter_dDV_Halt
.desc e_ABC.Interpreter_dDV_Halt _hnf _hnf 0 0 "DV_Halt"
.export e_ABC.Interpreter_dDV_IllegalInstruction
.desc e_ABC.Interpreter_dDV_IllegalInstruction _hnf _hnf 0 0 "DV_IllegalInstruction"
.export e_ABC.Interpreter_dDV_FileIOAttempted
.desc e_ABC.Interpreter_dDV_FileIOAttempted _hnf _hnf 0 0 "DV_FileIOAttempted"
.export e_ABC.Interpreter_dDV_HostHeapFull
.desc e_ABC.Interpreter_dDV_HostHeapFull _hnf _hnf 0 0 "DV_HostHeapFull"
.export e_ABC.Interpreter_kDV_Ok
.record e_ABC.Interpreter_kDV_Ok da 1 0 "DV_Ok"
.export e_ABC.Interpreter_rPrelinkedInterpretationEnvironment
.record e_ABC.Interpreter_rPrelinkedInterpretationEnvironment iaaaai 4 2 "PrelinkedInterpretationEnvironment"
.descexp e_ABC.Interpreter_tPrelinkedInterpretationEnvironment e_ABC.Interpreter_cPrelinkedInterpretationEnvironment _hnf 6 1 "PrelinkedInterpretationEnvironment"
.n 6 e_ABC.Interpreter_tPrelinkedInterpretationEnvironment
.o 1 0 
e_ABC.Interpreter_cPrelinkedInterpretationEnvironment
	push_node _cycle_in_spine 6
	jsr_eval 5
	jsr_eval 2
	jsr_eval 1
	jsr_eval 0
	pushI_a 5
	push_array 2
	push_array 2
	pushI_a 2
	update2_a 5 6
	update2pop_a 0 4
.impdesc e_ABC.Interpreter_rPrelinkedInterpretationEnvironment
	fill_r e_ABC.Interpreter_rPrelinkedInterpretationEnvironment 4 2 4 0 0
.d 1 0 
	pop_ab_rtn 4 2
.export e_ABC.Interpreter_dPrelinkedInterpretationEnvironment.pie_code_start
.export e_ABC.Interpreter_nPrelinkedInterpretationEnvironment.pie_code_start
.descs e_ABC.Interpreter_dPrelinkedInterpretationEnvironment.pie_code_start e_ABC.Interpreter_nPrelinkedInterpretationEnvironment.pie_code_start INT 6 0 "PrelinkedInterpretationEnvironment.pie_code_start"
.n -3 e_ABC.Interpreter_dPrelinkedInterpretationEnvironment.pie_code_start
.o 1 0 
e_ABC.Interpreter_nPrelinkedInterpretationEnvironment.pie_code_start
	push_node _cycle_in_spine 1
	jsr_eval 0
	push_r_args_b 0 4 2 1 1
	pop_a 1
	fillI_b 0 0
.d 1 0 
	pop_b_rtn 1
.export e_ABC.Interpreter_dPrelinkedInterpretationEnvironment.pie_symbols
.export e_ABC.Interpreter_nPrelinkedInterpretationEnvironment.pie_symbols
.desc e_ABC.Interpreter_dPrelinkedInterpretationEnvironment.pie_symbols e_ABC.Interpreter_nPrelinkedInterpretationEnvironment.pie_symbols _hnf 1 0 "PrelinkedInterpretationEnvironment.pie_symbols"
.n 1 e_ABC.Interpreter_dPrelinkedInterpretationEnvironment.pie_symbols
.o 1 0 
e_ABC.Interpreter_nPrelinkedInterpretationEnvironment.pie_symbols
	push_node _cycle_in_spine 1
	jsr_eval 0
	repl_r_args_a 4 2 1 1
	fillh ARRAY 1 1
.d 1 0 
	rtn 
.export e_ABC.Interpreter_dPrelinkedInterpretationEnvironment.pie_symbols_64
.export e_ABC.Interpreter_nPrelinkedInterpretationEnvironment.pie_symbols_64
.desc e_ABC.Interpreter_dPrelinkedInterpretationEnvironment.pie_symbols_64 e_ABC.Interpreter_nPrelinkedInterpretationEnvironment.pie_symbols_64 _hnf 1 0 "PrelinkedInterpretationEnvironment.pie_symbols_64"
.n 1 e_ABC.Interpreter_dPrelinkedInterpretationEnvironment.pie_symbols_64
.o 1 0 
e_ABC.Interpreter_nPrelinkedInterpretationEnvironment.pie_symbols_64
	push_node _cycle_in_spine 1
	jsr_eval 0
	repl_r_args_a 4 2 2 1
	fillh ARRAY 1 1
.d 1 0 
	rtn 
.export e_ABC.Interpreter_dPrelinkedInterpretationEnvironment.pie_sorted_symbols
.export e_ABC.Interpreter_nPrelinkedInterpretationEnvironment.pie_sorted_symbols
.descs e_ABC.Interpreter_dPrelinkedInterpretationEnvironment.pie_sorted_symbols e_ABC.Interpreter_nPrelinkedInterpretationEnvironment.pie_sorted_symbols _ 4 0 "PrelinkedInterpretationEnvironment.pie_sorted_symbols"
.n -4 e_ABC.Interpreter_dPrelinkedInterpretationEnvironment.pie_sorted_symbols
.o 1 0 
e_ABC.Interpreter_nPrelinkedInterpretationEnvironment.pie_sorted_symbols
	push_node _cycle_in_spine 1
	jsr_eval 0
	repl_r_args_a 4 2 3 1
	jsr_eval 0
.d 1 0 
	fill_a01_pop_rtn 
.export e_ABC.Interpreter_dPrelinkedInterpretationEnvironment.pie_host_symbols
.export e_ABC.Interpreter_nPrelinkedInterpretationEnvironment.pie_host_symbols
.descs e_ABC.Interpreter_dPrelinkedInterpretationEnvironment.pie_host_symbols e_ABC.Interpreter_nPrelinkedInterpretationEnvironment.pie_host_symbols _ 5 0 "PrelinkedInterpretationEnvironment.pie_host_symbols"
.n -4 e_ABC.Interpreter_dPrelinkedInterpretationEnvironment.pie_host_symbols
.o 1 0 
e_ABC.Interpreter_nPrelinkedInterpretationEnvironment.pie_host_symbols
	push_node _cycle_in_spine 1
	jsr_eval 0
	repl_r_args_a 4 2 4 1
	jsr_eval 0
.d 1 0 
	fill_a01_pop_rtn 
.export e_ABC.Interpreter_dPrelinkedInterpretationEnvironment.pie_symbol_offset
.export e_ABC.Interpreter_nPrelinkedInterpretationEnvironment.pie_symbol_offset
.descs e_ABC.Interpreter_dPrelinkedInterpretationEnvironment.pie_symbol_offset e_ABC.Interpreter_nPrelinkedInterpretationEnvironment.pie_symbol_offset INT 7 0 "PrelinkedInterpretationEnvironment.pie_symbol_offset"
.n -3 e_ABC.Interpreter_dPrelinkedInterpretationEnvironment.pie_symbol_offset
.o 1 0 
e_ABC.Interpreter_nPrelinkedInterpretationEnvironment.pie_symbol_offset
	push_node _cycle_in_spine 1
	jsr_eval 0
	push_r_args_b 0 4 2 2 1
	pop_a 1
	fillI_b 0 0
.d 1 0 
	pop_b_rtn 1
.export e_ABC.Interpreter_dFinalizer
.export e_ABC.Interpreter_nFinalizer
.descn e_ABC.Interpreter_dFinalizer e_ABC.Interpreter_nFinalizer 3 0 "Finalizer"
.a 3 ea175
.o 2 0 
l175
	push_args 0 2 2
	update_a 3 2
	create 
.d 4 0 
	put_a_jmp 4 ea175
.n 3 e_ABC.Interpreter_dFinalizer ea175
.o 1 0 
e_ABC.Interpreter_nFinalizer
	push_node _cycle_in_spine 3
.o 4 0 
ea175
	jsr_eval 2
	jsr_eval 1
	jsr_eval 0
	pushI_a 2
	pushI_a 1
	pushI_a 0
	pop_a 3
	fill_r e_ABC.Interpreter_kFinalizer 0 3 0 0 0
.d 1 0 
	pop_b_rtn 3
.export e_ABC.Interpreter_kFinalizer
.record e_ABC.Interpreter_kFinalizer diii 0 3 "Finalizer"
.export e_ABC.Interpreter_sTD;Pointer
.export e_ABC.Interpreter_eaTD;Pointer
.descexp e_ABC.Interpreter_dTD;Pointer e_ABC.Interpreter_nTD;Pointer e_ABC.Interpreter_lTD;Pointer 1 0 "TD;Pointer"
.o 2 0 
e_ABC.Interpreter_lTD;Pointer
	update_a 1 0
	create 
.d 2 0 
	put_a_jmp 2 e_ABC.Interpreter_eaTD;Pointer
.n 1 e_ABC.Interpreter_dTD;Pointer e_ABC.Interpreter_eaTD;Pointer
.o 1 0 
e_ABC.Interpreter_nTD;Pointer
	push_node _cycle_in_spine 1
.o 2 0 
e_ABC.Interpreter_eaTD;Pointer
.o 2 0 
e_ABC.Interpreter_sTD;Pointer
.o 2 0 
s85
	fillh _Nil 0 1
.d 1 0 
	pop_a_rtn 1
.export e_ABC.Interpreter_sTD;Finalizer
.export e_ABC.Interpreter_eaTD;Finalizer
.descexp e_ABC.Interpreter_dTD;Finalizer e_ABC.Interpreter_nTD;Finalizer e_ABC.Interpreter_lTD;Finalizer 1 0 "TD;Finalizer"
.o 2 0 
e_ABC.Interpreter_lTD;Finalizer
	update_a 1 0
	create 
.d 2 0 
	put_a_jmp 2 e_ABC.Interpreter_eaTD;Finalizer
.n 1 e_ABC.Interpreter_dTD;Finalizer e_ABC.Interpreter_eaTD;Finalizer
.o 1 0 
e_ABC.Interpreter_nTD;Finalizer
	push_node _cycle_in_spine 1
.o 2 0 
e_ABC.Interpreter_eaTD;Finalizer
.o 2 0 
e_ABC.Interpreter_sTD;Finalizer
.o 2 0 
s84
	fillh _Nil 0 1
.d 1 0 
	pop_a_rtn 1
.export e_ABC.Interpreter_sTD;PrelinkedInterpretationEnvironment
.export e_ABC.Interpreter_eaTD;PrelinkedInterpretationEnvironment
.descexp e_ABC.Interpreter_dTD;PrelinkedInterpretationEnvironment e_ABC.Interpreter_nTD;PrelinkedInterpretationEnvironment e_ABC.Interpreter_lTD;PrelinkedInterpretationEnvironment 1 0 "TD;PrelinkedInterpretationEnvironment"
.o 2 0 
e_ABC.Interpreter_lTD;PrelinkedInterpretationEnvironment
	update_a 1 0
	create 
.d 2 0 
	put_a_jmp 2 e_ABC.Interpreter_eaTD;PrelinkedInterpretationEnvironment
.n 1 e_ABC.Interpreter_dTD;PrelinkedInterpretationEnvironment e_ABC.Interpreter_eaTD;PrelinkedInterpretationEnvironment
.o 1 0 
e_ABC.Interpreter_nTD;PrelinkedInterpretationEnvironment
	push_node _cycle_in_spine 1
.o 2 0 
e_ABC.Interpreter_eaTD;PrelinkedInterpretationEnvironment
.o 2 0 
e_ABC.Interpreter_sTD;PrelinkedInterpretationEnvironment
.o 2 0 
s21
	fillh _Nil 0 1
.d 1 0 
	pop_a_rtn 1
.export e_ABC.Interpreter_sTD;DeserializedValue
.export e_ABC.Interpreter_eaTD;DeserializedValue
.descexp e_ABC.Interpreter_dTD;DeserializedValue e_ABC.Interpreter_nTD;DeserializedValue e_ABC.Interpreter_lTD;DeserializedValue 1 0 "TD;DeserializedValue"
.o 2 0 
e_ABC.Interpreter_lTD;DeserializedValue
	update_a 1 0
	create 
.d 2 0 
	put_a_jmp 2 e_ABC.Interpreter_eaTD;DeserializedValue
.n 1 e_ABC.Interpreter_dTD;DeserializedValue e_ABC.Interpreter_eaTD;DeserializedValue
.o 1 0 
e_ABC.Interpreter_nTD;DeserializedValue
	push_node _cycle_in_spine 1
.o 2 0 
e_ABC.Interpreter_eaTD;DeserializedValue
.o 2 0 
e_ABC.Interpreter_sTD;DeserializedValue
.o 2 0 
s20
	fillh _Nil 0 1
.d 1 0 
	pop_a_rtn 1
.export e_ABC.Interpreter_sTD;InterpretationEnvironment
.export e_ABC.Interpreter_eaTD;InterpretationEnvironment
.descexp e_ABC.Interpreter_dTD;InterpretationEnvironment e_ABC.Interpreter_nTD;InterpretationEnvironment e_ABC.Interpreter_lTD;InterpretationEnvironment 1 0 "TD;InterpretationEnvironment"
.o 2 0 
e_ABC.Interpreter_lTD;InterpretationEnvironment
	update_a 1 0
	create 
.d 2 0 
	put_a_jmp 2 e_ABC.Interpreter_eaTD;InterpretationEnvironment
.n 1 e_ABC.Interpreter_dTD;InterpretationEnvironment e_ABC.Interpreter_eaTD;InterpretationEnvironment
.o 1 0 
e_ABC.Interpreter_nTD;InterpretationEnvironment
	push_node _cycle_in_spine 1
.o 2 0 
e_ABC.Interpreter_eaTD;InterpretationEnvironment
.o 2 0 
e_ABC.Interpreter_sTD;InterpretationEnvironment
.o 2 0 
s19
	fillh _Nil 0 1
.d 1 0 
	pop_a_rtn 1
.export e_ABC.Interpreter_sTD;InterpretedExpression
.export e_ABC.Interpreter_eaTD;InterpretedExpression
.descexp e_ABC.Interpreter_dTD;InterpretedExpression e_ABC.Interpreter_nTD;InterpretedExpression e_ABC.Interpreter_lTD;InterpretedExpression 1 0 "TD;InterpretedExpression"
.o 2 0 
e_ABC.Interpreter_lTD;InterpretedExpression
	update_a 1 0
	create 
.d 2 0 
	put_a_jmp 2 e_ABC.Interpreter_eaTD;InterpretedExpression
.n 1 e_ABC.Interpreter_dTD;InterpretedExpression e_ABC.Interpreter_eaTD;InterpretedExpression
.o 1 0 
e_ABC.Interpreter_nTD;InterpretedExpression
	push_node _cycle_in_spine 1
.o 2 0 
e_ABC.Interpreter_eaTD;InterpretedExpression
.o 2 0 
e_ABC.Interpreter_sTD;InterpretedExpression
.o 2 0 
s18
	fillh _Nil 0 1
.d 1 0 
	pop_a_rtn 1
.export e_ABC.Interpreter_sTD;SerializedGraph
.export e_ABC.Interpreter_eaTD;SerializedGraph
.descexp e_ABC.Interpreter_dTD;SerializedGraph e_ABC.Interpreter_nTD;SerializedGraph e_ABC.Interpreter_lTD;SerializedGraph 1 0 "TD;SerializedGraph"
.o 2 0 
e_ABC.Interpreter_lTD;SerializedGraph
	update_a 1 0
	create 
.d 2 0 
	put_a_jmp 2 e_ABC.Interpreter_eaTD;SerializedGraph
.n 1 e_ABC.Interpreter_dTD;SerializedGraph e_ABC.Interpreter_eaTD;SerializedGraph
.o 1 0 
e_ABC.Interpreter_nTD;SerializedGraph
	push_node _cycle_in_spine 1
.o 2 0 
e_ABC.Interpreter_eaTD;SerializedGraph
.o 2 0 
e_ABC.Interpreter_sTD;SerializedGraph
.o 2 0 
s17
	fillh _Nil 0 1
.d 1 0 
	pop_a_rtn 1
.export e_ABC.Interpreter_sTD;DeserializationSettings
.export e_ABC.Interpreter_eaTD;DeserializationSettings
.descexp e_ABC.Interpreter_dTD;DeserializationSettings e_ABC.Interpreter_nTD;DeserializationSettings e_ABC.Interpreter_lTD;DeserializationSettings 1 0 "TD;DeserializationSettings"
.o 2 0 
e_ABC.Interpreter_lTD;DeserializationSettings
	update_a 1 0
	create 
.d 2 0 
	put_a_jmp 2 e_ABC.Interpreter_eaTD;DeserializationSettings
.n 1 e_ABC.Interpreter_dTD;DeserializationSettings e_ABC.Interpreter_eaTD;DeserializationSettings
.o 1 0 
e_ABC.Interpreter_nTD;DeserializationSettings
	push_node _cycle_in_spine 1
.o 2 0 
e_ABC.Interpreter_eaTD;DeserializationSettings
.o 2 0 
e_ABC.Interpreter_sTD;DeserializationSettings
.o 2 0 
s16
	fillh _Nil 0 1
.d 1 0 
	pop_a_rtn 1
.export e_ABC.Interpreter_stoString;14
.descexp e_ABC.Interpreter_dtoString;14 e_ABC.Interpreter_ntoString;14 e_ABC.Interpreter_ltoString;14 1 0 "toString;14"
.o 2 0 
e_ABC.Interpreter_itoString;14
.d 1 0 
	pop_a_jmp 1 s15
.ai 1 _ e_ABC.Interpreter_itoString;14
.o 2 0 
e_ABC.Interpreter_ltoString;14
.d 1 0 
	pop_a_jsr 1 ea15
.o 1 0 
	buildh ARRAY 1
.d 1 0 
	rtn 
.n 1 e_ABC.Interpreter_dtoString;14
.o 1 0 
e_ABC.Interpreter_ntoString;14
	push_node _cycle_in_spine 1
.d 1 0 
	jsr ea15
.o 1 0 
	fillh ARRAY 1 1
.d 1 0 
	rtn 
.o 1 0 
ea15
	jsr_eval 0
.o 1 0 
e_ABC.Interpreter_stoString;14
.o 1 0 
s15
	pushD_a 0
	jmpD be e_ABC.Interpreter_dDV_HeapFull 0 case.1 case.2
	jmpD be e_ABC.Interpreter_dDV_FloatingPointException 0 case.3 case.4
	jmpD be e_ABC.Interpreter_dDV_IllegalInstruction 0 case.5 case.6
	jmpD be e_ABC.Interpreter_dDV_HostHeapFull 0 case.7 case.8
	jmp case.9
case.1
	pop_b 1
	pop_a 1
	buildAC "parse error"
.d 1 0 
	rtn 
case.2
	pop_b 1
	pop_a 1
	buildAC "heap full"
.d 1 0 
	rtn 
case.3
	pop_b 1
	pop_a 1
	buildAC "stack overflow"
.d 1 0 
	rtn 
case.4
	pop_b 1
	pop_a 1
	buildAC "floating point exception"
.d 1 0 
	rtn 
case.5
	pop_b 1
	pop_a 1
	buildAC "program end reached"
.d 1 0 
	rtn 
case.6
	pop_b 1
	pop_a 1
	buildAC "illegal instruction"
.d 1 0 
	rtn 
case.7
	pop_b 1
	pop_a 1
	buildAC "file I/O is not allowed"
.d 1 0 
	rtn 
case.8
	pop_b 1
	pop_a 1
	buildAC "host heap full"
.d 1 0 
	rtn 
case.9
	pop_b 1
	pop_a 1
	buildAC "deserialized value"
.d 1 0 
	rtn 
.export e_ABC.Interpreter_sresolve_pie_symbol
.descexp e_ABC.Interpreter_dresolve_pie_symbol e_ABC.Interpreter_nresolve_pie_symbol e_ABC.Interpreter_lresolve_pie_symbol 2 0 "resolve_pie_symbol"
.a 0 a14
.o 2 0 
e_ABC.Interpreter_lresolve_pie_symbol
	repl_args 1 1
.o 2 0 
a14
.d 2 0 
	jsr ea14
.o 1 1 i
	buildI_b 0
	push_a 1
	buildh _Tuple 2
	put_a 1
.d 1 0 
	pop_b_rtn 1
.n 2 e_ABC.Interpreter_dresolve_pie_symbol
.o 1 0 
e_ABC.Interpreter_nresolve_pie_symbol
	push_node _cycle_in_spine 2
.d 2 0 
	jsr ea14
.o 1 1 i
	buildI_b 0
	push_a 1
	fillh _Tuple 2 3
.d 1 0 
	pop_ab_rtn 1 1
.o 2 0 
ea14
	jsr_eval 1
	jsr_eval 0
	push_r_args 1 4 2
	pushI_a 4
	update_a 3 5
	update3pop_a 0 2
.o 4 3 iii
e_ABC.Interpreter_sresolve_pie_symbol
.o 4 3 iii
s14
	push_jsr_eval 2
	push_array 0
	updates2pop_a 0 4 5
	push_arraysize e_symbols_in_program_rSymbol 1 1
	decI
	pushI 3
	push_b 2
	shiftl%
	push_b 0
	update_b 4 1
	addI
	update_b 1 4
	pushI 0
	update_b 0 4
	updatepop_b 1 3
.d 1 3 iii
	jmp s179
.export e_ABC.Interpreter_sdeserialize_from_prelinked_interpreter
.descexp e_ABC.Interpreter_ddeserialize_from_prelinked_interpreter e_ABC.Interpreter_ndeserialize_from_prelinked_interpreter e_ABC.Interpreter_ldeserialize_from_prelinked_interpreter 2 0 "deserialize_from_prelinked_interpreter"
.a 0 a13
.o 2 0 
e_ABC.Interpreter_ldeserialize_from_prelinked_interpreter
	repl_args 1 1
.o 2 0 
a13
.d 2 0 
	jsr ea13
.o 1 1 i
	buildI_b 0
	push_a 1
	buildh _Tuple 2
	put_a 1
.d 1 0 
	pop_b_rtn 1
.n 2 e_ABC.Interpreter_ddeserialize_from_prelinked_interpreter
.o 1 0 
e_ABC.Interpreter_ndeserialize_from_prelinked_interpreter
	push_node _cycle_in_spine 2
.d 2 0 
	jsr ea13
.o 1 1 i
	buildI_b 0
	push_a 1
	fillh _Tuple 2 3
.d 1 0 
	pop_ab_rtn 1 1
.o 2 0 
ea13
	jsr_eval 1
	jsr_eval 0
	push_r_args 1 4 2
	push_array 4
	update2_a 3 5
	update3pop_a 0 2
.o 5 2 ii
e_ABC.Interpreter_sdeserialize_from_prelinked_interpreter
.o 5 2 ii
s13
	build_r e_ABC.Interpreter_rPrelinkedInterpretationEnvironment 4 2 1 0
.d 0 0 
	jsr s49
.o 0 1 i
	eqIi 1
.d 1 1 b
	jsr s141
.o 0 1 i
	push_b 2
	build_r e_ABC.Interpreter_rPrelinkedInterpretationEnvironment 4 2 1 2
	update2pop_a 0 4
	update2pop_b 0 2
	pushI 0
.d 2 3 iii
	jsr s80
.o 1 0 
.d 1 0 
	jmp e_graph_copy_scopy_from_string
.o 1 1 b
s141
	eqB_b TRUE 0
	jmp_false case.11
	pop_b 1
	pushI 0
	pop_a 1
	create_array_ INT 0 1
.d 1 0 
	jsr s37
.o 0 1 i
	pushI 2
	push_b 1
	subI
	put_b 1
.d 0 1 i
	rtn 
case.11
	push_r_args_b 0 4 2 2 1
	put_b 1
.d 0 1 i
	pop_a_rtn 1
.o 2 3 iii
s80
	push_arraysize_a CHAR 0 1 1
	push_b 1
	jmp_ltI else.12
	update_a 1 0
	push_arraysize CHAR 0 1
	push_b 1
	jmp_neI else.13
.d 1 0 
	pop_b_rtn 3
else.13
	buildAC "error in replace_descs\n"
	put_a 1
.d 1 0 
	pop_b_jsr 3 print_string_
.o 0 0 
	halt
	push_array 0
	put_a 1
.d 1 0 
	rtn 
else.12
	push_ab 1 0
.d 1 1 i
	buildh0_put_a_jsr _Nil 3 s35
.o 1 1 i
	pushI 0
	jmp_o_geI 1 else.14
	pushI 2
	push_b 1
	remI
	jmp_eqIi 0 else.14
	pushI 8
	push_b 2
	addI
	updatepop_b 0 2
.d 2 3 iii
	put_a_jmp 2 s80
else.14
	push_b2 0 2
.d 1 2 ii
	push_a_jsr 1 s81
.o 0 1 i
	push_b 0
	update_b 4 1
	addI
	push_b2 4 0
	subI
.d 1 2 ii
	push_b_jsr 3 s36
.o 1 0 
	andIio 2 0
	jmp_neIi 0 else.16
.d 0 1 i
	jsr s46
.o 0 1 i
	pushI 3
	swap_b1 
	shiftl%
	pushI 8
	push_b 3
	addI
	addI
	updatepop_b 0 2
.d 2 3 iii
	put_a_jmp 2 s80
else.16
.d 0 1 i
	jsr s38
.o 0 2 ib
	jmp_b_false 1 else.17
	pushI 3
	push_b 1
	shiftl%
	pushI 8
	push_b 5
	addI
	addI
	updatepop_b 0 4
.d 2 3 iii
	put_a_jmp 2 s80
else.17
	push_b 0
	pushI 8
	push_b 5
	addI
.d 1 1 i
	jsr s35
.o 1 1 i
	jmp_neI_b 0 1 else.18
	pushI 7
	push_b 1
	addI
	pushI -8
	update_b 0 5
	updatepop_b 1 4
	and%
	pushI 16
	push_b 3
	addI
	push_b 0
	update_b 2 1
	addI
	updatepop_b 0 3
.d 2 3 iii
	put_a_jmp 2 s80
else.18
	jmp_neI_b 1 1 else.19
	pushI 16
	push_b 6
	addI
	update2pop_a 0 1
.d 1 1 i
	jsr s35
.o 1 1 i
	jmp_neI_b 0 0 else.20
	pushI 24
	push_b 7
	addI
	updatepop_b 0 7
	swap_a1 
.d 2 3 iii
	jmp s80
else.20
	push_b2 0 7
.d 1 2 ii
	push_a_jsr 1 s81
.o 0 1 i
	push_b 0
	update_b 9 1
	addI
	push_b2 9 0
	subI
	pushI 16
	push_b 9
	addI
.d 1 2 ii
	jsr s36
.o 1 0 
	jmp_eqI_b -46 1 then.21
	jmp_neI_b -38 1 else.21
then.21
	pushI 3
	updates2_b 3 0 1
	shiftl%
	pushI 24
	push_b 8
	addI
	push_b 0
	update_b 2 1
	addI
	updatepop_b 0 8
	swap_a1 
.d 2 3 iii
	jmp s80
else.21
	jmp_neI_b -22 1 else.23
	pushI 7
	push_b 3
	addI
	put_b 1
	andIi -8
	pushI 24
	push_b 8
	addI
	push_b 0
	update_b 2 1
	addI
	updatepop_b 0 8
	swap_a1 
.d 2 3 iii
	jmp s80
else.23
	push_b 0
	load_si16 -2
	pushI 256
	jmp_o_geI 1 else.24
.d 0 1 i
	pop_a_jsr 2 ItoAC
.o 1 0 
	buildAC "\n"
	swap_a1 
.d 2 0 
	jsr catAC
.o 1 0 
	buildAC " with arity "
.d 2 0 
	jsr catAC
.o 1 0 
.d 0 1 i
	jsr ItoAC
.o 1 0 
.d 2 0 
	jsr catAC
.o 1 0 
	buildAC "illegal array element descriptor "
.d 2 0 
	jsr catAC
.o 1 0 
.d 1 0 
	pop_b_jsr 9 print_string_
.o 0 0 
	halt
	push_array 0
	put_a 1
.d 1 0 
	rtn 
else.24
	push_b 1
	load_si16 0
	pushI 256
	push_b 2
	subI
	update2pop_b 0 2
	subI
	push_b2 0 2
	mulI
	pushI 3
	put_b 2
	shiftl%
	pushI 24
	push_b 8
	addI
	push_b 0
	update_b 2 1
	addI
	updatepop_b 0 8
	swap_a1 
.d 2 3 iii
	jmp s80
else.19
	pop_b 5
	pop_a_jmp 1 s80.1
s80.1
	pop_b 3
	pushD m_ABC.Interpreter
	pushD x_80
.d 0 2 ii
	pop_a_jmp 2 _match_error
.string x_80 "replace_descs;110"
.o 0 1 i
s38
	push_b 0
	load_si16 -2
	jmp_neI_b 0 0 else.25
	update_b 1 0
	eq_desc_b INT 0
	jmp_false else.26
	pop_b_pushB 1 TRUE
	pushI 1
.d 0 2 ib
	rtn 
else.26
	push_b 0
	eq_desc_b CHAR 0
	jmp_false else.27
	pop_b_pushB 1 TRUE
	pushI 1
.d 0 2 ib
	rtn 
else.27
	push_b 0
	eq_desc_b REAL 0
	jmp_false else.28
	pop_b_pushB 1 TRUE
	pushI 1
.d 0 2 ib
	rtn 
else.28
	push_b 0
	eq_desc_b BOOL 0
	jmp_false else.29
	pop_b_pushB 1 TRUE
	pushI 1
.d 0 2 ib
	rtn 
else.29
	push_b 0
	eq_desc_b _STRING_ 0
	jmp_false else.30
	pop_b_pushB 1 FALSE
	pushI 0
.d 0 2 ib
	rtn 
else.30
	eq_desc_b _ARRAY_ 0
	jmp_false else.31
	pushB FALSE
	pushI 1
.d 0 2 ib
	rtn 
else.31
	pushB TRUE
	pushI 0
.d 0 2 ib
	rtn 
else.25
	pushI 256
	jmp_o_geI 1 else.32
	pop_b_pushB 2 TRUE
	pushI 0
.d 0 2 ib
	rtn 
else.32
	push_b 1
	load_si16 0
	pushI 256
	push_b 2
	subI
	subI
	pushB TRUE
	update_b 0 3
	updatepop_b 1 2
.d 0 2 ib
	rtn 
.o 0 1 i
s39
.inline is_Int_D
	eq_desc_b INT 0
.end
.d 0 1 b
	rtn 
.o 0 1 i
s40
.inline is_Char_D
	eq_desc_b CHAR 0
.end
.d 0 1 b
	rtn 
.o 0 1 i
s41
.inline is_Real_D
	eq_desc_b REAL 0
.end
.d 0 1 b
	rtn 
.o 0 1 i
s42
.inline is_Bool_D
	eq_desc_b BOOL 0
.end
.d 0 1 b
	rtn 
.o 0 1 i
s43
.inline is__String__D
	eq_desc_b _STRING_ 0
.end
.d 0 1 b
	rtn 
.o 0 1 i
s44
.inline is__Array__D
	eq_desc_b _ARRAY_ 0
.end
.d 0 1 b
	rtn 
.o 1 2 ii
s81
	pushI 0
	jmp_o_geI 2 else.33
.d 0 2 ii
	pop_a_jmp 1 s77
else.33
	jsr_eval 0
	push_r_args_b 0 4 2 1 1
	updates2_b 0 2 1
	pop_b 1
	addI
	push_r_args_a 0 4 2 3 1
	jsr_eval 0
	push_array 0
	put_a 1
	push_arraysize e_symbols_in_program_rSymbol 1 1
	decI
	push_r_args 0 4 2
	push_b 3
	pushI 0
	push_b 2
	updates2pop_b 0 1 3
	push_b 3
	updates3_b 0 2 5 4
.d 4 5 iiiii
	pop_b_jsr 1 s78
.o 0 1 i
	push_r_args_a 0 4 2 4 1
	jsr_eval 0
	push_array 0
	put_a 1
	push_b 0
	select INT 0 1
	pushI 0
	jmp_o_geI 1 else.34
	push_r_args_a 0 4 2 3 1
	jsr_eval 0
	push_array 0
	updatepop_a 0 2
	updatepop_b 1 2
	select e_symbols_in_program_rSymbol 1 1
	pop_b 1
	buildAC " unknown in the host\n"
	swap_a1 
.d 2 0 
	jsr catAC
.o 1 0 
	buildAC "replace_descs: descriptor "
.d 2 0 
	jsr catAC
.o 1 0 
.d 1 0 
	jsr print_string_
.o 0 0 
	halt
	pushI0_pop_a1 
.d 0 1 i
	rtn 
else.34
	push_r_args_a 0 4 2 3 1
	jsr_eval 0
	push_array 0
	updatepop_a 0 2
	push_b 1
	select e_symbols_in_program_rSymbol 1 1
	pop_a 1
	push_b 3
	subI
.d 0 1 i
	jsr s79
.o 0 1 i
	update_b 0 3
	updatepop_b 1 2
	addI
.d 0 1 i
	rtn 
.o 0 2 ii
s77
	swap_b1 
s140
	jmp_eqI_b2 -46 -14 0 case.35 case.36
	jmp_eqI_b2 -22 -30 0 case.37 case.38
	jmp_eqI_b2 -6 -38 0 case.39 case.40
	jmp case.41
case.35
	buildI 1
.d 1 0 
	pop_b_jsr 1 s75
.o 0 1 i
	subI
.d 0 1 i
	rtn 
case.36
	buildAC ""
.d 1 0 
	pop_b_jsr 1 s74
.o 0 1 i
	subI
.d 0 1 i
	rtn 
case.37
	buildB TRUE
.d 1 0 
	pop_b_jsr 1 s75
.o 0 1 i
	subI
.d 0 1 i
	rtn 
case.38
	buildC 'a'
.d 1 0 
	pop_b_jsr 1 s75
.o 0 1 i
	subI
.d 0 1 i
	rtn 
case.39
	pop_b 1
	pushI 0
	create_array_ INT 0 1
.d 1 0 
	jsr s37
.o 0 1 i
	subI
.d 0 1 i
	rtn 
case.40
	buildR 1.0
.d 1 0 
	pop_b_jsr 1 s75
.o 0 1 i
	subI
.d 0 1 i
	rtn 
case.41
	put_b 1
.d 0 1 i
	jsr ItoAC
.o 1 0 
	buildAC "\n"
	swap_a1 
.d 2 0 
	jsr catAC
.o 1 0 
	buildAC "unknown predefined descriptor "
.d 2 0 
	jsr catAC
.o 1 0 
.d 1 0 
	jsr print_string_
.o 0 0 
	halt
	pushI0_pop_a1 
.d 0 1 i
	rtn 
.o 1 0 
s74
	pushD_a 0
.d 0 1 i
	pop_a_rtn 1
.o 1 0 
s75
	pushD_a 0
.d 0 1 i
	pop_a_rtn 1
.o 0 1 i
s79
	pushI 16
	push_b 1
	remI
	buildI 16
	buildI_b 1
	build e_StdInt_d/;10 2 e_StdInt_n/;10
	jmp_neI_b 2 0 else.42
	jsr_eval 0
	pushI0_pop_a1 
.d 0 0 
	jsr s76
.o 0 1 i
	mulI
	pushI 2
	update_b 0 3
	updatepop_b 1 2
	addI
.d 0 1 i
	rtn 
else.42
	jmp_neI_b 0 0 else.43
	jsr_eval 0
	pushI_a 0
	jmp_neIi 0 else.43
	pop_b 2
	pushI 0
.d 0 1 i
	pop_a_rtn 1
else.43
	push_b 1
.d 0 1 i
	pop_a_jsr 1 ItoAC
.o 1 0 
	buildAC "\n"
	swap_a1 
.d 2 0 
	jsr catAC
.o 1 0 
	buildAC "illegal offset "
.d 2 0 
	jsr catAC
.o 1 0 
.d 1 0 
	pop_b_jsr 2 print_string_
.o 0 0 
	halt
	pushI0_pop_a1 
.d 0 1 i
	rtn 
.o 0 0 
s76
	get_desc_arity_offset
.d 0 1 i
	rtn 
.o 4 5 iiiii
s78
	push_b2 2 3
	jmp_geI else.45
	push_b 2
	pushI 0
	jmp_geI else.46
	push_b_decI 2
	push_jsr_eval 2
	push_array 0
	updatepop_a 0 5
	updatepop_b 0 2
	select e_symbols_in_program_rSymbol 1 1
	pop_a 1
	push_b 0
	update_b 4 1
	ltI
	buildh _Nil 0
	push_a2 0 0
	push_a 2
	pushI 0
	jmp_b_false 1 else.46
	pushI 1
	update_b 0 5
	updatepop_b 3 4
	pop_a 4
	subI
.d 0 1 i
	rtn 
else.46
	buildAC "find_desc failed\n"
	updatepop_a 0 4
.d 1 0 
	pop_b_jsr 5 print_string_
.o 0 0 
	halt
	pushI0_pop_a1 
.d 0 1 i
	rtn 
else.45
	push_b2 2 3
	subI
	pushI 2
	swap_b1 
	divI
	push_b 3
	addI
	push_jsr_eval 2
	push_array 0
	put_a 1
	push_b 0
	select e_symbols_in_program_rSymbol 1 1
	pop_a 1
	push_b2 0 6
	jmp_geI else.48
	push_b_decI 1
	update_b 0 6
.d 4 5 iiiii
	pop_b_jmp 3 s78
else.48
	push_b2 6 0
	jmp_geI else.49
	push_b_incI 1
	update_b 0 5
.d 4 5 iiiii
	pop_b_jmp 3 s78
else.49
	updatepop_b 1 6
.d 0 1 i
	pop_a_rtn 4
.o 0 0 
s49
	ccall is_using_desc_relative_to_array ":I"
.d 0 1 i
	rtn 
.export e_ABC.Interpreter_sserialize_for_prelinked_interpretation
.descexp e_ABC.Interpreter_dserialize_for_prelinked_interpretation e_ABC.Interpreter_nserialize_for_prelinked_interpretation e_ABC.Interpreter_lserialize_for_prelinked_interpretation 2 0 "serialize_for_prelinked_interpretation"
.a 0 a12
.o 2 0 
e_ABC.Interpreter_lserialize_for_prelinked_interpretation
	repl_args 1 1
.o 2 0 
a12
.d 2 0 
	jsr ea12
.o 1 0 
	buildh ARRAY 1
.d 1 0 
	rtn 
.n 2 e_ABC.Interpreter_dserialize_for_prelinked_interpretation
.o 1 0 
e_ABC.Interpreter_nserialize_for_prelinked_interpretation
	push_node _cycle_in_spine 2
.d 2 0 
	jsr ea12
.o 1 0 
	fillh ARRAY 1 1
.d 1 0 
	rtn 
.o 2 0 
ea12
	jsr_eval 1
	push_r_args 1 4 2
	updates4_a 2 4 1 3 5
	put_a 2
.o 5 2 ii
e_ABC.Interpreter_sserialize_for_prelinked_interpretation
.o 5 2 ii
s12
.d 1 0 
	jsr e_graph_copy_with_names_scopy_to_string_with_names
.o 3 0 
	push_a2 1 1
	updates2_a_pop_a 0 2 3 1
	push_arraysize e_graph_copy_with_names_rDescInfo 1 1
	decI
	push2_b 1
	incI
	create_array_ INT 0 1
	build_r e_ABC.Interpreter_rPrelinkedInterpretationEnvironment 4 2 4 2
	update3_a 1 6
	updates2pop_a 0 4 5
	push_b 1
	pushI 0
.d 4 2 ii
	jsr s112
.o 1 0 
	swap_a1 
	updatepop_b 0 3
	pushI 0
s111
	push_arraysize_a CHAR 0 1 0
	push_b 1
	jmp_ltI else.50
	dup_a 1
	push_arraysize CHAR 0 1
	push_b 1
	jmp_neI else.51
.d 1 0 
	pop_b_rtn 2
else.51
	buildAC "error in replace_desc_numbers_by_descs\n"
	put_a 1
.d 1 0 
	pop_b_jsr 2 print_string_
.o 0 0 
	halt
	push_array 0
	put_a 1
.d 1 0 
	rtn 
else.50
.d 1 1 i
	push_b_jsr 0 s35
.o 1 1 i
	pushI 0
	jmp_o_geI 1 else.52
	pushI 8
	push_b 2
	addI
	updatepop_b 0 2
.d 2 2 ii
	jmp s111
else.52
	push_b_decI 0
	push_a 1
	select INT 0 1
	andIio 2 0
	jmp_neIi 0 else.53
	push_b_decI 1
	push_a 1
	select INT 0 1
	push_b 0
	update_b 5 1
	subI
.d 1 2 ii
	push_b_jsr 3 s36
.o 1 0 
.d 0 1 i
	jsr s46
.o 0 1 i
	pushI 3
	swap_b1 
	shiftl%
	pushI 8
	push_b 3
	addI
	addI
	updatepop_b 0 2
.d 2 2 ii
	jmp s111
else.53
.d 0 2 ii
	push_b_jsr 3 s45
.o 0 2 ib
	jmp_b_false 1 else.54
	push_b_decI 2
	push_a 1
	select INT 0 1
	push_b 0
	update_b 6 1
	subI
.d 1 2 ii
	push_b_jsr 4 s36
.o 1 0 
	pushI 3
	push_b 1
	shiftl%
	pushI 8
	push_b 5
	addI
	addI
	updatepop_b 0 4
.d 2 2 ii
	jmp s111
else.54
	push_b 0
	jmp_neI_b 0 0 else.55
	pushI 8
	push_b 5
	addI
	push_b_decI 4
	push_a 1
	select INT 0 1
	push_b 0
	update_b 8 1
	subI
.d 1 2 ii
	push_b_jsr 6 s36
.o 1 0 
	updatepop_b 0 3
.d 1 1 i
	jsr s35
.o 1 1 i
	pushI 7
	push_b 1
	addI
	andIi -8
	pushI 16
	push_b 4
	addI
	addI
	updatepop_b 0 3
.d 2 2 ii
	jmp s111
else.55
	jmp_neI_b 1 0 else.56
	pushI 16
	push_b 5
	addI
	push_b_decI 4
	push_a 1
	select INT 0 1
	push_b 0
	update_b 8 1
	subI
.d 1 2 ii
	push_b_jsr 6 s36
.o 1 0 
	updatepop_b 0 3
.d 1 1 i
	jsr s35
.o 1 1 i
	jmp_neI_b 0 0 else.57
	pushI 24
	push_b 3
	addI
	updatepop_b 0 3
.d 2 2 ii
	jmp s111
else.57
	push_b_decI 0
	push_a 1
	select INT 0 1
	pushI 8
	push_b 4
	addI
	push_b_decI 2
	push_a 1
	select INT 0 1
	push_b 0
	update_b 7 1
	subI
	pushI 16
	push_b 6
	addI
.d 1 2 ii
	jsr s36
.o 1 0 
.d 1 1 i
	jsr s35
.o 1 1 i
	pushI 8
	pushI 5
	mulI
	push_b 6
	subI
	pushI 2
	addI
	push_b 2
	jmp_neI else.58
	pushI 3
	push_b 1
	shiftl%
	pushI 24
	push_b 6
	addI
	addI
	updatepop_b 0 5
.d 2 2 ii
	jmp s111
else.58
	pushI 8
	pushI 6
	mulI
	push_b 6
	subI
	pushI 2
	addI
	push_b 2
	jmp_neI else.59
	pushI 3
	push_b 1
	shiftl%
	pushI 24
	push_b 6
	addI
	addI
	updatepop_b 0 5
.d 2 2 ii
	jmp s111
else.59
	pushI 8
	pushI 3
	mulI
	push_b 6
	subI
	pushI 2
	addI
	push_b 2
	jmp_neI else.60
	pushI 7
	push_b 1
	addI
	andIi -8
	pushI 24
	push_b 6
	addI
	addI
	updatepop_b 0 5
.d 2 2 ii
	jmp s111
else.60
	push_b 1
	load_si16 -2
	pushI 256
	push_b 1
	jmp_ltI else.61
	push_b 2
	load_si16 0
	pushI 256
	push_b 2
	subI
	subI
	push_b 2
	mulI
	pushI 3
	swap_b1 
	shiftl%
	pushI 24
	push_b 7
	addI
	addI
	updatepop_b 0 6
.d 2 2 ii
	jmp s111
else.61
	update_b 2 0
.d 0 1 i
	pop_a_jsr 2 ItoAC
.o 1 0 
	buildAC " "
.d 2 0 
	jsr catAC
.o 1 0 
	put_b 1
.d 0 1 i
	jsr ItoAC
.o 1 0 
.d 2 0 
	jsr catAC
.o 1 0 
.d 1 0 
	pop_b_jsr 4 print_string_
.o 0 0 
	halt
	push_array 0
	put_a 1
.d 1 0 
	rtn 
else.56
	pop_b_jmp 4 s111.1
s111.1
	pop_b 2
	pushD m_ABC.Interpreter
	pushD x_111
.d 0 2 ii
	pop_a_jmp 2 _match_error
.string x_111 "replace_desc_numbers_by_descs;183"
.o 0 1 i
s46
.d 0 1 i
	jsr s83
.o 0 1 i
	pushI 256
	jmp_o_geI 1 else.62
	pop_b 1
	pushI 0
.d 0 1 i
	rtn 
else.62
	pushI 8
	swap_b1 
	shiftr%
.d 0 1 i
	rtn 
.o 0 1 i
s83
	get_thunk_arity
.d 0 1 i
	rtn 
.o 0 2 ii
s45
	push_b2 0 1
	jmp_geI else.63
	pushI 8
	pushI 1
	mulI
	push_b 1
	subI
	pushI 2
	addI
	push_b 2
	jmp_neI else.64
	pop_b_pushB 2 FALSE
	pushI 1
.d 0 2 ib
	rtn 
else.64
	pushI 8
	pushI 2
	mulI
	push_b 1
	subI
	pushI 2
	addI
	push_b 2
	jmp_neI else.65
	pop_b_pushB 2 FALSE
	pushI 0
.d 0 2 ib
	rtn 
else.65
	pushI 8
	pushI 3
	mulI
	push_b 1
	subI
	pushI 2
	addI
	push_b 2
	jmp_neI else.66
	pop_b_pushB 2 TRUE
	pushI 1
.d 0 2 ib
	rtn 
else.66
	pushI 8
	pushI 4
	mulI
	push_b 1
	subI
	pushI 2
	addI
	push_b 2
	jmp_neI else.67
	pop_b_pushB 2 TRUE
	pushI 1
.d 0 2 ib
	rtn 
else.67
	pushI 8
	pushI 5
	mulI
	push_b 1
	subI
	pushI 2
	addI
	push_b 2
	jmp_neI else.68
	pop_b_pushB 2 TRUE
	pushI 1
.d 0 2 ib
	rtn 
else.68
	pushI 8
	pushI 6
	mulI
	push_b 1
	subI
	pushI 2
	addI
	push_b 2
	jmp_neI else.69
	pop_b_pushB 2 TRUE
	pushI 1
.d 0 2 ib
	rtn 
else.69
	pushI 8
	pushI 7
	mulI
	push_b 1
	subI
	pushI 2
	addI
	push_b 2
	jmp_neI else.70
	pop_b_pushB 2 TRUE
	pushI 0
.d 0 2 ib
	rtn 
else.70
	buildAC "internal error in get_descriptor_n_non_pointers_and_not_array_interpreter\n"
.d 1 0 
	pop_b_jsr 2 print_string_
.o 0 0 
	halt
	repl_args 2 2
	jsr_eval 1
	jsr_eval 0
	pushB_a 1
	pushI_a 0
.d 0 2 ib
	pop_a_rtn 2
else.63
	update_b 1 0
	load_si16 -2
	pushI 256
	jmp_o_geI 1 else.71
	pop_b_pushB 2 TRUE
	pushI 0
.d 0 2 ib
	rtn 
else.71
	push_b 1
	load_si16 0
	pushI 256
	push_b 2
	subI
	subI
	pushB TRUE
	update_b 0 3
	updatepop_b 1 2
.d 0 2 ib
	rtn 
.o 0 1 i
s48
.inline get_D_record_a_arity
	load_si16 0
.end
.d 0 1 i
	rtn 
.o 0 1 i
s47
.inline get_D_node_arity
	load_si16 -2
.end
.d 0 1 i
	rtn 
.o 1 2 ii
s36
	pushI 56
	push_b 2
	shiftr%
	ItoC
	pushI 7
	push_b 2
	addI
	pushI 48
	push_b 4
	shiftr%
	ItoC
	pushI 6
	push_b 4
	addI
	pushI 40
	push_b 6
	shiftr%
	ItoC
	pushI 5
	push_b 6
	addI
	pushI 32
	push_b 8
	shiftr%
	ItoC
	pushI 4
	push_b 8
	addI
	pushI 24
	push_b 10
	shiftr%
	ItoC
	pushI 3
	push_b 10
	addI
	pushI 16
	push_b 12
	shiftr%
	ItoC
	push_b_incI 11
	incI
	pushI 8
	push_b 14
	shiftr%
	ItoC
	push_b_incI 13
	push_b 15
	ItoC
	push_b 15
	update CHAR 0 1
	update CHAR 0 1
	update CHAR 0 1
	update CHAR 0 1
	update CHAR 0 1
	update CHAR 0 1
	update CHAR 0 1
	update2pop_b 0 2
	update CHAR 0 1
.d 1 0 
	rtn 
.o 1 1 i
s35
	push_a_b 0
	addI
	load_i 16
.d 1 1 i
	rtn 
.o 1 1 i
s82
.inline get_64;121
	push_a_b 0
	addI
	load_i 16
.end
.d 1 1 i
	rtn 
.o 4 2 ii
s112
	push_b2 0 1
	jmp_ltI else.72
	push_ab 3 0
	buildh _Nil 0
	updates2_a 1 0 5
	select e_graph_copy_with_names_rDescInfo 1 1
	push_b_incI 1
	push_r_args_a 2 4 2 1 1
	push_a2 1 3
	updates2_a 6 2 3
	push_b 1
	pushI 4
.d 4 2 ii
	jsr s73
.o 0 1 i
	push_ab 3 3
	buildh0_put_a _Nil 5
	update INT 0 1
	update2_a 0 4
	pop_a 2
	updatepop_b 0 2
.d 4 2 ii
	jmp s112
else.72
	updatepop_a 2 3
.d 1 0 
	pop_b_rtn 2
.o 4 2 ii
s73
	push_b 1
	pushI 8
	swap_b1 
	shiftr%
	decI
	push_a 2
	select _ 1 0
	buildAC "_system"
	swap_a1 
.d 2 0 
	jsr eqAC
.o 0 1 b
	jmp_false else.73
	build_r e_graph_copy_with_names_rDescInfo 1 1 1 1
	swap_a 2
.d 5 1 i
	put_b_jmp 1 s139
else.73
.d 3 2 ii
	pop_a_jmp 1 s24
.o 5 1 i
s139
	jmp_eqACio "_ARRAY_" 0 case.74
	jmp_eqACio "_STRING_" 0 case.75
	jmp_eqACio "BOOL" 0 case.76
	jmp_eqACio "CHAR" 0 case.77
	jmp_eqACio "REAL" 0 case.78
	jmp_eqACio "INT" 0 case.79
	jmp_eqACio "_ind" 0 case.80
	jmp case.81
case.74
	pushI 8
	pushI 1
	mulI
	push_r_args_b 1 4 2 1 1
	subI
	pushI 2
	put_b 2
	pop_a 5
	addI
.d 0 1 i
	rtn 
case.75
	pushI 8
	pushI 2
	mulI
	push_r_args_b 1 4 2 1 1
	subI
	pushI 2
	put_b 2
	pop_a 5
	addI
.d 0 1 i
	rtn 
case.76
	pushI 8
	pushI 3
	mulI
	push_r_args_b 1 4 2 1 1
	subI
	pushI 2
	put_b 2
	pop_a 5
	addI
.d 0 1 i
	rtn 
case.77
	pushI 8
	pushI 4
	mulI
	push_r_args_b 1 4 2 1 1
	subI
	pushI 2
	put_b 2
	pop_a 5
	addI
.d 0 1 i
	rtn 
case.78
	pushI 8
	pushI 5
	mulI
	push_r_args_b 1 4 2 1 1
	subI
	pushI 2
	put_b 2
	pop_a 5
	addI
.d 0 1 i
	rtn 
case.79
	pushI 8
	pushI 6
	mulI
	push_r_args_b 1 4 2 1 1
	subI
	pushI 2
	put_b 2
	pop_a 5
	addI
.d 0 1 i
	rtn 
case.80
	pushI 8
	pushI 7
	mulI
	push_r_args_b 1 4 2 1 1
	subI
	pushI 2
	put_b 2
	pop_a 5
	addI
.d 0 1 i
	rtn 
case.81
	push_r_args 2 1 1
	updatepop_a 0 3
	swap_b1 
.d 3 2 ii
	jmp s24
.export e_ABC.Interpreter_sprepare_prelinked_interpretation
.descexp e_ABC.Interpreter_dprepare_prelinked_interpretation e_ABC.Interpreter_nprepare_prelinked_interpretation e_ABC.Interpreter_lprepare_prelinked_interpretation 3 0 "prepare_prelinked_interpretation"
.a 0 a11
.o 2 0 
e_ABC.Interpreter_lprepare_prelinked_interpretation
	repl_args 2 2
.o 3 0 
a11
.d 3 0 
	jsr ea11
.o 2 0 
	buildh _Tuple 2
.d 1 0 
	rtn 
.n 3 e_ABC.Interpreter_dprepare_prelinked_interpretation
.o 1 0 
e_ABC.Interpreter_nprepare_prelinked_interpretation
	push_node _cycle_in_spine 3
.d 3 0 
	jsr ea11
.o 2 0 
	fillh _Tuple 2 2
.d 1 0 
	rtn 
.o 3 0 
ea11
	jsr_eval 2
	jsr_eval 1
	jsr_eval 0
	push_array 1
	push_array 1
	update2pop_a 0 2
.o 3 0 
e_ABC.Interpreter_sprepare_prelinked_interpretation
.o 3 0 
s11
	push_a 1
	updates3pop_a 0 1 3 2
.d 2 0 
	jsr s30
.o 2 0 
	jmp_ne_desc _None 0 0 else.82
	update_a 1 2
	pop_a 2
	buildh _None 0
.d 2 0 
	rtn 
else.82
	push_a 0
	eq_desc _Just 1 0
	exit_false selector_m_error
	repl_arg 1 1
	push_array 0
	put_a 1
	pushI 0
	buildh0_put_a _Nil 2
	create_array_ e_symbols_in_program_rSymbol 1 1
	create 
	put_a 3
.d 3 0 
	jsr e_ABC.Interpreter.Util_sparse
.o 1 0 
	jmp_ne_desc _None 0 0 else.83
	push_a 2
	buildh ARRAY 1
	buildh e_symbols_in_program_dread_symbols 1
	updates2pop_a 0 2 3
.d 2 0 
	jsr e_StdFile_saccFiles;35
.o 2 0 
	pop_a 1
	buildh _None 0
.d 2 0 
	rtn 
else.83
	push_a 0
	eq_desc _Just 1 0
	exit_false selector_m_error
	repl_arg 1 1
	pushI0_pop_a1 
	create 
	push_b 0
	pushB FALSE
	put_a 1
.d 1 2 bi
	jsr s23
.o 1 0 
	push_a 0
	pushI 0
.d 1 1 i
	jsr s108
.o 0 1 i
	create_array_ e_symbols_in_program_rSymbol 1 1
	push_a 1
	buildI 0
	updates3_a 0 2 1 3
.d 3 0 
	pop_a_jsr 1 s105
.o 1 0 
	push_a2 0 0
	push_arraysize e_symbols_in_program_rSymbol 1 1
	push_b_decI 0
	create 
	push_a 1
	buildh ARRAY 1
	put_b 1
	pushI 0
	update2pop_a 0 1
.d 2 2 ii
	jsr s106
.o 1 0 
	buildh e_ABC.Interpreter_d\;462;26;93.70 0
	create 
	push_a 1
	updates3pop_a 0 1 3 2
.d 3 0 
	jsr e_StdOrdList_ssortBy
.o 1 0 
	push_a 0
	pushI 0
.d 1 1 i
	jsr s109
.o 0 1 i
	create_array_ e_symbols_in_program_rSymbol 1 1
	push_a 1
	buildI 0
	updates3_a 0 2 1 3
.d 3 0 
	pop_a_jsr 1 s107
.o 1 0 
	push_a 3
	buildh ARRAY 1
	buildh e_symbols_in_program_dread_symbols 1
	update_a 2 4
	updates3pop_a 0 1 3 2
.d 2 0 
	jsr e_StdFile_saccFiles;35
.o 2 0 
	push_array 0
	push_a 3
	buildh ARRAY 1
	build e_ABC.Interpreter_dusize;141 1 e_ABC.Interpreter_nusize;141
	buildo1 n_S.1 0
	buildI 1
	swap_a1 
	build e_StdInt_d-;7 2 e_StdInt_n-;7
	push_a 2
	buildAC "__ARRAY__"
.d 2 0 
	buildh0_put_a_jsr _Nil 6 e_symbols_in_program_sget_symbol_value
.o 0 1 i
	pushI 0
	create_array_ INT 0 1
.d 1 0 
	jsr s37
.o 0 1 i
	subI
	pushI 2
	push_b 1
	subI
	put_b 1
	buildo1 n_S.2 1
	push_a2 1 3
	buildh ARRAY 1
	build e_ABC.Interpreter_d_f0.180 3 e_ABC.Interpreter_n_f0.180
	push_b 1
	buildh0_dup2_a _Nil 3
.d 0 1 i
	pop_a_jsr 1 s71
.o 0 1 i
	push_a 6
	buildh ARRAY 1
	push_a2 8 8
	buildhr e_ABC.Interpreter_rPrelinkedInterpretationEnvironment 4 2
	buildh _Just 1
	update_a 5 7
	updatepop_a 0 6
.d 2 0 
	pop_b_rtn 1
.export e_ABC.Interpreter_d_f0.180
.export e_ABC.Interpreter_n_f0.180
.descn e_ABC.Interpreter_d_f0.180 e_ABC.Interpreter_n_f0.180 3 0 "_f0.180"
.n 3 e_ABC.Interpreter_d_f0.180 ea180
.o 1 0 
e_ABC.Interpreter_n_f0.180
	push_node _cycle_in_spine 3
.o 4 0 
ea180
	push_array 0
	put_a 1
.o 4 0 
s180
	push_jsr_eval 1
	pushI_a 2
	pop_a 1
	pushI_a 1
	incI
	put_a 1
	create_array_ INT 0 1
	swap_a1 
	pushI 0
.d 3 2 ii
	jsr s110
.o 1 0 
	fillh ARRAY 1 1
.d 1 0 
	rtn 
.o 3 2 ii
s110
	push_b2 0 1
	jmp_ltI else.84
	push_jsr_eval 2
	push_array 0
	put_a 1
	push_b 0
	buildh _Nil 0
	updates2_a 1 0 4
	select e_symbols_in_program_rSymbol 1 1
	push_a 1
	buildh ARRAY 1
	push_b_incI 1
	push_a2 1 3
	buildh0_dup2_a _Nil 4
	pop_a 1
	push_arraysize e_symbols_in_program_rSymbol 1 1
	decI
	update_a 1 3
	update_a 4 2
	put_a 1
.d 2 1 i
	jsr s72
.o 0 1 i
	push_b 3
	updates3_a 0 2 1 3
	pop_a 1
	update INT 0 1
	push_a 2
	update3pop_a 0 1
	updatepop_b 0 2
.d 3 2 ii
	jmp s110
else.84
	updatepop_a 1 2
.d 1 0 
	pop_b_rtn 2
.o 2 1 i
s72
	jmp_neI_b -1 0 case.86
	pop_b 1
	pushI -1
.d 0 1 i
	pop_a_rtn 2
case.86
	selectoo e_symbols_in_program_rSymbol 1 1 1 0
	pop_b 1
	push_update_a 0 1
.d 2 0 
	jsr eqAC
.o 0 1 b
	jmp_false else.87
	pop_a 1
	select e_symbols_in_program_rSymbol 1 1
.d 0 1 i
	pop_a_rtn 1
else.87
	decI
.d 2 1 i
	jmp s72
.o 1 0 
s37
	pushD_a 0
.d 0 1 i
	pop_a_rtn 1
.o 1 1 i
s109
s136
	jmp_ne_desc _Cons 2 0 case.89
	repl_arg 2 2
	jsr_eval 0
	push_a 0
	incI
.d 1 1 i
	put_a_jmp 1 s109
case.89
.d 0 1 i
	pop_a_rtn 1
.o 3 0 
s107
	push_a 2
	update3pop_a 0 1
s135
	jmp_ne_desc _Cons 2 0 case.91
	repl_args 2 2
	push_jsr_eval 1
	buildo1 e_ABC.Interpreter_n_f21.201 4
	push_jsr_eval 2
	repl_r_args 1 1
	push_jsr_eval 6
	pushI_a 7
	update_a 6 0
	buildh0_dup3_a _Nil 6
	put_a 5
	update e_symbols_in_program_rSymbol 1 1
	update3pop_a 0 4
.d 3 0 
	jmp s107
case.91
	updatepop_a 1 2
.d 1 0 
	rtn 
.export e_ABC.Interpreter_d_f21.201
.export e_ABC.Interpreter_n_f21.201
.descn e_ABC.Interpreter_d_f21.201 e_ABC.Interpreter_n_f21.201 1 0 "_f21.201"
.n 1 e_ABC.Interpreter_d_f21.201 ea201
.o 1 0 
e_ABC.Interpreter_n_f21.201
	push_node _cycle_in_spine 1
.o 2 0 
ea201
.o 2 0 
s201
	jsr_eval 0
	pushI0_pop_a1 
	incI
	fillI_b 0 0
.d 1 0 
	pop_b_rtn 1
.export e_ABC.Interpreter_d\;462;26;93.70
.desc e_ABC.Interpreter_d\;462;26;93.70 _hnf l70 2 0 "\;462;26;93.70"
.a 0 a70
.o 2 0 
l70
	repl_args 1 1
.o 2 0 
a70
.d 2 0 
	jsr ea70
.o 0 1 b
	buildB_b 0
.d 1 0 
	pop_b_rtn 1
.o 2 0 
ea70
	jsr_eval 1
	jsr_eval 0
	push_r_args 1 1 1
	push_r_args 1 1 1
	update2pop_a 0 2
.o 2 2 ii
s70
	pop_a 2
	ltI
.d 0 1 b
	rtn 
.o 2 2 ii
s106
	push_b2 0 1
	jmp_ltI else.92
	push_b 0
	push_array 0
	dup_a 1
	select e_symbols_in_program_rSymbol 1 1
	push_a 1
	buildh ARRAY 1
	push_a 0
	push2_b 2
	build_u e_ABC.Interpreter_d_f22.202 1 2 e_ABC.Interpreter_n_f22.202
	build_r e_symbols_in_program_rSymbol 1 1 2 0
	fillh _Cons 2 5
.d 1 0 
	pop_ab_rtn 3 3
else.92
	fillh _Nil 0 1
.d 1 0 
	pop_ab_rtn 1 2
.export e_ABC.Interpreter_d_f22.202
.export e_ABC.Interpreter_n_f22.202
.descn e_ABC.Interpreter_d_f22.202 e_ABC.Interpreter_n_f22.202 3 0 "_f22.202"
.nu 1 2 e_ABC.Interpreter_d_f22.202 _
.o 1 0 
e_ABC.Interpreter_n_f22.202
	push_node_u _cycle_in_spine 1 2
.o 2 2 ii
ea202
.o 2 2 ii
s202
	incI
.d 2 2 ii
	jmp s106
.o 1 1 i
s108
s134
	jmp_ne_desc _Cons 2 0 case.94
	repl_arg 2 2
	jsr_eval 0
	push_a 0
	incI
.d 1 1 i
	put_a_jmp 1 s108
case.94
.d 0 1 i
	pop_a_rtn 1
.o 3 0 
s105
	push_a 2
	update3pop_a 0 1
s133
	jmp_ne_desc _Cons 2 0 case.96
	repl_args 2 2
	push_jsr_eval 1
	buildo1 e_ABC.Interpreter_n_f23.203 4
	push_jsr_eval 2
	repl_r_args 1 1
	push_jsr_eval 6
	pushI_a 7
	update_a 6 0
	buildh0_dup3_a _Nil 6
	put_a 5
	update e_symbols_in_program_rSymbol 1 1
	update3pop_a 0 4
.d 3 0 
	jmp s105
case.96
	updatepop_a 1 2
.d 1 0 
	rtn 
.export e_ABC.Interpreter_d_f23.203
.export e_ABC.Interpreter_n_f23.203
.descn e_ABC.Interpreter_d_f23.203 e_ABC.Interpreter_n_f23.203 1 0 "_f23.203"
.n 1 e_ABC.Interpreter_d_f23.203 ea203
.o 1 0 
e_ABC.Interpreter_n_f23.203
	push_node _cycle_in_spine 1
.o 2 0 
ea203
.o 2 0 
s203
	jsr_eval 0
	pushI0_pop_a1 
	incI
	fillI_b 0 0
.d 1 0 
	pop_b_rtn 1
.o 0 1 i
s71
	ccall get_code "p:p"
.d 0 1 i
	rtn 
.export e_ABC.Interpreter_sgraph_from_file
.descexp e_ABC.Interpreter_dgraph_from_file e_ABC.Interpreter_ngraph_from_file e_ABC.Interpreter_lgraph_from_file 1 0 "graph_from_file"
.o 2 0 
e_ABC.Interpreter_lgraph_from_file
.d 1 0 
	pop_a_jsr 1 ea10
.o 1 2 f
	buildF_b 0
	push_a 1
	buildh _Tuple 2
	put_a 1
.d 1 0 
	pop_b_rtn 2
.n 1 e_ABC.Interpreter_dgraph_from_file
.o 1 0 
e_ABC.Interpreter_ngraph_from_file
	push_node _cycle_in_spine 1
.d 1 0 
	jsr ea10
.o 1 2 f
	buildF_b 0
	push_a 1
	fillh _Tuple 2 3
.d 1 0 
	pop_ab_rtn 1 2
.o 1 0 
ea10
	jsr_eval 0
	pushF_a 0
	pop_a 1
.o 0 2 f
e_ABC.Interpreter_sgraph_from_file
.o 0 2 f
s10
.d 0 2 f
	jsr readFI
.o 0 4 b i f
	push_b 2
	updates3pop_b 0 2 4 3
.d 0 3 f i
	jsr readFS
.o 1 2 f
	create 
	swap_a1 
.d 2 0 
	jsr s8
.o 1 0 
.d 1 2 f
	rtn 
.export e_ABC.Interpreter_sgraph_to_file
.descexp e_ABC.Interpreter_dgraph_to_file e_ABC.Interpreter_ngraph_to_file e_ABC.Interpreter_lgraph_to_file 2 0 "graph_to_file"
.a 0 a9
.o 2 0 
e_ABC.Interpreter_lgraph_to_file
	repl_args 1 1
.o 2 0 
a9
.d 2 0 
	jsr ea9
.o 4 2 f
	buildF_b 0
	build_r e_ABC.Interpreter_rSerializedGraph 4 0 1 0
	buildh _Tuple 2
	updatepop_a 0 4
.d 1 0 
	pop_b_rtn 2
.n 2 e_ABC.Interpreter_dgraph_to_file
.o 1 0 
e_ABC.Interpreter_ngraph_to_file
	push_node _cycle_in_spine 2
.d 2 0 
	jsr ea9
.o 4 2 f
	buildF_b 0
	build_r e_ABC.Interpreter_rSerializedGraph 4 0 1 0
	fillh _Tuple 2 6
.d 1 0 
	pop_ab_rtn 4 2
.o 1 2 f
e_ABC.Interpreter_sgraph_to_file
	push_r_args 0 4 0
	update_a 3 4
	update3pop_a 0 1
.d 4 2 f
	jsr s9
.o 4 2 f
	build_r e_ABC.Interpreter_rSerializedGraph 4 0 0 0
	updatepop_a 0 4
.d 1 2 f
	rtn 
.o 2 0 
ea9
	jsr_eval 1
	jsr_eval 0
	pushF_a 1
	repl_r_args 4 0
	update_a 3 4
	update3pop_a 0 1
.o 4 2 f
s9
.d 4 0 
	jsr s7
.o 5 0 
	push_arraysize_a CHAR 0 1 0
	push2_b 1
	update_b 4 2
.d 0 3 i f
	jsr writeFI
.o 0 2 f
	update2pop_b 0 2
.d 1 2 f
	jsr writeFS
.o 0 2 f
.d 4 2 f
	rtn 
.export e_ABC.Interpreter_sgraph_from_string
.export e_ABC.Interpreter_eagraph_from_string
.descexp e_ABC.Interpreter_dgraph_from_string e_ABC.Interpreter_ngraph_from_string e_ABC.Interpreter_lgraph_from_string 1 0 "graph_from_string"
.o 2 0 
e_ABC.Interpreter_lgraph_from_string
	update_a 1 0
	create 
.d 2 0 
	put_a_jmp 2 e_ABC.Interpreter_eagraph_from_string
.n 1 e_ABC.Interpreter_dgraph_from_string e_ABC.Interpreter_eagraph_from_string
.o 1 0 
e_ABC.Interpreter_ngraph_from_string
	push_node _cycle_in_spine 1
.o 2 0 
e_ABC.Interpreter_eagraph_from_string
	jsr_eval 0
	push_array 0
	put_a 1
.o 2 0 
e_ABC.Interpreter_sgraph_from_string
.o 2 0 
s8
	pushI 0
s62
.d 1 1 i
	push_a_jsr 0 s63
.o 0 2 ii
	pushI 0
	jmp_o_geI 1 else.97
	fillh _None 0 1
.d 1 0 
	pop_ab_rtn 1 2
else.97
	push_a 0
	push2_b 1
.d 1 2 ii
	jsr s64
.o 1 1 i
	pushI 0
	jmp_o_geI 1 else.98
	fillh _None 0 2
.d 1 0 
	pop_ab_rtn 2 3
else.98
	push_ab 1 0
.d 1 1 i
	jsr s63
.o 0 2 ii
	pushI 0
	jmp_o_geI 1 else.99
	fillh _None 0 2
.d 1 0 
	pop_ab_rtn 2 5
else.99
	buildh e_ABC.Interpreter_dreadDescInfo;85.66 0
	push_update_a 0 2
	push_b2 0 1
.d 2 2 ii
	jsr s67
.o 1 1 i
	pushI 0
	jmp_o_geI 1 else.100
	fillh _None 0 3
.d 1 0 
	pop_ab_rtn 3 6
else.100
	push_ab 2 0
.d 1 1 i
	jsr s63
.o 0 2 ii
	pushI 0
	jmp_o_geI 1 else.101
	fillh _None 0 3
.d 1 0 
	pop_ab_rtn 3 8
else.101
	buildh e_ABC.Interpreter_dreadTerminatedString;84.65 0
	push_update_a 0 3
	push_b2 0 1
.d 2 2 ii
	jsr s67
.o 1 1 i
	pushI 0
	jmp_o_geI 1 else.102
	fillh _None 0 4
.d 1 0 
	pop_ab_rtn 4 9
else.102
	push_ab 3 0
.d 1 1 i
	jsr s63
.o 0 2 ii
	pushI 0
	jmp_o_geI 1 else.103
	fillh _None 0 4
.d 1 0 
	pop_ab_rtn 4 11
else.103
	push_a 3
	push2_b 1
.d 1 2 ii
	jsr s64
.o 1 1 i
	pushI 0
	jmp_o_geI 1 else.104
	fillh _None 0 5
.d 1 0 
	pop_ab_rtn 5 12
else.104
	push_a 4
	buildh0_put_a _Nil 6
	push_arraysize CHAR 0 1
	push_b 1
	jmp_eqI else.105
	fillh _None 0 5
.d 1 0 
	pop_ab_rtn 5 12
else.105
	push_a 3
	buildh _Nil 0
	updates2_a 1 0 5
	push_arraysize CHAR 0 1
	decI
	push_a 2
	pushI 0
.d 1 1 i
	jsr s104
.o 0 1 i
	create_array_ _ 1 0
	push_a 3
	buildI 0
	push_a 2
	update3pop_a 0 1
.d 3 0 
	buildh0_put_a_jsr _Nil 6 s101
.o 1 0 
	push_a 4
	pushI 0
.d 1 1 i
	jsr s103
.o 0 1 i
	create_array_ e_graph_copy_with_names_rDescInfo 1 1
	push_a 5
	buildI 0
	push_a 2
	update3pop_a 0 1
.d 3 0 
	buildh0_put_a_jsr _Nil 8 s100
.o 1 0 
	push_b_incI 0
	create_array_ CHAR 0 1
	push_update_a 0 3
	pushI 0
.d 2 2 ii
	buildh0_put_a_jsr _Nil 5 s102
.o 1 0 
	push_update_a 0 1
	updates2_a 5 3 2
	buildhr e_ABC.Interpreter_rSerializedGraph 4 0
	fillh _Just 1 7
.d 1 0 
	pop_ab_rtn 6 12
.o 1 1 i
s104
s132
	jmp_ne_desc _Cons 2 0 case.107
	repl_arg 2 2
	jsr_eval 0
	push_a 0
	incI
.d 1 1 i
	put_a_jmp 1 s104
case.107
.d 0 1 i
	pop_a_rtn 1
.o 3 0 
s101
	push_a 2
	update3pop_a 0 1
s131
	jmp_ne_desc _Cons 2 0 case.109
	repl_args 2 2
	push_jsr_eval 1
	buildo1 e_ABC.Interpreter_n_f18.198 4
	push_jsr_eval 2
	push_array 0
	updates2_a 7 0 1
	jsr_eval 0
	pushI_a 7
	update_a 6 0
	buildh0_dup3_a _Nil 6
	put_a 5
	update _ 1 0
	update3pop_a 0 4
.d 3 0 
	jmp s101
case.109
	updatepop_a 1 2
.d 1 0 
	rtn 
.export e_ABC.Interpreter_d_f18.198
.export e_ABC.Interpreter_n_f18.198
.descn e_ABC.Interpreter_d_f18.198 e_ABC.Interpreter_n_f18.198 1 0 "_f18.198"
.n 1 e_ABC.Interpreter_d_f18.198 ea198
.o 1 0 
e_ABC.Interpreter_n_f18.198
	push_node _cycle_in_spine 1
.o 2 0 
ea198
.o 2 0 
s198
	jsr_eval 0
	pushI0_pop_a1 
	incI
	fillI_b 0 0
.d 1 0 
	pop_b_rtn 1
.o 1 1 i
s103
s130
	jmp_ne_desc _Cons 2 0 case.111
	repl_arg 2 2
	jsr_eval 0
	push_a 0
	incI
.d 1 1 i
	put_a_jmp 1 s103
case.111
.d 0 1 i
	pop_a_rtn 1
.o 3 0 
s100
	push_a 2
	update3pop_a 0 1
s129
	jmp_ne_desc _Cons 2 0 case.113
	repl_args 2 2
	push_jsr_eval 1
	buildo1 e_ABC.Interpreter_n_f19.199 4
	push_jsr_eval 2
	repl_r_args 1 1
	push_jsr_eval 6
	pushI_a 7
	update_a 6 0
	buildh0_dup3_a _Nil 6
	put_a 5
	update e_graph_copy_with_names_rDescInfo 1 1
	update3pop_a 0 4
.d 3 0 
	jmp s100
case.113
	updatepop_a 1 2
.d 1 0 
	rtn 
.export e_ABC.Interpreter_d_f19.199
.export e_ABC.Interpreter_n_f19.199
.descn e_ABC.Interpreter_d_f19.199 e_ABC.Interpreter_n_f19.199 1 0 "_f19.199"
.n 1 e_ABC.Interpreter_d_f19.199 ea199
.o 1 0 
e_ABC.Interpreter_n_f19.199
	push_node _cycle_in_spine 1
.o 2 0 
ea199
.o 2 0 
s199
	jsr_eval 0
	pushI0_pop_a1 
	incI
	fillI_b 0 0
.d 1 0 
	pop_b_rtn 1
.export e_ABC.Interpreter_dreadDescInfo;85.66
.desc e_ABC.Interpreter_dreadDescInfo;85.66 _hnf l66 2 0 "readDescInfo;85.66"
.a 0 a66
.o 2 0 
l66
	repl_args 1 1
.o 2 0 
a66
.d 2 0 
	jsr ea66
.o 1 2 ii
	build_r e_graph_copy_with_names_rDescInfo 1 1 0 1
	buildI_b 0
	buildh _Tuple 2
	put_a 1
.d 1 0 
	pop_b_rtn 2
.o 2 0 
ea66
	jsr_eval 1
	jsr_eval 0
	push_array 1
	pushI_a 1
	updatepop_a 0 2
.o 1 1 i
s66
	push_arraysize_a CHAR 0 1 0
	push_b 1
	jmp_ltI else.114
	buildAC ""
	pushI 0
	pushI -1
	put_a 1
	update2pop_b 0 1
.d 1 2 ii
	rtn 
else.114
.d 1 1 i
	push_a_jsr 0 s63
.o 0 2 ii
	pushI 0
	jmp_o_geI 1 else.115
	buildAC ""
	pushI 0
	pushI -1
	put_a 1
	update2pop_b 0 2
.d 1 2 ii
	rtn 
else.115
.d 1 1 i
	push_b_jsr 0 s65
.o 1 1 i
	pushI 0
	jmp_o_geI 1 else.116
	buildAC ""
	pushI 0
	pushI -1
	put_a 1
	update2pop_b 0 3
.d 1 2 ii
	rtn 
else.116
	put_b 1
.d 1 2 ii
	rtn 
.export e_ABC.Interpreter_dreadTerminatedString;84.65
.desc e_ABC.Interpreter_dreadTerminatedString;84.65 _hnf l65 2 0 "readTerminatedString;84.65"
.a 0 a65
.o 2 0 
l65
	repl_args 1 1
.o 2 0 
a65
.d 2 0 
	jsr ea65
.o 1 1 i
	push_a 0
	buildh ARRAY 1
	buildI_b 0
	buildh _Tuple 2
	put_a 1
.d 1 0 
	pop_b_rtn 1
.o 2 0 
ea65
	jsr_eval 1
	jsr_eval 0
	push_array 1
	pushI_a 1
	updatepop_a 0 2
.o 1 1 i
s65
	push_ab 0 0
.d 1 1 i
	jsr s61
.o 0 1 i
	push_b 0
	update_b 2 1
	subI
	pushI 0
	jmp_o_geI 1 else.117
	buildAC ""
	pushI -1
	put_a 1
	updatepop_b 0 2
.d 1 1 i
	rtn 
else.117
	swap_b1 
.d 1 2 ii
	jsr s64
.o 1 1 i
	pushI 0
	jmp_o_geI 1 else.118
.d 1 1 i
	rtn 
else.118
	incI
.d 1 1 i
	rtn 
.o 1 1 i
s61
	push_arraysize_a CHAR 0 1 0
	push_b 1
	jmp_ltI else.119
	pop_b 1
	pushI -1
.d 0 1 i
	pop_a_rtn 1
else.119
	selectoo CHAR 0 1 0 0
	jmp_neCc '\000' else.120
.d 0 1 i
	pop_a_rtn 1
else.120
	incI
.d 1 1 i
	jmp s61
.o 2 2 ii
s67
	push_b 0
	pushI 0
	jmp_ltI else.121
	buildh _Nil 0
	pop_b 1
	updatepop_a 0 2
.d 1 1 i
	rtn 
else.121
	push_a 1
	buildh ARRAY 1
	buildI_b 1
	push_a 2
	jsr_ap 2
	push_arg 0 2 1
	jsr_eval 0
	pushI0_pop_a1 
	pushI 0
	jmp_o_geI 1 else.122
	buildh _Nil 0
	updatepop_b 0 2
	updatepop_a 0 3
.d 1 1 i
	rtn 
else.122
	push_b_decI 1
	push_a 1
	updates3pop_a 0 1 3 2
	update2pop_b 0 2
.d 2 2 ii
	jsr s67
.o 1 1 i
	push_a 0
	push_arg 2 2 2
	buildh _Cons 2
	updatepop_a 0 2
.d 1 1 i
	rtn 
.o 2 2 ii
s102
	push_b2 0 1
	jmp_ltI else.123
	push_ab 1 0
	exchange_a 2 1
	select CHAR 0 1
	push_b_incI 1
	push_b2 1 2
	swap_a1 
	update CHAR 0 1
	updatepop_b 0 2
.d 2 2 ii
	jmp s102
else.123
	put_a 1
.d 1 0 
	pop_b_rtn 2
.o 1 2 ii
s64
	push_arraysize_a CHAR 0 1 0
	push_b 0
	update_b 3 1
	subI
	push_b 0
	update_b 2 1
	jmp_geI else.124
	buildAC ""
	pushI -1
	put_a 1
	updatepop_b 0 2
.d 1 1 i
	rtn 
else.124
	push2_b 1
	addI
	decI
.d 1 2 ii
	push_b_jsr 1 sliceAC
.o 1 0 
	push2_b 1
	addI
	updatepop_b 0 2
.d 1 1 i
	rtn 
.o 1 1 i
s63
	push_arraysize_a CHAR 0 1 0
	pushI 4
	push_b 1
	subI
	put_b 1
	push_b 1
	jmp_ltI else.125
	pop_b 1
	pushI 0
	pushI -1
.d 0 2 ii
	pop_a_rtn 1
else.125
	buildh _Nil 0
	buildI 3
	buildh _Cons 2
	buildI 2
	buildh _Cons 2
	buildI 1
	buildh _Cons 2
	buildI 0
	buildh _Cons 2
	create 
	push_a 2
	buildh ARRAY 1
	buildI_b 0
	updates3pop_a 0 1 2 4
.d 4 0 
	jsr s99
.o 1 0 
.d 1 0 
	jsr e_StdList_ssum;72
.o 0 1 i
	pushI 4
	push_b 2
	addI
	update2pop_b 0 1
.d 0 2 ii
	rtn 
.export e_ABC.Interpreter_dc;339;53;162.99
.export e_ABC.Interpreter_nc;339;53;162.99
.descn e_ABC.Interpreter_dc;339;53;162.99 e_ABC.Interpreter_nc;339;53;162.99 3 0 "c;339;53;162.99"
.n 3 e_ABC.Interpreter_dc;339;53;162.99 ea99
.o 1 0 
e_ABC.Interpreter_nc;339;53;162.99
	push_node _cycle_in_spine 3
.o 4 0 
ea99
	jsr_eval 2
.o 4 0 
s99
	swap_a 2
s128
	jmp_ne_desc _Cons 2 0 case.127
	repl_args 2 2
	push_a2 1 2
	push_a 5
	build e_ABC.Interpreter_dc;339;53;162.99 3 e_ABC.Interpreter_nc;339;53;162.99
	push_a 1
	push2_a 5
	build e_ABC.Interpreter_d_f20.200 3 e_ABC.Interpreter_n_f20.200
	fillh _Cons 2 6
.d 1 0 
	pop_a_rtn 4
case.127
	fillh _Nil 0 3
.d 1 0 
	pop_a_rtn 3
.export e_ABC.Interpreter_d_f20.200
.export e_ABC.Interpreter_n_f20.200
.descn e_ABC.Interpreter_d_f20.200 e_ABC.Interpreter_n_f20.200 3 0 "_f20.200"
.n 3 e_ABC.Interpreter_d_f20.200 ea200
.o 1 0 
e_ABC.Interpreter_n_f20.200
	push_node _cycle_in_spine 3
.o 4 0 
ea200
.o 4 0 
s200
	push_jsr_eval 2
	pushI_a 3
	pop_a 1
	pushI 8
	mulI
	push_jsr_eval 1
	pushI_a 2
	pop_a 1
	pushI_a 2
	addI
	jsr_eval 0
	push_a 0
	push_array 0
	updatepop_a 0 4
	select CHAR 0 1
	CtoI
	shiftl%
	fillI_b 0 0
.d 1 0 
	pop_b_rtn 1
.export e_ABC.Interpreter_sgraph_to_string
.descexp e_ABC.Interpreter_dgraph_to_string e_ABC.Interpreter_ngraph_to_string e_ABC.Interpreter_lgraph_to_string 1 0 "graph_to_string"
.o 2 0 
e_ABC.Interpreter_lgraph_to_string
.d 1 0 
	pop_a_jsr 1 ea7
.o 5 0 
	build_r e_ABC.Interpreter_rSerializedGraph 4 0 1 0
	push_a 1
	buildh ARRAY 1
	buildh _Tuple 2
	updatepop_a 0 5
.d 1 0 
	rtn 
.n 1 e_ABC.Interpreter_dgraph_to_string
.o 1 0 
e_ABC.Interpreter_ngraph_to_string
	push_node _cycle_in_spine 1
.d 1 0 
	jsr ea7
.o 5 0 
	build_r e_ABC.Interpreter_rSerializedGraph 4 0 1 0
	push_a 1
	buildh ARRAY 1
	fillh _Tuple 2 7
.d 1 0 
	pop_a_rtn 5
.o 1 0 
e_ABC.Interpreter_sgraph_to_string
	push_r_args 0 4 0
	update_a 3 4
	update3pop_a 0 1
.d 4 0 
	jsr s7
.o 5 0 
	build_r e_ABC.Interpreter_rSerializedGraph 4 0 1 0
	dup_a 5
	updatepop_a 1 4
.d 2 0 
	rtn 
.o 1 0 
ea7
	jsr_eval 0
	repl_r_args 4 0
.o 4 0 
s7
.d 1 0 
	push_a_jsr 0 s91
.o 2 1 i
	push_a 3
	buildh ARRAY 1
	build e_ABC.Interpreter_dusize;133 1 e_ABC.Interpreter_nusize;133
	push_a 5
	buildh ARRAY 1
	build e__SystemArray_dusize;47 1 e__SystemArray_nusize;47
	buildh _Nil 0
	buildo1 e_ABC.Interpreter_n_f5.185 8
	buildh _Cons 2
	buildo1 n_S.2 1
	buildo1 n_S.1 2
	build e_ABC.Interpreter_d_f4.184 2 e_ABC.Interpreter_n_f4.184
	build e_ABC.Interpreter_d_f3.183 1 e_ABC.Interpreter_n_f3.183
	buildh _Cons 2
	buildo1 n_S.2 2
	buildo1 n_S.1 3
	build e_ABC.Interpreter_d_f2.182 2 e_ABC.Interpreter_n_f2.182
	build e_ABC.Interpreter_d_f1.181 1 e_ABC.Interpreter_n_f1.181
	buildh _Cons 2
	buildI_b 0
	buildI 4
	build e_StdInt_d+;6 2 e_StdInt_n+;6
	buildh _Cons 2
	updatepop_a 0 2
.d 1 0 
	jsr e_StdList_ssum;72
.o 0 1 i
	pushC '\000'
	push_b 1
	create_array CHAR 0 1
	pushI 0
.d 1 2 ii
	push_b_jsr 2 s57
.o 1 1 i
	push_a 1
	pushI 0
.d 1 1 i
	jsr s98
.o 0 1 i
	create_array_ CHAR 0 1
	push_a 2
	buildI 0
	updates4_a 0 2 1 3 4
.d 3 0 
	pop_a_jsr 1 s94
.o 1 0 
.d 2 1 i
	jsr s58
.o 1 1 i
	push_arraysize_a e_graph_copy_with_names_rDescInfo 1 1 3
.d 1 2 ii
	jsr s57
.o 1 1 i
	buildh e_ABC.Interpreter_dwriteDescInfo;72.60 0
	push_update_a 0 4
	pushI 0
.d 3 2 ii
	jsr s95
.o 1 1 i
	push_arraysize_a _ 1 0 4
.d 1 2 ii
	jsr s57
.o 1 1 i
	buildh e_ABC.Interpreter_dwriteTerminatedString;71.59 0
	push_update_a 0 5
	pushI 0
.d 3 2 ii
	jsr s96
.o 1 1 i
	push_arraysize_a CHAR 0 1 5
.d 1 2 ii
	jsr s57
.o 1 1 i
.d 2 1 i
	push_a_jsr 5 s58
.o 1 1 i
	push2_b 1
	jmp_eqI else.128
	buildAC "internal error in graphToString\n"
	updatepop_a 0 6
.d 1 0 
	pop_b_jsr 3 print_string_
.o 0 0 
	halt
	repl_args 2 2
	jsr_eval 1
	jsr_eval 0
	push_r_args 1 4 0
	push_array 4
	update2_a 3 5
	update3pop_a 0 2
.d 5 0 
	rtn 
else.128
	update2pop_a 0 1
.d 5 0 
	pop_b_rtn 3
.export e_ABC.Interpreter_d_f5.185
.export e_ABC.Interpreter_n_f5.185
.descn e_ABC.Interpreter_d_f5.185 e_ABC.Interpreter_n_f5.185 1 0 "_f5.185"
.n 1 e_ABC.Interpreter_d_f5.185 ea185
.o 1 0 
e_ABC.Interpreter_n_f5.185
	push_node _cycle_in_spine 1
.o 2 0 
ea185
.o 2 0 
s185
	push_arraysize CHAR 0 1
	pushI 4
	addI
	fillI_b 0 0
.d 1 0 
	pop_b_rtn 1
.export e_ABC.Interpreter_d_f4.184
.export e_ABC.Interpreter_n_f4.184
.descn e_ABC.Interpreter_d_f4.184 e_ABC.Interpreter_n_f4.184 2 0 "_f4.184"
.n 2 e_ABC.Interpreter_d_f4.184 ea184
.o 1 0 
e_ABC.Interpreter_n_f4.184
	push_node _cycle_in_spine 2
.o 3 0 
ea184
.o 3 0 
s184
	jsr_eval 0
	pushI_a 0
	decI
	pushI 0
.d 2 2 ii
	pop_a_jmp 1 s97
.export e_ABC.Interpreter_d_f3.183
.export e_ABC.Interpreter_n_f3.183
.descn e_ABC.Interpreter_d_f3.183 e_ABC.Interpreter_n_f3.183 1 0 "_f3.183"
.n 1 e_ABC.Interpreter_d_f3.183 ea183
.o 1 0 
e_ABC.Interpreter_n_f3.183
	push_node _cycle_in_spine 1
.o 2 0 
ea183
.o 2 0 
s183
	jsr_eval 0
.d 1 0 
	jsr e_StdList_ssum;72
.o 0 1 i
	pushI 4
	addI
	fillI_b 0 0
.d 1 0 
	pop_b_rtn 1
.export e_ABC.Interpreter_d_f2.182
.export e_ABC.Interpreter_n_f2.182
.descn e_ABC.Interpreter_d_f2.182 e_ABC.Interpreter_n_f2.182 2 0 "_f2.182"
.n 2 e_ABC.Interpreter_d_f2.182 ea182
.o 1 0 
e_ABC.Interpreter_n_f2.182
	push_node _cycle_in_spine 2
.o 3 0 
ea182
.o 3 0 
s182
	jsr_eval 0
	pushI_a 0
	decI
	pushI 0
.d 2 2 ii
	pop_a_jmp 1 s93
.export e_ABC.Interpreter_d_f1.181
.export e_ABC.Interpreter_n_f1.181
.descn e_ABC.Interpreter_d_f1.181 e_ABC.Interpreter_n_f1.181 1 0 "_f1.181"
.n 1 e_ABC.Interpreter_d_f1.181 ea181
.o 1 0 
e_ABC.Interpreter_n_f1.181
	push_node _cycle_in_spine 1
.o 2 0 
ea181
.o 2 0 
s181
	jsr_eval 0
.d 1 0 
	jsr e_StdList_ssum;72
.o 0 1 i
	pushI 4
	addI
	fillI_b 0 0
.d 1 0 
	pop_b_rtn 1
.o 3 2 ii
s96
	push_arraysize_a _ 1 0 1
	push_b 1
	jmp_ltI else.129
.d 1 1 i
	pop_ab_rtn 2 1
else.129
	push_a 2
	buildh ARRAY 1
	buildI_b 1
	buildI_b 0
	push_a 4
	buildh ARRAY 1
	build e__SystemArray_dselect;43 2 e__SystemArray_nselect;43
	push_a 3
	buildh0_put_a _Nil 7
	jsr_ap 3
	push_arg 0 2 2
	jsr_eval 0
	push_array 0
	put_a 1
	push_arg 1 2 1
	jsr_eval 0
	pushI0_pop_a1 
	push_b_incI 1
	dup_a 4
	pop_a 2
	update2pop_b 0 2
.d 3 2 ii
	jmp s96
.export e_ABC.Interpreter_dwriteDescInfo;72.60
.desc e_ABC.Interpreter_dwriteDescInfo;72.60 _hnf l60 3 0 "writeDescInfo;72.60"
.a 0 a60
.o 2 0 
l60
	repl_args 2 2
.o 3 0 
a60
.d 3 0 
	jsr ea60
.o 1 1 i
	push_a 0
	buildh ARRAY 1
	buildI_b 0
	buildh _Tuple 2
	put_a 1
.d 1 0 
	pop_b_rtn 1
.o 3 0 
ea60
	jsr_eval 2
	jsr_eval 1
	jsr_eval 0
	push_array 2
	pushI_a 2
	push_r_args 1 1 1
	update2pop_a 0 3
.o 2 2 ii
s60
	push2_b 1
	swap_a1 
.d 1 2 ii
	jsr s57
.o 1 1 i
	swap_a1 
	updatepop_b 0 2
.d 2 1 i
	jmp s59
.export e_ABC.Interpreter_dwriteTerminatedString;71.59
.desc e_ABC.Interpreter_dwriteTerminatedString;71.59 _hnf l59 3 0 "writeTerminatedString;71.59"
.a 0 a59
.o 2 0 
l59
	repl_args 2 2
.o 3 0 
a59
.d 3 0 
	jsr ea59
.o 1 1 i
	push_a 0
	buildh ARRAY 1
	buildI_b 0
	buildh _Tuple 2
	put_a 1
.d 1 0 
	pop_b_rtn 1
.o 3 0 
ea59
	jsr_eval 2
	jsr_eval 1
	jsr_eval 0
	push_array 2
	pushI_a 2
	push_array 1
	update2pop_a 0 3
.o 2 1 i
s59
.d 2 1 i
	jsr s58
.o 1 1 i
	pushC '\000'
	push_b 1
	update CHAR 0 1
	incI
.d 1 1 i
	rtn 
.o 3 2 ii
s95
	push_arraysize_a e_graph_copy_with_names_rDescInfo 1 1 1
	push_b 1
	jmp_ltI else.130
.d 1 1 i
	pop_ab_rtn 2 1
else.130
	push_a 2
	buildh ARRAY 1
	buildI_b 1
	buildI_b 0
	push_a 4
	buildh ARRAY 1
	build e_ABC.Interpreter_dselect;129 2 e_ABC.Interpreter_nselect;129
	push_a 3
	buildh0_put_a _Nil 7
	jsr_ap 3
	push_arg 0 2 2
	jsr_eval 0
	push_array 0
	put_a 1
	push_arg 1 2 1
	jsr_eval 0
	pushI0_pop_a1 
	push_b_incI 1
	dup_a 4
	pop_a 2
	update2pop_b 0 2
.d 3 2 ii
	jmp s95
.o 1 1 i
s98
s127
	jmp_ne_desc _Cons 2 0 case.132
	repl_arg 2 2
	jsr_eval 0
	push_a 0
	incI
.d 1 1 i
	put_a_jmp 1 s98
case.132
.d 0 1 i
	pop_a_rtn 1
.o 3 0 
s94
	push_a 2
	update3pop_a 0 1
s126
	jmp_ne_desc _Cons 2 0 case.134
	repl_args 2 2
	push_jsr_eval 1
	buildo1 e_ABC.Interpreter_n_f16.196 4
	push_jsr_eval 2
	pushC_a 3
	update_a 6 0
	jsr_eval 0
	pushI_a 6
	update_a 5 0
	buildh0_dup3_a _Nil 5
	put_a 4
	update CHAR 0 1
	update3pop_a 0 4
.d 3 0 
	jmp s94
case.134
	updatepop_a 1 2
.d 1 0 
	rtn 
.export e_ABC.Interpreter_d_f16.196
.export e_ABC.Interpreter_n_f16.196
.descn e_ABC.Interpreter_d_f16.196 e_ABC.Interpreter_n_f16.196 1 0 "_f16.196"
.n 1 e_ABC.Interpreter_d_f16.196 ea196
.o 1 0 
e_ABC.Interpreter_n_f16.196
	push_node _cycle_in_spine 1
.o 2 0 
ea196
.o 2 0 
s196
	jsr_eval 0
	pushI0_pop_a1 
	incI
	fillI_b 0 0
.d 1 0 
	pop_b_rtn 1
.o 2 1 i
s58
	push_a2 0 0
	push_arraysize CHAR 0 1
	push_b_decI 0
	push_a 0
	pushI 0
	buildI_b 3
	dup_a 2
	push_a 4
	updates3pop_a 0 2 4 5
	update2pop_b 0 1
.d 3 2 ii
	jsr s90
.o 1 0 
	push_a 1
	buildh0_put_a _Nil 3
	push_arraysize CHAR 0 1
	push_b 1
	addI
	put_a 1
	put_b 1
.d 1 1 i
	rtn 
.o 3 2 ii
s90
	push_b2 0 1
	jmp_ltI else.135
	push_ab 2 0
	buildh _Nil 0
	updates2_a 1 0 4
	select CHAR 0 1
	push_b_incI 1
	buildo1 e_ABC.Interpreter_n_f17.197 2
	push_jsr_eval 3
	pushI_a 4
	update_a 3 0
	push_b 0
	update_b 3 1
	buildh0_dup2_a _Nil 4
	pop_a 1
	update CHAR 0 1
	update3pop_a 0 3
	updatepop_b 0 2
.d 3 2 ii
	jmp s90
else.135
	updatepop_a 0 2
.d 1 0 
	pop_b_rtn 2
.export e_ABC.Interpreter_d_f17.197
.export e_ABC.Interpreter_n_f17.197
.descn e_ABC.Interpreter_d_f17.197 e_ABC.Interpreter_n_f17.197 1 0 "_f17.197"
.n 1 e_ABC.Interpreter_d_f17.197 ea197
.o 1 0 
e_ABC.Interpreter_n_f17.197
	push_node _cycle_in_spine 1
.o 2 0 
ea197
.o 2 0 
s197
	jsr_eval 0
	pushI0_pop_a1 
	incI
	fillI_b 0 0
.d 1 0 
	pop_b_rtn 1
.o 1 2 ii
s57
	pushI 24
	push_b 1
	shiftr%
	ItoC
	pushI 3
	push_b 3
	addI
	pushI 16
	push_b 3
	shiftr%
	ItoC
	push_b_incI 4
	incI
	pushI 8
	push_b 5
	shiftr%
	ItoC
	push_b_incI 6
	push_b 6
	ItoC
	push_b 8
	update CHAR 0 1
	update CHAR 0 1
	update CHAR 0 1
	update2pop_b 0 1
	update CHAR 0 1
	pushI 4
	addI
.d 1 1 i
	rtn 
.o 2 2 ii
s93
	push_b2 0 1
	jmp_ltI else.136
	jsr_eval 0
	push_a 0
	push_array 0
	dup_a 2
	put_a 1
	push_b 0
	select e_graph_copy_with_names_rDescInfo 1 1
	push_a 1
	buildh ARRAY 1
	push_a 0
	push2_b 2
	build_u e_ABC.Interpreter_d_f13.193 1 2 e_ABC.Interpreter_n_f13.193
	push_a 2
	buildh ARRAY 1
	build e_ABC.Interpreter_d_f12.192 1 e_ABC.Interpreter_n_f12.192
	fillh _Cons 2 5
.d 1 0 
	pop_ab_rtn 3 3
else.136
	fillh _Nil 0 1
.d 1 0 
	pop_ab_rtn 1 2
.export e_ABC.Interpreter_d_f13.193
.export e_ABC.Interpreter_n_f13.193
.descn e_ABC.Interpreter_d_f13.193 e_ABC.Interpreter_n_f13.193 3 0 "_f13.193"
.nu 1 2 e_ABC.Interpreter_d_f13.193 _
.o 1 0 
e_ABC.Interpreter_n_f13.193
	push_node_u _cycle_in_spine 1 2
.o 2 2 ii
ea193
.o 2 2 ii
s193
	incI
.d 2 2 ii
	jmp s93
.export e_ABC.Interpreter_d_f12.192
.export e_ABC.Interpreter_n_f12.192
.descn e_ABC.Interpreter_d_f12.192 e_ABC.Interpreter_n_f12.192 1 0 "_f12.192"
.n 1 e_ABC.Interpreter_d_f12.192 ea192
.o 1 0 
e_ABC.Interpreter_n_f12.192
	push_node _cycle_in_spine 1
.o 2 0 
ea192
.o 2 0 
s192
	jsr_eval 0
	push_a 0
	push_array 0
	updatepop_a 0 2
	push_arraysize CHAR 0 1
	pushI 4
	addI
	incI
	fillI_b 0 0
.d 1 0 
	pop_b_rtn 1
.o 2 2 ii
s97
	push_b2 0 1
	jmp_ltI else.137
	jsr_eval 0
	push_a 0
	push_array 0
	dup_a 2
	put_a 1
	push_b 0
	select _ 1 0
	push_a 1
	buildh ARRAY 1
	push_a 0
	push2_b 1
	build_u e_ABC.Interpreter_d_f15.195 1 2 e_ABC.Interpreter_n_f15.195
	push_a 2
	buildh ARRAY 1
	build e_ABC.Interpreter_d_f14.194 1 e_ABC.Interpreter_n_f14.194
	fillh _Cons 2 5
.d 1 0 
	pop_ab_rtn 3 2
else.137
	fillh _Nil 0 1
.d 1 0 
	pop_ab_rtn 1 2
.export e_ABC.Interpreter_d_f15.195
.export e_ABC.Interpreter_n_f15.195
.descn e_ABC.Interpreter_d_f15.195 e_ABC.Interpreter_n_f15.195 3 0 "_f15.195"
.nu 1 2 e_ABC.Interpreter_d_f15.195 _
.o 1 0 
e_ABC.Interpreter_n_f15.195
	push_node_u _cycle_in_spine 1 2
.o 2 2 ii
ea195
.o 2 2 ii
s195
	incI
.d 2 2 ii
	jmp s97
.export e_ABC.Interpreter_d_f14.194
.export e_ABC.Interpreter_n_f14.194
.descn e_ABC.Interpreter_d_f14.194 e_ABC.Interpreter_n_f14.194 1 0 "_f14.194"
.n 1 e_ABC.Interpreter_d_f14.194 ea194
.o 1 0 
e_ABC.Interpreter_n_f14.194
	push_node _cycle_in_spine 1
.o 2 0 
ea194
.o 2 0 
s194
	jsr_eval 0
	push_a 0
	push_array 0
	updatepop_a 0 2
	push_arraysize CHAR 0 1
	incI
	fillI_b 0 0
.d 1 0 
	pop_b_rtn 1
.o 1 0 
s91
	push_arraysize_a CHAR 0 1 0
	buildh _Nil 0
	push_b_decI 0
	swap_a1 
.d 2 1 i
	jsr s92
.o 2 0 
.d 2 1 i
	rtn 
.o 2 1 i
s92
	jmp_neI_b -1 0 case.139
	swap_a1 
.d 2 0 
	pop_b_rtn 1
case.139
	selectoo CHAR 0 1 0 0
	push_a 1
	buildC_b 0
	buildh _Cons 2
	push_b_decI 1
	put_a 2
	updatepop_b 0 2
.d 2 1 i
	jmp s92
.export e_ABC.Interpreter_sget_start_rule_as_expression_strict
.descexp e_ABC.Interpreter_dget_start_rule_as_expression_strict e_ABC.Interpreter_nget_start_rule_as_expression_strict e_ABC.Interpreter_lget_start_rule_as_expression_strict 4 0 "get_start_rule_as_expression_strict"
.a 0 a6
.o 2 0 
e_ABC.Interpreter_lget_start_rule_as_expression_strict
	repl_args 3 3
.o 4 0 
a6
.d 4 0 
	jsr ea6
.o 2 0 
	buildh _Tuple 2
.d 1 0 
	rtn 
.n 4 e_ABC.Interpreter_dget_start_rule_as_expression_strict
.o 1 0 
e_ABC.Interpreter_nget_start_rule_as_expression_strict
	push_node _cycle_in_spine 4
.d 4 0 
	jsr ea6
.o 2 0 
	fillh _Tuple 2 2
.d 1 0 
	rtn 
.o 4 0 
ea6
	jsr_eval 3
	jsr_eval 2
	jsr_eval 1
	jsr_eval 0
	push_array 2
	push_array 2
	push_r_args 2 0 3
	update2pop_a 0 3
.o 3 3 iib
e_ABC.Interpreter_sget_start_rule_as_expression_strict
.o 3 3 iib
s6
	push3_b 2
	update3pop_b 0 3
	pushB TRUE
.d 3 4 biib
	jsr s25
.o 2 0 
.d 2 0 
	jmp s178
.export e_ABC.Interpreter_sget_start_rule_as_expression
.descexp e_ABC.Interpreter_dget_start_rule_as_expression e_ABC.Interpreter_nget_start_rule_as_expression e_ABC.Interpreter_lget_start_rule_as_expression 4 0 "get_start_rule_as_expression"
.a 0 a5
.o 2 0 
e_ABC.Interpreter_lget_start_rule_as_expression
	repl_args 3 3
.o 4 0 
a5
.d 4 0 
	jsr ea5
.o 2 0 
	buildh _Tuple 2
.d 1 0 
	rtn 
.n 4 e_ABC.Interpreter_dget_start_rule_as_expression
.o 1 0 
e_ABC.Interpreter_nget_start_rule_as_expression
	push_node _cycle_in_spine 4
.d 4 0 
	jsr ea5
.o 2 0 
	fillh _Tuple 2 2
.d 1 0 
	rtn 
.o 4 0 
ea5
	jsr_eval 3
	jsr_eval 2
	jsr_eval 1
	jsr_eval 0
	push_array 2
	push_array 2
	push_r_args 2 0 3
	update2pop_a 0 3
.o 3 3 iib
e_ABC.Interpreter_sget_start_rule_as_expression
.o 3 3 iib
s5
	push3_b 2
	update3pop_b 0 3
	pushB FALSE
s25
.d 0 0 
	jsr e_ABC.Interpreter.Util_sensure_interpreter_init
.o 0 1 b
	jmp_true else.140
	buildAC "internal error in get_start_rule_as_expression\n"
	updatepop_a 0 3
.d 1 0 
	pop_b_jsr 4 print_string_
.o 0 0 
	halt
	repl_args 2 2
	jsr_eval 1
	jsr_eval 0
.d 2 0 
	rtn 
else.140
	push_a 1
	buildh ARRAY 1
	buildh e_symbols_in_program_dread_symbols 1
	updates3pop_a 0 1 3 2
.d 2 0 
	jsr e_StdFile_saccFiles;35
.o 2 0 
	swap_a 2
.d 2 0 
	jsr s30
.o 2 0 
	jmp_ne_desc _None 0 0 else.141
	update_a 1 2
	pop_a 2
	buildh _None 0
.d 2 0 
	pop_b_rtn 4
else.141
	push_a 0
	eq_desc _Just 1 0
	exit_false selector_m_error
	repl_arg 1 1
	push_array 0
	put_a 1
	create 
	push_array 4
	updates2_a 1 4 5
	updates2pop_a 0 2 3
.d 3 0 
	jsr e_ABC.Interpreter.Util_sparse
.o 1 0 
	jmp_ne_desc _None 0 0 else.142
	pop_a 1
	buildh _None 0
.d 2 0 
	pop_b_rtn 4
else.142
	push_b 1
	pushI 8
	mulI
.d 0 1 i
	jsr s29
.o 0 1 i
	push_b 3
	pushI 8
	mulI
.d 0 1 i
	jsr s29
.o 0 1 i
	push2_b 5
	pushI 4
	mulI
	push_b 2
	addI
	push_b_decI 6
	pushI 8
	mulI
	push_b 3
	addI
	push2_b 7
	push_a 0
	eq_desc _Just 1 0
	exit_false selector_m_error
	repl_arg 1 1
	pushI_a 0
	pop_a 2
	push_b2 1 7
	push_b 2
	updates2_b 9 5 4
	updates2_b 11 9 3
	push_b 10
	updates2_b 0 9 11
.d 0 11 iiiiiiiiibb
	pop_b_jsr 1 s26
.o 0 1 i
.d 0 1 i
	push_b_jsr 0 s28
.o 1 1 i
	push2_b 2
	build_u e_ABC.Interpreter_d_f11.191 0 2 e_ABC.Interpreter_n_f11.191
	build e_ABC.Interpreter_d_f10.190 0 e_ABC.Interpreter_n_f10.190
	buildI 0
	push_a 3
	build e_ABC.Interpreter_tInterpretationEnvironment 3 e_ABC.Interpreter_cInterpretationEnvironment
	build e_ABC.Interpreter.Internal_dinterpret 2 e_ABC.Interpreter.Internal_ninterpret
	buildh _Just 1
	put_a 1
.d 2 0 
	pop_b_rtn 6
.export e_ABC.Interpreter_d_f11.191
.export e_ABC.Interpreter_n_f11.191
.descn e_ABC.Interpreter_d_f11.191 e_ABC.Interpreter_n_f11.191 2 0 "_f11.191"
.nu 0 2 e_ABC.Interpreter_d_f11.191 _
.o 1 0 
e_ABC.Interpreter_n_f11.191
	push_node_u _cycle_in_spine 0 2
.o 1 2 ib
ea191
.o 1 2 ib
s191
.d 0 1 b
	push_b_jsr 1 s124
.o 0 1 i
.d 0 1 i
	push_b_jsr 1 s27
.o 0 1 i
	addI
	pushI 0
	pushI 0
	fill_r e_ABC.Interpreter_kFinalizer 0 3 0 0 0
.d 1 0 
	pop_b_rtn 5
.export e_ABC.Interpreter_d_f10.190
.export e_ABC.Interpreter_n_f10.190
.descn e_ABC.Interpreter_d_f10.190 e_ABC.Interpreter_n_f10.190 0 0 "_f10.190"
.n 0 e_ABC.Interpreter_d_f10.190 ea190
.o 1 0 
e_ABC.Interpreter_n_f10.190
	push_node _cycle_in_spine 0
.o 1 0 
ea190
.o 1 0 
s190
	buildh e__SystemArray_dusize;111 0
	buildh e__SystemArray_duselect;110 0
	buildh e__SystemArray_dupdate;109 0
	buildh e__SystemArray_dsize;108 0
	buildh e__SystemArray_dselect;107 0
	buildh e__SystemArray_dreplace;106 0
	buildh e__SystemArray_dcreateArray;105 0
	buildh e__SystemArray_d_createArray;104 0
	buildI 1
	push_update_a 1 2
	updates4_a 7 6 5 4 3
	update_a 8 7
	updates3pop_a 0 1 9 8
.d 9 0 
	jsr e_ABC.Interpreter.Util_screate_array_
.o 1 0 
.d 1 0 
	fill_a01_pop_rtn 
.o 0 1 b
s124
	eqB_b TRUE 0
	jmp_false case.144
	pop_b 1
	pushI 2
.d 0 1 i
	rtn 
case.144
	pop_b 1
	pushI 0
.d 0 1 i
	rtn 
.o 0 1 i
s27
	ccall build_start_node "p:p"
.d 0 1 i
	rtn 
.export e_ABC.Interpreter_sdeserialize_strict
.descexp e_ABC.Interpreter_ddeserialize_strict e_ABC.Interpreter_ndeserialize_strict e_ABC.Interpreter_ldeserialize_strict 4 0 "deserialize_strict"
.a 0 a4
.o 2 0 
e_ABC.Interpreter_ldeserialize_strict
	repl_args 3 3
.o 4 0 
a4
.d 4 0 
	jsr ea4
.o 2 0 
	buildh _Tuple 2
.d 1 0 
	rtn 
.n 4 e_ABC.Interpreter_ddeserialize_strict
.o 1 0 
e_ABC.Interpreter_ndeserialize_strict
	push_node _cycle_in_spine 4
.d 4 0 
	jsr ea4
.o 2 0 
	fillh _Tuple 2 2
.d 1 0 
	rtn 
.o 3 3 iib
e_ABC.Interpreter_sdeserialize_strict
	push_r_args 0 4 0
	update_a 3 4
	update3pop_a 0 1
.d 6 3 iib
	jmp s4
.o 4 0 
ea4
	jsr_eval 3
	jsr_eval 2
	jsr_eval 1
	jsr_eval 0
	push_array 2
	push_r_args 2 4 0
	push_r_args 5 0 3
	update2_a 3 6
	update3pop_a 0 3
.o 6 3 iib
s4
	push3_b 2
	update3pop_b 0 3
	pushB TRUE
.d 6 4 biib
	jsr s176
.o 2 0 
.d 2 0 
	jmp s177
.export e_ABC.Interpreter_sdeserialize
.descexp e_ABC.Interpreter_ddeserialize e_ABC.Interpreter_ndeserialize e_ABC.Interpreter_ldeserialize 4 0 "deserialize"
.a 0 a3
.o 2 0 
e_ABC.Interpreter_ldeserialize
	repl_args 3 3
.o 4 0 
a3
.d 4 0 
	jsr ea3
.o 2 0 
	buildh _Tuple 2
.d 1 0 
	rtn 
.n 4 e_ABC.Interpreter_ddeserialize
.o 1 0 
e_ABC.Interpreter_ndeserialize
	push_node _cycle_in_spine 4
.d 4 0 
	jsr ea3
.o 2 0 
	fillh _Tuple 2 2
.d 1 0 
	rtn 
.o 3 3 iib
e_ABC.Interpreter_sdeserialize
	push_r_args 0 4 0
	update_a 3 4
	update3pop_a 0 1
.d 6 3 iib
	jmp s3
.o 4 0 
ea3
	jsr_eval 3
	jsr_eval 2
	jsr_eval 1
	jsr_eval 0
	push_array 2
	push_r_args 2 4 0
	push_r_args 5 0 3
	update2_a 3 6
	update3pop_a 0 3
.o 6 3 iib
s3
	push3_b 2
	update3pop_b 0 3
	pushB FALSE
.d 6 4 biib
	jmp s176
.o 0 1 b
s120
	eqB_b TRUE 0
	jmp_false case.146
	pop_b 1
	pushI 2
.d 0 1 i
	rtn 
case.146
	pop_b 1
	pushI 0
.d 0 1 i
	rtn 
.o 0 1 i
s28
	push_finalizers
	ccall get_interpretation_environment_finalizer ":p"
	push_a_b 0
	pop_a 1
	build_r e__system_kFinalizer 0 3 0 0
	pop_b 3
	set_finalizers
	pushI 0
.d 1 1 i
	rtn 
.o 1 1 i
s52
	ccall string_to_interpreter "Sp:p"
.d 0 1 i
	rtn 
.o 0 11 iiiiiiiiibb
s26
	ccall build_interpretation_environment "ppIpIppppII:p"
.d 0 1 i
	rtn 
.o 0 1 i
s29
	ccall malloc "I:p"
.d 0 1 i
	rtn 
.o 4 2 ii
s89
	push_b2 0 1
	jmp_ltI else.147
	push_jsr_eval 3
	push_array 0
	put_a 1
	push_b 0
	buildh _Nil 0
	updates2_a 1 0 5
	select e_graph_copy_with_names_rDescInfo 1 1
	push_a 1
	buildh ARRAY 1
	push_b_incI 1
	push_jsr_eval 4
	push_array 0
	updates2_a 5 2 4
	updates2_a_pop_a 0 3 1 1
	push_b 1
	pushI 4
.d 3 2 ii
	jsr s24
.o 0 1 i
	push_ab 3 3
	buildh0_put_a _Nil 5
	update INT 0 1
	update2_a 0 4
	pop_a 2
	updatepop_b 0 2
.d 4 2 ii
	jmp s89
else.147
	updatepop_a 2 3
.d 1 0 
	pop_b_rtn 2
.o 3 2 ii
s24
	andIio 255 1
	pushI 4
	push_b2 0 1
	jmp_geI else.148
	push_b 1
	pushI 1
	jmp_ltI else.149
	pushI 8
	push_b 4
	shiftr%
	decI
	swap_a1 
	put_b 1
	select _ 1 0
	updatepop_b 0 2
.d 2 1 i
	jsr e_graph_copy_with_names_smake_symbol_name
.o 1 0 
	push_a2 0 1
	updates2_a 0 2 3
.d 2 0 
	pop_a_jsr 1 e_symbols_in_program_sget_symbol_value
.o 0 1 i
	jmp_neI_b -1 0 else.150
	buildAC "\n"
	swap_a1 
.d 2 0 
	pop_b_jsr 1 catAC
.o 1 0 
	buildAC "lookup_desc_info not found "
.d 2 0 
	jsr catAC
.o 1 0 
.d 1 0 
	jsr print_string_
.o 0 0 
	halt
	pushI0_pop_a1 
.d 0 1 i
	rtn 
else.150
.d 0 1 i
	pop_a_rtn 1
else.149
	pushI 8
	push_b 4
	shiftr%
	decI
	swap_a1 
	put_b 1
	select _ 1 0
	updatepop_b 0 2
.d 2 1 i
	jsr e_graph_copy_with_names_smake_symbol_name
.o 1 0 
	push_a2 0 1
	updates2_a 0 2 3
.d 2 0 
	pop_a_jsr 1 e_symbols_in_program_sget_symbol_value
.o 0 1 i
	jmp_neI_b -1 0 else.151
	buildAC "\n"
	swap_a1 
.d 2 0 
	pop_b_jsr 1 catAC
.o 1 0 
	buildAC "lookup_desc_info not found "
.d 2 0 
	jsr catAC
.o 1 0 
.d 1 0 
	jsr print_string_
.o 0 0 
	halt
	pushI0_pop_a1 
.d 0 1 i
	rtn 
else.151
	pushI 2
	swap_b1 
	pop_a 1
	addI
.d 0 1 i
	rtn 
else.148
	pushI 8
	push_b 4
	shiftr%
	decI
	swap_a1 
	select _ 1 0
.d 2 1 i
	push_b_jsr 0 e_graph_copy_with_names_smake_symbol_name
.o 1 0 
	push_a2 0 1
	updates2_a 0 2 3
.d 2 0 
	pop_a_jsr 1 e_symbols_in_program_sget_symbol_value
.o 0 1 i
	jmp_neI_b -1 0 else.152
	buildAC "\n"
	swap_a1 
.d 2 0 
	pop_b_jsr 5 catAC
.o 1 0 
	buildAC "lookup_desc_info not found "
.d 2 0 
	jsr catAC
.o 1 0 
.d 1 0 
	jsr print_string_
.o 0 0 
	halt
	pushI0_pop_a1 
.d 0 1 i
	rtn 
else.152
	push_b2 1 2
	subI
	push_b 0
	update_b 5 1
	shiftl%
	push_b 1
	addI
	pushI 2
	update_b 0 6
	updatepop_b 1 5
	pop_a 1
	addI
.d 0 1 i
	rtn 
.o 1 1 i
s88
s118
	jmp_ne_desc _Cons 2 0 case.154
	repl_arg 2 2
	jsr_eval 0
	push_a 0
	incI
.d 1 1 i
	put_a_jmp 1 s88
case.154
.d 0 1 i
	pop_a_rtn 1
.export e_ABC.Interpreter_dgetInterpreterSymbols.23
.export e_ABC.Interpreter_ngetInterpreterSymbols.23
.descn e_ABC.Interpreter_dgetInterpreterSymbols.23 e_ABC.Interpreter_ngetInterpreterSymbols.23 2 0 "getInterpreterSymbols.23"
.n 2 e_ABC.Interpreter_dgetInterpreterSymbols.23 ea23
.o 1 0 
e_ABC.Interpreter_ngetInterpreterSymbols.23
	push_node _cycle_in_spine 2
.o 3 0 
ea23
	jsr_eval 1
	jsr_eval 0
	pushI_a 1
	pushB_a 0
	pop_a 2
.o 1 2 bi
s23
.d 0 1 i
	push_b_jsr 1 s55
.o 0 1 i
	decI
	push_b 2
	build_u e_ABC.Interpreter_dget_symbol_table;61.56 0 1 e_ABC.Interpreter_nget_symbol_table;61.56
	pushI 0
	buildB_b 2
	update2pop_b 0 2
.d 3 2 ii
	jmp s53
.o 0 1 i
s55
	ccall get_symbol_table_size "p:I"
.d 0 1 i
	rtn 
.o 3 2 ii
s53
	push_b2 0 1
	jmp_geI else.155
	fillh _Nil 0 2
.d 1 0 
	pop_ab_rtn 2 2
else.155
	push_jsr_eval 1
	pushI_a 2
	update_a 1 0
	push_b 0
	update_b 2 1
.d 1 2 ii
	jsr s54
.o 1 1 i
	push_arraysize_a CHAR 0 1 0
	jmp_neIi 0 else.156
	fillh _Nil 0 3
.d 1 0 
	pop_ab_rtn 3 3
else.156
	jmp_neI_b -1 0 else.157
	push_b_incI 1
	updatepop_b 0 2
.d 3 2 ii
	pop_a_jmp 1 s53
else.157
	push2_b 2
	push2_a 2
	build_u e_ABC.Interpreter_d_f24.204 2 2 e_ABC.Interpreter_n_f24.204
	build_r e_symbols_in_program_rSymbol 1 1 1 0
	fillh _Cons 2 5
.d 1 0 
	pop_ab_rtn 3 3
.export e_ABC.Interpreter_d_f24.204
.export e_ABC.Interpreter_n_f24.204
.descn e_ABC.Interpreter_d_f24.204 e_ABC.Interpreter_n_f24.204 4 0 "_f24.204"
.nu 2 2 e_ABC.Interpreter_d_f24.204 _
.o 1 0 
e_ABC.Interpreter_n_f24.204
	push_node_u _cycle_in_spine 2 2
.o 3 2 ii
ea204
.o 3 2 ii
s204
	incI
.d 3 2 ii
	jmp s53
.o 1 2 ii
s54
	pushI 16
	push_b 2
	mulI
	put_b 2
	pop_a 1
	addI
	pushI 8
	push_b 1
	addI
.d 0 1 i
	jsr s31
.o 0 1 i
.d 0 1 i
	jsr s34
.o 1 0 
.d 0 1 i
	jsr s31
.o 0 1 i
.d 1 1 i
	rtn 
.o 0 1 i
s34
.d 0 1 i
	push_b_jsr 0 s69
.o 0 1 i
	push_b 0
	update_b 2 1
	subI
	swap_b1 
.d 0 2 ii
	jmp s33
.o 0 1 i
s69
	push_b 0
	load_ui8 0
s117
	eqC_b '\000' 0
	jmp_false case.159
.d 0 1 i
	pop_b_rtn 1
case.159
	push_b_incI 1
	updatepop_b 0 2
.d 0 1 i
	jmp s69
.o 0 1 i
s31
	load_i 0
.d 0 1 i
	rtn 
.export e_ABC.Interpreter_dget_symbol_table;61.56
.export e_ABC.Interpreter_nget_symbol_table;61.56
.descn e_ABC.Interpreter_dget_symbol_table;61.56 e_ABC.Interpreter_nget_symbol_table;61.56 1 0 "get_symbol_table;61.56"
.nu 0 1 e_ABC.Interpreter_dget_symbol_table;61.56
.o 1 0 
e_ABC.Interpreter_nget_symbol_table;61.56
	push_node_u _cycle_in_spine 0 1
.d 0 1 i
	jsr ea56
.o 0 1 i
	fillI_b 0 0
.d 1 0 
	pop_b_rtn 1
.o 0 1 i
ea56
.o 0 1 i
s56
	ccall get_symbol_table "p:p"
.d 0 1 i
	rtn 
.o 3 0 
s87
	push_a 2
	update3pop_a 0 1
s116
	jmp_ne_desc _Cons 2 0 case.161
	repl_args 2 2
	push_jsr_eval 1
	buildo1 e_ABC.Interpreter_n_f9.189 4
	push_jsr_eval 2
	repl_r_args 1 1
	push_jsr_eval 6
	pushI_a 7
	update_a 6 0
	buildh0_dup3_a _Nil 6
	put_a 5
	update e_symbols_in_program_rSymbol 1 1
	update3pop_a 0 4
.d 3 0 
	jmp s87
case.161
	updatepop_a 1 2
.d 1 0 
	rtn 
.export e_ABC.Interpreter_d_f9.189
.export e_ABC.Interpreter_n_f9.189
.descn e_ABC.Interpreter_d_f9.189 e_ABC.Interpreter_n_f9.189 1 0 "_f9.189"
.n 1 e_ABC.Interpreter_d_f9.189 ea189
.o 1 0 
e_ABC.Interpreter_n_f9.189
	push_node _cycle_in_spine 1
.o 2 0 
ea189
.o 2 0 
s189
	jsr_eval 0
	pushI0_pop_a1 
	incI
	fillI_b 0 0
.d 1 0 
	pop_b_rtn 1
.export e_ABC.Interpreter_sserialize
.descexp e_ABC.Interpreter_dserialize e_ABC.Interpreter_nserialize e_ABC.Interpreter_lserialize 3 0 "serialize"
.a 0 a2
.o 2 0 
e_ABC.Interpreter_lserialize
	repl_args 2 2
.o 3 0 
a2
.d 3 0 
	jsr ea2
.o 2 0 
	buildh _Tuple 2
.d 1 0 
	rtn 
.n 3 e_ABC.Interpreter_dserialize
.o 1 0 
e_ABC.Interpreter_nserialize
	push_node _cycle_in_spine 3
.d 3 0 
	jsr ea2
.o 2 0 
	fillh _Tuple 2 2
.d 1 0 
	rtn 
.o 3 0 
ea2
	jsr_eval 2
	jsr_eval 1
	push_array 1
	put_a 2
.o 3 0 
e_ABC.Interpreter_sserialize
.o 3 0 
s2
	push_a 1
	updates3pop_a 0 1 3 2
.d 2 0 
	jsr s30
.o 2 0 
	jmp_ne_desc _None 0 0 else.162
	update_a 1 2
	pop_a 2
	buildh _None 0
.d 2 0 
	rtn 
else.162
	push_a 2
.d 1 0 
	buildh0_put_a_jsr _Nil 4 e_graph_copy_with_names_scopy_to_string_with_names
.o 3 0 
	push_a 2
	buildh ARRAY 1
	push_a 2
	buildh _Nil 0
	updates2_a 1 0 5
	push_arraysize e_graph_copy_with_names_rDescInfo 1 1
	decI
	push_b_incI 0
	create_array_ _ 1 0
	push_ab 1 0
	pushI 0
	push_array 3
	updates2pop_a 0 1 3
	update2pop_b 0 1
.d 3 2 ii
	jsr s86
.o 1 0 
	push_a 5
	eq_desc _Just 1 0
	exit_false selector_m_error
	repl_arg 1 1
	push_array 0
	put_a 1
	pushB FALSE
.d 2 1 b
	buildh0_put_a_jsr _Nil 7 s51
.o 0 2 ii
.d 0 2 ii
	push_b_jsr 1 s33
.o 1 0 
.d 0 1 i
	push_b_jsr 0 e_ABC.Interpreter.Util_sfree_to_false
.o 0 1 b
	jmp_false else.163
	update_a 6 7
	pop_a 7
	buildh _None 0
.d 2 0 
	pop_b_rtn 1
else.163
	push_a 0
	push_array 2
	push2_a 5
	buildhr e_ABC.Interpreter_rSerializedGraph 4 0
	buildh _Just 1
	updates2pop_a 0 7 8
.d 2 0 
	pop_b_rtn 1
.o 0 2 ii
s33
	pushC '\000'
	push_b 2
	create_array CHAR 0 1
	pushI 0
	push_b 1
	updates3pop_b 0 1 3 2
s68
	push_b2 1 2
	jmp_neI else.164
.d 1 0 
	pop_b_rtn 3
else.164
	push_b2 2 0
	addI
	load_ui8 0
	push_b 3
	update CHAR 0 1
	push_b_incI 2
.d 1 3 iii
	put_b_jmp 3 s68
.o 0 1 i
s32
.inline derefChar
	load_ui8 0
.end
.d 0 1 c
	rtn 
.o 3 2 ii
s86
	push_b2 0 1
	jmp_ltI else.165
	push_ab 2 0
	buildh _Nil 0
	updates2_a 1 0 4
	select e_graph_copy_with_names_rDescInfo 1 1
	push_b_incI 1
	push_update_a 0 2
.d 2 1 i
	push_b_jsr 1 s50
.o 1 0 
	push_b 2
	updates2_a 0 2 4
	push_a 3
	updates2pop_a 0 2 4
	update _ 1 0
	push_a 2
	update3pop_a 0 1
	updatepop_b 0 2
.d 3 2 ii
	jmp s86
else.165
	updatepop_a 1 2
.d 1 0 
	pop_b_rtn 2
.o 2 1 i
s50
	andIio 255 0
	pushI 4
	push_b2 0 1
	ltI
	push_b 2
	updates2_b 0 2 3
.d 0 3 bii
	pop_b_jsr 1 s114
.o 0 1 i
	pushI 8
	push_b 2
	shiftr%
	decI
	swap_a1 
	select _ 1 0
	put_b 1
.d 2 1 i
	jsr e_graph_copy_with_names_smake_symbol_name
.o 1 0 
	buildAC "\000"
	swap_a1 
.d 2 0 
	jsr catAC
.o 1 0 
.d 1 0 
	rtn 
.o 0 3 bii
s114
	eqB_b TRUE 0
	jmp_false case.167
	updatepop_b 1 2
.d 0 1 i
	rtn 
case.167
.d 0 1 i
	pop_b_rtn 2
.o 2 1 b
s51
	ccall strip_bytecode "IsA:VIp"
.d 0 2 ii
	rtn 
.o 2 0 
s30
	pushI 3
.d 2 1 i
	jsr e_StdFile_sfopen;32
.o 1 3 bf
	push_b 0
	jmp_true else.168
	buildh _None 0
.d 2 0 
	pop_b_rtn 3
else.168
	update_b 2 0
	pushI 2
	updates2_b 2 0 3
	pushI 0
	put_b 3
.d 0 4 f i i
	jsr seekF
.o 0 3 b f
	push_b 0
	jmp_true else.169
.d 1 2 f
	pop_b_jsr 1 e_StdFile_sfclose;31
.o 1 1 b
	pop_b 1
	buildh _None 0
.d 2 0 
	rtn 
else.169
.d 0 2 f
	pop_b_jsr 1 positionF
.o 0 3 i f
	pushI 0
	pushI 0
	push2_b 4
.d 0 4 f i i
	jsr seekF
.o 0 3 b f
	push_b 0
	jmp_true else.170
	update2pop_b 1 4
.d 1 2 f
	jsr e_StdFile_sfclose;31
.o 1 1 b
	pop_b 1
	buildh _None 0
.d 2 0 
	rtn 
else.170
	update3pop_b 1 3
.d 0 3 f i
	jsr readFS
.o 1 2 f
	swap_a1 
.d 1 2 f
	jsr e_StdFile_sfclose;31
.o 1 1 b
	pop_b 1
	push_a 1
	buildh ARRAY 1
	buildh _Just 1
	update2pop_a 0 1
.d 2 0 
	rtn 
.export e_ABC.Interpreter_sdefaultDeserializationSettings
.descexp e_ABC.Interpreter_ddefaultDeserializationSettings e_ABC.Interpreter_ndefaultDeserializationSettings e_ABC.Interpreter_ldefaultDeserializationSettings 0 0 "defaultDeserializationSettings"
.o 1 0 
e_ABC.Interpreter_ldefaultDeserializationSettings
	halt
.n 0 e_ABC.Interpreter_ddefaultDeserializationSettings
.o 1 0 
e_ABC.Interpreter_ndefaultDeserializationSettings
	push_node _cycle_in_spine 0
.d 0 0 
	jsr ea1
.o 0 3 iib
	fill_r e_ABC.Interpreter_rDeserializationSettings 0 3 0 0 0
.d 1 0 
	pop_b_rtn 3
.o 0 0 
ea1
.o 0 0 
e_ABC.Interpreter_sdefaultDeserializationSettings
.o 0 0 
s1
	pushI 10
	pushI 512
	shiftl%
	pushI 2
	swap_b1 
	mulI
	pushI 20
	pushI 2
	shiftl%
	pushB FALSE
	push_b 1
	updates3pop_b 0 1 3 2
.d 0 3 iib
	rtn 
.o 6 4 biib
s176
.d 0 0 
	jsr e_ABC.Interpreter.Util_sensure_interpreter_init
.o 0 1 b
	jmp_true else.171
	buildAC "internal error in deserialize`\n"
	updatepop_a 0 6
.d 1 0 
	pop_b_jsr 4 print_string_
.o 0 0 
	halt
	repl_args 2 2
	jsr_eval 1
	jsr_eval 0
.d 2 0 
	rtn 
else.171
	push_a 4
	buildh ARRAY 1
	buildh e_symbols_in_program_dread_symbols 1
	push_update_a 0 6
	buildh0_dup2_a _Nil 7
.d 2 0 
	pop_a_jsr 1 e_StdFile_saccFiles;35
.o 2 0 
	create 
	push_a 6
	push_array 2
	update3pop_a 0 1
.d 3 0 
	buildh0_put_a_jsr _Nil 8 e_ABC.Interpreter.Util_sparse
.o 1 0 
	jmp_ne_desc _None 0 0 else.172
	update_a 1 7
	pop_a 7
	buildh _None 0
.d 2 0 
	pop_b_rtn 4
else.172
	push_a 0
	eq_desc _Just 1 0
	exit_false selector_m_error
	repl_arg 1 1
	pushI0_pop_a1 
	push_b 2
	pushI 4
	addI
	pushI 8
	mulI
.d 0 1 i
	pop_a_jsr 1 s29
.o 0 1 i
	push_b 4
	pushI 8
	mulI
.d 0 1 i
	jsr s29
.o 0 1 i
	push2_b 6
	pushI 4
	mulI
	push_b 2
	addI
	push_b_decI 7
	pushI 8
	mulI
	push_b 3
	addI
	push_b2 3 8
	push_b2 5 9
	push_b2 8 9
	update_b 12 9
	push_b 10
	updates2_b 0 9 11
.d 0 11 iiiiiiiiibb
	pop_b_jsr 1 s26
.o 0 1 i
.d 0 1 i
	push_b_jsr 0 s28
.o 1 1 i
	push_a 3
	buildh ARRAY 1
	build e_ABC.Interpreter_dusize;133 1 e_ABC.Interpreter_nusize;133
	buildo1 n_S.1 0
	buildI 1
	swap_a1 
	build e_StdInt_d-;7 2 e_StdInt_n-;7
	buildo1 n_S.2 1
	buildI_b 2
	buildB FALSE
	build e_ABC.Interpreter_dgetInterpreterSymbols.23 2 e_ABC.Interpreter_ngetInterpreterSymbols.23
	buildI_b 2
	buildB FALSE
	build e_ABC.Interpreter_dgetInterpreterSymbols.23 2 e_ABC.Interpreter_ngetInterpreterSymbols.23
	build e_ABC.Interpreter_d_f8.188 2 e_ABC.Interpreter_n_f8.188
	push_b2 3 1
	push_a2 0 8
	push_a 8
	update_a 5 3
	build_u e_ABC.Interpreter_d_f7.187 5 2 e_ABC.Interpreter_n_f7.187
	build e_ABC.Interpreter_d_f6.186 0 e_ABC.Interpreter_n_f6.186
	buildI 0
	push_a 5
	build e_ABC.Interpreter_tInterpretationEnvironment 3 e_ABC.Interpreter_cInterpretationEnvironment
	build e_ABC.Interpreter.Internal_dinterpret 2 e_ABC.Interpreter.Internal_ninterpret
	buildh _Just 1
	update_a 4 10
	updatepop_a 0 9
.d 2 0 
	pop_b_rtn 7
.export e_ABC.Interpreter_d_f8.188
.export e_ABC.Interpreter_n_f8.188
.descn e_ABC.Interpreter_d_f8.188 e_ABC.Interpreter_n_f8.188 2 0 "_f8.188"
.n 2 e_ABC.Interpreter_d_f8.188 ea188
.o 1 0 
e_ABC.Interpreter_n_f8.188
	push_node _cycle_in_spine 2
.o 3 0 
ea188
.o 3 0 
s188
	push_jsr_eval 1
	push_jsr_eval 1
	pushI 0
	buildh0_dup2_a _Nil 3
.d 1 1 i
	pop_a_jsr 1 s88
.o 0 1 i
	create_array_ e_symbols_in_program_rSymbol 1 1
	buildI 0
	update_a 2 4
	dup_a 3
	updatepop_a 1 2
.d 3 0 
	jsr s87
.o 1 0 
	fillh ARRAY 1 1
.d 1 0 
	rtn 
.export e_ABC.Interpreter_d_f7.187
.export e_ABC.Interpreter_n_f7.187
.descn e_ABC.Interpreter_d_f7.187 e_ABC.Interpreter_n_f7.187 7 0 "_f7.187"
.nu 5 2 e_ABC.Interpreter_d_f7.187 _
.o 1 0 
e_ABC.Interpreter_n_f7.187
	push_node_u _cycle_in_spine 5 2
.o 6 2 ib
ea187
.o 6 2 ib
s187
.d 0 1 b
	push_b_jsr 1 s120
.o 0 1 i
	push_jsr_eval 3
	pushI_a 4
	pop_a 1
	pushI_a 3
	incI
	buildh0_put_a _Nil 4
	create_array_ INT 0 1
	updates4_a 3 2 1 5 4
	put_a 3
	pushI 0
.d 4 2 ii
	jsr s89
.o 1 0 
	pushI 0
	pushI 0
	swap_a1 
	pushI 0
.d 2 3 iii
	jsr e_graph_copy_with_names_sreplace_desc_numbers_by_descs
.o 1 0 
.d 1 1 i
	push_b_jsr 1 s52
.o 0 1 i
	addI
	pushI 0
	pushI 0
	fill_r e_ABC.Interpreter_kFinalizer 0 3 0 0 0
.d 1 0 
	pop_b_rtn 5
.export e_ABC.Interpreter_d_f6.186
.export e_ABC.Interpreter_n_f6.186
.descn e_ABC.Interpreter_d_f6.186 e_ABC.Interpreter_n_f6.186 0 0 "_f6.186"
.n 0 e_ABC.Interpreter_d_f6.186 ea186
.o 1 0 
e_ABC.Interpreter_n_f6.186
	push_node _cycle_in_spine 0
.o 1 0 
ea186
.o 1 0 
s186
	buildh e__SystemArray_dusize;111 0
	buildh e__SystemArray_duselect;110 0
	buildh e__SystemArray_dupdate;109 0
	buildh e__SystemArray_dsize;108 0
	buildh e__SystemArray_dselect;107 0
	buildh e__SystemArray_dreplace;106 0
	buildh e__SystemArray_dcreateArray;105 0
	buildh e__SystemArray_d_createArray;104 0
	buildI 1
	push_update_a 1 2
	updates4_a 7 6 5 4 3
	update_a 8 7
	updates3pop_a 0 1 9 8
.d 9 0 
	jsr e_ABC.Interpreter.Util_screate_array_
.o 1 0 
.d 1 0 
	fill_a01_pop_rtn 
.o 2 0 
s177
	jmp_ne_desc _None 0 0 case.174
	pop_a 1
	buildh e_ABC.Interpreter_dDV_ParseError 0
.d 2 0 
	rtn 
case.174
	repl_args 1 1
	jsr_eval 0
.d 2 0 
	rtn 
.o 2 0 
s178
	jmp_ne_desc _None 0 0 case.176
	pop_a 1
	buildh e_ABC.Interpreter_dDV_ParseError 0
.d 2 0 
	rtn 
case.176
	repl_args 1 1
	jsr_eval 0
.d 2 0 
	rtn 
.o 1 3 iii
s179
	push_b2 1 2
	jmp_geI else.177
	pushI 0
	push_b 3
	jmp_ltI else.178
	jsr_eval 0
	push_a 0
	push_array 0
	updatepop_a 0 2
	push_b 2
	select e_symbols_in_program_rSymbol 1 1
	push_b2 0 1
	subI
	pushI 3
	swap_b1 
	shiftr%
	push_a 0
	buildh ARRAY 1
	buildh _Just 1
	put_a 1
	updatepop_b 0 4
.d 1 1 i
	rtn 
else.178
	buildh _None 0
	updatepop_b 0 2
	put_a 1
.d 1 1 i
	rtn 
else.177
	push_b2 1 2
	subI
	incI
	pushI 2
	swap_b1 
	divI
	push_b 2
	addI
	jsr_eval 0
	push_a 0
	push_array 0
	put_a 1
	push_b 0
	select e_symbols_in_program_rSymbol 1 1
	push_b2 0 2
	jmp_o_geI 2 else.179
	push_b_incI 2
	update_b 0 5
	pop_b 4
.d 1 3 iii
	pop_a_jmp 1 s179
else.179
	push_b2 0 3
	jmp_geI else.180
	push_b_decI 2
	update_b 0 6
	pop_b 4
.d 1 3 iii
	pop_a_jmp 1 s179
else.180
	push_a 0
	buildh ARRAY 1
	buildh _Just 1
	pushI 0
	updatepop_a 0 2
	updatepop_b 0 6
.d 1 1 i
	rtn 
.export e_ABC.Interpreter_dusize;133
.export e_ABC.Interpreter_nusize;133
.descn e_ABC.Interpreter_dusize;133 _ 1 0 "usize;133"
.n 1 e_ABC.Interpreter_dusize;133
.o 1 0 
e_ABC.Interpreter_nusize;133
	push_node _cycle_in_spine 1
.d 1 0 
	jsr eausize;133
.o 1 1 i
	push_a 0
	buildh ARRAY 1
	buildI_b 0
	fillh _Tuple 2 3
.d 1 0 
	pop_ab_rtn 1 1
.o 1 0 
eausize;133
	jsr_eval 0
	push_array 0
	dup_a 1
	push_arraysize e_graph_copy_with_names_rDescInfo 1 1
.d 1 1 i
	rtn 
.export e_ABC.Interpreter_dselect;129
.export e_ABC.Interpreter_nselect;129
.descn e_ABC.Interpreter_dselect;129 _ 2 0 "select;129"
.n 2 e_ABC.Interpreter_dselect;129
.o 1 0 
e_ABC.Interpreter_nselect;129
	push_node _cycle_in_spine 2
.d 2 0 
	jsr easelect;129
.o 1 1 i
	fill_r e_graph_copy_with_names_rDescInfo 1 1 1 0 0
.d 1 0 
	pop_ab_rtn 1 1
.o 2 0 
easelect;129
	jsr_eval 1
	jsr_eval 0
	pushI_a 1
	push_array 0
	updatepop_a 0 2
	select e_graph_copy_with_names_rDescInfo 1 1
.d 1 1 i
	rtn 
.export e_ABC.Interpreter_dusize;141
.export e_ABC.Interpreter_nusize;141
.descn e_ABC.Interpreter_dusize;141 _ 1 0 "usize;141"
.n 1 e_ABC.Interpreter_dusize;141
.o 1 0 
e_ABC.Interpreter_nusize;141
	push_node _cycle_in_spine 1
.d 1 0 
	jsr eausize;141
.o 1 1 i
	push_a 0
	buildh ARRAY 1
	buildI_b 0
	fillh _Tuple 2 3
.d 1 0 
	pop_ab_rtn 1 1
.o 1 0 
eausize;141
	jsr_eval 0
	push_array 0
	dup_a 1
	push_arraysize e_symbols_in_program_rSymbol 1 1
.d 1 1 i
	rtn 
.impmod _system
.implab _match_error
.implab selector_m_error
