.comp 920 000011110011000
.start _nostart_
.depend "Data.Func" "20210430140248"
.depend "Control.Monad.Trans" "20210430140248"
.depend "StdMaybe" "20210430140248"
.depend "Data.Maybe" "20210430140248"
.depend "System._Signal" "20210430140248"
.depend "System.Signal" "20210430140248"
.depend "_SystemStrictMaybes" "20210430140248"
.depend "Text.GenPrint" "20210430140248"
.depend "iTasks.Extensions.DateTime" "20210430140248"
.depend "iTasks.Internal.TaskServer" "20210430140248"
.depend "iTasks.Extensions.Document" "20210430140248"
.depend "System.File" "20210430140248"
.depend "iTasks.Internal.SDS" "20210430140248"
.depend "iTasks.Internal.TaskEval" "20210430140248"
.depend "iTasks.UI.Layout" "20210430140248"
.depend "iTasks.Internal.TaskState" "20210430140248"
.depend "iTasks.WF.Combinators.Core" "20210430140248"
.depend "Data.IntMap.Base" "20210430140248"
.depend "Data.IntMap.Strict" "20210430140248"
.depend "Data.CircularStack" "20210430140248"
.depend "System._Process" "20210430140248"
.depend "System.Process" "20210430140248"
.depend "System.OS" "20210430140248"
.depend "Data.GenHash" "20210430140248"
.depend "Data.Maybe.Ord" "20210430140248"
.depend "Control.GenBimap" "20210430140248"
.depend "ABC.Interpreter.JavaScript" "20210430140248"
.depend "ABC.Interpreter" "20210430140248"
.depend "iTasks.UI.Editor" "20210430140248"
.depend "iTasks.UI.Editor.Generic" "20210430140248"
.depend "iTasks.Internal.Generic.Defaults" "20210430140248"
.depend "Data.GenDefault" "20210430140248"
.depend "Data.Integer" "20210430140248"
.depend "Text.HTML" "20210430140248"
.depend "iTasks.Internal.Generic.Visualization" "20210430140248"
.depend "iTasks.SDS.Definition" "20210430140248"
.depend "TCPStringChannelsInternal" "20210430140248"
.depend "TCPStringChannels" "20210430140248"
.depend "TCPEvent" "20210430140248"
.depend "tcp_bytestreams" "20210430140248"
.depend "TCPDef" "20210430140248"
.depend "TCPChannels" "20210430140248"
.depend "TCPIP" "20210430140248"
.depend "iTasks.WF.Tasks.IO" "20210430140248"
.depend "iTasks.Internal.Task" "20210430140248"
.depend "iTasks.UI.Definition" "20210430140248"
.depend "Text.GenJSON" "20210430140248"
.depend "Data.Bifunctor" "20210430140248"
.depend "Data.Either" "20210430140248"
.depend "Data.Queue" "20210430140248"
.depend "StdFile" "20210430140248"
.depend "symbols_in_program" "20210430140248"
.depend "iTasks.Internal.IWorld" "20210430140248"
.depend "iTasks.WF.Definition" "20210430140248"
.depend "tcp" "20210430140248"
.depend "TCPChannelClass" "20210430140248"
.depend "System._Time" "20210430140248"
.depend "System.Time" "20210430140248"
.depend "System.GetOpt" "20210430140248"
.depend "System.OSError" "20210430140248"
.depend "System.FilePath" "20210430140248"
.depend "StdString" "20210430140248"
.depend "Internet.HTTP" "20210430140248"
.depend "Control.Monad.Fail" "20210430140248"
.depend "Data.Traversable" "20210430140248"
.depend "StdMisc" "20210430140248"
.depend "StdOverloadedList" "20210430140248"
.depend "Data.List" "20210430140248"
.depend "Data.Foldable" "20210430140248"
.depend "Data.Set" "20210430140248"
.depend "Data.GenLexOrd" "20210430140248"
.depend "StdFunctions" "20210430140248"
.depend "StdFunc" "20210430140248"
.depend "Data.Map" "20210430140248"
.depend "_SystemEnumStrict" "20210430140248"
.depend "_SystemStrictLists" "20210430140248"
.depend "StdStrictLists" "20210430140248"
.depend "StdGeneric" "20210430140248"
.depend "Data.GenEq" "20210430140248"
.depend "StdReal" "20210430140248"
.depend "StdChar" "20210430140248"
.depend "StdInt" "20210430140248"
.depend "StdBool" "20210430140248"
.depend "StdClass" "20210430140248"
.depend "StdList" "20210430140248"
.depend "Data.Monoid" "20210430140248"
.depend "Control.Applicative" "20210430140248"
.depend "Control.Monad" "20210430140248"
.depend "Data.Functor" "20210430140248"
.depend "Data.Error" "20210430140248"
.depend "iTasks.Engine" "20210430140248"
.depend "StdOverloaded" "20210430140248"
.depend "_SystemDynamic" "20210430140248"
.depend "iTasks.Util.DeferredJSON" "20210430140248"
.module m_iTasks.Util.DeferredJSON "iTasks.Util.DeferredJSON" "20210430140248"
.endinfo
.impmod _system
.implab _cycle_in_spine
.implab _type_error
.implab _hnf
.impdesc e_system_dind
.implab e_system_nind e_system_eaind
.impdesc e_system_dif
.implab e_system_nif e_system_eaif
.implab e_system_sif
.impdesc e_system_dAP
.implab e_system_nAP e_system_eaAP
.implab e_system_sAP
.impdesc ARRAY
.impdesc _Nil
.impdesc _Cons
.impdesc _Conss
.implab n_Conss ea_Conss
.impdesc _Consts
.implab n_Consts ea_Consts
.impdesc _Conssts
.implab n_Conssts ea_Conssts
.impdesc _Tuple
.impdesc d_S.1
.implab n_S.1 ea_S.1
.impdesc d_S.2
.implab n_S.2 ea_S.2
.impdesc d_S.3
.implab n_S.3 ea_S.3
.impdesc d_S.4
.implab n_S.4 ea_S.4
.impdesc d_S.5
.implab n_S.5 ea_S.5
.impdesc d_S.6
.implab n_S.6 ea_S.6
.implab _driver
.impmod Data.Maybe
.impdesc e_Data.Maybe_dfmap;5
.implab e_Data.Maybe_nfmap;5 e_Data.Maybe_eafmap;5
.impmod iTasks.Internal.Generic.Visualization
.implab e_iTasks.Internal.Generic.Visualization_sgText_JSONNode;34
.impmod Text.GenJSON
.impdesc e_Text.GenJSON_dtoJSON
.implab e_Text.GenJSON_stoJSON
.implab e_Text.GenJSON_sfromJSON
.implab e_Text.GenJSON_stoString;7
.implab e_Text.GenJSON_sgEq_JSONNode;11
.impmod _SystemDynamic
.implab e__SystemDynamic_s_initial_unification_environment
.implab e__SystemDynamic_s_bind_global_type_pattern_var
.implab e__SystemDynamic_s_unify
.impdesc e__SystemDynamic_d_normalise
.implab e__SystemDynamic_n_normalise e__SystemDynamic_ea_normalise
.impmod Text.GenJSON
.impdesc e_Text.GenJSON_dJSONNull
.impmod _SystemDynamic
.impdesc e__SystemDynamic_rDynamicTemp
.impdesc e__SystemDynamic_kTypeVar
.export e_iTasks.Util.DeferredJSON_eaDeferredJSON
.descexp e_iTasks.Util.DeferredJSON_dDeferredJSON e_iTasks.Util.DeferredJSON_nDeferredJSON e_iTasks.Util.DeferredJSON_lDeferredJSON 3 0 "DeferredJSON"
.a 3 e_iTasks.Util.DeferredJSON_eaDeferredJSON
.o 2 0 
e_iTasks.Util.DeferredJSON_lDeferredJSON
	push_args 0 2 2
	update_a 3 2
	create 
.d 4 0 
	put_a_jmp 4 e_iTasks.Util.DeferredJSON_eaDeferredJSON
.n 3 e_iTasks.Util.DeferredJSON_dDeferredJSON e_iTasks.Util.DeferredJSON_eaDeferredJSON
.o 1 0 
e_iTasks.Util.DeferredJSON_nDeferredJSON
	push_node _cycle_in_spine 3
.o 4 0 
e_iTasks.Util.DeferredJSON_eaDeferredJSON
	jsr_eval 2
	jsr_eval 1
	jsr_eval 0
	push_r_args 1 1 0
	put_a 2
	fill_r e_iTasks.Util.DeferredJSON_kDeferredJSON 3 0 3 0 0
.d 1 0 
	pop_a_rtn 3
.export e_iTasks.Util.DeferredJSON_eaDeferredJSONNode
.descexp e_iTasks.Util.DeferredJSON_dDeferredJSONNode e_iTasks.Util.DeferredJSON_nDeferredJSONNode e_iTasks.Util.DeferredJSON_lDeferredJSONNode 1 0 "DeferredJSONNode"
.o 2 0 
e_iTasks.Util.DeferredJSON_lDeferredJSONNode
	update_a 1 0
	create 
.d 2 0 
	put_a_jmp 2 e_iTasks.Util.DeferredJSON_eaDeferredJSONNode
.n 1 e_iTasks.Util.DeferredJSON_dDeferredJSONNode e_iTasks.Util.DeferredJSON_eaDeferredJSONNode
.o 1 0 
e_iTasks.Util.DeferredJSON_nDeferredJSONNode
	push_node _cycle_in_spine 1
.o 2 0 
e_iTasks.Util.DeferredJSON_eaDeferredJSONNode
	jsr_eval 0
	fill_r e_iTasks.Util.DeferredJSON_kDeferredJSONNode 1 0 1 0 0
.d 1 0 
	pop_a_rtn 1
.impmod StdGeneric
.impdesc e_StdGeneric_rGenericDict
.export e_iTasks.Util.DeferredJSON_kDeferredJSON
.record e_iTasks.Util.DeferredJSON_kDeferredJSON da{a}a 3 0 e_StdGeneric_rGenericDict "DeferredJSON"
.export e_iTasks.Util.DeferredJSON_kDeferredJSONNode
.record e_iTasks.Util.DeferredJSON_kDeferredJSONNode da 1 0 "DeferredJSONNode"
.export e_iTasks.Util.DeferredJSON_rJSONEncode_s;
.record e_iTasks.Util.DeferredJSON_rJSONEncode_s; a 1 0 "JSONEncode_s;"
.export e_iTasks.Util.DeferredJSON_tJSONEncode_s;
.export e_iTasks.Util.DeferredJSON_cJSONEncode_s;
.descn e_iTasks.Util.DeferredJSON_tJSONEncode_s; e_iTasks.Util.DeferredJSON_cJSONEncode_s; 1 1 "JSONEncode_s;"
.n 1 e_iTasks.Util.DeferredJSON_tJSONEncode_s;
.o 1 0 
e_iTasks.Util.DeferredJSON_cJSONEncode_s;
	push_node _cycle_in_spine 1
	jsr_eval 0
.impmod iTasks.Util.DeferredJSON
.impdesc e_iTasks.Util.DeferredJSON_rJSONEncode_s;
	fill_r e_iTasks.Util.DeferredJSON_rJSONEncode_s; 1 0 1 0 0
.d 1 0 
	pop_a_rtn 1
.export e_iTasks.Util.DeferredJSON_sTD;DeferredJSON
.export e_iTasks.Util.DeferredJSON_eaTD;DeferredJSON
.descexp e_iTasks.Util.DeferredJSON_dTD;DeferredJSON e_iTasks.Util.DeferredJSON_nTD;DeferredJSON e_iTasks.Util.DeferredJSON_lTD;DeferredJSON 1 0 "TD;DeferredJSON"
.o 2 0 
e_iTasks.Util.DeferredJSON_lTD;DeferredJSON
	update_a 1 0
	create 
.d 2 0 
	put_a_jmp 2 e_iTasks.Util.DeferredJSON_eaTD;DeferredJSON
.n 1 e_iTasks.Util.DeferredJSON_dTD;DeferredJSON e_iTasks.Util.DeferredJSON_eaTD;DeferredJSON
.o 1 0 
e_iTasks.Util.DeferredJSON_nTD;DeferredJSON
	push_node _cycle_in_spine 1
.o 2 0 
e_iTasks.Util.DeferredJSON_eaTD;DeferredJSON
.o 2 0 
e_iTasks.Util.DeferredJSON_sTD;DeferredJSON
.o 2 0 
s7
	fillh _Nil 0 1
.d 1 0 
	pop_a_rtn 1
.export e_iTasks.Util.DeferredJSON_sgText_DeferredJSON;5
.export e_iTasks.Util.DeferredJSON_eagText_DeferredJSON;5
.descexp e_iTasks.Util.DeferredJSON_dgText_DeferredJSON;5 e_iTasks.Util.DeferredJSON_ngText_DeferredJSON;5 e_iTasks.Util.DeferredJSON_lgText_DeferredJSON;5 2 0 "gText_DeferredJSON;5"
.o 4 0 
e_iTasks.Util.DeferredJSON_igText_DeferredJSON;5
.d 3 0 
	pop_a_jmp 1 s6
.ai 2 e_iTasks.Util.DeferredJSON_eagText_DeferredJSON;5 e_iTasks.Util.DeferredJSON_igText_DeferredJSON;5
.o 2 0 
e_iTasks.Util.DeferredJSON_lgText_DeferredJSON;5
	push_args 0 1 1
	update_a 2 1
	create 
.d 3 0 
	put_a_jmp 3 e_iTasks.Util.DeferredJSON_eagText_DeferredJSON;5
.n 2 e_iTasks.Util.DeferredJSON_dgText_DeferredJSON;5 e_iTasks.Util.DeferredJSON_eagText_DeferredJSON;5
.o 1 0 
e_iTasks.Util.DeferredJSON_ngText_DeferredJSON;5
	push_node _cycle_in_spine 2
.o 3 0 
e_iTasks.Util.DeferredJSON_eagText_DeferredJSON;5
	jsr_eval 0
.o 3 0 
e_iTasks.Util.DeferredJSON_sgText_DeferredJSON;5
.o 3 0 
s6
	buildh e_iTasks.Util.DeferredJSON_dJSONEncode_DeferredJSON;2 0
	buildhr e_iTasks.Util.DeferredJSON_rJSONEncode_s; 1 0
	buildh e_Text.GenJSON_dtoJSON 1
	push_update_a 0 2
	build e_Data.Maybe_dfmap;5 2 e_Data.Maybe_nfmap;5
.d 3 0 
	put_a_jmp 2 e_iTasks.Internal.Generic.Visualization_sgText_JSONNode;34
.export e_iTasks.Util.DeferredJSON_sgEq_DeferredJSON;4
.descexp e_iTasks.Util.DeferredJSON_dgEq_DeferredJSON;4 e_iTasks.Util.DeferredJSON_ngEq_DeferredJSON;4 e_iTasks.Util.DeferredJSON_lgEq_DeferredJSON;4 2 0 "gEq_DeferredJSON;4"
.o 3 0 
e_iTasks.Util.DeferredJSON_igEq_DeferredJSON;4
.d 2 0 
	pop_a_jmp 1 s5
.ai 0 a5 e_iTasks.Util.DeferredJSON_igEq_DeferredJSON;4
.o 2 0 
e_iTasks.Util.DeferredJSON_lgEq_DeferredJSON;4
	repl_args 1 1
.o 2 0 
a5
.d 2 0 
	jsr ea5
.o 0 1 b
	buildB_b 0
.d 1 0 
	pop_b_rtn 1
.n 2 e_iTasks.Util.DeferredJSON_dgEq_DeferredJSON;4
.o 1 0 
e_iTasks.Util.DeferredJSON_ngEq_DeferredJSON;4
	push_node _cycle_in_spine 2
.d 2 0 
	jsr ea5
.o 0 1 b
	fillB_b 0 0
.d 1 0 
	pop_b_rtn 1
.o 2 0 
ea5
	jsr_eval 1
	jsr_eval 0
.o 2 0 
e_iTasks.Util.DeferredJSON_sgEq_DeferredJSON;4
.o 2 0 
s5
	buildh e_iTasks.Util.DeferredJSON_dJSONEncode_DeferredJSON;2 0
	create 
	push_update_a 1 3
	updates3pop_a 0 1 3 4
.d 3 0 
	jsr e_Text.GenJSON_stoJSON
.o 1 0 
	buildh e_iTasks.Util.DeferredJSON_dJSONEncode_DeferredJSON;2 0
	create 
	push_update_a 1 0
	update_a 4 1
.d 3 0 
	buildh0_put_a_jsr _Nil 5 e_Text.GenJSON_stoJSON
.o 1 0 
	update2pop_a 0 1
.d 2 0 
	jmp e_Text.GenJSON_sgEq_JSONNode;11
.export e_iTasks.Util.DeferredJSON_sJSONDecode_DeferredJSON;3
.descexp e_iTasks.Util.DeferredJSON_dJSONDecode_DeferredJSON;3 e_iTasks.Util.DeferredJSON_nJSONDecode_DeferredJSON;3 e_iTasks.Util.DeferredJSON_lJSONDecode_DeferredJSON;3 2 0 "JSONDecode_DeferredJSON;3"
.o 2 1 b
e_iTasks.Util.DeferredJSON_iJSONDecode_DeferredJSON;3
.d 1 1 b
	pop_a_jmp 1 s4
.ai 0 a4 e_iTasks.Util.DeferredJSON_iJSONDecode_DeferredJSON;3
.o 2 0 
e_iTasks.Util.DeferredJSON_lJSONDecode_DeferredJSON;3
	repl_args 1 1
.o 2 0 
a4
.d 2 0 
	jsr ea4
.o 2 0 
	buildh _Tuple 2
.d 1 0 
	rtn 
.n 2 e_iTasks.Util.DeferredJSON_dJSONDecode_DeferredJSON;3
.o 1 0 
e_iTasks.Util.DeferredJSON_nJSONDecode_DeferredJSON;3
	push_node _cycle_in_spine 2
.d 2 0 
	jsr ea4
.o 2 0 
	fillh _Tuple 2 2
.d 1 0 
	rtn 
.o 2 0 
ea4
	jsr_eval 1
	jsr_eval 0
	pushB0_pop_a1 
.o 1 1 b
e_iTasks.Util.DeferredJSON_sJSONDecode_DeferredJSON;3
.o 1 1 b
s4
	jmp_ne_desc _Nil 0 0 case.2
	buildh _Nil 0
	buildh e_Text.GenJSON_dJSONNull 0
	buildhr e_iTasks.Util.DeferredJSON_kDeferredJSONNode 1 0
	buildh _Just 1
	update2pop_a 0 1
.d 2 0 
	pop_b_rtn 1
case.2
	repl_args 2 2
	push_jsr_eval 1
	push_jsr_eval 1
	buildhr e_iTasks.Util.DeferredJSON_kDeferredJSONNode 1 0
	buildh _Just 1
	update2pop_a 0 2
.d 2 0 
	pop_b_rtn 1
case.3
	buildh _None 0
.d 2 0 
	pop_b_rtn 1
.export e_iTasks.Util.DeferredJSON_sJSONEncode_DeferredJSON;2
.export e_iTasks.Util.DeferredJSON_eaJSONEncode_DeferredJSON;2
.descexp e_iTasks.Util.DeferredJSON_dJSONEncode_DeferredJSON;2 e_iTasks.Util.DeferredJSON_nJSONEncode_DeferredJSON;2 e_iTasks.Util.DeferredJSON_lJSONEncode_DeferredJSON;2 2 0 "JSONEncode_DeferredJSON;2"
.o 3 1 b
e_iTasks.Util.DeferredJSON_iJSONEncode_DeferredJSON;2
.d 2 1 b
	pop_a_jmp 1 s3
.ai 2 e_iTasks.Util.DeferredJSON_eaJSONEncode_DeferredJSON;2 e_iTasks.Util.DeferredJSON_iJSONEncode_DeferredJSON;2
.o 2 0 
e_iTasks.Util.DeferredJSON_lJSONEncode_DeferredJSON;2
	push_args 0 1 1
	update_a 2 1
	create 
.d 3 0 
	put_a_jmp 3 e_iTasks.Util.DeferredJSON_eaJSONEncode_DeferredJSON;2
.n 2 e_iTasks.Util.DeferredJSON_dJSONEncode_DeferredJSON;2 e_iTasks.Util.DeferredJSON_eaJSONEncode_DeferredJSON;2
.o 1 0 
e_iTasks.Util.DeferredJSON_nJSONEncode_DeferredJSON;2
	push_node _cycle_in_spine 2
.o 3 0 
e_iTasks.Util.DeferredJSON_eaJSONEncode_DeferredJSON;2
	jsr_eval 1
	jsr_eval 0
	pushB0_pop_a1 
.o 2 1 b
e_iTasks.Util.DeferredJSON_sJSONEncode_DeferredJSON;2
.o 2 1 b
s3
	jmp_ne_desc e_iTasks.Util.DeferredJSON_kDeferredJSON 0 0 case.5
	repl_args 3 3
	pop_a 1
	pop_b_pushB 1 FALSE
.d 3 1 b
	jmp_i 2
case.5
	repl_args 1 1
	buildh _Nil 0
	push_a 1
	fillh _Cons 2 3
.d 1 0 
	pop_ab_rtn 1 1
.export e_iTasks.Util.DeferredJSON_stoString;1
.descexp e_iTasks.Util.DeferredJSON_dtoString;1 e_iTasks.Util.DeferredJSON_ntoString;1 e_iTasks.Util.DeferredJSON_ltoString;1 1 0 "toString;1"
.o 2 0 
e_iTasks.Util.DeferredJSON_itoString;1
.d 1 0 
	pop_a_jmp 1 s2
.ai 1 _ e_iTasks.Util.DeferredJSON_itoString;1
.o 2 0 
e_iTasks.Util.DeferredJSON_ltoString;1
.d 1 0 
	pop_a_jsr 1 ea2
.o 1 0 
	buildh ARRAY 1
.d 1 0 
	rtn 
.n 1 e_iTasks.Util.DeferredJSON_dtoString;1
.o 1 0 
e_iTasks.Util.DeferredJSON_ntoString;1
	push_node _cycle_in_spine 1
.d 1 0 
	jsr ea2
.o 1 0 
	fillh ARRAY 1 1
.d 1 0 
	rtn 
.o 1 0 
ea2
	jsr_eval 0
.o 1 0 
e_iTasks.Util.DeferredJSON_stoString;1
.o 1 0 
s2
	jmp_ne_desc e_iTasks.Util.DeferredJSON_kDeferredJSON 0 0 case.7
	repl_args 3 3
	pop_a 1
	create 
	push_a 1
	updates3pop_a 0 1 3 2
.d 3 0 
	jsr e_Text.GenJSON_stoJSON
.o 1 0 
.d 1 0 
	jmp e_Text.GenJSON_stoString;7
case.7
	repl_args 1 1
.d 1 0 
	jmp e_Text.GenJSON_stoString;7
.export e_iTasks.Util.DeferredJSON_sfromDeferredJSON
.export e_iTasks.Util.DeferredJSON_eafromDeferredJSON
.descexp e_iTasks.Util.DeferredJSON_dfromDeferredJSON e_iTasks.Util.DeferredJSON_nfromDeferredJSON e_iTasks.Util.DeferredJSON_lfromDeferredJSON 3 0 "fromDeferredJSON"
.a 3 e_iTasks.Util.DeferredJSON_eafromDeferredJSON
.o 2 0 
e_iTasks.Util.DeferredJSON_lfromDeferredJSON
	push_args 0 2 2
	update_a 3 2
	create 
.d 4 0 
	put_a_jmp 4 e_iTasks.Util.DeferredJSON_eafromDeferredJSON
.n 3 e_iTasks.Util.DeferredJSON_dfromDeferredJSON e_iTasks.Util.DeferredJSON_eafromDeferredJSON
.o 1 0 
e_iTasks.Util.DeferredJSON_nfromDeferredJSON
	push_node _cycle_in_spine 3
.o 4 0 
e_iTasks.Util.DeferredJSON_eafromDeferredJSON
	jsr_eval 2
	jsr_eval 1
	jsr_eval 0
	push_r_args 1 1 0
	put_a 2
.o 4 0 
e_iTasks.Util.DeferredJSON_sfromDeferredJSON
.o 4 0 
s1
	push_a 2
	update3pop_a 0 1
s10
	jmp_ne_desc e_iTasks.Util.DeferredJSON_kDeferredJSON 0 0 case.9
	push_args 0 3 3
	put_a 1
	create 
	pushI 0
	pushI 2
.d 1 2 ii
	jsr e__SystemDynamic_s_initial_unification_environment
.o 1 0 
	pushI 1
	buildhr e__SystemDynamic_kTypeVar 0 1
	create 
	push_update_a 1 2
	updates2_a 7 1 3
.d 4 0 
	buildh0_put_a_jsr _Nil 8 e__SystemDynamic_s_bind_global_type_pattern_var
.o 1 0 
	pushI 0
	buildhr e__SystemDynamic_kTypeVar 0 1
	create 
	push_a 1
	updates3pop_a 0 1 4 2
.d 4 0 
	jsr e__SystemDynamic_s_bind_global_type_pattern_var
.o 1 0 
	pushI 0
	buildhr e__SystemDynamic_kTypeVar 0 1
	push_a 1
	build e__SystemDynamic_d_normalise 2 e__SystemDynamic_n_normalise
	push_a 2
	buildhr e__SystemDynamic_rDynamicTemp 2 0
	update_a 3 4
	update2pop_a 0 2
.d 5 0 
	jmp s9
case.9
.d 3 0 
	put_a_jmp 1 s8
.o 5 0 
s9
	jmp case.10
case.10
	push_args_u 0 2 2
	pushI 1
	buildhr e__SystemDynamic_kTypeVar 0 1
	push_jsr_eval 2
	update2_a 1 6
	updates2_a 0 5 4
.d 3 0 
	pop_a_jsr 4 e__SystemDynamic_s_unify
.o 1 1 b
	jmp_b_false 0 else.12
	push_jsr_eval 1
	fillh _Just 1 3
.d 1 0 
	pop_ab_rtn 2 1
else.12
	fillh _None 0 2
.d 1 0 
	pop_ab_rtn 2 1
case.11
.d 3 0 
	pop_a_jmp 2 s8
.o 3 0 
s8
	jmp_ne_desc e_iTasks.Util.DeferredJSON_kDeferredJSONNode 0 0 s8.1
	repl_args 1 1
	swap_a1 
.d 3 0 
	jmp e_Text.GenJSON_sfromJSON
s8.1
	pushD m_iTasks.Util.DeferredJSON
	pushD x_8
.d 0 2 ii
	pop_a_jmp 3 _match_error
.string x_8 "_f500;500"
.impmod _system
.implab _match_error
