.comp 920 000011110011000
.start _nostart_
.depend "Data.Tuple" "20210613154827"
.depend "Text" "20210613154827"
.depend "StdCharList" "20210613154827"
.depend "_SystemArray" "20210613154827"
.depend "StdArray" "20210613154827"
.depend "StdEnv" "20210613154827"
.depend "_SystemEnum" "20210613154827"
.depend "StdEnum" "20210613154827"
.depend "StdTuple" "20210613154827"
.depend "StdOrdList" "20210613154827"
.depend "System.File" "20210613154827"
.depend "Data.Bifunctor" "20210613154827"
.depend "StdFile" "20210613154827"
.depend "System._Time" "20210613154827"
.depend "System.Time" "20210613154827"
.depend "System.OSError" "20210613154827"
.depend "System.FilePath" "20210613154827"
.depend "StdString" "20210613154827"
.depend "Control.Monad.Fail" "20210613154827"
.depend "Data.Traversable" "20210613154827"
.depend "StdMisc" "20210613154827"
.depend "StdOverloadedList" "20210613154827"
.depend "Data.List" "20210613154827"
.depend "Data.Foldable" "20210613154827"
.depend "StdFunctions" "20210613154827"
.depend "StdFunc" "20210613154827"
.depend "_SystemEnumStrict" "20210613154827"
.depend "_SystemStrictLists" "20210613154827"
.depend "StdStrictLists" "20210613154827"
.depend "StdGeneric" "20210613154827"
.depend "Data.GenEq" "20210613154827"
.depend "StdReal" "20210613154827"
.depend "StdChar" "20210613154827"
.depend "StdInt" "20210613154827"
.depend "StdBool" "20210613154827"
.depend "StdClass" "20210613154827"
.depend "StdList" "20210613154827"
.depend "Data.Monoid" "20210613154827"
.depend "Control.Applicative" "20210613154827"
.depend "Control.Monad" "20210613154827"
.depend "Data.Functor" "20210613154827"
.depend "Data.Error" "20210613154827"
.depend "StdOverloaded" "20210613154827"
.depend "_SystemDynamic" "20210613154827"
.depend "Crypto.Hash.SHA1" "20210613154827"
.module m_Crypto.Hash.SHA1 "Crypto.Hash.SHA1" "20210613154827"
.endinfo
.impmod _system
.implab _cycle_in_spine
.implab _type_error
.implab _hnf
.impdesc e_system_dind
.implab e_system_nind e_system_eaind
.impdesc e_system_dif
.implab e_system_nif e_system_eaif
.implab e_system_sif
.impdesc e_system_dAP
.implab e_system_nAP e_system_eaAP
.implab e_system_sAP
.impdesc ARRAY
.impdesc _Nil
.impdesc _Cons
.impdesc _Conss
.implab n_Conss ea_Conss
.impdesc _Consts
.implab n_Consts ea_Consts
.impdesc _Conssts
.implab n_Conssts ea_Conssts
.impdesc _Tuple
.impdesc d_S.1
.implab n_S.1 ea_S.1
.impdesc d_S.2
.implab n_S.2 ea_S.2
.impdesc d_S.3
.implab n_S.3 ea_S.3
.impdesc d_S.4
.implab n_S.4 ea_S.4
.impdesc d_S.5
.implab n_S.5 ea_S.5
.impdesc d_S.6
.implab n_S.6 ea_S.6
.implab _driver
.impmod Data.Tuple
.implab e_Data.Tuple_sappFst
.impmod Text
.implab e_Text_sjoin;9
.impmod _SystemArray
.impmod _SystemEnum
.implab e__SystemEnum_s_from_to;6
.impmod System.File
.implab e_System.File_sreadFile
.impmod StdString
.implab e_StdString_s+++;11
.impmod StdChar
.implab e_StdChar_stoChar;21
.impmod StdInt
.implab e_StdInt_sbitor
.implab e_StdInt_sbitand
.implab e_StdInt_sbitxor
.implab e_StdInt_s<<
.implab e_StdInt_s>>
.implab e_StdInt_sbitnot
.implab e_StdInt_s+;6
.implab e_StdInt_s-;7
.impdesc e_StdInt_d*;9
.implab e_StdInt_s*;9
.implab e_StdInt_n*;9
.implab e_StdInt_s/;10
.implab e_StdInt_sone;11
.implab e_StdInt_s==;16
.implab e_StdInt_s<;17
.implab e_StdInt_stoInt;20
.implab e_StdInt_srem;28
.impmod StdBool
.implab e_StdBool_snot
.impmod StdList
.implab e_StdList_s!!
.implab e_StdList_s++
.implab e_StdList_szip
.impmod Data.Error
.implab e_Data.Error_sfmap;13
.export e_Crypto.Hash.SHA1_dSHA1Digest
.desc e_Crypto.Hash.SHA1_dSHA1Digest _hnf _add_arg 1 0 "SHA1Digest"
.export e_Crypto.Hash.SHA1_sTD;SHA1Digest
.export e_Crypto.Hash.SHA1_eaTD;SHA1Digest
.descexp e_Crypto.Hash.SHA1_dTD;SHA1Digest e_Crypto.Hash.SHA1_nTD;SHA1Digest e_Crypto.Hash.SHA1_lTD;SHA1Digest 1 0 "TD;SHA1Digest"
.o 2 0 
e_Crypto.Hash.SHA1_lTD;SHA1Digest
	update_a 1 0
	create 
.d 2 0 
	put_a_jmp 2 e_Crypto.Hash.SHA1_eaTD;SHA1Digest
.n 1 e_Crypto.Hash.SHA1_dTD;SHA1Digest e_Crypto.Hash.SHA1_eaTD;SHA1Digest
.o 1 0 
e_Crypto.Hash.SHA1_nTD;SHA1Digest
	push_node _cycle_in_spine 1
.o 2 0 
e_Crypto.Hash.SHA1_eaTD;SHA1Digest
.o 2 0 
e_Crypto.Hash.SHA1_sTD;SHA1Digest
.o 2 0 
s5
	fillh _Nil 0 1
.d 1 0 
	pop_a_rtn 1
.export e_Crypto.Hash.SHA1_ssha1FileDigest
.descexp e_Crypto.Hash.SHA1_dsha1FileDigest e_Crypto.Hash.SHA1_nsha1FileDigest e_Crypto.Hash.SHA1_lsha1FileDigest 3 0 "sha1FileDigest"
.a 0 a3
.o 2 0 
e_Crypto.Hash.SHA1_lsha1FileDigest
	repl_args 2 2
.o 3 0 
a3
.d 3 0 
	jsr ea3
.o 2 0 
	buildh _Tuple 2
.d 1 0 
	rtn 
.n 3 e_Crypto.Hash.SHA1_dsha1FileDigest
.o 1 0 
e_Crypto.Hash.SHA1_nsha1FileDigest
	push_node _cycle_in_spine 3
.d 3 0 
	jsr ea3
.o 2 0 
	fillh _Tuple 2 2
.d 1 0 
	rtn 
.o 3 0 
ea3
	jsr_eval 2
	jsr_eval 1
	jsr_eval 0
	push_array 1
	push_r_args 1 4 0
	update2_a 3 5
	update3pop_a 0 2
.o 6 0 
e_Crypto.Hash.SHA1_ssha1FileDigest
.o 6 0 
s3
.d 6 0 
	jsr e_System.File_sreadFile
.o 2 0 
	buildh e_Crypto.Hash.SHA1_d_f0.72 0
.d 3 0 
	jsr e_Data.Tuple_sappFst
.o 2 0 
	jsr_eval 1
	jsr_eval 0
.d 2 0 
	rtn 
.export e_Crypto.Hash.SHA1_d_f0.72
.desc e_Crypto.Hash.SHA1_d_f0.72 _hnf l72 1 0 "_f0.72"
.o 2 0 
l72
	update_a 1 0
	create 
	put_a 2
.o 2 0 
ea72
.o 2 0 
s72
	jsr_eval 0
	push_a 0
	put_a 1
	buildh e_Crypto.Hash.SHA1_dsha1StringDigest 0
.d 3 0 
	jmp e_Data.Error_sfmap;13
.export e_Crypto.Hash.SHA1_ssha1
.descexp e_Crypto.Hash.SHA1_dsha1 e_Crypto.Hash.SHA1_nsha1 e_Crypto.Hash.SHA1_lsha1 1 0 "sha1"
.o 2 0 
e_Crypto.Hash.SHA1_lsha1
.d 1 0 
	pop_a_jsr 1 ea1
.o 1 0 
	buildh ARRAY 1
.d 1 0 
	rtn 
.n 1 e_Crypto.Hash.SHA1_dsha1
.o 1 0 
e_Crypto.Hash.SHA1_nsha1
	push_node _cycle_in_spine 1
.d 1 0 
	jsr ea1
.o 1 0 
	fillh ARRAY 1 1
.d 1 0 
	rtn 
.o 1 0 
ea1
	jsr_eval 0
	push_array 0
	put_a 1
.o 1 0 
e_Crypto.Hash.SHA1_ssha1
.o 1 0 
s1
	create 
	swap_a1 
.d 2 0 
	jsr s2
.o 1 0 
.d 1 0 
	jmp s4
.export e_Crypto.Hash.SHA1_ssha1StringDigest
.export e_Crypto.Hash.SHA1_easha1StringDigest
.descexp e_Crypto.Hash.SHA1_dsha1StringDigest e_Crypto.Hash.SHA1_nsha1StringDigest e_Crypto.Hash.SHA1_lsha1StringDigest 1 0 "sha1StringDigest"
.o 2 0 
e_Crypto.Hash.SHA1_lsha1StringDigest
	update_a 1 0
	create 
.d 2 0 
	put_a_jmp 2 e_Crypto.Hash.SHA1_easha1StringDigest
.n 1 e_Crypto.Hash.SHA1_dsha1StringDigest e_Crypto.Hash.SHA1_easha1StringDigest
.o 1 0 
e_Crypto.Hash.SHA1_nsha1StringDigest
	push_node _cycle_in_spine 1
.o 2 0 
e_Crypto.Hash.SHA1_easha1StringDigest
	jsr_eval 0
	push_array 0
	put_a 1
.o 2 0 
e_Crypto.Hash.SHA1_ssha1StringDigest
.o 2 0 
s2
	buildo1 e_Crypto.Hash.SHA1_n_f2.74 0
	build e_Crypto.Hash.SHA1_d_f1.73 1 e_Crypto.Hash.SHA1_n_f1.73
	build e_Crypto.Hash.SHA1_dtoBytes;26.15 1 e_Crypto.Hash.SHA1_ntoBytes;26.15
	fillh e_Crypto.Hash.SHA1_dSHA1Digest 1 2
.d 1 0 
	pop_a_rtn 1
.export e_Crypto.Hash.SHA1_d_f2.74
.export e_Crypto.Hash.SHA1_n_f2.74
.descn e_Crypto.Hash.SHA1_d_f2.74 e_Crypto.Hash.SHA1_n_f2.74 1 0 "_f2.74"
.n 1 e_Crypto.Hash.SHA1_d_f2.74 ea74
.o 1 0 
e_Crypto.Hash.SHA1_n_f2.74
	push_node _cycle_in_spine 1
.o 2 0 
ea74
.o 2 0 
s74
.d 1 0 
	jsr s11
.o 1 0 
.d 2 0 
	jmp s12
.export e_Crypto.Hash.SHA1_d_f1.73
.export e_Crypto.Hash.SHA1_n_f1.73
.descn e_Crypto.Hash.SHA1_d_f1.73 e_Crypto.Hash.SHA1_n_f1.73 1 0 "_f1.73"
.n 1 e_Crypto.Hash.SHA1_d_f1.73 ea73
.o 1 0 
e_Crypto.Hash.SHA1_n_f1.73
	push_node _cycle_in_spine 1
.o 2 0 
ea73
.o 2 0 
s73
	jsr_eval 0
	push_a 0
.d 0 0 
	buildh0_put_a_jsr _Nil 2 s13
.o 1 0 
	update2pop_a 0 1
.d 2 0 
	jsr s27
.o 1 0 
	fillh ARRAY 1 1
.d 1 0 
	rtn 
.o 0 0 
s13
	pushI 5
	create_array_ INT 0 1
	pushI 3285377520
	pushI 4
	update INT 0 1
	pushI 271733878
	pushI 3
	update INT 0 1
	pushI 2562383102
	pushI 2
	update INT 0 1
	pushI 4023233417
	pushI 1
	update INT 0 1
	pushI 1732584193
	pushI 0
	update INT 0 1
.d 1 0 
	rtn 
.o 1 0 
s11
	push_arraysize_a CHAR 0 1 0
	pushI 64
	push_b 1
	remI
.d 0 1 i
	push_b_jsr 1 s17
.o 1 0 
	pushI 9
	push_b 1
	addI
	pushI 64
	ltI
	update2pop_b 0 1
.d 0 2 bi
	jsr s35
.o 0 1 i
	pushC '\000'
	swap_b1 
	create_array CHAR 0 1
.d 2 0 
	jsr catAC
.o 1 0 
	pushI 128
	ItoC
	pushI 1
	create_array_ CHAR 0 1
	pushI 0
	update CHAR 0 1
.d 2 0 
	jsr catAC
.o 1 0 
	swap_a1 
.d 2 0 
	jsr catAC
.o 1 0 
.d 1 0 
	rtn 
.o 0 2 bi
s35
	eqB_b TRUE 0
	jmp_false case.2
	pop_b 1
	pushI 119
	subI
.d 0 1 i
	rtn 
case.2
	pop_b 1
	pushI 55
	subI
.d 0 1 i
	rtn 
.o 0 1 i
s17
	buildh _Nil 0
	buildI 0
	buildh _Cons 2
	buildI 1
	buildh _Cons 2
	buildI 2
	buildh _Cons 2
	buildI 3
	buildh _Cons 2
	buildI 4
	buildh _Cons 2
	buildI 5
	buildh _Cons 2
	buildI 6
	buildh _Cons 2
	buildI 7
	buildh _Cons 2
	buildh _Nil 0
	buildI 0
	buildh _Cons 2
	buildI 1
	buildh _Cons 2
	buildI 2
	buildh _Cons 2
	buildI 3
	buildh _Cons 2
	buildI 4
	buildh _Cons 2
	buildI 5
	buildh _Cons 2
	buildI 6
	buildh _Cons 2
	buildI 7
	buildh _Cons 2
	pushI 0
.d 1 1 i
	jsr s16
.o 0 1 i
	create_array_ CHAR 0 1
	buildI 0
	buildI_b 0
	exchange_a 2 1
.d 4 0 
	pop_b_jmp 1 s18
.o 1 1 i
s16
s34
	jmp_ne_desc _Cons 2 0 case.4
	repl_arg 2 2
	jsr_eval 0
	push_a 0
	incI
.d 1 1 i
	put_a_jmp 1 s16
case.4
.d 0 1 i
	pop_a_rtn 1
.o 4 0 
s18
	push_update_a 3 2
	update3pop_a 0 1
s33
	jmp_ne_desc _Cons 2 0 case.6
	repl_args 2 2
	push_jsr_eval 1
	buildo1 e_Crypto.Hash.SHA1_n_f5.77 5
	push_jsr_eval 4
	pushI_a 5
	update_a 3 0
	jsr_eval 0
	pushI_a 3
	pop_a 1
	eqIi 0
	push_a 2
	buildh0_dup2_a _Nil 4
.d 1 2 bi
	pop_a_jsr 1 s32
.o 0 1 i
	ItoC
	push_jsr_eval 6
	pushI_a 7
	update_a 6 0
	buildh0_dup2_a _Nil 7
	pop_a 1
	update CHAR 0 1
	update2_a 1 6
	updates2_a 0 5 4
.d 4 0 
	pop_a_jmp 4 s18
case.6
	updatepop_a 2 3
.d 1 0 
	rtn 
.export e_Crypto.Hash.SHA1_d_f5.77
.export e_Crypto.Hash.SHA1_n_f5.77
.descn e_Crypto.Hash.SHA1_d_f5.77 e_Crypto.Hash.SHA1_n_f5.77 1 0 "_f5.77"
.n 1 e_Crypto.Hash.SHA1_d_f5.77 ea77
.o 1 0 
e_Crypto.Hash.SHA1_n_f5.77
	push_node _cycle_in_spine 1
.o 2 0 
ea77
.o 2 0 
s77
	jsr_eval 0
	pushI0_pop_a1 
	incI
	fillI_b 0 0
.d 1 0 
	pop_b_rtn 1
.o 1 2 bi
s32
	eqB_b TRUE 0
	jmp_false case.8
	update_b 1 0
	pushI 3
	put_b 2
	pop_a 1
	shiftl%
.d 0 1 i
	rtn 
case.8
	jsr_eval 0
	pushI_a 0
	pushI 8
	swap_b1 
	mulI
	pushI 3
	push_b 1
	subI
	put_b 1
	updates2_b 0 2 1
	pop_b 1
	pop_a 1
	shiftr%
.d 0 1 i
	rtn 
.o 2 0 
s12
	push_arraysize_a CHAR 0 1 0
	pushI 64
	swap_b1 
	divI
	decI
	pushI 0
	push_a 0
	buildh ARRAY 1
.d 2 2 ii
	put_a_jmp 1 s19
.o 2 2 ii
s19
	push_b2 0 1
	jmp_ltI else.9
	buildI 63
	push2_b 1
	push_a 1
	build_u e_Crypto.Hash.SHA1_d_f7.79 1 2 e_Crypto.Hash.SHA1_n_f7.79
	buildI 64
	buildI_b 0
	build e_StdInt_d*;9 2 e_StdInt_n*;9
	push_a2 0 3
	update_a 4 2
	build e_Crypto.Hash.SHA1_d_f6.78 3 e_Crypto.Hash.SHA1_n_f6.78
	fillh _Cons 2 4
.d 1 0 
	pop_ab_rtn 2 2
else.9
	fillh _Nil 0 1
.d 1 0 
	pop_ab_rtn 1 2
.export e_Crypto.Hash.SHA1_d_f7.79
.export e_Crypto.Hash.SHA1_n_f7.79
.descn e_Crypto.Hash.SHA1_d_f7.79 e_Crypto.Hash.SHA1_n_f7.79 3 0 "_f7.79"
.nu 1 2 e_Crypto.Hash.SHA1_d_f7.79 _
.o 1 0 
e_Crypto.Hash.SHA1_n_f7.79
	push_node_u _cycle_in_spine 1 2
.o 2 2 ii
ea79
.o 2 2 ii
s79
	incI
.d 2 2 ii
	jmp s19
.export e_Crypto.Hash.SHA1_d_f6.78
.export e_Crypto.Hash.SHA1_n_f6.78
.descn e_Crypto.Hash.SHA1_d_f6.78 e_Crypto.Hash.SHA1_n_f6.78 3 0 "_f6.78"
.n 3 e_Crypto.Hash.SHA1_d_f6.78 ea78
.o 1 0 
e_Crypto.Hash.SHA1_n_f6.78
	push_node _cycle_in_spine 3
.o 4 0 
ea78
.o 4 0 
s78
	pushI_a 2
	incI
	create_array_ CHAR 0 1
	pushI_a 3
	pushI 0
	put_a 3
.d 3 2 ii
	jsr s20
.o 1 0 
	fillh ARRAY 1 1
.d 1 0 
	rtn 
.o 3 2 ii
s20
	push_b2 0 1
	jmp_ltI else.10
	push_b_incI 0
	push_jsr_eval 1
	pushI_a 2
	pop_a 1
	push_b 0
	update_b 3 1
	addI
	jsr_eval 0
	push_a 0
	push_array 0
	put_a 1
	select CHAR 0 1
	push_ab 2 2
	buildh0_put_a _Nil 4
	update CHAR 0 1
	put_b 1
.d 3 2 ii
	put_a_jmp 3 s20
else.10
.d 1 0 
	pop_ab_rtn 2 2
.o 2 0 
s27
	jmp_ne_desc _Nil 0 1 case.12
	put_a 1
.d 1 0 
	rtn 
case.12
	push_args 1 2 2
	buildh _Nil 0
	updates2_a 2 0 4
	jsr_eval 0
	push_a2 1 3
	buildh0_dup3_a _Nil 4
.d 2 0 
	pop_a_jsr 1 s14
.o 1 0 
	update2pop_a 0 4
.d 2 0 
	jmp s27
.o 2 0 
s14
	buildo1 e_Crypto.Hash.SHA1_nW;14.6 1
	create 
	pushI 79
	pushI 0
.d 1 2 ii
	buildh0_put_a_jsr _Nil 4 e__SystemEnum_s_from_to;6
.o 1 0 
	create 
	updates2_a 0 3 4
.d 3 0 
	pop_a_jsr 1 e_StdList_szip
.o 1 0 
	pushI 4
	push_a 1
	select INT 0 1
	pushI 3
	push_a 1
	select INT 0 1
	pushI 2
	push_a 1
	select INT 0 1
	pushI 1
	push_a 1
	select INT 0 1
	pushI 0
	push_a 1
	select INT 0 1
.d 1 5 iiiii
	jsr s70
.o 0 5 iiiii
	pushI 0
	push_a 0
	select INT 0 1
	push_b 0
	update_b 2 1
	addI
	pushI 1
	push_a 0
	select INT 0 1
	push_b 0
	update_b 4 1
	addI
	pushI 2
	push_a 0
	select INT 0 1
	push_b 0
	update_b 6 1
	addI
	pushI 3
	push_a 0
	select INT 0 1
	push_b 0
	update_b 8 1
	addI
	pushI 4
	select INT 0 1
	push_b 0
	update_b 10 1
	addI
	pushI 5
	create_array_ INT 0 1
	pushI 4
	update INT 0 1
	pushI 3
	update INT 0 1
	pushI 2
	update INT 0 1
	pushI 1
	update INT 0 1
	updatepop_b 0 5
	pushI 0
	update INT 0 1
.d 1 0 
	rtn 
.export e_Crypto.Hash.SHA1_dW;14.6
.export e_Crypto.Hash.SHA1_nW;14.6
.descn e_Crypto.Hash.SHA1_dW;14.6 e_Crypto.Hash.SHA1_nW;14.6 1 0 "W;14.6"
.n 1 e_Crypto.Hash.SHA1_dW;14.6 ea6
.o 1 0 
e_Crypto.Hash.SHA1_nW;14.6
	push_node _cycle_in_spine 1
.o 2 0 
ea6
.o 2 0 
s6
	buildh _Nil 0
	pushI 0
	swap_a1 
s21
	jmp_neI_b 80 0 else.13
	pop_b 1
	fill_a 1 2
.d 1 0 
	pop_a_rtn 2
else.13
	pushI 16
	jmp_o_geI 1 else.14
	buildh _Nil 0
	push_ab 1 0
	build_u e_Crypto.Hash.SHA1_dwordAt;91.22 1 1 e_Crypto.Hash.SHA1_nwordAt;91.22
	buildh _Cons 2
	create 
	push_a2 3 1
	updates2_a 0 2 3
.d 3 0 
	pop_a_jsr 1 e_StdList_s++
.o 1 0 
	incI
.d 3 1 i
	put_a_jmp 2 s21
else.14
	buildh _Nil 0
	push_ab 2 0
	build_u e_Crypto.Hash.SHA1_d_f4.76 1 1 e_Crypto.Hash.SHA1_n_f4.76
	buildh _Cons 2
	create 
	push_a2 3 1
	updates2_a 0 2 3
.d 3 0 
	pop_a_jsr 1 e_StdList_s++
.o 1 0 
	incI
.d 3 1 i
	put_a_jmp 2 s21
.export e_Crypto.Hash.SHA1_d_f4.76
.export e_Crypto.Hash.SHA1_n_f4.76
.descn e_Crypto.Hash.SHA1_d_f4.76 e_Crypto.Hash.SHA1_n_f4.76 2 0 "_f4.76"
.nu 1 1 e_Crypto.Hash.SHA1_d_f4.76 _
.o 1 0 
e_Crypto.Hash.SHA1_n_f4.76
	push_node_u _cycle_in_spine 1 1
.o 2 1 i
ea76
.o 2 1 i
s76
	pushI 16
	push_b 1
	subI
.d 1 1 i
	push_a_jsr 0 e_StdList_s!!
.o 1 0 
	pushI0_pop_a1 
	pushI 14
	push_b 2
	subI
.d 1 1 i
	push_a_jsr 0 e_StdList_s!!
.o 1 0 
	pushI0_pop_a1 
	pushI 8
	push_b 3
	subI
.d 1 1 i
	push_a_jsr 0 e_StdList_s!!
.o 1 0 
	pushI0_pop_a1 
	pushI 3
	push_b 4
	subI
.d 1 1 i
	jsr e_StdList_s!!
.o 1 0 
	pushI0_pop_a1 
	xor%
	xor%
	xor%
	put_b 1
	pushI 1
.d 0 2 ii
	jsr s9
.o 0 1 i
	fillI_b 0 0
.d 1 0 
	pop_b_rtn 1
.export e_Crypto.Hash.SHA1_dwordAt;91.22
.export e_Crypto.Hash.SHA1_nwordAt;91.22
.descn e_Crypto.Hash.SHA1_dwordAt;91.22 e_Crypto.Hash.SHA1_nwordAt;91.22 2 0 "wordAt;91.22"
.nu 1 1 e_Crypto.Hash.SHA1_dwordAt;91.22
.o 1 0 
e_Crypto.Hash.SHA1_nwordAt;91.22
	push_node_u _cycle_in_spine 1 1
.d 1 1 i
	jsr ea22
.o 0 1 i
	fillI_b 0 0
.d 1 0 
	pop_b_rtn 1
.o 1 1 i
ea22
	jsr_eval 0
	push_array 0
	put_a 1
.o 1 1 i
s22
	pushI 4
	push_b 1
	mulI
	pushI 3
	addI
	push_a 0
	select CHAR 0 1
	CtoI
	pushI 4
	push_b 2
	mulI
	pushI 2
	addI
	push_a 0
	select CHAR 0 1
	CtoI
	pushI 8
	swap_b1 
	shiftl%
	pushI 4
	push_b 3
	mulI
	incI
	push_a 0
	select CHAR 0 1
	CtoI
	pushI 16
	swap_b1 
	shiftl%
	pushI 4
	push_b 4
	mulI
	select CHAR 0 1
	CtoI
	pushI 24
	swap_b1 
	shiftl%
	addI
	addI
	update2pop_b 0 1
	addI
.d 0 1 i
	rtn 
.o 0 4 iiii
s10
	push_b 0
	pushI 19
	jmp_ltI else.15
	push_b 1
	not%
	push_b 0
	update_b 5 1
	and%
	push2_b 3
	and%
	update2pop_b 0 4
	or%
.d 0 1 i
	rtn 
else.15
	push_b 0
	pushI 39
	jmp_ltI else.16
	push2_b 2
	xor%
	updatepop_b 0 3
	xor%
.d 0 1 i
	rtn 
else.16
	push_b 0
	pushI 59
	jmp_ltI else.17
	push2_b 3
	and%
	push_b2 4 2
	and%
	push2_b 4
	and%
	or%
	update2pop_b 0 4
	or%
.d 0 1 i
	rtn 
else.17
	push2_b 2
	xor%
	updatepop_b 0 3
	xor%
.d 0 1 i
	rtn 
.o 0 1 i
s8
	push_b 0
	pushI 19
	jmp_ltI else.18
	pop_b 1
	pushI 1518500249
.d 0 1 i
	rtn 
else.18
	push_b 0
	pushI 39
	jmp_ltI else.19
	pop_b 1
	pushI 1859775393
.d 0 1 i
	rtn 
else.19
	push_b 0
	pushI 59
	jmp_ltI else.20
	pop_b 1
	pushI 2400959708
.d 0 1 i
	rtn 
else.20
	pop_b 1
	pushI 3395469782
.d 0 1 i
	rtn 
.o 0 2 ii
s9
	push_b 0
	pushI 1
	shiftl%
	decI
	push_b 1
	pushI 32
	subI
	push_b 3
	shiftr%
	and%
	push_b2 1 2
	shiftl%
	or%
	pushI 4294967295
	update_b 0 3
	updatepop_b 1 2
	and%
.d 0 1 i
	rtn 
.export e_Crypto.Hash.SHA1_dtoBytes;26.15
.export e_Crypto.Hash.SHA1_ntoBytes;26.15
.descn e_Crypto.Hash.SHA1_dtoBytes;26.15 e_Crypto.Hash.SHA1_ntoBytes;26.15 1 0 "toBytes;26.15"
.n 1 e_Crypto.Hash.SHA1_dtoBytes;26.15
.o 1 0 
e_Crypto.Hash.SHA1_ntoBytes;26.15
	push_node _cycle_in_spine 1
.d 1 0 
	jsr ea15
.o 1 0 
	fillh ARRAY 1 1
.d 1 0 
	rtn 
.o 1 0 
ea15
.o 1 0 
s15
	create 
	pushI 4
	pushI 0
	swap_a1 
.d 2 2 ii
	jsr s25
.o 1 0 
	buildAC ""
.d 2 0 
	jmp e_Text_sjoin;9
.o 2 2 ii
s25
	push_b2 0 1
	jmp_ltI else.21
	push2_b 1
	push_a 0
	build_u e_Crypto.Hash.SHA1_d_f9.81 1 2 e_Crypto.Hash.SHA1_n_f9.81
	buildh _Nil 0
	buildI 0
	buildh _Cons 2
	buildI 1
	buildh _Cons 2
	buildI 2
	buildh _Cons 2
	buildI 3
	buildh _Cons 2
	buildh _Nil 0
	buildI 0
	buildh _Cons 2
	buildI 1
	buildh _Cons 2
	buildI 2
	buildh _Cons 2
	buildI 3
	buildh _Cons 2
	push_ab 3 0
	build_u e_Crypto.Hash.SHA1_d_f8.80 3 1 e_Crypto.Hash.SHA1_n_f8.80
	fillh _Cons 2 3
.d 1 0 
	pop_ab_rtn 1 2
else.21
	fillh _Nil 0 1
.d 1 0 
	pop_ab_rtn 1 2
.export e_Crypto.Hash.SHA1_d_f9.81
.export e_Crypto.Hash.SHA1_n_f9.81
.descn e_Crypto.Hash.SHA1_d_f9.81 e_Crypto.Hash.SHA1_n_f9.81 3 0 "_f9.81"
.nu 1 2 e_Crypto.Hash.SHA1_d_f9.81 _
.o 1 0 
e_Crypto.Hash.SHA1_n_f9.81
	push_node_u _cycle_in_spine 1 2
.o 2 2 ii
ea81
.o 2 2 ii
s81
	incI
.d 2 2 ii
	jmp s25
.export e_Crypto.Hash.SHA1_d_f8.80
.export e_Crypto.Hash.SHA1_n_f8.80
.descn e_Crypto.Hash.SHA1_d_f8.80 e_Crypto.Hash.SHA1_n_f8.80 4 0 "_f8.80"
.nu 3 1 e_Crypto.Hash.SHA1_d_f8.80 _
.o 1 0 
e_Crypto.Hash.SHA1_n_f8.80
	push_node_u _cycle_in_spine 3 1
.o 4 1 i
ea80
.o 4 1 i
s80
	swap_a1 
	pushI 0
.d 1 1 i
	jsr s24
.o 0 1 i
	create_array_ CHAR 0 1
	push_a 2
	buildI 0
	buildI_b 0
	updates2_a 0 2 5
	push_a 4
	updates2pop_a 0 2 5
.d 5 0 
	pop_b_jsr 1 s26
.o 1 0 
	fillh ARRAY 1 1
.d 1 0 
	rtn 
.o 1 1 i
s24
s31
	jmp_ne_desc _Cons 2 0 case.23
	repl_arg 2 2
	jsr_eval 0
	push_a 0
	incI
.d 1 1 i
	put_a_jmp 1 s24
case.23
.d 0 1 i
	pop_a_rtn 1
.o 5 0 
s26
	push_update_a 4 3
	update_a 3 4
	update3pop_a 0 1
s30
	jmp_ne_desc _Cons 2 0 case.25
	repl_args 2 2
	push_jsr_eval 1
	buildo1 e_Crypto.Hash.SHA1_n_f10.82 6
	push_jsr_eval 2
	pushI_a 3
	pop_a 1
	pushI 8
	swap_b1 
	mulI
	push_jsr_eval 5
	pushI_a 6
	update_a 5 0
	jsr_eval 0
	push_array 0
	put_a 1
	buildh0_dup2_a _Nil 4
	pop_a 1
	select INT 0 1
	shiftr%
	ItoC
	push_jsr_eval 7
	pushI_a 8
	update_a 7 0
	buildh0_dup2_a _Nil 8
	pop_a 1
	update CHAR 0 1
	update2_a 1 7
	updates3_a 0 6 5 4
.d 5 0 
	pop_a_jmp 4 s26
case.25
	updatepop_a 3 4
.d 1 0 
	rtn 
.export e_Crypto.Hash.SHA1_d_f10.82
.export e_Crypto.Hash.SHA1_n_f10.82
.descn e_Crypto.Hash.SHA1_d_f10.82 e_Crypto.Hash.SHA1_n_f10.82 1 0 "_f10.82"
.n 1 e_Crypto.Hash.SHA1_d_f10.82 ea82
.o 1 0 
e_Crypto.Hash.SHA1_n_f10.82
	push_node _cycle_in_spine 1
.o 2 0 
ea82
.o 2 0 
s82
	jsr_eval 0
	pushI0_pop_a1 
	incI
	fillI_b 0 0
.d 1 0 
	pop_b_rtn 1
.export e_Crypto.Hash.SHA1_stoString;3
.descexp e_Crypto.Hash.SHA1_dtoString;3 e_Crypto.Hash.SHA1_ntoString;3 e_Crypto.Hash.SHA1_ltoString;3 1 0 "toString;3"
.o 2 0 
e_Crypto.Hash.SHA1_itoString;3
.d 1 0 
	pop_a_jmp 1 s4
.ai 1 _ e_Crypto.Hash.SHA1_itoString;3
.o 2 0 
e_Crypto.Hash.SHA1_ltoString;3
.d 1 0 
	pop_a_jsr 1 ea4
.o 1 0 
	buildh ARRAY 1
.d 1 0 
	rtn 
.n 1 e_Crypto.Hash.SHA1_dtoString;3
.o 1 0 
e_Crypto.Hash.SHA1_ntoString;3
	push_node _cycle_in_spine 1
.d 1 0 
	jsr ea4
.o 1 0 
	fillh ARRAY 1 1
.d 1 0 
	rtn 
.o 1 0 
ea4
	jsr_eval 0
.o 1 0 
e_Crypto.Hash.SHA1_stoString;3
.o 1 0 
s4
	repl_args 1 1
	jsr_eval 0
	push_a 0
	push_array 0
	dup_a 2
	put_a 1
	push_arraysize CHAR 0 1
	push_b_decI 0
	create 
	push_a 1
	buildh ARRAY 1
	pushI 0
	buildAC "0123456789abcdef"
	buildh ARRAY 1
	update2pop_b 0 1
	update3pop_a 0 1
.d 3 2 ii
	jsr s28
.o 1 0 
	buildAC ""
.d 2 0 
	jmp e_Text_sjoin;9
.o 3 2 ii
s28
	push_b2 0 1
	jmp_ltI else.26
	push_b 0
	push_array 1
	update2_a 0 1
	select CHAR 0 1
	push_a 0
	buildh ARRAY 1
	push_a2 0 2
	push2_b 2
	build_u e_Crypto.Hash.SHA1_d_f3.75 2 2 e_Crypto.Hash.SHA1_n_f3.75
	push_ab 3 0
	build_u e_Crypto.Hash.SHA1_dchar;106.29 1 1 e_Crypto.Hash.SHA1_nchar;106.29
	fillh _Cons 2 5
.d 1 0 
	pop_ab_rtn 3 3
else.26
	fillh _Nil 0 2
.d 1 0 
	pop_ab_rtn 2 2
.export e_Crypto.Hash.SHA1_d_f3.75
.export e_Crypto.Hash.SHA1_n_f3.75
.descn e_Crypto.Hash.SHA1_d_f3.75 e_Crypto.Hash.SHA1_n_f3.75 4 0 "_f3.75"
.nu 2 2 e_Crypto.Hash.SHA1_d_f3.75 _
.o 1 0 
e_Crypto.Hash.SHA1_n_f3.75
	push_node_u _cycle_in_spine 2 2
.o 3 2 ii
ea75
.o 3 2 ii
s75
	incI
.d 3 2 ii
	jmp s28
.export e_Crypto.Hash.SHA1_dchar;106.29
.export e_Crypto.Hash.SHA1_nchar;106.29
.descn e_Crypto.Hash.SHA1_dchar;106.29 e_Crypto.Hash.SHA1_nchar;106.29 2 0 "char;106.29"
.nu 1 1 e_Crypto.Hash.SHA1_dchar;106.29
.o 1 0 
e_Crypto.Hash.SHA1_nchar;106.29
	push_node_u _cycle_in_spine 1 1
.d 1 1 c
	jsr ea29
.o 1 0 
	fillh ARRAY 1 1
.d 1 0 
	rtn 
.o 1 1 c
ea29
	jsr_eval 0
	push_array 0
	put_a 1
.o 1 1 c
s29
	push_b 0
	CtoI
	pushI 4
	swap_b1 
	shiftr%
	andIi 15
	push_a 0
	select CHAR 0 1
	push_b 1
	CtoI
	andIi 15
	select CHAR 0 1
	pushI 2
	create_array_ CHAR 0 1
	pushI 1
	update CHAR 0 1
	put_b 1
	pushI 0
	update CHAR 0 1
.d 1 0 
	rtn 
.o 1 5 iiiii
s70
	jmp_ne_desc _Nil 0 0 case.28
.d 0 5 iiiii
	pop_a_rtn 1
case.28
	repl_args 2 2
	push_jsr_eval 1
	push_jsr_eval 1
	repl_args 2 2
	jsr_eval 1
	jsr_eval 0
	pushI_a 1
	pushI_a 0
	pop_a 2
	push_b 2
	updates3_b 2 7 5 3
	update_b 4 2
	updates3pop_b 0 1 6 4
	buildh0_dup2_a _Nil 2
.d 0 7 iiiiiii
	pop_a_jsr 1 s71
.o 0 5 iiiii
	updatepop_a 0 2
.d 1 5 iiiii
	jmp s70
.o 0 7 iiiiiii
s71
	push_b 1
	pushI 30
.d 0 2 ii
	jsr s9
.o 0 1 i
.d 0 1 i
	push_b_jsr 6 s8
.o 0 1 i
	push3_b 5
.d 0 4 iiii
	push_b_jsr 10 s10
.o 0 1 i
	push_b 3
	pushI 5
.d 0 2 ii
	jsr s9
.o 0 1 i
	addI
	push_b 0
	update_b 8 1
	addI
	push_b 0
	update_b 10 1
	addI
	addI
	update2_b 4 7
	update_b 1 6
	update_b 2 5
	updatepop_b 0 4
.d 0 5 iiiii
	rtn 
