.comp 920 000011110011000
.start _nostart_
.depend "iTasks.Internal.SDSService" "20210613144730"
.depend "iTasks.Internal.Serialization" "20210613144730"
.depend "_SystemEnum" "20210613144732"
.depend "StdEnum" "20210613144732"
.depend "StdTuple" "20210613144732"
.depend "StdOrdList" "20210613144732"
.depend "Control.Monad.Trans" "20210613144732"
.depend "StdMaybe" "20210613144732"
.depend "Data.Maybe" "20210613144732"
.depend "iTasks.Extensions.Admin.WorkflowAdmin" "20210613144730"
.depend "iTasks.Extensions.User" "20210613144730"
.depend "iTasks.Extensions.Admin.UserAdmin" "20210613144730"
.depend "iTasks.UI.Layout.Common" "20210613144730"
.depend "iTasks.UI.Editor.Modifiers" "20210613144730"
.depend "iTasks.UI.Editor.Containers" "20210613144730"
.depend "iTasks.UI.Tune" "20210613144730"
.depend "iTasks.Internal.Distributed.Domain" "20210613144730"
.depend "iTasks.WF.Combinators.Common" "20210613144730"
.depend "iTasks.WF.Combinators.SDS" "20210613144730"
.depend "iTasks.UI.Editor.Controls" "20210613144730"
.depend "iTasks.WF.Tasks.Interaction" "20210613144730"
.depend "iTasks.WF.Tasks.System" "20210613144730"
.depend "iTasks.WF.Tasks.SDS" "20210613144730"
.depend "iTasks.WF.Tasks.Core" "20210613144730"
.depend "System.Time.GenJSON" "20210613144732"
.depend "Text.HTML.GenJSON" "20210613144732"
.depend "Data.Map.GenJSON" "20210613144732"
.depend "Data.Error.GenJSON" "20210613144732"
.depend "Data.Either.GenJSON" "20210613144732"
.depend "iTasks.WF.Derives" "20210613144730"
.depend "iTasks.SDS.Combinators.Common" "20210613144730"
.depend "iTasks.SDS.Combinators.Core" "20210613144730"
.depend "iTasks.SDS.Sources.System" "20210613144730"
.depend "iTasks.SDS.Sources.Store" "20210613144730"
.depend "iTasks.SDS.Sources.Core" "20210613144730"
.depend "iTasks.Internal.TaskIO" "20210613144730"
.depend "System._Signal" "20210613144732"
.depend "System.Signal" "20210613144732"
.depend "_SystemStrictMaybes" "20210613144732"
.depend "Text.GenPrint" "20210613144732"
.depend "iTasks.Extensions.DateTime" "20210613144730"
.depend "iTasks.Internal.TaskServer" "20210613144730"
.depend "AsyncIO" "20210613144730"
.depend "System._Process" "20210613144732"
.depend "System.Process" "20210613144732"
.depend "System.OS" "20210613144732"
.depend "TCPStringChannelsInternal" "20210613144732"
.depend "TCPStringChannels" "20210613144732"
.depend "TCPEvent" "20210613144732"
.depend "tcp_bytestreams" "20210613144732"
.depend "TCPDef" "20210613144732"
.depend "TCPChannels" "20210613144732"
.depend "TCPIP" "20210613144732"
.depend "iTasks.WF.Tasks.IO" "20210613144730"
.depend "Data.IntMap.Base" "20210613144732"
.depend "Data.IntMap.Strict" "20210613144732"
.depend "Data.CircularStack" "20210613144732"
.depend "iTasks.Extensions.Document" "20210613144730"
.depend "System.File" "20210613144732"
.depend "iTasks.Util.DeferredJSON" "20210613144730"
.depend "iTasks.UI.Layout" "20210613144730"
.depend "iTasks.Internal.TaskState" "20210613144730"
.depend "iTasks.Internal.SDS" "20210613144730"
.depend "Data.GenHash" "20210613144732"
.depend "Data.Maybe.Ord" "20210613144732"
.depend "Control.GenBimap" "20210613144732"
.depend "ABC.Interpreter.JavaScript" "20210613144730"
.depend "ABC.Interpreter" "20210613144730"
.depend "iTasks.UI.Editor" "20210613144730"
.depend "iTasks.UI.Editor.Generic" "20210613144730"
.depend "iTasks.Internal.Generic.Defaults" "20210613144730"
.depend "Data.GenDefault" "20210613144732"
.depend "Data.Integer" "20210613144732"
.depend "Text.HTML" "20210613144732"
.depend "iTasks.Internal.Generic.Visualization" "20210613144730"
.depend "iTasks.SDS.Definition" "20210613144730"
.depend "iTasks.WF.Combinators.Core" "20210613144730"
.depend "iTasks.Internal.TaskEval" "20210613144730"
.depend "iTasks.WF.Definition" "20210613144730"
.depend "iTasks.Internal.Task" "20210613144730"
.depend "iTasks.UI.Definition" "20210613144730"
.depend "Text.GenJSON" "20210613144732"
.depend "Data.Bifunctor" "20210613144732"
.depend "Data.Either" "20210613144732"
.depend "Data.Queue" "20210613144732"
.depend "StdFile" "20210613144732"
.depend "symbols_in_program" "20210613144730"
.depend "iTasks.Internal.IWorld" "20210613144730"
.depend "iTasks.Internal.WebService" "20210613144730"
.depend "tcp" "20210613144732"
.depend "TCPChannelClass" "20210613144732"
.depend "System._Time" "20210613144732"
.depend "System.Time" "20210613144732"
.depend "System.GetOpt" "20210613144732"
.depend "System.OSError" "20210613144732"
.depend "System.FilePath" "20210613144732"
.depend "StdString" "20210613144732"
.depend "Internet.HTTP" "20210613144732"
.depend "Control.Monad.Fail" "20210613144732"
.depend "Data.Traversable" "20210613144732"
.depend "StdMisc" "20210613144732"
.depend "StdOverloadedList" "20210613144732"
.depend "Data.List" "20210613144732"
.depend "Data.Foldable" "20210613144732"
.depend "Data.Set" "20210613144732"
.depend "Data.GenLexOrd" "20210613144732"
.depend "StdFunctions" "20210613144732"
.depend "StdFunc" "20210613144732"
.depend "Data.Map" "20210613144732"
.depend "_SystemEnumStrict" "20210613144732"
.depend "_SystemStrictLists" "20210613144732"
.depend "StdStrictLists" "20210613144732"
.depend "StdGeneric" "20210613144732"
.depend "Data.GenEq" "20210613144732"
.depend "StdReal" "20210613144732"
.depend "StdChar" "20210613144732"
.depend "StdInt" "20210613144732"
.depend "StdBool" "20210613144732"
.depend "StdClass" "20210613144732"
.depend "StdList" "20210613144732"
.depend "Data.Monoid" "20210613144732"
.depend "Control.Applicative" "20210613144732"
.depend "Control.Monad" "20210613144732"
.depend "Data.Functor" "20210613144732"
.depend "Data.Error" "20210613144732"
.depend "iTasks.Engine" "20210613144730"
.depend "iTasks" "20210613144730"
.depend "StdOverloaded" "20210613144732"
.depend "_SystemDynamic" "20210613144732"
.depend "BasicAPIExamples.EditorsOnBasicAndPredefinedTypes.EnterDateAndTime" "20210613144730"
.module m_BasicAPIExamples.EditorsOnBasicAndPredefinedTypes.EnterDateAndTime "BasicAPIExamples.EditorsOnBasicAndPredefinedTypes.EnterDateAndTime" "20210613144730"
.endinfo
.impmod _system
.implab _cycle_in_spine
.implab _type_error
.implab _hnf
.impdesc e_system_dind
.implab e_system_nind e_system_eaind
.impdesc e_system_dif
.implab e_system_nif e_system_eaif
.implab e_system_sif
.impdesc e_system_dAP
.implab e_system_nAP e_system_eaAP
.implab e_system_sAP
.impdesc ARRAY
.impdesc _Nil
.impdesc _Cons
.impdesc _Conss
.implab n_Conss ea_Conss
.impdesc _Consts
.implab n_Consts ea_Consts
.impdesc _Conssts
.implab n_Conssts ea_Conssts
.impdesc _Tuple
.impdesc d_S.1
.implab n_S.1 ea_S.1
.impdesc d_S.2
.implab n_S.2 ea_S.2
.impdesc d_S.3
.implab n_S.3 ea_S.3
.impdesc d_S.4
.implab n_S.4 ea_S.4
.impdesc d_S.5
.implab n_S.5 ea_S.5
.impdesc d_S.6
.implab n_S.6 ea_S.6
.implab _driver
.impmod iTasks.Extensions.Admin.WorkflowAdmin
.implab e_iTasks.Extensions.Admin.WorkflowAdmin_sworkflow
.impdesc e_iTasks.Extensions.Admin.WorkflowAdmin_dtoWorkflow;13
.impmod iTasks.UI.Tune
.implab e_iTasks.UI.Tune_s@>>
.impdesc e_iTasks.UI.Tune_dtune;7
.impmod iTasks.WF.Combinators.Common
.implab e_iTasks.WF.Combinators.Common_s>>!
.implab e_iTasks.WF.Combinators.Common_s@!
.impmod iTasks.WF.Tasks.Interaction
.implab e_iTasks.WF.Tasks.Interaction_senterInformation
.implab e_iTasks.WF.Tasks.Interaction_sviewInformation
.impmod iTasks.Extensions.DateTime
.impdesc e_iTasks.Extensions.DateTime_dJSONEncode_Date;30
.impdesc e_iTasks.Extensions.DateTime_dJSONEncode_Time;31
.impdesc e_iTasks.Extensions.DateTime_dJSONDecode_Date;33
.impdesc e_iTasks.Extensions.DateTime_dJSONDecode_Time;34
.impdesc e_iTasks.Extensions.DateTime_dgEq_Date;36
.impdesc e_iTasks.Extensions.DateTime_dgEq_Time;37
.impdesc e_iTasks.Extensions.DateTime_dgText_Date;39
.impdesc e_iTasks.Extensions.DateTime_dgText_Time;40
.impdesc e_iTasks.Extensions.DateTime_dgEditor_Date;42
.impdesc e_iTasks.Extensions.DateTime_dgEditor_Time;43
.impdesc e_iTasks.Extensions.DateTime_dTD;Date
.impdesc e_iTasks.Extensions.DateTime_dTD;Time
.impmod iTasks.UI.Editor.Generic
.implab e_iTasks.UI.Editor.Generic_sgEditor__List;12
.implab e_iTasks.UI.Editor.Generic_sgEditor__Tuple2;14
.impmod iTasks.Internal.Generic.Visualization
.implab e_iTasks.Internal.Generic.Visualization_sgText__List;17
.implab e_iTasks.Internal.Generic.Visualization_sgText__Tuple2;19
.impmod Text.GenJSON
.implab e_Text.GenJSON_sJSONEncode__List;17
.implab e_Text.GenJSON_sJSONEncode__Tuple2;24
.implab e_Text.GenJSON_sJSONDecode__List;47
.implab e_Text.GenJSON_sJSONDecode__Tuple2;54
.impmod Data.GenEq
.implab e_Data.GenEq_sgEq__List;14
.implab e_Data.GenEq_sgEq__Tuple2;21
.impmod iTasks.Extensions.Admin.WorkflowAdmin
.impdesc e_iTasks.Extensions.Admin.WorkflowAdmin_rtoWorkflow;
.impmod iTasks.UI.Tune
.impdesc e_iTasks.UI.Tune_rtune;
.impmod iTasks.WF.Definition
.impdesc e_iTasks.WF.Definition_riTask;
.impmod iTasks.UI.Definition
.impdesc e_iTasks.UI.Definition_kHint
.impmod _SystemDynamic
.impdesc e__SystemDynamic_kTypeCons
.impdesc e__SystemDynamic_kTypeApp
.impdesc e__SystemDynamic_rTypeCodeConstructor
.impdesc e__SystemDynamic_dTC__List
.impdesc e__SystemDynamic_dTC__Tuple2
.export e_BasicAPIExamples.EditorsOnBasicAndPredefinedTypes.EnterDateAndTime_rgEditor_s;
.record e_BasicAPIExamples.EditorsOnBasicAndPredefinedTypes.EnterDateAndTime_rgEditor_s; a 1 0 "gEditor_s;"
.export e_BasicAPIExamples.EditorsOnBasicAndPredefinedTypes.EnterDateAndTime_tgEditor_s;
.export e_BasicAPIExamples.EditorsOnBasicAndPredefinedTypes.EnterDateAndTime_cgEditor_s;
.descn e_BasicAPIExamples.EditorsOnBasicAndPredefinedTypes.EnterDateAndTime_tgEditor_s; e_BasicAPIExamples.EditorsOnBasicAndPredefinedTypes.EnterDateAndTime_cgEditor_s; 1 1 "gEditor_s;"
.n 1 e_BasicAPIExamples.EditorsOnBasicAndPredefinedTypes.EnterDateAndTime_tgEditor_s;
.o 1 0 
e_BasicAPIExamples.EditorsOnBasicAndPredefinedTypes.EnterDateAndTime_cgEditor_s;
	push_node _cycle_in_spine 1
	jsr_eval 0
.impmod BasicAPIExamples.EditorsOnBasicAndPredefinedTypes.EnterDateAndTime
.impdesc e_BasicAPIExamples.EditorsOnBasicAndPredefinedTypes.EnterDateAndTime_rgEditor_s;
	fill_r e_BasicAPIExamples.EditorsOnBasicAndPredefinedTypes.EnterDateAndTime_rgEditor_s; 1 0 1 0 0
.d 1 0 
	pop_a_rtn 1
.export e_BasicAPIExamples.EditorsOnBasicAndPredefinedTypes.EnterDateAndTime_rgText_s;
.record e_BasicAPIExamples.EditorsOnBasicAndPredefinedTypes.EnterDateAndTime_rgText_s; a 1 0 "gText_s;"
.export e_BasicAPIExamples.EditorsOnBasicAndPredefinedTypes.EnterDateAndTime_tgText_s;
.export e_BasicAPIExamples.EditorsOnBasicAndPredefinedTypes.EnterDateAndTime_cgText_s;
.descn e_BasicAPIExamples.EditorsOnBasicAndPredefinedTypes.EnterDateAndTime_tgText_s; e_BasicAPIExamples.EditorsOnBasicAndPredefinedTypes.EnterDateAndTime_cgText_s; 1 1 "gText_s;"
.n 1 e_BasicAPIExamples.EditorsOnBasicAndPredefinedTypes.EnterDateAndTime_tgText_s;
.o 1 0 
e_BasicAPIExamples.EditorsOnBasicAndPredefinedTypes.EnterDateAndTime_cgText_s;
	push_node _cycle_in_spine 1
	jsr_eval 0
.impdesc e_BasicAPIExamples.EditorsOnBasicAndPredefinedTypes.EnterDateAndTime_rgText_s;
	fill_r e_BasicAPIExamples.EditorsOnBasicAndPredefinedTypes.EnterDateAndTime_rgText_s; 1 0 1 0 0
.d 1 0 
	pop_a_rtn 1
.export e_BasicAPIExamples.EditorsOnBasicAndPredefinedTypes.EnterDateAndTime_rJSONEncode_s;
.record e_BasicAPIExamples.EditorsOnBasicAndPredefinedTypes.EnterDateAndTime_rJSONEncode_s; a 1 0 "JSONEncode_s;"
.export e_BasicAPIExamples.EditorsOnBasicAndPredefinedTypes.EnterDateAndTime_tJSONEncode_s;
.export e_BasicAPIExamples.EditorsOnBasicAndPredefinedTypes.EnterDateAndTime_cJSONEncode_s;
.descn e_BasicAPIExamples.EditorsOnBasicAndPredefinedTypes.EnterDateAndTime_tJSONEncode_s; e_BasicAPIExamples.EditorsOnBasicAndPredefinedTypes.EnterDateAndTime_cJSONEncode_s; 1 1 "JSONEncode_s;"
.n 1 e_BasicAPIExamples.EditorsOnBasicAndPredefinedTypes.EnterDateAndTime_tJSONEncode_s;
.o 1 0 
e_BasicAPIExamples.EditorsOnBasicAndPredefinedTypes.EnterDateAndTime_cJSONEncode_s;
	push_node _cycle_in_spine 1
	jsr_eval 0
.impdesc e_BasicAPIExamples.EditorsOnBasicAndPredefinedTypes.EnterDateAndTime_rJSONEncode_s;
	fill_r e_BasicAPIExamples.EditorsOnBasicAndPredefinedTypes.EnterDateAndTime_rJSONEncode_s; 1 0 1 0 0
.d 1 0 
	pop_a_rtn 1
.export e_BasicAPIExamples.EditorsOnBasicAndPredefinedTypes.EnterDateAndTime_rJSONDecode_s;
.record e_BasicAPIExamples.EditorsOnBasicAndPredefinedTypes.EnterDateAndTime_rJSONDecode_s; a 1 0 "JSONDecode_s;"
.export e_BasicAPIExamples.EditorsOnBasicAndPredefinedTypes.EnterDateAndTime_tJSONDecode_s;
.export e_BasicAPIExamples.EditorsOnBasicAndPredefinedTypes.EnterDateAndTime_cJSONDecode_s;
.descn e_BasicAPIExamples.EditorsOnBasicAndPredefinedTypes.EnterDateAndTime_tJSONDecode_s; e_BasicAPIExamples.EditorsOnBasicAndPredefinedTypes.EnterDateAndTime_cJSONDecode_s; 1 1 "JSONDecode_s;"
.n 1 e_BasicAPIExamples.EditorsOnBasicAndPredefinedTypes.EnterDateAndTime_tJSONDecode_s;
.o 1 0 
e_BasicAPIExamples.EditorsOnBasicAndPredefinedTypes.EnterDateAndTime_cJSONDecode_s;
	push_node _cycle_in_spine 1
	jsr_eval 0
.impdesc e_BasicAPIExamples.EditorsOnBasicAndPredefinedTypes.EnterDateAndTime_rJSONDecode_s;
	fill_r e_BasicAPIExamples.EditorsOnBasicAndPredefinedTypes.EnterDateAndTime_rJSONDecode_s; 1 0 1 0 0
.d 1 0 
	pop_a_rtn 1
.export e_BasicAPIExamples.EditorsOnBasicAndPredefinedTypes.EnterDateAndTime_rgEq_s;
.record e_BasicAPIExamples.EditorsOnBasicAndPredefinedTypes.EnterDateAndTime_rgEq_s; a 1 0 "gEq_s;"
.export e_BasicAPIExamples.EditorsOnBasicAndPredefinedTypes.EnterDateAndTime_tgEq_s;
.export e_BasicAPIExamples.EditorsOnBasicAndPredefinedTypes.EnterDateAndTime_cgEq_s;
.descn e_BasicAPIExamples.EditorsOnBasicAndPredefinedTypes.EnterDateAndTime_tgEq_s; e_BasicAPIExamples.EditorsOnBasicAndPredefinedTypes.EnterDateAndTime_cgEq_s; 1 1 "gEq_s;"
.n 1 e_BasicAPIExamples.EditorsOnBasicAndPredefinedTypes.EnterDateAndTime_tgEq_s;
.o 1 0 
e_BasicAPIExamples.EditorsOnBasicAndPredefinedTypes.EnterDateAndTime_cgEq_s;
	push_node _cycle_in_spine 1
	jsr_eval 0
.impdesc e_BasicAPIExamples.EditorsOnBasicAndPredefinedTypes.EnterDateAndTime_rgEq_s;
	fill_r e_BasicAPIExamples.EditorsOnBasicAndPredefinedTypes.EnterDateAndTime_rgEq_s; 1 0 1 0 0
.d 1 0 
	pop_a_rtn 1
.export e_BasicAPIExamples.EditorsOnBasicAndPredefinedTypes.EnterDateAndTime_smain
.export e_BasicAPIExamples.EditorsOnBasicAndPredefinedTypes.EnterDateAndTime_eamain
.descexp e_BasicAPIExamples.EditorsOnBasicAndPredefinedTypes.EnterDateAndTime_dmain e_BasicAPIExamples.EditorsOnBasicAndPredefinedTypes.EnterDateAndTime_nmain e_BasicAPIExamples.EditorsOnBasicAndPredefinedTypes.EnterDateAndTime_lmain 0 0 "main"
.o 1 0 
e_BasicAPIExamples.EditorsOnBasicAndPredefinedTypes.EnterDateAndTime_lmain
	halt
.n 0 e_BasicAPIExamples.EditorsOnBasicAndPredefinedTypes.EnterDateAndTime_dmain e_BasicAPIExamples.EditorsOnBasicAndPredefinedTypes.EnterDateAndTime_eamain
.o 1 0 
e_BasicAPIExamples.EditorsOnBasicAndPredefinedTypes.EnterDateAndTime_nmain
	push_node _cycle_in_spine 0
.o 1 0 
e_BasicAPIExamples.EditorsOnBasicAndPredefinedTypes.EnterDateAndTime_eamain
.o 1 0 
e_BasicAPIExamples.EditorsOnBasicAndPredefinedTypes.EnterDateAndTime_smain
.o 1 0 
s2
	buildh e__predef_d_Unit 0
	create 
.d 1 0 
	jsr s3
.o 1 0 
.d 3 0 
	jmp e_iTasks.WF.Combinators.Common_s@!
.export e_BasicAPIExamples.EditorsOnBasicAndPredefinedTypes.EnterDateAndTime_swf
.descexp e_BasicAPIExamples.EditorsOnBasicAndPredefinedTypes.EnterDateAndTime_dwf e_BasicAPIExamples.EditorsOnBasicAndPredefinedTypes.EnterDateAndTime_nwf e_BasicAPIExamples.EditorsOnBasicAndPredefinedTypes.EnterDateAndTime_lwf 1 0 "wf"
.o 2 0 
e_BasicAPIExamples.EditorsOnBasicAndPredefinedTypes.EnterDateAndTime_lwf
.d 1 0 
	pop_a_jsr 1 ea1
.o 6 0 
.impmod iTasks.Extensions.Admin.WorkflowAdmin
.impdesc e_iTasks.Extensions.Admin.WorkflowAdmin_rWorkflow
	buildhr e_iTasks.Extensions.Admin.WorkflowAdmin_rWorkflow 6 0
.d 1 0 
	rtn 
.n 1 e_BasicAPIExamples.EditorsOnBasicAndPredefinedTypes.EnterDateAndTime_dwf
.o 1 0 
e_BasicAPIExamples.EditorsOnBasicAndPredefinedTypes.EnterDateAndTime_nwf
	push_node _cycle_in_spine 1
.d 1 0 
	jsr ea1
.o 6 0 
	fill_r e_iTasks.Extensions.Admin.WorkflowAdmin_rWorkflow 6 0 6 0 0
.d 1 0 
	pop_a_rtn 6
.o 1 0 
ea1
.o 1 0 
e_BasicAPIExamples.EditorsOnBasicAndPredefinedTypes.EnterDateAndTime_swf
.o 1 0 
s1
	build e_BasicAPIExamples.EditorsOnBasicAndPredefinedTypes.EnterDateAndTime_denterDateTime.3 0 e_BasicAPIExamples.EditorsOnBasicAndPredefinedTypes.EnterDateAndTime_nenterDateTime.3
	buildh e_iTasks.Extensions.DateTime_dTD;Time 0
	buildhr e__SystemDynamic_kTypeCons 1 0
	buildh e_iTasks.Extensions.DateTime_dTD;Date 0
	buildhr e__SystemDynamic_kTypeCons 1 0
	buildh e__SystemDynamic_dTC__Tuple2 0
	buildhr e__SystemDynamic_kTypeCons 1 0
	buildhr e__SystemDynamic_kTypeApp 2 0
	buildhr e__SystemDynamic_kTypeApp 2 0
	buildh e__SystemDynamic_dTC__List 0
	buildhr e__SystemDynamic_kTypeCons 1 0
	buildhr e__SystemDynamic_kTypeApp 2 0
	buildh e_BasicAPIExamples.EditorsOnBasicAndPredefinedTypes.EnterDateAndTime_dgEq_s;546.7 0
	buildh e_BasicAPIExamples.EditorsOnBasicAndPredefinedTypes.EnterDateAndTime_dJSONDecode_s;545.6 0
	buildh e_BasicAPIExamples.EditorsOnBasicAndPredefinedTypes.EnterDateAndTime_dJSONEncode_s;538.4 0
	buildh e_BasicAPIExamples.EditorsOnBasicAndPredefinedTypes.EnterDateAndTime_dgText_s;543.5 0
	buildh e_BasicAPIExamples.EditorsOnBasicAndPredefinedTypes.EnterDateAndTime_dgEditor_s;558.14 0
	buildhr e_iTasks.WF.Definition_riTask; 6 0
	buildh e_iTasks.Extensions.Admin.WorkflowAdmin_dtoWorkflow;13 1
	buildAC "Enter a date and a time"
	buildh ARRAY 1
	push_update_a 1 3
	updates3pop_a 0 1 3 4
.d 4 0 
	jmp e_iTasks.Extensions.Admin.WorkflowAdmin_sworkflow
.export e_BasicAPIExamples.EditorsOnBasicAndPredefinedTypes.EnterDateAndTime_denterDateTime.3
.export e_BasicAPIExamples.EditorsOnBasicAndPredefinedTypes.EnterDateAndTime_nenterDateTime.3
.descn e_BasicAPIExamples.EditorsOnBasicAndPredefinedTypes.EnterDateAndTime_denterDateTime.3 e_BasicAPIExamples.EditorsOnBasicAndPredefinedTypes.EnterDateAndTime_nenterDateTime.3 0 0 "enterDateTime.3"
.n 0 e_BasicAPIExamples.EditorsOnBasicAndPredefinedTypes.EnterDateAndTime_denterDateTime.3 ea3
.o 1 0 
e_BasicAPIExamples.EditorsOnBasicAndPredefinedTypes.EnterDateAndTime_nenterDateTime.3
	push_node _cycle_in_spine 0
.o 1 0 
ea3
.o 1 0 
s3
	buildh e_BasicAPIExamples.EditorsOnBasicAndPredefinedTypes.EnterDateAndTime_d\;17;9;547.8 0
	buildh _Nil 0
	buildh e_iTasks.Extensions.DateTime_dTD;Time 0
	buildhr e__SystemDynamic_kTypeCons 1 0
	buildh e_iTasks.Extensions.DateTime_dTD;Date 0
	buildhr e__SystemDynamic_kTypeCons 1 0
	buildh e__SystemDynamic_dTC__Tuple2 0
	buildhr e__SystemDynamic_kTypeCons 1 0
	buildhr e__SystemDynamic_kTypeApp 2 0
	buildhr e__SystemDynamic_kTypeApp 2 0
	buildh e__SystemDynamic_dTC__List 0
	buildhr e__SystemDynamic_kTypeCons 1 0
	buildhr e__SystemDynamic_kTypeApp 2 0
	buildh e_BasicAPIExamples.EditorsOnBasicAndPredefinedTypes.EnterDateAndTime_dgEq_s;546.7 0
	buildh e_BasicAPIExamples.EditorsOnBasicAndPredefinedTypes.EnterDateAndTime_dJSONDecode_s;545.6 0
	buildh e_BasicAPIExamples.EditorsOnBasicAndPredefinedTypes.EnterDateAndTime_dJSONEncode_s;538.4 0
	buildh e_BasicAPIExamples.EditorsOnBasicAndPredefinedTypes.EnterDateAndTime_dgText_s;543.5 0
	buildh e_BasicAPIExamples.EditorsOnBasicAndPredefinedTypes.EnterDateAndTime_dgEditor_s;558.14 0
	create 
	push_update_a 1 2
	updates4_a 7 6 5 4 3
	updates3pop_a 0 1 8 7
.d 8 0 
	jsr e_iTasks.WF.Tasks.Interaction_senterInformation
.o 1 0 
	buildAC "Enter a date and time"
	buildhr e_iTasks.UI.Definition_kHint 1 0
	buildh e_iTasks.UI.Tune_dtune;7 0
.d 3 0 
	jsr e_iTasks.UI.Tune_s@>>
.o 1 0 
	buildh e_BasicAPIExamples.EditorsOnBasicAndPredefinedTypes.EnterDateAndTime_dJSONEncode_s;538.4 0
	buildh e_iTasks.Extensions.DateTime_dTD;Time 0
	buildhr e__SystemDynamic_kTypeCons 1 0
	buildh e_iTasks.Extensions.DateTime_dTD;Date 0
	buildhr e__SystemDynamic_kTypeCons 1 0
	buildh e__SystemDynamic_dTC__Tuple2 0
	buildhr e__SystemDynamic_kTypeCons 1 0
	buildhr e__SystemDynamic_kTypeApp 2 0
	buildhr e__SystemDynamic_kTypeApp 2 0
	buildh e__SystemDynamic_dTC__List 0
	buildhr e__SystemDynamic_kTypeCons 1 0
	buildhr e__SystemDynamic_kTypeApp 2 0
.d 5 0 
	jmp e_iTasks.WF.Combinators.Common_s>>!
.export e_BasicAPIExamples.EditorsOnBasicAndPredefinedTypes.EnterDateAndTime_d\;17;9;547.8
.desc e_BasicAPIExamples.EditorsOnBasicAndPredefinedTypes.EnterDateAndTime_d\;17;9;547.8 _hnf l8 1 0 "\;17;9;547.8"
.o 2 0 
l8
	update_a 1 0
	create 
	put_a 2
.o 2 0 
ea8
	jsr_eval 0
.o 2 0 
s8
	buildh _Nil 0
	buildh e_iTasks.Extensions.DateTime_dTD;Time 0
	buildhr e__SystemDynamic_kTypeCons 1 0
	buildh e_iTasks.Extensions.DateTime_dTD;Date 0
	buildhr e__SystemDynamic_kTypeCons 1 0
	buildh e__SystemDynamic_dTC__Tuple2 0
	buildhr e__SystemDynamic_kTypeCons 1 0
	buildhr e__SystemDynamic_kTypeApp 2 0
	buildhr e__SystemDynamic_kTypeApp 2 0
	buildh e__SystemDynamic_dTC__List 0
	buildhr e__SystemDynamic_kTypeCons 1 0
	buildhr e__SystemDynamic_kTypeApp 2 0
	buildh e_BasicAPIExamples.EditorsOnBasicAndPredefinedTypes.EnterDateAndTime_dgEq_s;546.7 0
	buildh e_BasicAPIExamples.EditorsOnBasicAndPredefinedTypes.EnterDateAndTime_dJSONDecode_s;545.6 0
	buildh e_BasicAPIExamples.EditorsOnBasicAndPredefinedTypes.EnterDateAndTime_dJSONEncode_s;538.4 0
	buildh e_BasicAPIExamples.EditorsOnBasicAndPredefinedTypes.EnterDateAndTime_dgText_s;543.5 0
	buildh e_BasicAPIExamples.EditorsOnBasicAndPredefinedTypes.EnterDateAndTime_dgEditor_s;558.14 0
	create 
	push_update_a 1 2
	updates4_a 7 6 5 4 3
	update_a 8 7
	updates3pop_a 0 1 9 8
.d 9 0 
	jsr e_iTasks.WF.Tasks.Interaction_sviewInformation
.o 1 0 
	buildAC "You Entered:"
	buildhr e_iTasks.UI.Definition_kHint 1 0
	buildh e_iTasks.UI.Tune_dtune;7 0
.d 3 0 
	jsr e_iTasks.UI.Tune_s@>>
.o 1 0 
.d 1 0 
	fill_a01_pop_rtn 
.export e_BasicAPIExamples.EditorsOnBasicAndPredefinedTypes.EnterDateAndTime_dgEditor_s;558.14
.desc e_BasicAPIExamples.EditorsOnBasicAndPredefinedTypes.EnterDateAndTime_dgEditor_s;558.14 _hnf l14 1 0 "gEditor_s;558.14"
.o 2 0 
i14
.d 1 0 
	pop_a_jmp 1 s14
.ai 1 _ i14
.o 2 0 
l14
.d 1 0 
	pop_a_jsr 1 ea14
.o 4 0 
.impmod iTasks.UI.Editor
.impdesc e_iTasks.UI.Editor_rEditor
	buildhr e_iTasks.UI.Editor_rEditor 4 0
.d 1 0 
	rtn 
.o 1 0 
ea14
	jsr_eval 0
.o 1 0 
s14
	buildh e_BasicAPIExamples.EditorsOnBasicAndPredefinedTypes.EnterDateAndTime_dgEq_s;548.9 0
	buildh e_BasicAPIExamples.EditorsOnBasicAndPredefinedTypes.EnterDateAndTime_dgText_s;551.12 0
	buildh e_BasicAPIExamples.EditorsOnBasicAndPredefinedTypes.EnterDateAndTime_dgEditor_s;556.13 0
.d 4 0 
	jmp e_iTasks.UI.Editor.Generic_sgEditor__List;12
.export e_BasicAPIExamples.EditorsOnBasicAndPredefinedTypes.EnterDateAndTime_dgEditor_s;556.13
.desc e_BasicAPIExamples.EditorsOnBasicAndPredefinedTypes.EnterDateAndTime_dgEditor_s;556.13 _hnf l13 1 0 "gEditor_s;556.13"
.o 2 0 
i13
.d 1 0 
	pop_a_jmp 1 s13
.ai 1 _ i13
.o 2 0 
l13
.d 1 0 
	pop_a_jsr 1 ea13
.o 4 0 
	buildhr e_iTasks.UI.Editor_rEditor 4 0
.d 1 0 
	rtn 
.o 1 0 
ea13
	jsr_eval 0
.o 1 0 
s13
	buildh e_iTasks.Extensions.DateTime_dgEq_Time;37 0
	buildh e_iTasks.Extensions.DateTime_dgText_Time;40 0
	buildh e_iTasks.Extensions.DateTime_dgEditor_Time;43 0
	buildh e_iTasks.Extensions.DateTime_dgEq_Date;36 0
	buildh e_iTasks.Extensions.DateTime_dgText_Date;39 0
	buildh e_iTasks.Extensions.DateTime_dgEditor_Date;42 0
.d 7 0 
	jmp e_iTasks.UI.Editor.Generic_sgEditor__Tuple2;14
.export e_BasicAPIExamples.EditorsOnBasicAndPredefinedTypes.EnterDateAndTime_dgText_s;543.5
.desc e_BasicAPIExamples.EditorsOnBasicAndPredefinedTypes.EnterDateAndTime_dgText_s;543.5 _hnf l5 2 0 "gText_s;543.5"
.o 4 0 
i5
.d 3 0 
	pop_a_jmp 1 s5
.ai 2 ea5 i5
.o 2 0 
l5
	push_args 0 1 1
	update_a 2 1
	create 
	put_a 3
.o 3 0 
ea5
	jsr_eval 0
.o 3 0 
s5
	buildh e_BasicAPIExamples.EditorsOnBasicAndPredefinedTypes.EnterDateAndTime_dgText_s;551.12 0
.d 4 0 
	jmp e_iTasks.Internal.Generic.Visualization_sgText__List;17
.export e_BasicAPIExamples.EditorsOnBasicAndPredefinedTypes.EnterDateAndTime_dgText_s;551.12
.desc e_BasicAPIExamples.EditorsOnBasicAndPredefinedTypes.EnterDateAndTime_dgText_s;551.12 _hnf l12 2 0 "gText_s;551.12"
.o 4 0 
i12
.d 3 0 
	pop_a_jmp 1 s12
.ai 2 ea12 i12
.o 2 0 
l12
	push_args 0 1 1
	update_a 2 1
	create 
	put_a 3
.o 3 0 
ea12
	jsr_eval 0
.o 3 0 
s12
	buildh e_iTasks.Extensions.DateTime_dgText_Time;40 0
	buildh e_iTasks.Extensions.DateTime_dgText_Date;39 0
.d 5 0 
	jmp e_iTasks.Internal.Generic.Visualization_sgText__Tuple2;19
.export e_BasicAPIExamples.EditorsOnBasicAndPredefinedTypes.EnterDateAndTime_dJSONEncode_s;538.4
.desc e_BasicAPIExamples.EditorsOnBasicAndPredefinedTypes.EnterDateAndTime_dJSONEncode_s;538.4 _hnf l4 2 0 "JSONEncode_s;538.4"
.o 3 1 b
i4
.d 2 1 b
	pop_a_jmp 1 s4
.ai 2 ea4 i4
.o 2 0 
l4
	push_args 0 1 1
	update_a 2 1
	create 
	put_a 3
.o 3 0 
ea4
	jsr_eval 1
	jsr_eval 0
	pushB0_pop_a1 
.o 2 1 b
s4
	buildh e_BasicAPIExamples.EditorsOnBasicAndPredefinedTypes.EnterDateAndTime_dJSONEncode_s;550.11 0
.d 3 1 b
	jmp e_Text.GenJSON_sJSONEncode__List;17
.export e_BasicAPIExamples.EditorsOnBasicAndPredefinedTypes.EnterDateAndTime_dJSONEncode_s;550.11
.desc e_BasicAPIExamples.EditorsOnBasicAndPredefinedTypes.EnterDateAndTime_dJSONEncode_s;550.11 _hnf l11 2 0 "JSONEncode_s;550.11"
.o 3 1 b
i11
	pop_a 1
	push_args 0 2 2
	update2pop_a 0 1
.d 3 1 b
	jmp s11
.ai 2 ea11 i11
.o 2 0 
l11
	push_args 0 1 1
	update_a 2 1
	create 
	put_a 3
.o 3 0 
ea11
	push_jsr_eval 1
	repl_args 2 2
	jsr_eval 2
	pushB_a 2
	update2pop_a 0 2
.o 3 1 b
s11
	buildh e_iTasks.Extensions.DateTime_dJSONEncode_Time;31 0
	buildh e_iTasks.Extensions.DateTime_dJSONEncode_Date;30 0
.d 5 1 b
	jmp e_Text.GenJSON_sJSONEncode__Tuple2;24
.export e_BasicAPIExamples.EditorsOnBasicAndPredefinedTypes.EnterDateAndTime_dJSONDecode_s;545.6
.desc e_BasicAPIExamples.EditorsOnBasicAndPredefinedTypes.EnterDateAndTime_dJSONDecode_s;545.6 _hnf l6 2 0 "JSONDecode_s;545.6"
.o 2 1 b
i6
.d 1 1 b
	pop_a_jmp 1 s6
.ai 0 a6 i6
.o 2 0 
l6
	repl_args 1 1
.o 2 0 
a6
.d 2 0 
	jsr ea6
.o 2 0 
	buildh _Tuple 2
.d 1 0 
	rtn 
.o 2 0 
ea6
	jsr_eval 1
	jsr_eval 0
	pushB0_pop_a1 
.o 1 1 b
s6
	buildh e_BasicAPIExamples.EditorsOnBasicAndPredefinedTypes.EnterDateAndTime_dJSONDecode_s;549.10 0
.d 2 1 b
	jmp e_Text.GenJSON_sJSONDecode__List;47
.export e_BasicAPIExamples.EditorsOnBasicAndPredefinedTypes.EnterDateAndTime_dJSONDecode_s;549.10
.desc e_BasicAPIExamples.EditorsOnBasicAndPredefinedTypes.EnterDateAndTime_dJSONDecode_s;549.10 _hnf l10 2 0 "JSONDecode_s;549.10"
.o 2 1 b
i10
.d 1 1 b
	pop_a_jmp 1 s10
.ai 0 a10 i10
.o 2 0 
l10
	repl_args 1 1
.o 2 0 
a10
.d 2 0 
	jsr ea10
.o 2 0 
	buildh _Tuple 2
.d 1 0 
	rtn 
.o 2 0 
ea10
	jsr_eval 1
	jsr_eval 0
	pushB0_pop_a1 
.o 1 1 b
s10
	buildh e_iTasks.Extensions.DateTime_dJSONDecode_Time;34 0
	buildh e_iTasks.Extensions.DateTime_dJSONDecode_Date;33 0
.d 3 1 b
	jmp e_Text.GenJSON_sJSONDecode__Tuple2;54
.export e_BasicAPIExamples.EditorsOnBasicAndPredefinedTypes.EnterDateAndTime_dgEq_s;546.7
.desc e_BasicAPIExamples.EditorsOnBasicAndPredefinedTypes.EnterDateAndTime_dgEq_s;546.7 _hnf l7 2 0 "gEq_s;546.7"
.o 3 0 
i7
.d 2 0 
	pop_a_jmp 1 s7
.ai 0 a7 i7
.o 2 0 
l7
	repl_args 1 1
.o 2 0 
a7
.d 2 0 
	jsr ea7
.o 0 1 b
	buildB_b 0
.d 1 0 
	pop_b_rtn 1
.o 2 0 
ea7
	jsr_eval 1
	jsr_eval 0
.o 2 0 
s7
	buildh e_BasicAPIExamples.EditorsOnBasicAndPredefinedTypes.EnterDateAndTime_dgEq_s;548.9 0
.d 3 0 
	jmp e_Data.GenEq_sgEq__List;14
.export e_BasicAPIExamples.EditorsOnBasicAndPredefinedTypes.EnterDateAndTime_dgEq_s;548.9
.desc e_BasicAPIExamples.EditorsOnBasicAndPredefinedTypes.EnterDateAndTime_dgEq_s;548.9 _hnf l9 2 0 "gEq_s;548.9"
.o 3 0 
i9
	pop_a 1
	push_args 1 2 2
	push_args 2 2 2
	update_a 3 5
	update3pop_a 0 2
.d 4 0 
	jmp s9
.ai 0 a9 i9
.o 2 0 
l9
	repl_args 1 1
.o 2 0 
a9
.d 2 0 
	jsr ea9
.o 0 1 b
	buildB_b 0
.d 1 0 
	pop_b_rtn 1
.o 2 0 
ea9
	push_jsr_eval 1
	repl_args 2 2
	push_jsr_eval 2
	repl_args 2 2
	update_a 3 5
	update3pop_a 0 2
.o 4 0 
s9
	buildh e_iTasks.Extensions.DateTime_dgEq_Time;37 0
	buildh e_iTasks.Extensions.DateTime_dgEq_Date;36 0
.d 6 0 
	jmp e_Data.GenEq_sgEq__Tuple2;21
