.comp 920 000011110011000
.start _nostart_
.depend "Text" "20210609153507"
.depend "StdString" "20210609153507"
.depend "StdReal" "20210609153507"
.depend "StdChar" "20210609153507"
.depend "StdInt" "20210609153507"
.depend "StdBool" "20210609153507"
.depend "StdClass" "20210609153507"
.depend "StdList" "20210609153507"
.depend "StdOverloaded" "20210609153507"
.depend "_SystemDynamic" "20210609153507"
.depend "Text.Encodings.UrlEncoding" "20210609153506"
.module m_Text.Encodings.UrlEncoding "Text.Encodings.UrlEncoding" "20210609153506"
.endinfo
.impmod _system
.implab _cycle_in_spine
.implab _type_error
.implab _hnf
.impdesc e_system_dind
.implab e_system_nind e_system_eaind
.impdesc e_system_dif
.implab e_system_nif e_system_eaif
.implab e_system_sif
.impdesc e_system_dAP
.implab e_system_nAP e_system_eaAP
.implab e_system_sAP
.impdesc ARRAY
.impdesc _Nil
.impdesc _Cons
.impdesc _Conss
.implab n_Conss ea_Conss
.impdesc _Consts
.implab n_Consts ea_Consts
.impdesc _Conssts
.implab n_Conssts ea_Conssts
.impdesc _Tuple
.impdesc d_S.1
.implab n_S.1 ea_S.1
.impdesc d_S.2
.implab n_S.2 ea_S.2
.impdesc d_S.3
.implab n_S.3 ea_S.3
.impdesc d_S.4
.implab n_S.4 ea_S.4
.impdesc d_S.5
.implab n_S.5 ea_S.5
.impdesc d_S.6
.implab n_S.6 ea_S.6
.implab _driver
.impmod Text
.implab e_Text_sjoin;9
.impdesc e_Text_dsplit;16
.implab e_Text_ssplit;16
.implab e_Text_nsplit;16 e_Text_easplit;16
.impmod StdString
.implab e_StdString_s+++;11
.impmod StdChar
.implab e_StdChar_sisAlphanum
.implab e_StdChar_stoChar;21
.impmod StdInt
.implab e_StdInt_sbitand
.implab e_StdInt_s<<
.implab e_StdInt_s>>
.implab e_StdInt_s+;6
.implab e_StdInt_s-;7
.implab e_StdInt_s<;17
.implab e_StdInt_stoInt;20
.impmod StdBool
.implab e_StdBool_snot
.impmod StdList
.implab e_StdList_s++
.implab e_StdList_sfromString;78
.implab e_StdList_stoString;79
.export e_Text.Encodings.UrlEncoding_surlDecodePairs
.export e_Text.Encodings.UrlEncoding_eaurlDecodePairs
.descexp e_Text.Encodings.UrlEncoding_durlDecodePairs e_Text.Encodings.UrlEncoding_nurlDecodePairs e_Text.Encodings.UrlEncoding_lurlDecodePairs 1 0 "urlDecodePairs"
.o 2 0
e_Text.Encodings.UrlEncoding_lurlDecodePairs
	update_a 1 0
	create
	update_a 0 2
	pop_a 1
.d 2 0
	jmp e_Text.Encodings.UrlEncoding_eaurlDecodePairs
.n 1 e_Text.Encodings.UrlEncoding_durlDecodePairs e_Text.Encodings.UrlEncoding_eaurlDecodePairs
.o 1 0
e_Text.Encodings.UrlEncoding_nurlDecodePairs
	push_node _cycle_in_spine 1
.o 2 0
e_Text.Encodings.UrlEncoding_eaurlDecodePairs
	jsr_eval 0
	push_array 0
	update_a 0 1
	pop_a 1
.o 2 0
e_Text.Encodings.UrlEncoding_surlDecodePairs
.o 2 0
s4
	create
	push_a 1
	buildAC "&"
	update_a 2 3
	update_a 1 2
	updatepop_a 0 1
.d 3 0
	jsr e_Text_ssplit;16
.o 1 0
	create
	push_a 1
	update_a 1 2
	update_a 0 1
	pop_a 1
.d 2 0
	jsr s14
.o 1 0
.d 2 0
	jmp s13
.export e_Text.Encodings.UrlEncoding_dc;51;48;12.13
.export e_Text.Encodings.UrlEncoding_nc;51;48;12.13
.descn e_Text.Encodings.UrlEncoding_dc;51;48;12.13 e_Text.Encodings.UrlEncoding_nc;51;48;12.13 1 0 "c;51;48;12.13"
.n 1 e_Text.Encodings.UrlEncoding_dc;51;48;12.13 ea13
.o 1 0
e_Text.Encodings.UrlEncoding_nc;51;48;12.13
	push_node _cycle_in_spine 1
.o 2 0
ea13
	jsr_eval 0
.o 2 0
s13
	push_a 0
	updatepop_a 0 1
.d 2 0
	jmp s19
.o 2 0
s19
	eq_desc _Cons 2 0
	jmp_true case.1
	jmp case.2
case.1
	repl_args 2 2
	push_a 0
	jsr_eval 0
	push_a 2
	push_a 1
	update_a 1 2
	update_a 0 1
	pop_a 1
	update_a 1 3
	updatepop_a 0 2
.d 3 0
	jmp s18
case.2
	fillh _Nil 0 1
	pop_a 1
.d 1 0
	rtn
.o 3 0
s18
	eq_desc _Cons 2 0
	jmp_true case.3
	jmp case.4
case.3
	repl_args 2 2
	jsr_eval 1
	eq_desc _Cons 2 1
	jmp_true case.5
	pop_a 1
	jmp case.4
case.5
	push_args 1 2 2
	buildh _Nil 0
	update_a 0 4
	pop_a 1
	jsr_eval 1
	eq_desc _Nil 0 1
	jmp_true case.6
	pop_a 3
	jmp case.4
case.6
	push_a 4
	build e_Text.Encodings.UrlEncoding_dc;51;48;12.13 1 e_Text.Encodings.UrlEncoding_nc;51;48;12.13
	push_a 1
	build e_Text.Encodings.UrlEncoding_durlDecode 1 e_Text.Encodings.UrlEncoding_nurlDecode
	push_a 4
	build e_Text.Encodings.UrlEncoding_durlDecode 1 e_Text.Encodings.UrlEncoding_nurlDecode
	buildh _Tuple 2
	fillh _Cons 2 7
	pop_a 5
.d 1 0
	rtn
case.4
	push_a 1
	jsr_eval 0
	updatepop_a 0 2
.d 2 0
	jmp s13
.export e_Text.Encodings.UrlEncoding_dc;51;76;13.14
.export e_Text.Encodings.UrlEncoding_nc;51;76;13.14
.descn e_Text.Encodings.UrlEncoding_dc;51;76;13.14 e_Text.Encodings.UrlEncoding_nc;51;76;13.14 1 0 "c;51;76;13.14"
.n 1 e_Text.Encodings.UrlEncoding_dc;51;76;13.14 ea14
.o 1 0
e_Text.Encodings.UrlEncoding_nc;51;76;13.14
	push_node _cycle_in_spine 1
.o 2 0
ea14
	jsr_eval 0
.o 2 0
s14
	push_a 0
	updatepop_a 0 1
.d 2 0
	jmp s17
.o 2 0
s17
	eq_desc _Cons 2 0
	jmp_true case.7
	jmp case.8
case.7
	repl_args 2 2
	push_a 1
	build e_Text.Encodings.UrlEncoding_dc;51;76;13.14 1 e_Text.Encodings.UrlEncoding_nc;51;76;13.14
	push_a 1
	buildAC "="
	buildh ARRAY 1
	build e_Text_dsplit;16 2 e_Text_nsplit;16
	fillh _Cons 2 4
	pop_a 2
.d 1 0
	rtn
case.8
	fillh _Nil 0 1
	pop_a 1
.d 1 0
	rtn
.export e_Text.Encodings.UrlEncoding_surlEncodePairs
.descexp e_Text.Encodings.UrlEncoding_durlEncodePairs e_Text.Encodings.UrlEncoding_nurlEncodePairs e_Text.Encodings.UrlEncoding_lurlEncodePairs 1 0 "urlEncodePairs"
.o 2 0
e_Text.Encodings.UrlEncoding_lurlEncodePairs
	pop_a 1
.d 1 0
	jsr ea3
.o 1 0
	buildh ARRAY 1
.d 1 0
	rtn
.n 1 e_Text.Encodings.UrlEncoding_durlEncodePairs
.o 1 0
e_Text.Encodings.UrlEncoding_nurlEncodePairs
	push_node _cycle_in_spine 1
.d 1 0
	jsr ea3
.o 1 0
	fillh ARRAY 1 1
.d 1 0
	rtn
.o 1 0
ea3
	jsr_eval 0
.o 1 0
e_Text.Encodings.UrlEncoding_surlEncodePairs
.o 1 0
s3
	create
	push_a 1
	update_a 1 2
	updatepop_a 0 1
.d 2 0
	jsr s12
.o 1 0
	buildAC "&"
.d 2 0
	jmp e_Text_sjoin;9
.export e_Text.Encodings.UrlEncoding_dc;48;71;11.12
.export e_Text.Encodings.UrlEncoding_nc;48;71;11.12
.descn e_Text.Encodings.UrlEncoding_dc;48;71;11.12 e_Text.Encodings.UrlEncoding_nc;48;71;11.12 1 0 "c;48;71;11.12"
.n 1 e_Text.Encodings.UrlEncoding_dc;48;71;11.12 ea12
.o 1 0
e_Text.Encodings.UrlEncoding_nc;48;71;11.12
	push_node _cycle_in_spine 1
.o 2 0
ea12
	jsr_eval 0
.o 2 0
s12
	push_a 0
	updatepop_a 0 1
.d 2 0
	jmp s16
.o 2 0
s16
	eq_desc _Cons 2 0
	jmp_true case.9
	jmp case.10
case.9
	repl_args 2 2
	push_a 0
	jsr_eval 0
	repl_args 2 2
	push_a 3
	push_a 2
	update_a 1 3
	update_a 2 1
	update_a 0 2
	pop_a 1
	update_a 2 4
	update_a 1 3
	updatepop_a 0 2
.d 4 0
	jmp s15
case.10
	fillh _Nil 0 1
	pop_a 1
.d 1 0
	rtn
.o 4 0
s15
case.11
	push_a 2
	build e_Text.Encodings.UrlEncoding_dc;48;71;11.12 1 e_Text.Encodings.UrlEncoding_nc;48;71;11.12
	push_a 2
	push_a 2
	build e_Text.Encodings.UrlEncoding_d_f1.23 2 e_Text.Encodings.UrlEncoding_n_f1.23
	fillh _Cons 2 5
	pop_a 3
.d 1 0
	rtn
case.12
	push_a 2
	jsr_eval 0
	updatepop_a 0 3
.d 2 0
	jmp s12
.export e_Text.Encodings.UrlEncoding_d_f1.23
.export e_Text.Encodings.UrlEncoding_n_f1.23
.descn e_Text.Encodings.UrlEncoding_d_f1.23 e_Text.Encodings.UrlEncoding_n_f1.23 2 0 "_f1.23"
.n 2 e_Text.Encodings.UrlEncoding_d_f1.23 ea23
.o 1 0
e_Text.Encodings.UrlEncoding_n_f1.23
	push_node _cycle_in_spine 2
.o 3 0
ea23
.o 3 0
s23
	push_a 1
	jsr_eval 0
	push_array 0
	updatepop_a 0 1
	update_a 1 2
	updatepop_a 0 1
.d 1 0
	jsr s1
.o 1 0
	buildAC "="
.d 2 0
	jsr catAC
.o 1 0
	push_a 1
	jsr_eval 0
	push_array 0
	updatepop_a 0 1
	buildh _Nil 0
	update_a 0 3
	pop_a 1
.d 1 0
	jsr s1
.o 1 0
	update_a 1 2
	updatepop_a 0 1
.d 2 0
	jsr catAC
.o 1 0
	fillh ARRAY 1 1
.d 1 0
	rtn
.export e_Text.Encodings.UrlEncoding_surlDecode
.descexp e_Text.Encodings.UrlEncoding_durlDecode e_Text.Encodings.UrlEncoding_nurlDecode e_Text.Encodings.UrlEncoding_lurlDecode 1 0 "urlDecode"
.o 2 0
e_Text.Encodings.UrlEncoding_lurlDecode
	pop_a 1
.d 1 0
	jsr ea2
.o 1 0
	buildh ARRAY 1
.d 1 0
	rtn
.n 1 e_Text.Encodings.UrlEncoding_durlDecode
.o 1 0
e_Text.Encodings.UrlEncoding_nurlDecode
	push_node _cycle_in_spine 1
.d 1 0
	jsr ea2
.o 1 0
	fillh ARRAY 1 1
.d 1 0
	rtn
.o 1 0
ea2
	jsr_eval 0
	push_array 0
	update_a 0 1
	pop_a 1
.o 1 0
e_Text.Encodings.UrlEncoding_surlDecode
.o 1 0
s2
	create
	push_a 1
	update_a 1 2
	updatepop_a 0 1
.d 2 0
	jsr e_StdList_sfromString;78
.o 1 0
	create
	push_a 1
	update_a 1 2
	update_a 0 1
	pop_a 1
.d 2 0
	jsr s9
.o 1 0
.d 1 0
	jmp e_StdList_stoString;79
.export e_Text.Encodings.UrlEncoding_durlDecode`;8.9
.export e_Text.Encodings.UrlEncoding_nurlDecode`;8.9
.descn e_Text.Encodings.UrlEncoding_durlDecode`;8.9 e_Text.Encodings.UrlEncoding_nurlDecode`;8.9 1 0 "urlDecode`;8.9"
.n 1 e_Text.Encodings.UrlEncoding_durlDecode`;8.9 ea9
.o 1 0
e_Text.Encodings.UrlEncoding_nurlDecode`;8.9
	push_node _cycle_in_spine 1
.o 2 0
ea9
	jsr_eval 0
.o 2 0
s9
	eq_desc _Nil 0 0
	jmp_true case.13
	jmp case.14
case.13
	fillh _Nil 0 1
	pop_a 1
.d 1 0
	rtn
case.14
	repl_args 2 2
	jsr_eval 0
	pushC_a 0
	eqC_b '+' 0
	jmp_true case.15
	eqC_b '%' 0
	jmp_true case.16
	pop_b 1
	jmp case.17
case.15
	pop_b 1
	push_a 1
	build e_Text.Encodings.UrlEncoding_durlDecode`;8.9 1 e_Text.Encodings.UrlEncoding_nurlDecode`;8.9
	buildC ' '
	fillh _Cons 2 4
	pop_a 2
.d 1 0
	rtn
case.16
	pop_b 1
	jsr_eval 1
	eq_desc _Cons 2 1
	jmp_true case.18
	jmp case.17
case.18
	push_args 1 2 2
	jsr_eval 1
	eq_desc _Cons 2 1
	jmp_true case.19
	pop_a 2
	jmp case.17
case.19
	push_args 1 2 2
	buildh _Nil 0
	update_a 0 4
	pop_a 1
	push_a 1
	build e_Text.Encodings.UrlEncoding_durlDecode`;8.9 1 e_Text.Encodings.UrlEncoding_nurlDecode`;8.9
	push_a 1
	push_a 4
	build e_Text.Encodings.UrlEncoding_d_f0.22 2 e_Text.Encodings.UrlEncoding_n_f0.22
	fillh _Cons 2 8
	pop_a 6
.d 1 0
	rtn
case.17
	push_a 1
	build e_Text.Encodings.UrlEncoding_durlDecode`;8.9 1 e_Text.Encodings.UrlEncoding_nurlDecode`;8.9
	push_a 1
	fillh _Cons 2 4
	pop_a 2
.d 1 0
	rtn
.export e_Text.Encodings.UrlEncoding_d_f0.22
.export e_Text.Encodings.UrlEncoding_n_f0.22
.descn e_Text.Encodings.UrlEncoding_d_f0.22 e_Text.Encodings.UrlEncoding_n_f0.22 2 0 "_f0.22"
.n 2 e_Text.Encodings.UrlEncoding_d_f0.22 ea22
.o 1 0
e_Text.Encodings.UrlEncoding_n_f0.22
	push_node _cycle_in_spine 2
.o 3 0
ea22
.o 3 0
s22
	push_a 1
	jsr_eval 0
	pushC_a 2
	pop_a 1
	push_a 0
	jsr_eval 0
	pushC_a 1
	pop_a 1
	pop_a 2
.d 0 2 cc
	jsr s10
.o 0 1 c
	fillC_b 0 0
	pop_b 1
.d 1 0
	rtn
.o 0 2 cc
s10
	push_b 1
	CtoI
.d 0 1 i
	jsr s11
.o 0 1 i
	push_b 1
	CtoI
.d 0 1 i
	jsr s11
.o 0 1 i
	pushI 4
	push_b 1
	update_b 1 2
	update_b 0 1
	pop_b 1
	shiftl%
	addI
	updatepop_b 0 2
	ItoC
.d 0 1 c
	rtn
.o 0 1 i
s11
	pushC '9'
	CtoI
	push_b 1
	push_b 1
	update_b 1 2
	update_b 0 1
	pop_b 1
	ltI
	notB
	jmp_false else.20
	pushC '0'
	CtoI
	push_b 1
	update_b 1 2
	updatepop_b 0 1
	subI
.d 0 1 i
	rtn
else.20
	pushC 'A'
	CtoI
	push_b 1
	subI
	pushI 10
	update_b 1 2
	updatepop_b 0 1
	addI
.d 0 1 i
	rtn
.export e_Text.Encodings.UrlEncoding_surlEncode
.descexp e_Text.Encodings.UrlEncoding_durlEncode e_Text.Encodings.UrlEncoding_nurlEncode e_Text.Encodings.UrlEncoding_lurlEncode 1 0 "urlEncode"
.o 2 0
e_Text.Encodings.UrlEncoding_lurlEncode
	pop_a 1
.d 1 0
	jsr ea1
.o 1 0
	buildh ARRAY 1
.d 1 0
	rtn
.n 1 e_Text.Encodings.UrlEncoding_durlEncode
.o 1 0
e_Text.Encodings.UrlEncoding_nurlEncode
	push_node _cycle_in_spine 1
.d 1 0
	jsr ea1
.o 1 0
	fillh ARRAY 1 1
.d 1 0
	rtn
.o 1 0
ea1
	jsr_eval 0
	push_array 0
	update_a 0 1
	pop_a 1
.o 1 0
e_Text.Encodings.UrlEncoding_surlEncode
.o 1 0
s1
	create
	push_a 1
	update_a 1 2
	updatepop_a 0 1
.d 2 0
	jsr e_StdList_sfromString;78
.o 1 0
	create
	push_a 1
	update_a 1 2
	update_a 0 1
	pop_a 1
.d 2 0
	jsr s8
.o 1 0
.d 1 0
	jmp e_StdList_stoString;79
.export e_Text.Encodings.UrlEncoding_durlEncode`;7.8
.export e_Text.Encodings.UrlEncoding_nurlEncode`;7.8
.descn e_Text.Encodings.UrlEncoding_durlEncode`;7.8 e_Text.Encodings.UrlEncoding_nurlEncode`;7.8 1 0 "urlEncode`;7.8"
.n 1 e_Text.Encodings.UrlEncoding_durlEncode`;7.8 ea8
.o 1 0
e_Text.Encodings.UrlEncoding_nurlEncode`;7.8
	push_node _cycle_in_spine 1
.o 2 0
ea8
	jsr_eval 0
.o 2 0
s8
	eq_desc _Nil 0 0
	jmp_true case.21
	jmp case.22
case.21
	fillh _Nil 0 1
	pop_a 1
.d 1 0
	rtn
case.22
	repl_args 2 2
	push_a 0
	jsr_eval 0
	pushC_a 1
	pop_a 1
.d 0 1 c
	jsr e_StdChar_sisAlphanum
.o 0 1 b
	jmp_false else.23
	push_a 1
	build e_Text.Encodings.UrlEncoding_durlEncode`;7.8 1 e_Text.Encodings.UrlEncoding_nurlEncode`;7.8
	push_a 1
	fillh _Cons 2 4
	pop_a 2
.d 1 0
	rtn
else.23
	push_a 0
	build e_Text.Encodings.UrlEncoding_dcharToHex;6.7 1 e_Text.Encodings.UrlEncoding_ncharToHex;6.7
	push_a 2
	build e_Text.Encodings.UrlEncoding_durlEncode`;7.8 1 e_Text.Encodings.UrlEncoding_nurlEncode`;7.8
	push_a 1
	build d_S.2 -1 n_S.2
	push_a 2
	build d_S.1 -1 n_S.1
	create
	pushC_a 5
	push_a 2
	update_a 1 3
	update_a 2 1
	update_a 0 2
	pop_a 1
	buildh _Nil 0
	update_a 0 6
	update_a 0 5
	update_a 0 7
	pop_a 1
.d 3 1 c
	jsr s6
.o 1 0
	update_a 1 4
	updatepop_a 0 3
.d 3 0
	jmp e_StdList_s++
.export e_Text.Encodings.UrlEncoding_dcharToHex;6.7
.export e_Text.Encodings.UrlEncoding_ncharToHex;6.7
.descn e_Text.Encodings.UrlEncoding_dcharToHex;6.7 e_Text.Encodings.UrlEncoding_ncharToHex;6.7 1 0 "charToHex;6.7"
.n 1 e_Text.Encodings.UrlEncoding_dcharToHex;6.7
.o 1 0
e_Text.Encodings.UrlEncoding_ncharToHex;6.7
	push_node _cycle_in_spine 1
.o 1 0
ea7
	jsr_eval 0
	pushC_a 0
	pop_a 1
	push_b 0
	updatepop_b 0 1
	CtoI
	pushI 15
	push_b 1
	and%
.d 0 1 i
	jsr s5
.o 0 1 i
	ItoC
	pushI 4
	push_b 2
	shiftr%
.d 0 1 i
	jsr s5
.o 0 1 i
	ItoC
	update_b 1 2
	updatepop_b 0 1
	buildC_b 1
	buildC_b 0
	fillh _Tuple 2 2
	pop_b 2
.d 1 0
	rtn
.o 0 1 i
s5
	push_b 0
	pushI 9
	ltI
	notB
	jmp_false else.24
	pushC '0'
	CtoI
	push_b 1
	update_b 1 2
	updatepop_b 0 1
	addI
.d 0 1 i
	rtn
else.24
	pushC 'A'
	CtoI
	push_b 1
	addI
	pushI 10
	push_b 1
	update_b 1 2
	update_b 0 1
	pop_b 1
	update_b 1 2
	updatepop_b 0 1
	subI
.d 0 1 i
	rtn
.o 3 1 c
s6
	eqC_b ' ' 0
	jmp_true case.25
	jmp case.26
case.25
	buildh _Nil 0
	buildC '+'
	fillh _Cons 2 4
	pop_a 2
	pop_b 1
.d 1 0
	rtn
case.26
	buildh _Nil 0
	push_a 2
	buildh _Cons 2
	push_a 1
	buildh _Cons 2
	buildC '%'
	fillh _Cons 2 4
	pop_a 2
	pop_b 1
.d 1 0
	rtn
