.comp 920 000011110011000
.start _nostart_
.depend "iTasks.Internal.TaskIO" "20210430140248"
.depend "iTasks.Internal.WebService" "20210430140248"
.depend "iTasks.Internal.SDSService" "20210430140248"
.depend "iTasks.Internal.Serialization" "20210430140248"
.depend "_SystemEnum" "20210430140248"
.depend "StdEnum" "20210430140248"
.depend "StdTuple" "20210430140248"
.depend "StdOrdList" "20210430140248"
.depend "Control.Monad.Trans" "20210430140248"
.depend "StdMaybe" "20210430140248"
.depend "Data.Maybe" "20210430140248"
.depend "iTasks.Extensions.Admin.WorkflowAdmin" "20210430140248"
.depend "iTasks.Extensions.User" "20210430140248"
.depend "iTasks.Extensions.Admin.UserAdmin" "20210430140248"
.depend "iTasks.UI.Layout.Common" "20210430140248"
.depend "iTasks.UI.Editor.Modifiers" "20210430140248"
.depend "iTasks.UI.Editor.Containers" "20210430140248"
.depend "iTasks.UI.Tune" "20210430140248"
.depend "iTasks.Internal.Distributed.Domain" "20210430140248"
.depend "iTasks.WF.Combinators.Common" "20210430140248"
.depend "iTasks.WF.Combinators.SDS" "20210430140248"
.depend "iTasks.UI.Editor.Controls" "20210430140248"
.depend "iTasks.WF.Tasks.Interaction" "20210430140248"
.depend "iTasks.WF.Tasks.System" "20210430140248"
.depend "iTasks.WF.Tasks.SDS" "20210430140248"
.depend "iTasks.WF.Tasks.Core" "20210430140248"
.depend "System.Time.GenJSON" "20210430140248"
.depend "Text.HTML.GenJSON" "20210430140248"
.depend "Data.Map.GenJSON" "20210430140248"
.depend "Data.Error.GenJSON" "20210430140248"
.depend "Data.Either.GenJSON" "20210430140248"
.depend "iTasks.WF.Derives" "20210430140248"
.depend "iTasks.SDS.Combinators.Common" "20210430140248"
.depend "iTasks.SDS.Combinators.Core" "20210430140248"
.depend "iTasks.SDS.Sources.System" "20210430140248"
.depend "iTasks.SDS.Sources.Store" "20210430140248"
.depend "iTasks.SDS.Sources.Core" "20210430140248"
.depend "System._Signal" "20210430140248"
.depend "System.Signal" "20210430140248"
.depend "_SystemStrictMaybes" "20210430140248"
.depend "Text.GenPrint" "20210430140248"
.depend "iTasks.Extensions.DateTime" "20210430140248"
.depend "iTasks.Internal.TaskServer" "20210430140248"
.depend "iTasks.Extensions.Document" "20210430140248"
.depend "System.File" "20210430140248"
.depend "iTasks.Util.DeferredJSON" "20210430140248"
.depend "iTasks.Internal.SDS" "20210430140248"
.depend "iTasks.Internal.TaskEval" "20210430140248"
.depend "iTasks.UI.Layout" "20210430140248"
.depend "iTasks.Internal.TaskState" "20210430140248"
.depend "iTasks.WF.Combinators.Core" "20210430140248"
.depend "Data.IntMap.Base" "20210430140248"
.depend "Data.IntMap.Strict" "20210430140248"
.depend "Data.CircularStack" "20210430140248"
.depend "System._Process" "20210430140248"
.depend "System.Process" "20210430140248"
.depend "System.OS" "20210430140248"
.depend "Data.GenHash" "20210430140248"
.depend "Data.Maybe.Ord" "20210430140248"
.depend "Control.GenBimap" "20210430140248"
.depend "ABC.Interpreter.JavaScript" "20210430140248"
.depend "ABC.Interpreter" "20210430140248"
.depend "iTasks.UI.Editor" "20210430140248"
.depend "iTasks.UI.Editor.Generic" "20210430140248"
.depend "iTasks.Internal.Generic.Defaults" "20210430140248"
.depend "Data.GenDefault" "20210430140248"
.depend "Data.Integer" "20210430140248"
.depend "Text.HTML" "20210430140248"
.depend "iTasks.Internal.Generic.Visualization" "20210430140248"
.depend "iTasks.SDS.Definition" "20210430140248"
.depend "TCPStringChannelsInternal" "20210430140248"
.depend "TCPStringChannels" "20210430140248"
.depend "TCPEvent" "20210430140248"
.depend "tcp_bytestreams" "20210430140248"
.depend "TCPDef" "20210430140248"
.depend "TCPChannels" "20210430140248"
.depend "TCPIP" "20210430140248"
.depend "iTasks.WF.Tasks.IO" "20210430140248"
.depend "iTasks.Internal.Task" "20210430140248"
.depend "iTasks.UI.Definition" "20210430140248"
.depend "Text.GenJSON" "20210430140248"
.depend "Data.Bifunctor" "20210430140248"
.depend "Data.Either" "20210430140248"
.depend "Data.Queue" "20210430140248"
.depend "StdFile" "20210430140248"
.depend "symbols_in_program" "20210430140248"
.depend "iTasks.Internal.IWorld" "20210430140248"
.depend "iTasks.WF.Definition" "20210430140248"
.depend "tcp" "20210430140248"
.depend "TCPChannelClass" "20210430140248"
.depend "System._Time" "20210430140248"
.depend "System.Time" "20210430140248"
.depend "System.GetOpt" "20210430140248"
.depend "System.OSError" "20210430140248"
.depend "System.FilePath" "20210430140248"
.depend "StdString" "20210430140248"
.depend "Internet.HTTP" "20210430140248"
.depend "Control.Monad.Fail" "20210430140248"
.depend "Data.Traversable" "20210430140248"
.depend "StdMisc" "20210430140248"
.depend "StdOverloadedList" "20210430140248"
.depend "Data.List" "20210430140248"
.depend "Data.Foldable" "20210430140248"
.depend "Data.Set" "20210430140248"
.depend "Data.GenLexOrd" "20210430140248"
.depend "StdFunctions" "20210430140248"
.depend "StdFunc" "20210430140248"
.depend "Data.Map" "20210430140248"
.depend "_SystemEnumStrict" "20210430140248"
.depend "_SystemStrictLists" "20210430140248"
.depend "StdStrictLists" "20210430140248"
.depend "StdGeneric" "20210430140248"
.depend "Data.GenEq" "20210430140248"
.depend "StdReal" "20210430140248"
.depend "StdChar" "20210430140248"
.depend "StdInt" "20210430140248"
.depend "StdBool" "20210430140248"
.depend "StdClass" "20210430140248"
.depend "StdList" "20210430140248"
.depend "Data.Monoid" "20210430140248"
.depend "Control.Applicative" "20210430140248"
.depend "Control.Monad" "20210430140248"
.depend "Data.Functor" "20210430140248"
.depend "Data.Error" "20210430140248"
.depend "iTasks.Engine" "20210430140248"
.depend "iTasks" "20210430140248"
.depend "StdOverloaded" "20210430140248"
.depend "_SystemDynamic" "20210430140248"
.depend "BasicAPIExamples.MultiUserExamples.Chat" "20210430140249"
.module m_BasicAPIExamples.MultiUserExamples.Chat "BasicAPIExamples.MultiUserExamples.Chat" "20210430140249"
.endinfo
.impmod _system
.implab _cycle_in_spine
.implab _type_error
.implab _hnf
.impdesc e_system_dind
.implab e_system_nind e_system_eaind
.impdesc e_system_dif
.implab e_system_nif e_system_eaif
.implab e_system_sif
.impdesc e_system_dAP
.implab e_system_nAP e_system_eaAP
.implab e_system_sAP
.impdesc ARRAY
.impdesc _Nil
.impdesc _Cons
.impdesc _Conss
.implab n_Conss ea_Conss
.impdesc _Consts
.implab n_Consts ea_Consts
.impdesc _Conssts
.implab n_Conssts ea_Conssts
.impdesc _Tuple
.impdesc d_S.1
.implab n_S.1 ea_S.1
.impdesc d_S.2
.implab n_S.2 ea_S.2
.impdesc d_S.3
.implab n_S.3 ea_S.3
.impdesc d_S.4
.implab n_S.4 ea_S.4
.impdesc d_S.5
.implab n_S.5 ea_S.5
.impdesc d_S.6
.implab n_S.6 ea_S.6
.implab _driver
.impmod iTasks.Extensions.Admin.WorkflowAdmin
.implab e_iTasks.Extensions.Admin.WorkflowAdmin_sworkflow
.impdesc e_iTasks.Extensions.Admin.WorkflowAdmin_dtoWorkflow;13
.impmod iTasks.Extensions.User
.implab e_iTasks.Extensions.User_scurrentUser
.implab e_iTasks.Extensions.User_s@:
.implab e_iTasks.Extensions.User_stoString;14
.impdesc e_iTasks.Extensions.User_dtoTitle;20
.impdesc e_iTasks.Extensions.User_dtoUserConstraint;21
.impdesc e_iTasks.Extensions.User_dtoTitle;24
.impdesc e_iTasks.Extensions.User_dtoUserConstraint;25
.impdesc e_iTasks.Extensions.User_dJSONEncode_User;32
.impdesc e_iTasks.Extensions.User_dJSONDecode_User;36
.impdesc e_iTasks.Extensions.User_dgEq_User;44
.impdesc e_iTasks.Extensions.User_dgText_User;48
.impdesc e_iTasks.Extensions.User_dgEditor_User;52
.impdesc e_iTasks.Extensions.User_dTD;User
.impmod iTasks.Extensions.Admin.UserAdmin
.implab e_iTasks.Extensions.Admin.UserAdmin_susers
.impmod iTasks.UI.Tune
.implab e_iTasks.UI.Tune_s@>>
.impdesc e_iTasks.UI.Tune_dtune;7
.impmod iTasks.WF.Combinators.Common
.impdesc e_iTasks.WF.Combinators.Common_d>>*
.implab e_iTasks.WF.Combinators.Common_n>>* e_iTasks.WF.Combinators.Common_ea>>*
.implab e_iTasks.WF.Combinators.Common_s>?|
.implab e_iTasks.WF.Combinators.Common_s>>!
.implab e_iTasks.WF.Combinators.Common_s>>-
.implab e_iTasks.WF.Combinators.Common_s@!
.implab e_iTasks.WF.Combinators.Common_s||-
.implab e_iTasks.WF.Combinators.Common_sallTasks
.impdesc e_iTasks.WF.Combinators.Common_dalways
.impdesc e_iTasks.WF.Combinators.Common_dhasValue
.impmod iTasks.WF.Combinators.SDS
.implab e_iTasks.WF.Combinators.SDS_swithShared
.impmod iTasks.WF.Tasks.Interaction
.implab e_iTasks.WF.Tasks.Interaction_senterInformation
.implab e_iTasks.WF.Tasks.Interaction_sviewSharedInformation
.implab e_iTasks.WF.Tasks.Interaction_senterMultipleChoiceWithShared
.impmod iTasks.WF.Tasks.SDS
.implab e_iTasks.WF.Tasks.SDS_sget
.implab e_iTasks.WF.Tasks.SDS_supd
.impmod iTasks.WF.Tasks.Core
.impdesc e_iTasks.WF.Tasks.Core_dreturn
.implab e_iTasks.WF.Tasks.Core_sreturn
.implab e_iTasks.WF.Tasks.Core_nreturn e_iTasks.WF.Tasks.Core_eareturn
.impmod iTasks.Internal.SDS
.impdesc e_iTasks.Internal.SDS_dsdsIdentity;17
.impdesc e_iTasks.Internal.SDS_dreadSDS;18
.impdesc e_iTasks.Internal.SDS_dwriteSDS;19
.impdesc e_iTasks.Internal.SDS_dmodifySDS;20
.impdesc e_iTasks.Internal.SDS_dreadRegisterSDS;21
.impmod iTasks.UI.Editor.Generic
.impdesc e_iTasks.UI.Editor.Generic_dgEditor__String;11
.implab e_iTasks.UI.Editor.Generic_sgEditor__List;12
.impdesc e_iTasks.UI.Editor.Generic_dgEditor__Unit;13
.impmod iTasks.Internal.Generic.Visualization
.impdesc e_iTasks.Internal.Generic.Visualization_dgText__String;16
.implab e_iTasks.Internal.Generic.Visualization_sgText__List;17
.impdesc e_iTasks.Internal.Generic.Visualization_dgText__Unit;18
.impmod Text.GenJSON
.impdesc e_Text.GenJSON_dJSONEncode__String;16
.implab e_Text.GenJSON_sJSONEncode__List;17
.impdesc e_Text.GenJSON_dJSONEncode__Unit;23
.impdesc e_Text.GenJSON_dJSONDecode__String;46
.implab e_Text.GenJSON_sJSONDecode__List;47
.impdesc e_Text.GenJSON_dJSONDecode__Unit;53
.impmod StdString
.impdesc e_StdString_dtoString;9
.implab e_StdString_s+++;11
.impmod StdFunctions
.impdesc e_StdFunctions_did
.impmod Data.GenEq
.impdesc e_Data.GenEq_dgEq__String;11
.implab e_Data.GenEq_sgEq__List;14
.impdesc e_Data.GenEq_dgEq__Unit;20
.impmod StdList
.implab e_StdList_s++
.impmod _SystemDynamic
.implab e__SystemDynamic_s_initial_unification_environment
.implab e__SystemDynamic_s_bind_global_type_pattern_var
.implab e__SystemDynamic_s_normalise
.impmod iTasks.Extensions.Admin.WorkflowAdmin
.impdesc e_iTasks.Extensions.Admin.WorkflowAdmin_rtoWorkflow;
.impmod iTasks.Extensions.User
.impdesc e_iTasks.Extensions.User_rtoUserConstraint;
.impmod iTasks.UI.Tune
.impdesc e_iTasks.UI.Tune_rtune;
.impmod iTasks.WF.Tasks.Interaction
.impdesc e_iTasks.WF.Tasks.Interaction_kChooseFromCheckGroup
.impmod iTasks.WF.Combinators.Core
.impdesc e_iTasks.WF.Combinators.Core_kAction
.impdesc e_iTasks.WF.Combinators.Core_dOnAction
.impmod iTasks.SDS.Definition
.impdesc e_iTasks.SDS.Definition_rIdentifiable;
.impdesc e_iTasks.SDS.Definition_rReadable;
.impdesc e_iTasks.SDS.Definition_rRegistrable;
.impdesc e_iTasks.SDS.Definition_rWriteable;
.impdesc e_iTasks.SDS.Definition_rModifiable;
.impdesc e_iTasks.SDS.Definition_rRWShared;
.impmod iTasks.UI.Definition
.impdesc e_iTasks.UI.Definition_kHint
.impmod iTasks.WF.Definition
.impdesc e_iTasks.WF.Definition_riTask;
.impmod StdOverloaded
.impdesc e_StdOverloaded_rtoString;
.impmod _SystemDynamic
.impdesc e__SystemDynamic_kTypeVar
.impdesc e__SystemDynamic_kTypeCons
.impdesc e__SystemDynamic_kTypeApp
.impdesc e__SystemDynamic_rTypeCodeConstructor
.impdesc e__SystemDynamic_dTC_Char
.impdesc e__SystemDynamic_dTC__List
.impdesc e__SystemDynamic_dTC__UnboxedArray
.impdesc e__SystemDynamic_dTC__Unit
.export e_BasicAPIExamples.MultiUserExamples.Chat_rgEditor_s;
.record e_BasicAPIExamples.MultiUserExamples.Chat_rgEditor_s; a 1 0 "gEditor_s;"
.export e_BasicAPIExamples.MultiUserExamples.Chat_tgEditor_s;
.export e_BasicAPIExamples.MultiUserExamples.Chat_cgEditor_s;
.descn e_BasicAPIExamples.MultiUserExamples.Chat_tgEditor_s; e_BasicAPIExamples.MultiUserExamples.Chat_cgEditor_s; 1 1 "gEditor_s;"
.n 1 e_BasicAPIExamples.MultiUserExamples.Chat_tgEditor_s;
.o 1 0
e_BasicAPIExamples.MultiUserExamples.Chat_cgEditor_s;
	push_node _cycle_in_spine 1
	jsr_eval 0
.impmod BasicAPIExamples.MultiUserExamples.Chat
.impdesc e_BasicAPIExamples.MultiUserExamples.Chat_rgEditor_s;
	fill_r e_BasicAPIExamples.MultiUserExamples.Chat_rgEditor_s; 1 0 1 0 0
	pop_a 1
.d 1 0
	rtn
.export e_BasicAPIExamples.MultiUserExamples.Chat_rgText_s;
.record e_BasicAPIExamples.MultiUserExamples.Chat_rgText_s; a 1 0 "gText_s;"
.export e_BasicAPIExamples.MultiUserExamples.Chat_tgText_s;
.export e_BasicAPIExamples.MultiUserExamples.Chat_cgText_s;
.descn e_BasicAPIExamples.MultiUserExamples.Chat_tgText_s; e_BasicAPIExamples.MultiUserExamples.Chat_cgText_s; 1 1 "gText_s;"
.n 1 e_BasicAPIExamples.MultiUserExamples.Chat_tgText_s;
.o 1 0
e_BasicAPIExamples.MultiUserExamples.Chat_cgText_s;
	push_node _cycle_in_spine 1
	jsr_eval 0
.impdesc e_BasicAPIExamples.MultiUserExamples.Chat_rgText_s;
	fill_r e_BasicAPIExamples.MultiUserExamples.Chat_rgText_s; 1 0 1 0 0
	pop_a 1
.d 1 0
	rtn
.export e_BasicAPIExamples.MultiUserExamples.Chat_rJSONEncode_s;
.record e_BasicAPIExamples.MultiUserExamples.Chat_rJSONEncode_s; a 1 0 "JSONEncode_s;"
.export e_BasicAPIExamples.MultiUserExamples.Chat_tJSONEncode_s;
.export e_BasicAPIExamples.MultiUserExamples.Chat_cJSONEncode_s;
.descn e_BasicAPIExamples.MultiUserExamples.Chat_tJSONEncode_s; e_BasicAPIExamples.MultiUserExamples.Chat_cJSONEncode_s; 1 1 "JSONEncode_s;"
.n 1 e_BasicAPIExamples.MultiUserExamples.Chat_tJSONEncode_s;
.o 1 0
e_BasicAPIExamples.MultiUserExamples.Chat_cJSONEncode_s;
	push_node _cycle_in_spine 1
	jsr_eval 0
.impdesc e_BasicAPIExamples.MultiUserExamples.Chat_rJSONEncode_s;
	fill_r e_BasicAPIExamples.MultiUserExamples.Chat_rJSONEncode_s; 1 0 1 0 0
	pop_a 1
.d 1 0
	rtn
.export e_BasicAPIExamples.MultiUserExamples.Chat_rJSONDecode_s;
.record e_BasicAPIExamples.MultiUserExamples.Chat_rJSONDecode_s; a 1 0 "JSONDecode_s;"
.export e_BasicAPIExamples.MultiUserExamples.Chat_tJSONDecode_s;
.export e_BasicAPIExamples.MultiUserExamples.Chat_cJSONDecode_s;
.descn e_BasicAPIExamples.MultiUserExamples.Chat_tJSONDecode_s; e_BasicAPIExamples.MultiUserExamples.Chat_cJSONDecode_s; 1 1 "JSONDecode_s;"
.n 1 e_BasicAPIExamples.MultiUserExamples.Chat_tJSONDecode_s;
.o 1 0
e_BasicAPIExamples.MultiUserExamples.Chat_cJSONDecode_s;
	push_node _cycle_in_spine 1
	jsr_eval 0
.impdesc e_BasicAPIExamples.MultiUserExamples.Chat_rJSONDecode_s;
	fill_r e_BasicAPIExamples.MultiUserExamples.Chat_rJSONDecode_s; 1 0 1 0 0
	pop_a 1
.d 1 0
	rtn
.export e_BasicAPIExamples.MultiUserExamples.Chat_rgEq_s;
.record e_BasicAPIExamples.MultiUserExamples.Chat_rgEq_s; a 1 0 "gEq_s;"
.export e_BasicAPIExamples.MultiUserExamples.Chat_tgEq_s;
.export e_BasicAPIExamples.MultiUserExamples.Chat_cgEq_s;
.descn e_BasicAPIExamples.MultiUserExamples.Chat_tgEq_s; e_BasicAPIExamples.MultiUserExamples.Chat_cgEq_s; 1 1 "gEq_s;"
.n 1 e_BasicAPIExamples.MultiUserExamples.Chat_tgEq_s;
.o 1 0
e_BasicAPIExamples.MultiUserExamples.Chat_cgEq_s;
	push_node _cycle_in_spine 1
	jsr_eval 0
.impdesc e_BasicAPIExamples.MultiUserExamples.Chat_rgEq_s;
	fill_r e_BasicAPIExamples.MultiUserExamples.Chat_rgEq_s; 1 0 1 0 0
	pop_a 1
.d 1 0
	rtn
.export e_BasicAPIExamples.MultiUserExamples.Chat_smain
.export e_BasicAPIExamples.MultiUserExamples.Chat_eamain
.descexp e_BasicAPIExamples.MultiUserExamples.Chat_dmain e_BasicAPIExamples.MultiUserExamples.Chat_nmain e_BasicAPIExamples.MultiUserExamples.Chat_lmain 0 0 "main"
.o 1 0
e_BasicAPIExamples.MultiUserExamples.Chat_lmain
	halt
.n 0 e_BasicAPIExamples.MultiUserExamples.Chat_dmain e_BasicAPIExamples.MultiUserExamples.Chat_eamain
.o 1 0
e_BasicAPIExamples.MultiUserExamples.Chat_nmain
	push_node _cycle_in_spine 0
.o 1 0
e_BasicAPIExamples.MultiUserExamples.Chat_eamain
.o 1 0
e_BasicAPIExamples.MultiUserExamples.Chat_smain
.o 1 0
s2
	buildh e__predef_d_Unit 0
	create
.d 1 0
	jsr s5
.o 1 0
.d 3 0
	jmp e_iTasks.WF.Combinators.Common_s@!
.export e_BasicAPIExamples.MultiUserExamples.Chat_swf
.descexp e_BasicAPIExamples.MultiUserExamples.Chat_dwf e_BasicAPIExamples.MultiUserExamples.Chat_nwf e_BasicAPIExamples.MultiUserExamples.Chat_lwf 1 0 "wf"
.o 2 0
e_BasicAPIExamples.MultiUserExamples.Chat_lwf
	pop_a 1
.d 1 0
	jsr ea1
.o 6 0
.impmod iTasks.Extensions.Admin.WorkflowAdmin
.impdesc e_iTasks.Extensions.Admin.WorkflowAdmin_rWorkflow
	buildhr e_iTasks.Extensions.Admin.WorkflowAdmin_rWorkflow 6 0
.d 1 0
	rtn
.n 1 e_BasicAPIExamples.MultiUserExamples.Chat_dwf
.o 1 0
e_BasicAPIExamples.MultiUserExamples.Chat_nwf
	push_node _cycle_in_spine 1
.d 1 0
	jsr ea1
.o 6 0
	fill_r e_iTasks.Extensions.Admin.WorkflowAdmin_rWorkflow 6 0 6 0 0
	pop_a 6
.d 1 0
	rtn
.o 1 0
ea1
.o 1 0
e_BasicAPIExamples.MultiUserExamples.Chat_swf
.o 1 0
s1
	build e_BasicAPIExamples.MultiUserExamples.Chat_dmyExample.5 0 e_BasicAPIExamples.MultiUserExamples.Chat_nmyExample.5
	buildh e__SystemDynamic_dTC_Char 0
	buildhr e__SystemDynamic_kTypeCons 1 0
	buildh e__SystemDynamic_dTC__UnboxedArray 0
	buildhr e__SystemDynamic_kTypeCons 1 0
	buildhr e__SystemDynamic_kTypeApp 2 0
	buildh e__SystemDynamic_dTC__List 0
	buildhr e__SystemDynamic_kTypeCons 1 0
	buildhr e__SystemDynamic_kTypeApp 2 0
	buildh e_BasicAPIExamples.MultiUserExamples.Chat_dgEq_s;576.49 0
	buildh e_BasicAPIExamples.MultiUserExamples.Chat_dJSONDecode_s;575.48 0
	buildh e_BasicAPIExamples.MultiUserExamples.Chat_dJSONEncode_s;574.47 0
	buildh e_BasicAPIExamples.MultiUserExamples.Chat_dgText_s;573.46 0
	buildh e_BasicAPIExamples.MultiUserExamples.Chat_dgEditor_s;583.56 0
	buildhr e_iTasks.WF.Definition_riTask; 6 0
	buildh e_iTasks.Extensions.Admin.WorkflowAdmin_dtoWorkflow;13 1
	buildAC "Chat with other users"
	buildh ARRAY 1
	push_a 3
	push_a 2
	update_a 2 3
	update_a 1 2
	update_a 0 1
	pop_a 1
	update_a 3 4
	update_a 2 3
	update_a 1 2
	updatepop_a 0 1
.d 4 0
	jmp e_iTasks.Extensions.Admin.WorkflowAdmin_sworkflow
.export e_BasicAPIExamples.MultiUserExamples.Chat_dmyExample.5
.export e_BasicAPIExamples.MultiUserExamples.Chat_nmyExample.5
.descn e_BasicAPIExamples.MultiUserExamples.Chat_dmyExample.5 e_BasicAPIExamples.MultiUserExamples.Chat_nmyExample.5 0 0 "myExample.5"
.n 0 e_BasicAPIExamples.MultiUserExamples.Chat_dmyExample.5 ea5
.o 1 0
e_BasicAPIExamples.MultiUserExamples.Chat_nmyExample.5
	push_node _cycle_in_spine 0
.o 1 0
ea5
.o 1 0
s5
	buildh e_BasicAPIExamples.MultiUserExamples.Chat_dupdate;11.12 0
	build e_BasicAPIExamples.MultiUserExamples.Chat_denter;10.11 0 e_BasicAPIExamples.MultiUserExamples.Chat_nenter;10.11
.d 3 0
	jmp s42
.o 3 0
s42
	push_a 1
	push_a 1
	buildh e_BasicAPIExamples.MultiUserExamples.Chat_d\;43;9;570.43 2
	create
	buildh _Nil 0
	update_a 0 3
	update_a 0 4
	pop_a 1
.d 1 0
	jsr e_iTasks.Extensions.User_scurrentUser
.o 1 0
	buildh e_iTasks.Extensions.User_dTD;User 0
	buildhr e__SystemDynamic_kTypeCons 1 0
	buildh e_iTasks.Internal.SDS_dsdsIdentity;17 0
	buildh e_iTasks.Internal.SDS_dreadSDS;18 0
	buildh e_iTasks.Extensions.User_dTD;User 0
	buildhr e__SystemDynamic_kTypeCons 1 0
	create
	push_a 5
	update_a 1 6
	update_a 2 1
	update_a 3 2
	update_a 4 3
	update_a 5 4
	update_a 0 5
	pop_a 1
.d 6 0
	jsr e_iTasks.WF.Tasks.SDS_sget
.o 1 0
	buildh e_iTasks.Extensions.User_dJSONEncode_User;32 0
	buildh e_iTasks.Extensions.User_dTD;User 0
	buildhr e__SystemDynamic_kTypeCons 1 0
	update_a 3 5
	update_a 2 4
	update_a 1 3
	updatepop_a 0 2
.d 5 0
	jmp e_iTasks.WF.Combinators.Common_s>>-
.export e_BasicAPIExamples.MultiUserExamples.Chat_d\;43;9;570.43
.desc e_BasicAPIExamples.MultiUserExamples.Chat_d\;43;9;570.43 _hnf l43 3 0 "\;43;9;570.43"
.a 3 ea43
.o 2 0
l43
	push_args 0 2 2
	update_a 3 2
	create
	update_a 0 4
	pop_a 1
.o 4 0
ea43
.o 4 0
s43
	push_a 2
	push_a 2
	push_a 2
	buildh e_BasicAPIExamples.MultiUserExamples.Chat_d\;44;9;571.44 3
	create
	buildh _Nil 0
	update_a 0 3
	update_a 0 4
	update_a 0 5
	pop_a 1
.d 1 0
	jsr e_iTasks.Extensions.Admin.UserAdmin_susers
.o 1 0
	buildh _Nil 0
	buildh e_StdFunctions_did 0
	buildh e_iTasks.Extensions.User_dTD;User 0
	buildhr e__SystemDynamic_kTypeCons 1 0
	buildh e_iTasks.Extensions.User_dgEq_User;44 0
	buildh e_iTasks.Extensions.User_dJSONDecode_User;36 0
	buildh e_iTasks.Extensions.User_dJSONEncode_User;32 0
	buildh e_iTasks.Extensions.User_dgText_User;48 0
	buildh e_iTasks.Extensions.User_dgEditor_User;52 0
	buildhr e_iTasks.WF.Definition_riTask; 6 0
	buildhr e_iTasks.WF.Tasks.Interaction_kChooseFromCheckGroup 2 0
	buildh _Cons 2
	buildh e_iTasks.Internal.SDS_dsdsIdentity;17 0
	buildh e_iTasks.Internal.SDS_dreadSDS;18 0
	buildhr e_iTasks.SDS.Definition_rReadable; 2 0
	buildh e_iTasks.Internal.SDS_dreadRegisterSDS;21 0
	buildhr e_iTasks.SDS.Definition_rRegistrable; 2 0
	buildh e_iTasks.Internal.SDS_dsdsIdentity;17 0
	buildh e_iTasks.Internal.SDS_dwriteSDS;19 0
	buildhr e_iTasks.SDS.Definition_rWriteable; 2 0
	buildh e_iTasks.Internal.SDS_dsdsIdentity;17 0
	buildh e_iTasks.Internal.SDS_dreadSDS;18 0
	buildhr e_iTasks.SDS.Definition_rReadable; 2 0
	buildh e_iTasks.Internal.SDS_dmodifySDS;20 0
	buildhr e_iTasks.SDS.Definition_rModifiable; 3 0
	buildh e__SystemDynamic_dTC__Unit 0
	buildhr e__SystemDynamic_kTypeCons 1 0
	buildh e_iTasks.Extensions.User_dTD;User 0
	buildhr e__SystemDynamic_kTypeCons 1 0
	buildh e_iTasks.Extensions.User_dgEq_User;44 0
	buildh e_iTasks.Extensions.User_dJSONDecode_User;36 0
	buildh e_iTasks.Extensions.User_dJSONEncode_User;32 0
	buildh e_iTasks.Extensions.User_dgText_User;48 0
	buildh e_iTasks.Extensions.User_dgEditor_User;52 0
	create
	push_a 11
	update_a 1 12
	update_a 2 1
	update_a 3 2
	update_a 4 3
	update_a 5 4
	update_a 6 5
	update_a 7 6
	update_a 8 7
	update_a 9 8
	update_a 10 9
	update_a 11 10
	update_a 0 11
	pop_a 1
.d 12 0
	jsr e_iTasks.WF.Tasks.Interaction_senterMultipleChoiceWithShared
.o 1 0
	buildAC "select chatters"
	buildhr e_iTasks.UI.Definition_kHint 1 0
	buildh e_iTasks.UI.Tune_dtune;7 0
.d 3 0
	jsr e_iTasks.UI.Tune_s@>>
.o 1 0
	buildh e_BasicAPIExamples.MultiUserExamples.Chat_dJSONEncode_s;562.35 0
	buildh e_iTasks.Extensions.User_dTD;User 0
	buildhr e__SystemDynamic_kTypeCons 1 0
	buildh e__SystemDynamic_dTC__List 0
	buildhr e__SystemDynamic_kTypeCons 1 0
	buildhr e__SystemDynamic_kTypeApp 2 0
	update_a 3 6
	update_a 2 5
	update_a 1 4
	updatepop_a 0 3
.d 5 0
	jmp e_iTasks.WF.Combinators.Common_s>>!
.export e_BasicAPIExamples.MultiUserExamples.Chat_d\;44;9;571.44
.desc e_BasicAPIExamples.MultiUserExamples.Chat_d\;44;9;571.44 _hnf l44 4 0 "\;44;9;571.44"
.a 4 ea44
.o 2 0
l44
	push_args 0 3 3
	update_a 4 3
	create
	update_a 0 5
	pop_a 1
.o 5 0
ea44
.o 5 0
s44
	create
	pushI 0
	pushI 2
.d 1 2 ii
	jsr e__SystemDynamic_s_initial_unification_environment
.o 1 0
	buildh e__SystemDynamic_dTC_Char 0
	buildhr e__SystemDynamic_kTypeCons 1 0
	buildh e__SystemDynamic_dTC__UnboxedArray 0
	buildhr e__SystemDynamic_kTypeCons 1 0
	buildhr e__SystemDynamic_kTypeApp 2 0
	pushI 1
	buildhr e__SystemDynamic_kTypeVar 0 1
	create
	push_a 3
	update_a 1 4
	update_a 2 1
	update_a 3 2
	update_a 0 3
	pop_a 1
.d 4 0
	jsr e__SystemDynamic_s_bind_global_type_pattern_var
.o 1 0
	buildh e__SystemDynamic_dTC_Char 0
	buildhr e__SystemDynamic_kTypeCons 1 0
	buildh e__SystemDynamic_dTC__UnboxedArray 0
	buildhr e__SystemDynamic_kTypeCons 1 0
	buildhr e__SystemDynamic_kTypeApp 2 0
	pushI 0
	buildhr e__SystemDynamic_kTypeVar 0 1
	create
	push_a 3
	update_a 1 4
	update_a 2 1
	update_a 3 2
	update_a 0 3
	pop_a 1
.d 4 0
	jsr e__SystemDynamic_s_bind_global_type_pattern_var
.o 1 0
	push_a 4
	push_a 4
	buildh _Cons 2
	push_a 3
	push_a 3
	buildh e_BasicAPIExamples.MultiUserExamples.Chat_dstartChats;577.50 3
	buildh _Nil 0
	pushI 1
	buildhr e__SystemDynamic_kTypeVar 0 1
	buildh e__SystemDynamic_dTC__List 0
	buildhr e__SystemDynamic_kTypeCons 1 0
	buildhr e__SystemDynamic_kTypeApp 2 0
	create
	push_a 4
	push_a 2
	update_a 2 3
	update_a 0 2
	pop_a 1
	buildh _Nil 0
	update_a 0 7
	update_a 0 8
	update_a 0 9
	update_a 0 10
	pop_a 1
.d 3 0
	jsr e__SystemDynamic_s_normalise
.o 1 0
	buildh e_BasicAPIExamples.MultiUserExamples.Chat_dgEq_s;576.49 0
	buildh e_BasicAPIExamples.MultiUserExamples.Chat_dJSONDecode_s;575.48 0
	buildh e_BasicAPIExamples.MultiUserExamples.Chat_dJSONEncode_s;574.47 0
	buildh e_BasicAPIExamples.MultiUserExamples.Chat_dgText_s;573.46 0
	buildh e_BasicAPIExamples.MultiUserExamples.Chat_dgEditor_s;583.56 0
	pushI 0
	buildhr e__SystemDynamic_kTypeVar 0 1
	buildh e__SystemDynamic_dTC__List 0
	buildhr e__SystemDynamic_kTypeCons 1 0
	buildhr e__SystemDynamic_kTypeApp 2 0
	create
	push_a 10
	push_a 2
	update_a 2 3
	update_a 0 2
	pop_a 1
	buildh _Nil 0
	update_a 0 12
	pop_a 1
.d 3 0
	jsr e__SystemDynamic_s_normalise
.o 1 0
	buildh e_BasicAPIExamples.MultiUserExamples.Chat_dgEq_s;576.49 0
	buildh e_BasicAPIExamples.MultiUserExamples.Chat_dJSONDecode_s;575.48 0
	buildh e_BasicAPIExamples.MultiUserExamples.Chat_dJSONEncode_s;574.47 0
	buildh e_BasicAPIExamples.MultiUserExamples.Chat_dgText_s;573.46 0
	buildh e_BasicAPIExamples.MultiUserExamples.Chat_dgEditor_s;583.56 0
	update_a 13 18
	update_a 12 17
	update_a 11 16
	update_a 10 15
	update_a 9 14
	update_a 8 13
	update_a 7 12
	update_a 6 11
	update_a 5 10
	update_a 4 9
	update_a 3 8
	update_a 2 7
	update_a 1 6
	updatepop_a 0 5
.d 15 0
	jmp e_iTasks.WF.Combinators.SDS_swithShared
.export e_BasicAPIExamples.MultiUserExamples.Chat_dstartChats;577.50
.desc e_BasicAPIExamples.MultiUserExamples.Chat_dstartChats;577.50 _hnf l50 4 0 "startChats;577.50"
.a 4 ea50
.o 2 0
l50
	push_args 0 3 3
	update_a 4 3
	create
	update_a 0 5
	pop_a 1
.o 5 0
ea50
	jsr_eval 3
.o 5 0
s50
	create
	pushI 0
	pushI 2
.d 1 2 ii
	jsr e__SystemDynamic_s_initial_unification_environment
.o 1 0
	buildh e__SystemDynamic_dTC_Char 0
	buildhr e__SystemDynamic_kTypeCons 1 0
	buildh e__SystemDynamic_dTC__UnboxedArray 0
	buildhr e__SystemDynamic_kTypeCons 1 0
	buildhr e__SystemDynamic_kTypeApp 2 0
	pushI 1
	buildhr e__SystemDynamic_kTypeVar 0 1
	create
	push_a 3
	update_a 1 4
	update_a 2 1
	update_a 3 2
	update_a 0 3
	pop_a 1
.d 4 0
	jsr e__SystemDynamic_s_bind_global_type_pattern_var
.o 1 0
	buildh e__SystemDynamic_dTC_Char 0
	buildhr e__SystemDynamic_kTypeCons 1 0
	buildh e__SystemDynamic_dTC__UnboxedArray 0
	buildhr e__SystemDynamic_kTypeCons 1 0
	buildhr e__SystemDynamic_kTypeApp 2 0
	pushI 0
	buildhr e__SystemDynamic_kTypeVar 0 1
	create
	push_a 3
	update_a 1 4
	update_a 2 1
	update_a 3 2
	update_a 0 3
	pop_a 1
.d 4 0
	jsr e__SystemDynamic_s_bind_global_type_pattern_var
.o 1 0
	pushI 1
	buildhr e__SystemDynamic_kTypeVar 0 1
	buildh e__SystemDynamic_dTC__List 0
	buildhr e__SystemDynamic_kTypeCons 1 0
	buildhr e__SystemDynamic_kTypeApp 2 0
	create
	push_a 2
	push_a 2
	update_a 2 3
	update_a 0 2
	pop_a 1
.d 3 0
	jsr e__SystemDynamic_s_normalise
.o 1 0
	buildh e_iTasks.Internal.SDS_dsdsIdentity;17 0
	buildh e_iTasks.Internal.SDS_dreadSDS;18 0
	pushI 0
	buildhr e__SystemDynamic_kTypeVar 0 1
	buildh e__SystemDynamic_dTC__List 0
	buildhr e__SystemDynamic_kTypeCons 1 0
	buildhr e__SystemDynamic_kTypeApp 2 0
	create
	push_a 5
	push_a 2
	update_a 2 3
	update_a 0 2
	pop_a 1
	buildh _Nil 0
	update_a 0 7
	pop_a 1
.d 3 0
	jsr e__SystemDynamic_s_normalise
.o 1 0
	create
	push_a 9
	push_a 5
	update_a 2 6
	update_a 4 2
	update_a 0 4
	update_a 5 0
	update_a 1 5
	update_a 3 1
	update_a 0 3
	pop_a 1
	update_a 5 6
	update_a 4 5
	update_a 3 4
	update_a 2 3
	update_a 1 2
	updatepop_a 0 1
.d 6 0
	jsr e_iTasks.WF.Tasks.SDS_sget
.o 1 0
	create
	push_a 4
	push_a 6
	push_a 5
	push_a 5
	buildh _Nil 0
	update_a 0 7
	update_a 0 8
	update_a 0 10
	update_a 0 9
	pop_a 1
.d 5 0
	jsr s51
.o 1 0
	buildh e__SystemDynamic_dTC__Unit 0
	buildhr e__SystemDynamic_kTypeCons 1 0
	buildh e_Data.GenEq_dgEq__Unit;20 0
	buildh e_Text.GenJSON_dJSONDecode__Unit;53 0
	buildh e_Text.GenJSON_dJSONEncode__Unit;23 0
	buildh e_iTasks.Internal.Generic.Visualization_dgText__Unit;18 0
	buildh e_iTasks.UI.Editor.Generic_dgEditor__Unit;13 0
	create
	push_a 7
	update_a 1 8
	update_a 2 1
	update_a 3 2
	update_a 4 3
	update_a 5 4
	update_a 6 5
	update_a 7 6
	update_a 0 7
	pop_a 1
.d 8 0
	jsr e_iTasks.WF.Combinators.Common_sallTasks
.o 1 0
	buildh e_BasicAPIExamples.MultiUserExamples.Chat_dJSONEncode_s;556.29 0
	buildh e__SystemDynamic_dTC__Unit 0
	buildhr e__SystemDynamic_kTypeCons 1 0
	buildh e__SystemDynamic_dTC__List 0
	buildhr e__SystemDynamic_kTypeCons 1 0
	buildhr e__SystemDynamic_kTypeApp 2 0
	update_a 3 7
	update_a 2 6
	update_a 1 5
	updatepop_a 0 4
.d 5 0
	jmp e_iTasks.WF.Combinators.Common_s>?|
.export e_BasicAPIExamples.MultiUserExamples.Chat_dc;48;73;578.51
.export e_BasicAPIExamples.MultiUserExamples.Chat_nc;48;73;578.51
.descn e_BasicAPIExamples.MultiUserExamples.Chat_dc;48;73;578.51 e_BasicAPIExamples.MultiUserExamples.Chat_nc;48;73;578.51 4 0 "c;48;73;578.51"
.n 4 e_BasicAPIExamples.MultiUserExamples.Chat_dc;48;73;578.51 ea51
.o 1 0
e_BasicAPIExamples.MultiUserExamples.Chat_nc;48;73;578.51
	push_node _cycle_in_spine 4
.o 5 0
ea51
	jsr_eval 3
.o 5 0
s51
	push_a 2
	push_a 2
	push_a 2
	push_a 6
	update_a 3 7
	update_a 2 6
	update_a 1 5
	updatepop_a 0 4
.d 5 0
	jmp s64
.o 5 0
s64
	eq_desc _Cons 2 0
	jmp_true case.1
	jmp case.2
case.1
	repl_args 2 2
	buildh e_iTasks.Extensions.User_dtoUserConstraint;21 0
	buildh e_iTasks.Extensions.User_dtoTitle;20 0
	buildhr e_iTasks.Extensions.User_rtoUserConstraint; 2 0
	buildh e_StdString_dtoString;9 0
	buildhr e_StdOverloaded_rtoString; 1 0
	push_a 3
	push_a 7
	push_a 7
	push_a 7
	build e_BasicAPIExamples.MultiUserExamples.Chat_dc;48;73;578.51 4 e_BasicAPIExamples.MultiUserExamples.Chat_nc;48;73;578.51
	push_a 7
	push_a 7
	push_a 7
	push_a 6
	build e_BasicAPIExamples.MultiUserExamples.Chat_dchatWith;579.52 4 e_BasicAPIExamples.MultiUserExamples.Chat_nchatWith;579.52
	buildAC "chat"
	buildh ARRAY 1
	push_a 5
	buildh _Tuple 2
	push_a 3
	push_a 5
	buildh e_iTasks.Extensions.User_dtoUserConstraint;25 2
	push_a 4
	push_a 6
	buildh e_iTasks.Extensions.User_dtoTitle;24 2
	buildh e__SystemDynamic_dTC__Unit 0
	buildhr e__SystemDynamic_kTypeCons 1 0
	build e_BasicAPIExamples.MultiUserExamples.Chat_d_f0.271 5 e_BasicAPIExamples.MultiUserExamples.Chat_n_f0.271
	fillh _Cons 2 9
	pop_a 7
.d 1 0
	rtn
case.2
	fillh _Nil 0 4
	pop_a 4
.d 1 0
	rtn
.export e_BasicAPIExamples.MultiUserExamples.Chat_d_f0.271
.export e_BasicAPIExamples.MultiUserExamples.Chat_n_f0.271
.descn e_BasicAPIExamples.MultiUserExamples.Chat_d_f0.271 e_BasicAPIExamples.MultiUserExamples.Chat_n_f0.271 5 0 "_f0.271"
.n 5 e_BasicAPIExamples.MultiUserExamples.Chat_d_f0.271 ea271
.o 1 0
e_BasicAPIExamples.MultiUserExamples.Chat_n_f0.271
	push_node _cycle_in_spine 5
.o 6 0
ea271
.o 6 0
s271
	push_a 4
	jsr_eval 0
	push_a 3
	push_a 3
	push_a 3
	jsr_eval 0
	buildh e_Data.GenEq_dgEq__Unit;20 0
	buildh e_Text.GenJSON_dJSONDecode__Unit;53 0
	buildh e_Text.GenJSON_dJSONEncode__Unit;23 0
	buildh e_iTasks.Internal.Generic.Visualization_dgText__Unit;18 0
	buildh e_iTasks.UI.Editor.Generic_dgEditor__Unit;13 0
	push_a 12
	push_a 8
	update_a 1 9
	update_a 2 1
	update_a 3 2
	update_a 4 3
	update_a 5 4
	update_a 6 5
	update_a 7 6
	update_a 8 7
	update_a 0 8
	pop_a 1
	update_a 9 14
	update_a 8 13
	update_a 7 12
	update_a 6 11
	update_a 5 10
	update_a 4 9
	update_a 3 8
	update_a 2 7
	update_a 1 6
	updatepop_a 0 5
.d 11 0
	jmp e_iTasks.Extensions.User_s@:
.export e_BasicAPIExamples.MultiUserExamples.Chat_dchatWith;579.52
.export e_BasicAPIExamples.MultiUserExamples.Chat_nchatWith;579.52
.descn e_BasicAPIExamples.MultiUserExamples.Chat_dchatWith;579.52 e_BasicAPIExamples.MultiUserExamples.Chat_nchatWith;579.52 4 0 "chatWith;579.52"
.n 4 e_BasicAPIExamples.MultiUserExamples.Chat_dchatWith;579.52 ea52
.o 1 0
e_BasicAPIExamples.MultiUserExamples.Chat_nchatWith;579.52
	push_node _cycle_in_spine 4
.o 5 0
ea52
	jsr_eval 3
	jsr_eval 1
.o 5 0
s52
	create 4
	create
	pushI 0
	pushI 3
.d 1 2 ii
	jsr e__SystemDynamic_s_initial_unification_environment
.o 1 0
	buildh e__SystemDynamic_dTC_Char 0
	buildhr e__SystemDynamic_kTypeCons 1 0
	buildh e__SystemDynamic_dTC__UnboxedArray 0
	buildhr e__SystemDynamic_kTypeCons 1 0
	buildhr e__SystemDynamic_kTypeApp 2 0
	pushI 2
	buildhr e__SystemDynamic_kTypeVar 0 1
	create
	push_a 3
	update_a 1 4
	update_a 2 1
	update_a 3 2
	update_a 0 3
	pop_a 1
.d 4 0
	jsr e__SystemDynamic_s_bind_global_type_pattern_var
.o 1 0
	buildh e__SystemDynamic_dTC_Char 0
	buildhr e__SystemDynamic_kTypeCons 1 0
	buildh e__SystemDynamic_dTC__UnboxedArray 0
	buildhr e__SystemDynamic_kTypeCons 1 0
	buildhr e__SystemDynamic_kTypeApp 2 0
	pushI 1
	buildhr e__SystemDynamic_kTypeVar 0 1
	create
	push_a 3
	update_a 1 4
	update_a 2 1
	update_a 3 2
	update_a 0 3
	pop_a 1
.d 4 0
	jsr e__SystemDynamic_s_bind_global_type_pattern_var
.o 1 0
	buildh e__SystemDynamic_dTC_Char 0
	buildhr e__SystemDynamic_kTypeCons 1 0
	buildh e__SystemDynamic_dTC__UnboxedArray 0
	buildhr e__SystemDynamic_kTypeCons 1 0
	buildhr e__SystemDynamic_kTypeApp 2 0
	pushI 0
	buildhr e__SystemDynamic_kTypeVar 0 1
	create
	push_a 3
	update_a 1 4
	update_a 2 1
	update_a 3 2
	update_a 0 3
	pop_a 1
.d 4 0
	jsr e__SystemDynamic_s_bind_global_type_pattern_var
.o 1 0
	buildh _Nil 0
	buildh e__predef_d_Unit 0
	build e_iTasks.WF.Tasks.Core_dreturn 1 e_iTasks.WF.Tasks.Core_nreturn
	buildh e_iTasks.WF.Combinators.Common_dalways 1
	buildAC "Quit"
	buildhr e_iTasks.WF.Combinators.Core_kAction 1 0
	buildh e_iTasks.WF.Combinators.Core_dOnAction 2
	buildh _Cons 2
	buildh e__SystemDynamic_dTC_Char 0
	buildhr e__SystemDynamic_kTypeCons 1 0
	buildh e__SystemDynamic_dTC__UnboxedArray 0
	buildhr e__SystemDynamic_kTypeCons 1 0
	buildhr e__SystemDynamic_kTypeApp 2 0
	push_a 3
	push_a 5
	push_a 8
	push_a 10
	push_a 4
	update_a 4 5
	update_a 3 4
	update_a 2 3
	update_a 1 2
	update_a 0 1
	pop_a 1
	buildh e_BasicAPIExamples.MultiUserExamples.Chat_dsend;580.53 5
	buildh e_iTasks.WF.Combinators.Common_dhasValue 1
	buildAC "Send"
	buildhr e_iTasks.WF.Combinators.Core_kAction 1 0
	buildh e_iTasks.WF.Combinators.Core_dOnAction 2
	buildh _Cons 2
	buildh e_Text.GenJSON_dJSONEncode__String;16 0
	buildhr e_BasicAPIExamples.MultiUserExamples.Chat_rJSONEncode_s; 1 0
	buildh e__SystemDynamic_dTC_Char 0
	buildhr e__SystemDynamic_kTypeCons 1 0
	buildh e__SystemDynamic_dTC__UnboxedArray 0
	buildhr e__SystemDynamic_kTypeCons 1 0
	buildhr e__SystemDynamic_kTypeApp 2 0
	push_a 6
	push_a 2
	update_a 1 3
	update_a 2 1
	update_a 0 2
	pop_a 1
	fill e_iTasks.WF.Combinators.Common_d>>* 4 e_iTasks.WF.Combinators.Common_n>>* 5
	jsr_eval 1
	buildh _Nil 0
	buildh e_iTasks.Internal.SDS_dsdsIdentity;17 0
	buildh e_iTasks.Internal.SDS_dreadSDS;18 0
	buildhr e_iTasks.SDS.Definition_rReadable; 2 0
	buildh e_iTasks.Internal.SDS_dreadRegisterSDS;21 0
	buildhr e_iTasks.SDS.Definition_rRegistrable; 2 0
	buildh e_iTasks.Internal.SDS_dsdsIdentity;17 0
	buildh e_iTasks.Internal.SDS_dwriteSDS;19 0
	buildhr e_iTasks.SDS.Definition_rWriteable; 2 0
	buildh e_iTasks.Internal.SDS_dsdsIdentity;17 0
	buildh e_iTasks.Internal.SDS_dreadSDS;18 0
	buildhr e_iTasks.SDS.Definition_rReadable; 2 0
	buildh e_iTasks.Internal.SDS_dmodifySDS;20 0
	buildhr e_iTasks.SDS.Definition_rModifiable; 3 0
	pushI 2
	buildhr e__SystemDynamic_kTypeVar 0 1
	buildh e__SystemDynamic_dTC__List 0
	buildhr e__SystemDynamic_kTypeCons 1 0
	buildhr e__SystemDynamic_kTypeApp 2 0
	create
	push_a 5
	push_a 2
	update_a 2 3
	update_a 0 2
	pop_a 1
	buildh _Nil 0
	update_a 0 10
	update_a 0 11
	update_a 0 9
	pop_a 1
.d 3 0
	jsr e__SystemDynamic_s_normalise
.o 1 0
	pushI 1
	buildhr e__SystemDynamic_kTypeVar 0 1
	buildh e__SystemDynamic_dTC__List 0
	buildhr e__SystemDynamic_kTypeCons 1 0
	buildhr e__SystemDynamic_kTypeApp 2 0
	create
	push_a 6
	push_a 2
	update_a 2 3
	update_a 0 2
	pop_a 1
.d 3 0
	jsr e__SystemDynamic_s_normalise
.o 1 0
	buildh e_BasicAPIExamples.MultiUserExamples.Chat_dgEq_s;576.49 0
	buildh e_BasicAPIExamples.MultiUserExamples.Chat_dJSONDecode_s;575.48 0
	buildh e_BasicAPIExamples.MultiUserExamples.Chat_dJSONEncode_s;574.47 0
	buildh e_BasicAPIExamples.MultiUserExamples.Chat_dgText_s;573.46 0
	buildh e_BasicAPIExamples.MultiUserExamples.Chat_dgEditor_s;583.56 0
	create
	push_a 16
	push_a 11
	update_a 2 12
	update_a 4 2
	update_a 6 4
	update_a 8 6
	update_a 10 8
	update_a 0 10
	update_a 11 0
	update_a 1 11
	update_a 3 1
	update_a 5 3
	update_a 7 5
	update_a 9 7
	update_a 0 9
	pop_a 1
	buildh _Nil 0
	update_a 0 18
	pop_a 1
.d 12 0
	jsr e_iTasks.WF.Tasks.Interaction_sviewSharedInformation
.o 1 0
	buildh e__SystemDynamic_dTC__Unit 0
	buildhr e__SystemDynamic_kTypeCons 1 0
	buildh e_Data.GenEq_dgEq__Unit;20 0
	buildh e_Text.GenJSON_dJSONDecode__Unit;53 0
	buildh e_Text.GenJSON_dJSONEncode__Unit;23 0
	buildh e_iTasks.Internal.Generic.Visualization_dgText__Unit;18 0
	buildh e_iTasks.UI.Editor.Generic_dgEditor__Unit;13 0
	pushI 0
	buildhr e__SystemDynamic_kTypeVar 0 1
	buildh e__SystemDynamic_dTC__List 0
	buildhr e__SystemDynamic_kTypeCons 1 0
	buildhr e__SystemDynamic_kTypeApp 2 0
	create
	push_a 9
	push_a 2
	update_a 2 3
	update_a 0 2
	pop_a 1
	buildh _Nil 0
	update_a 0 11
	pop_a 1
.d 3 0
	jsr e__SystemDynamic_s_normalise
.o 1 0
	buildh e_BasicAPIExamples.MultiUserExamples.Chat_dgEq_s;576.49 0
	buildh e_BasicAPIExamples.MultiUserExamples.Chat_dJSONDecode_s;575.48 0
	buildh e_BasicAPIExamples.MultiUserExamples.Chat_dJSONEncode_s;574.47 0
	buildh e_BasicAPIExamples.MultiUserExamples.Chat_dgText_s;573.46 0
	buildh e_BasicAPIExamples.MultiUserExamples.Chat_dgEditor_s;583.56 0
	create
	push_a 15
	push_a 14
	update_a 2 15
	update_a 4 2
	update_a 6 4
	update_a 8 6
	update_a 10 8
	update_a 12 10
	update_a 14 12
	update_a 1 14
	update_a 3 1
	update_a 5 3
	update_a 7 5
	update_a 9 7
	update_a 11 9
	update_a 13 11
	update_a 0 13
	pop_a 1
	update_a 14 15
	update_a 13 14
	update_a 12 13
	update_a 11 12
	update_a 10 11
	update_a 9 10
	update_a 8 9
	update_a 7 8
	update_a 6 7
	update_a 5 6
	update_a 4 5
	update_a 3 4
	update_a 2 3
	update_a 1 2
	updatepop_a 0 1
.d 15 0
	jsr e_iTasks.WF.Combinators.Common_s||-
.o 1 0
	buildAC "Chat History:"
	buildhr e_iTasks.UI.Definition_kHint 1 0
	buildh e_iTasks.UI.Tune_dtune;7 0
	update_a 2 7
	update_a 1 6
	updatepop_a 0 5
.d 3 0
	jsr e_iTasks.UI.Tune_s@>>
.o 1 0
	fill_a 0 1
	pop_a 1
.d 1 0
	rtn
.export e_BasicAPIExamples.MultiUserExamples.Chat_dgEditor_s;583.56
.desc e_BasicAPIExamples.MultiUserExamples.Chat_dgEditor_s;583.56 _hnf l56 1 0 "gEditor_s;583.56"
.o 2 0
i56
	pop_a 1
.d 1 0
	jmp s56
.ai 1 _ i56
.o 2 0
l56
	pop_a 1
.d 1 0
	jsr ea56
.o 4 0
.impmod iTasks.UI.Editor
.impdesc e_iTasks.UI.Editor_rEditor
	buildhr e_iTasks.UI.Editor_rEditor 4 0
.d 1 0
	rtn
.o 1 0
ea56
	jsr_eval 0
.o 1 0
s56
	buildh e_Data.GenEq_dgEq__String;11 0
	buildh e_iTasks.Internal.Generic.Visualization_dgText__String;16 0
	buildh e_iTasks.UI.Editor.Generic_dgEditor__String;11 0
	push_a 3
	push_a 3
	update_a 1 4
	update_a 2 1
	update_a 3 2
	update_a 0 3
	pop_a 1
	update_a 3 4
	update_a 2 3
	update_a 1 2
	updatepop_a 0 1
.d 4 0
	jmp e_iTasks.UI.Editor.Generic_sgEditor__List;12
.export e_BasicAPIExamples.MultiUserExamples.Chat_dgText_s;573.46
.desc e_BasicAPIExamples.MultiUserExamples.Chat_dgText_s;573.46 _hnf l46 2 0 "gText_s;573.46"
.o 4 0
i46
	pop_a 1
.d 3 0
	jmp s46
.ai 2 ea46 i46
.o 2 0
l46
	push_args 0 1 1
	update_a 2 1
	create
	update_a 0 3
	pop_a 1
.o 3 0
ea46
	jsr_eval 0
.o 3 0
s46
	buildh e_iTasks.Internal.Generic.Visualization_dgText__String;16 0
	push_a 2
	push_a 2
	push_a 2
	update_a 2 3
	update_a 1 2
	update_a 0 1
	pop_a 1
	update_a 2 4
	update_a 1 3
	updatepop_a 0 2
.d 4 0
	jmp e_iTasks.Internal.Generic.Visualization_sgText__List;17
.export e_BasicAPIExamples.MultiUserExamples.Chat_dJSONDecode_s;575.48
.desc e_BasicAPIExamples.MultiUserExamples.Chat_dJSONDecode_s;575.48 _hnf l48 2 0 "JSONDecode_s;575.48"
.o 2 1 b
i48
	pop_a 1
.d 1 1 b
	jmp s48
.ai 0 a48 i48
.o 2 0
l48
	repl_args 1 1
.o 2 0
a48
.d 2 0
	jsr ea48
.o 2 0
	push_a 1
	push_a 1
	buildh _Tuple 2
	updatepop_a 0 2
.d 1 0
	rtn
.o 2 0
ea48
	jsr_eval 1
	jsr_eval 0
	pushB_a 0
	pop_a 1
.o 1 1 b
s48
	buildh e_Text.GenJSON_dJSONDecode__String;46 0
	push_a 1
	push_b 0
	push_a 1
	update_a 1 2
	update_a 0 1
	pop_a 1
	update_a 1 2
	updatepop_a 0 1
	updatepop_b 0 1
.d 2 1 b
	jmp e_Text.GenJSON_sJSONDecode__List;47
.export e_BasicAPIExamples.MultiUserExamples.Chat_dgEq_s;576.49
.desc e_BasicAPIExamples.MultiUserExamples.Chat_dgEq_s;576.49 _hnf l49 2 0 "gEq_s;576.49"
.o 3 0
i49
	pop_a 1
.d 2 0
	jmp s49
.ai 0 a49 i49
.o 2 0
l49
	repl_args 1 1
.o 2 0
a49
.d 2 0
	jsr ea49
.o 0 1 b
	buildB_b 0
	pop_b 1
.d 1 0
	rtn
.o 2 0
ea49
	jsr_eval 1
	jsr_eval 0
.o 2 0
s49
	buildh e_Data.GenEq_dgEq__String;11 0
	push_a 2
	push_a 2
	push_a 2
	update_a 2 3
	update_a 1 2
	update_a 0 1
	pop_a 1
	update_a 2 4
	update_a 1 3
	updatepop_a 0 2
.d 3 0
	jmp e_Data.GenEq_sgEq__List;14
.export e_BasicAPIExamples.MultiUserExamples.Chat_dsend;580.53
.desc e_BasicAPIExamples.MultiUserExamples.Chat_dsend;580.53 _hnf l53 6 0 "send;580.53"
.a 6 ea53
.o 2 0
l53
	push_args 0 5 5
	update_a 6 5
	create
	update_a 0 7
	pop_a 1
.o 7 0
ea53
	jsr_eval 2
.o 7 0
s53
	push_a 4
	push_a 2
	push_a 2
	buildh e_BasicAPIExamples.MultiUserExamples.Chat_d\;64;13;581.54 3
	push_a 6
	push_a 5
	push_a 5
	buildh _Nil 0
	update_a 0 7
	update_a 0 8
	update_a 0 10
	update_a 0 6
	update_a 0 9
	pop_a 1
	jsr_ap 2
	buildh e_Text.GenJSON_dJSONEncode__String;16 0
	push_a 3
	update_a 3 9
	update_a 2 8
	update_a 1 7
	updatepop_a 0 6
.d 5 0
	jmp e_iTasks.WF.Combinators.Common_s>>-
.export e_BasicAPIExamples.MultiUserExamples.Chat_d\;64;13;581.54
.desc e_BasicAPIExamples.MultiUserExamples.Chat_d\;64;13;581.54 _hnf l54 4 0 "\;64;13;581.54"
.a 4 ea54
.o 2 0
l54
	push_args 0 3 3
	update_a 4 3
	create
	update_a 0 5
	pop_a 1
.o 5 0
ea54
	jsr_eval 1
.o 5 0
s54
	create
	pushI 0
	pushI 1
.d 1 2 ii
	jsr e__SystemDynamic_s_initial_unification_environment
.o 1 0
	pushI 0
	buildhr e__SystemDynamic_kTypeVar 0 1
	create
	push_a 3
	push_a 3
	update_a 2 4
	update_a 1 2
	update_a 3 1
	update_a 0 3
	pop_a 1
	update_a 3 4
	update_a 2 3
	update_a 1 2
	updatepop_a 0 1
.d 4 0
	jsr e__SystemDynamic_s_bind_global_type_pattern_var
.o 1 0
	push_a 2
	buildh e_BasicAPIExamples.MultiUserExamples.Chat_d\;77;21;22.23 1
	push_a 4
	buildh e_BasicAPIExamples.MultiUserExamples.Chat_d\;64;27;15.16 1
	buildh e_iTasks.Internal.SDS_dsdsIdentity;17 0
	buildh e_iTasks.Internal.SDS_dreadSDS;18 0
	buildhr e_iTasks.SDS.Definition_rReadable; 2 0
	buildh e_iTasks.Internal.SDS_dreadRegisterSDS;21 0
	buildhr e_iTasks.SDS.Definition_rRegistrable; 2 0
	buildh e_iTasks.Internal.SDS_dsdsIdentity;17 0
	buildh e_iTasks.Internal.SDS_dwriteSDS;19 0
	buildhr e_iTasks.SDS.Definition_rWriteable; 2 0
	buildh e_iTasks.Internal.SDS_dsdsIdentity;17 0
	buildh e_iTasks.Internal.SDS_dreadSDS;18 0
	buildhr e_iTasks.SDS.Definition_rReadable; 2 0
	buildh e_iTasks.Internal.SDS_dmodifySDS;20 0
	buildhr e_iTasks.SDS.Definition_rModifiable; 3 0
	pushI 0
	buildhr e__SystemDynamic_kTypeVar 0 1
	buildh e__SystemDynamic_dTC__List 0
	buildhr e__SystemDynamic_kTypeCons 1 0
	buildhr e__SystemDynamic_kTypeApp 2 0
	create
	push_a 6
	push_a 2
	update_a 2 3
	update_a 0 2
	pop_a 1
	buildh _Nil 0
	update_a 0 11
	update_a 0 10
	pop_a 1
.d 3 0
	jsr e__SystemDynamic_s_normalise
.o 1 0
	pushI 0
	buildhr e__SystemDynamic_kTypeVar 0 1
	buildh e__SystemDynamic_dTC__List 0
	buildhr e__SystemDynamic_kTypeCons 1 0
	buildhr e__SystemDynamic_kTypeApp 2 0
	create
	push_a 7
	push_a 2
	update_a 2 3
	update_a 0 2
	pop_a 1
.d 3 0
	jsr e__SystemDynamic_s_normalise
.o 1 0
	create
	push_a 8
	push_a 6
	update_a 2 7
	update_a 4 2
	update_a 6 4
	update_a 1 6
	update_a 3 1
	update_a 5 3
	update_a 0 5
	pop_a 1
	buildh _Nil 0
	update_a 0 10
	pop_a 1
.d 7 0
	jsr e_iTasks.WF.Tasks.SDS_supd
.o 1 0
	buildh e_BasicAPIExamples.MultiUserExamples.Chat_dJSONEncode_s;574.47 0
	pushI 0
	buildhr e__SystemDynamic_kTypeVar 0 1
	buildh e__SystemDynamic_dTC__List 0
	buildhr e__SystemDynamic_kTypeCons 1 0
	buildhr e__SystemDynamic_kTypeApp 2 0
	create
	push_a 5
	push_a 2
	update_a 2 3
	update_a 0 2
	pop_a 1
	buildh _Nil 0
	update_a 0 7
	pop_a 1
.d 3 0
	jsr e__SystemDynamic_s_normalise
.o 1 0
	update_a 3 7
	update_a 2 6
	update_a 1 5
	updatepop_a 0 4
.d 5 0
	jmp e_iTasks.WF.Combinators.Common_s>>-
.export e_BasicAPIExamples.MultiUserExamples.Chat_dJSONEncode_s;574.47
.desc e_BasicAPIExamples.MultiUserExamples.Chat_dJSONEncode_s;574.47 _hnf l47 2 0 "JSONEncode_s;574.47"
.o 3 1 b
i47
	pop_a 1
.d 2 1 b
	jmp s47
.ai 2 ea47 i47
.o 2 0
l47
	push_args 0 1 1
	update_a 2 1
	create
	update_a 0 3
	pop_a 1
.o 3 0
ea47
	jsr_eval 1
	jsr_eval 0
	pushB_a 0
	pop_a 1
.o 2 1 b
s47
	buildh e_Text.GenJSON_dJSONEncode__String;16 0
	push_a 1
	push_b 0
	push_a 1
	update_a 1 2
	update_a 0 1
	pop_a 1
	update_a 1 2
	updatepop_a 0 1
	updatepop_b 0 1
.d 3 1 b
	jmp e_Text.GenJSON_sJSONEncode__List;17
.export e_BasicAPIExamples.MultiUserExamples.Chat_dJSONEncode_s;562.35
.desc e_BasicAPIExamples.MultiUserExamples.Chat_dJSONEncode_s;562.35 _hnf l35 2 0 "JSONEncode_s;562.35"
.o 3 1 b
i35
	pop_a 1
.d 2 1 b
	jmp s35
.ai 2 ea35 i35
.o 2 0
l35
	push_args 0 1 1
	update_a 2 1
	create
	update_a 0 3
	pop_a 1
.o 3 0
ea35
	jsr_eval 1
	jsr_eval 0
	pushB_a 0
	pop_a 1
.o 2 1 b
s35
	buildh e_iTasks.Extensions.User_dJSONEncode_User;32 0
	push_a 1
	push_b 0
	push_a 1
	update_a 1 2
	update_a 0 1
	pop_a 1
	update_a 1 2
	updatepop_a 0 1
	updatepop_b 0 1
.d 3 1 b
	jmp e_Text.GenJSON_sJSONEncode__List;17
.export e_BasicAPIExamples.MultiUserExamples.Chat_dJSONEncode_s;556.29
.desc e_BasicAPIExamples.MultiUserExamples.Chat_dJSONEncode_s;556.29 _hnf l29 2 0 "JSONEncode_s;556.29"
.o 3 1 b
i29
	pop_a 1
.d 2 1 b
	jmp s29
.ai 2 ea29 i29
.o 2 0
l29
	push_args 0 1 1
	update_a 2 1
	create
	update_a 0 3
	pop_a 1
.o 3 0
ea29
	jsr_eval 1
	jsr_eval 0
	pushB_a 0
	pop_a 1
.o 2 1 b
s29
	buildh e_Text.GenJSON_dJSONEncode__Unit;23 0
	push_a 1
	push_b 0
	push_a 1
	update_a 1 2
	update_a 0 1
	pop_a 1
	update_a 1 2
	updatepop_a 0 1
	updatepop_b 0 1
.d 3 1 b
	jmp e_Text.GenJSON_sJSONEncode__List;17
.export e_BasicAPIExamples.MultiUserExamples.Chat_d\;64;27;15.16
.desc e_BasicAPIExamples.MultiUserExamples.Chat_d\;64;27;15.16 _hnf l16 2 0 "\;64;27;15.16"
.a 2 ea16
.o 2 0
l16
	push_args 0 1 1
	update_a 2 1
	create
	update_a 0 3
	pop_a 1
.o 3 0
ea16
	jsr_eval 1
.o 3 0
s16
	buildh _Nil 0
	push_a 1
	buildh _Cons 2
	push_a 2
	update_a 1 3
	updatepop_a 0 2
.d 3 0
	jmp e_StdList_s++
.export e_BasicAPIExamples.MultiUserExamples.Chat_d\;77;21;22.23
.desc e_BasicAPIExamples.MultiUserExamples.Chat_d\;77;21;22.23 _hnf l23 2 0 "\;77;21;22.23"
.a 0 ea23
.o 2 0
l23
	repl_args 1 1
.o 2 0
ea23
	jsr_eval 0
.o 2 0
s23
	updatepop_a 0 1
.d 1 0
	rtn
.export e_BasicAPIExamples.MultiUserExamples.Chat_denter;10.11
.export e_BasicAPIExamples.MultiUserExamples.Chat_nenter;10.11
.descn e_BasicAPIExamples.MultiUserExamples.Chat_denter;10.11 e_BasicAPIExamples.MultiUserExamples.Chat_nenter;10.11 0 0 "enter;10.11"
.n 0 e_BasicAPIExamples.MultiUserExamples.Chat_denter;10.11 ea11
.o 1 0
e_BasicAPIExamples.MultiUserExamples.Chat_nenter;10.11
	push_node _cycle_in_spine 0
.o 1 0
ea11
.o 1 0
s11
	buildh _Nil 0
	buildh e__SystemDynamic_dTC_Char 0
	buildhr e__SystemDynamic_kTypeCons 1 0
	buildh e__SystemDynamic_dTC__UnboxedArray 0
	buildhr e__SystemDynamic_kTypeCons 1 0
	buildhr e__SystemDynamic_kTypeApp 2 0
	buildh e_Data.GenEq_dgEq__String;11 0
	buildh e_Text.GenJSON_dJSONDecode__String;46 0
	buildh e_Text.GenJSON_dJSONEncode__String;16 0
	buildh e_iTasks.Internal.Generic.Visualization_dgText__String;16 0
	buildh e_iTasks.UI.Editor.Generic_dgEditor__String;11 0
	create
	push_a 7
	update_a 1 8
	update_a 2 1
	update_a 3 2
	update_a 4 3
	update_a 5 4
	update_a 6 5
	update_a 7 6
	update_a 0 7
	pop_a 1
.d 8 0
	jsr e_iTasks.WF.Tasks.Interaction_senterInformation
.o 1 0
	buildAC "Type in a message"
	buildhr e_iTasks.UI.Definition_kHint 1 0
	buildh e_iTasks.UI.Tune_dtune;7 0
.d 3 0
	jsr e_iTasks.UI.Tune_s@>>
.o 1 0
	fill_a 0 1
	pop_a 1
.d 1 0
	rtn
.export e_BasicAPIExamples.MultiUserExamples.Chat_dupdate;11.12
.desc e_BasicAPIExamples.MultiUserExamples.Chat_dupdate;11.12 _hnf l12 2 0 "update;11.12"
.a 2 ea12
.o 2 0
l12
	push_args 0 1 1
	update_a 2 1
	create
	update_a 0 3
	pop_a 1
.o 3 0
ea12
	jsr_eval 1
	jsr_eval 0
	push_array 1
	update_a 0 2
	pop_a 1
.o 3 0
s12
	push_a 1
	buildAC " says : "
	update_a 2 3
	update_a 1 2
	updatepop_a 0 1
.d 2 0
	jsr catAC
.o 1 0
	push_a 1
	buildh _Nil 0
	update_a 0 3
	pop_a 1
.d 1 0
	jsr e_iTasks.Extensions.User_stoString;14
.o 1 0
	update_a 1 2
	updatepop_a 0 1
.d 2 0
	jsr catAC
.o 1 0
	buildh ARRAY 1
.d 2 0
	jmp e_iTasks.WF.Tasks.Core_sreturn
