.comp 920 000011110011000
.start _nostart_
.depend "iTasks.Extensions.TextFile" "20210613122637"
.depend "Text.CSV" "20210613122637"
.depend "Text" "20210613122637"
.depend "iTasks.Internal.SDSService" "20210613122637"
.depend "iTasks.Internal.Serialization" "20210613122637"
.depend "_SystemEnum" "20210613122638"
.depend "StdEnum" "20210613122638"
.depend "StdTuple" "20210613122638"
.depend "StdOrdList" "20210613122638"
.depend "Control.Monad.Trans" "20210613122637"
.depend "StdMaybe" "20210613122638"
.depend "Data.Maybe" "20210613122637"
.depend "iTasks.Extensions.Admin.WorkflowAdmin" "20210613122637"
.depend "iTasks.Extensions.User" "20210613122637"
.depend "iTasks.Extensions.Admin.UserAdmin" "20210613122637"
.depend "iTasks.UI.Layout.Common" "20210613122637"
.depend "iTasks.UI.Editor.Modifiers" "20210613122637"
.depend "iTasks.UI.Editor.Containers" "20210613122637"
.depend "iTasks.UI.Tune" "20210613122637"
.depend "iTasks.Internal.Distributed.Domain" "20210613122637"
.depend "iTasks.WF.Combinators.Common" "20210613122637"
.depend "iTasks.WF.Combinators.SDS" "20210613122637"
.depend "iTasks.UI.Editor.Controls" "20210613122637"
.depend "iTasks.WF.Tasks.Interaction" "20210613122637"
.depend "iTasks.WF.Tasks.System" "20210613122637"
.depend "iTasks.WF.Tasks.SDS" "20210613122637"
.depend "iTasks.WF.Tasks.Core" "20210613122637"
.depend "System.Time.GenJSON" "20210613122637"
.depend "Text.HTML.GenJSON" "20210613122637"
.depend "Data.Map.GenJSON" "20210613122637"
.depend "Data.Error.GenJSON" "20210613122637"
.depend "Data.Either.GenJSON" "20210613122637"
.depend "iTasks.WF.Derives" "20210613122637"
.depend "iTasks.SDS.Combinators.Common" "20210613122637"
.depend "iTasks.SDS.Combinators.Core" "20210613122637"
.depend "iTasks.SDS.Sources.System" "20210613122637"
.depend "iTasks.SDS.Sources.Store" "20210613122637"
.depend "iTasks.SDS.Sources.Core" "20210613122637"
.depend "iTasks.Internal.TaskIO" "20210613122637"
.depend "System._Signal" "20210613122637"
.depend "System.Signal" "20210613122637"
.depend "_SystemStrictMaybes" "20210613122638"
.depend "Text.GenPrint" "20210613122637"
.depend "iTasks.Extensions.DateTime" "20210613122637"
.depend "iTasks.Internal.TaskServer" "20210613122637"
.depend "AsyncIO" "20210613122637"
.depend "System._Process" "20210613122637"
.depend "System.Process" "20210613122637"
.depend "System.OS" "20210613122637"
.depend "TCPStringChannelsInternal" "20210613122630"
.depend "TCPStringChannels" "20210613122630"
.depend "TCPEvent" "20210613122630"
.depend "tcp_bytestreams" "20210613122630"
.depend "TCPDef" "20210613122630"
.depend "TCPChannels" "20210613122630"
.depend "TCPIP" "20210613122630"
.depend "iTasks.WF.Tasks.IO" "20210613122637"
.depend "Data.IntMap.Base" "20210613122637"
.depend "Data.IntMap.Strict" "20210613122637"
.depend "Data.CircularStack" "20210613122637"
.depend "iTasks.Extensions.Document" "20210613122637"
.depend "System.File" "20210613122637"
.depend "iTasks.Util.DeferredJSON" "20210613122637"
.depend "iTasks.UI.Layout" "20210613122637"
.depend "iTasks.Internal.TaskState" "20210613122637"
.depend "iTasks.Internal.SDS" "20210613122637"
.depend "Data.GenHash" "20210613122637"
.depend "Data.Maybe.Ord" "20210613122637"
.depend "Control.GenBimap" "20210613122637"
.depend "ABC.Interpreter.JavaScript" "20210613122638"
.depend "ABC.Interpreter" "20210613122638"
.depend "iTasks.UI.Editor" "20210613122637"
.depend "iTasks.UI.Editor.Generic" "20210613122637"
.depend "iTasks.Internal.Generic.Defaults" "20210613122637"
.depend "Data.GenDefault" "20210613122637"
.depend "Data.Integer" "20210613122637"
.depend "Text.HTML" "20210613122638"
.depend "iTasks.Internal.Generic.Visualization" "20210613122637"
.depend "iTasks.SDS.Definition" "20210613122637"
.depend "iTasks.WF.Combinators.Core" "20210613122637"
.depend "iTasks.Internal.TaskEval" "20210613122637"
.depend "iTasks.WF.Definition" "20210613122637"
.depend "iTasks.Internal.Task" "20210613122637"
.depend "iTasks.UI.Definition" "20210613122637"
.depend "Text.GenJSON" "20210613122637"
.depend "Data.Bifunctor" "20210613122637"
.depend "Data.Either" "20210613122637"
.depend "Data.Queue" "20210613122637"
.depend "StdFile" "20210613122638"
.depend "symbols_in_program" "20210613122637"
.depend "iTasks.Internal.IWorld" "20210613122637"
.depend "iTasks.Internal.WebService" "20210613122637"
.depend "tcp" "20210613122630"
.depend "TCPChannelClass" "20210613122630"
.depend "System._Time" "20210613122637"
.depend "System.Time" "20210613122637"
.depend "System.GetOpt" "20210613122637"
.depend "System.OSError" "20210613122637"
.depend "System.FilePath" "20210613122637"
.depend "StdString" "20210613122638"
.depend "Internet.HTTP" "20210613122637"
.depend "Control.Monad.Fail" "20210613122637"
.depend "Data.Traversable" "20210613122637"
.depend "StdMisc" "20210613122638"
.depend "StdOverloadedList" "20210613122638"
.depend "Data.List" "20210613122637"
.depend "Data.Foldable" "20210613122637"
.depend "Data.Set" "20210613122637"
.depend "Data.GenLexOrd" "20210613122637"
.depend "StdFunctions" "20210613122638"
.depend "StdFunc" "20210613122638"
.depend "Data.Map" "20210613122637"
.depend "_SystemEnumStrict" "20210613122638"
.depend "_SystemStrictLists" "20210613122638"
.depend "StdStrictLists" "20210613122638"
.depend "StdGeneric" "20210613122638"
.depend "Data.GenEq" "20210613122637"
.depend "StdReal" "20210613122638"
.depend "StdChar" "20210613122638"
.depend "StdInt" "20210613122638"
.depend "StdBool" "20210613122638"
.depend "StdClass" "20210613122638"
.depend "StdList" "20210613122638"
.depend "Data.Monoid" "20210613122637"
.depend "Control.Applicative" "20210613122637"
.depend "Control.Monad" "20210613122637"
.depend "Data.Functor" "20210613122637"
.depend "Data.Error" "20210613122637"
.depend "iTasks.Engine" "20210613122637"
.depend "iTasks" "20210613122637"
.depend "StdOverloaded" "20210613122638"
.depend "_SystemDynamic" "20210613122638"
.depend "iTasks.Extensions.CSVFile" "20210613122637"
.module m_iTasks.Extensions.CSVFile "iTasks.Extensions.CSVFile" "20210613122637"
.endinfo
.impmod _system
.implab _cycle_in_spine
.implab _type_error
.implab _hnf
.impdesc e_system_dind
.implab e_system_nind e_system_eaind
.impdesc e_system_dif
.implab e_system_nif e_system_eaif
.implab e_system_sif
.impdesc e_system_dAP
.implab e_system_nAP e_system_eaAP
.implab e_system_sAP
.impdesc ARRAY
.impdesc _Nil
.impdesc _Cons
.impdesc _Conss
.implab n_Conss ea_Conss
.impdesc _Consts
.implab n_Consts ea_Consts
.impdesc _Conssts
.implab n_Conssts ea_Conssts
.impdesc _Tuple
.impdesc d_S.1
.implab n_S.1 ea_S.1
.impdesc d_S.2
.implab n_S.2 ea_S.2
.impdesc d_S.3
.implab n_S.3 ea_S.3
.impdesc d_S.4
.implab n_S.4 ea_S.4
.impdesc d_S.5
.implab n_S.5 ea_S.5
.impdesc d_S.6
.implab n_S.6 ea_S.6
.implab _driver
.impmod iTasks.Extensions.TextFile
.implab e_iTasks.Extensions.TextFile_simportTextFile
.impmod Text.CSV
.impdesc e_Text.CSV_dreadCSVFile
.impdesc e_Text.CSV_dreadCSVFileWith
.impdesc e_Text.CSV_dwriteCSVFile
.impdesc e_Text.CSV_dwriteCSVFileWith
.impmod iTasks.WF.Combinators.Common
.implab e_iTasks.WF.Combinators.Common_s>>-
.impmod iTasks.WF.Combinators.SDS
.implab e_iTasks.WF.Combinators.SDS_swithTemporaryDirectory
.impmod iTasks.Extensions.Document
.implab e_iTasks.Extensions.Document_simportDocument
.impdesc e_iTasks.Extensions.Document_dtoString;5
.implab e_iTasks.Extensions.Document_ntoString;5
.impdesc e_iTasks.Extensions.Document_dJSONEncode_Document;6
.impdesc e_iTasks.Extensions.Document_dJSONDecode_Document;7
.impdesc e_iTasks.Extensions.Document_dgEq_Document;8
.impdesc e_iTasks.Extensions.Document_dgText_Document;9
.impdesc e_iTasks.Extensions.Document_dgEditor_Document;10
.impdesc e_iTasks.Extensions.Document_dTD;Document
.impdesc e_iTasks.Extensions.Document_dTD;FileException
.impmod System.File
.impdesc e_System.File_dtoString;11
.implab e_System.File_ntoString;11
.impdesc e_System.File_dTD;FileError
.impmod iTasks.Internal.TaskState
.implab e_iTasks.Internal.TaskState_screateDocument
.implab e_iTasks.Internal.TaskState_sdocumentLocation
.impmod iTasks.Internal.Task
.implab e_iTasks.Internal.Task_smkInstantTask
.impmod Text.GenJSON
.impdesc e_Text.GenJSON_dJSONEncode__String;16
.implab e_Text.GenJSON_sJSONEncode__List;17
.impmod StdFile
.implab e_StdFile_sfclose;31
.implab e_StdFile_sfopen;32
.impmod System.FilePath
.implab e_System.FilePath_s</>
.impmod StdString
.implab e_StdString_s+++;11
.impmod StdBool
.implab e_StdBool_snot
.impmod iTasks.Extensions.Document
.impdesc e_iTasks.Extensions.Document_kFileException
.impdesc e_iTasks.Extensions.Document_dFileException
.implab e_iTasks.Extensions.Document_nFileException e_iTasks.Extensions.Document_eaFileException
.impmod System.File
.impdesc e_System.File_dCannotOpen
.impdesc e_System.File_dCannotClose
.impmod iTasks.WF.Definition
.impdesc e_iTasks.WF.Definition_riTask;
.impmod iTasks.Internal.IWorld
.impdesc e_iTasks.Internal.IWorld_rIWorld
.impdesc e_iTasks.Internal.IWorld_tIWorld
.implab e_iTasks.Internal.IWorld_cIWorld
.impmod Data.Error
.impdesc e_Data.Error_dError
.impdesc e_Data.Error_dOk
.impmod _SystemDynamic
.impdesc e__SystemDynamic_rDynamicTemp
.impdesc e__SystemDynamic_kTypeCons
.impdesc e__SystemDynamic_kTypeApp
.impdesc e__SystemDynamic_rTypeCodeConstructor
.impdesc e__SystemDynamic_dTC_Char
.impdesc e__SystemDynamic_dTC__List
.impdesc e__SystemDynamic_dTC__UnboxedArray
.export e_iTasks.Extensions.CSVFile_rgEditor_s;
.record e_iTasks.Extensions.CSVFile_rgEditor_s; a 1 0 "gEditor_s;"
.export e_iTasks.Extensions.CSVFile_tgEditor_s;
.export e_iTasks.Extensions.CSVFile_cgEditor_s;
.descn e_iTasks.Extensions.CSVFile_tgEditor_s; e_iTasks.Extensions.CSVFile_cgEditor_s; 1 1 "gEditor_s;"
.n 1 e_iTasks.Extensions.CSVFile_tgEditor_s;
.o 1 0
e_iTasks.Extensions.CSVFile_cgEditor_s;
	push_node _cycle_in_spine 1
	jsr_eval 0
.impmod iTasks.Extensions.CSVFile
.impdesc e_iTasks.Extensions.CSVFile_rgEditor_s;
	fill_r e_iTasks.Extensions.CSVFile_rgEditor_s; 1 0 1 0 0
	pop_a 1
.d 1 0
	rtn
.export e_iTasks.Extensions.CSVFile_rgText_s;
.record e_iTasks.Extensions.CSVFile_rgText_s; a 1 0 "gText_s;"
.export e_iTasks.Extensions.CSVFile_tgText_s;
.export e_iTasks.Extensions.CSVFile_cgText_s;
.descn e_iTasks.Extensions.CSVFile_tgText_s; e_iTasks.Extensions.CSVFile_cgText_s; 1 1 "gText_s;"
.n 1 e_iTasks.Extensions.CSVFile_tgText_s;
.o 1 0
e_iTasks.Extensions.CSVFile_cgText_s;
	push_node _cycle_in_spine 1
	jsr_eval 0
.impdesc e_iTasks.Extensions.CSVFile_rgText_s;
	fill_r e_iTasks.Extensions.CSVFile_rgText_s; 1 0 1 0 0
	pop_a 1
.d 1 0
	rtn
.export e_iTasks.Extensions.CSVFile_rJSONEncode_s;
.record e_iTasks.Extensions.CSVFile_rJSONEncode_s; a 1 0 "JSONEncode_s;"
.export e_iTasks.Extensions.CSVFile_tJSONEncode_s;
.export e_iTasks.Extensions.CSVFile_cJSONEncode_s;
.descn e_iTasks.Extensions.CSVFile_tJSONEncode_s; e_iTasks.Extensions.CSVFile_cJSONEncode_s; 1 1 "JSONEncode_s;"
.n 1 e_iTasks.Extensions.CSVFile_tJSONEncode_s;
.o 1 0
e_iTasks.Extensions.CSVFile_cJSONEncode_s;
	push_node _cycle_in_spine 1
	jsr_eval 0
.impdesc e_iTasks.Extensions.CSVFile_rJSONEncode_s;
	fill_r e_iTasks.Extensions.CSVFile_rJSONEncode_s; 1 0 1 0 0
	pop_a 1
.d 1 0
	rtn
.export e_iTasks.Extensions.CSVFile_rJSONDecode_s;
.record e_iTasks.Extensions.CSVFile_rJSONDecode_s; a 1 0 "JSONDecode_s;"
.export e_iTasks.Extensions.CSVFile_tJSONDecode_s;
.export e_iTasks.Extensions.CSVFile_cJSONDecode_s;
.descn e_iTasks.Extensions.CSVFile_tJSONDecode_s; e_iTasks.Extensions.CSVFile_cJSONDecode_s; 1 1 "JSONDecode_s;"
.n 1 e_iTasks.Extensions.CSVFile_tJSONDecode_s;
.o 1 0
e_iTasks.Extensions.CSVFile_cJSONDecode_s;
	push_node _cycle_in_spine 1
	jsr_eval 0
.impdesc e_iTasks.Extensions.CSVFile_rJSONDecode_s;
	fill_r e_iTasks.Extensions.CSVFile_rJSONDecode_s; 1 0 1 0 0
	pop_a 1
.d 1 0
	rtn
.export e_iTasks.Extensions.CSVFile_rgEq_s;
.record e_iTasks.Extensions.CSVFile_rgEq_s; a 1 0 "gEq_s;"
.export e_iTasks.Extensions.CSVFile_tgEq_s;
.export e_iTasks.Extensions.CSVFile_cgEq_s;
.descn e_iTasks.Extensions.CSVFile_tgEq_s; e_iTasks.Extensions.CSVFile_cgEq_s; 1 1 "gEq_s;"
.n 1 e_iTasks.Extensions.CSVFile_tgEq_s;
.o 1 0
e_iTasks.Extensions.CSVFile_cgEq_s;
	push_node _cycle_in_spine 1
	jsr_eval 0
.impdesc e_iTasks.Extensions.CSVFile_rgEq_s;
	fill_r e_iTasks.Extensions.CSVFile_rgEq_s; 1 0 1 0 0
	pop_a 1
.d 1 0
	rtn
.export e_iTasks.Extensions.CSVFile_screateUtf8CSVFileWith
.export e_iTasks.Extensions.CSVFile_eacreateUtf8CSVFileWith
.descexp e_iTasks.Extensions.CSVFile_dcreateUtf8CSVFileWith e_iTasks.Extensions.CSVFile_ncreateUtf8CSVFileWith e_iTasks.Extensions.CSVFile_lcreateUtf8CSVFileWith 5 0 "createUtf8CSVFileWith"
.a 5 e_iTasks.Extensions.CSVFile_eacreateUtf8CSVFileWith
.o 2 0
e_iTasks.Extensions.CSVFile_lcreateUtf8CSVFileWith
	push_args 0 4 4
	update_a 5 4
	create
	update_a 0 6
	pop_a 1
.d 6 0
	jmp e_iTasks.Extensions.CSVFile_eacreateUtf8CSVFileWith
.n 5 e_iTasks.Extensions.CSVFile_dcreateUtf8CSVFileWith e_iTasks.Extensions.CSVFile_eacreateUtf8CSVFileWith
.o 1 0
e_iTasks.Extensions.CSVFile_ncreateUtf8CSVFileWith
	push_node _cycle_in_spine 5
.o 6 0
e_iTasks.Extensions.CSVFile_eacreateUtf8CSVFileWith
	jsr_eval 4
	jsr_eval 3
	jsr_eval 2
	jsr_eval 1
	jsr_eval 0
	push_array 3
	pushC_a 3
	pushC_a 2
	pushC_a 1
	update_a 0 4
	pop_a 4
.o 3 3 ccc
e_iTasks.Extensions.CSVFile_screateUtf8CSVFileWith
.o 3 3 ccc
s7
	push_a 1
	push_a 1
	buildh ARRAY 1
	buildC_b 2
	buildC_b 1
	buildC_b 0
	buildh e_iTasks.Extensions.CSVFile_d\;47;11;23.24 5
	buildh e_iTasks.Extensions.Document_dTD;Document 0
	buildhr e__SystemDynamic_kTypeCons 1 0
	buildh e_iTasks.Extensions.Document_dgEq_Document;8 0
	buildh e_iTasks.Extensions.Document_dJSONDecode_Document;7 0
	buildh e_iTasks.Extensions.Document_dJSONEncode_Document;6 0
	buildh e_iTasks.Extensions.Document_dgText_Document;9 0
	buildh e_iTasks.Extensions.Document_dgEditor_Document;10 0
	update_a 6 8
	update_a 5 7
	update_a 4 6
	update_a 3 5
	update_a 2 4
	update_a 1 3
	updatepop_a 0 2
	pop_b 3
.d 8 0
	jmp e_iTasks.WF.Combinators.SDS_swithTemporaryDirectory
.export e_iTasks.Extensions.CSVFile_d\;47;11;23.24
.desc e_iTasks.Extensions.CSVFile_d\;47;11;23.24 _hnf l24 6 0 "\;47;11;23.24"
.a 6 ea24
.o 2 0
l24
	push_args 0 5 5
	update_a 6 5
	create
	update_a 0 7
	pop_a 1
.o 7 0
ea24
	push_array 3
	pushC_a 3
	pushC_a 2
	pushC_a 1
	update_a 0 4
	pop_a 4
.o 4 3 ccc
s24
	push_a 0
	buildh ARRAY 1
	buildh e_iTasks.Extensions.CSVFile_d\;50;85;22.23 1
	push_a 1
	push_a 4
	build e_iTasks.Extensions.CSVFile_d_f2.243 2 e_iTasks.Extensions.CSVFile_n_f2.243
	buildh e_iTasks.Extensions.CSVFile_d\;77;21;29.30 1
	create
	push_a 4
	push_a 4
	push_b 2
	push_b 2
	push_b 2
	update_b 2 5
	update_b 1 4
	updatepop_b 0 3
	buildh _Nil 0
	update_a 0 6
	update_a 0 7
	update_a 0 8
	pop_a 1
.d 3 3 ccc
	jsr s9
.o 1 0
	buildh e_iTasks.Extensions.CSVFile_dJSONEncode_s;564.33 0
	buildh e__SystemDynamic_dTC_Char 0
	buildhr e__SystemDynamic_kTypeCons 1 0
	buildh e__SystemDynamic_dTC__UnboxedArray 0
	buildhr e__SystemDynamic_kTypeCons 1 0
	buildhr e__SystemDynamic_kTypeApp 2 0
	buildh e__SystemDynamic_dTC__List 0
	buildhr e__SystemDynamic_kTypeCons 1 0
	buildhr e__SystemDynamic_kTypeApp 2 0
	buildh e__SystemDynamic_dTC__List 0
	buildhr e__SystemDynamic_kTypeCons 1 0
	buildhr e__SystemDynamic_kTypeApp 2 0
	create
	push_a 4
	update_a 1 5
	update_a 2 1
	update_a 3 2
	update_a 4 3
	update_a 0 4
	pop_a 1
.d 5 0
	jsr e_iTasks.WF.Combinators.Common_s>>-
.o 1 0
	buildh e_Text.GenJSON_dJSONEncode__String;16 0
	buildh e__SystemDynamic_dTC_Char 0
	buildhr e__SystemDynamic_kTypeCons 1 0
	buildh e__SystemDynamic_dTC__UnboxedArray 0
	buildhr e__SystemDynamic_kTypeCons 1 0
	buildhr e__SystemDynamic_kTypeApp 2 0
	update_a 3 6
	update_a 2 5
	update_a 1 4
	updatepop_a 0 3
.d 5 0
	jmp e_iTasks.WF.Combinators.Common_s>>-
.export e_iTasks.Extensions.CSVFile_d_f2.243
.export e_iTasks.Extensions.CSVFile_n_f2.243
.descn e_iTasks.Extensions.CSVFile_d_f2.243 e_iTasks.Extensions.CSVFile_n_f2.243 2 0 "_f2.243"
.n 2 e_iTasks.Extensions.CSVFile_d_f2.243 ea243
.o 1 0
e_iTasks.Extensions.CSVFile_n_f2.243
	push_node _cycle_in_spine 2
.o 3 0
ea243
.o 3 0
s243
	push_a 0
	jsr_eval 0
	push_array 0
	updatepop_a 0 1
	push_a 2
	push_a 1
	update_a 1 2
	update_a 0 1
	pop_a 1
	update_a 1 3
	updatepop_a 0 2
.d 2 0
	jsr e_System.FilePath_s</>
.o 1 0
.d 2 0
	jmp e_iTasks.Extensions.TextFile_simportTextFile
.export e_iTasks.Extensions.CSVFile_d\;50;85;22.23
.desc e_iTasks.Extensions.CSVFile_d\;50;85;22.23 _hnf l23 2 0 "\;50;85;22.23"
.a 2 ea23
.o 2 0
l23
	push_args 0 1 1
	update_a 2 1
	create
	update_a 0 3
	pop_a 1
.o 3 0
ea23
.o 3 0
s23
	push_a 1
	push_a 1
	buildh e_iTasks.Extensions.CSVFile_dcreateDoc;24.25 2
	updatepop_a 0 2
.d 2 0
	jmp e_iTasks.Internal.Task_smkInstantTask
.export e_iTasks.Extensions.CSVFile_dcreateDoc;24.25
.desc e_iTasks.Extensions.CSVFile_dcreateDoc;24.25 _hnf l25 4 0 "createDoc;24.25"
.a 0 a25
.o 2 0
l25
	repl_args 3 3
.o 4 0
a25
.d 4 0
	jsr ea25
.o 2 0
	push_a 1
	push_a 1
	buildh _Tuple 2
	updatepop_a 0 2
.d 1 0
	rtn
.o 4 0
ea25
	jsr_eval 3
	jsr_eval 1
	jsr_eval 0
	push_array 1
	push_array 1
	update_a 1 3
	update_a 0 2
	pop_a 2
.o 4 0
s25
	push_a 1
	buildAC "\357\273\277"
	update_a 2 4
	update_a 1 3
	updatepop_a 0 2
.d 2 0
	jsr catAC
.o 1 0
	push_a 2
	buildAC "text/csv"
	push_a 3
	push_a 3
	update_a 3 4
	update_a 0 3
	pop_a 1
	update_a 3 5
	update_a 2 4
	update_a 1 3
	updatepop_a 0 2
.d 4 0
	jsr e_iTasks.Internal.TaskState_screateDocument
.o 2 0
	push_a 1
	push_a 1
	update_a 1 3
	updatepop_a 0 2
.d 2 0
	jmp s34
.o 2 0
s34
	eq_desc e_Data.Error_dOk 1 0
	jmp_true case.1
	jmp case.2
case.1
	repl_args 1 1
	push_a 0
	buildh e_Data.Error_dOk 1
	push_a 2
	push_a 1
	update_a 1 2
	update_a 0 1
	pop_a 1
	update_a 1 3
	updatepop_a 0 2
.d 2 0
	rtn
case.2
	repl_args 1 1
	push_a 0
	build e_System.File_dtoString;11 1 e_System.File_ntoString;11
	buildh e_System.File_dTD;FileError 0
	buildhr e__SystemDynamic_kTypeCons 1 0
	push_a 2
	buildhr e__SystemDynamic_rDynamicTemp 2 0
	buildh _Tuple 2
	buildh e_Data.Error_dError 1
	push_a 2
	push_a 1
	update_a 1 2
	update_a 0 1
	pop_a 1
	update_a 1 3
	updatepop_a 0 2
.d 2 0
	rtn
.export e_iTasks.Extensions.CSVFile_d\;77;21;29.30
.desc e_iTasks.Extensions.CSVFile_d\;77;21;29.30 _hnf l30 2 0 "\;77;21;29.30"
.a 0 ea30
.o 2 0
l30
	repl_args 1 1
.o 2 0
ea30
	jsr_eval 0
.o 2 0
s30
	updatepop_a 0 1
.d 1 0
	rtn
.export e_iTasks.Extensions.CSVFile_screateCSVFileWith
.export e_iTasks.Extensions.CSVFile_eacreateCSVFileWith
.descexp e_iTasks.Extensions.CSVFile_dcreateCSVFileWith e_iTasks.Extensions.CSVFile_ncreateCSVFileWith e_iTasks.Extensions.CSVFile_lcreateCSVFileWith 5 0 "createCSVFileWith"
.a 5 e_iTasks.Extensions.CSVFile_eacreateCSVFileWith
.o 2 0
e_iTasks.Extensions.CSVFile_lcreateCSVFileWith
	push_args 0 4 4
	update_a 5 4
	create
	update_a 0 6
	pop_a 1
.d 6 0
	jmp e_iTasks.Extensions.CSVFile_eacreateCSVFileWith
.n 5 e_iTasks.Extensions.CSVFile_dcreateCSVFileWith e_iTasks.Extensions.CSVFile_eacreateCSVFileWith
.o 1 0
e_iTasks.Extensions.CSVFile_ncreateCSVFileWith
	push_node _cycle_in_spine 5
.o 6 0
e_iTasks.Extensions.CSVFile_eacreateCSVFileWith
	jsr_eval 4
	jsr_eval 3
	jsr_eval 2
	jsr_eval 1
	jsr_eval 0
	push_array 3
	pushC_a 3
	pushC_a 2
	pushC_a 1
	update_a 0 4
	pop_a 4
.o 3 3 ccc
e_iTasks.Extensions.CSVFile_screateCSVFileWith
.o 3 3 ccc
s6
	push_a 1
	push_a 1
	buildh ARRAY 1
	buildC_b 2
	buildC_b 1
	buildC_b 0
	buildh e_iTasks.Extensions.CSVFile_d\;39;11;21.22 5
	buildh e_iTasks.Extensions.Document_dTD;Document 0
	buildhr e__SystemDynamic_kTypeCons 1 0
	buildh e_iTasks.Extensions.Document_dgEq_Document;8 0
	buildh e_iTasks.Extensions.Document_dJSONDecode_Document;7 0
	buildh e_iTasks.Extensions.Document_dJSONEncode_Document;6 0
	buildh e_iTasks.Extensions.Document_dgText_Document;9 0
	buildh e_iTasks.Extensions.Document_dgEditor_Document;10 0
	update_a 6 8
	update_a 5 7
	update_a 4 6
	update_a 3 5
	update_a 2 4
	update_a 1 3
	updatepop_a 0 2
	pop_b 3
.d 8 0
	jmp e_iTasks.WF.Combinators.SDS_swithTemporaryDirectory
.export e_iTasks.Extensions.CSVFile_d\;39;11;21.22
.desc e_iTasks.Extensions.CSVFile_d\;39;11;21.22 _hnf l22 6 0 "\;39;11;21.22"
.a 6 ea22
.o 2 0
l22
	push_args 0 5 5
	update_a 6 5
	create
	update_a 0 7
	pop_a 1
.o 7 0
ea22
	push_array 3
	pushC_a 3
	pushC_a 2
	pushC_a 1
	update_a 0 4
	pop_a 4
.o 4 3 ccc
s22
	push_a 0
	push_a 3
	build e_iTasks.Extensions.CSVFile_d_f1.242 2 e_iTasks.Extensions.CSVFile_n_f1.242
	buildh e_iTasks.Extensions.CSVFile_d\;77;21;28.29 1
	create
	push_a 3
	push_a 3
	push_b 2
	push_b 2
	push_b 2
	update_b 2 5
	update_b 1 4
	updatepop_b 0 3
	buildh _Nil 0
	update_a 0 5
	update_a 0 6
	update_a 0 7
	pop_a 1
.d 3 3 ccc
	jsr s9
.o 1 0
	buildh e_iTasks.Extensions.CSVFile_dJSONEncode_s;564.33 0
	buildh e__SystemDynamic_dTC_Char 0
	buildhr e__SystemDynamic_kTypeCons 1 0
	buildh e__SystemDynamic_dTC__UnboxedArray 0
	buildhr e__SystemDynamic_kTypeCons 1 0
	buildhr e__SystemDynamic_kTypeApp 2 0
	buildh e__SystemDynamic_dTC__List 0
	buildhr e__SystemDynamic_kTypeCons 1 0
	buildhr e__SystemDynamic_kTypeApp 2 0
	buildh e__SystemDynamic_dTC__List 0
	buildhr e__SystemDynamic_kTypeCons 1 0
	buildhr e__SystemDynamic_kTypeApp 2 0
	update_a 3 6
	update_a 2 5
	update_a 1 4
	updatepop_a 0 3
.d 5 0
	jmp e_iTasks.WF.Combinators.Common_s>>-
.export e_iTasks.Extensions.CSVFile_d_f1.242
.export e_iTasks.Extensions.CSVFile_n_f1.242
.descn e_iTasks.Extensions.CSVFile_d_f1.242 e_iTasks.Extensions.CSVFile_n_f1.242 2 0 "_f1.242"
.n 2 e_iTasks.Extensions.CSVFile_d_f1.242 ea242
.o 1 0
e_iTasks.Extensions.CSVFile_n_f1.242
	push_node _cycle_in_spine 2
.o 3 0
ea242
.o 3 0
s242
	push_a 0
	jsr_eval 0
	push_array 0
	updatepop_a 0 1
	push_a 2
	push_a 1
	update_a 1 2
	update_a 0 1
	pop_a 1
	update_a 1 3
	updatepop_a 0 2
.d 2 0
	jsr e_System.FilePath_s</>
.o 1 0
	pushB FALSE
.d 2 1 b
	jmp e_iTasks.Extensions.Document_simportDocument
.export e_iTasks.Extensions.CSVFile_sexportCSVFileWith
.export e_iTasks.Extensions.CSVFile_eaexportCSVFileWith
.descexp e_iTasks.Extensions.CSVFile_dexportCSVFileWith e_iTasks.Extensions.CSVFile_nexportCSVFileWith e_iTasks.Extensions.CSVFile_lexportCSVFileWith 5 0 "exportCSVFileWith"
.a 5 e_iTasks.Extensions.CSVFile_eaexportCSVFileWith
.o 2 0
e_iTasks.Extensions.CSVFile_lexportCSVFileWith
	push_args 0 4 4
	update_a 5 4
	create
	update_a 0 6
	pop_a 1
.d 6 0
	jmp e_iTasks.Extensions.CSVFile_eaexportCSVFileWith
.n 5 e_iTasks.Extensions.CSVFile_dexportCSVFileWith e_iTasks.Extensions.CSVFile_eaexportCSVFileWith
.o 1 0
e_iTasks.Extensions.CSVFile_nexportCSVFileWith
	push_node _cycle_in_spine 5
.o 6 0
e_iTasks.Extensions.CSVFile_eaexportCSVFileWith
	jsr_eval 4
	jsr_eval 3
	jsr_eval 2
	jsr_eval 1
	jsr_eval 0
	push_array 3
	pushC_a 3
	pushC_a 2
	pushC_a 1
	update_a 0 4
	pop_a 4
.o 3 3 ccc
e_iTasks.Extensions.CSVFile_sexportCSVFileWith
.o 3 3 ccc
s9
	buildC_b 2
	buildC_b 1
	buildC_b 0
	push_a 4
	push_a 4
	buildh ARRAY 1
	buildh e_iTasks.Extensions.CSVFile_deval;26.27 5
	updatepop_a 0 2
	pop_b 3
.d 2 0
	jmp e_iTasks.Internal.Task_smkInstantTask
.export e_iTasks.Extensions.CSVFile_deval;26.27
.desc e_iTasks.Extensions.CSVFile_deval;26.27 _hnf l27 7 0 "eval;26.27"
.a 0 a27
.o 2 0
l27
	repl_args 6 6
.o 7 0
a27
.d 7 0
	jsr ea27
.o 2 0
	push_a 1
	push_a 1
	buildh _Tuple 2
	updatepop_a 0 2
.d 1 0
	rtn
.o 7 0
ea27
	jsr_eval 6
	push_array 0
	update_a 0 1
	pop_a 1
.o 7 0
s27
	push_a 4
	push_a 4
	push_a 4
	buildh e_Text.CSV_dwriteCSVFileWith 3
	push_a 7
	push_a 3
	push_a 3
	push_a 9
	push_a 4
	update_a 4 5
	update_a 0 4
	pop_a 1
	update_a 4 11
	update_a 3 10
	update_a 2 9
	update_a 1 8
	updatepop_a 0 7
.d 5 0
	jmp s10
.export e_iTasks.Extensions.CSVFile_d\;77;21;28.29
.desc e_iTasks.Extensions.CSVFile_d\;77;21;28.29 _hnf l29 2 0 "\;77;21;28.29"
.a 0 ea29
.o 2 0
l29
	repl_args 1 1
.o 2 0
ea29
	jsr_eval 0
.o 2 0
s29
	updatepop_a 0 1
.d 1 0
	rtn
.export e_iTasks.Extensions.CSVFile_screateCSVFile
.export e_iTasks.Extensions.CSVFile_eacreateCSVFile
.descexp e_iTasks.Extensions.CSVFile_dcreateCSVFile e_iTasks.Extensions.CSVFile_ncreateCSVFile e_iTasks.Extensions.CSVFile_lcreateCSVFile 2 0 "createCSVFile"
.a 2 e_iTasks.Extensions.CSVFile_eacreateCSVFile
.o 2 0
e_iTasks.Extensions.CSVFile_lcreateCSVFile
	push_args 0 1 1
	update_a 2 1
	create
	update_a 0 3
	pop_a 1
.d 3 0
	jmp e_iTasks.Extensions.CSVFile_eacreateCSVFile
.n 2 e_iTasks.Extensions.CSVFile_dcreateCSVFile e_iTasks.Extensions.CSVFile_eacreateCSVFile
.o 1 0
e_iTasks.Extensions.CSVFile_ncreateCSVFile
	push_node _cycle_in_spine 2
.o 3 0
e_iTasks.Extensions.CSVFile_eacreateCSVFile
	jsr_eval 1
	jsr_eval 0
	push_array 0
	update_a 0 1
	pop_a 1
.o 3 0
e_iTasks.Extensions.CSVFile_screateCSVFile
.o 3 0
s5
	push_a 1
	push_a 1
	buildh ARRAY 1
	buildh e_iTasks.Extensions.CSVFile_d\;34;10;20.21 2
	buildh e_iTasks.Extensions.Document_dTD;Document 0
	buildhr e__SystemDynamic_kTypeCons 1 0
	buildh e_iTasks.Extensions.Document_dgEq_Document;8 0
	buildh e_iTasks.Extensions.Document_dJSONDecode_Document;7 0
	buildh e_iTasks.Extensions.Document_dJSONEncode_Document;6 0
	buildh e_iTasks.Extensions.Document_dgText_Document;9 0
	buildh e_iTasks.Extensions.Document_dgEditor_Document;10 0
	update_a 6 8
	update_a 5 7
	update_a 4 6
	update_a 3 5
	update_a 2 4
	update_a 1 3
	updatepop_a 0 2
.d 8 0
	jmp e_iTasks.WF.Combinators.SDS_swithTemporaryDirectory
.export e_iTasks.Extensions.CSVFile_d\;34;10;20.21
.desc e_iTasks.Extensions.CSVFile_d\;34;10;20.21 _hnf l21 3 0 "\;34;10;20.21"
.a 3 ea21
.o 2 0
l21
	push_args 0 2 2
	update_a 3 2
	create
	update_a 0 4
	pop_a 1
.o 4 0
ea21
	push_array 0
	update_a 0 1
	pop_a 1
.o 4 0
s21
	push_a 0
	push_a 3
	build e_iTasks.Extensions.CSVFile_d_f0.241 2 e_iTasks.Extensions.CSVFile_n_f0.241
	buildh e_iTasks.Extensions.CSVFile_d\;77;21;27.28 1
	create
	push_a 3
	push_a 3
	buildh _Nil 0
	update_a 0 5
	update_a 0 6
	update_a 0 7
	pop_a 1
.d 3 0
	jsr s8
.o 1 0
	buildh e_iTasks.Extensions.CSVFile_dJSONEncode_s;564.33 0
	buildh e__SystemDynamic_dTC_Char 0
	buildhr e__SystemDynamic_kTypeCons 1 0
	buildh e__SystemDynamic_dTC__UnboxedArray 0
	buildhr e__SystemDynamic_kTypeCons 1 0
	buildhr e__SystemDynamic_kTypeApp 2 0
	buildh e__SystemDynamic_dTC__List 0
	buildhr e__SystemDynamic_kTypeCons 1 0
	buildhr e__SystemDynamic_kTypeApp 2 0
	buildh e__SystemDynamic_dTC__List 0
	buildhr e__SystemDynamic_kTypeCons 1 0
	buildhr e__SystemDynamic_kTypeApp 2 0
	update_a 3 6
	update_a 2 5
	update_a 1 4
	updatepop_a 0 3
.d 5 0
	jmp e_iTasks.WF.Combinators.Common_s>>-
.export e_iTasks.Extensions.CSVFile_d_f0.241
.export e_iTasks.Extensions.CSVFile_n_f0.241
.descn e_iTasks.Extensions.CSVFile_d_f0.241 e_iTasks.Extensions.CSVFile_n_f0.241 2 0 "_f0.241"
.n 2 e_iTasks.Extensions.CSVFile_d_f0.241 ea241
.o 1 0
e_iTasks.Extensions.CSVFile_n_f0.241
	push_node _cycle_in_spine 2
.o 3 0
ea241
.o 3 0
s241
	push_a 0
	jsr_eval 0
	push_array 0
	updatepop_a 0 1
	push_a 2
	push_a 1
	update_a 1 2
	update_a 0 1
	pop_a 1
	update_a 1 3
	updatepop_a 0 2
.d 2 0
	jsr e_System.FilePath_s</>
.o 1 0
	pushB FALSE
.d 2 1 b
	jmp e_iTasks.Extensions.Document_simportDocument
.export e_iTasks.Extensions.CSVFile_dJSONEncode_s;564.33
.desc e_iTasks.Extensions.CSVFile_dJSONEncode_s;564.33 _hnf l33 2 0 "JSONEncode_s;564.33"
.o 3 1 b
i33
	pop_a 1
.d 2 1 b
	jmp s33
.ai 2 ea33 i33
.o 2 0
l33
	push_args 0 1 1
	update_a 2 1
	create
	update_a 0 3
	pop_a 1
.o 3 0
ea33
	jsr_eval 1
	jsr_eval 0
	pushB_a 0
	pop_a 1
.o 2 1 b
s33
	buildh e_iTasks.Extensions.CSVFile_dJSONEncode_s;563.32 0
	push_a 1
	push_b 0
	push_a 1
	update_a 1 2
	update_a 0 1
	pop_a 1
	update_a 1 2
	updatepop_a 0 1
	updatepop_b 0 1
.d 3 1 b
	jmp e_Text.GenJSON_sJSONEncode__List;17
.export e_iTasks.Extensions.CSVFile_dJSONEncode_s;563.32
.desc e_iTasks.Extensions.CSVFile_dJSONEncode_s;563.32 _hnf l32 2 0 "JSONEncode_s;563.32"
.o 3 1 b
i32
	pop_a 1
.d 2 1 b
	jmp s32
.ai 2 ea32 i32
.o 2 0
l32
	push_args 0 1 1
	update_a 2 1
	create
	update_a 0 3
	pop_a 1
.o 3 0
ea32
	jsr_eval 1
	jsr_eval 0
	pushB_a 0
	pop_a 1
.o 2 1 b
s32
	buildh e_Text.GenJSON_dJSONEncode__String;16 0
	push_a 1
	push_b 0
	push_a 1
	update_a 1 2
	update_a 0 1
	pop_a 1
	update_a 1 2
	updatepop_a 0 1
	updatepop_b 0 1
.d 3 1 b
	jmp e_Text.GenJSON_sJSONEncode__List;17
.export e_iTasks.Extensions.CSVFile_sexportCSVFile
.export e_iTasks.Extensions.CSVFile_eaexportCSVFile
.descexp e_iTasks.Extensions.CSVFile_dexportCSVFile e_iTasks.Extensions.CSVFile_nexportCSVFile e_iTasks.Extensions.CSVFile_lexportCSVFile 2 0 "exportCSVFile"
.a 2 e_iTasks.Extensions.CSVFile_eaexportCSVFile
.o 2 0
e_iTasks.Extensions.CSVFile_lexportCSVFile
	push_args 0 1 1
	update_a 2 1
	create
	update_a 0 3
	pop_a 1
.d 3 0
	jmp e_iTasks.Extensions.CSVFile_eaexportCSVFile
.n 2 e_iTasks.Extensions.CSVFile_dexportCSVFile e_iTasks.Extensions.CSVFile_eaexportCSVFile
.o 1 0
e_iTasks.Extensions.CSVFile_nexportCSVFile
	push_node _cycle_in_spine 2
.o 3 0
e_iTasks.Extensions.CSVFile_eaexportCSVFile
	jsr_eval 1
	jsr_eval 0
	push_array 0
	update_a 0 1
	pop_a 1
.o 3 0
e_iTasks.Extensions.CSVFile_sexportCSVFile
.o 3 0
s8
	push_a 1
	push_a 1
	buildh ARRAY 1
	buildh e_iTasks.Extensions.CSVFile_deval;25.26 2
	updatepop_a 0 2
.d 2 0
	jmp e_iTasks.Internal.Task_smkInstantTask
.export e_iTasks.Extensions.CSVFile_deval;25.26
.desc e_iTasks.Extensions.CSVFile_deval;25.26 _hnf l26 4 0 "eval;25.26"
.a 0 a26
.o 2 0
l26
	repl_args 3 3
.o 4 0
a26
.d 4 0
	jsr ea26
.o 2 0
	push_a 1
	push_a 1
	buildh _Tuple 2
	updatepop_a 0 2
.d 1 0
	rtn
.o 4 0
ea26
	jsr_eval 3
	push_array 0
	update_a 0 1
	pop_a 1
.o 4 0
s26
	buildh e_Text.CSV_dwriteCSVFile 0
	push_a 4
	push_a 3
	push_a 3
	push_a 6
	push_a 4
	update_a 4 5
	update_a 0 4
	pop_a 1
	update_a 4 8
	update_a 3 7
	update_a 2 6
	update_a 1 5
	updatepop_a 0 4
.d 5 0
	jmp s10
.o 5 0
s10
	push_r_args_u 4 26 1
	update_a 23 25
	update_a 2 24
	pop_a 24
	pop_b 1
	repl_r_args 2 3
	pop_a 2
	pop_b 3
	push_a 0
	pushI 4
	push_a 3
	update_a 1 3
	updatepop_a 0 2
.d 2 1 i
	jsr e_StdFile_sfopen;32
.o 1 3 bf
	push_b 0
	notB
	jmp_false else.3
	push_a 0
	fill2_r e_iTasks.Internal.IWorld_rIWorld 26 1 5 0000000000000000000000001000
	push_a 4
	push_a 2
	buildh ARRAY 1
	build e_iTasks.Extensions.CSVFile_dopenException.15 1 e_iTasks.Extensions.CSVFile_nopenException.15
	update_a 1 6
	updatepop_a 0 5
	pop_b 3
.d 2 0
	rtn
else.3
	buildF_b 1
	push_a 3
	push_a 5
	pop_b 3
	buildh _Nil 0
	update_a 0 7
	pop_a 1
	jsr_ap 2
	pushF_a 0
	pop_a 1
	push_a 0
	updatepop_a 0 1
.d 1 2 f
	jsr e_StdFile_sfclose;31
.o 1 1 b
	push_b 0
	notB
	jmp_false else.4
	push_a 0
	fill2_r e_iTasks.Internal.IWorld_rIWorld 26 1 5 0000000000000000000000001000
	push_a 4
	push_a 2
	buildh ARRAY 1
	build e_iTasks.Extensions.CSVFile_dcloseException.16 1 e_iTasks.Extensions.CSVFile_ncloseException.16
	update_a 1 6
	updatepop_a 0 5
	pop_b 1
.d 2 0
	rtn
else.4
	push_a 0
	fill2_r e_iTasks.Internal.IWorld_rIWorld 26 1 5 0000000000000000000000001000
	push_a 4
	push_a 3
	buildh e_Data.Error_dOk 1
	update_a 1 6
	updatepop_a 0 5
	pop_b 1
.d 2 0
	rtn
.export e_iTasks.Extensions.CSVFile_d\;77;21;27.28
.desc e_iTasks.Extensions.CSVFile_d\;77;21;27.28 _hnf l28 2 0 "\;77;21;27.28"
.a 0 ea28
.o 2 0
l28
	repl_args 1 1
.o 2 0
ea28
	jsr_eval 0
.o 2 0
s28
	updatepop_a 0 1
.d 1 0
	rtn
.export e_iTasks.Extensions.CSVFile_simportCSVDocumentWith
.export e_iTasks.Extensions.CSVFile_eaimportCSVDocumentWith
.descexp e_iTasks.Extensions.CSVFile_dimportCSVDocumentWith e_iTasks.Extensions.CSVFile_nimportCSVDocumentWith e_iTasks.Extensions.CSVFile_limportCSVDocumentWith 4 0 "importCSVDocumentWith"
.a 4 e_iTasks.Extensions.CSVFile_eaimportCSVDocumentWith
.o 2 0
e_iTasks.Extensions.CSVFile_limportCSVDocumentWith
	push_args 0 3 3
	update_a 4 3
	create
	update_a 0 5
	pop_a 1
.d 5 0
	jmp e_iTasks.Extensions.CSVFile_eaimportCSVDocumentWith
.n 4 e_iTasks.Extensions.CSVFile_dimportCSVDocumentWith e_iTasks.Extensions.CSVFile_eaimportCSVDocumentWith
.o 1 0
e_iTasks.Extensions.CSVFile_nimportCSVDocumentWith
	push_node _cycle_in_spine 4
.o 5 0
e_iTasks.Extensions.CSVFile_eaimportCSVDocumentWith
	jsr_eval 3
	jsr_eval 2
	jsr_eval 1
	jsr_eval 0
	push_r_args 3 4 1
	pushC_a 6
	pushC_a 5
	pushC_a 4
	update_a 3 7
	update_a 2 6
	update_a 1 5
	update_a 0 4
	pop_a 4
.o 5 4 ccci
e_iTasks.Extensions.CSVFile_simportCSVDocumentWith
.o 5 4 ccci
s4
	push_a 0
	buildh ARRAY 1
	buildC_b 2
	buildC_b 1
	buildC_b 0
	buildh e_iTasks.Extensions.CSVFile_deval;19.20 4
	updatepop_a 0 4
	pop_b 4
.d 2 0
	jmp e_iTasks.Internal.Task_smkInstantTask
.export e_iTasks.Extensions.CSVFile_deval;19.20
.desc e_iTasks.Extensions.CSVFile_deval;19.20 _hnf l20 6 0 "eval;19.20"
.a 0 a20
.o 2 0
l20
	repl_args 5 5
.o 6 0
a20
.d 6 0
	jsr ea20
.o 2 0
	push_a 1
	push_a 1
	buildh _Tuple 2
	updatepop_a 0 2
.d 1 0
	rtn
.o 6 0
ea20
	jsr_eval 5
	push_array 3
	update_a 0 4
	pop_a 1
.o 6 0
s20
	push_a 5
	push_a 4
	buildh _Nil 0
	update_a 0 6
	update_a 0 8
	pop_a 1
.d 2 0
	jsr e_iTasks.Internal.TaskState_sdocumentLocation
.o 2 0
	push_a 4
	push_a 4
	push_a 4
	buildh e_Text.CSV_dreadCSVFileWith 3
	push_a 2
	push_a 2
	push_a 9
	push_a 3
	update_a 3 4
	update_a 0 3
	pop_a 1
	update_a 3 11
	update_a 2 10
	update_a 1 9
	updatepop_a 0 8
.d 4 0
	jmp s11
.export e_iTasks.Extensions.CSVFile_simportCSVFileWith
.export e_iTasks.Extensions.CSVFile_eaimportCSVFileWith
.descexp e_iTasks.Extensions.CSVFile_dimportCSVFileWith e_iTasks.Extensions.CSVFile_nimportCSVFileWith e_iTasks.Extensions.CSVFile_limportCSVFileWith 4 0 "importCSVFileWith"
.a 4 e_iTasks.Extensions.CSVFile_eaimportCSVFileWith
.o 2 0
e_iTasks.Extensions.CSVFile_limportCSVFileWith
	push_args 0 3 3
	update_a 4 3
	create
	update_a 0 5
	pop_a 1
.d 5 0
	jmp e_iTasks.Extensions.CSVFile_eaimportCSVFileWith
.n 4 e_iTasks.Extensions.CSVFile_dimportCSVFileWith e_iTasks.Extensions.CSVFile_eaimportCSVFileWith
.o 1 0
e_iTasks.Extensions.CSVFile_nimportCSVFileWith
	push_node _cycle_in_spine 4
.o 5 0
e_iTasks.Extensions.CSVFile_eaimportCSVFileWith
	jsr_eval 3
	jsr_eval 2
	jsr_eval 1
	jsr_eval 0
	push_array 3
	pushC_a 3
	pushC_a 2
	pushC_a 1
	update_a 0 4
	pop_a 4
.o 2 3 ccc
e_iTasks.Extensions.CSVFile_simportCSVFileWith
.o 2 3 ccc
s3
	buildC_b 2
	buildC_b 1
	buildC_b 0
	push_a 3
	buildh ARRAY 1
	buildh e_iTasks.Extensions.CSVFile_deval;18.19 4
	updatepop_a 0 1
	pop_b 3
.d 2 0
	jmp e_iTasks.Internal.Task_smkInstantTask
.export e_iTasks.Extensions.CSVFile_deval;18.19
.desc e_iTasks.Extensions.CSVFile_deval;18.19 _hnf l19 6 0 "eval;18.19"
.a 0 a19
.o 2 0
l19
	repl_args 5 5
.o 6 0
a19
.d 6 0
	jsr ea19
.o 2 0
	push_a 1
	push_a 1
	buildh _Tuple 2
	updatepop_a 0 2
.d 1 0
	rtn
.o 6 0
ea19
	jsr_eval 5
	push_array 0
	update_a 0 1
	pop_a 1
.o 6 0
s19
	push_a 3
	push_a 3
	push_a 3
	buildh e_Text.CSV_dreadCSVFileWith 3
	push_a 6
	push_a 2
	push_a 7
	push_a 3
	update_a 3 4
	update_a 0 3
	pop_a 1
	update_a 3 9
	update_a 2 8
	update_a 1 7
	updatepop_a 0 6
.d 4 0
	jmp s11
.export e_iTasks.Extensions.CSVFile_simportCSVDocument
.export e_iTasks.Extensions.CSVFile_eaimportCSVDocument
.descexp e_iTasks.Extensions.CSVFile_dimportCSVDocument e_iTasks.Extensions.CSVFile_nimportCSVDocument e_iTasks.Extensions.CSVFile_limportCSVDocument 1 0 "importCSVDocument"
.o 2 0
e_iTasks.Extensions.CSVFile_limportCSVDocument
	update_a 1 0
	create
	update_a 0 2
	pop_a 1
.d 2 0
	jmp e_iTasks.Extensions.CSVFile_eaimportCSVDocument
.n 1 e_iTasks.Extensions.CSVFile_dimportCSVDocument e_iTasks.Extensions.CSVFile_eaimportCSVDocument
.o 1 0
e_iTasks.Extensions.CSVFile_nimportCSVDocument
	push_node _cycle_in_spine 1
.o 2 0
e_iTasks.Extensions.CSVFile_eaimportCSVDocument
	jsr_eval 0
	repl_r_args 4 1
.o 5 1 i
e_iTasks.Extensions.CSVFile_simportCSVDocument
.o 5 1 i
s2
	push_a 0
	buildh ARRAY 1
	buildh e_iTasks.Extensions.CSVFile_deval;17.18 1
	updatepop_a 0 4
	pop_b 1
.d 2 0
	jmp e_iTasks.Internal.Task_smkInstantTask
.export e_iTasks.Extensions.CSVFile_deval;17.18
.desc e_iTasks.Extensions.CSVFile_deval;17.18 _hnf l18 3 0 "eval;17.18"
.a 0 a18
.o 2 0
l18
	repl_args 2 2
.o 3 0
a18
.d 3 0
	jsr ea18
.o 2 0
	push_a 1
	push_a 1
	buildh _Tuple 2
	updatepop_a 0 2
.d 1 0
	rtn
.o 3 0
ea18
	jsr_eval 2
	push_array 0
	update_a 0 1
	pop_a 1
.o 3 0
s18
	push_a 2
	push_a 1
	update_a 3 4
	update_a 1 3
	updatepop_a 0 2
.d 2 0
	jsr e_iTasks.Internal.TaskState_sdocumentLocation
.o 2 0
	buildh e_Text.CSV_dreadCSVFile 0
	push_a 2
	push_a 2
	push_a 5
	push_a 3
	update_a 3 4
	update_a 0 3
	pop_a 1
	update_a 3 6
	update_a 2 5
	update_a 1 4
	updatepop_a 0 3
.d 4 0
	jmp s11
.export e_iTasks.Extensions.CSVFile_simportCSVFile
.export e_iTasks.Extensions.CSVFile_eaimportCSVFile
.descexp e_iTasks.Extensions.CSVFile_dimportCSVFile e_iTasks.Extensions.CSVFile_nimportCSVFile e_iTasks.Extensions.CSVFile_limportCSVFile 1 0 "importCSVFile"
.o 2 0
e_iTasks.Extensions.CSVFile_limportCSVFile
	update_a 1 0
	create
	update_a 0 2
	pop_a 1
.d 2 0
	jmp e_iTasks.Extensions.CSVFile_eaimportCSVFile
.n 1 e_iTasks.Extensions.CSVFile_dimportCSVFile e_iTasks.Extensions.CSVFile_eaimportCSVFile
.o 1 0
e_iTasks.Extensions.CSVFile_nimportCSVFile
	push_node _cycle_in_spine 1
.o 2 0
e_iTasks.Extensions.CSVFile_eaimportCSVFile
	jsr_eval 0
	push_array 0
	update_a 0 1
	pop_a 1
.o 2 0
e_iTasks.Extensions.CSVFile_simportCSVFile
.o 2 0
s1
	push_a 0
	buildh ARRAY 1
	buildh e_iTasks.Extensions.CSVFile_deval;16.17 1
	updatepop_a 0 1
.d 2 0
	jmp e_iTasks.Internal.Task_smkInstantTask
.export e_iTasks.Extensions.CSVFile_deval;16.17
.desc e_iTasks.Extensions.CSVFile_deval;16.17 _hnf l17 3 0 "eval;16.17"
.a 0 a17
.o 2 0
l17
	repl_args 2 2
.o 3 0
a17
.d 3 0
	jsr ea17
.o 2 0
	push_a 1
	push_a 1
	buildh _Tuple 2
	updatepop_a 0 2
.d 1 0
	rtn
.o 3 0
ea17
	jsr_eval 2
	push_array 0
	update_a 0 1
	pop_a 1
.o 3 0
s17
	buildh e_Text.CSV_dreadCSVFile 0
	push_a 3
	push_a 2
	push_a 4
	push_a 3
	update_a 3 4
	update_a 0 3
	pop_a 1
	update_a 3 6
	update_a 2 5
	update_a 1 4
	updatepop_a 0 3
.d 4 0
	jmp s11
.o 4 0
s11
	push_r_args_u 3 26 1
	update_a 23 25
	update_a 2 24
	pop_a 24
	pop_b 1
	repl_r_args 2 3
	pop_a 2
	pop_b 3
	push_a 0
	pushI 3
	push_a 3
	update_a 1 3
	updatepop_a 0 2
.d 2 1 i
	jsr e_StdFile_sfopen;32
.o 1 3 bf
	push_b 0
	notB
	jmp_false else.5
	push_a 0
	fill2_r e_iTasks.Internal.IWorld_rIWorld 26 1 4 0000000000000000000000001000
	push_a 3
	push_a 2
	buildh ARRAY 1
	build e_iTasks.Extensions.CSVFile_dopenException.15 1 e_iTasks.Extensions.CSVFile_nopenException.15
	update_a 1 5
	updatepop_a 0 4
	pop_b 3
.d 2 0
	rtn
else.5
	push_a 2
	jsr_eval 0
	buildF_b 1
	push_a 1
	update_a 1 2
	update_a 0 1
	pop_a 1
	pop_b 3
	buildh _Nil 0
	update_a 0 5
	pop_a 1
	jsr_ap 1
	push_arg 0 2 2
	jsr_eval 0
	pushF_a 0
	pop_a 1
	push_a 1
	update_a 3 4
	update_a 1 3
	updatepop_a 0 2
.d 1 2 f
	jsr e_StdFile_sfclose;31
.o 1 1 b
	push_b 0
	notB
	jmp_false else.6
	push_a 0
	fill2_r e_iTasks.Internal.IWorld_rIWorld 26 1 4 0000000000000000000000001000
	push_a 3
	push_a 3
	buildh ARRAY 1
	build e_iTasks.Extensions.CSVFile_dcloseException.16 1 e_iTasks.Extensions.CSVFile_ncloseException.16
	update_a 1 5
	updatepop_a 0 4
	pop_b 1
.d 2 0
	rtn
else.6
	push_a 0
	fill2_r e_iTasks.Internal.IWorld_rIWorld 26 1 4 0000000000000000000000001000
	push_a 3
	push_arg 2 2 1
	buildh e_Data.Error_dOk 1
	update_a 1 5
	updatepop_a 0 4
	pop_b 1
.d 2 0
	rtn
.export e_iTasks.Extensions.CSVFile_dcloseException.16
.export e_iTasks.Extensions.CSVFile_ncloseException.16
.descn e_iTasks.Extensions.CSVFile_dcloseException.16 e_iTasks.Extensions.CSVFile_ncloseException.16 1 0 "closeException.16"
.n 1 e_iTasks.Extensions.CSVFile_dcloseException.16 ea16
.o 1 0
e_iTasks.Extensions.CSVFile_ncloseException.16
	push_node _cycle_in_spine 1
.o 2 0
ea16
.o 2 0
s16
	buildh e_System.File_dCannotClose 0
	push_a 1
	build e_iTasks.Extensions.Document_dFileException 2 e_iTasks.Extensions.Document_nFileException
	push_a 0
	build e_iTasks.Extensions.Document_dtoString;5 1 e_iTasks.Extensions.Document_ntoString;5
	buildh e_iTasks.Extensions.Document_dTD;FileException 0
	buildhr e__SystemDynamic_kTypeCons 1 0
	push_a 2
	buildhr e__SystemDynamic_rDynamicTemp 2 0
	buildh _Tuple 2
	fillh e_Data.Error_dError 1 3
	pop_a 2
.d 1 0
	rtn
.export e_iTasks.Extensions.CSVFile_dopenException.15
.export e_iTasks.Extensions.CSVFile_nopenException.15
.descn e_iTasks.Extensions.CSVFile_dopenException.15 e_iTasks.Extensions.CSVFile_nopenException.15 1 0 "openException.15"
.n 1 e_iTasks.Extensions.CSVFile_dopenException.15 ea15
.o 1 0
e_iTasks.Extensions.CSVFile_nopenException.15
	push_node _cycle_in_spine 1
.o 2 0
ea15
.o 2 0
s15
	buildh e_System.File_dCannotOpen 0
	push_a 1
	build e_iTasks.Extensions.Document_dFileException 2 e_iTasks.Extensions.Document_nFileException
	push_a 0
	build e_iTasks.Extensions.Document_dtoString;5 1 e_iTasks.Extensions.Document_ntoString;5
	buildh e_iTasks.Extensions.Document_dTD;FileException 0
	buildhr e__SystemDynamic_kTypeCons 1 0
	push_a 2
	buildhr e__SystemDynamic_rDynamicTemp 2 0
	buildh _Tuple 2
	fillh e_Data.Error_dError 1 3
	pop_a 2
.d 1 0
	rtn
