.comp 920 000011110011000
.start _nostart_
.depend "Text.Parsers.ZParsers.ParserLanguage" "20210609153506"
.depend "Text.Parsers.ZParsers.ParsersDerived" "20210609153506"
.depend "Text.Parsers.ZParsers.ParsersKernel" "20210609153506"
.depend "StdCharList" "20210609153507"
.depend "_SystemArray" "20210609153507"
.depend "StdArray" "20210609153507"
.depend "StdEnv" "20210609153507"
.depend "_SystemEnum" "20210609153507"
.depend "StdEnum" "20210609153507"
.depend "StdTuple" "20210609153507"
.depend "StdOrdList" "20210609153507"
.depend "StdFile" "20210609153507"
.depend "StdMisc" "20210609153507"
.depend "StdFunctions" "20210609153507"
.depend "StdString" "20210609153507"
.depend "_SystemEnumStrict" "20210609153507"
.depend "_SystemStrictLists" "20210609153507"
.depend "StdStrictLists" "20210609153507"
.depend "StdReal" "20210609153507"
.depend "StdChar" "20210609153507"
.depend "StdInt" "20210609153507"
.depend "StdBool" "20210609153507"
.depend "StdClass" "20210609153507"
.depend "StdList" "20210609153507"
.depend "Data.Monoid" "20210609153506"
.depend "Control.Applicative" "20210609153506"
.depend "Control.Monad" "20210609153506"
.depend "Data.Functor" "20210609153506"
.depend "StdOverloaded" "20210609153507"
.depend "_SystemDynamic" "20210609153507"
.depend "Text.Parsers.ZParsers.ParsersAccessories" "20210609153506"
.module m_Text.Parsers.ZParsers.ParsersAccessories "Text.Parsers.ZParsers.ParsersAccessories" "20210609153506"
.endinfo
.impmod _system
.implab _cycle_in_spine
.implab _type_error
.implab _hnf
.impdesc e_system_dind
.implab e_system_nind e_system_eaind
.impdesc e_system_dif
.implab e_system_nif e_system_eaif
.implab e_system_sif
.impdesc e_system_dAP
.implab e_system_nAP e_system_eaAP
.implab e_system_sAP
.impdesc ARRAY
.impdesc _Nil
.impdesc _Cons
.impdesc _Conss
.implab n_Conss ea_Conss
.impdesc _Consts
.implab n_Consts ea_Consts
.impdesc _Conssts
.implab n_Conssts ea_Conssts
.impdesc _Tuple
.impdesc d_S.1
.implab n_S.1 ea_S.1
.impdesc d_S.2
.implab n_S.2 ea_S.2
.impdesc d_S.3
.implab n_S.3 ea_S.3
.impdesc d_S.4
.implab n_S.4 ea_S.4
.impdesc d_S.5
.implab n_S.5 ea_S.5
.impdesc d_S.6
.implab n_S.6 ea_S.6
.implab _driver
.impmod Text.Parsers.ZParsers.ParserLanguage
.implab e_Text.Parsers.ZParsers.ParserLanguage_scantAnalyseAsOf
.implab e_Text.Parsers.ZParsers.ParserLanguage_snoOptions
.implab e_Text.Parsers.ZParsers.ParserLanguage_soptionsToSolve
.implab e_Text.Parsers.ZParsers.ParserLanguage_sandWithinThat
.implab e_Text.Parsers.ZParsers.ParserLanguage_ssliceOf
.impmod Text.Parsers.ZParsers.ParsersDerived
.implab e_Text.Parsers.ZParsers.ParsersDerived_s<.*>
.implab e_Text.Parsers.ZParsers.ParsersDerived_s<!*>
.implab e_Text.Parsers.ZParsers.ParsersDerived_s<!+>
.implab e_Text.Parsers.ZParsers.ParsersDerived_s<@
.impmod Text.Parsers.ZParsers.ParsersKernel
.implab e_Text.Parsers.ZParsers.ParsersKernel_sfail
.impdesc e_Text.Parsers.ZParsers.ParsersKernel_dsymbol
.impdesc e_Text.Parsers.ZParsers.ParsersKernel_dsatisfy
.implab e_Text.Parsers.ZParsers.ParsersKernel_ssatisfy
.implab e_Text.Parsers.ZParsers.ParsersKernel_nsatisfy e_Text.Parsers.ZParsers.ParsersKernel_easatisfy
.impdesc e_Text.Parsers.ZParsers.ParsersKernel_dtoken
.implab e_Text.Parsers.ZParsers.ParsersKernel_s<!>
.implab e_Text.Parsers.ZParsers.ParsersKernel_s<&>
.implab e_Text.Parsers.ZParsers.ParsersKernel_sdropCheck
.implab e_Text.Parsers.ZParsers.ParsersKernel_s:=>
.impdesc e_Text.Parsers.ZParsers.ParsersKernel_d==;33
.impmod _SystemEnum
.implab e__SystemEnum_s_from_to;7
.impmod StdMisc
.implab e_StdMisc_sabort
.impdesc e_StdMisc_dundef
.implab e_StdMisc_nundef _
.impmod StdString
.implab e_StdString_stoString;5
.implab e_StdString_stoString;9
.implab e_StdString_s+++;11
.impmod StdChar
.implab e_StdChar_sdigitToInt
.impdesc e_StdChar_disAlpha
.impdesc e_StdChar_disAlphanum
.impdesc e_StdChar_disHexDigit
.implab e_StdChar_sisSpace
.impmod StdInt
.impdesc e_StdInt_d+;6
.implab e_StdInt_s+;6
.implab e_StdInt_n+;6
.implab e_StdInt_s-;7
.implab e_StdInt_s*;9
.implab e_StdInt_s<;17
.implab e_StdInt_srem;28
.impmod StdList
.implab e_StdList_s++
.implab e_StdList_sreverse
.implab e_StdList_smap
.implab e_StdList_srepeatn
.implab e_StdList_s==;45
.impdesc e_StdList_dtoString;49
.implab e_StdList_sisMember;52
.implab e_StdList_stoString;79
.impmod Text.Parsers.ZParsers.ParsersKernel
.impdesc e_Text.Parsers.ZParsers.ParsersKernel_dWhole
.impdesc e_Text.Parsers.ZParsers.ParsersKernel_dSlice
.impdesc e_Text.Parsers.ZParsers.ParsersKernel_dAt
.impdesc e_Text.Parsers.ZParsers.ParsersKernel_dEndAt
.impdesc e_Text.Parsers.ZParsers.ParsersKernel_dRoseLeaf
.impdesc e_Text.Parsers.ZParsers.ParsersKernel_dRoseTwig
.impmod StdOverloaded
.impdesc e_StdOverloaded_r==;
.impdesc e_StdOverloaded_dtoString;.toString
.implab e_StdOverloaded_ntoString;.toString e_StdOverloaded_eatoString;.toString
.export e_Text.Parsers.ZParsers.ParsersAccessories_rspace;
.record e_Text.Parsers.ZParsers.ParsersAccessories_rspace; a 1 0 "space;"
.descexp e_Text.Parsers.ZParsers.ParsersAccessories_tspace; e_Text.Parsers.ZParsers.ParsersAccessories_cspace; _hnf 1 1 "space;"
.n 1 e_Text.Parsers.ZParsers.ParsersAccessories_tspace;
.o 1 0
e_Text.Parsers.ZParsers.ParsersAccessories_cspace;
	push_node _cycle_in_spine 1
	jsr_eval 0
.impmod Text.Parsers.ZParsers.ParsersAccessories
.impdesc e_Text.Parsers.ZParsers.ParsersAccessories_rspace;
	fill_r e_Text.Parsers.ZParsers.ParsersAccessories_rspace; 1 0 1 0 0
	pop_a 1
.d 1 0
	rtn
.export e_Text.Parsers.ZParsers.ParsersAccessories_dspace;.space
.export e_Text.Parsers.ZParsers.ParsersAccessories_nspace;.space
.export e_Text.Parsers.ZParsers.ParsersAccessories_easpace;.space
.descs e_Text.Parsers.ZParsers.ParsersAccessories_dspace;.space e_Text.Parsers.ZParsers.ParsersAccessories_nspace;.space _ 1 0 "space;.space"
.n -4 e_Text.Parsers.ZParsers.ParsersAccessories_dspace;.space e_Text.Parsers.ZParsers.ParsersAccessories_easpace;.space
.o 1 0
e_Text.Parsers.ZParsers.ParsersAccessories_nspace;.space
	push_node _cycle_in_spine 1
.o 2 0
e_Text.Parsers.ZParsers.ParsersAccessories_easpace;.space
	jsr_eval 0
	repl_r_args_a 1 0 1 1
	fill_a 0 1
	pop_a 1
.d 1 0
	rtn
.export e_Text.Parsers.ZParsers.ParsersAccessories_sTD;space;
.export e_Text.Parsers.ZParsers.ParsersAccessories_eaTD;space;
.descexp e_Text.Parsers.ZParsers.ParsersAccessories_dTD;space; e_Text.Parsers.ZParsers.ParsersAccessories_nTD;space; e_Text.Parsers.ZParsers.ParsersAccessories_lTD;space; 1 0 "TD;space;"
.o 2 0
e_Text.Parsers.ZParsers.ParsersAccessories_lTD;space;
	update_a 1 0
	create
	update_a 0 2
	pop_a 1
.d 2 0
	jmp e_Text.Parsers.ZParsers.ParsersAccessories_eaTD;space;
.n 1 e_Text.Parsers.ZParsers.ParsersAccessories_dTD;space; e_Text.Parsers.ZParsers.ParsersAccessories_eaTD;space;
.o 1 0
e_Text.Parsers.ZParsers.ParsersAccessories_nTD;space;
	push_node _cycle_in_spine 1
.o 2 0
e_Text.Parsers.ZParsers.ParsersAccessories_eaTD;space;
.o 2 0
e_Text.Parsers.ZParsers.ParsersAccessories_sTD;space;
.o 2 0
s21
	fillh _Nil 0 1
	pop_a 1
.d 1 0
	rtn
.export e_Text.Parsers.ZParsers.ParsersAccessories_sspace;18
.descexp e_Text.Parsers.ZParsers.ParsersAccessories_dspace;18 e_Text.Parsers.ZParsers.ParsersAccessories_nspace;18 e_Text.Parsers.ZParsers.ParsersAccessories_lspace;18 1 0 "space;18"
.o 2 0
e_Text.Parsers.ZParsers.ParsersAccessories_ispace;18
	pop_a 1
	pushC_a 0
	pop_a 1
.d 0 1 c
	jmp s19
.ai 1 _ e_Text.Parsers.ZParsers.ParsersAccessories_ispace;18
.o 2 0
e_Text.Parsers.ZParsers.ParsersAccessories_lspace;18
	pop_a 1
.d 1 0
	jsr ea19
.o 0 1 b
	buildB_b 0
	pop_b 1
.d 1 0
	rtn
.n 1 e_Text.Parsers.ZParsers.ParsersAccessories_dspace;18
.o 1 0
e_Text.Parsers.ZParsers.ParsersAccessories_nspace;18
	push_node _cycle_in_spine 1
.d 1 0
	jsr ea19
.o 0 1 b
	fillB_b 0 0
	pop_b 1
.d 1 0
	rtn
.o 1 0
ea19
	jsr_eval 0
	pushC_a 0
	pop_a 1
.o 0 1 c
e_Text.Parsers.ZParsers.ParsersAccessories_sspace;18
.o 0 1 c
s19
	push_b 0
	updatepop_b 0 1
.d 0 1 c
	jmp e_StdChar_sisSpace
.export e_Text.Parsers.ZParsers.ParsersAccessories_ssimpleErrorToString
.descexp e_Text.Parsers.ZParsers.ParsersAccessories_dsimpleErrorToString e_Text.Parsers.ZParsers.ParsersAccessories_nsimpleErrorToString e_Text.Parsers.ZParsers.ParsersAccessories_lsimpleErrorToString 3 0 "simpleErrorToString"
.a 0 a15
.o 2 0
e_Text.Parsers.ZParsers.ParsersAccessories_lsimpleErrorToString
	repl_args 2 2
.o 3 0
a15
.d 3 0
	jsr ea15
.o 1 0
	buildh ARRAY 1
.d 1 0
	rtn
.n 3 e_Text.Parsers.ZParsers.ParsersAccessories_dsimpleErrorToString
.o 1 0
e_Text.Parsers.ZParsers.ParsersAccessories_nsimpleErrorToString
	push_node _cycle_in_spine 3
.d 3 0
	jsr ea15
.o 1 0
	fillh ARRAY 1 1
.d 1 0
	rtn
.o 3 0
ea15
	jsr_eval 2
	jsr_eval 1
.o 3 0
e_Text.Parsers.ZParsers.ParsersAccessories_ssimpleErrorToString
.o 3 0
s15
	build e_StdMisc_dundef 0 e_StdMisc_nundef
	create
	push_a 4
	push_a 4
	push_a 3
	update_a 3 4
	update_a 2 3
	update_a 0 2
	pop_a 1
	update_a 3 5
	update_a 2 4
	update_a 1 3
	updatepop_a 0 2
.d 4 0
	jsr s23
.o 1 0
	buildh e_Text.Parsers.ZParsers.ParsersAccessories_dsnd;40.41 0
	create
	push_a 2
	update_a 1 3
	update_a 2 1
	update_a 0 2
	pop_a 1
.d 3 0
	jsr e_StdList_smap
.o 1 0
	buildAC "/"
	buildh ARRAY 1
.d 2 0
	jsr s51
.o 1 0
	buildh e_Text.Parsers.ZParsers.ParsersAccessories_dtoString;34.35 0
	create
	push_a 3
	push_a 2
	update_a 2 3
	update_a 1 2
	update_a 0 1
	pop_a 1
	buildh _Nil 0
	update_a 0 5
	pop_a 1
.d 3 0
	jsr e_StdList_smap
.o 1 0
	buildAC ","
	buildh ARRAY 1
.d 2 0
	jsr s51
.o 1 0
	buildAC "]: "
	push_a 1
	update_a 1 2
	update_a 0 1
	pop_a 1
.d 2 0
	jsr catAC
.o 1 0
	buildAC "["
.d 2 0
	jsr catAC
.o 1 0
	update_a 1 2
	updatepop_a 0 1
.d 2 0
	jsr catAC
.o 1 0
.d 1 0
	rtn
.export e_Text.Parsers.ZParsers.ParsersAccessories_dsnd;40.41
.desc e_Text.Parsers.ZParsers.ParsersAccessories_dsnd;40.41 _hnf l41 1 0 "snd;40.41"
.o 2 0
l41
	pop_a 1
.o 1 0
ea41
	jsr_eval 0
	repl_args 2 2
	jsr_eval 1
.o 2 0
s41
	pop_a 1
.d 1 0
	rtn
.export e_Text.Parsers.ZParsers.ParsersAccessories_serrorToString
.descexp e_Text.Parsers.ZParsers.ParsersAccessories_derrorToString e_Text.Parsers.ZParsers.ParsersAccessories_nerrorToString e_Text.Parsers.ZParsers.ParsersAccessories_lerrorToString 3 0 "errorToString"
.a 0 a14
.o 2 0
e_Text.Parsers.ZParsers.ParsersAccessories_lerrorToString
	repl_args 2 2
.o 3 0
a14
.d 3 0
	jsr ea14
.o 1 0
	buildh ARRAY 1
.d 1 0
	rtn
.n 3 e_Text.Parsers.ZParsers.ParsersAccessories_derrorToString
.o 1 0
e_Text.Parsers.ZParsers.ParsersAccessories_nerrorToString
	push_node _cycle_in_spine 3
.d 3 0
	jsr ea14
.o 1 0
	fillh ARRAY 1 1
.d 1 0
	rtn
.o 3 0
ea14
.o 3 0
e_Text.Parsers.ZParsers.ParsersAccessories_serrorToString
.o 3 0
s14
	create
	push_a 3
	push_a 3
	push_a 3
	update_a 3 6
	update_a 2 5
	update_a 1 4
	updatepop_a 0 3
.d 4 0
	jsr s17
.o 1 0
	buildAC "\n"
	buildh ARRAY 1
.d 2 0
	jmp s51
.export e_Text.Parsers.ZParsers.ParsersAccessories_serrorToStrings
.export e_Text.Parsers.ZParsers.ParsersAccessories_eaerrorToStrings
.descexp e_Text.Parsers.ZParsers.ParsersAccessories_derrorToStrings e_Text.Parsers.ZParsers.ParsersAccessories_nerrorToStrings e_Text.Parsers.ZParsers.ParsersAccessories_lerrorToStrings 3 0 "errorToStrings"
.a 3 e_Text.Parsers.ZParsers.ParsersAccessories_eaerrorToStrings
.o 2 0
e_Text.Parsers.ZParsers.ParsersAccessories_lerrorToStrings
	push_args 0 2 2
	update_a 3 2
	create
	update_a 0 4
	pop_a 1
.d 4 0
	jmp e_Text.Parsers.ZParsers.ParsersAccessories_eaerrorToStrings
.n 3 e_Text.Parsers.ZParsers.ParsersAccessories_derrorToStrings e_Text.Parsers.ZParsers.ParsersAccessories_eaerrorToStrings
.o 1 0
e_Text.Parsers.ZParsers.ParsersAccessories_nerrorToStrings
	push_node _cycle_in_spine 3
.o 4 0
e_Text.Parsers.ZParsers.ParsersAccessories_eaerrorToStrings
.o 4 0
e_Text.Parsers.ZParsers.ParsersAccessories_serrorToStrings
.o 4 0
s17
	create
	push_a 3
	push_a 3
	push_a 3
	update_a 3 6
	update_a 2 5
	update_a 1 4
	updatepop_a 0 3
.d 4 0
	jsr s18
.o 1 0
	buildh e_Text.Parsers.ZParsers.ParsersAccessories_d\;90;12;32.33 0
.d 3 0
	jmp e_StdList_smap
.export e_Text.Parsers.ZParsers.ParsersAccessories_d\;90;12;32.33
.desc e_Text.Parsers.ZParsers.ParsersAccessories_d\;90;12;32.33 _hnf l33 1 0 "\;90;12;32.33"
.o 2 0
l33
	pop_a 1
.d 1 0
	jsr ea33
.o 1 0
	buildh ARRAY 1
.d 1 0
	rtn
.o 1 0
ea33
	jsr_eval 0
	repl_args 2 2
	jsr_eval 1
	jsr_eval 0
	push_array 1
	pushI_a 1
	update_a 0 2
	pop_a 2
.o 1 1 i
s33
	pushI 4
	push_b 1
	mulI
	create
	buildC ' '
	updatepop_b 0 1
.d 2 1 i
	jsr e_StdList_srepeatn
.o 1 0
.d 1 0
	jsr e_StdList_stoString;79
.o 1 0
	push_a 1
	push_a 1
	update_a 1 2
	update_a 0 1
	pop_a 1
	update_a 1 2
	updatepop_a 0 1
.d 2 0
	jsr catAC
.o 1 0
.d 1 0
	rtn
.export e_Text.Parsers.ZParsers.ParsersAccessories_serrorToFormat
.export e_Text.Parsers.ZParsers.ParsersAccessories_eaerrorToFormat
.descexp e_Text.Parsers.ZParsers.ParsersAccessories_derrorToFormat e_Text.Parsers.ZParsers.ParsersAccessories_nerrorToFormat e_Text.Parsers.ZParsers.ParsersAccessories_lerrorToFormat 3 0 "errorToFormat"
.a 3 e_Text.Parsers.ZParsers.ParsersAccessories_eaerrorToFormat
.o 2 0
e_Text.Parsers.ZParsers.ParsersAccessories_lerrorToFormat
	push_args 0 2 2
	update_a 3 2
	create
	update_a 0 4
	pop_a 1
.d 4 0
	jmp e_Text.Parsers.ZParsers.ParsersAccessories_eaerrorToFormat
.n 3 e_Text.Parsers.ZParsers.ParsersAccessories_derrorToFormat e_Text.Parsers.ZParsers.ParsersAccessories_eaerrorToFormat
.o 1 0
e_Text.Parsers.ZParsers.ParsersAccessories_nerrorToFormat
	push_node _cycle_in_spine 3
.o 4 0
e_Text.Parsers.ZParsers.ParsersAccessories_eaerrorToFormat
.o 4 0
e_Text.Parsers.ZParsers.ParsersAccessories_serrorToFormat
.o 4 0
s18
	push_a 2
	buildI 0
	push_a 3
	build e_Text.Parsers.ZParsers.ParsersAccessories_dfromRose.23 3 e_Text.Parsers.ZParsers.ParsersAccessories_nfromRose.23
	push_a 2
	build e_Text.Parsers.ZParsers.ParsersAccessories_d_f2.61 1 e_Text.Parsers.ZParsers.ParsersAccessories_n_f2.61
	buildI 0
	buildh _Tuple 2
	buildh _Cons 2
	push_a 3
	push_a 2
	build e_Text.Parsers.ZParsers.ParsersAccessories_d_f1.60 2 e_Text.Parsers.ZParsers.ParsersAccessories_n_f1.60
	buildI 0
	buildh _Tuple 2
	buildh _Cons 2
	build e_Text.Parsers.ZParsers.ParsersAccessories_d_f0.59 0 e_Text.Parsers.ZParsers.ParsersAccessories_n_f0.59
	buildI 0
	buildh _Tuple 2
	fillh _Cons 2 5
	pop_a 3
.d 1 0
	rtn
.export e_Text.Parsers.ZParsers.ParsersAccessories_d_f2.61
.export e_Text.Parsers.ZParsers.ParsersAccessories_n_f2.61
.descn e_Text.Parsers.ZParsers.ParsersAccessories_d_f2.61 e_Text.Parsers.ZParsers.ParsersAccessories_n_f2.61 1 0 "_f2.61"
.n 1 e_Text.Parsers.ZParsers.ParsersAccessories_d_f2.61 ea61
.o 1 0
e_Text.Parsers.ZParsers.ParsersAccessories_n_f2.61
	push_node _cycle_in_spine 1
.o 2 0
ea61
.o 2 0
s61
	push_a 0
	jsr_eval 0
	updatepop_a 0 1
.d 1 0
	jsr s25
.o 0 1 b
.d 0 1 b
	jsr s54
.o 1 0
	fillh ARRAY 1 1
.d 1 0
	rtn
.export e_Text.Parsers.ZParsers.ParsersAccessories_d_f1.60
.export e_Text.Parsers.ZParsers.ParsersAccessories_n_f1.60
.descn e_Text.Parsers.ZParsers.ParsersAccessories_d_f1.60 e_Text.Parsers.ZParsers.ParsersAccessories_n_f1.60 2 0 "_f1.60"
.n 2 e_Text.Parsers.ZParsers.ParsersAccessories_d_f1.60 ea60
.o 1 0
e_Text.Parsers.ZParsers.ParsersAccessories_n_f1.60
	push_node _cycle_in_spine 2
.o 3 0
ea60
.o 3 0
s60
	push_a 0
	jsr_eval 0
	push_a 2
	push_a 1
	update_a 1 2
	update_a 0 1
	pop_a 1
	update_a 1 3
	updatepop_a 0 2
.d 2 0
	jsr s22
.o 1 0
	buildAC "."
	push_a 1
	update_a 1 2
	update_a 0 1
	pop_a 1
.d 2 0
	jsr catAC
.o 1 0
	fillh ARRAY 1 1
.d 1 0
	rtn
.export e_Text.Parsers.ZParsers.ParsersAccessories_d_f0.59
.export e_Text.Parsers.ZParsers.ParsersAccessories_n_f0.59
.descn e_Text.Parsers.ZParsers.ParsersAccessories_d_f0.59 e_Text.Parsers.ZParsers.ParsersAccessories_n_f0.59 0 0 "_f0.59"
.n 0 e_Text.Parsers.ZParsers.ParsersAccessories_d_f0.59 ea59
.o 1 0
e_Text.Parsers.ZParsers.ParsersAccessories_n_f0.59
	push_node _cycle_in_spine 0
.o 1 0
ea59
.o 1 0
s59
.d 0 0
	jsr e_Text.Parsers.ZParsers.ParserLanguage_scantAnalyseAsOf
.o 1 0
	buildAC ":"
	push_a 1
	update_a 1 2
	update_a 0 1
	pop_a 1
.d 2 0
	jsr catAC
.o 1 0
	fillh ARRAY 1 1
.d 1 0
	rtn
.o 0 1 b
s54
	eqB_b TRUE 0
	jmp_true case.1
	jmp case.2
case.1
	pop_b 1
.d 0 0
	jmp e_Text.Parsers.ZParsers.ParserLanguage_snoOptions
case.2
	pop_b 1
.d 0 0
	jsr e_Text.Parsers.ZParsers.ParserLanguage_soptionsToSolve
.o 1 0
	buildAC ":"
	push_a 1
	update_a 1 2
	update_a 0 1
	pop_a 1
.d 2 0
	jsr catAC
.o 1 0
.d 1 0
	rtn
.export e_Text.Parsers.ZParsers.ParsersAccessories_dfromRose.23
.export e_Text.Parsers.ZParsers.ParsersAccessories_nfromRose.23
.descn e_Text.Parsers.ZParsers.ParsersAccessories_dfromRose.23 e_Text.Parsers.ZParsers.ParsersAccessories_nfromRose.23 3 0 "fromRose.23"
.n 3 e_Text.Parsers.ZParsers.ParsersAccessories_dfromRose.23 ea23
.o 1 0
e_Text.Parsers.ZParsers.ParsersAccessories_nfromRose.23
	push_node _cycle_in_spine 3
.o 4 0
ea23
	jsr_eval 0
.o 4 0
s23
	eq_desc _Nil 0 0
	jmp_true case.3
	jmp case.4
case.3
	fillh _Nil 0 3
	pop_a 3
.d 1 0
	rtn
case.4
	repl_args 2 2
	jsr_eval 0
	eq_desc e_Text.Parsers.ZParsers.ParsersKernel_dRoseLeaf 0 0
	jmp_true case.5
	jmp case.6
case.5
	push_a 1
	jsr_eval 0
	push_a 4
	push_a 4
	push_a 2
	update_a 2 3
	update_a 1 2
	update_a 0 1
	pop_a 1
	update_a 2 6
	update_a 1 5
	updatepop_a 0 4
.d 4 0
	jmp s23
case.6
	repl_args 2 2
	jsr_eval 0
	repl_args 2 2
	push_a 5
	push_a 5
	push_a 4
	build e_Text.Parsers.ZParsers.ParsersAccessories_d_f6.65 3 e_Text.Parsers.ZParsers.ParsersAccessories_n_f6.65
	push_a 6
	push_a 6
	push_a 6
	build e_Text.Parsers.ZParsers.ParsersAccessories_dfromRose.23 3 e_Text.Parsers.ZParsers.ParsersAccessories_nfromRose.23
	push_a 1
	build d_S.2 -1 n_S.2
	push_a 2
	build d_S.1 -1 n_S.1
	push_a 9
	push_a 6
	push_a 6
	build e_Text.Parsers.ZParsers.ParsersAccessories_d_f7.66 4 e_Text.Parsers.ZParsers.ParsersAccessories_n_f7.66
	push_a 8
	buildh _Tuple 2
	buildh _Cons 2
	update_a 1 8
	updatepop_a 0 7
.d 3 0
	jmp e_StdList_s++
.export e_Text.Parsers.ZParsers.ParsersAccessories_d_f7.66
.export e_Text.Parsers.ZParsers.ParsersAccessories_n_f7.66
.descn e_Text.Parsers.ZParsers.ParsersAccessories_d_f7.66 e_Text.Parsers.ZParsers.ParsersAccessories_n_f7.66 4 0 "_f7.66"
.n 4 e_Text.Parsers.ZParsers.ParsersAccessories_d_f7.66 ea66
.o 1 0
e_Text.Parsers.ZParsers.ParsersAccessories_n_f7.66
	push_node _cycle_in_spine 4
.o 5 0
ea66
.o 5 0
s66
	push_a 3
	jsr_eval 0
	push_array 0
	updatepop_a 0 1
	push_a 3
	jsr_eval 0
	push_a 3
	jsr_eval 0
	buildh _Nil 0
	update_a 0 5
	update_a 0 6
	update_a 0 7
	pop_a 1
.d 2 0
	jsr s24
.o 1 0
	update_a 2 5
	update_a 1 4
	updatepop_a 0 3
.d 2 0
	jsr catAC
.o 1 0
	push_a 1
	jsr_eval 0
	push_array 0
	updatepop_a 0 1
	update_a 1 2
	updatepop_a 0 1
.d 2 0
	jsr catAC
.o 1 0
	fillh ARRAY 1 1
.d 1 0
	rtn
.export e_Text.Parsers.ZParsers.ParsersAccessories_d_f6.65
.export e_Text.Parsers.ZParsers.ParsersAccessories_n_f6.65
.descn e_Text.Parsers.ZParsers.ParsersAccessories_d_f6.65 e_Text.Parsers.ZParsers.ParsersAccessories_n_f6.65 3 0 "_f6.65"
.n 3 e_Text.Parsers.ZParsers.ParsersAccessories_d_f6.65 ea65
.o 1 0
e_Text.Parsers.ZParsers.ParsersAccessories_n_f6.65
	push_node _cycle_in_spine 3
.o 4 0
ea65
.o 4 0
s65
	push_a 0
	jsr_eval 0
.d 1 0
	jsr s25
.o 0 1 b
	push_a 2
	push_a 2
	push_a 2
	update_a 2 5
	update_a 1 4
	updatepop_a 0 3
.d 3 1 b
	jsr s53
.o 2 0
	push_a 1
	push_a 1
	fillh _Tuple 2 4
	pop_a 2
.d 1 0
	rtn
.o 3 1 b
s53
	eqB_b TRUE 0
	jmp_true case.7
	jmp case.8
case.7
	buildh _Nil 0
	buildAC ""
	buildh ARRAY 1
	update_a 1 4
	updatepop_a 0 3
	pop_b 1
.d 2 0
	rtn
case.8
	buildI 1
	push_a 2
	build e_StdInt_d+;6 2 e_StdInt_n+;6
	push_a 3
	push_a 2
	push_a 2
	update_a 2 3
	update_a 0 2
	pop_a 1
	build e_Text.Parsers.ZParsers.ParsersAccessories_dfromRose.23 3 e_Text.Parsers.ZParsers.ParsersAccessories_nfromRose.23
	build e_Text.Parsers.ZParsers.ParsersAccessories_d_f8.67 0 e_Text.Parsers.ZParsers.ParsersAccessories_n_f8.67
	update_a 1 4
	updatepop_a 0 3
	pop_b 1
.d 2 0
	rtn
.export e_Text.Parsers.ZParsers.ParsersAccessories_d_f8.67
.export e_Text.Parsers.ZParsers.ParsersAccessories_n_f8.67
.descn e_Text.Parsers.ZParsers.ParsersAccessories_d_f8.67 e_Text.Parsers.ZParsers.ParsersAccessories_n_f8.67 0 0 "_f8.67"
.n 0 e_Text.Parsers.ZParsers.ParsersAccessories_d_f8.67 ea67
.o 1 0
e_Text.Parsers.ZParsers.ParsersAccessories_n_f8.67
	push_node _cycle_in_spine 0
.o 1 0
ea67
.o 1 0
s67
.d 0 0
	jsr e_Text.Parsers.ZParsers.ParserLanguage_sandWithinThat
.o 1 0
	buildAC ":"
	push_a 1
	update_a 1 2
	update_a 0 1
	pop_a 1
.d 2 0
	jsr catAC
.o 1 0
	buildAC ", "
.d 2 0
	jsr catAC
.o 1 0
	fillh ARRAY 1 1
.d 1 0
	rtn
.o 2 0
s24
	buildh e_Text.Parsers.ZParsers.ParsersKernel_d==;33 0
	push_a 2
	push_a 2
	push_a 2
	update_a 2 3
	update_a 1 2
	update_a 0 1
	pop_a 1
	update_a 3 4
	update_a 2 3
	update_a 1 2
	updatepop_a 0 1
.d 3 0
	jsr e_StdList_s==;45
.o 0 1 b
	jmp_false else.9
	pop_a 1
	buildAC ""
.d 1 0
	rtn
else.9
	buildh e_Text.Parsers.ZParsers.ParsersAccessories_dtoString;34.35 0
	create
	push_a 2
	push_a 2
	update_a 2 3
	update_a 1 2
	update_a 0 1
	pop_a 1
	update_a 2 3
	update_a 1 2
	updatepop_a 0 1
.d 3 0
	jsr e_StdList_smap
.o 1 0
	buildAC ","
	buildh ARRAY 1
.d 2 0
	jsr s51
.o 1 0
	buildAC "]"
	push_a 1
	update_a 1 2
	update_a 0 1
	pop_a 1
.d 2 0
	jsr catAC
.o 1 0
	buildAC " ["
.d 2 0
	jsr catAC
.o 1 0
.d 1 0
	rtn
.o 2 0
s51
	eq_desc _Cons 2 1
	jmp_true case.10
	jmp case.11
case.10
	push_args 1 2 2
	buildh _Nil 0
	update_a 0 4
	pop_a 1
	jsr_eval 1
	eq_desc _Cons 2 1
	jmp_true case.12
	jmp case.13
case.12
	push_args 1 2 2
	pop_a 2
	push_a 1
	push_a 3
	update_a 4 5
	update_a 2 4
	update_a 1 3
	updatepop_a 0 2
.d 2 0
	jsr s51
.o 1 0
	push_a 2
	jsr_eval 0
	push_array 0
	updatepop_a 0 1
	update_a 2 3
	update_a 1 2
	updatepop_a 0 1
.d 2 0
	jsr catAC
.o 1 0
	push_a 1
	jsr_eval 0
	push_array 0
	updatepop_a 0 1
	no_op
	update_a 1 2
	updatepop_a 0 1
.d 2 0
	jsr catAC
.o 1 0
.d 1 0
	rtn
case.13
	push_a 0
	jsr_eval 0
	push_array 0
	updatepop_a 0 1
	updatepop_a 0 4
	no_op
.d 1 0
	rtn
case.11
	pop_a 2
	buildAC ""
.d 1 0
	rtn
.export e_Text.Parsers.ZParsers.ParsersAccessories_sflattenSep
.descexp e_Text.Parsers.ZParsers.ParsersAccessories_dflattenSep e_Text.Parsers.ZParsers.ParsersAccessories_nflattenSep e_Text.Parsers.ZParsers.ParsersAccessories_lflattenSep 3 0 "flattenSep"
.a 0 a16
.o 2 0
e_Text.Parsers.ZParsers.ParsersAccessories_lflattenSep
	repl_args 2 2
.o 3 0
a16
.d 3 0
	jsr ea16
.o 1 0
	buildh ARRAY 1
.d 1 0
	rtn
.n 3 e_Text.Parsers.ZParsers.ParsersAccessories_dflattenSep
.o 1 0
e_Text.Parsers.ZParsers.ParsersAccessories_nflattenSep
	push_node _cycle_in_spine 3
.d 3 0
	jsr ea16
.o 1 0
	fillh ARRAY 1 1
.d 1 0
	rtn
.o 3 0
ea16
	jsr_eval 2
	jsr_eval 0
	repl_r_args 1 0
.o 3 0
e_Text.Parsers.ZParsers.ParsersAccessories_sflattenSep
.o 3 0
s16
	eq_desc _Cons 2 2
	jmp_true case.14
	jmp case.15
case.14
	push_args 2 2 2
	buildh _Nil 0
	update_a 0 5
	pop_a 1
	jsr_eval 1
	eq_desc _Cons 2 1
	jmp_true case.16
	jmp case.17
case.16
	push_args 1 2 2
	pop_a 2
	push_a 1
	push_a 4
	push_a 4
	update_a 3 4
	update_a 2 3
	update_a 1 2
	updatepop_a 0 1
.d 3 0
	jsr s16
.o 1 0
	push_a 3
	jsr_eval 0
	push_array 0
	updatepop_a 0 1
	update_a 3 5
	update_a 2 4
	update_a 1 3
	updatepop_a 0 2
.d 2 0
	jsr catAC
.o 1 0
	push_a 1
	jsr_eval 0
	push_a 3
	buildh _Nil 0
	update_a 0 5
	update_a 0 4
	pop_a 1
.d 2 0
	jsr_i 1
.o 1 0
	update_a 1 3
	updatepop_a 0 2
.d 2 0
	jsr catAC
.o 1 0
.d 1 0
	rtn
case.17
	push_a 0
	jsr_eval 0
	push_a 3
	update_a 1 6
	updatepop_a 0 5
.d 2 0
	jmp_i 1
case.15
	pop_a 3
	buildAC ""
.d 1 0
	rtn
.o 1 0
s25
	eq_desc _Nil 0 0
	jmp_true case.18
	jmp case.19
case.18
	pop_a 1
	pushB TRUE
.d 0 1 b
	rtn
case.19
	repl_args 2 2
	jsr_eval 0
	eq_desc e_Text.Parsers.ZParsers.ParsersKernel_dRoseLeaf 0 0
	jmp_true case.21
	pop_a 1
	jmp case.20
case.21
	push_a 1
	jsr_eval 0
	updatepop_a 0 2
.d 1 0
	jmp s25
case.20
	pop_a 1
	pushB FALSE
.d 0 1 b
	rtn
.o 2 0
s22
	create
	push_a 1
	update_a 1 2
	updatepop_a 0 1
.d 2 0
	jsr e_StdList_sreverse
.o 1 0
	eq_desc _Cons 2 0
	exit_false selector_m_error
	repl_args 2 2
	jsr_eval 1
	jsr_eval 0
	push_a 2
	push_a 2
	update_a 2 4
	update_a 1 3
	updatepop_a 0 2
.d 2 0
	jsr s50
.o 1 0
	push_a 1
	buildh _Nil 0
	update_a 0 3
	pop_a 1
.d 1 0
	jsr s20
.o 1 0
	update_a 1 2
	updatepop_a 0 1
.d 2 0
	jsr catAC
.o 1 0
.d 1 0
	rtn
.o 2 0
s50
	eq_desc _Nil 0 0
	jmp_true case.22
	jmp case.23
case.22
	pop_a 2
	buildAC ""
.d 1 0
	rtn
case.23
	repl_args 2 2
	jsr_eval 2
	eq_desc _Cons 2 2
	jmp_true case.25
	pop_a 1
	jmp case.24
case.25
	push_args 2 2 2
	buildh _Nil 0
	update_a 0 5
	pop_a 1
	push_a 3
	jsr_eval 0
	push_a 2
	push_a 1
	update_a 1 2
	update_a 0 1
	pop_a 1
	update_a 4 6
	update_a 2 5
	update_a 1 4
	updatepop_a 0 3
.d 2 0
	jsr s50
.o 1 0
	push_a 1
	jsr_eval 0
	buildh _Nil 0
	update_a 0 3
	pop_a 1
.d 1 0
	jsr s35
.o 1 0
	update_a 1 2
	updatepop_a 0 1
.d 2 0
	jsr catAC
.o 1 0
	buildAC " "
.d 2 0
	jsr catAC
.o 1 0
	push_a 1
	jsr_eval 0
	buildh _Nil 0
	update_a 0 3
	pop_a 1
.d 1 0
	jsr s20
.o 1 0
	update_a 1 2
	updatepop_a 0 1
.d 2 0
	jsr catAC
.o 1 0
	buildAC ", "
.d 2 0
	jsr catAC
.o 1 0
.d 1 0
	rtn
case.24
	buildAC "'myZip' in ParserAccessories called with unexpected combination of list lengths"
	updatepop_a 0 2
.d 1 0
	jsr print_string_
.o 0 0
	halt
	push_array 0
	updatepop_a 0 1
.d 1 0
	rtn
.export e_Text.Parsers.ZParsers.ParsersAccessories_dtoString;34.35
.desc e_Text.Parsers.ZParsers.ParsersAccessories_dtoString;34.35 _hnf l35 1 0 "toString;34.35"
.o 2 0
i35
	pop_a 1
.d 1 0
	jmp s35
.ai 1 _ i35
.o 2 0
l35
	pop_a 1
.d 1 0
	jsr ea35
.o 1 0
	buildh ARRAY 1
.d 1 0
	rtn
.o 1 0
ea35
	jsr_eval 0
.o 1 0
s35
	eq_desc e_Text.Parsers.ZParsers.ParsersKernel_dAt 1 0
	jmp_true case.26
	jmp case.27
case.26
	repl_args 1 1
	push_a 0
	jsr_eval 0
	pushI_a 1
	pop_a 1
	pop_a 1
.d 0 1 i
	jsr ItoAC
.o 1 0
.d 1 0
	rtn
case.27
	repl_args 1 1
	push_a 0
	jsr_eval 0
	pushI_a 1
	pop_a 1
	pop_a 1
.d 0 1 i
	jsr ItoAC
.o 1 0
	buildAC ".."
.d 2 0
	jsr catAC
.o 1 0
.d 1 0
	rtn
.export e_Text.Parsers.ZParsers.ParsersAccessories_stoString;19
.descexp e_Text.Parsers.ZParsers.ParsersAccessories_dtoString;19 e_Text.Parsers.ZParsers.ParsersAccessories_ntoString;19 e_Text.Parsers.ZParsers.ParsersAccessories_ltoString;19 1 0 "toString;19"
.o 2 0
e_Text.Parsers.ZParsers.ParsersAccessories_itoString;19
	pop_a 1
.d 1 0
	jmp s20
.ai 1 _ e_Text.Parsers.ZParsers.ParsersAccessories_itoString;19
.o 2 0
e_Text.Parsers.ZParsers.ParsersAccessories_ltoString;19
	pop_a 1
.d 1 0
	jsr ea20
.o 1 0
	buildh ARRAY 1
.d 1 0
	rtn
.n 1 e_Text.Parsers.ZParsers.ParsersAccessories_dtoString;19
.o 1 0
e_Text.Parsers.ZParsers.ParsersAccessories_ntoString;19
	push_node _cycle_in_spine 1
.d 1 0
	jsr ea20
.o 1 0
	fillh ARRAY 1 1
.d 1 0
	rtn
.o 1 0
ea20
	jsr_eval 0
.o 1 0
e_Text.Parsers.ZParsers.ParsersAccessories_stoString;19
.o 1 0
s20
	eq_desc e_Text.Parsers.ZParsers.ParsersKernel_dWhole 1 0
	jmp_true case.28
	jmp case.29
case.28
	repl_args 1 1
	jsr_eval 0
	push_array 0
	updatepop_a 0 1
.d 1 0
	rtn
case.29
	repl_args 2 2
	push_a 0
	jsr_eval 0
	push_array 0
	updatepop_a 0 1
	buildh _Nil 0
	update_a 0 2
	pop_a 1
.d 0 0
	jsr e_Text.Parsers.ZParsers.ParserLanguage_ssliceOf
.o 1 0
	update_a 1 2
	updatepop_a 0 1
.d 2 0
	jsr catAC
.o 1 0
	push_a 1
	jsr_eval 0
	pushI_a 2
	pop_a 1
	buildh _Nil 0
	update_a 0 2
	pop_a 1
.d 0 1 i
	jsr ItoAC
.o 1 0
	update_a 1 2
	updatepop_a 0 1
.d 2 0
	jsr catAC
.o 1 0
.d 1 0
	rtn
.export e_Text.Parsers.ZParsers.ParsersAccessories_slineAndColumn
.descexp e_Text.Parsers.ZParsers.ParsersAccessories_dlineAndColumn e_Text.Parsers.ZParsers.ParsersAccessories_nlineAndColumn e_Text.Parsers.ZParsers.ParsersAccessories_llineAndColumn 3 0 "lineAndColumn"
.a 0 a13
.o 2 0
e_Text.Parsers.ZParsers.ParsersAccessories_llineAndColumn
	repl_args 2 2
.o 3 0
a13
.d 3 0
	jsr ea13
.o 2 0
	push_a 1
	push_a 1
	buildh _Tuple 2
	updatepop_a 0 2
.d 1 0
	rtn
.n 3 e_Text.Parsers.ZParsers.ParsersAccessories_dlineAndColumn
.o 1 0
e_Text.Parsers.ZParsers.ParsersAccessories_nlineAndColumn
	push_node _cycle_in_spine 3
.d 3 0
	jsr ea13
.o 2 0
	push_a 1
	push_a 1
	fillh _Tuple 2 4
	pop_a 2
.d 1 0
	rtn
.o 3 0
ea13
	jsr_eval 1
	jsr_eval 0
	pushI_a 1
	update_a 0 1
	pop_a 1
.o 2 1 i
e_Text.Parsers.ZParsers.ParsersAccessories_slineAndColumn
.o 2 1 i
s13
	pushI 1
	push_b 1
	ltI
	jmp_false else.30
	buildAC "ParserKernel.icl: position less than one"
	updatepop_a 0 2
	pop_b 1
.d 1 0
	jsr print_string_
.o 0 0
	halt
	repl_args 2 2
.d 2 0
	rtn
else.30
	buildI 1
	buildI 1
	push_b 0
	push_a 2
	push_a 4
	update_a 3 5
	update_a 2 4
	update_a 1 3
	updatepop_a 0 2
	updatepop_b 0 1
.d 4 1 i
	jmp s32
.o 4 1 i
s32
	eq_desc _Cons 2 1
	jmp_true case.31
	jmp case.32
case.31
	push_args 1 2 2
	buildh _Nil 0
	update_a 0 4
	pop_a 1
	eqI_b 1 0
	jmp_true case.33
	jmp case.34
case.33
	push_a 5
	push_a 5
	update_a 1 7
	updatepop_a 0 6
	pop_b 1
.d 2 0
	rtn
case.34
	push_a 1
	jsr_eval 0
	push_a 1
	jsr_eval 0
	pushC_a 2
	pop_a 1
	push_a 6
	push_a 6
	push_b 1
	push_a 5
	push_a 3
	update_a 3 4
	update_a 2 3
	update_a 0 2
	pop_a 1
	push_b 1
	update_b 1 2
	update_b 0 1
	pop_b 1
	update_a 3 9
	update_a 2 8
	update_a 1 7
	updatepop_a 0 6
	update_b 1 2
	updatepop_b 0 1
.d 4 2 ci
	jmp s52
case.32
	buildAC "ParserKernel.icl: position beyond input-list"
	updatepop_a 0 4
	pop_b 1
.d 1 0
	jsr print_string_
.o 0 0
	halt
	repl_args 2 2
.d 2 0
	rtn
.o 4 2 ci
s52
	eqC_b '\n' 0
	jmp_true case.35
	eqC_b '\t' 0
	jmp_true case.36
	jmp case.37
case.35
	buildI 1
	push_a 3
	build e_StdInt_d+;6 2 e_StdInt_n+;6
	pushI 1
	push_b 2
	subI
	buildI 1
	push_a 3
	push_a 3
	push_a 3
	update_a 3 4
	update_a 0 3
	pop_a 1
	update_a 3 7
	update_a 2 6
	update_a 1 5
	updatepop_a 0 4
	updatepop_b 0 2
.d 4 1 i
	jmp s32
case.36
	push_a 0
	push_a 4
	build e_Text.Parsers.ZParsers.ParsersAccessories_d_f5.64 2 e_Text.Parsers.ZParsers.ParsersAccessories_n_f5.64
	pushI 1
	push_b 2
	subI
	push_a 3
	push_a 3
	push_a 3
	update_a 3 7
	update_a 2 6
	update_a 1 5
	updatepop_a 0 4
	updatepop_b 0 2
.d 4 1 i
	jmp s32
case.37
	buildI 1
	push_a 4
	build e_StdInt_d+;6 2 e_StdInt_n+;6
	pushI 1
	push_b 2
	subI
	push_a 3
	push_a 3
	push_a 3
	update_a 3 7
	update_a 2 6
	update_a 1 5
	updatepop_a 0 4
	updatepop_b 0 2
.d 4 1 i
	jmp s32
.export e_Text.Parsers.ZParsers.ParsersAccessories_d_f5.64
.export e_Text.Parsers.ZParsers.ParsersAccessories_n_f5.64
.descn e_Text.Parsers.ZParsers.ParsersAccessories_d_f5.64 e_Text.Parsers.ZParsers.ParsersAccessories_n_f5.64 2 0 "_f5.64"
.n 2 e_Text.Parsers.ZParsers.ParsersAccessories_d_f5.64 ea64
.o 1 0
e_Text.Parsers.ZParsers.ParsersAccessories_n_f5.64
	push_node _cycle_in_spine 2
.o 3 0
ea64
.o 3 0
s64
	push_a 1
	jsr_eval 0
	pushI_a 2
	pop_a 1
	push_a 0
	jsr_eval 0
	pushI_a 1
	pop_a 1
	pushI 1
	push_b 1
	update_b 1 2
	update_b 0 1
	pop_b 1
	subI
	remI
	pushI_a 1
	pushI_a 0
	addI
	pop_a 2
	subI
	fillI_b 0 0
	pop_b 1
.d 1 0
	rtn
.export e_Text.Parsers.ZParsers.ParsersAccessories_sidentifier
.export e_Text.Parsers.ZParsers.ParsersAccessories_eaidentifier
.descexp e_Text.Parsers.ZParsers.ParsersAccessories_didentifier e_Text.Parsers.ZParsers.ParsersAccessories_nidentifier e_Text.Parsers.ZParsers.ParsersAccessories_lidentifier 0 0 "identifier"
.o 1 0
e_Text.Parsers.ZParsers.ParsersAccessories_lidentifier
	halt
.n 0 e_Text.Parsers.ZParsers.ParsersAccessories_didentifier e_Text.Parsers.ZParsers.ParsersAccessories_eaidentifier
.o 1 0
e_Text.Parsers.ZParsers.ParsersAccessories_nidentifier
	push_node _cycle_in_spine 0
.o 1 0
e_Text.Parsers.ZParsers.ParsersAccessories_eaidentifier
.o 1 0
e_Text.Parsers.ZParsers.ParsersAccessories_sidentifier
.o 1 0
s12
	buildh e_Text.Parsers.ZParsers.ParsersAccessories_d\;46;34;30.31 0
	buildh e_StdChar_disAlpha 0
	create
	push_a 1
	update_a 1 2
	update_a 0 1
	pop_a 1
.d 2 0
	jsr e_Text.Parsers.ZParsers.ParsersKernel_ssatisfy
.o 1 0
.d 3 0
	jmp e_Text.Parsers.ZParsers.ParsersKernel_s<&>
.export e_Text.Parsers.ZParsers.ParsersAccessories_d\;46;34;30.31
.desc e_Text.Parsers.ZParsers.ParsersAccessories_d\;46;34;30.31 _hnf l31 1 0 "\;46;34;30.31"
.o 2 0
l31
	update_a 1 0
	create
	update_a 0 2
	pop_a 1
.o 2 0
ea31
.o 2 0
s31
	push_a 0
	buildh e_Text.Parsers.ZParsers.ParsersAccessories_d\;46;69;47.48 1
	buildh e_StdChar_disAlphanum 0
	build e_Text.Parsers.ZParsers.ParsersKernel_dsatisfy 1 e_Text.Parsers.ZParsers.ParsersKernel_nsatisfy
	create
	push_a 1
	update_a 1 2
	update_a 0 1
	pop_a 1
	buildh _Nil 0
	update_a 0 4
	pop_a 1
.d 2 0
	jsr e_Text.Parsers.ZParsers.ParsersDerived_s<!*>
.o 1 0
	update_a 1 2
	updatepop_a 0 1
.d 3 0
	jmp e_Text.Parsers.ZParsers.ParsersDerived_s<@
.export e_Text.Parsers.ZParsers.ParsersAccessories_d\;46;69;47.48
.desc e_Text.Parsers.ZParsers.ParsersAccessories_d\;46;69;47.48 _hnf l48 2 0 "\;46;69;47.48"
.a 0 a48
.o 2 0
l48
	repl_args 1 1
.o 2 0
a48
.d 2 0
	jsr ea48
.o 1 0
	buildh ARRAY 1
.d 1 0
	rtn
.o 2 0
ea48
.o 2 0
s48
	push_a 1
	push_a 1
	buildh _Cons 2
	updatepop_a 0 2
.d 1 0
	jmp e_StdList_stoString;79
.export e_Text.Parsers.ZParsers.ParsersAccessories_stokenH
.export e_Text.Parsers.ZParsers.ParsersAccessories_eatokenH
.descexp e_Text.Parsers.ZParsers.ParsersAccessories_dtokenH e_Text.Parsers.ZParsers.ParsersAccessories_ntokenH e_Text.Parsers.ZParsers.ParsersAccessories_ltokenH 2 0 "tokenH"
.a 2 e_Text.Parsers.ZParsers.ParsersAccessories_eatokenH
.o 2 0
e_Text.Parsers.ZParsers.ParsersAccessories_ltokenH
	push_args 0 1 1
	update_a 2 1
	create
	update_a 0 3
	pop_a 1
.d 3 0
	jmp e_Text.Parsers.ZParsers.ParsersAccessories_eatokenH
.n 2 e_Text.Parsers.ZParsers.ParsersAccessories_dtokenH e_Text.Parsers.ZParsers.ParsersAccessories_eatokenH
.o 1 0
e_Text.Parsers.ZParsers.ParsersAccessories_ntokenH
	push_node _cycle_in_spine 2
.o 3 0
e_Text.Parsers.ZParsers.ParsersAccessories_eatokenH
	jsr_eval 1
	jsr_eval 0
	push_r_args 1 1 0
	push_r_args 1 1 0
	update_a 1 3
	update_a 0 2
	pop_a 2
.o 3 0
e_Text.Parsers.ZParsers.ParsersAccessories_stokenH
.o 3 0
s11
	build_r e_StdOverloaded_r==; 1 0 0 0
	buildh e_Text.Parsers.ZParsers.ParsersKernel_dtoken 1
.impmod StdOverloaded
.impdesc e_StdOverloaded_rtoChar;
	build_r e_StdOverloaded_rtoChar; 1 0 2 0
	buildh e_StdList_dtoString;49 1
	update_a 1 3
	updatepop_a 0 2
.d 3 0
	jmp e_Text.Parsers.ZParsers.ParsersKernel_s:=>
.export e_Text.Parsers.ZParsers.ParsersAccessories_ssymbolH
.export e_Text.Parsers.ZParsers.ParsersAccessories_easymbolH
.descexp e_Text.Parsers.ZParsers.ParsersAccessories_dsymbolH e_Text.Parsers.ZParsers.ParsersAccessories_nsymbolH e_Text.Parsers.ZParsers.ParsersAccessories_lsymbolH 2 0 "symbolH"
.a 2 e_Text.Parsers.ZParsers.ParsersAccessories_easymbolH
.o 2 0
e_Text.Parsers.ZParsers.ParsersAccessories_lsymbolH
	push_args 0 1 1
	update_a 2 1
	create
	update_a 0 3
	pop_a 1
.d 3 0
	jmp e_Text.Parsers.ZParsers.ParsersAccessories_easymbolH
.n 2 e_Text.Parsers.ZParsers.ParsersAccessories_dsymbolH e_Text.Parsers.ZParsers.ParsersAccessories_easymbolH
.o 1 0
e_Text.Parsers.ZParsers.ParsersAccessories_nsymbolH
	push_node _cycle_in_spine 2
.o 3 0
e_Text.Parsers.ZParsers.ParsersAccessories_easymbolH
	jsr_eval 1
	jsr_eval 0
	push_r_args 1 1 0
	push_r_args 1 1 0
	update_a 1 3
	update_a 0 2
	pop_a 2
.o 3 0
e_Text.Parsers.ZParsers.ParsersAccessories_ssymbolH
.o 3 0
s10
	build_r e_StdOverloaded_r==; 1 0 0 0
	buildh e_Text.Parsers.ZParsers.ParsersKernel_dsymbol 1
	push_a 2
	update_a 1 3
	updatepop_a 0 2
.d 3 0
	jmp e_Text.Parsers.ZParsers.ParsersKernel_s:=>
.export e_Text.Parsers.ZParsers.ParsersAccessories_sds
.export e_Text.Parsers.ZParsers.ParsersAccessories_eads
.descexp e_Text.Parsers.ZParsers.ParsersAccessories_dds e_Text.Parsers.ZParsers.ParsersAccessories_nds e_Text.Parsers.ZParsers.ParsersAccessories_lds 2 0 "ds"
.a 2 e_Text.Parsers.ZParsers.ParsersAccessories_eads
.o 2 0
e_Text.Parsers.ZParsers.ParsersAccessories_lds
	push_args 0 1 1
	update_a 2 1
	create
	update_a 0 3
	pop_a 1
.d 3 0
	jmp e_Text.Parsers.ZParsers.ParsersAccessories_eads
.n 2 e_Text.Parsers.ZParsers.ParsersAccessories_dds e_Text.Parsers.ZParsers.ParsersAccessories_eads
.o 1 0
e_Text.Parsers.ZParsers.ParsersAccessories_nds
	push_node _cycle_in_spine 2
.o 3 0
e_Text.Parsers.ZParsers.ParsersAccessories_eads
	jsr_eval 1
	jsr_eval 0
	repl_r_args 1 0
.o 3 0
e_Text.Parsers.ZParsers.ParsersAccessories_sds
.o 3 0
s9
	push_a 0
	push_a 2
	push_a 1
	update_a 1 2
	update_a 0 1
	pop_a 1
	update_a 1 3
	updatepop_a 0 2
.d 3 0
	jmp e_Text.Parsers.ZParsers.ParsersKernel_sdropCheck
.export e_Text.Parsers.ZParsers.ParsersAccessories_schoice
.export e_Text.Parsers.ZParsers.ParsersAccessories_eachoice
.descexp e_Text.Parsers.ZParsers.ParsersAccessories_dchoice e_Text.Parsers.ZParsers.ParsersAccessories_nchoice e_Text.Parsers.ZParsers.ParsersAccessories_lchoice 1 0 "choice"
.o 2 0
e_Text.Parsers.ZParsers.ParsersAccessories_lchoice
	update_a 1 0
	create
	update_a 0 2
	pop_a 1
.d 2 0
	jmp e_Text.Parsers.ZParsers.ParsersAccessories_eachoice
.n 1 e_Text.Parsers.ZParsers.ParsersAccessories_dchoice e_Text.Parsers.ZParsers.ParsersAccessories_eachoice
.o 1 0
e_Text.Parsers.ZParsers.ParsersAccessories_nchoice
	push_node _cycle_in_spine 1
.o 2 0
e_Text.Parsers.ZParsers.ParsersAccessories_eachoice
	jsr_eval 0
.o 2 0
e_Text.Parsers.ZParsers.ParsersAccessories_schoice
.o 2 0
s8
	create
.d 1 0
	jsr e_Text.Parsers.ZParsers.ParsersKernel_sfail
.o 1 0
	push_a 1
	push_a 1
	update_a 1 2
	update_a 0 1
	pop_a 1
	update_a 1 2
	updatepop_a 0 1
.d 3 0
	jmp s47
.o 3 0
s47
	eq_desc _Nil 0 1
	jmp_true case.38
	jmp case.39
case.38
	fill_a 0 2
	pop_a 2
.d 1 0
	rtn
case.39
	push_args 1 2 2
	buildh _Nil 0
	update_a 0 4
	pop_a 1
	push_a 1
	jsr_eval 0
	push_a 1
	jsr_eval 0
	create
	push_a 5
	push_a 2
	update_a 2 3
	update_a 0 2
	pop_a 1
	buildh _Nil 0
	update_a 0 7
	update_a 0 5
	update_a 0 6
	pop_a 1
.d 3 0
	jsr e_Text.Parsers.ZParsers.ParsersKernel_s<!>
.o 1 0
	update_a 1 5
	updatepop_a 0 4
.d 3 0
	jmp s47
.export e_Text.Parsers.ZParsers.ParsersAccessories_soneOf
.export e_Text.Parsers.ZParsers.ParsersAccessories_eaoneOf
.descexp e_Text.Parsers.ZParsers.ParsersAccessories_doneOf e_Text.Parsers.ZParsers.ParsersAccessories_noneOf e_Text.Parsers.ZParsers.ParsersAccessories_loneOf 1 0 "oneOf"
.o 2 0
e_Text.Parsers.ZParsers.ParsersAccessories_loneOf
	update_a 1 0
	create
	update_a 0 2
	pop_a 1
.d 2 0
	jmp e_Text.Parsers.ZParsers.ParsersAccessories_eaoneOf
.n 1 e_Text.Parsers.ZParsers.ParsersAccessories_doneOf e_Text.Parsers.ZParsers.ParsersAccessories_eaoneOf
.o 1 0
e_Text.Parsers.ZParsers.ParsersAccessories_noneOf
	push_node _cycle_in_spine 1
.o 2 0
e_Text.Parsers.ZParsers.ParsersAccessories_eaoneOf
.o 2 0
e_Text.Parsers.ZParsers.ParsersAccessories_soneOf
.o 2 0
s7
	push_a 0
	buildh e_Text.Parsers.ZParsers.ParsersAccessories_d\;25;21;45.46 1
	updatepop_a 0 1
.d 2 0
	jmp e_Text.Parsers.ZParsers.ParsersKernel_ssatisfy
.export e_Text.Parsers.ZParsers.ParsersAccessories_d\;25;21;45.46
.desc e_Text.Parsers.ZParsers.ParsersAccessories_d\;25;21;45.46 _hnf l46 2 0 "\;25;21;45.46"
.a 0 a46
.o 2 0
l46
	repl_args 1 1
.o 2 0
a46
.d 2 0
	jsr ea46
.o 0 1 b
	buildB_b 0
	pop_b 1
.d 1 0
	rtn
.o 2 0
ea46
	jsr_eval 0
.o 2 0
s46
	push_a 0
	push_a 2
	update_a 1 3
	updatepop_a 0 2
.d 2 0
	jmp e_StdList_sisMember;52
.export e_Text.Parsers.ZParsers.ParsersAccessories_salphaNum
.export e_Text.Parsers.ZParsers.ParsersAccessories_eaalphaNum
.descexp e_Text.Parsers.ZParsers.ParsersAccessories_dalphaNum e_Text.Parsers.ZParsers.ParsersAccessories_nalphaNum e_Text.Parsers.ZParsers.ParsersAccessories_lalphaNum 0 0 "alphaNum"
.o 1 0
e_Text.Parsers.ZParsers.ParsersAccessories_lalphaNum
	halt
.n 0 e_Text.Parsers.ZParsers.ParsersAccessories_dalphaNum e_Text.Parsers.ZParsers.ParsersAccessories_eaalphaNum
.o 1 0
e_Text.Parsers.ZParsers.ParsersAccessories_nalphaNum
	push_node _cycle_in_spine 0
.o 1 0
e_Text.Parsers.ZParsers.ParsersAccessories_eaalphaNum
.o 1 0
e_Text.Parsers.ZParsers.ParsersAccessories_salphaNum
.o 1 0
s6
	buildh e_StdChar_disAlphanum 0
.d 2 0
	jmp e_Text.Parsers.ZParsers.ParsersKernel_ssatisfy
.export e_Text.Parsers.ZParsers.ParsersAccessories_sletter
.export e_Text.Parsers.ZParsers.ParsersAccessories_ealetter
.descexp e_Text.Parsers.ZParsers.ParsersAccessories_dletter e_Text.Parsers.ZParsers.ParsersAccessories_nletter e_Text.Parsers.ZParsers.ParsersAccessories_lletter 0 0 "letter"
.o 1 0
e_Text.Parsers.ZParsers.ParsersAccessories_lletter
	halt
.n 0 e_Text.Parsers.ZParsers.ParsersAccessories_dletter e_Text.Parsers.ZParsers.ParsersAccessories_ealetter
.o 1 0
e_Text.Parsers.ZParsers.ParsersAccessories_nletter
	push_node _cycle_in_spine 0
.o 1 0
e_Text.Parsers.ZParsers.ParsersAccessories_ealetter
.o 1 0
e_Text.Parsers.ZParsers.ParsersAccessories_sletter
.o 1 0
s5
	buildh e_StdChar_disAlpha 0
.d 2 0
	jmp e_Text.Parsers.ZParsers.ParsersKernel_ssatisfy
.export e_Text.Parsers.ZParsers.ParsersAccessories_shexDigit
.export e_Text.Parsers.ZParsers.ParsersAccessories_eahexDigit
.descexp e_Text.Parsers.ZParsers.ParsersAccessories_dhexDigit e_Text.Parsers.ZParsers.ParsersAccessories_nhexDigit e_Text.Parsers.ZParsers.ParsersAccessories_lhexDigit 0 0 "hexDigit"
.o 1 0
e_Text.Parsers.ZParsers.ParsersAccessories_lhexDigit
	halt
.n 0 e_Text.Parsers.ZParsers.ParsersAccessories_dhexDigit e_Text.Parsers.ZParsers.ParsersAccessories_eahexDigit
.o 1 0
e_Text.Parsers.ZParsers.ParsersAccessories_nhexDigit
	push_node _cycle_in_spine 0
.o 1 0
e_Text.Parsers.ZParsers.ParsersAccessories_eahexDigit
.o 1 0
e_Text.Parsers.ZParsers.ParsersAccessories_shexDigit
.o 1 0
s4
	buildh e_StdChar_disHexDigit 0
.d 2 0
	jmp e_Text.Parsers.ZParsers.ParsersKernel_ssatisfy
.export e_Text.Parsers.ZParsers.ParsersAccessories_snumber`
.export e_Text.Parsers.ZParsers.ParsersAccessories_eanumber`
.descexp e_Text.Parsers.ZParsers.ParsersAccessories_dnumber` e_Text.Parsers.ZParsers.ParsersAccessories_nnumber` e_Text.Parsers.ZParsers.ParsersAccessories_lnumber` 0 0 "number`"
.o 1 0
e_Text.Parsers.ZParsers.ParsersAccessories_lnumber`
	halt
.n 0 e_Text.Parsers.ZParsers.ParsersAccessories_dnumber` e_Text.Parsers.ZParsers.ParsersAccessories_eanumber`
.o 1 0
e_Text.Parsers.ZParsers.ParsersAccessories_nnumber`
	push_node _cycle_in_spine 0
.o 1 0
e_Text.Parsers.ZParsers.ParsersAccessories_eanumber`
.o 1 0
e_Text.Parsers.ZParsers.ParsersAccessories_snumber`
.o 1 0
s2
	buildh e_Text.Parsers.ZParsers.ParsersAccessories_d_f3.62 0
	create
.d 1 0
	jsr s3
.o 1 0
	create
	push_a 1
	update_a 1 2
	update_a 0 1
	pop_a 1
.d 2 0
	jsr e_Text.Parsers.ZParsers.ParsersDerived_s<.*>
.o 1 0
.d 3 0
	jmp e_Text.Parsers.ZParsers.ParsersDerived_s<@
.export e_Text.Parsers.ZParsers.ParsersAccessories_d_f3.62
.desc e_Text.Parsers.ZParsers.ParsersAccessories_d_f3.62 _hnf l62 1 0 "_f3.62"
.o 2 0
l62
	update_a 1 0
	create
	update_a 0 2
	pop_a 1
.o 2 0
ea62
.o 2 0
s62
	push_a 0
	jsr_eval 0
	pushI 0
	updatepop_a 0 1
.d 1 1 i
	jsr s44
.o 0 1 i
	fillI_b 0 0
	pop_b 1
.d 1 0
	rtn
.o 1 1 i
s44
	push_a 0
	push_b 0
	updatepop_a 0 1
	updatepop_b 0 1
.d 1 1 i
	jmp s45
.o 1 1 i
s45
	eq_desc _Nil 0 0
	jmp_true case.40
	jmp case.41
case.40
	pop_a 1
.d 0 1 i
	rtn
case.41
	repl_args 2 2
	push_a 1
	jsr_eval 0
	push_a 1
	jsr_eval 0
	pushC_a 2
	pop_a 1
	push_b 1
	update_b 1 2
	updatepop_b 0 1
	buildh _Nil 0
	update_a 0 2
	update_a 0 3
	pop_a 1
.d 0 2 ic
	jsr s27
.o 0 1 i
	updatepop_a 0 2
.d 1 1 i
	jmp s45
.o 0 2 ic
s27
	push_b 1
.d 0 1 c
	jsr e_StdChar_sdigitToInt
.o 0 1 i
	push_b 1
	pushI 10
	mulI
	update_b 1 3
	updatepop_b 0 2
	addI
.d 0 1 i
	rtn
.export e_Text.Parsers.ZParsers.ParsersAccessories_snumber
.export e_Text.Parsers.ZParsers.ParsersAccessories_eanumber
.descexp e_Text.Parsers.ZParsers.ParsersAccessories_dnumber e_Text.Parsers.ZParsers.ParsersAccessories_nnumber e_Text.Parsers.ZParsers.ParsersAccessories_lnumber 0 0 "number"
.o 1 0
e_Text.Parsers.ZParsers.ParsersAccessories_lnumber
	halt
.n 0 e_Text.Parsers.ZParsers.ParsersAccessories_dnumber e_Text.Parsers.ZParsers.ParsersAccessories_eanumber
.o 1 0
e_Text.Parsers.ZParsers.ParsersAccessories_nnumber
	push_node _cycle_in_spine 0
.o 1 0
e_Text.Parsers.ZParsers.ParsersAccessories_eanumber
.o 1 0
e_Text.Parsers.ZParsers.ParsersAccessories_snumber
.o 1 0
s1
	buildh e_Text.Parsers.ZParsers.ParsersAccessories_d_f4.63 0
	create
.d 1 0
	jsr s3
.o 1 0
	create
	push_a 1
	update_a 1 2
	update_a 0 1
	pop_a 1
.d 2 0
	jsr e_Text.Parsers.ZParsers.ParsersDerived_s<!+>
.o 1 0
.d 3 0
	jmp e_Text.Parsers.ZParsers.ParsersDerived_s<@
.export e_Text.Parsers.ZParsers.ParsersAccessories_d_f4.63
.desc e_Text.Parsers.ZParsers.ParsersAccessories_d_f4.63 _hnf l63 1 0 "_f4.63"
.o 2 0
l63
	update_a 1 0
	create
	update_a 0 2
	pop_a 1
.o 2 0
ea63
.o 2 0
s63
	push_a 0
	jsr_eval 0
	pushI 0
	updatepop_a 0 1
.d 1 1 i
	jsr s42
.o 0 1 i
	fillI_b 0 0
	pop_b 1
.d 1 0
	rtn
.o 1 1 i
s42
	push_a 0
	push_b 0
	updatepop_a 0 1
	updatepop_b 0 1
.d 1 1 i
	jmp s43
.o 1 1 i
s43
	eq_desc _Nil 0 0
	jmp_true case.42
	jmp case.43
case.42
	pop_a 1
.d 0 1 i
	rtn
case.43
	repl_args 2 2
	push_a 1
	jsr_eval 0
	push_a 1
	jsr_eval 0
	pushC_a 2
	pop_a 1
	push_b 1
	update_b 1 2
	updatepop_b 0 1
	buildh _Nil 0
	update_a 0 2
	update_a 0 3
	pop_a 1
.d 0 2 ic
	jsr s26
.o 0 1 i
	updatepop_a 0 2
.d 1 1 i
	jmp s43
.export e_Text.Parsers.ZParsers.ParsersAccessories_sdigit
.export e_Text.Parsers.ZParsers.ParsersAccessories_eadigit
.descexp e_Text.Parsers.ZParsers.ParsersAccessories_ddigit e_Text.Parsers.ZParsers.ParsersAccessories_ndigit e_Text.Parsers.ZParsers.ParsersAccessories_ldigit 0 0 "digit"
.o 1 0
e_Text.Parsers.ZParsers.ParsersAccessories_ldigit
	halt
.n 0 e_Text.Parsers.ZParsers.ParsersAccessories_ddigit e_Text.Parsers.ZParsers.ParsersAccessories_eadigit
.o 1 0
e_Text.Parsers.ZParsers.ParsersAccessories_ndigit
	push_node _cycle_in_spine 0
.o 1 0
e_Text.Parsers.ZParsers.ParsersAccessories_eadigit
.o 1 0
e_Text.Parsers.ZParsers.ParsersAccessories_sdigit
.o 1 0
s3
	buildh e_Text.Parsers.ZParsers.ParsersAccessories_d\;13;18;27.28 0
.d 2 0
	jmp e_Text.Parsers.ZParsers.ParsersKernel_ssatisfy
.export e_Text.Parsers.ZParsers.ParsersAccessories_d\;13;18;27.28
.desc e_Text.Parsers.ZParsers.ParsersAccessories_d\;13;18;27.28 _hnf l28 1 0 "\;13;18;27.28"
.o 2 0
l28
	pop_a 1
.d 1 0
	jsr ea28
.o 0 1 b
	buildB_b 0
	pop_b 1
.d 1 0
	rtn
.o 1 0
ea28
.o 1 0
s28
	create
	pushC '9'
	pushC '0'
.d 1 2 cc
	jsr e__SystemEnum_s_from_to;7
.o 1 0
	push_a 1
	update_a 1 2
	updatepop_a 0 1
.d 2 0
	jmp e_StdList_sisMember;52
.o 0 2 ic
s26
	push_b 1
.d 0 1 c
	jsr e_StdChar_sdigitToInt
.o 0 1 i
	push_b 1
	pushI 10
	mulI
	update_b 1 3
	updatepop_b 0 2
	addI
.d 0 1 i
	rtn
.impmod _system
.implab selector_m_error
