.comp 920 000011110011000
.start _nostart_
.depend "StdDynamic" "20210613144732"
.depend "dynamic_string" "20210613144730"
.depend "graph_copy" "20210613144730"
.depend "Text.Encodings.Base64" "20210613144732"
.depend "StdCharList" "20210613144732"
.depend "_SystemArray" "20210613144732"
.depend "StdArray" "20210613144732"
.depend "StdEnv" "20210613144732"
.depend "_SystemEnum" "20210613144732"
.depend "StdEnum" "20210613144732"
.depend "StdTuple" "20210613144732"
.depend "StdOrdList" "20210613144732"
.depend "iTasks.Internal.TaskIO" "20210613144730"
.depend "System._Signal" "20210613144732"
.depend "System.Signal" "20210613144732"
.depend "_SystemStrictMaybes" "20210613144732"
.depend "Text.GenPrint" "20210613144732"
.depend "iTasks.Extensions.DateTime" "20210613144730"
.depend "iTasks.Internal.TaskServer" "20210613144730"
.depend "AsyncIO" "20210613144730"
.depend "System._Process" "20210613144732"
.depend "System.Process" "20210613144732"
.depend "System.OS" "20210613144732"
.depend "TCPStringChannelsInternal" "20210613144732"
.depend "TCPStringChannels" "20210613144732"
.depend "TCPEvent" "20210613144732"
.depend "tcp_bytestreams" "20210613144732"
.depend "TCPDef" "20210613144732"
.depend "TCPChannels" "20210613144732"
.depend "TCPIP" "20210613144732"
.depend "iTasks.WF.Tasks.IO" "20210613144730"
.depend "Data.IntMap.Base" "20210613144732"
.depend "Data.IntMap.Strict" "20210613144732"
.depend "Data.CircularStack" "20210613144732"
.depend "iTasks.Extensions.Document" "20210613144730"
.depend "System.File" "20210613144732"
.depend "iTasks.Util.DeferredJSON" "20210613144730"
.depend "iTasks.UI.Layout" "20210613144730"
.depend "iTasks.Internal.TaskState" "20210613144730"
.depend "iTasks.Internal.SDS" "20210613144730"
.depend "Data.GenHash" "20210613144732"
.depend "Data.Maybe.Ord" "20210613144732"
.depend "Control.GenBimap" "20210613144732"
.depend "ABC.Interpreter.JavaScript" "20210613144730"
.depend "ABC.Interpreter" "20210613144730"
.depend "iTasks.UI.Editor" "20210613144730"
.depend "iTasks.UI.Editor.Generic" "20210613144730"
.depend "iTasks.Internal.Generic.Defaults" "20210613144730"
.depend "Data.GenDefault" "20210613144732"
.depend "Data.Integer" "20210613144732"
.depend "Text.HTML" "20210613144732"
.depend "iTasks.Internal.Generic.Visualization" "20210613144730"
.depend "iTasks.SDS.Definition" "20210613144730"
.depend "iTasks.WF.Combinators.Core" "20210613144730"
.depend "iTasks.Internal.TaskEval" "20210613144730"
.depend "iTasks.WF.Definition" "20210613144730"
.depend "iTasks.Internal.Task" "20210613144730"
.depend "iTasks.UI.Definition" "20210613144730"
.depend "Text.GenJSON" "20210613144732"
.depend "Data.Bifunctor" "20210613144732"
.depend "Data.Either" "20210613144732"
.depend "Data.Queue" "20210613144732"
.depend "StdFile" "20210613144732"
.depend "symbols_in_program" "20210613144730"
.depend "iTasks.Internal.IWorld" "20210613144730"
.depend "iTasks.Internal.WebService" "20210613144730"
.depend "tcp" "20210613144732"
.depend "TCPChannelClass" "20210613144732"
.depend "System._Time" "20210613144732"
.depend "System.Time" "20210613144732"
.depend "System.GetOpt" "20210613144732"
.depend "System.OSError" "20210613144732"
.depend "System.FilePath" "20210613144732"
.depend "StdString" "20210613144732"
.depend "Internet.HTTP" "20210613144732"
.depend "Control.Monad.Fail" "20210613144732"
.depend "Data.Traversable" "20210613144732"
.depend "StdMisc" "20210613144732"
.depend "StdOverloadedList" "20210613144732"
.depend "Data.List" "20210613144732"
.depend "Data.Foldable" "20210613144732"
.depend "Data.Set" "20210613144732"
.depend "Data.GenLexOrd" "20210613144732"
.depend "StdFunctions" "20210613144732"
.depend "StdFunc" "20210613144732"
.depend "Data.Map" "20210613144732"
.depend "_SystemEnumStrict" "20210613144732"
.depend "_SystemStrictLists" "20210613144732"
.depend "StdStrictLists" "20210613144732"
.depend "StdGeneric" "20210613144732"
.depend "Data.GenEq" "20210613144732"
.depend "StdReal" "20210613144732"
.depend "StdChar" "20210613144732"
.depend "StdInt" "20210613144732"
.depend "StdBool" "20210613144732"
.depend "StdClass" "20210613144732"
.depend "StdList" "20210613144732"
.depend "Data.Monoid" "20210613144732"
.depend "Control.Applicative" "20210613144732"
.depend "Control.Monad" "20210613144732"
.depend "Data.Functor" "20210613144732"
.depend "Data.Error" "20210613144732"
.depend "iTasks.Engine" "20210613144730"
.depend "StdOverloaded" "20210613144732"
.depend "_SystemDynamic" "20210613144732"
.depend "iTasks.Internal.Serialization" "20210613144730"
.module m_iTasks.Internal.Serialization "iTasks.Internal.Serialization" "20210613144730"
.endinfo
.impmod _system
.implab _cycle_in_spine
.implab _type_error
.implab _hnf
.impdesc e_system_dind
.implab e_system_nind e_system_eaind
.impdesc e_system_dif
.implab e_system_nif e_system_eaif
.implab e_system_sif
.impdesc e_system_dAP
.implab e_system_nAP e_system_eaAP
.implab e_system_sAP
.impdesc ARRAY
.impdesc _Nil
.impdesc _Cons
.impdesc _Conss
.implab n_Conss ea_Conss
.impdesc _Consts
.implab n_Consts ea_Consts
.impdesc _Conssts
.implab n_Conssts ea_Conssts
.impdesc _Tuple
.impdesc d_S.1
.implab n_S.1 ea_S.1
.impdesc d_S.2
.implab n_S.2 ea_S.2
.impdesc d_S.3
.implab n_S.3 ea_S.3
.impdesc d_S.4
.implab n_S.4 ea_S.4
.impdesc d_S.5
.implab n_S.5 ea_S.5
.impdesc d_S.6
.implab n_S.6 ea_S.6
.implab _driver
.impmod dynamic_string
.implab e_dynamic_string_sdynamic_to_string
.implab e_dynamic_string_sstring_to_dynamic
.impmod graph_copy
.implab e_graph_copy_scopy_to_string
.impdesc e_graph_copy_dcopy_from_string
.implab e_graph_copy_scopy_from_string
.implab e_graph_copy_ncopy_from_string
.impmod Text.Encodings.Base64
.implab e_Text.Encodings.Base64_sbase64URLEncode
.implab e_Text.Encodings.Base64_sbase64URLDecode
.impmod _SystemArray
.impmod ABC.Interpreter.JavaScript
.implab e_ABC.Interpreter.JavaScript_sjsSerializeGraph
.impmod StdInt
.implab e_StdInt_s+;6
.implab e_StdInt_s-;7
.implab e_StdInt_sone;11
.implab e_StdInt_s<;17
.impmod StdBool
.implab e_StdBool_snot
.impmod StdList
.implab e_StdList_smap
.implab e_StdList_sand
.impmod Text.GenJSON
.impdesc e_Text.GenJSON_kJSONString
.impdesc e_Text.GenJSON_kJSONArray
.impdesc e_Text.GenJSON_kJSONObject
.impmod Data.Error
.impdesc e_Data.Error_dOk
.export e_iTasks.Internal.Serialization_sJSONDecode_ARROW;11
.descexp e_iTasks.Internal.Serialization_dJSONDecode_ARROW;11 e_iTasks.Internal.Serialization_nJSONDecode_ARROW;11 e_iTasks.Internal.Serialization_lJSONDecode_ARROW;11 4 0 "JSONDecode_ARROW;11"
.o 4 1 b
e_iTasks.Internal.Serialization_iJSONDecode_ARROW;11
	pop_a 1
.d 3 1 b
	jmp s12
.ai 0 a12 e_iTasks.Internal.Serialization_iJSONDecode_ARROW;11
.o 2 0
e_iTasks.Internal.Serialization_lJSONDecode_ARROW;11
	repl_args 3 3
.o 4 0
a12
.d 4 0
	jsr ea12
.o 2 0
	push_a 1
	push_a 1
	buildh _Tuple 2
	updatepop_a 0 2
.d 1 0
	rtn
.n 4 e_iTasks.Internal.Serialization_dJSONDecode_ARROW;11
.o 1 0
e_iTasks.Internal.Serialization_nJSONDecode_ARROW;11
	push_node _cycle_in_spine 4
.d 4 0
	jsr ea12
.o 2 0
	push_a 1
	push_a 1
	fillh _Tuple 2 4
	pop_a 2
.d 1 0
	rtn
.o 4 0
ea12
	jsr_eval 3
	jsr_eval 2
	pushB_a 2
	update_a 1 2
	update_a 0 1
	pop_a 1
.o 3 1 b
e_iTasks.Internal.Serialization_sJSONDecode_ARROW;11
.o 3 1 b
s12
	eq_desc _Cons 2 2
	jmp_true case.1
	jmp case.2
case.1
	push_args 2 2 2
	jsr_eval 0
	eq_desc e_Text.GenJSON_kJSONArray 0 0
	jmp_true case.3
	pop_a 2
	jmp case.2
case.3
	repl_args 1 1
	eq_desc _Cons 2 0
	jmp_true case.4
	pop_a 2
	jmp case.2
case.4
	repl_args 2 2
	jsr_eval 0
	eq_desc e_Text.GenJSON_kJSONString 0 0
	jmp_true case.5
	pop_a 3
	jmp case.2
case.5
	repl_args 1 1
	push_a 0
	eqAC_a "_FUNCTION_"
	jmp_true case.6
	pop_a 3
	jmp case.2
case.6
	jsr_eval 1
	eq_desc _Cons 2 1
	jmp_true case.7
	pop_a 3
	jmp case.2
case.7
	push_args 1 2 2
	buildh _Nil 0
	update_a 0 4
	pop_a 1
	jsr_eval 0
	eq_desc e_Text.GenJSON_kJSONString 0 0
	jmp_true case.8
	pop_a 5
	jmp case.2
case.8
	repl_args 1 1
	jsr_eval 1
	eq_desc _Nil 0 1
	jmp_true case.9
	pop_a 5
	jmp case.2
case.9
	push_a 0
	pop_b 1
	update_a 5 7
	updatepop_a 0 6
.d 1 0
	jsr e_Text.Encodings.Base64_sbase64URLDecode
.o 1 0
	push_a 0
	push_arraysize CHAR 0 1
	pushI 1
	push_b 1
	update_b 1 2
	updatepop_b 0 1
	subI
	push_a 1
	jsr_eval 0
	pushI 1
	push_b 1
	addI
	buildh _Nil 0
	update_a 0 3
	pop_a 1
	create_array_ CHAR 0 1
	push_a 2
	push_b 0
	pushI 0
	push_a 1
	update_a 1 2
	update_a 0 1
	pop_a 1
	update_b 1 2
	updatepop_b 0 1
	buildh _Nil 0
	update_a 0 4
	pop_a 1
.d 2 2 ii
	jsr s15
.o 1 0
.d 1 0
	jsr e_graph_copy_scopy_from_string
.o 1 1 i
	jsr_eval 0
	pop_b 1
	buildh _Just 1
	update_a 1 4
	updatepop_a 0 3
.d 2 0
	rtn
case.2
	buildh _None 0
	push_a 3
	push_a 1
	update_a 1 2
	update_a 0 1
	pop_a 1
	update_a 1 4
	updatepop_a 0 3
	pop_b 1
.d 2 0
	rtn
.o 2 2 ii
s15
	push_b 0
	push_b 2
	ltI
	notB
	jmp_false else.10
	push_b 0
	push_a 1
	update_a 1 2
	updatepop_a 0 1
	push_a 0
	select CHAR 0 1
	pushI 1
	push_b 2
	addI
	push_b 1
	push_b 3
	push_a 1
	update_a 1 2
	updatepop_a 0 1
	update CHAR 0 1
	push_a 1
	push_b 3
	push_a 1
	update_a 1 2
	update_a 0 1
	pop_a 1
	push_b 1
	update_b 1 2
	update_b 0 1
	pop_b 1
	update_a 1 2
	updatepop_a 0 1
	update_b 1 4
	updatepop_b 0 3
.d 2 2 ii
	jmp s15
else.10
	updatepop_a 0 1
	pop_b 2
.d 1 0
	rtn
.export e_iTasks.Internal.Serialization_sJSONDecode_Dynamic;10
.descexp e_iTasks.Internal.Serialization_dJSONDecode_Dynamic;10 e_iTasks.Internal.Serialization_nJSONDecode_Dynamic;10 e_iTasks.Internal.Serialization_lJSONDecode_Dynamic;10 2 0 "JSONDecode_Dynamic;10"
.o 2 1 b
e_iTasks.Internal.Serialization_iJSONDecode_Dynamic;10
	pop_a 1
.d 1 1 b
	jmp s11
.ai 0 a11 e_iTasks.Internal.Serialization_iJSONDecode_Dynamic;10
.o 2 0
e_iTasks.Internal.Serialization_lJSONDecode_Dynamic;10
	repl_args 1 1
.o 2 0
a11
.d 2 0
	jsr ea11
.o 2 0
	push_a 1
	push_a 1
	buildh _Tuple 2
	updatepop_a 0 2
.d 1 0
	rtn
.n 2 e_iTasks.Internal.Serialization_dJSONDecode_Dynamic;10
.o 1 0
e_iTasks.Internal.Serialization_nJSONDecode_Dynamic;10
	push_node _cycle_in_spine 2
.d 2 0
	jsr ea11
.o 2 0
	push_a 1
	push_a 1
	fillh _Tuple 2 4
	pop_a 2
.d 1 0
	rtn
.o 2 0
ea11
	jsr_eval 1
	jsr_eval 0
	pushB_a 0
	pop_a 1
.o 1 1 b
e_iTasks.Internal.Serialization_sJSONDecode_Dynamic;10
.o 1 1 b
s11
	eq_desc _Cons 2 0
	jmp_true case.11
	jmp case.12
case.11
	push_args 0 2 2
	jsr_eval 0
	eq_desc e_Text.GenJSON_kJSONArray 0 0
	jmp_true case.13
	pop_a 2
	jmp case.12
case.13
	repl_args 1 1
	eq_desc _Cons 2 0
	jmp_true case.14
	pop_a 2
	jmp case.12
case.14
	repl_args 2 2
	jsr_eval 0
	eq_desc e_Text.GenJSON_kJSONString 0 0
	jmp_true case.15
	pop_a 3
	jmp case.12
case.15
	repl_args 1 1
	push_a 0
	eqAC_a "_DYNAMIC_"
	jmp_true case.16
	pop_a 3
	jmp case.12
case.16
	jsr_eval 1
	eq_desc _Cons 2 1
	jmp_true case.17
	pop_a 3
	jmp case.12
case.17
	push_args 1 2 2
	buildh _Nil 0
	update_a 0 4
	pop_a 1
	jsr_eval 0
	eq_desc e_Text.GenJSON_kJSONString 0 0
	jmp_true case.18
	pop_a 5
	jmp case.12
case.18
	repl_args 1 1
	jsr_eval 1
	eq_desc _Nil 0 1
	jmp_true case.19
	pop_a 5
	jmp case.12
case.19
	push_a 4
	jsr_eval 0
	push_a 1
	pop_b 1
	buildh _Nil 0
	update_a 0 3
	update_a 0 7
	pop_a 1
.d 1 0
	jsr e_Text.Encodings.Base64_sbase64URLDecode
.o 1 0
.d 1 0
	jsr s4
.o 2 0
.impmod _SystemDynamic
.impdesc e__SystemDynamic_rDynamicTemp
	buildhr e__SystemDynamic_rDynamicTemp 2 0
	buildh _Just 1
	update_a 1 7
	updatepop_a 0 6
.d 2 0
	rtn
case.12
	buildh _None 0
	push_a 1
	push_a 1
	update_a 1 2
	update_a 0 1
	pop_a 1
	update_a 1 2
	updatepop_a 0 1
	pop_b 1
.d 2 0
	rtn
.export e_iTasks.Internal.Serialization_sJSONEncode_ARROW;9
.export e_iTasks.Internal.Serialization_eaJSONEncode_ARROW;9
.descexp e_iTasks.Internal.Serialization_dJSONEncode_ARROW;9 e_iTasks.Internal.Serialization_nJSONEncode_ARROW;9 e_iTasks.Internal.Serialization_lJSONEncode_ARROW;9 4 0 "JSONEncode_ARROW;9"
.o 5 1 b
e_iTasks.Internal.Serialization_iJSONEncode_ARROW;9
	pop_a 1
.d 4 1 b
	jmp s10
.ai 4 e_iTasks.Internal.Serialization_eaJSONEncode_ARROW;9 e_iTasks.Internal.Serialization_iJSONEncode_ARROW;9
.o 2 0
e_iTasks.Internal.Serialization_lJSONEncode_ARROW;9
	push_args 0 3 3
	update_a 4 3
	create
	update_a 0 5
	pop_a 1
.d 5 0
	jmp e_iTasks.Internal.Serialization_eaJSONEncode_ARROW;9
.n 4 e_iTasks.Internal.Serialization_dJSONEncode_ARROW;9 e_iTasks.Internal.Serialization_eaJSONEncode_ARROW;9
.o 1 0
e_iTasks.Internal.Serialization_nJSONEncode_ARROW;9
	push_node _cycle_in_spine 4
.o 5 0
e_iTasks.Internal.Serialization_eaJSONEncode_ARROW;9
	jsr_eval 3
	jsr_eval 2
	pushB_a 2
	update_a 1 2
	update_a 0 1
	pop_a 1
.o 4 1 b
e_iTasks.Internal.Serialization_sJSONEncode_ARROW;9
.o 4 1 b
s10
	buildh _Nil 0
	buildh _Nil 0
	push_a 4
	build e_iTasks.Internal.Serialization_d_f0.222 1 e_iTasks.Internal.Serialization_n_f0.222
	buildh _Cons 2
	buildAC "_FUNCTION_"
	buildhr e_Text.GenJSON_kJSONString 1 0
	buildh _Cons 2
	buildhr e_Text.GenJSON_kJSONArray 1 0
	fillh _Cons 2 5
	pop_a 3
	pop_b 1
.d 1 0
	rtn
.export e_iTasks.Internal.Serialization_d_f0.222
.export e_iTasks.Internal.Serialization_n_f0.222
.descn e_iTasks.Internal.Serialization_d_f0.222 e_iTasks.Internal.Serialization_n_f0.222 1 0 "_f0.222"
.n 1 e_iTasks.Internal.Serialization_d_f0.222 ea222
.o 1 0
e_iTasks.Internal.Serialization_n_f0.222
	push_node _cycle_in_spine 1
.o 2 0
ea222
.o 2 0
s222
	push_a 0
	updatepop_a 0 1
.d 1 0
	jsr s1
.o 1 0
.d 1 0
	jsr e_Text.Encodings.Base64_sbase64URLEncode
.o 1 0
	fill_r e_Text.GenJSON_kJSONString 1 0 1 0 0
	pop_a 1
.d 1 0
	rtn
.export e_iTasks.Internal.Serialization_sJSONEncode_Dynamic;8
.export e_iTasks.Internal.Serialization_eaJSONEncode_Dynamic;8
.descexp e_iTasks.Internal.Serialization_dJSONEncode_Dynamic;8 e_iTasks.Internal.Serialization_nJSONEncode_Dynamic;8 e_iTasks.Internal.Serialization_lJSONEncode_Dynamic;8 2 0 "JSONEncode_Dynamic;8"
.o 3 1 b
e_iTasks.Internal.Serialization_iJSONEncode_Dynamic;8
	pop_a 1
	push_r_args 0 2 0
	update_a 1 2
	update_a 0 1
	pop_a 1
.d 3 1 b
	jmp s9
.ai 2 e_iTasks.Internal.Serialization_eaJSONEncode_Dynamic;8 e_iTasks.Internal.Serialization_iJSONEncode_Dynamic;8
.o 2 0
e_iTasks.Internal.Serialization_lJSONEncode_Dynamic;8
	push_args 0 1 1
	update_a 2 1
	create
	update_a 0 3
	pop_a 1
.d 3 0
	jmp e_iTasks.Internal.Serialization_eaJSONEncode_Dynamic;8
.n 2 e_iTasks.Internal.Serialization_dJSONEncode_Dynamic;8 e_iTasks.Internal.Serialization_eaJSONEncode_Dynamic;8
.o 1 0
e_iTasks.Internal.Serialization_nJSONEncode_Dynamic;8
	push_node _cycle_in_spine 2
.o 3 0
e_iTasks.Internal.Serialization_eaJSONEncode_Dynamic;8
	jsr_eval 1
	jsr_eval 0
	push_r_args 1 2 0
	pushB_a 2
	update_a 1 3
	update_a 0 2
	pop_a 2
.o 3 1 b
e_iTasks.Internal.Serialization_sJSONEncode_Dynamic;8
.o 3 1 b
s9
	buildh _Nil 0
	buildh _Nil 0
	build_r e__SystemDynamic_rDynamicTemp 2 0 2 0
	build e_iTasks.Internal.Serialization_d_f1.223 1 e_iTasks.Internal.Serialization_n_f1.223
	buildh _Cons 2
	buildAC "_DYNAMIC_"
	buildhr e_Text.GenJSON_kJSONString 1 0
	buildh _Cons 2
	buildhr e_Text.GenJSON_kJSONArray 1 0
	fillh _Cons 2 4
	pop_a 2
	pop_b 1
.d 1 0
	rtn
.export e_iTasks.Internal.Serialization_d_f1.223
.export e_iTasks.Internal.Serialization_n_f1.223
.descn e_iTasks.Internal.Serialization_d_f1.223 e_iTasks.Internal.Serialization_n_f1.223 1 0 "_f1.223"
.n 1 e_iTasks.Internal.Serialization_d_f1.223 ea223
.o 1 0
e_iTasks.Internal.Serialization_n_f1.223
	push_node _cycle_in_spine 1
.o 2 0
ea223
.o 2 0
s223
	push_r_args 0 2 0
	update_a 1 2
	updatepop_a 0 1
.d 2 0
	jsr s3
.o 1 0
.d 1 0
	jsr e_Text.Encodings.Base64_sbase64URLEncode
.o 1 0
	fill_r e_Text.GenJSON_kJSONString 1 0 1 0 0
	pop_a 1
.d 1 0
	rtn
.export e_iTasks.Internal.Serialization_sserializeForClient
.descexp e_iTasks.Internal.Serialization_dserializeForClient e_iTasks.Internal.Serialization_nserializeForClient e_iTasks.Internal.Serialization_lserializeForClient 2 0 "serializeForClient"
.a 0 a8
.o 2 0
e_iTasks.Internal.Serialization_lserializeForClient
	repl_args 1 1
.o 2 0
a8
.d 2 0
	jsr ea8
.o 5 3 ibi
.impmod iTasks.UI.Editor
.impdesc e_iTasks.UI.Editor_rVSt
	build_r e_iTasks.UI.Editor_rVSt 4 3 1 0
	push_a 1
	buildh ARRAY 1
	buildh _Tuple 2
	updatepop_a 0 5
	pop_b 3
.d 1 0
	rtn
.n 2 e_iTasks.Internal.Serialization_dserializeForClient
.o 1 0
e_iTasks.Internal.Serialization_nserializeForClient
	push_node _cycle_in_spine 2
.d 2 0
	jsr ea8
.o 5 3 ibi
	build_r e_iTasks.UI.Editor_rVSt 4 3 1 0
	push_a 1
	buildh ARRAY 1
	fillh _Tuple 2 7
	pop_a 5
	pop_b 3
.d 1 0
	rtn
.o 2 0
ea8
	jsr_eval 1
	push_r_args 1 4 3
	update_a 3 5
	update_a 1 3
	update_a 4 1
	update_a 2 4
	update_a 0 2
	pop_a 1
.o 5 3 ibi
e_iTasks.Internal.Serialization_sserializeForClient
.o 5 3 ibi
s8
	push_r_args 3 4 2
	push_a 4
	update_a 4 5
	update_a 3 4
	update_a 2 3
	update_a 1 2
	updatepop_a 0 1
.d 5 2 ii
	jsr e_ABC.Interpreter.JavaScript_sjsSerializeGraph
.o 1 0
	push_a 4
	push_a 4
	push_a 4
	push_b 2
	push_b 2
	push_b 2
	push_a 4
	push_a 4
	update_a 4 5
	update_a 3 4
	update_a 2 3
	update_a 1 2
	update_a 0 1
	pop_a 1
	update_a 4 8
	update_a 3 7
	update_a 2 6
	update_a 1 5
	updatepop_a 0 4
	update_b 2 5
	update_b 1 4
	updatepop_b 0 3
.d 5 3 ibi
	rtn
.export e_iTasks.Internal.Serialization_sdynamicJSONDecode
.export e_iTasks.Internal.Serialization_eadynamicJSONDecode
.descexp e_iTasks.Internal.Serialization_ddynamicJSONDecode e_iTasks.Internal.Serialization_ndynamicJSONDecode e_iTasks.Internal.Serialization_ldynamicJSONDecode 1 0 "dynamicJSONDecode"
.o 2 0
e_iTasks.Internal.Serialization_ldynamicJSONDecode
	update_a 1 0
	create
	update_a 0 2
	pop_a 1
.d 2 0
	jmp e_iTasks.Internal.Serialization_eadynamicJSONDecode
.n 1 e_iTasks.Internal.Serialization_ddynamicJSONDecode e_iTasks.Internal.Serialization_eadynamicJSONDecode
.o 1 0
e_iTasks.Internal.Serialization_ndynamicJSONDecode
	push_node _cycle_in_spine 1
.o 2 0
e_iTasks.Internal.Serialization_eadynamicJSONDecode
	jsr_eval 0
.o 2 0
e_iTasks.Internal.Serialization_sdynamicJSONDecode
.o 2 0
s7
	eq_desc e_Text.GenJSON_kJSONArray 0 0
	jmp_true case.20
	jmp case.21
case.20
	repl_args 1 1
	eq_desc _Cons 2 0
	jmp_true case.22
	jmp case.21
case.22
	repl_args 2 2
	jsr_eval 0
	eq_desc e_Text.GenJSON_kJSONString 0 0
	jmp_true case.23
	pop_a 1
	jmp case.21
case.23
	repl_args 1 1
	push_a 0
	eqAC_a "_DYNAMICENCODE_"
	jmp_true case.24
	pop_a 1
	jmp case.21
case.24
	jsr_eval 1
	eq_desc _Cons 2 1
	jmp_true case.25
	pop_a 1
	jmp case.21
case.25
	push_args 1 2 2
	buildh _Nil 0
	update_a 0 4
	pop_a 1
	jsr_eval 0
	eq_desc e_Text.GenJSON_kJSONString 0 0
	jmp_true case.26
	pop_a 3
	jmp case.21
case.26
	repl_args 1 1
	jsr_eval 1
	eq_desc _Nil 0 1
	jmp_true case.27
	pop_a 3
	jmp case.21
case.27
	push_a 0
	updatepop_a 0 4
.d 1 0
	jsr e_Text.Encodings.Base64_sbase64URLDecode
.o 1 0
.d 1 0
	jsr e_graph_copy_scopy_from_string
.o 1 1 i
	jsr_eval 0
	pop_b 1
	fillh _Just 1 1
.d 1 0
	rtn
case.21
	fillh _None 0 1
	pop_a 1
.d 1 0
	rtn
.export e_iTasks.Internal.Serialization_sdynamicJSONEncode
.export e_iTasks.Internal.Serialization_eadynamicJSONEncode
.descexp e_iTasks.Internal.Serialization_ddynamicJSONEncode e_iTasks.Internal.Serialization_ndynamicJSONEncode e_iTasks.Internal.Serialization_ldynamicJSONEncode 1 0 "dynamicJSONEncode"
.o 2 0
e_iTasks.Internal.Serialization_ldynamicJSONEncode
	update_a 1 0
	create
	update_a 0 2
	pop_a 1
.d 2 0
	jmp e_iTasks.Internal.Serialization_eadynamicJSONEncode
.n 1 e_iTasks.Internal.Serialization_ddynamicJSONEncode e_iTasks.Internal.Serialization_eadynamicJSONEncode
.o 1 0
e_iTasks.Internal.Serialization_ndynamicJSONEncode
	push_node _cycle_in_spine 1
.o 2 0
e_iTasks.Internal.Serialization_eadynamicJSONEncode
	jsr_eval 0
.o 2 0
e_iTasks.Internal.Serialization_sdynamicJSONEncode
.o 2 0
s6
	buildh _Nil 0
	push_a 1
	build e_iTasks.Internal.Serialization_d_f2.224 1 e_iTasks.Internal.Serialization_n_f2.224
	buildh _Cons 2
	buildAC "_DYNAMICENCODE_"
	buildhr e_Text.GenJSON_kJSONString 1 0
	buildh _Cons 2
	fill_r e_Text.GenJSON_kJSONArray 1 0 2 0 0
	pop_a 2
.d 1 0
	rtn
.export e_iTasks.Internal.Serialization_d_f2.224
.export e_iTasks.Internal.Serialization_n_f2.224
.descn e_iTasks.Internal.Serialization_d_f2.224 e_iTasks.Internal.Serialization_n_f2.224 1 0 "_f2.224"
.n 1 e_iTasks.Internal.Serialization_d_f2.224 ea224
.o 1 0
e_iTasks.Internal.Serialization_n_f2.224
	push_node _cycle_in_spine 1
.o 2 0
ea224
.o 2 0
s224
	push_a 0
	updatepop_a 0 1
.d 1 0
	jsr e_graph_copy_scopy_to_string
.o 1 0
.d 1 0
	jsr e_Text.Encodings.Base64_sbase64URLEncode
.o 1 0
	fill_r e_Text.GenJSON_kJSONString 1 0 1 0 0
	pop_a 1
.d 1 0
	rtn
.export e_iTasks.Internal.Serialization_d\;15;13;511.14
.desc e_iTasks.Internal.Serialization_d\;15;13;511.14 _hnf l14 1 0 "\;15;13;511.14"
.o 2 0
l14
	pop_a 1
.d 1 0
	jsr ea14
.o 0 1 b
	buildB_b 0
	pop_b 1
.d 1 0
	rtn
.o 1 0
ea14
	jsr_eval 0
	repl_args 2 2
	jsr_eval 1
.o 2 0
s14
	push_a 1
	push_a 1
	update_a 1 3
	updatepop_a 0 2
.d 2 0
	jsr s13
.o 1 0
.d 1 0
	jmp s5
.export e_iTasks.Internal.Serialization_sfunctionFree
.descexp e_iTasks.Internal.Serialization_dfunctionFree e_iTasks.Internal.Serialization_nfunctionFree e_iTasks.Internal.Serialization_lfunctionFree 1 0 "functionFree"
.o 2 0
e_iTasks.Internal.Serialization_lfunctionFree
	pop_a 1
.d 1 0
	jsr ea5
.o 0 1 b
	buildB_b 0
	pop_b 1
.d 1 0
	rtn
.n 1 e_iTasks.Internal.Serialization_dfunctionFree
.o 1 0
e_iTasks.Internal.Serialization_nfunctionFree
	push_node _cycle_in_spine 1
.d 1 0
	jsr ea5
.o 0 1 b
	fillB_b 0 0
	pop_b 1
.d 1 0
	rtn
.o 1 0
ea5
	jsr_eval 0
.o 1 0
e_iTasks.Internal.Serialization_sfunctionFree
.o 1 0
s5
	pushD_a 0
	eqD_b e_Text.GenJSON_kJSONString 0
	jmp_true case.28
	eqD_b e_Text.GenJSON_kJSONArray 0
	jmp_true case.29
	eqD_b e_Text.GenJSON_kJSONObject 0
	jmp_true case.30
	pop_b 1
	jmp case.31
case.28
	pop_b 1
	repl_args 1 1
	push_a 0
	eqAC_a "_FUNCTION_"
	jmp_true case.32
	push_a 0
	eqAC_a "_DYNAMIC_"
	jmp_true case.33
	push_a 0
	eqAC_a "_DYNAMICENCODE_"
	jmp_true case.34
	jmp case.31
case.32
	pop_a 1
	pushB FALSE
.d 0 1 b
	rtn
case.33
	pop_a 1
	pushB FALSE
.d 0 1 b
	rtn
case.34
	pop_a 1
	pushB FALSE
.d 0 1 b
	rtn
case.29
	pop_b 1
	repl_args 1 1
	buildh e_iTasks.Internal.Serialization_dfunctionFree 0
	create
	push_a 2
	push_a 2
	update_a 2 3
	update_a 1 2
	update_a 0 1
	pop_a 1
	update_a 2 3
	update_a 1 2
	updatepop_a 0 1
.d 3 0
	jsr e_StdList_smap
.o 1 0
.d 1 0
	jmp e_StdList_sand
case.30
	pop_b 1
	repl_args 1 1
	buildh e_iTasks.Internal.Serialization_d\;15;13;511.14 0
	create
	push_a 2
	push_a 2
	update_a 2 3
	update_a 1 2
	update_a 0 1
	pop_a 1
	update_a 2 3
	update_a 1 2
	updatepop_a 0 1
.d 3 0
	jsr e_StdList_smap
.o 1 0
.d 1 0
	jmp e_StdList_sand
case.31
	pop_a 1
	pushB TRUE
.d 0 1 b
	rtn
.o 2 0
s13
	pop_a 1
.d 1 0
	rtn
.export e_iTasks.Internal.Serialization_sdeserializeDynamic
.descexp e_iTasks.Internal.Serialization_ddeserializeDynamic e_iTasks.Internal.Serialization_ndeserializeDynamic e_iTasks.Internal.Serialization_ldeserializeDynamic 1 0 "deserializeDynamic"
.o 2 0
e_iTasks.Internal.Serialization_ldeserializeDynamic
	pop_a 1
.d 1 0
	jsr ea4
.o 2 0
	buildhr e__SystemDynamic_rDynamicTemp 2 0
.d 1 0
	rtn
.n 1 e_iTasks.Internal.Serialization_ddeserializeDynamic
.o 1 0
e_iTasks.Internal.Serialization_ndeserializeDynamic
	push_node _cycle_in_spine 1
.d 1 0
	jsr ea4
.o 2 0
	fill_r e__SystemDynamic_rDynamicTemp 2 0 2 0 0
	pop_a 2
.d 1 0
	rtn
.o 1 0
ea4
	jsr_eval 0
	push_array 0
	update_a 0 1
	pop_a 1
.o 1 0
e_iTasks.Internal.Serialization_sdeserializeDynamic
.o 1 0
s4
	push_a 0
	buildh ARRAY 1
	updatepop_a 0 1
.d 1 0
	jmp e_dynamic_string_sstring_to_dynamic
.export e_iTasks.Internal.Serialization_sserializeDynamic
.descexp e_iTasks.Internal.Serialization_dserializeDynamic e_iTasks.Internal.Serialization_nserializeDynamic e_iTasks.Internal.Serialization_lserializeDynamic 1 0 "serializeDynamic"
.o 2 0
e_iTasks.Internal.Serialization_lserializeDynamic
	pop_a 1
.d 1 0
	jsr ea3
.o 1 0
	buildh ARRAY 1
.d 1 0
	rtn
.n 1 e_iTasks.Internal.Serialization_dserializeDynamic
.o 1 0
e_iTasks.Internal.Serialization_nserializeDynamic
	push_node _cycle_in_spine 1
.d 1 0
	jsr ea3
.o 1 0
	fillh ARRAY 1 1
.d 1 0
	rtn
.o 1 0
ea3
	jsr_eval 0
	repl_r_args 2 0
.o 2 0
e_iTasks.Internal.Serialization_sserializeDynamic
.o 2 0
s3
	push_a 1
	push_a 1
	update_a 1 3
	updatepop_a 0 2
.d 2 0
	jmp e_dynamic_string_sdynamic_to_string
.export e_iTasks.Internal.Serialization_sdeserialize
.export e_iTasks.Internal.Serialization_eadeserialize
.descexp e_iTasks.Internal.Serialization_ddeserialize e_iTasks.Internal.Serialization_ndeserialize e_iTasks.Internal.Serialization_ldeserialize 1 0 "deserialize"
.o 2 0
e_iTasks.Internal.Serialization_ldeserialize
	update_a 1 0
	create
	update_a 0 2
	pop_a 1
.d 2 0
	jmp e_iTasks.Internal.Serialization_eadeserialize
.n 1 e_iTasks.Internal.Serialization_ddeserialize e_iTasks.Internal.Serialization_eadeserialize
.o 1 0
e_iTasks.Internal.Serialization_ndeserialize
	push_node _cycle_in_spine 1
.o 2 0
e_iTasks.Internal.Serialization_eadeserialize
	jsr_eval 0
	push_array 0
	update_a 0 1
	pop_a 1
.o 2 0
e_iTasks.Internal.Serialization_sdeserialize
.o 2 0
s2
	push_a 0
	buildh ARRAY 1
	build e_graph_copy_dcopy_from_string 1 e_graph_copy_ncopy_from_string
	build d_S.1 -1 n_S.1
	fillh e_Data.Error_dOk 1 2
	pop_a 1
.d 1 0
	rtn
.export e_iTasks.Internal.Serialization_sserialize
.descexp e_iTasks.Internal.Serialization_dserialize e_iTasks.Internal.Serialization_nserialize e_iTasks.Internal.Serialization_lserialize 1 0 "serialize"
.o 2 0
e_iTasks.Internal.Serialization_lserialize
	pop_a 1
.d 1 0
	jsr ea1
.o 1 0
	buildh ARRAY 1
.d 1 0
	rtn
.n 1 e_iTasks.Internal.Serialization_dserialize
.o 1 0
e_iTasks.Internal.Serialization_nserialize
	push_node _cycle_in_spine 1
.d 1 0
	jsr ea1
.o 1 0
	fillh ARRAY 1 1
.d 1 0
	rtn
.o 1 0
ea1
	jsr_eval 0
.o 1 0
e_iTasks.Internal.Serialization_sserialize
.o 1 0
s1
	push_a 0
	updatepop_a 0 1
.d 1 0
	jmp e_graph_copy_scopy_to_string
