.comp 920 000011110011000
.start _nostart_
.depend "Text" "20210613144732"
.depend "Data.Tree" "20210613144732"
.depend "System.Directory" "20210613144732"
.depend "StdCharList" "20210613144732"
.depend "_SystemArray" "20210613144732"
.depend "StdArray" "20210613144732"
.depend "StdEnv" "20210613144732"
.depend "iTasks.Internal.Serialization" "20210613144730"
.depend "_SystemEnum" "20210613144732"
.depend "StdEnum" "20210613144732"
.depend "StdTuple" "20210613144732"
.depend "StdOrdList" "20210613144732"
.depend "iTasks.SDS.Combinators.Common" "20210613144730"
.depend "iTasks.SDS.Combinators.Core" "20210613144730"
.depend "iTasks.SDS.Sources.Store" "20210613144730"
.depend "iTasks.SDS.Sources.Core" "20210613144730"
.depend "iTasks.Internal.TaskIO" "20210613144730"
.depend "System._Signal" "20210613144732"
.depend "System.Signal" "20210613144732"
.depend "_SystemStrictMaybes" "20210613144732"
.depend "Text.GenPrint" "20210613144732"
.depend "iTasks.Extensions.DateTime" "20210613144730"
.depend "iTasks.Internal.TaskServer" "20210613144730"
.depend "AsyncIO" "20210613144730"
.depend "System._Process" "20210613144732"
.depend "System.Process" "20210613144732"
.depend "System.OS" "20210613144732"
.depend "TCPStringChannelsInternal" "20210613144732"
.depend "TCPStringChannels" "20210613144732"
.depend "TCPEvent" "20210613144732"
.depend "tcp_bytestreams" "20210613144732"
.depend "TCPDef" "20210613144732"
.depend "TCPChannels" "20210613144732"
.depend "TCPIP" "20210613144732"
.depend "iTasks.WF.Tasks.IO" "20210613144730"
.depend "Data.IntMap.Base" "20210613144732"
.depend "Data.IntMap.Strict" "20210613144732"
.depend "Data.CircularStack" "20210613144732"
.depend "iTasks.Extensions.Document" "20210613144730"
.depend "System.File" "20210613144732"
.depend "iTasks.Util.DeferredJSON" "20210613144730"
.depend "iTasks.UI.Layout" "20210613144730"
.depend "iTasks.Internal.TaskState" "20210613144730"
.depend "iTasks.Internal.SDS" "20210613144730"
.depend "Data.GenHash" "20210613144732"
.depend "Data.Maybe.Ord" "20210613144732"
.depend "Control.GenBimap" "20210613144732"
.depend "ABC.Interpreter.JavaScript" "20210613144730"
.depend "ABC.Interpreter" "20210613144730"
.depend "iTasks.UI.Editor" "20210613144730"
.depend "iTasks.UI.Editor.Generic" "20210613144730"
.depend "iTasks.Internal.Generic.Defaults" "20210613144730"
.depend "Data.GenDefault" "20210613144732"
.depend "Data.Integer" "20210613144732"
.depend "Text.HTML" "20210613144732"
.depend "iTasks.Internal.Generic.Visualization" "20210613144730"
.depend "iTasks.SDS.Definition" "20210613144730"
.depend "iTasks.WF.Combinators.Core" "20210613144730"
.depend "iTasks.Internal.TaskEval" "20210613144730"
.depend "iTasks.WF.Definition" "20210613144730"
.depend "iTasks.Internal.Task" "20210613144730"
.depend "iTasks.UI.Definition" "20210613144730"
.depend "Text.GenJSON" "20210613144732"
.depend "Data.Bifunctor" "20210613144732"
.depend "Data.Either" "20210613144732"
.depend "Data.Queue" "20210613144732"
.depend "StdFile" "20210613144732"
.depend "symbols_in_program" "20210613144730"
.depend "iTasks.Internal.IWorld" "20210613144730"
.depend "iTasks.Internal.WebService" "20210613144730"
.depend "tcp" "20210613144732"
.depend "TCPChannelClass" "20210613144732"
.depend "System._Time" "20210613144732"
.depend "System.Time" "20210613144732"
.depend "System.GetOpt" "20210613144732"
.depend "System.OSError" "20210613144732"
.depend "System.FilePath" "20210613144732"
.depend "StdString" "20210613144732"
.depend "Internet.HTTP" "20210613144732"
.depend "Control.Monad.Fail" "20210613144732"
.depend "Data.Traversable" "20210613144732"
.depend "StdMisc" "20210613144732"
.depend "StdOverloadedList" "20210613144732"
.depend "Data.List" "20210613144732"
.depend "Data.Foldable" "20210613144732"
.depend "Data.Set" "20210613144732"
.depend "Data.GenLexOrd" "20210613144732"
.depend "StdFunctions" "20210613144732"
.depend "StdFunc" "20210613144732"
.depend "Data.Map" "20210613144732"
.depend "_SystemEnumStrict" "20210613144732"
.depend "_SystemStrictLists" "20210613144732"
.depend "StdStrictLists" "20210613144732"
.depend "StdGeneric" "20210613144732"
.depend "Data.GenEq" "20210613144732"
.depend "StdReal" "20210613144732"
.depend "StdChar" "20210613144732"
.depend "StdInt" "20210613144732"
.depend "StdBool" "20210613144732"
.depend "StdClass" "20210613144732"
.depend "StdList" "20210613144732"
.depend "Data.Monoid" "20210613144732"
.depend "Control.Applicative" "20210613144732"
.depend "Control.Monad" "20210613144732"
.depend "Data.Functor" "20210613144732"
.depend "Data.Error" "20210613144732"
.depend "iTasks.Engine" "20210613144730"
.depend "StdOverloaded" "20210613144732"
.depend "_SystemDynamic" "20210613144732"
.depend "iTasks.Internal.Store" "20210613144730"
.module m_iTasks.Internal.Store "iTasks.Internal.Store" "20210613144730"
.endinfo
.impmod _system
.implab _cycle_in_spine
.implab _type_error
.implab _hnf
.impdesc e_system_dind
.implab e_system_nind e_system_eaind
.impdesc e_system_dif
.implab e_system_nif e_system_eaif
.implab e_system_sif
.impdesc e_system_dAP
.implab e_system_nAP e_system_eaAP
.implab e_system_sAP
.impdesc ARRAY
.impdesc _Nil
.impdesc _Cons
.impdesc _Conss
.implab n_Conss ea_Conss
.impdesc _Consts
.implab n_Consts ea_Consts
.impdesc _Conssts
.implab n_Conssts ea_Conssts
.impdesc _Tuple
.impdesc d_S.1
.implab n_S.1 ea_S.1
.impdesc d_S.2
.implab n_S.2 ea_S.2
.impdesc d_S.3
.implab n_S.3 ea_S.3
.impdesc d_S.4
.implab n_S.4 ea_S.4
.impdesc d_S.5
.implab n_S.5 ea_S.5
.impdesc d_S.6
.implab n_S.6 ea_S.6
.implab _driver
.impmod Text
.impdesc e_Text_dstartsWith;17
.impmod System.Directory
.implab e_System.Directory_sreadDirectory
.impmod _SystemArray
.impmod System.File
.implab e_System.File_sdeleteFile
.impmod System.FilePath
.implab e_System.FilePath_s</>
.impdesc e_System.FilePath_ddropExtension
.implab e_System.FilePath_sdropExtension
.implab e_System.FilePath_ndropExtension
.impmod StdString
.impdesc e_StdString_d==;2
.implab e_StdString_s==;2
.implab e_StdString_stoString;5
.implab e_StdString_s+++;11
.impmod StdChar
.implab e_StdChar_sisAlphanum
.implab e_StdChar_s==;18
.impmod StdInt
.implab e_StdInt_s+;6
.implab e_StdInt_s==;16
.impmod StdBool
.implab e_StdBool_snot
.impmod StdList
.implab e_StdList_sisMember
.impmod Data.Error
.implab e_Data.Error_sfromOk
.impmod iTasks.Internal.IWorld
.impdesc e_iTasks.Internal.IWorld_rIWorld
.impdesc e_iTasks.Internal.IWorld_tIWorld
.implab e_iTasks.Internal.IWorld_cIWorld
.impmod StdClass
.impdesc e_StdClass_rEq;
.impmod Data.Error
.impdesc e_Data.Error_dError
.impdesc e_Data.Error_dOk
.impmod StdOverloaded
.impdesc e_StdOverloaded_r==;
.export e_iTasks.Internal.Store_semptyStore
.export e_iTasks.Internal.Store_eaemptyStore
.descexp e_iTasks.Internal.Store_demptyStore e_iTasks.Internal.Store_nemptyStore e_iTasks.Internal.Store_lemptyStore 1 0 "emptyStore"
.o 2 0
e_iTasks.Internal.Store_lemptyStore
	update_a 1 0
	create
	update_a 0 2
	pop_a 1
.d 2 0
	jmp e_iTasks.Internal.Store_eaemptyStore
.n 1 e_iTasks.Internal.Store_demptyStore e_iTasks.Internal.Store_eaemptyStore
.o 1 0
e_iTasks.Internal.Store_nemptyStore
	push_node _cycle_in_spine 1
.o 2 0
e_iTasks.Internal.Store_eaemptyStore
	jsr_eval 0
.o 2 0
e_iTasks.Internal.Store_semptyStore
.o 2 0
s5
	push_a 0
	updatepop_a 0 1
.d 1 0
	jsr s3
.o 2 0
	push_a 0
	push_a 2
	update_a 1 3
	updatepop_a 0 2
.d 3 0
	jmp s18
.o 3 0
s18
	eq_desc _Nil 0 1
	jmp_true case.1
	jmp case.2
case.1
	fill_a 0 2
	pop_a 2
.d 1 0
	rtn
case.2
	push_args 1 2 2
	buildh _Nil 0
	update_a 0 4
	pop_a 1
	push_a 1
	jsr_eval 0
	push_a 1
	jsr_eval 0
	push_array 0
	updatepop_a 0 1
	create
	push_a 5
	push_a 2
	update_a 2 3
	update_a 0 2
	pop_a 1
	buildh _Nil 0
	update_a 0 7
	update_a 0 5
	update_a 0 6
	pop_a 1
.d 3 0
	jsr s13
.o 1 0
	update_a 1 5
	updatepop_a 0 4
.d 3 0
	jmp s18
.o 3 0
s13
	push_a 0
	push_a 2
	update_a 1 3
	updatepop_a 0 2
.d 3 0
	jmp s15
.o 3 0
s15
	push_a 1
	push_a 1
	update_a 2 3
	update_a 1 2
	updatepop_a 0 1
.d 2 0
	jsr s4
.o 2 0
	push_a 2
	push_a 2
	update_a 1 3
	update_a 2 1
	update_a 0 2
	pop_a 1
	update_a 2 3
	update_a 1 2
	updatepop_a 0 1
.d 4 0
	jmp s27
.o 4 0
s27
	eq_desc e_Data.Error_dOk 1 0
	jmp_true case.3
	jmp case.4
case.3
	repl_args 1 1
	push_a 0
	jsr_eval 0
	push_a 2
	push_a 4
	update_a 2 5
	update_a 1 4
	updatepop_a 0 3
.d 4 0
	jmp s17
case.4
	repl_args 1 1
	pop_a 1
	fill_a 0 2
	pop_a 2
.d 1 0
	rtn
.o 4 0
s17
	eq_desc _Nil 0 2
	jmp_true case.5
	jmp case.6
case.5
	fill_a 1 3
	pop_a 3
.d 1 0
	rtn
case.6
	push_args 2 2 2
	buildh _Nil 0
	update_a 0 5
	pop_a 1
	push_a 1
	jsr_eval 0
	push_a 1
	jsr_eval 0
	push_array 0
	updatepop_a 0 1
	create
	push_a 6
	push_a 6
	push_a 3
	update_a 3 4
	update_a 0 3
	pop_a 1
	buildh _Nil 0
	update_a 0 9
	update_a 0 6
	update_a 0 7
	pop_a 1
.d 4 0
	jsr s14
.o 1 0
	push_a 4
	update_a 2 7
	update_a 1 6
	updatepop_a 0 5
.d 4 0
	jmp s17
.o 4 0
s14
	push_a 1
	push_a 3
	push_a 2
	update_a 2 5
	update_a 1 4
	updatepop_a 0 3
.d 3 0
	jsr s236
.o 2 0
	fill_a 1 2
	pop_a 2
.d 1 0
	rtn
.export e_iTasks.Internal.Store_slistStoreNames
.descexp e_iTasks.Internal.Store_dlistStoreNames e_iTasks.Internal.Store_nlistStoreNames e_iTasks.Internal.Store_llistStoreNames 2 0 "listStoreNames"
.a 0 a4
.o 2 0
e_iTasks.Internal.Store_llistStoreNames
	repl_args 1 1
.o 2 0
a4
.d 2 0
	jsr ea4
.o 2 0
	push_a 1
	push_a 1
	buildh _Tuple 2
	updatepop_a 0 2
.d 1 0
	rtn
.n 2 e_iTasks.Internal.Store_dlistStoreNames
.o 1 0
e_iTasks.Internal.Store_nlistStoreNames
	push_node _cycle_in_spine 2
.d 2 0
	jsr ea4
.o 2 0
	push_a 1
	push_a 1
	fillh _Tuple 2 4
	pop_a 2
.d 1 0
	rtn
.o 2 0
ea4
	jsr_eval 1
	jsr_eval 0
	push_array 0
	update_a 0 1
	pop_a 1
.o 2 0
e_iTasks.Internal.Store_slistStoreNames
.o 2 0
s4
	push_a 1
	update_a 1 2
	updatepop_a 0 1
.d 1 0
	jsr s3
.o 2 0
	buildh e_StdString_d==;2 0
	push_a 1
	push_a 4
	buildh ARRAY 1
	push_a 2
	update_a 2 3
	update_a 1 2
	update_a 0 1
	pop_a 1
	update_a 2 3
	update_a 1 2
	updatepop_a 0 1
.d 3 0
	jsr e_StdList_sisMember
.o 0 1 b
	notB
	jmp_false else.7
	push_a 0
	push_r_arg_u 0 26 1 24 1 1 0
	fill2_r e_iTasks.Internal.IWorld_rIWorld 26 1 1 0000000000000000000000001000
	push_a 0
	push_a 3
	build e_iTasks.Internal.Store_d_f0.242 1 e_iTasks.Internal.Store_n_f0.242
	buildh e_Data.Error_dError 1
	update_a 1 4
	updatepop_a 0 3
.d 2 0
	rtn
else.7
	push_a 0
	push_r_args_a 0 26 1 24 1
	push_r_args_a 1 26 1 1 1
	repl_r_args 16 6
	updatepop_a 12 15
	pop_b 6
	push_a 4
	push_a 1
	update_a 1 2
	update_a 0 1
	pop_a 1
	buildh _Nil 0
	update_a 0 6
	update_a 0 5
	pop_a 1
.d 2 0
	jsr e_System.FilePath_s</>
.o 1 0
	update_a 2 4
	update_a 1 3
	updatepop_a 0 2
.d 2 0
	jsr e_System.Directory_sreadDirectory
.o 2 0
	push_a 1
	push_a 3
	push_a 2
	update_a 2 5
	update_a 1 4
	updatepop_a 0 3
.d 3 0
	jmp s235
.export e_iTasks.Internal.Store_d_f0.242
.export e_iTasks.Internal.Store_n_f0.242
.descn e_iTasks.Internal.Store_d_f0.242 e_iTasks.Internal.Store_n_f0.242 1 0 "_f0.242"
.n 1 e_iTasks.Internal.Store_d_f0.242 ea242
.o 1 0
e_iTasks.Internal.Store_n_f0.242
	push_node _cycle_in_spine 1
.o 2 0
ea242
.o 2 0
s242
	buildAC " does not exist"
	push_a 1
	update_a 1 2
	updatepop_a 0 1
.d 2 0
	jsr catAC
.o 1 0
	buildAC "Namespace "
.d 2 0
	jsr catAC
.o 1 0
	fillh ARRAY 1 1
.d 1 0
	rtn
.export e_iTasks.Internal.Store_dc;101;44;12.12
.export e_iTasks.Internal.Store_nc;101;44;12.12
.descn e_iTasks.Internal.Store_dc;101;44;12.12 e_iTasks.Internal.Store_nc;101;44;12.12 1 0 "c;101;44;12.12"
.n 1 e_iTasks.Internal.Store_dc;101;44;12.12 ea12
.o 1 0
e_iTasks.Internal.Store_nc;101;44;12.12
	push_node _cycle_in_spine 1
.o 2 0
ea12
	jsr_eval 0
.o 2 0
s12
	push_a 0
	updatepop_a 0 1
.d 2 0
	jmp s25
.o 2 0
s25
	eq_desc _Cons 2 0
	jmp_true case.8
	jmp case.9
case.8
	repl_args 2 2
	push_a 0
	jsr_eval 0
	push_array 0
	updatepop_a 0 1
	buildAC "."
	push_a 1
	update_a 1 2
	update_a 0 1
	pop_a 1
.d 2 0
	jsr eqAC
.o 0 1 b
	push_a 0
.d 1 1 b
	jsr s24
.o 0 1 b
	notB
	jmp_false else.10
	push_a 1
	build e_iTasks.Internal.Store_dc;101;44;12.12 1 e_iTasks.Internal.Store_nc;101;44;12.12
	push_a 1
	build e_System.FilePath_ddropExtension 1 e_System.FilePath_ndropExtension
	fillh _Cons 2 4
	pop_a 2
.d 1 0
	rtn
else.10
	push_a 1
	jsr_eval 0
	updatepop_a 0 2
.d 2 0
	jmp s12
case.9
	fillh _Nil 0 1
	pop_a 1
.d 1 0
	rtn
.o 1 1 b
s24
	eqB_b TRUE 0
	jmp_true case.11
	jmp case.12
case.11
	pop_a 1
	pop_b 1
	pushB TRUE
.d 0 1 b
	rtn
case.12
	push_a 0
	jsr_eval 0
	push_array 0
	updatepop_a 0 1
	buildAC ".."
	push_a 1
	update_a 1 2
	update_a 0 1
	pop_a 1
	update_a 1 2
	updatepop_a 0 1
	pop_b 1
.d 2 0
	jsr eqAC
.o 0 1 b
.d 0 1 b
	rtn
.export e_iTasks.Internal.Store_slistStoreNamespaces
.descexp e_iTasks.Internal.Store_dlistStoreNamespaces e_iTasks.Internal.Store_nlistStoreNamespaces e_iTasks.Internal.Store_llistStoreNamespaces 1 0 "listStoreNamespaces"
.o 2 0
e_iTasks.Internal.Store_llistStoreNamespaces
	pop_a 1
.d 1 0
	jsr ea3
.o 2 0
	push_a 1
	push_a 1
	buildh _Tuple 2
	updatepop_a 0 2
.d 1 0
	rtn
.n 1 e_iTasks.Internal.Store_dlistStoreNamespaces
.o 1 0
e_iTasks.Internal.Store_nlistStoreNamespaces
	push_node _cycle_in_spine 1
.d 1 0
	jsr ea3
.o 2 0
	push_a 1
	push_a 1
	fillh _Tuple 2 4
	pop_a 2
.d 1 0
	rtn
.o 1 0
ea3
	jsr_eval 0
.o 1 0
e_iTasks.Internal.Store_slistStoreNamespaces
.o 1 0
s3
	push_r_args 0 26 1
	update_a 23 25
	update_a 0 24
	pop_a 24
	pop_b 1
	repl_r_args 16 6
	update_a 12 15
	pop_a 15
	pop_b 6
	push_a 1
	push_a 1
	update_a 1 3
	updatepop_a 0 2
.d 2 0
	jsr e_System.Directory_sreadDirectory
.o 2 0
	push_a 1
	push_a 3
	push_a 2
	update_a 2 5
	update_a 1 4
	updatepop_a 0 3
.d 3 0
	jmp s234
.export e_iTasks.Internal.Store_dc;89;27;11.11
.export e_iTasks.Internal.Store_nc;89;27;11.11
.descn e_iTasks.Internal.Store_dc;89;27;11.11 e_iTasks.Internal.Store_nc;89;27;11.11 1 0 "c;89;27;11.11"
.n 1 e_iTasks.Internal.Store_dc;89;27;11.11 ea11
.o 1 0
e_iTasks.Internal.Store_nc;89;27;11.11
	push_node _cycle_in_spine 1
.o 2 0
ea11
	jsr_eval 0
.o 2 0
s11
	push_a 0
	updatepop_a 0 1
.d 2 0
	jmp s22
.o 2 0
s22
	eq_desc _Cons 2 0
	jmp_true case.13
	jmp case.14
case.13
	repl_args 2 2
	push_a 0
	jsr_eval 0
	push_array 0
	updatepop_a 0 1
	buildAC "."
	push_a 1
	update_a 1 2
	update_a 0 1
	pop_a 1
.d 2 0
	jsr eqAC
.o 0 1 b
	push_a 0
.d 1 1 b
	jsr s21
.o 0 1 b
	notB
	jmp_false else.15
	push_a 1
	build e_iTasks.Internal.Store_dc;89;27;11.11 1 e_iTasks.Internal.Store_nc;89;27;11.11
	push_a 1
	fillh _Cons 2 4
	pop_a 2
.d 1 0
	rtn
else.15
	push_a 1
	jsr_eval 0
	updatepop_a 0 2
.d 2 0
	jmp s11
case.14
	fillh _Nil 0 1
	pop_a 1
.d 1 0
	rtn
.o 1 1 b
s21
	eqB_b TRUE 0
	jmp_true case.16
	jmp case.17
case.16
	pop_a 1
	pop_b 1
	pushB TRUE
.d 0 1 b
	rtn
case.17
	push_a 0
	jsr_eval 0
	push_array 0
	updatepop_a 0 1
	buildAC ".."
	push_a 1
	update_a 1 2
	update_a 0 1
	pop_a 1
	update_a 1 2
	updatepop_a 0 1
	pop_b 1
.d 2 0
	jsr eqAC
.o 0 1 b
.d 0 1 b
	rtn
.export e_iTasks.Internal.Store_sdeleteValues
.descexp e_iTasks.Internal.Store_ddeleteValues e_iTasks.Internal.Store_ndeleteValues e_iTasks.Internal.Store_ldeleteValues 3 0 "deleteValues"
.a 0 a2
.o 2 0
e_iTasks.Internal.Store_ldeleteValues
	repl_args 2 2
.o 3 0
a2
.d 3 0
	jsr ea2
.o 2 0
	push_a 1
	push_a 1
	buildh _Tuple 2
	updatepop_a 0 2
.d 1 0
	rtn
.n 3 e_iTasks.Internal.Store_ddeleteValues
.o 1 0
e_iTasks.Internal.Store_ndeleteValues
	push_node _cycle_in_spine 3
.d 3 0
	jsr ea2
.o 2 0
	push_a 1
	push_a 1
	fillh _Tuple 2 4
	pop_a 2
.d 1 0
	rtn
.o 3 0
ea2
	jsr_eval 2
	jsr_eval 1
	jsr_eval 0
	push_array 1
	push_array 1
	update_a 1 3
	update_a 0 2
	pop_a 2
.o 3 0
e_iTasks.Internal.Store_sdeleteValues
.o 3 0
s2
	buildh e_Text_dstartsWith;17 0
	buildh e_Text_dstartsWith;17 0
	push_a 4
	push_a 4
	push_a 4
	push_a 4
	update_a 3 5
	update_a 4 3
	update_a 0 4
	pop_a 1
	update_a 4 7
	update_a 3 6
	update_a 2 5
	update_a 1 4
	updatepop_a 0 3
.d 5 0
	jmp s6
.export e_iTasks.Internal.Store_sdeleteValue
.descexp e_iTasks.Internal.Store_ddeleteValue e_iTasks.Internal.Store_ndeleteValue e_iTasks.Internal.Store_ldeleteValue 3 0 "deleteValue"
.a 0 a1
.o 2 0
e_iTasks.Internal.Store_ldeleteValue
	repl_args 2 2
.o 3 0
a1
.d 3 0
	jsr ea1
.o 2 0
	push_a 1
	push_a 1
	buildh _Tuple 2
	updatepop_a 0 2
.d 1 0
	rtn
.n 3 e_iTasks.Internal.Store_ddeleteValue
.o 1 0
e_iTasks.Internal.Store_ndeleteValue
	push_node _cycle_in_spine 3
.d 3 0
	jsr ea1
.o 2 0
	push_a 1
	push_a 1
	fillh _Tuple 2 4
	pop_a 2
.d 1 0
	rtn
.o 3 0
ea1
	jsr_eval 2
	jsr_eval 1
	jsr_eval 0
	push_array 1
	push_array 1
	update_a 1 3
	update_a 0 2
	pop_a 2
.o 3 0
e_iTasks.Internal.Store_sdeleteValue
.o 3 0
s1
	buildh e_iTasks.Internal.Store_dfilterFuncDisk;7.8 0
	buildh e_StdString_d==;2 0
	push_a 4
	push_a 4
	push_a 4
	push_a 4
	update_a 3 5
	update_a 4 3
	update_a 0 4
	pop_a 1
	update_a 4 7
	update_a 3 6
	update_a 2 5
	update_a 1 4
	updatepop_a 0 3
.d 5 0
	jmp s6
.export e_iTasks.Internal.Store_dfilterFuncDisk;7.8
.desc e_iTasks.Internal.Store_dfilterFuncDisk;7.8 _hnf l8 2 0 "filterFuncDisk;7.8"
.a 0 a8
.o 2 0
l8
	repl_args 1 1
.o 2 0
a8
.d 2 0
	jsr ea8
.o 0 1 b
	buildB_b 0
	pop_b 1
.d 1 0
	rtn
.o 2 0
ea8
	jsr_eval 1
	jsr_eval 0
	push_array 1
	push_array 1
	update_a 1 3
	update_a 0 2
	pop_a 2
.o 2 0
s8
	push_a 1
	update_a 1 2
	updatepop_a 0 1
.d 1 0
	jsr e_System.FilePath_sdropExtension
.o 1 0
	push_a 1
	push_a 1
	update_a 1 2
	update_a 0 1
	pop_a 1
	update_a 1 2
	updatepop_a 0 1
.d 2 0
	jsr eqAC
.o 0 1 b
.d 0 1 b
	rtn
.o 5 0
s6
	push_r_args_u 4 26 1
	update_a 23 25
	update_a 0 24
	pop_a 24
	pop_b 1
	repl_r_args 16 6
	update_a 12 15
	pop_a 15
	pop_b 6
	push_a 1
	push_a 3
	push_a 2
	push_a 6
	buildh ARRAY 1
	push_a 9
	build e_iTasks.Internal.Store_ddeleteFromDisk;8.9 5 e_iTasks.Internal.Store_ndeleteFromDisk;8.9
	push_a 0
	build d_S.2 -1 n_S.2
	push_a 8
	build e_iTasks.Internal.Store_d_upd0.247 2 e_iTasks.Internal.Store_n_upd0.247
	push_a 1
	build d_S.1 -1 n_S.1
	update_a 1 9
	updatepop_a 0 8
.d 2 0
	rtn
.export e_iTasks.Internal.Store_d_upd0.247
.export e_iTasks.Internal.Store_n_upd0.247
.descn e_iTasks.Internal.Store_d_upd0.247 e_iTasks.Internal.Store_n_upd0.247 2 0 "_upd0.247"
.n 2 e_iTasks.Internal.Store_d_upd0.247 ea247
.o 1 0
e_iTasks.Internal.Store_n_upd0.247
	push_node _cycle_in_spine 2
.o 3 0
ea247
.o 3 0
s247
	push_a 1
	jsr_eval 0
	push_r_args 1 26 1
	update_a 26 23
	fill_r e_iTasks.Internal.IWorld_rIWorld 26 1 29 0 0
	pop_a 29
	pop_b 1
.d 1 0
	rtn
.export e_iTasks.Internal.Store_ddeleteFromDisk;8.9
.export e_iTasks.Internal.Store_ndeleteFromDisk;8.9
.descn e_iTasks.Internal.Store_ddeleteFromDisk;8.9 e_iTasks.Internal.Store_ndeleteFromDisk;8.9 5 0 "deleteFromDisk;8.9"
.n 5 e_iTasks.Internal.Store_ddeleteFromDisk;8.9
.o 1 0
e_iTasks.Internal.Store_ndeleteFromDisk;8.9
	push_node _cycle_in_spine 5
.d 5 0
	jsr ea9
.o 2 0
	push_a 1
	push_a 1
	fillh _Tuple 2 4
	pop_a 2
.d 1 0
	rtn
.o 5 0
ea9
.o 5 0
s9
	push_a 3
	push_a 3
	update_a 3 5
	update_a 2 4
	update_a 1 3
	updatepop_a 0 2
.d 2 0
	jsr e_System.FilePath_s</>
.o 1 0
	push_a 3
	push_a 1
	buildh _Nil 0
	update_a 0 6
	pop_a 1
.d 2 0
	jsr e_System.Directory_sreadDirectory
.o 2 0
	push_a 1
	push_a 3
	push_a 6
	push_a 6
	push_a 4
	update_a 4 10
	update_a 3 9
	update_a 2 8
	update_a 1 7
	updatepop_a 0 6
.d 5 0
	jmp s20
.o 5 0
s20
	eq_desc e_Data.Error_dOk 1 0
	jmp_true case.18
	jmp case.19
case.18
	push_args 0 1 1
	pop_a 1
	push_a 0
	updatepop_a 0 1
.d 1 0
	jsr e_Data.Error_sfromOk
.o 1 0
	push_a 4
	push_a 4
	buildh ARRAY 1
	push_a 4
	push_a 4
	push_a 4
	update_a 4 5
	update_a 0 4
	pop_a 1
	update_a 4 8
	update_a 3 7
	update_a 2 6
	update_a 1 5
	updatepop_a 0 4
.d 5 0
	jmp s10
case.19
	repl_args 1 1
	jsr_eval 0
	repl_args 2 2
	push_a 0
	jsr_eval 0
	pushI_a 1
	pop_a 1
	pushI 2
	push_b 1
	update_b 1 2
	update_b 0 1
	pop_b 1
	eqI
	jmp_false else.20
	buildh e__predef_d_Unit 0
	buildh e_Data.Error_dOk 1
	push_a 6
	push_a 1
	update_a 1 2
	update_a 0 1
	pop_a 1
	update_a 1 7
	updatepop_a 0 6
.d 2 0
	rtn
else.20
	push_a 1
	push_a 1
	push_a 6
	buildh ARRAY 1
	build e_iTasks.Internal.Store_d_f1.243 3 e_iTasks.Internal.Store_n_f1.243
	buildh e_Data.Error_dError 1
	push_a 6
	push_a 1
	update_a 1 2
	update_a 0 1
	pop_a 1
	update_a 1 7
	updatepop_a 0 6
.d 2 0
	rtn
.export e_iTasks.Internal.Store_d_f1.243
.export e_iTasks.Internal.Store_n_f1.243
.descn e_iTasks.Internal.Store_d_f1.243 e_iTasks.Internal.Store_n_f1.243 3 0 "_f1.243"
.n 3 e_iTasks.Internal.Store_d_f1.243 ea243
.o 1 0
e_iTasks.Internal.Store_n_f1.243
	push_node _cycle_in_spine 3
.o 4 0
ea243
.o 4 0
s243
	push_a 2
	jsr_eval 0
	push_array 0
	updatepop_a 0 1
	buildAC " "
	buildh _Nil 0
	update_a 0 5
	pop_a 1
.d 2 0
	jsr catAC
.o 1 0
	push_a 2
	jsr_eval 0
	pushI_a 3
	pop_a 1
	buildh _Nil 0
	update_a 0 3
	pop_a 1
.d 0 1 i
	jsr ItoAC
.o 1 0
	update_a 2 4
	update_a 1 3
	updatepop_a 0 2
.d 2 0
	jsr catAC
.o 1 0
	buildAC ": "
.d 2 0
	jsr catAC
.o 1 0
	push_a 1
	jsr_eval 0
	push_array 0
	updatepop_a 0 1
	update_a 1 2
	updatepop_a 0 1
.d 2 0
	jsr catAC
.o 1 0
	buildAC "Problem reading store directory "
.d 2 0
	jsr catAC
.o 1 0
	fillh ARRAY 1 1
.d 1 0
	rtn
.o 5 0
s10
	eq_desc _Nil 0 3
	jmp_true case.21
	jmp case.22
case.21
	buildh e__predef_d_Unit 0
	buildh e_Data.Error_dOk 1
	push_a 5
	push_a 1
	update_a 1 2
	update_a 0 1
	pop_a 1
	update_a 1 6
	updatepop_a 0 5
.d 2 0
	rtn
case.22
	push_args 3 2 2
	buildh _Nil 0
	update_a 0 6
	pop_a 1
	push_a 0
	push_a 4
	build e_iTasks.Internal.Store_dsafeName.7 1 e_iTasks.Internal.Store_nsafeName.7
	push_a 4
	jsr_eval 0
	jsr_ap 2
	pushB_a 0
	pop_a 1
	jmp_false else.23
	push_a 6
	jsr_eval 0
	push_a 1
	jsr_eval 0
	push_array 0
	updatepop_a 0 1
	push_a 6
	jsr_eval 0
	push_array 0
	updatepop_a 0 1
	buildh _Nil 0
	update_a 0 10
	pop_a 1
.d 2 0
	jsr e_System.FilePath_s</>
.o 1 0
.d 2 0
	jsr e_System.File_sdeleteFile
.o 2 0
	push_a 2
	push_a 2
	push_a 5
	push_a 9
	push_a 9
	push_a 9
	push_a 6
	update_a 6 15
	update_a 5 14
	update_a 4 13
	update_a 3 12
	update_a 2 11
	update_a 1 10
	updatepop_a 0 9
.d 7 0
	jmp s19
else.23
	push_a 1
	jsr_eval 0
	push_a 7
	push_a 6
	push_a 6
	push_a 6
	push_a 4
	update_a 4 5
	update_a 0 4
	pop_a 1
	update_a 4 11
	update_a 3 10
	update_a 2 9
	update_a 1 8
	updatepop_a 0 7
.d 5 0
	jmp s10
.o 7 0
s19
	eq_desc e_Data.Error_dOk 1 0
	jmp_true case.24
	jmp case.25
case.24
	repl_args 1 1
	pop_a 1
	push_a 3
	jsr_eval 0
	push_a 5
	push_a 4
	push_a 4
	push_a 4
	push_a 4
	update_a 4 5
	update_a 0 4
	pop_a 1
	update_a 4 10
	update_a 3 9
	update_a 2 8
	update_a 1 7
	updatepop_a 0 6
.d 5 0
	jmp s10
case.25
	repl_args 1 1
	jsr_eval 0
	repl_args 2 2
	push_a 0
	jsr_eval 0
	pushI_a 1
	pop_a 1
	pushI 2
	push_b 1
	update_b 1 2
	update_b 0 1
	pop_b 1
	eqI
	jmp_false else.26
	push_a 5
	jsr_eval 0
	push_a 7
	push_a 6
	push_a 6
	push_a 6
	push_a 4
	update_a 4 5
	update_a 0 4
	pop_a 1
	update_a 4 12
	update_a 3 11
	update_a 2 10
	update_a 1 9
	updatepop_a 0 8
.d 5 0
	jmp s10
else.26
	push_a 1
	push_a 1
	push_a 9
	push_a 7
	build e_iTasks.Internal.Store_d_f2.244 4 e_iTasks.Internal.Store_n_f2.244
	buildh e_Data.Error_dError 1
	push_a 7
	push_a 1
	update_a 1 2
	update_a 0 1
	pop_a 1
	update_a 1 9
	updatepop_a 0 8
.d 2 0
	rtn
.export e_iTasks.Internal.Store_d_f2.244
.export e_iTasks.Internal.Store_n_f2.244
.descn e_iTasks.Internal.Store_d_f2.244 e_iTasks.Internal.Store_n_f2.244 4 0 "_f2.244"
.n 4 e_iTasks.Internal.Store_d_f2.244 ea244
.o 1 0
e_iTasks.Internal.Store_n_f2.244
	push_node _cycle_in_spine 4
.o 5 0
ea244
.o 5 0
s244
	push_a 3
	jsr_eval 0
	push_array 0
	updatepop_a 0 1
	buildAC " "
	buildh _Nil 0
	update_a 0 6
	pop_a 1
.d 2 0
	jsr catAC
.o 1 0
	push_a 3
	jsr_eval 0
	pushI_a 4
	pop_a 1
	buildh _Nil 0
	update_a 0 4
	pop_a 1
.d 0 1 i
	jsr ItoAC
.o 1 0
.d 2 0
	jsr catAC
.o 1 0
	buildAC ": "
.d 2 0
	jsr catAC
.o 1 0
	push_a 2
	jsr_eval 0
	push_array 0
	updatepop_a 0 1
	push_a 2
	jsr_eval 0
	push_array 0
	updatepop_a 0 1
	buildh _Nil 0
	update_a 0 4
	update_a 0 5
	pop_a 1
.d 2 0
	jsr e_System.FilePath_s</>
.o 1 0
	update_a 1 5
	updatepop_a 0 4
.d 2 0
	jsr catAC
.o 1 0
	buildAC "Problem deleting store file "
.d 2 0
	jsr catAC
.o 1 0
	fillh ARRAY 1 1
.d 1 0
	rtn
.export e_iTasks.Internal.Store_dsafeName.7
.export e_iTasks.Internal.Store_nsafeName.7
.descn e_iTasks.Internal.Store_dsafeName.7 e_iTasks.Internal.Store_nsafeName.7 1 0 "safeName.7"
.n 1 e_iTasks.Internal.Store_dsafeName.7
.o 1 0
e_iTasks.Internal.Store_nsafeName.7
	push_node _cycle_in_spine 1
.d 1 0
	jsr ea7
.o 1 0
	fillh ARRAY 1 1
.d 1 0
	rtn
.o 1 0
ea7
	jsr_eval 0
	push_array 0
	update_a 0 1
	pop_a 1
.o 1 0
s7
	push_a 0
	push_arraysize CHAR 0 1
	pushC '\000'
	push_b 1
	create_array CHAR 0 1
	pushI 0
	push_b 1
	push_a 1
	buildh ARRAY 1
	update_a 1 2
	updatepop_a 0 1
	update_b 1 2
	updatepop_b 0 1
.d 2 2 ii
	jmp s16
.o 2 2 ii
s16
	push_b 0
	push_b 2
	eqI
	jmp_false else.27
	pop_a 1
	pop_b 2
.d 1 0
	rtn
else.27
	push_a 0
	jsr_eval 0
	push_array 0
	updatepop_a 0 1
	push_b 1
	select CHAR 0 1
.d 0 1 c
	jsr e_StdChar_sisAlphanum
.o 0 1 b
	jmp_true then.28
	push_b 1
	push_array 0
	select CHAR 0 1
	pushC '-'
	push_b 1
	update_b 1 2
	update_b 0 1
	pop_b 1
	eqC
	jmp_false else.28
then.28
	push_b 1
	push_array 0
	select CHAR 0 1
	push_b 2
	push_a 1
	update_a 1 2
	updatepop_a 0 1
	update CHAR 0 1
	pushI 1
	push_b 2
	addI
	push_b 1
	push_a 1
	update_a 1 2
	updatepop_a 0 1
	update_b 1 3
	updatepop_b 0 2
.d 2 2 ii
	jmp s16
else.28
	pushC '_'
	push_b 2
	push_a 1
	update_a 1 2
	updatepop_a 0 1
	update CHAR 0 1
	pushI 1
	push_b 2
	addI
	push_b 1
	push_a 1
	update_a 1 2
	updatepop_a 0 1
	update_b 1 3
	updatepop_b 0 2
.d 2 2 ii
	jmp s16
.o 3 0
s234
	eq_desc e_Data.Error_dError 1 0
	jmp_true case.30
	jmp case.31
case.30
	repl_args 1 1
	pop_a 1
	push_a 1
	fill2_r e_iTasks.Internal.IWorld_rIWorld 26 1 1 0000000000000000000000001000
	push_a 0
	buildh _Nil 0
	update_a 1 3
	updatepop_a 0 2
.d 2 0
	rtn
case.31
	repl_args 1 1
	push_a 2
	fill2_r e_iTasks.Internal.IWorld_rIWorld 26 1 2 0000000000000000000000001000
	push_a 1
	push_a 1
	jsr_eval 0
	create
	push_a 1
	update_a 1 2
	update_a 0 1
	pop_a 1
	buildh _Nil 0
	update_a 0 4
	update_a 0 5
	update_a 0 6
	pop_a 1
.d 2 0
	jsr s11
.o 1 0
	update_a 1 4
	updatepop_a 0 3
.d 2 0
	rtn
.o 3 0
s235
	eq_desc e_Data.Error_dError 1 0
	jmp_true case.32
	jmp case.33
case.32
	repl_args 1 1
	push_a 2
	fill2_r e_iTasks.Internal.IWorld_rIWorld 26 1 2 0000000000000000000000001000
	push_a 1
	push_a 1
	build d_S.2 -1 n_S.2
	buildh e_Data.Error_dError 1
	update_a 1 4
	updatepop_a 0 3
.d 2 0
	rtn
case.33
	repl_args 1 1
	push_a 2
	fill2_r e_iTasks.Internal.IWorld_rIWorld 26 1 2 0000000000000000000000001000
	push_a 1
	push_a 1
	build e_iTasks.Internal.Store_dc;101;44;12.12 1 e_iTasks.Internal.Store_nc;101;44;12.12
	buildh e_Data.Error_dOk 1
	update_a 1 4
	updatepop_a 0 3
.d 2 0
	rtn
.o 3 0
s236
	buildh e_iTasks.Internal.Store_dfilterFuncDisk;7.8 0
	buildh e_StdString_d==;2 0
	push_a 4
	push_a 4
	push_a 4
	push_a 4
	update_a 3 5
	update_a 4 3
	update_a 0 4
	pop_a 1
	update_a 4 7
	update_a 3 6
	update_a 2 5
	update_a 1 4
	updatepop_a 0 3
.d 5 0
	jmp s237
.o 5 0
s237
	push_r_args_u 4 26 1
	update_a 23 25
	update_a 0 24
	pop_a 24
	pop_b 1
	repl_r_args 16 6
	update_a 12 15
	pop_a 15
	pop_b 6
	push_a 1
	push_a 3
	push_a 2
	push_a 6
	push_a 9
	update_a 4 10
	update_a 3 9
	update_a 2 8
	update_a 1 7
	updatepop_a 0 6
.d 5 0
	jsr s238
.o 2 0
	push_a 1
	fill2_r e_iTasks.Internal.IWorld_rIWorld 26 1 3 0000000000000000000000001000
	push_a 2
	push_a 1
	update_a 1 4
	updatepop_a 0 3
.d 2 0
	rtn
.o 5 0
s238
	push_a 3
	push_a 3
	update_a 3 5
	update_a 2 4
	update_a 1 3
	updatepop_a 0 2
.d 2 0
	jsr e_System.FilePath_s</>
.o 1 0
	push_a 3
	push_a 1
	buildh _Nil 0
	update_a 0 6
	pop_a 1
.d 2 0
	jsr e_System.Directory_sreadDirectory
.o 2 0
	push_a 1
	push_a 3
	push_a 6
	push_a 6
	push_a 4
	update_a 4 10
	update_a 3 9
	update_a 2 8
	update_a 1 7
	updatepop_a 0 6
.d 5 0
	jmp s239
.o 5 0
s239
	eq_desc e_Data.Error_dOk 1 0
	jmp_true case.34
	jmp case.35
case.34
	push_args 0 1 1
	pop_a 1
	push_a 0
	updatepop_a 0 1
.d 1 0
	jsr e_Data.Error_sfromOk
.o 1 0
	push_a 4
	push_a 4
	buildh ARRAY 1
	push_a 4
	buildh ARRAY 1
	push_a 4
	push_a 4
	update_a 4 5
	update_a 0 4
	pop_a 1
	update_a 4 8
	update_a 3 7
	update_a 2 6
	update_a 1 5
	updatepop_a 0 4
.d 5 0
	jmp s240
case.35
	repl_args 1 1
	jsr_eval 0
	repl_args 2 2
	push_a 0
	jsr_eval 0
	pushI_a 1
	pop_a 1
	pushI 2
	push_b 1
	update_b 1 2
	update_b 0 1
	pop_b 1
	eqI
	jmp_false else.36
	buildh e__predef_d_Unit 0
	buildh e_Data.Error_dOk 1
	push_a 6
	push_a 1
	update_a 1 2
	update_a 0 1
	pop_a 1
	update_a 1 7
	updatepop_a 0 6
.d 2 0
	rtn
else.36
	push_a 1
	push_a 1
	push_a 6
	buildh ARRAY 1
	build e_iTasks.Internal.Store_d_f3.245 3 e_iTasks.Internal.Store_n_f3.245
	buildh e_Data.Error_dError 1
	push_a 6
	push_a 1
	update_a 1 2
	update_a 0 1
	pop_a 1
	update_a 1 7
	updatepop_a 0 6
.d 2 0
	rtn
.export e_iTasks.Internal.Store_d_f3.245
.export e_iTasks.Internal.Store_n_f3.245
.descn e_iTasks.Internal.Store_d_f3.245 e_iTasks.Internal.Store_n_f3.245 3 0 "_f3.245"
.n 3 e_iTasks.Internal.Store_d_f3.245 ea245
.o 1 0
e_iTasks.Internal.Store_n_f3.245
	push_node _cycle_in_spine 3
.o 4 0
ea245
.o 4 0
s245
	push_a 2
	jsr_eval 0
	push_array 0
	updatepop_a 0 1
	buildAC " "
	buildh _Nil 0
	update_a 0 5
	pop_a 1
.d 2 0
	jsr catAC
.o 1 0
	push_a 2
	jsr_eval 0
	pushI_a 3
	pop_a 1
	buildh _Nil 0
	update_a 0 3
	pop_a 1
.d 0 1 i
	jsr ItoAC
.o 1 0
	update_a 2 4
	update_a 1 3
	updatepop_a 0 2
.d 2 0
	jsr catAC
.o 1 0
	buildAC ": "
.d 2 0
	jsr catAC
.o 1 0
	push_a 1
	jsr_eval 0
	push_array 0
	updatepop_a 0 1
	update_a 1 2
	updatepop_a 0 1
.d 2 0
	jsr catAC
.o 1 0
	buildAC "Problem reading store directory "
.d 2 0
	jsr catAC
.o 1 0
	fillh ARRAY 1 1
.d 1 0
	rtn
.o 5 0
s240
	eq_desc _Nil 0 3
	jmp_true case.37
	jmp case.38
case.37
	buildh e__predef_d_Unit 0
	buildh e_Data.Error_dOk 1
	push_a 5
	push_a 1
	update_a 1 2
	update_a 0 1
	pop_a 1
	update_a 1 6
	updatepop_a 0 5
.d 2 0
	rtn
case.38
	push_args 3 2 2
	buildh _Nil 0
	update_a 0 6
	pop_a 1
	push_a 0
	push_a 4
	build e_iTasks.Internal.Store_dsafeName.7 1 e_iTasks.Internal.Store_nsafeName.7
	push_a 4
	jsr_eval 0
	jsr_ap 2
	pushB_a 0
	pop_a 1
	jmp_false else.39
	push_a 0
	jsr_eval 0
	push_array 0
	updatepop_a 0 1
	push_a 5
	jsr_eval 0
	push_array 0
	updatepop_a 0 1
.d 2 0
	jsr e_System.FilePath_s</>
.o 1 0
	push_a 7
	push_a 1
	update_a 1 2
	update_a 0 1
	pop_a 1
	buildh _Nil 0
	update_a 0 9
	pop_a 1
.d 2 0
	jsr e_System.File_sdeleteFile
.o 2 0
	push_a 2
	push_a 2
	push_a 5
	push_a 9
	push_a 9
	push_a 9
	push_a 6
	update_a 6 15
	update_a 5 14
	update_a 4 13
	update_a 3 12
	update_a 2 11
	update_a 1 10
	updatepop_a 0 9
.d 7 0
	jmp s241
else.39
	push_a 1
	jsr_eval 0
	push_a 7
	push_a 6
	push_a 6
	push_a 6
	push_a 4
	update_a 4 5
	update_a 0 4
	pop_a 1
	update_a 4 11
	update_a 3 10
	update_a 2 9
	update_a 1 8
	updatepop_a 0 7
.d 5 0
	jmp s240
.o 7 0
s241
	eq_desc e_Data.Error_dOk 1 0
	jmp_true case.40
	jmp case.41
case.40
	repl_args 1 1
	pop_a 1
	push_a 3
	jsr_eval 0
	push_a 5
	push_a 4
	push_a 4
	push_a 4
	push_a 4
	update_a 4 5
	update_a 0 4
	pop_a 1
	update_a 4 10
	update_a 3 9
	update_a 2 8
	update_a 1 7
	updatepop_a 0 6
.d 5 0
	jmp s240
case.41
	repl_args 1 1
	jsr_eval 0
	repl_args 2 2
	push_a 0
	jsr_eval 0
	pushI_a 1
	pop_a 1
	pushI 2
	push_b 1
	update_b 1 2
	update_b 0 1
	pop_b 1
	eqI
	jmp_false else.42
	push_a 5
	jsr_eval 0
	push_a 7
	push_a 6
	push_a 6
	push_a 6
	push_a 4
	update_a 4 5
	update_a 0 4
	pop_a 1
	update_a 4 12
	update_a 3 11
	update_a 2 10
	update_a 1 9
	updatepop_a 0 8
.d 5 0
	jmp s240
else.42
	push_a 1
	push_a 1
	push_a 9
	push_a 7
	build e_iTasks.Internal.Store_d_f4.246 4 e_iTasks.Internal.Store_n_f4.246
	buildh e_Data.Error_dError 1
	push_a 7
	push_a 1
	update_a 1 2
	update_a 0 1
	pop_a 1
	update_a 1 9
	updatepop_a 0 8
.d 2 0
	rtn
.export e_iTasks.Internal.Store_d_f4.246
.export e_iTasks.Internal.Store_n_f4.246
.descn e_iTasks.Internal.Store_d_f4.246 e_iTasks.Internal.Store_n_f4.246 4 0 "_f4.246"
.n 4 e_iTasks.Internal.Store_d_f4.246 ea246
.o 1 0
e_iTasks.Internal.Store_n_f4.246
	push_node _cycle_in_spine 4
.o 5 0
ea246
.o 5 0
s246
	push_a 3
	jsr_eval 0
	push_array 0
	updatepop_a 0 1
	buildAC " "
	buildh _Nil 0
	update_a 0 6
	pop_a 1
.d 2 0
	jsr catAC
.o 1 0
	push_a 3
	jsr_eval 0
	pushI_a 4
	pop_a 1
	buildh _Nil 0
	update_a 0 4
	pop_a 1
.d 0 1 i
	jsr ItoAC
.o 1 0
.d 2 0
	jsr catAC
.o 1 0
	buildAC ": "
.d 2 0
	jsr catAC
.o 1 0
	push_a 2
	jsr_eval 0
	push_array 0
	updatepop_a 0 1
	push_a 2
	jsr_eval 0
	push_array 0
	updatepop_a 0 1
	buildh _Nil 0
	update_a 0 4
	update_a 0 5
	pop_a 1
.d 2 0
	jsr e_System.FilePath_s</>
.o 1 0
	update_a 1 5
	updatepop_a 0 4
.d 2 0
	jsr catAC
.o 1 0
	buildAC "Problem deleting store file "
.d 2 0
	jsr catAC
.o 1 0
	fillh ARRAY 1 1
.d 1 0
	rtn
