.comp 920 000011110011000
.start _nostart_
.depend "Data.Func" "20210430140248"
.depend "_SystemArray" "20210430140248"
.depend "StdArray" "20210430140248"
.depend "StdString" "20210430140248"
.depend "Control.Monad.Fail" "20210430140248"
.depend "Data.Traversable" "20210430140248"
.depend "StdMisc" "20210430140248"
.depend "StdOverloadedList" "20210430140248"
.depend "Data.List" "20210430140248"
.depend "Data.Foldable" "20210430140248"
.depend "StdFunctions" "20210430140248"
.depend "StdFunc" "20210430140248"
.depend "_SystemEnumStrict" "20210430140248"
.depend "_SystemStrictLists" "20210430140248"
.depend "StdStrictLists" "20210430140248"
.depend "StdGeneric" "20210430140248"
.depend "Data.GenEq" "20210430140248"
.depend "StdReal" "20210430140248"
.depend "StdChar" "20210430140248"
.depend "StdInt" "20210430140248"
.depend "StdBool" "20210430140248"
.depend "StdClass" "20210430140248"
.depend "StdList" "20210430140248"
.depend "Data.Monoid" "20210430140248"
.depend "Control.Applicative" "20210430140248"
.depend "Control.Monad" "20210430140248"
.depend "Data.Functor" "20210430140248"
.depend "StdOverloaded" "20210430140248"
.depend "_SystemDynamic" "20210430140248"
.depend "Text" "20210430140248"
.module m_Text "Text" "20210430140248"
.endinfo
.impmod _system
.implab _cycle_in_spine
.implab _type_error
.implab _hnf
.impdesc e_system_dind
.implab e_system_nind e_system_eaind
.impdesc e_system_dif
.implab e_system_nif e_system_eaif
.implab e_system_sif
.impdesc e_system_dAP
.implab e_system_nAP e_system_eaAP
.implab e_system_sAP
.impdesc ARRAY
.impdesc _Nil
.impdesc _Cons
.impdesc _Conss
.implab n_Conss ea_Conss
.impdesc _Consts
.implab n_Consts ea_Consts
.impdesc _Conssts
.implab n_Conssts ea_Conssts
.impdesc _Tuple
.impdesc d_S.1
.implab n_S.1 ea_S.1
.impdesc d_S.2
.implab n_S.2 ea_S.2
.impdesc d_S.3
.implab n_S.3 ea_S.3
.impdesc d_S.4
.implab n_S.4 ea_S.4
.impdesc d_S.5
.implab n_S.5 ea_S.5
.impdesc d_S.6
.implab n_S.6 ea_S.6
.implab _driver
.impmod _SystemArray
.impmod StdString
.implab e_StdString_s:=
.implab e_StdString_s==;2
.implab e_StdString_s%;10
.implab e_StdString_s+++;11
.impmod Data.List
.implab e_Data.List_sintersperse
.impmod StdChar
.impdesc e_StdChar_dtoUpper
.implab e_StdChar_stoUpper
.implab e_StdChar_ntoUpper
.impdesc e_StdChar_dtoLower
.implab e_StdChar_stoLower
.impdesc e_StdChar_disSpace
.implab e_StdChar_sisSpace
.implab e_StdChar_s==;18
.impmod StdInt
.implab e_StdInt_s+;6
.implab e_StdInt_s-;7
.implab e_StdInt_sone;11
.implab e_StdInt_s==;16
.implab e_StdInt_s<;17
.impmod StdBool
.implab e_StdBool_snot
.impmod StdList
.implab e_StdList_s++
.implab e_StdList_sflatten
.impdesc e_StdList_dtake
.implab e_StdList_stake
.implab e_StdList_ntake e_StdList_eatake
.impdesc e_StdList_ddrop
.implab e_StdList_sdrop
.implab e_StdList_ndrop e_StdList_eadrop
.implab e_StdList_sdropWhile
.implab e_StdList_sreverse
.implab e_StdList_smap
.implab e_StdList_srepeatn
.implab e_StdList_slength;47
.implab e_StdList_s==;84
.export e_Text_rText;
.record e_Text_rText; aaaaaaaaaaaaaaaaaaaa 20 0 "Text;"
.descexp e_Text_tText; e_Text_cText; _hnf 20 1 "Text;"
.n 20 e_Text_tText;
.o 1 0
e_Text_cText;
	push_node _cycle_in_spine 20
	jsr_eval 19
	jsr_eval 18
	jsr_eval 17
	jsr_eval 16
	jsr_eval 15
	jsr_eval 14
	jsr_eval 13
	jsr_eval 12
	jsr_eval 11
	jsr_eval 10
	jsr_eval 9
	jsr_eval 8
	jsr_eval 7
	jsr_eval 6
	jsr_eval 5
	jsr_eval 4
	jsr_eval 3
	jsr_eval 2
	jsr_eval 1
	jsr_eval 0
.impmod Text
.impdesc e_Text_rText;
	fill_r e_Text_rText; 20 0 20 0 0
	pop_a 20
.d 1 0
	rtn
.export e_Text_dText;.concat
.export e_Text_nText;.concat
.export e_Text_eaText;.concat
.descs e_Text_dText;.concat e_Text_nText;.concat _ 1 0 "Text;.concat"
.n -4 e_Text_dText;.concat e_Text_eaText;.concat
.o 1 0
e_Text_nText;.concat
	push_node _cycle_in_spine 1
.o 2 0
e_Text_eaText;.concat
	jsr_eval 0
	repl_r_args_a 20 0 1 1
	fill_a 0 1
	pop_a 1
.d 1 0
	rtn
.export e_Text_dText;.dropChars
.export e_Text_nText;.dropChars
.export e_Text_eaText;.dropChars
.descs e_Text_dText;.dropChars e_Text_nText;.dropChars _ 3 0 "Text;.dropChars"
.n -4 e_Text_dText;.dropChars e_Text_eaText;.dropChars
.o 1 0
e_Text_nText;.dropChars
	push_node _cycle_in_spine 1
.o 2 0
e_Text_eaText;.dropChars
	jsr_eval 0
	repl_r_args_a 20 0 2 1
	fill_a 0 1
	pop_a 1
.d 1 0
	rtn
.export e_Text_dText;.endsWith
.export e_Text_nText;.endsWith
.export e_Text_eaText;.endsWith
.descs e_Text_dText;.endsWith e_Text_nText;.endsWith _ 4 0 "Text;.endsWith"
.n -4 e_Text_dText;.endsWith e_Text_eaText;.endsWith
.o 1 0
e_Text_nText;.endsWith
	push_node _cycle_in_spine 1
.o 2 0
e_Text_eaText;.endsWith
	jsr_eval 0
	repl_r_args_a 20 0 3 1
	fill_a 0 1
	pop_a 1
.d 1 0
	rtn
.export e_Text_dText;.indexOf
.export e_Text_nText;.indexOf
.export e_Text_eaText;.indexOf
.descs e_Text_dText;.indexOf e_Text_nText;.indexOf _ 5 0 "Text;.indexOf"
.n -4 e_Text_dText;.indexOf e_Text_eaText;.indexOf
.o 1 0
e_Text_nText;.indexOf
	push_node _cycle_in_spine 1
.o 2 0
e_Text_eaText;.indexOf
	jsr_eval 0
	repl_r_args_a 20 0 4 1
	fill_a 0 1
	pop_a 1
.d 1 0
	rtn
.export e_Text_dText;.indexOfAfter
.export e_Text_nText;.indexOfAfter
.export e_Text_eaText;.indexOfAfter
.descs e_Text_dText;.indexOfAfter e_Text_nText;.indexOfAfter _ 6 0 "Text;.indexOfAfter"
.n -4 e_Text_dText;.indexOfAfter e_Text_eaText;.indexOfAfter
.o 1 0
e_Text_nText;.indexOfAfter
	push_node _cycle_in_spine 1
.o 2 0
e_Text_eaText;.indexOfAfter
	jsr_eval 0
	repl_r_args_a 20 0 5 1
	fill_a 0 1
	pop_a 1
.d 1 0
	rtn
.export e_Text_dText;.join
.export e_Text_nText;.join
.export e_Text_eaText;.join
.descs e_Text_dText;.join e_Text_nText;.join _ 7 0 "Text;.join"
.n -4 e_Text_dText;.join e_Text_eaText;.join
.o 1 0
e_Text_nText;.join
	push_node _cycle_in_spine 1
.o 2 0
e_Text_eaText;.join
	jsr_eval 0
	repl_r_args_a 20 0 6 1
	fill_a 0 1
	pop_a 1
.d 1 0
	rtn
.export e_Text_dText;.lastIndexOf
.export e_Text_nText;.lastIndexOf
.export e_Text_eaText;.lastIndexOf
.descs e_Text_dText;.lastIndexOf e_Text_nText;.lastIndexOf _ 8 0 "Text;.lastIndexOf"
.n -4 e_Text_dText;.lastIndexOf e_Text_eaText;.lastIndexOf
.o 1 0
e_Text_nText;.lastIndexOf
	push_node _cycle_in_spine 1
.o 2 0
e_Text_eaText;.lastIndexOf
	jsr_eval 0
	repl_r_args_a 20 0 7 1
	fill_a 0 1
	pop_a 1
.d 1 0
	rtn
.export e_Text_dText;.lpad
.export e_Text_nText;.lpad
.export e_Text_eaText;.lpad
.descs e_Text_dText;.lpad e_Text_nText;.lpad _ 9 0 "Text;.lpad"
.n -4 e_Text_dText;.lpad e_Text_eaText;.lpad
.o 1 0
e_Text_nText;.lpad
	push_node _cycle_in_spine 1
.o 2 0
e_Text_eaText;.lpad
	jsr_eval 0
	repl_r_args_a 20 0 8 1
	fill_a 0 1
	pop_a 1
.d 1 0
	rtn
.export e_Text_dText;.ltrim
.export e_Text_nText;.ltrim
.export e_Text_eaText;.ltrim
.descs e_Text_dText;.ltrim e_Text_nText;.ltrim _ 10 0 "Text;.ltrim"
.n -4 e_Text_dText;.ltrim e_Text_eaText;.ltrim
.o 1 0
e_Text_nText;.ltrim
	push_node _cycle_in_spine 1
.o 2 0
e_Text_eaText;.ltrim
	jsr_eval 0
	repl_r_args_a 20 0 9 1
	fill_a 0 1
	pop_a 1
.d 1 0
	rtn
.export e_Text_dText;.replaceSubString
.export e_Text_nText;.replaceSubString
.export e_Text_eaText;.replaceSubString
.descs e_Text_dText;.replaceSubString e_Text_nText;.replaceSubString _ 11 0 "Text;.replaceSubString"
.n -4 e_Text_dText;.replaceSubString e_Text_eaText;.replaceSubString
.o 1 0
e_Text_nText;.replaceSubString
	push_node _cycle_in_spine 1
.o 2 0
e_Text_eaText;.replaceSubString
	jsr_eval 0
	repl_r_args_a 20 0 10 1
	fill_a 0 1
	pop_a 1
.d 1 0
	rtn
.export e_Text_dText;.rpad
.export e_Text_nText;.rpad
.export e_Text_eaText;.rpad
.descs e_Text_dText;.rpad e_Text_nText;.rpad _ 12 0 "Text;.rpad"
.n -4 e_Text_dText;.rpad e_Text_eaText;.rpad
.o 1 0
e_Text_nText;.rpad
	push_node _cycle_in_spine 1
.o 2 0
e_Text_eaText;.rpad
	jsr_eval 0
	repl_r_args_a 20 0 11 1
	fill_a 0 1
	pop_a 1
.d 1 0
	rtn
.export e_Text_dText;.rtrim
.export e_Text_nText;.rtrim
.export e_Text_eaText;.rtrim
.descs e_Text_dText;.rtrim e_Text_nText;.rtrim _ 13 0 "Text;.rtrim"
.n -4 e_Text_dText;.rtrim e_Text_eaText;.rtrim
.o 1 0
e_Text_nText;.rtrim
	push_node _cycle_in_spine 1
.o 2 0
e_Text_eaText;.rtrim
	jsr_eval 0
	repl_r_args_a 20 0 12 1
	fill_a 0 1
	pop_a 1
.d 1 0
	rtn
.export e_Text_dText;.split
.export e_Text_nText;.split
.export e_Text_eaText;.split
.descs e_Text_dText;.split e_Text_nText;.split _ 14 0 "Text;.split"
.n -4 e_Text_dText;.split e_Text_eaText;.split
.o 1 0
e_Text_nText;.split
	push_node _cycle_in_spine 1
.o 2 0
e_Text_eaText;.split
	jsr_eval 0
	repl_r_args_a 20 0 13 1
	fill_a 0 1
	pop_a 1
.d 1 0
	rtn
.export e_Text_dText;.startsWith
.export e_Text_nText;.startsWith
.export e_Text_eaText;.startsWith
.descs e_Text_dText;.startsWith e_Text_nText;.startsWith _ 15 0 "Text;.startsWith"
.n -4 e_Text_dText;.startsWith e_Text_eaText;.startsWith
.o 1 0
e_Text_nText;.startsWith
	push_node _cycle_in_spine 1
.o 2 0
e_Text_eaText;.startsWith
	jsr_eval 0
	repl_r_args_a 20 0 14 1
	fill_a 0 1
	pop_a 1
.d 1 0
	rtn
.export e_Text_dText;.subString
.export e_Text_nText;.subString
.export e_Text_eaText;.subString
.descs e_Text_dText;.subString e_Text_nText;.subString _ 16 0 "Text;.subString"
.n -4 e_Text_dText;.subString e_Text_eaText;.subString
.o 1 0
e_Text_nText;.subString
	push_node _cycle_in_spine 1
.o 2 0
e_Text_eaText;.subString
	jsr_eval 0
	repl_r_args_a 20 0 15 1
	fill_a 0 1
	pop_a 1
.d 1 0
	rtn
.export e_Text_dText;.textSize
.export e_Text_nText;.textSize
.export e_Text_eaText;.textSize
.descs e_Text_dText;.textSize e_Text_nText;.textSize _ 17 0 "Text;.textSize"
.n -4 e_Text_dText;.textSize e_Text_eaText;.textSize
.o 1 0
e_Text_nText;.textSize
	push_node _cycle_in_spine 1
.o 2 0
e_Text_eaText;.textSize
	jsr_eval 0
	repl_r_args_a 20 0 16 1
	fill_a 0 1
	pop_a 1
.d 1 0
	rtn
.export e_Text_dText;.toLowerCase
.export e_Text_nText;.toLowerCase
.export e_Text_eaText;.toLowerCase
.descs e_Text_dText;.toLowerCase e_Text_nText;.toLowerCase _ 18 0 "Text;.toLowerCase"
.n -4 e_Text_dText;.toLowerCase e_Text_eaText;.toLowerCase
.o 1 0
e_Text_nText;.toLowerCase
	push_node _cycle_in_spine 1
.o 2 0
e_Text_eaText;.toLowerCase
	jsr_eval 0
	repl_r_args_a 20 0 17 1
	fill_a 0 1
	pop_a 1
.d 1 0
	rtn
.export e_Text_dText;.toUpperCase
.export e_Text_nText;.toUpperCase
.export e_Text_eaText;.toUpperCase
.descs e_Text_dText;.toUpperCase e_Text_nText;.toUpperCase _ 19 0 "Text;.toUpperCase"
.n -4 e_Text_dText;.toUpperCase e_Text_eaText;.toUpperCase
.o 1 0
e_Text_nText;.toUpperCase
	push_node _cycle_in_spine 1
.o 2 0
e_Text_eaText;.toUpperCase
	jsr_eval 0
	repl_r_args_a 20 0 18 1
	fill_a 0 1
	pop_a 1
.d 1 0
	rtn
.export e_Text_dText;.trim
.export e_Text_nText;.trim
.export e_Text_eaText;.trim
.descs e_Text_dText;.trim e_Text_nText;.trim _ 20 0 "Text;.trim"
.n -4 e_Text_dText;.trim e_Text_eaText;.trim
.o 1 0
e_Text_nText;.trim
	push_node _cycle_in_spine 1
.o 2 0
e_Text_eaText;.trim
	jsr_eval 0
	repl_r_args_a 20 0 19 1
	fill_a 0 1
	pop_a 1
.d 1 0
	rtn
.export e_Text_dText;.upperCaseFirst
.export e_Text_nText;.upperCaseFirst
.export e_Text_eaText;.upperCaseFirst
.descs e_Text_dText;.upperCaseFirst e_Text_nText;.upperCaseFirst _ 21 0 "Text;.upperCaseFirst"
.n -4 e_Text_dText;.upperCaseFirst e_Text_eaText;.upperCaseFirst
.o 1 0
e_Text_nText;.upperCaseFirst
	push_node _cycle_in_spine 1
.o 2 0
e_Text_eaText;.upperCaseFirst
	jsr_eval 0
	repl_r_args_a 20 0 20 1
	fill_a 0 1
	pop_a 1
.d 1 0
	rtn
.export e_Text_sTD;Text;
.export e_Text_eaTD;Text;
.descexp e_Text_dTD;Text; e_Text_nTD;Text; e_Text_lTD;Text; 1 0 "TD;Text;"
.o 2 0
e_Text_lTD;Text;
	update_a 1 0
	create
	update_a 0 2
	pop_a 1
.d 2 0
	jmp e_Text_eaTD;Text;
.n 1 e_Text_dTD;Text; e_Text_eaTD;Text;
.o 1 0
e_Text_nTD;Text;
	push_node _cycle_in_spine 1
.o 2 0
e_Text_eaTD;Text;
.o 2 0
e_Text_sTD;Text;
.o 2 0
s46
	fillh _Nil 0 1
	pop_a 1
.d 1 0
	rtn
.export e_Text_supperCaseFirst;43
.export e_Text_eaupperCaseFirst;43
.descexp e_Text_dupperCaseFirst;43 e_Text_nupperCaseFirst;43 e_Text_lupperCaseFirst;43 1 0 "upperCaseFirst;43"
.o 2 0
e_Text_iupperCaseFirst;43
	pop_a 1
	create
	push_a 1
	update_a 1 2
	update_a 0 1
	pop_a 1
.d 2 0
	jmp s44
.ai 1 _ e_Text_iupperCaseFirst;43
.o 2 0
e_Text_lupperCaseFirst;43
	update_a 1 0
	create
	update_a 0 2
	pop_a 1
.d 2 0
	jmp e_Text_eaupperCaseFirst;43
.n 1 e_Text_dupperCaseFirst;43 e_Text_eaupperCaseFirst;43
.o 1 0
e_Text_nupperCaseFirst;43
	push_node _cycle_in_spine 1
.o 2 0
e_Text_eaupperCaseFirst;43
	jsr_eval 0
.o 2 0
e_Text_supperCaseFirst;43
.o 2 0
s44
	eq_desc _Nil 0 0
	jmp_true case.1
	jmp case.2
case.1
	fillh _Nil 0 1
	pop_a 1
.d 1 0
	rtn
case.2
	repl_args 2 2
	push_a 0
	build e_StdChar_dtoUpper 1 e_StdChar_ntoUpper
	push_a 2
	push_a 1
	update_a 1 2
	update_a 0 1
	pop_a 1
	fillh _Cons 2 4
	pop_a 2
.d 1 0
	rtn
.export e_Text_strim;42
.export e_Text_eatrim;42
.descexp e_Text_dtrim;42 e_Text_ntrim;42 e_Text_ltrim;42 1 0 "trim;42"
.o 2 0
e_Text_itrim;42
	pop_a 1
	create
	push_a 1
	update_a 1 2
	update_a 0 1
	pop_a 1
.d 2 0
	jmp s43
.ai 1 _ e_Text_itrim;42
.o 2 0
e_Text_ltrim;42
	update_a 1 0
	create
	update_a 0 2
	pop_a 1
.d 2 0
	jmp e_Text_eatrim;42
.n 1 e_Text_dtrim;42 e_Text_eatrim;42
.o 1 0
e_Text_ntrim;42
	push_node _cycle_in_spine 1
.o 2 0
e_Text_eatrim;42
	jsr_eval 0
.o 2 0
e_Text_strim;42
.o 2 0
s43
	create
	push_a 1
	update_a 1 2
	updatepop_a 0 1
.d 2 0
	jsr s36
.o 1 0
.d 2 0
	jmp s33
.export e_Text_stoUpperCase;41
.export e_Text_eatoUpperCase;41
.descexp e_Text_dtoUpperCase;41 e_Text_ntoUpperCase;41 e_Text_ltoUpperCase;41 1 0 "toUpperCase;41"
.o 2 0
e_Text_itoUpperCase;41
	pop_a 1
	create
	push_a 1
	update_a 1 2
	update_a 0 1
	pop_a 1
.d 2 0
	jmp s42
.ai 1 _ e_Text_itoUpperCase;41
.o 2 0
e_Text_ltoUpperCase;41
	update_a 1 0
	create
	update_a 0 2
	pop_a 1
.d 2 0
	jmp e_Text_eatoUpperCase;41
.n 1 e_Text_dtoUpperCase;41 e_Text_eatoUpperCase;41
.o 1 0
e_Text_ntoUpperCase;41
	push_node _cycle_in_spine 1
.o 2 0
e_Text_eatoUpperCase;41
	jsr_eval 0
.o 2 0
e_Text_stoUpperCase;41
.o 2 0
s42
	buildh e_StdChar_dtoUpper 0
	push_a 1
	push_a 1
	update_a 1 2
	update_a 0 1
	pop_a 1
	update_a 1 2
	updatepop_a 0 1
.d 3 0
	jmp e_StdList_smap
.export e_Text_stoLowerCase;40
.export e_Text_eatoLowerCase;40
.descexp e_Text_dtoLowerCase;40 e_Text_ntoLowerCase;40 e_Text_ltoLowerCase;40 1 0 "toLowerCase;40"
.o 2 0
e_Text_itoLowerCase;40
	pop_a 1
	create
	push_a 1
	update_a 1 2
	update_a 0 1
	pop_a 1
.d 2 0
	jmp s41
.ai 1 _ e_Text_itoLowerCase;40
.o 2 0
e_Text_ltoLowerCase;40
	update_a 1 0
	create
	update_a 0 2
	pop_a 1
.d 2 0
	jmp e_Text_eatoLowerCase;40
.n 1 e_Text_dtoLowerCase;40 e_Text_eatoLowerCase;40
.o 1 0
e_Text_ntoLowerCase;40
	push_node _cycle_in_spine 1
.o 2 0
e_Text_eatoLowerCase;40
	jsr_eval 0
.o 2 0
e_Text_stoLowerCase;40
.o 2 0
s41
	buildh e_StdChar_dtoLower 0
	push_a 1
	push_a 1
	update_a 1 2
	update_a 0 1
	pop_a 1
	update_a 1 2
	updatepop_a 0 1
.d 3 0
	jmp e_StdList_smap
.export e_Text_stextSize;39
.descexp e_Text_dtextSize;39 e_Text_ntextSize;39 e_Text_ltextSize;39 1 0 "textSize;39"
.o 2 0
e_Text_itextSize;39
	pop_a 1
.d 1 0
	jmp s40
.ai 1 _ e_Text_itextSize;39
.o 2 0
e_Text_ltextSize;39
	pop_a 1
.d 1 0
	jsr ea40
.o 0 1 i
	buildI_b 0
	pop_b 1
.d 1 0
	rtn
.n 1 e_Text_dtextSize;39
.o 1 0
e_Text_ntextSize;39
	push_node _cycle_in_spine 1
.d 1 0
	jsr ea40
.o 0 1 i
	fillI_b 0 0
	pop_b 1
.d 1 0
	rtn
.o 1 0
ea40
	jsr_eval 0
.o 1 0
e_Text_stextSize;39
.o 1 0
s40
	push_a 0
	updatepop_a 0 1
.d 1 0
	jmp e_StdList_slength;47
.export e_Text_ssubString;38
.export e_Text_easubString;38
.descexp e_Text_dsubString;38 e_Text_nsubString;38 e_Text_lsubString;38 3 0 "subString;38"
.o 2 2 ii
e_Text_isubString;38
	pop_a 1
	create
	push_a 1
	update_a 1 2
	update_a 0 1
	pop_a 1
.d 2 2 ii
	jmp s39
.ai 3 e_Text_easubString;38 e_Text_isubString;38
.o 2 0
e_Text_lsubString;38
	push_args 0 2 2
	update_a 3 2
	create
	update_a 0 4
	pop_a 1
.d 4 0
	jmp e_Text_easubString;38
.n 3 e_Text_dsubString;38 e_Text_easubString;38
.o 1 0
e_Text_nsubString;38
	push_node _cycle_in_spine 3
.o 4 0
e_Text_easubString;38
	jsr_eval 2
	jsr_eval 1
	jsr_eval 0
	pushI_a 1
	pushI_a 0
	pop_a 2
.o 2 2 ii
e_Text_ssubString;38
.o 2 2 ii
s39
	push_a 0
	buildI_b 0
	build e_StdList_ddrop 2 e_StdList_ndrop
	push_b 1
	updatepop_a 0 1
	updatepop_b 0 2
.d 2 1 i
	jmp e_StdList_stake
.export e_Text_srtrim;35
.export e_Text_eartrim;35
.descexp e_Text_drtrim;35 e_Text_nrtrim;35 e_Text_lrtrim;35 1 0 "rtrim;35"
.o 2 0
e_Text_irtrim;35
	pop_a 1
	create
	push_a 1
	update_a 1 2
	update_a 0 1
	pop_a 1
.d 2 0
	jmp s36
.ai 1 _ e_Text_irtrim;35
.o 2 0
e_Text_lrtrim;35
	update_a 1 0
	create
	update_a 0 2
	pop_a 1
.d 2 0
	jmp e_Text_eartrim;35
.n 1 e_Text_drtrim;35 e_Text_eartrim;35
.o 1 0
e_Text_nrtrim;35
	push_node _cycle_in_spine 1
.o 2 0
e_Text_eartrim;35
	jsr_eval 0
.o 2 0
e_Text_srtrim;35
.o 2 0
s36
	create
	push_a 1
	update_a 1 2
	updatepop_a 0 1
.d 2 0
	jsr e_StdList_sreverse
.o 1 0
	create
	push_a 1
	update_a 1 2
	update_a 0 1
	pop_a 1
.d 2 0
	jsr s33
.o 1 0
.d 2 0
	jmp e_StdList_sreverse
.export e_Text_srpad;34
.export e_Text_earpad;34
.descexp e_Text_drpad;34 e_Text_nrpad;34 e_Text_lrpad;34 3 0 "rpad;34"
.o 2 2 ic
e_Text_irpad;34
	pop_a 1
	create
	push_a 1
	update_a 1 2
	update_a 0 1
	pop_a 1
.d 2 2 ic
	jmp s35
.ai 3 e_Text_earpad;34 e_Text_irpad;34
.o 2 0
e_Text_lrpad;34
	push_args 0 2 2
	update_a 3 2
	create
	update_a 0 4
	pop_a 1
.d 4 0
	jmp e_Text_earpad;34
.n 3 e_Text_drpad;34 e_Text_earpad;34
.o 1 0
e_Text_nrpad;34
	push_node _cycle_in_spine 3
.o 4 0
e_Text_earpad;34
	jsr_eval 2
	jsr_eval 1
	jsr_eval 0
	pushC_a 2
	pushI_a 1
	update_a 0 2
	pop_a 2
.o 2 2 ic
e_Text_srpad;34
.o 2 2 ic
s35
	buildI 0
	push_a 1
	push_b 0
	build_u e_Text_d_f0.146 1 1 e_Text_n_f0.146
	push_b 1
	push_a 0
	push_a 2
	build_u e_Text_d_f1.147 2 1 e_Text_n_f1.147
	push_a 3
	update_a 1 4
	updatepop_a 0 3
	pop_b 2
.d 3 0
	jmp e_StdList_s++
.export e_Text_d_f1.147
.export e_Text_n_f1.147
.descn e_Text_d_f1.147 e_Text_n_f1.147 3 0 "_f1.147"
.nu 2 1 e_Text_d_f1.147 _
.o 1 0
e_Text_n_f1.147
	push_node_u _cycle_in_spine 2 1
.o 3 1 c
ea147
.o 3 1 c
s147
	push_a 1
	jsr_eval 0
	pushI_a 2
	pop_a 1
	pushI_a 0
	ltI
	push_a 0
	push_a 2
	update_a 1 3
	updatepop_a 0 2
.d 2 1 b
	jsr s92
.o 0 1 i
	buildC_b 1
	updatepop_b 0 1
.d 2 1 i
	jmp e_StdList_srepeatn
.export e_Text_d_f0.146
.export e_Text_n_f0.146
.descn e_Text_d_f0.146 e_Text_n_f0.146 2 0 "_f0.146"
.nu 1 1 e_Text_d_f0.146 _
.o 1 0
e_Text_n_f0.146
	push_node_u _cycle_in_spine 1 1
.o 2 1 i
ea146
.o 2 1 i
s146
	push_a 0
	updatepop_a 0 1
.d 1 0
	jsr e_StdList_slength;47
.o 0 1 i
	push_b 1
	update_b 1 2
	updatepop_b 0 1
	subI
	fillI_b 0 0
	pop_b 1
.d 1 0
	rtn
.o 2 1 b
s92
	eqB_b TRUE 0
	jmp_true case.3
	jmp case.4
case.3
	pop_b 1
	jsr_eval 0
	pushI_a 0
	pop_a 2
.d 0 1 i
	rtn
case.4
	pop_b 1
	pushI_a 1
	pop_a 2
.d 0 1 i
	rtn
.export e_Text_sreplaceSubString;33
.export e_Text_eareplaceSubString;33
.descexp e_Text_dreplaceSubString;33 e_Text_nreplaceSubString;33 e_Text_lreplaceSubString;33 3 0 "replaceSubString;33"
.o 4 0
e_Text_ireplaceSubString;33
	pop_a 1
	create
	push_a 3
	update_a 1 4
	update_a 2 1
	update_a 3 2
	update_a 0 3
	pop_a 1
.d 4 0
	jmp s34
.ai 3 e_Text_eareplaceSubString;33 e_Text_ireplaceSubString;33
.o 2 0
e_Text_lreplaceSubString;33
	push_args 0 2 2
	update_a 3 2
	create
	update_a 0 4
	pop_a 1
.d 4 0
	jmp e_Text_eareplaceSubString;33
.n 3 e_Text_dreplaceSubString;33 e_Text_eareplaceSubString;33
.o 1 0
e_Text_nreplaceSubString;33
	push_node _cycle_in_spine 3
.o 4 0
e_Text_eareplaceSubString;33
	jsr_eval 2
	jsr_eval 1
	jsr_eval 0
.o 4 0
e_Text_sreplaceSubString;33
.o 4 0
s34
	create
	push_a 3
	push_a 2
	update_a 4 5
	update_a 2 4
	update_a 1 3
	updatepop_a 0 2
.d 3 0
	jsr s37
.o 1 0
	push_a 1
	update_a 1 2
	updatepop_a 0 1
.d 3 0
	jmp s30
.export e_Text_ssplit;36
.export e_Text_easplit;36
.descexp e_Text_dsplit;36 e_Text_nsplit;36 e_Text_lsplit;36 2 0 "split;36"
.o 4 0
e_Text_isplit;36
	pop_a 1
.d 3 0
	jmp s37
.ai 2 e_Text_easplit;36 e_Text_isplit;36
.o 2 0
e_Text_lsplit;36
	push_args 0 1 1
	update_a 2 1
	create
	update_a 0 3
	pop_a 1
.d 3 0
	jmp e_Text_easplit;36
.n 2 e_Text_dsplit;36 e_Text_easplit;36
.o 1 0
e_Text_nsplit;36
	push_node _cycle_in_spine 2
.o 3 0
e_Text_easplit;36
	jsr_eval 1
	jsr_eval 0
.o 3 0
e_Text_ssplit;36
.o 3 0
s37
	push_a 1
	push_a 1
.d 2 0
	jsr s28
.o 0 1 i
	push_a 0
	push_a 2
	update_a 1 3
	updatepop_a 0 2
.d 3 1 i
	jmp s91
.o 3 1 i
s91
	eqI_b -1 0
	jmp_true case.5
	jmp case.6
case.5
	buildh _Nil 0
	push_a 1
	fillh _Cons 2 4
	pop_a 2
	pop_b 1
.d 1 0
	rtn
case.6
	push_a 0
	push_a 2
	push_b 0
	build_u e_Text_d_f6.152 2 1 e_Text_n_f6.152
	push_a 2
	build e_Text_dsplit;36 2 e_Text_nsplit;36
	push_a 1
	buildI_b 0
	build e_StdList_dtake 2 e_StdList_ntake
	fillh _Cons 2 4
	pop_a 2
	pop_b 1
.d 1 0
	rtn
.export e_Text_d_f6.152
.export e_Text_n_f6.152
.descn e_Text_d_f6.152 e_Text_n_f6.152 3 0 "_f6.152"
.nu 2 1 e_Text_d_f6.152 _
.o 1 0
e_Text_n_f6.152
	push_node_u _cycle_in_spine 2 1
.o 3 1 i
ea152
.o 3 1 i
s152
	push_a 1
	jsr_eval 0
	push_a 1
	jsr_eval 0
	buildh _Nil 0
	update_a 0 3
	update_a 0 4
	pop_a 1
.d 1 0
	jsr e_StdList_slength;47
.o 0 1 i
	push_b 1
	addI
	updatepop_a 0 2
	updatepop_b 0 1
.d 2 1 i
	jmp e_StdList_sdrop
.export e_Text_sltrim;32
.export e_Text_ealtrim;32
.descexp e_Text_dltrim;32 e_Text_nltrim;32 e_Text_lltrim;32 1 0 "ltrim;32"
.o 2 0
e_Text_iltrim;32
	pop_a 1
	create
	push_a 1
	update_a 1 2
	update_a 0 1
	pop_a 1
.d 2 0
	jmp s33
.ai 1 _ e_Text_iltrim;32
.o 2 0
e_Text_lltrim;32
	update_a 1 0
	create
	update_a 0 2
	pop_a 1
.d 2 0
	jmp e_Text_ealtrim;32
.n 1 e_Text_dltrim;32 e_Text_ealtrim;32
.o 1 0
e_Text_nltrim;32
	push_node _cycle_in_spine 1
.o 2 0
e_Text_ealtrim;32
	jsr_eval 0
.o 2 0
e_Text_sltrim;32
.o 2 0
s33
	buildh e_StdChar_disSpace 0
	push_a 1
	push_a 1
	update_a 1 2
	update_a 0 1
	pop_a 1
	update_a 1 2
	updatepop_a 0 1
.d 3 0
	jmp e_StdList_sdropWhile
.export e_Text_slpad;31
.export e_Text_ealpad;31
.descexp e_Text_dlpad;31 e_Text_nlpad;31 e_Text_llpad;31 3 0 "lpad;31"
.o 2 2 ic
e_Text_ilpad;31
	pop_a 1
	create
	push_a 1
	update_a 1 2
	update_a 0 1
	pop_a 1
.d 2 2 ic
	jmp s32
.ai 3 e_Text_ealpad;31 e_Text_ilpad;31
.o 2 0
e_Text_llpad;31
	push_args 0 2 2
	update_a 3 2
	create
	update_a 0 4
	pop_a 1
.d 4 0
	jmp e_Text_ealpad;31
.n 3 e_Text_dlpad;31 e_Text_ealpad;31
.o 1 0
e_Text_nlpad;31
	push_node _cycle_in_spine 3
.o 4 0
e_Text_ealpad;31
	jsr_eval 2
	jsr_eval 1
	jsr_eval 0
	pushC_a 2
	pushI_a 1
	update_a 0 2
	pop_a 2
.o 2 2 ic
e_Text_slpad;31
.o 2 2 ic
s32
	pushI 0
	push_a 0
.d 1 0
	jsr e_StdList_slength;47
.o 0 1 i
	push_b 2
	subI
	push_b 0
	push_b 2
	ltI
	push_b 2
	push_b 2
	push_b 2
	update_b 2 3
	update_b 1 2
	update_b 0 1
	pop_b 1
	update_b 2 5
	update_b 1 4
	updatepop_b 0 3
.d 0 3 bii
	jsr s90
.o 0 1 i
	create
	buildC_b 1
	updatepop_b 0 1
.d 2 1 i
	jsr e_StdList_srepeatn
.o 1 0
	push_a 1
	push_a 1
	update_a 1 2
	update_a 0 1
	pop_a 1
	update_a 1 2
	updatepop_a 0 1
.d 3 0
	jmp e_StdList_s++
.o 0 3 bii
s90
	eqB_b TRUE 0
	jmp_true case.7
	jmp case.8
case.7
	update_b 1 2
	pop_b 2
.d 0 1 i
	rtn
case.8
	pop_b 2
.d 0 1 i
	rtn
.export e_Text_slastIndexOf;30
.descexp e_Text_dlastIndexOf;30 e_Text_nlastIndexOf;30 e_Text_llastIndexOf;30 2 0 "lastIndexOf;30"
.o 3 0
e_Text_ilastIndexOf;30
	pop_a 1
.d 2 0
	jmp s31
.ai 0 a31 e_Text_ilastIndexOf;30
.o 2 0
e_Text_llastIndexOf;30
	repl_args 1 1
.o 2 0
a31
.d 2 0
	jsr ea31
.o 0 1 i
	buildI_b 0
	pop_b 1
.d 1 0
	rtn
.n 2 e_Text_dlastIndexOf;30
.o 1 0
e_Text_nlastIndexOf;30
	push_node _cycle_in_spine 2
.d 2 0
	jsr ea31
.o 0 1 i
	fillI_b 0 0
	pop_b 1
.d 1 0
	rtn
.o 2 0
ea31
	jsr_eval 1
	jsr_eval 0
.o 2 0
e_Text_slastIndexOf;30
.o 2 0
s31
	create
	push_a 2
.d 2 0
	jsr e_StdList_sreverse
.o 1 0
	create
	push_a 2
.d 2 0
	jsr e_StdList_sreverse
.o 1 0
.d 2 0
	jsr s28
.o 0 1 i
	push_a 0
	push_a 2
	update_a 1 3
	updatepop_a 0 2
.d 2 1 i
	jmp s89
.o 2 1 i
s89
	eqI_b -1 0
	jmp_true case.9
	jmp case.10
case.9
	pop_a 2
	pop_b 1
	pushI -1
.d 0 1 i
	rtn
case.10
	push_a 1
	update_a 1 2
	updatepop_a 0 1
.d 1 0
	jsr e_StdList_slength;47
.o 0 1 i
	push_a 0
	updatepop_a 0 1
.d 1 0
	jsr e_StdList_slength;47
.o 0 1 i
	subI
	push_b 1
	push_b 1
	update_b 1 2
	update_b 0 1
	pop_b 1
	update_b 1 2
	updatepop_b 0 1
	subI
.d 0 1 i
	rtn
.export e_Text_sjoin;29
.export e_Text_eajoin;29
.descexp e_Text_djoin;29 e_Text_njoin;29 e_Text_ljoin;29 2 0 "join;29"
.o 3 0
e_Text_ijoin;29
	pop_a 1
	create
	push_a 2
	update_a 1 3
	update_a 2 1
	update_a 0 2
	pop_a 1
.d 3 0
	jmp s30
.ai 2 e_Text_eajoin;29 e_Text_ijoin;29
.o 2 0
e_Text_ljoin;29
	push_args 0 1 1
	update_a 2 1
	create
	update_a 0 3
	pop_a 1
.d 3 0
	jmp e_Text_eajoin;29
.n 2 e_Text_djoin;29 e_Text_eajoin;29
.o 1 0
e_Text_njoin;29
	push_node _cycle_in_spine 2
.o 3 0
e_Text_eajoin;29
	jsr_eval 1
	jsr_eval 0
.o 3 0
e_Text_sjoin;29
.o 3 0
s30
	create
	push_a 2
	push_a 2
	update_a 2 4
	update_a 1 3
	updatepop_a 0 2
.d 3 0
	jsr e_Data.List_sintersperse
.o 1 0
.d 2 0
	jmp s25
.export e_Text_sindexOfAfter;28
.descexp e_Text_dindexOfAfter;28 e_Text_nindexOfAfter;28 e_Text_lindexOfAfter;28 3 0 "indexOfAfter;28"
.o 3 1 i
e_Text_iindexOfAfter;28
	pop_a 1
.d 2 1 i
	jmp s29
.ai 0 a29 e_Text_iindexOfAfter;28
.o 2 0
e_Text_lindexOfAfter;28
	repl_args 2 2
.o 3 0
a29
.d 3 0
	jsr ea29
.o 0 1 i
	buildI_b 0
	pop_b 1
.d 1 0
	rtn
.n 3 e_Text_dindexOfAfter;28
.o 1 0
e_Text_nindexOfAfter;28
	push_node _cycle_in_spine 3
.d 3 0
	jsr ea29
.o 0 1 i
	fillI_b 0 0
	pop_b 1
.d 1 0
	rtn
.o 3 0
ea29
	jsr_eval 2
	jsr_eval 1
	jsr_eval 0
	pushI_a 0
	pop_a 1
.o 2 1 i
e_Text_sindexOfAfter;28
.o 2 1 i
s29
	create
	push_a 2
	push_b 0
	update_a 2 3
	update_a 1 2
	updatepop_a 0 1
.d 2 1 i
	jsr e_StdList_sdrop
.o 1 0
	push_a 1
	update_a 1 2
	updatepop_a 0 1
.d 2 0
	jsr s28
.o 0 1 i
	push_b 1
	push_b 1
	update_b 1 2
	update_b 0 1
	pop_b 1
	update_b 1 2
	updatepop_b 0 1
.d 0 2 ii
	jmp s88
.o 0 2 ii
s88
	eqI_b -1 0
	jmp_true case.11
	jmp case.12
case.11
	pop_b 2
	pushI -1
.d 0 1 i
	rtn
case.12
	push_b 0
	push_b 2
	update_b 1 3
	updatepop_b 0 2
	addI
.d 0 1 i
	rtn
.export e_Text_sindexOf;27
.descexp e_Text_dindexOf;27 e_Text_nindexOf;27 e_Text_lindexOf;27 2 0 "indexOf;27"
.o 3 0
e_Text_iindexOf;27
	pop_a 1
.d 2 0
	jmp s28
.ai 0 a28 e_Text_iindexOf;27
.o 2 0
e_Text_lindexOf;27
	repl_args 1 1
.o 2 0
a28
.d 2 0
	jsr ea28
.o 0 1 i
	buildI_b 0
	pop_b 1
.d 1 0
	rtn
.n 2 e_Text_dindexOf;27
.o 1 0
e_Text_nindexOf;27
	push_node _cycle_in_spine 2
.d 2 0
	jsr ea28
.o 0 1 i
	fillI_b 0 0
	pop_b 1
.d 1 0
	rtn
.o 2 0
ea28
	jsr_eval 1
	jsr_eval 0
.o 2 0
e_Text_sindexOf;27
.o 2 0
s28
	eq_desc _Nil 0 0
	jmp_true case.13
	jmp case.14
case.13
	pop_a 2
	pushI -1
.d 0 1 i
	rtn
case.14
	push_a 1
	push_a 1
	pushI 0
	update_a 1 3
	updatepop_a 0 2
.d 2 1 i
	jmp s64
.o 2 1 i
s64
	push_a 1
	push_a 1
.d 2 0
	jsr s38
.o 0 1 b
	jmp_false else.15
	pop_a 2
.d 0 1 i
	rtn
else.15
	push_a 0
	push_b 0
	push_a 2
	update_a 1 3
	updatepop_a 0 2
	updatepop_b 0 1
.d 2 1 i
	jmp s87
.o 2 1 i
s87
	eq_desc _Nil 0 0
	jmp_true case.16
	jmp case.17
case.16
	pop_a 2
	pop_b 1
	pushI -1
.d 0 1 i
	rtn
case.17
	repl_args 2 2
	pop_a 1
	push_a 0
	jsr_eval 0
	pushI 1
	push_b 1
	addI
	push_a 2
	update_a 1 3
	updatepop_a 0 2
	updatepop_b 0 1
.d 2 1 i
	jmp s64
.export e_Text_sstartsWith;37
.descexp e_Text_dstartsWith;37 e_Text_nstartsWith;37 e_Text_lstartsWith;37 2 0 "startsWith;37"
.o 3 0
e_Text_istartsWith;37
	pop_a 1
.d 2 0
	jmp s38
.ai 0 a38 e_Text_istartsWith;37
.o 2 0
e_Text_lstartsWith;37
	repl_args 1 1
.o 2 0
a38
.d 2 0
	jsr ea38
.o 0 1 b
	buildB_b 0
	pop_b 1
.d 1 0
	rtn
.n 2 e_Text_dstartsWith;37
.o 1 0
e_Text_nstartsWith;37
	push_node _cycle_in_spine 2
.d 2 0
	jsr ea38
.o 0 1 b
	fillB_b 0 0
	pop_b 1
.d 1 0
	rtn
.o 2 0
ea38
	jsr_eval 1
	jsr_eval 0
.o 2 0
e_Text_sstartsWith;37
.o 2 0
s38
	eq_desc _Nil 0 0
	jmp_true case.18
	jmp case.19
case.18
	pop_a 2
	pushB TRUE
.d 0 1 b
	rtn
case.19
	repl_args 2 2
	eq_desc _Cons 2 2
	jmp_true case.21
	pop_a 1
	jmp case.20
case.21
	push_args 2 2 2
	buildh _Nil 0
	update_a 0 5
	pop_a 1
	push_a 0
	jsr_eval 0
	pushC_a 1
	pop_a 1
	push_a 2
	jsr_eval 0
	pushC_a 3
	pop_a 1
	eqC
	jmp_false else.22
	push_a 1
	jsr_eval 0
	push_a 4
	jsr_eval 0
	update_a 1 6
	updatepop_a 0 5
.d 2 0
	jmp s38
else.22
	pop_a 5
	pushB FALSE
.d 0 1 b
	rtn
case.20
	pop_a 2
	pushB FALSE
.d 0 1 b
	rtn
.export e_Text_sendsWith;26
.descexp e_Text_dendsWith;26 e_Text_nendsWith;26 e_Text_lendsWith;26 2 0 "endsWith;26"
.o 3 0
e_Text_iendsWith;26
	pop_a 1
.d 2 0
	jmp s27
.ai 0 a27 e_Text_iendsWith;26
.o 2 0
e_Text_lendsWith;26
	repl_args 1 1
.o 2 0
a27
.d 2 0
	jsr ea27
.o 0 1 b
	buildB_b 0
	pop_b 1
.d 1 0
	rtn
.n 2 e_Text_dendsWith;26
.o 1 0
e_Text_nendsWith;26
	push_node _cycle_in_spine 2
.d 2 0
	jsr ea27
.o 0 1 b
	fillB_b 0 0
	pop_b 1
.d 1 0
	rtn
.o 2 0
ea27
	jsr_eval 1
	jsr_eval 0
.o 2 0
e_Text_sendsWith;26
.o 2 0
s27
	push_a 1
.d 1 0
	jsr e_StdList_slength;47
.o 0 1 i
	push_a 0
.d 1 0
	jsr e_StdList_slength;47
.o 0 1 i
	push_b 0
	push_b 2
	ltI
	jmp_false else.23
	pop_a 2
	pop_b 2
	pushB FALSE
.d 0 1 b
	rtn
else.23
	push_b 0
	push_b 2
	subI
	create
	push_a 2
	updatepop_b 0 2
	update_a 2 3
	update_a 1 2
	updatepop_a 0 1
.d 2 1 i
	jsr e_StdList_sdrop
.o 1 0
	push_a 1
	update_a 1 2
	updatepop_a 0 1
.d 2 0
	jmp e_StdList_s==;84
.export e_Text_sdropChars;25
.export e_Text_eadropChars;25
.descexp e_Text_ddropChars;25 e_Text_ndropChars;25 e_Text_ldropChars;25 2 0 "dropChars;25"
.o 2 1 i
e_Text_idropChars;25
	pop_a 1
	create
	push_a 1
	update_a 1 2
	update_a 0 1
	pop_a 1
.d 2 1 i
	jmp s26
.ai 2 e_Text_eadropChars;25 e_Text_idropChars;25
.o 2 0
e_Text_ldropChars;25
	push_args 0 1 1
	update_a 2 1
	create
	update_a 0 3
	pop_a 1
.d 3 0
	jmp e_Text_eadropChars;25
.n 2 e_Text_ddropChars;25 e_Text_eadropChars;25
.o 1 0
e_Text_ndropChars;25
	push_node _cycle_in_spine 2
.o 3 0
e_Text_eadropChars;25
	jsr_eval 1
	jsr_eval 0
	pushI_a 0
	pop_a 1
.o 2 1 i
e_Text_sdropChars;25
.o 2 1 i
s26
	push_a 0
	push_b 0
	updatepop_a 0 1
	updatepop_b 0 1
.d 2 1 i
	jmp e_StdList_sdrop
.export e_Text_sconcat;24
.export e_Text_eaconcat;24
.descexp e_Text_dconcat;24 e_Text_nconcat;24 e_Text_lconcat;24 1 0 "concat;24"
.o 2 0
e_Text_iconcat;24
	pop_a 1
	create
	push_a 1
	update_a 1 2
	update_a 0 1
	pop_a 1
.d 2 0
	jmp s25
.ai 1 _ e_Text_iconcat;24
.o 2 0
e_Text_lconcat;24
	update_a 1 0
	create
	update_a 0 2
	pop_a 1
.d 2 0
	jmp e_Text_eaconcat;24
.n 1 e_Text_dconcat;24 e_Text_eaconcat;24
.o 1 0
e_Text_nconcat;24
	push_node _cycle_in_spine 1
.o 2 0
e_Text_eaconcat;24
	jsr_eval 0
.o 2 0
e_Text_sconcat;24
.o 2 0
s25
	push_a 0
	updatepop_a 0 1
.d 2 0
	jmp e_StdList_sflatten
.export e_Text_supperCaseFirst;23
.descexp e_Text_dupperCaseFirst;23 e_Text_nupperCaseFirst;23 e_Text_lupperCaseFirst;23 1 0 "upperCaseFirst;23"
.o 2 0
e_Text_iupperCaseFirst;23
	pop_a 1
	push_array 0
	update_a 0 1
	pop_a 1
.d 1 0
	jsr s24
.o 1 0
	buildh ARRAY 1
.d 1 0
	rtn
.ai 1 _ e_Text_iupperCaseFirst;23
.o 2 0
e_Text_lupperCaseFirst;23
	pop_a 1
.d 1 0
	jsr ea24
.o 1 0
	buildh ARRAY 1
.d 1 0
	rtn
.n 1 e_Text_dupperCaseFirst;23
.o 1 0
e_Text_nupperCaseFirst;23
	push_node _cycle_in_spine 1
.d 1 0
	jsr ea24
.o 1 0
	fillh ARRAY 1 1
.d 1 0
	rtn
.o 1 0
ea24
	jsr_eval 0
	push_array 0
	update_a 0 1
	pop_a 1
.o 1 0
e_Text_supperCaseFirst;23
.o 1 0
s24
	push_a 0
	eqAC_a ""
	jmp_true case.24
	jmp case.25
case.24
	pop_a 1
	buildAC ""
.d 1 0
	rtn
case.25
	pushI 0
	push_a 0
	select CHAR 0 1
.d 0 1 c
	jsr e_StdChar_stoUpper
.o 0 1 c
	pushI 0
	push_a 0
	updatepop_a 0 1
.d 1 2 ic
	jsr updateAC
.o 1 0
.d 1 0
	rtn
.export e_Text_strim;22
.descexp e_Text_dtrim;22 e_Text_ntrim;22 e_Text_ltrim;22 1 0 "trim;22"
.o 2 0
e_Text_itrim;22
	pop_a 1
	push_array 0
	update_a 0 1
	pop_a 1
.d 1 0
	jsr s23
.o 1 0
	buildh ARRAY 1
.d 1 0
	rtn
.ai 1 _ e_Text_itrim;22
.o 2 0
e_Text_ltrim;22
	pop_a 1
.d 1 0
	jsr ea23
.o 1 0
	buildh ARRAY 1
.d 1 0
	rtn
.n 1 e_Text_dtrim;22
.o 1 0
e_Text_ntrim;22
	push_node _cycle_in_spine 1
.d 1 0
	jsr ea23
.o 1 0
	fillh ARRAY 1 1
.d 1 0
	rtn
.o 1 0
ea23
	jsr_eval 0
	push_array 0
	update_a 0 1
	pop_a 1
.o 1 0
e_Text_strim;22
.o 1 0
s23
	push_a 0
	updatepop_a 0 1
.d 1 0
	jsr s16
.o 1 0
.d 1 0
	jmp s13
.export e_Text_stoUpperCase;21
.descexp e_Text_dtoUpperCase;21 e_Text_ntoUpperCase;21 e_Text_ltoUpperCase;21 1 0 "toUpperCase;21"
.o 2 0
e_Text_itoUpperCase;21
	pop_a 1
	push_array 0
	update_a 0 1
	pop_a 1
.d 1 0
	jsr s22
.o 1 0
	buildh ARRAY 1
.d 1 0
	rtn
.ai 1 _ e_Text_itoUpperCase;21
.o 2 0
e_Text_ltoUpperCase;21
	pop_a 1
.d 1 0
	jsr ea22
.o 1 0
	buildh ARRAY 1
.d 1 0
	rtn
.n 1 e_Text_dtoUpperCase;21
.o 1 0
e_Text_ntoUpperCase;21
	push_node _cycle_in_spine 1
.d 1 0
	jsr ea22
.o 1 0
	fillh ARRAY 1 1
.d 1 0
	rtn
.o 1 0
ea22
	jsr_eval 0
	push_array 0
	update_a 0 1
	pop_a 1
.o 1 0
e_Text_stoUpperCase;21
.o 1 0
s22
	push_a 0
	updatepop_a 0 1
	push_a 0
	push_arraysize CHAR 0 1
	pushI 1
	push_b 1
	update_b 1 2
	updatepop_b 0 1
	subI
	pushI 1
	push_b 1
	addI
	create_array_ CHAR 0 1
	push_a 1
	push_b 0
	pushI 0
	push_a 1
	update_a 1 2
	update_a 0 1
	pop_a 1
	update_a 1 2
	updatepop_a 0 1
	update_b 1 2
	updatepop_b 0 1
.d 2 2 ii
	jmp s80
.o 2 2 ii
s80
	push_b 0
	push_b 2
	ltI
	notB
	jmp_false else.26
	push_b 0
	push_a 1
	update_a 1 2
	updatepop_a 0 1
	push_a 0
	select CHAR 0 1
	pushI 1
	push_b 2
	addI
	push_b 1
.d 0 1 c
	jsr e_StdChar_stoUpper
.o 0 1 c
	push_b 3
	push_a 1
	update_a 1 2
	updatepop_a 0 1
	update CHAR 0 1
	push_a 1
	push_b 3
	push_a 1
	update_a 1 2
	update_a 0 1
	pop_a 1
	push_b 1
	update_b 1 2
	update_b 0 1
	pop_b 1
	update_a 1 2
	updatepop_a 0 1
	update_b 1 4
	updatepop_b 0 3
.d 2 2 ii
	jmp s80
else.26
	updatepop_a 0 1
	pop_b 2
.d 1 0
	rtn
.export e_Text_stoLowerCase;20
.descexp e_Text_dtoLowerCase;20 e_Text_ntoLowerCase;20 e_Text_ltoLowerCase;20 1 0 "toLowerCase;20"
.o 2 0
e_Text_itoLowerCase;20
	pop_a 1
	push_array 0
	update_a 0 1
	pop_a 1
.d 1 0
	jsr s21
.o 1 0
	buildh ARRAY 1
.d 1 0
	rtn
.ai 1 _ e_Text_itoLowerCase;20
.o 2 0
e_Text_ltoLowerCase;20
	pop_a 1
.d 1 0
	jsr ea21
.o 1 0
	buildh ARRAY 1
.d 1 0
	rtn
.n 1 e_Text_dtoLowerCase;20
.o 1 0
e_Text_ntoLowerCase;20
	push_node _cycle_in_spine 1
.d 1 0
	jsr ea21
.o 1 0
	fillh ARRAY 1 1
.d 1 0
	rtn
.o 1 0
ea21
	jsr_eval 0
	push_array 0
	update_a 0 1
	pop_a 1
.o 1 0
e_Text_stoLowerCase;20
.o 1 0
s21
	push_a 0
	updatepop_a 0 1
	push_a 0
	push_arraysize CHAR 0 1
	pushI 1
	push_b 1
	update_b 1 2
	updatepop_b 0 1
	subI
	pushI 1
	push_b 1
	addI
	create_array_ CHAR 0 1
	push_a 1
	push_b 0
	pushI 0
	push_a 1
	update_a 1 2
	update_a 0 1
	pop_a 1
	update_a 1 2
	updatepop_a 0 1
	update_b 1 2
	updatepop_b 0 1
.d 2 2 ii
	jmp s78
.o 2 2 ii
s78
	push_b 0
	push_b 2
	ltI
	notB
	jmp_false else.27
	push_b 0
	push_a 1
	update_a 1 2
	updatepop_a 0 1
	push_a 0
	select CHAR 0 1
	pushI 1
	push_b 2
	addI
	push_b 1
.d 0 1 c
	jsr e_StdChar_stoLower
.o 0 1 c
	push_b 3
	push_a 1
	update_a 1 2
	updatepop_a 0 1
	update CHAR 0 1
	push_a 1
	push_b 3
	push_a 1
	update_a 1 2
	update_a 0 1
	pop_a 1
	push_b 1
	update_b 1 2
	update_b 0 1
	pop_b 1
	update_a 1 2
	updatepop_a 0 1
	update_b 1 4
	updatepop_b 0 3
.d 2 2 ii
	jmp s78
else.27
	updatepop_a 0 1
	pop_b 2
.d 1 0
	rtn
.export e_Text_stextSize;19
.descexp e_Text_dtextSize;19 e_Text_ntextSize;19 e_Text_ltextSize;19 1 0 "textSize;19"
.o 2 0
e_Text_itextSize;19
	pop_a 1
	push_array 0
	update_a 0 1
	pop_a 1
.d 1 0
	jmp s20
.ai 1 _ e_Text_itextSize;19
.o 2 0
e_Text_ltextSize;19
	pop_a 1
.d 1 0
	jsr ea20
.o 0 1 i
	buildI_b 0
	pop_b 1
.d 1 0
	rtn
.n 1 e_Text_dtextSize;19
.o 1 0
e_Text_ntextSize;19
	push_node _cycle_in_spine 1
.d 1 0
	jsr ea20
.o 0 1 i
	fillI_b 0 0
	pop_b 1
.d 1 0
	rtn
.o 1 0
ea20
	jsr_eval 0
	push_array 0
	update_a 0 1
	pop_a 1
.o 1 0
e_Text_stextSize;19
.o 1 0
s20
	push_a 0
	updatepop_a 0 1
	push_arraysize CHAR 0 1
.d 0 1 i
	rtn
.export e_Text_sstartsWith;17
.descexp e_Text_dstartsWith;17 e_Text_nstartsWith;17 e_Text_lstartsWith;17 2 0 "startsWith;17"
.o 3 0
e_Text_istartsWith;17
	pop_a 1
	push_array 1
	push_array 1
	update_a 1 3
	update_a 0 2
	pop_a 2
.d 2 0
	jmp s18
.ai 0 a18 e_Text_istartsWith;17
.o 2 0
e_Text_lstartsWith;17
	repl_args 1 1
.o 2 0
a18
.d 2 0
	jsr ea18
.o 0 1 b
	buildB_b 0
	pop_b 1
.d 1 0
	rtn
.n 2 e_Text_dstartsWith;17
.o 1 0
e_Text_nstartsWith;17
	push_node _cycle_in_spine 2
.d 2 0
	jsr ea18
.o 0 1 b
	fillB_b 0 0
	pop_b 1
.d 1 0
	rtn
.o 2 0
ea18
	jsr_eval 1
	jsr_eval 0
	push_array 1
	push_array 1
	update_a 1 3
	update_a 0 2
	pop_a 2
.o 2 0
e_Text_sstartsWith;17
.o 2 0
s18
	push_a 0
	push_arraysize CHAR 0 1
	push_a 1
	push_arraysize CHAR 0 1
	push_b 1
	push_b 1
	update_b 1 2
	update_b 0 1
	pop_b 1
	ltI
	jmp_false else.28
	pop_a 2
	pop_b 1
	pushB FALSE
.d 0 1 b
	rtn
else.28
	pushI 1
	push_b 1
	subI
	push_a 1
	push_a 1
	update_a 1 3
	updatepop_a 0 2
	updatepop_b 0 1
.d 2 1 i
	jmp s76
.o 2 1 i
s76
	eqI_b -1 0
	jmp_true case.29
	jmp case.30
case.29
	pop_a 2
	pop_b 1
	pushB TRUE
.d 0 1 b
	rtn
case.30
	push_b 0
	push_a 1
	select CHAR 0 1
	push_b 1
	push_a 0
	select CHAR 0 1
	eqC
	jmp_false else.31
	pushI 1
	push_b 1
	subI
	push_a 1
	push_a 1
	update_a 1 3
	updatepop_a 0 2
	updatepop_b 0 1
.d 2 1 i
	jmp s76
else.31
	pop_a 2
	pop_b 1
	pushB FALSE
.d 0 1 b
	rtn
.export e_Text_ssplit;16
.export e_Text_easplit;16
.descexp e_Text_dsplit;16 e_Text_nsplit;16 e_Text_lsplit;16 2 0 "split;16"
.o 4 0
e_Text_isplit;16
	pop_a 1
	push_array 1
	push_array 1
	update_a 1 3
	update_a 0 2
	pop_a 2
.d 3 0
	jmp s17
.ai 2 e_Text_easplit;16 e_Text_isplit;16
.o 2 0
e_Text_lsplit;16
	push_args 0 1 1
	update_a 2 1
	create
	update_a 0 3
	pop_a 1
.d 3 0
	jmp e_Text_easplit;16
.n 2 e_Text_dsplit;16 e_Text_easplit;16
.o 1 0
e_Text_nsplit;16
	push_node _cycle_in_spine 2
.o 3 0
e_Text_easplit;16
	jsr_eval 1
	jsr_eval 0
	push_array 1
	push_array 1
	update_a 1 3
	update_a 0 2
	pop_a 2
.o 3 0
e_Text_ssplit;16
.o 3 0
s17
	push_a 1
	push_arraysize CHAR 0 1
	pushI 1
	push_b 1
	update_b 1 2
	update_b 0 1
	pop_b 1
	subI
	push_a 1
	push_a 1
	pushI 0
	update_a 1 3
	updatepop_a 0 2
.d 3 2 ii
	jmp s50
.o 3 2 ii
s50
	push_a 1
	push_a 1
	push_b 0
.d 2 1 i
	jsr s9
.o 0 1 i
	pushI -1
	push_b 1
	eqI
	jmp_false else.32
	buildh _Nil 0
	push_b 2
	push_b 2
	push_a 2
	build_u e_Text_d_f3.149 1 2 e_Text_n_f3.149
	fillh _Cons 2 4
	pop_a 2
	pop_b 3
.d 1 0
	rtn
else.32
	push_a 1
	push_b 2
	push_a 1
	push_b 1
	build_u e_Text_d_f5.151 2 2 e_Text_n_f5.151
	push_b 0
	push_b 2
	push_a 2
	build_u e_Text_d_f4.150 1 2 e_Text_n_f4.150
	fillh _Cons 2 4
	pop_a 2
	pop_b 3
.d 1 0
	rtn
.export e_Text_d_f5.151
.export e_Text_n_f5.151
.descn e_Text_d_f5.151 e_Text_n_f5.151 4 0 "_f5.151"
.nu 2 2 e_Text_d_f5.151 _
.o 1 0
e_Text_n_f5.151
	push_node_u _cycle_in_spine 2 2
.o 3 2 ii
ea151
.o 3 2 ii
s151
	push_a 0
	push_arraysize CHAR 0 1
	push_b 1
	addI
	push_a 1
	push_a 1
	push_b 2
	push_b 1
	update_b 1 2
	update_b 0 1
	pop_b 1
	update_a 1 3
	updatepop_a 0 2
	update_b 1 3
	updatepop_b 0 2
.d 3 2 ii
	jmp s50
.export e_Text_d_f4.150
.export e_Text_n_f4.150
.descn e_Text_d_f4.150 e_Text_n_f4.150 3 0 "_f4.150"
.nu 1 2 e_Text_d_f4.150 _
.o 1 0
e_Text_n_f4.150
	push_node_u _cycle_in_spine 1 2
.o 2 2 ii
ea150
.o 2 2 ii
s150
	pushI 1
	push_b 2
	subI
	push_b 1
	push_a 0
	updatepop_a 0 1
	update_b 1 3
	updatepop_b 0 2
.d 1 2 ii
	jsr sliceAC
.o 1 0
	fillh ARRAY 1 1
.d 1 0
	rtn
.export e_Text_d_f3.149
.export e_Text_n_f3.149
.descn e_Text_d_f3.149 e_Text_n_f3.149 3 0 "_f3.149"
.nu 1 2 e_Text_d_f3.149 _
.o 1 0
e_Text_n_f3.149
	push_node_u _cycle_in_spine 1 2
.o 2 2 ii
ea149
.o 2 2 ii
s149
	push_b 1
	push_b 1
	push_a 0
	updatepop_a 0 1
	update_b 1 3
	updatepop_b 0 2
.d 1 2 ii
	jsr sliceAC
.o 1 0
	fillh ARRAY 1 1
.d 1 0
	rtn
.export e_Text_srtrim;15
.descexp e_Text_drtrim;15 e_Text_nrtrim;15 e_Text_lrtrim;15 1 0 "rtrim;15"
.o 2 0
e_Text_irtrim;15
	pop_a 1
	push_array 0
	update_a 0 1
	pop_a 1
.d 1 0
	jsr s16
.o 1 0
	buildh ARRAY 1
.d 1 0
	rtn
.ai 1 _ e_Text_irtrim;15
.o 2 0
e_Text_lrtrim;15
	pop_a 1
.d 1 0
	jsr ea16
.o 1 0
	buildh ARRAY 1
.d 1 0
	rtn
.n 1 e_Text_drtrim;15
.o 1 0
e_Text_nrtrim;15
	push_node _cycle_in_spine 1
.d 1 0
	jsr ea16
.o 1 0
	fillh ARRAY 1 1
.d 1 0
	rtn
.o 1 0
ea16
	jsr_eval 0
	push_array 0
	update_a 0 1
	pop_a 1
.o 1 0
e_Text_srtrim;15
.o 1 0
s16
	push_a 0
	push_arraysize CHAR 0 1
	pushI 1
	push_b 1
	subI
	push_a 0
.d 1 1 i
	jsr s73
.o 0 1 i
	pushI 1
	push_b 2
	subI
	push_b 1
	eqI
	jmp_false else.33
	pop_b 2
.d 1 0
	rtn
else.33
	push_b 0
	pushI 0
	push_a 0
	updatepop_a 0 1
	update_b 1 3
	updatepop_b 0 2
.d 1 2 ii
	jsr sliceAC
.o 1 0
.d 1 0
	rtn
.o 1 1 i
s73
	pushI 0
	push_b 1
	ltI
	notB
	jmp_false else.34
	push_b 0
	push_a 0
	select CHAR 0 1
.d 0 1 c
	jsr e_StdChar_sisSpace
.o 0 1 b
	jmp_false else.34
	pushI 1
	push_b 1
	subI
	push_a 0
	updatepop_a 0 1
	updatepop_b 0 1
.d 1 1 i
	jmp s73
else.34
	pop_a 1
.d 0 1 i
	rtn
.export e_Text_srpad;14
.descexp e_Text_drpad;14 e_Text_nrpad;14 e_Text_lrpad;14 3 0 "rpad;14"
.o 2 2 ic
e_Text_irpad;14
	pop_a 1
	push_array 0
	update_a 0 1
	pop_a 1
.d 1 2 ic
	jsr s15
.o 1 0
	buildh ARRAY 1
.d 1 0
	rtn
.ai 0 a15 e_Text_irpad;14
.o 2 0
e_Text_lrpad;14
	repl_args 2 2
.o 3 0
a15
.d 3 0
	jsr ea15
.o 1 0
	buildh ARRAY 1
.d 1 0
	rtn
.n 3 e_Text_drpad;14
.o 1 0
e_Text_nrpad;14
	push_node _cycle_in_spine 3
.d 3 0
	jsr ea15
.o 1 0
	fillh ARRAY 1 1
.d 1 0
	rtn
.o 3 0
ea15
	jsr_eval 2
	jsr_eval 1
	jsr_eval 0
	pushC_a 2
	pushI_a 1
	push_array 0
	update_a 0 3
	pop_a 3
.o 1 2 ic
e_Text_srpad;14
.o 1 2 ic
s15
	push_a 0
	push_arraysize CHAR 0 1
	pushI 1
	push_b 2
	subI
	pushI 1
	push_b 1
	addI
	create_array_ CHAR 0 1
	push_b 0
	pushI 0
	push_b 3
	push_b 6
	push_a 1
	update_a 1 2
	updatepop_a 0 1
	update_b 3 7
	update_b 2 6
	update_b 1 5
	updatepop_b 0 4
.d 2 4 ciii
	jmp s72
.o 2 4 ciii
s72
	push_b 2
	push_b 4
	ltI
	notB
	jmp_false else.36
	pushI 1
	push_b 3
	addI
	push_b 2
	push_b 4
	ltI
	push_b 2
	push_b 5
	push_a 0
	push_b 2
	update_b 2 3
	update_b 1 2
	update_b 0 1
	pop_b 1
.d 1 3 bic
	jsr s86
.o 0 1 c
	push_b 4
	push_a 1
	update_a 1 2
	updatepop_a 0 1
	update CHAR 0 1
	push_b 4
	push_b 3
	push_b 3
	push_a 1
	push_b 3
	update_b 3 4
	update_b 0 3
	pop_b 1
	update_a 1 2
	updatepop_a 0 1
	update_b 3 7
	update_b 2 6
	update_b 1 5
	updatepop_b 0 4
.d 2 4 ciii
	jmp s72
else.36
	pop_a 1
	pop_b 4
.d 1 0
	rtn
.o 1 3 bic
s86
	eqB_b TRUE 0
	jmp_true case.37
	jmp case.38
case.37
	push_b 1
	push_a 0
	updatepop_a 0 1
	updatepop_b 0 3
	select CHAR 0 1
.d 0 1 c
	rtn
case.38
	pop_a 1
	pop_b 2
.d 0 1 c
	rtn
.export e_Text_sreplaceSubString;13
.descexp e_Text_dreplaceSubString;13 e_Text_nreplaceSubString;13 e_Text_lreplaceSubString;13 3 0 "replaceSubString;13"
.o 4 0
e_Text_ireplaceSubString;13
	pop_a 1
	push_array 2
	push_array 2
	push_array 2
	update_a 2 5
	update_a 1 4
	update_a 0 3
	pop_a 3
.d 3 0
	jsr s14
.o 1 0
	buildh ARRAY 1
.d 1 0
	rtn
.ai 0 a14 e_Text_ireplaceSubString;13
.o 2 0
e_Text_lreplaceSubString;13
	repl_args 2 2
.o 3 0
a14
.d 3 0
	jsr ea14
.o 1 0
	buildh ARRAY 1
.d 1 0
	rtn
.n 3 e_Text_dreplaceSubString;13
.o 1 0
e_Text_nreplaceSubString;13
	push_node _cycle_in_spine 3
.d 3 0
	jsr ea14
.o 1 0
	fillh ARRAY 1 1
.d 1 0
	rtn
.o 3 0
ea14
	jsr_eval 2
	jsr_eval 1
	jsr_eval 0
	push_array 2
	push_array 2
	push_array 2
	update_a 2 5
	update_a 1 4
	update_a 0 3
	pop_a 3
.o 3 0
e_Text_sreplaceSubString;13
.o 3 0
s14
	buildh _Nil 0
	create
	pushI 0
	push_a 4
	push_a 3
	push_a 5
	push_a 4
	update_a 4 5
	update_a 0 4
	pop_a 1
	update_a 4 7
	update_a 3 6
	update_a 2 5
	update_a 1 4
	updatepop_a 0 3
.d 5 1 i
	jsr s57
.o 1 0
.d 1 0
	jmp s5
.o 5 1 i
s57
	push_a 2
	push_a 2
	push_b 0
.d 2 1 i
	jsr s9
.o 0 1 i
	pushI -1
	push_b 1
	eqI
	jmp_false else.39
	push_a 3
	push_b 0
	push_a 3
	push_b 2
	build_u e_Text_d_f2.148 1 2 e_Text_n_f2.148
	buildh _Cons 2
	updatepop_a 0 4
	pop_b 2
.d 2 0
	jmp e_StdList_sreverse
else.39
	push_b 1
	push_b 1
	subI
	push_a 2
	push_b 2
.d 1 2 ii
	jsr s19
.o 1 0
	push_a 4
	push_a 1
	buildh ARRAY 1
	buildh _Cons 2
	push_a 2
	buildh ARRAY 1
	buildh _Cons 2
	push_a 3
	buildh _Nil 0
	update_a 0 3
	update_a 0 7
	pop_a 1
	push_arraysize CHAR 0 1
	push_b 1
	addI
	push_a 4
	push_a 4
	push_a 4
	update_a 3 8
	update_a 2 7
	update_a 1 6
	updatepop_a 0 5
	updatepop_b 0 2
.d 5 1 i
	jmp s57
.export e_Text_d_f2.148
.export e_Text_n_f2.148
.descn e_Text_d_f2.148 e_Text_n_f2.148 3 0 "_f2.148"
.nu 1 2 e_Text_d_f2.148 _
.o 1 0
e_Text_n_f2.148
	push_node_u _cycle_in_spine 1 2
.o 2 2 ii
ea148
.o 2 2 ii
s148
	push_a 0
	push_arraysize CHAR 0 1
	push_b 2
	push_b 1
	update_b 1 2
	update_b 0 1
	pop_b 1
	subI
	push_a 0
	push_b 1
	updatepop_a 0 1
	update_b 1 3
	updatepop_b 0 2
.d 1 2 ii
	jsr s19
.o 1 0
	fillh ARRAY 1 1
.d 1 0
	rtn
.export e_Text_ssubString;18
.descexp e_Text_dsubString;18 e_Text_nsubString;18 e_Text_lsubString;18 3 0 "subString;18"
.o 2 2 ii
e_Text_isubString;18
	pop_a 1
	push_array 0
	update_a 0 1
	pop_a 1
.d 1 2 ii
	jsr s19
.o 1 0
	buildh ARRAY 1
.d 1 0
	rtn
.ai 0 a19 e_Text_isubString;18
.o 2 0
e_Text_lsubString;18
	repl_args 2 2
.o 3 0
a19
.d 3 0
	jsr ea19
.o 1 0
	buildh ARRAY 1
.d 1 0
	rtn
.n 3 e_Text_dsubString;18
.o 1 0
e_Text_nsubString;18
	push_node _cycle_in_spine 3
.d 3 0
	jsr ea19
.o 1 0
	fillh ARRAY 1 1
.d 1 0
	rtn
.o 3 0
ea19
	jsr_eval 2
	jsr_eval 1
	jsr_eval 0
	push_array 2
	pushI_a 2
	pushI_a 1
	update_a 0 3
	pop_a 3
.o 1 2 ii
e_Text_ssubString;18
.o 1 2 ii
s19
	push_b 1
	push_b 1
	addI
	pushI 1
	push_b 1
	update_b 1 2
	update_b 0 1
	pop_b 1
	subI
	push_b 1
	push_a 0
	updatepop_a 0 1
	update_b 1 3
	updatepop_b 0 2
.d 1 2 ii
	jsr sliceAC
.o 1 0
.d 1 0
	rtn
.export e_Text_sltrim;12
.descexp e_Text_dltrim;12 e_Text_nltrim;12 e_Text_lltrim;12 1 0 "ltrim;12"
.o 2 0
e_Text_iltrim;12
	pop_a 1
	push_array 0
	update_a 0 1
	pop_a 1
.d 1 0
	jsr s13
.o 1 0
	buildh ARRAY 1
.d 1 0
	rtn
.ai 1 _ e_Text_iltrim;12
.o 2 0
e_Text_lltrim;12
	pop_a 1
.d 1 0
	jsr ea13
.o 1 0
	buildh ARRAY 1
.d 1 0
	rtn
.n 1 e_Text_dltrim;12
.o 1 0
e_Text_nltrim;12
	push_node _cycle_in_spine 1
.d 1 0
	jsr ea13
.o 1 0
	fillh ARRAY 1 1
.d 1 0
	rtn
.o 1 0
ea13
	jsr_eval 0
	push_array 0
	update_a 0 1
	pop_a 1
.o 1 0
e_Text_sltrim;12
.o 1 0
s13
	push_a 0
	push_arraysize CHAR 0 1
	pushI 0
	push_b 1
	push_a 0
.d 1 2 ii
	jsr s70
.o 0 1 i
	pushI 0
	push_b 1
	eqI
	jmp_false else.40
	pop_b 2
.d 1 0
	rtn
else.40
	pushI 1
	push_b 2
	subI
	push_b 1
	push_a 0
	updatepop_a 0 1
	update_b 1 3
	updatepop_b 0 2
.d 1 2 ii
	jsr sliceAC
.o 1 0
.d 1 0
	rtn
.o 1 2 ii
s70
	push_b 0
	push_b 2
	ltI
	jmp_false else.41
	push_b 1
	push_a 0
	select CHAR 0 1
.d 0 1 c
	jsr e_StdChar_sisSpace
.o 0 1 b
	jmp_false else.41
	pushI 1
	push_b 2
	addI
	push_b 1
	push_a 0
	updatepop_a 0 1
	update_b 1 3
	updatepop_b 0 2
.d 1 2 ii
	jmp s70
else.41
	pop_a 1
	pop_b 1
.d 0 1 i
	rtn
.export e_Text_slpad;11
.descexp e_Text_dlpad;11 e_Text_nlpad;11 e_Text_llpad;11 3 0 "lpad;11"
.o 2 2 ic
e_Text_ilpad;11
	pop_a 1
	push_array 0
	update_a 0 1
	pop_a 1
.d 1 2 ic
	jsr s12
.o 1 0
	buildh ARRAY 1
.d 1 0
	rtn
.ai 0 a12 e_Text_ilpad;11
.o 2 0
e_Text_llpad;11
	repl_args 2 2
.o 3 0
a12
.d 3 0
	jsr ea12
.o 1 0
	buildh ARRAY 1
.d 1 0
	rtn
.n 3 e_Text_dlpad;11
.o 1 0
e_Text_nlpad;11
	push_node _cycle_in_spine 3
.d 3 0
	jsr ea12
.o 1 0
	fillh ARRAY 1 1
.d 1 0
	rtn
.o 3 0
ea12
	jsr_eval 2
	jsr_eval 1
	jsr_eval 0
	pushC_a 2
	pushI_a 1
	push_array 0
	update_a 0 3
	pop_a 3
.o 1 2 ic
e_Text_slpad;11
.o 1 2 ic
s12
	push_a 0
	push_arraysize CHAR 0 1
	push_b 1
	subI
	pushI 1
	push_b 2
	subI
	pushI 1
	push_b 1
	addI
	create_array_ CHAR 0 1
	push_b 0
	pushI 0
	push_b 3
	push_a 1
	push_b 6
	update_a 1 2
	updatepop_a 0 1
	update_b 3 7
	update_b 2 6
	update_b 1 5
	updatepop_b 0 4
.d 2 4 ciii
	jmp s69
.o 2 4 ciii
s69
	push_b 2
	push_b 4
	ltI
	notB
	jmp_false else.43
	pushI 1
	push_b 3
	addI
	push_b 2
	push_b 4
	ltI
	push_b 3
	push_b 5
	push_a 0
	push_b 4
	push_b 3
	update_b 3 4
	update_b 2 3
	update_b 1 2
	update_b 0 1
	pop_b 1
.d 1 4 bcii
	jsr s83
.o 0 1 c
	push_b 4
	push_a 1
	update_a 1 2
	updatepop_a 0 1
	update CHAR 0 1
	push_b 4
	push_b 3
	push_a 1
	push_b 3
	push_b 3
	update_b 3 4
	update_b 0 3
	pop_b 1
	update_a 1 2
	updatepop_a 0 1
	update_b 3 7
	update_b 2 6
	update_b 1 5
	updatepop_b 0 4
.d 2 4 ciii
	jmp s69
else.43
	pop_a 1
	pop_b 4
.d 1 0
	rtn
.o 1 4 bcii
s83
	eqB_b TRUE 0
	jmp_true case.44
	jmp case.45
case.44
	update_b 1 3
	pop_a 1
	pop_b 3
.d 0 1 c
	rtn
case.45
	push_b 3
	push_b 3
	subI
	push_a 0
	updatepop_a 0 1
	updatepop_b 0 4
	select CHAR 0 1
.d 0 1 c
	rtn
.export e_Text_slastIndexOf;10
.descexp e_Text_dlastIndexOf;10 e_Text_nlastIndexOf;10 e_Text_llastIndexOf;10 2 0 "lastIndexOf;10"
.o 3 0
e_Text_ilastIndexOf;10
	pop_a 1
	push_array 1
	push_array 1
	update_a 1 3
	update_a 0 2
	pop_a 2
.d 2 0
	jmp s11
.ai 0 a11 e_Text_ilastIndexOf;10
.o 2 0
e_Text_llastIndexOf;10
	repl_args 1 1
.o 2 0
a11
.d 2 0
	jsr ea11
.o 0 1 i
	buildI_b 0
	pop_b 1
.d 1 0
	rtn
.n 2 e_Text_dlastIndexOf;10
.o 1 0
e_Text_nlastIndexOf;10
	push_node _cycle_in_spine 2
.d 2 0
	jsr ea11
.o 0 1 i
	fillI_b 0 0
	pop_b 1
.d 1 0
	rtn
.o 2 0
ea11
	jsr_eval 1
	jsr_eval 0
	push_array 1
	push_array 1
	update_a 1 3
	update_a 0 2
	pop_a 2
.o 2 0
e_Text_slastIndexOf;10
.o 2 0
s11
	push_a 0
	push_arraysize CHAR 0 1
	pushI 0
	push_b 1
	update_b 1 2
	update_b 0 1
	pop_b 1
	eqI
	jmp_false else.46
	pop_a 2
	pushI -1
.d 0 1 i
	rtn
else.46
	pushI 0
	push_a 0
	select CHAR 0 1
	push_a 0
	push_arraysize CHAR 0 1
	push_a 1
	push_arraysize CHAR 0 1
	subI
	push_a 1
	push_a 1
	update_a 1 3
	updatepop_a 0 2
.d 2 2 ic
	jmp s52
.o 2 2 ii
s53
	push_a 0
	push_arraysize CHAR 0 1
	push_b 1
	ltI
	jmp_false else.47
	push_b 1
	push_b 1
	addI
	push_a 1
	select CHAR 0 1
	push_b 1
	push_a 0
	select CHAR 0 1
	eqC
	jmp_false else.48
	pushI 1
	push_b 1
	addI
	push_a 1
	push_a 1
	push_b 2
	push_b 1
	update_b 1 2
	update_b 0 1
	pop_b 1
	update_a 1 3
	updatepop_a 0 2
	update_b 1 3
	updatepop_b 0 2
.d 2 2 ii
	jmp s53
else.48
	pushI 0
	push_a 0
	updatepop_b 0 1
	select CHAR 0 1
	pushI 1
	push_b 2
	subI
	push_a 1
	push_a 1
	update_a 1 3
	updatepop_a 0 2
	update_b 1 2
	updatepop_b 0 1
.d 2 2 ic
	jmp s52
else.47
	pop_a 2
	pop_b 1
.d 0 1 i
	rtn
.o 2 2 ic
s52
	pushI 0
	push_b 1
	ltI
	notB
	jmp_false else.49
	push_b 0
	push_a 1
	select CHAR 0 1
	push_b 2
	push_b 1
	update_b 1 2
	update_b 0 1
	pop_b 1
	eqC
	notB
	jmp_false else.50
	pushI 1
	push_b 1
	subI
	push_a 1
	push_a 1
	push_b 2
	push_b 1
	update_b 1 2
	update_b 0 1
	pop_b 1
	update_a 1 3
	updatepop_a 0 2
	update_b 1 3
	updatepop_b 0 2
.d 2 2 ic
	jmp s52
else.50
	push_a 1
	push_a 1
	push_b 0
	pushI 1
	update_a 1 3
	updatepop_a 0 2
	update_b 1 3
	updatepop_b 0 2
.d 2 2 ii
	jmp s53
else.49
	pop_a 2
	pop_b 2
	pushI -1
.d 0 1 i
	rtn
.export e_Text_sjoin;9
.descexp e_Text_djoin;9 e_Text_njoin;9 e_Text_ljoin;9 2 0 "join;9"
.o 3 0
e_Text_ijoin;9
	pop_a 1
	push_array 0
	update_a 0 1
	pop_a 1
.d 2 0
	jsr s10
.o 1 0
	buildh ARRAY 1
.d 1 0
	rtn
.ai 0 a10 e_Text_ijoin;9
.o 2 0
e_Text_ljoin;9
	repl_args 1 1
.o 2 0
a10
.d 2 0
	jsr ea10
.o 1 0
	buildh ARRAY 1
.d 1 0
	rtn
.n 2 e_Text_djoin;9
.o 1 0
e_Text_njoin;9
	push_node _cycle_in_spine 2
.d 2 0
	jsr ea10
.o 1 0
	fillh ARRAY 1 1
.d 1 0
	rtn
.o 2 0
ea10
	jsr_eval 1
	jsr_eval 0
	push_array 0
	update_a 0 1
	pop_a 1
.o 2 0
e_Text_sjoin;9
.o 2 0
s10
	create
	push_a 2
	push_a 2
	update_a 2 4
	update_a 1 3
	updatepop_a 0 2
.d 3 0
	jsr s51
.o 1 0
.d 1 0
	jmp s5
.export e_Text_djoin`;50.51
.export e_Text_njoin`;50.51
.descn e_Text_djoin`;50.51 e_Text_njoin`;50.51 2 0 "join`;50.51"
.n 2 e_Text_djoin`;50.51 ea51
.o 1 0
e_Text_njoin`;50.51
	push_node _cycle_in_spine 2
.o 3 0
ea51
	jsr_eval 1
.o 3 0
s51
	eq_desc _Nil 0 1
	jmp_true case.51
	jmp case.52
case.51
	fillh _Nil 0 2
	pop_a 2
.d 1 0
	rtn
case.52
	push_args 1 2 2
	buildh _Nil 0
	update_a 0 4
	pop_a 1
	jsr_eval 1
	eq_desc _Nil 0 1
	jmp_true case.53
	jmp case.54
case.53
	buildh _Nil 0
	push_a 1
	fillh _Cons 2 6
	pop_a 4
.d 1 0
	rtn
case.54
	push_a 1
	push_a 3
	build e_Text_djoin`;50.51 2 e_Text_njoin`;50.51
	push_a 3
	buildh ARRAY 1
	buildh _Cons 2
	push_a 1
	fillh _Cons 2 6
	pop_a 4
.d 1 0
	rtn
.export e_Text_sindexOf;7
.descexp e_Text_dindexOf;7 e_Text_nindexOf;7 e_Text_lindexOf;7 2 0 "indexOf;7"
.o 3 0
e_Text_iindexOf;7
	pop_a 1
	push_array 1
	push_array 1
	update_a 1 3
	update_a 0 2
	pop_a 2
.d 2 0
	jmp s8
.ai 0 a8 e_Text_iindexOf;7
.o 2 0
e_Text_lindexOf;7
	repl_args 1 1
.o 2 0
a8
.d 2 0
	jsr ea8
.o 0 1 i
	buildI_b 0
	pop_b 1
.d 1 0
	rtn
.n 2 e_Text_dindexOf;7
.o 1 0
e_Text_nindexOf;7
	push_node _cycle_in_spine 2
.d 2 0
	jsr ea8
.o 0 1 i
	fillI_b 0 0
	pop_b 1
.d 1 0
	rtn
.o 2 0
ea8
	jsr_eval 1
	jsr_eval 0
	push_array 1
	push_array 1
	update_a 1 3
	update_a 0 2
	pop_a 2
.o 2 0
e_Text_sindexOf;7
.o 2 0
s8
	push_a 1
	push_a 1
	pushI 0
	update_a 1 3
	updatepop_a 0 2
.d 2 1 i
	jmp s9
.export e_Text_sindexOfAfter;8
.descexp e_Text_dindexOfAfter;8 e_Text_nindexOfAfter;8 e_Text_lindexOfAfter;8 3 0 "indexOfAfter;8"
.o 3 1 i
e_Text_iindexOfAfter;8
	pop_a 1
	push_array 1
	push_array 1
	update_a 1 3
	update_a 0 2
	pop_a 2
.d 2 1 i
	jmp s9
.ai 0 a9 e_Text_iindexOfAfter;8
.o 2 0
e_Text_lindexOfAfter;8
	repl_args 2 2
.o 3 0
a9
.d 3 0
	jsr ea9
.o 0 1 i
	buildI_b 0
	pop_b 1
.d 1 0
	rtn
.n 3 e_Text_dindexOfAfter;8
.o 1 0
e_Text_nindexOfAfter;8
	push_node _cycle_in_spine 3
.d 3 0
	jsr ea9
.o 0 1 i
	fillI_b 0 0
	pop_b 1
.d 1 0
	rtn
.o 3 0
ea9
	jsr_eval 2
	jsr_eval 1
	jsr_eval 0
	push_array 2
	push_array 2
	pushI_a 2
	update_a 1 4
	update_a 0 3
	pop_a 3
.o 2 1 i
e_Text_sindexOfAfter;8
.o 2 1 i
s9
	push_a 0
	push_arraysize CHAR 0 1
	pushI 0
	push_b 1
	update_b 1 2
	update_b 0 1
	pop_b 1
	eqI
	jmp_false else.55
	pop_a 2
	pop_b 1
	pushI -1
.d 0 1 i
	rtn
else.55
	push_a 0
	push_arraysize CHAR 0 1
	push_a 1
	push_arraysize CHAR 0 1
	subI
	pushI 0
	push_a 0
	select CHAR 0 1
	push_a 1
	push_a 1
	push_b 2
	update_a 1 3
	updatepop_a 0 2
	update_b 2 3
	update_b 1 2
	updatepop_b 0 1
.d 2 3 ici
	jmp s54
.o 2 3 iii
s55
	push_a 0
	push_arraysize CHAR 0 1
	push_b 1
	ltI
	jmp_false else.56
	push_b 1
	push_b 1
	addI
	push_a 1
	select CHAR 0 1
	push_b 1
	push_a 0
	select CHAR 0 1
	eqC
	jmp_false else.57
	pushI 1
	push_b 1
	addI
	push_a 1
	push_a 1
	push_b 3
	push_b 3
	push_b 2
	update_b 2 3
	update_b 1 2
	update_b 0 1
	pop_b 1
	update_a 1 3
	updatepop_a 0 2
	update_b 2 5
	update_b 1 4
	updatepop_b 0 3
.d 2 3 iii
	jmp s55
else.57
	pushI 0
	push_a 0
	updatepop_b 0 1
	select CHAR 0 1
	pushI 1
	push_b 2
	addI
	push_a 1
	push_a 1
	push_b 3
	push_b 2
	update_b 1 3
	update_b 2 1
	update_b 0 2
	pop_b 1
	update_a 1 3
	updatepop_a 0 2
	update_b 2 4
	update_b 1 3
	updatepop_b 0 2
.d 2 3 ici
	jmp s54
else.56
	update_b 1 2
	pop_a 2
	pop_b 2
.d 0 1 i
	rtn
.o 2 3 ici
s54
	push_b 0
	push_b 3
	ltI
	notB
	jmp_false else.58
	push_b 0
	push_a 1
	select CHAR 0 1
	push_b 2
	push_b 1
	update_b 1 2
	update_b 0 1
	pop_b 1
	eqC
	notB
	jmp_false else.59
	pushI 1
	push_b 1
	addI
	push_a 1
	push_a 1
	push_b 3
	push_b 3
	push_b 2
	update_b 2 3
	update_b 1 2
	update_b 0 1
	pop_b 1
	update_a 1 3
	updatepop_a 0 2
	update_b 2 5
	update_b 1 4
	updatepop_b 0 3
.d 2 3 ici
	jmp s54
else.59
	push_a 1
	push_a 1
	push_b 2
	push_b 1
	pushI 1
	update_a 1 3
	updatepop_a 0 2
	update_b 2 5
	update_b 1 4
	updatepop_b 0 3
.d 2 3 iii
	jmp s55
else.58
	pop_a 2
	pop_b 3
	pushI -1
.d 0 1 i
	rtn
.export e_Text_sendsWith;6
.descexp e_Text_dendsWith;6 e_Text_nendsWith;6 e_Text_lendsWith;6 2 0 "endsWith;6"
.o 3 0
e_Text_iendsWith;6
	pop_a 1
	push_array 1
	push_array 1
	update_a 1 3
	update_a 0 2
	pop_a 2
.d 2 0
	jmp s7
.ai 0 a7 e_Text_iendsWith;6
.o 2 0
e_Text_lendsWith;6
	repl_args 1 1
.o 2 0
a7
.d 2 0
	jsr ea7
.o 0 1 b
	buildB_b 0
	pop_b 1
.d 1 0
	rtn
.n 2 e_Text_dendsWith;6
.o 1 0
e_Text_nendsWith;6
	push_node _cycle_in_spine 2
.d 2 0
	jsr ea7
.o 0 1 b
	fillB_b 0 0
	pop_b 1
.d 1 0
	rtn
.o 2 0
ea7
	jsr_eval 1
	jsr_eval 0
	push_array 1
	push_array 1
	update_a 1 3
	update_a 0 2
	pop_a 2
.o 2 0
e_Text_sendsWith;6
.o 2 0
s7
	push_a 1
	push_arraysize CHAR 0 1
	push_a 0
	push_arraysize CHAR 0 1
	push_b 0
	push_b 2
	ltI
	notB
	jmp_false else.60
	pushI 1
	push_b 2
	subI
	push_b 1
	push_b 3
	subI
	push_a 1
	update_b 1 3
	updatepop_b 0 2
	update_a 1 2
	updatepop_a 0 1
.d 1 2 ii
	jsr sliceAC
.o 1 0
	push_a 1
	update_a 1 2
	updatepop_a 0 1
.d 2 0
	jsr eqAC
.o 0 1 b
.d 0 1 b
	rtn
else.60
	pop_a 2
	pop_b 2
	pushB FALSE
.d 0 1 b
	rtn
.export e_Text_sdropChars;5
.descexp e_Text_ddropChars;5 e_Text_ndropChars;5 e_Text_ldropChars;5 2 0 "dropChars;5"
.o 2 1 i
e_Text_idropChars;5
	pop_a 1
	push_array 0
	update_a 0 1
	pop_a 1
.d 1 1 i
	jsr s6
.o 1 0
	buildh ARRAY 1
.d 1 0
	rtn
.ai 0 a6 e_Text_idropChars;5
.o 2 0
e_Text_ldropChars;5
	repl_args 1 1
.o 2 0
a6
.d 2 0
	jsr ea6
.o 1 0
	buildh ARRAY 1
.d 1 0
	rtn
.n 2 e_Text_ddropChars;5
.o 1 0
e_Text_ndropChars;5
	push_node _cycle_in_spine 2
.d 2 0
	jsr ea6
.o 1 0
	fillh ARRAY 1 1
.d 1 0
	rtn
.o 2 0
ea6
	jsr_eval 1
	jsr_eval 0
	push_array 1
	pushI_a 1
	update_a 0 2
	pop_a 2
.o 1 1 i
e_Text_sdropChars;5
.o 1 1 i
s6
	push_a 0
	push_arraysize CHAR 0 1
	push_b 1
	addI
	push_b 1
	push_b 1
	update_b 1 2
	update_b 0 1
	pop_b 1
	subI
	pushI 1
	push_b 1
	update_b 1 2
	update_b 0 1
	pop_b 1
	subI
	push_b 1
	push_a 0
	updatepop_a 0 1
	update_b 1 2
	updatepop_b 0 1
.d 1 2 ii
	jsr sliceAC
.o 1 0
.d 1 0
	rtn
.export e_Text_sconcat;4
.descexp e_Text_dconcat;4 e_Text_nconcat;4 e_Text_lconcat;4 1 0 "concat;4"
.o 2 0
e_Text_iconcat;4
	pop_a 1
.d 1 0
	jsr s5
.o 1 0
	buildh ARRAY 1
.d 1 0
	rtn
.ai 1 _ e_Text_iconcat;4
.o 2 0
e_Text_lconcat;4
	pop_a 1
.d 1 0
	jsr ea5
.o 1 0
	buildh ARRAY 1
.d 1 0
	rtn
.n 1 e_Text_dconcat;4
.o 1 0
e_Text_nconcat;4
	push_node _cycle_in_spine 1
.d 1 0
	jsr ea5
.o 1 0
	fillh ARRAY 1 1
.d 1 0
	rtn
.o 1 0
ea5
	jsr_eval 0
.o 1 0
e_Text_sconcat;4
.o 1 0
s5
	push_a 0
	pushI 0
.d 1 1 i
	jsr s67
.o 0 1 i
	create_array_ CHAR 0 1
	pushI 0
	push_a 1
	update_a 1 2
	updatepop_a 0 1
.d 2 1 i
	jmp s49
.o 1 1 i
s67
	eq_desc _Nil 0 0
	jmp_true case.61
	jmp case.62
case.61
	pop_a 1
.d 0 1 i
	rtn
case.62
	repl_args 2 2
	push_a 1
	jsr_eval 0
	push_a 1
	jsr_eval 0
	push_array 0
	updatepop_a 0 1
	push_b 0
	updatepop_b 0 1
	buildh _Nil 0
	update_a 0 3
	update_a 0 4
	pop_a 1
.d 1 1 i
	jsr s66
.o 0 1 i
	updatepop_a 0 2
.d 1 1 i
	jmp s67
.o 1 1 i
s66
	push_a 0
	updatepop_a 0 1
	push_arraysize CHAR 0 1
	push_b 1
	update_b 1 2
	updatepop_b 0 1
	addI
.d 0 1 i
	rtn
.o 2 1 i
s49
	eq_desc _Nil 0 0
	jmp_true case.63
	jmp case.64
case.63
	pop_a 1
	pop_b 1
.d 1 0
	rtn
case.64
	repl_args 2 2
	push_a 0
	jsr_eval 0
	push_array 0
	updatepop_a 0 1
	push_arraysize CHAR 0 1
	push_b 1
	addI
	push_array 0
	push_arraysize CHAR 0 1
	pushI 1
	push_b 1
	update_b 1 2
	update_b 0 1
	pop_b 1
	subI
	push_a 2
	push_array 1
	push_b 2
	update_a 3 4
	update_a 1 3
	updatepop_a 0 2
.d 2 2 ii
	jsr s47
.o 1 0
	push_a 1
	jsr_eval 0
	update_a 1 2
	updatepop_a 0 1
	updatepop_b 0 1
.d 2 1 i
	jmp s49
.export e_Text_s<+
.descexp e_Text_d<+ e_Text_n<+ e_Text_l<+ 4 0 "<+"
.a 0 a4
.o 2 0
e_Text_l<+
	repl_args 3 3
.o 4 0
a4
.d 4 0
	jsr ea4
.o 1 0
	buildh ARRAY 1
.d 1 0
	rtn
.n 4 e_Text_d<+
.o 1 0
e_Text_n<+
	push_node _cycle_in_spine 4
.d 4 0
	jsr ea4
.o 1 0
	fillh ARRAY 1 1
.d 1 0
	rtn
.o 4 0
ea4
	jsr_eval 3
	jsr_eval 2
	jsr_eval 1
	jsr_eval 0
	push_r_args 1 1 0
	push_r_args 1 1 0
	update_a 1 3
	update_a 0 2
	pop_a 2
.o 4 0
e_Text_s<+
.o 4 0
s4
	push_a 1
	push_a 4
	push_a 1
	update_a 1 2
	update_a 0 1
	pop_a 1
	update_a 4 5
	update_a 2 4
	update_a 1 3
	updatepop_a 0 2
.d 2 0
	jsr_i 1
.o 1 0
	push_a 1
	push_a 3
	push_a 1
	update_a 1 2
	update_a 0 1
	pop_a 1
	buildh _Nil 0
	update_a 0 5
	update_a 0 4
	pop_a 1
.d 2 0
	jsr_i 1
.o 1 0
	update_a 1 3
	updatepop_a 0 2
.d 2 0
	jmp s45
.export e_Text_s+;44
.descexp e_Text_d+;44 e_Text_n+;44 e_Text_l+;44 2 0 "+;44"
.o 3 0
e_Text_i+;44
	pop_a 1
	push_array 1
	push_array 1
	update_a 1 3
	update_a 0 2
	pop_a 2
.d 2 0
	jsr s45
.o 1 0
	buildh ARRAY 1
.d 1 0
	rtn
.ai 0 a45 e_Text_i+;44
.o 2 0
e_Text_l+;44
	repl_args 1 1
.o 2 0
a45
.d 2 0
	jsr ea45
.o 1 0
	buildh ARRAY 1
.d 1 0
	rtn
.n 2 e_Text_d+;44
.o 1 0
e_Text_n+;44
	push_node _cycle_in_spine 2
.d 2 0
	jsr ea45
.o 1 0
	fillh ARRAY 1 1
.d 1 0
	rtn
.o 2 0
ea45
	jsr_eval 1
	jsr_eval 0
	push_array 1
	push_array 1
	update_a 1 3
	update_a 0 2
	pop_a 2
.o 2 0
e_Text_s+;44
.o 2 0
s45
	push_a 1
	push_a 1
	update_a 1 3
	updatepop_a 0 2
.d 2 0
	jsr catAC
.o 1 0
.d 1 0
	rtn
.export e_Text_sconcat5
.descexp e_Text_dconcat5 e_Text_nconcat5 e_Text_lconcat5 5 0 "concat5"
.a 0 a3
.o 2 0
e_Text_lconcat5
	repl_args 4 4
.o 5 0
a3
.d 5 0
	jsr ea3
.o 1 0
	buildh ARRAY 1
.d 1 0
	rtn
.n 5 e_Text_dconcat5
.o 1 0
e_Text_nconcat5
	push_node _cycle_in_spine 5
.d 5 0
	jsr ea3
.o 1 0
	fillh ARRAY 1 1
.d 1 0
	rtn
.o 5 0
ea3
	jsr_eval 4
	jsr_eval 3
	jsr_eval 2
	jsr_eval 1
	jsr_eval 0
	push_array 4
	push_array 4
	push_array 4
	push_array 4
	push_array 4
	update_a 4 9
	update_a 3 8
	update_a 2 7
	update_a 1 6
	update_a 0 5
	pop_a 5
.o 5 0
e_Text_sconcat5
.o 5 0
s3
	push_a 0
	push_arraysize CHAR 0 1
	push_a 1
	push_arraysize CHAR 0 1
	push_a 2
	push_arraysize CHAR 0 1
	push_a 3
	push_arraysize CHAR 0 1
	push_a 4
	push_arraysize CHAR 0 1
	push_b 3
	push_b 5
	addI
	push_b 3
	push_b 1
	update_b 1 2
	update_b 0 1
	pop_b 1
	addI
	push_b 2
	push_b 1
	update_b 1 2
	update_b 0 1
	pop_b 1
	addI
	push_b 1
	push_b 1
	update_b 1 2
	update_b 0 1
	pop_b 1
	addI
	create_array_ CHAR 0 1
	pushI 1
	push_b 1
	subI
	push_b 4
	push_b 6
	addI
	push_b 4
	push_b 1
	update_b 1 2
	update_b 0 1
	pop_b 1
	addI
	push_b 3
	push_b 1
	update_b 1 2
	update_b 0 1
	pop_b 1
	addI
	push_a 5
	update_b 1 2
	updatepop_b 0 1
	buildh _Nil 0
	update_a 0 7
	pop_a 1
.d 2 2 ii
	jsr s47
.o 1 0
	pushI 1
	push_b 1
	subI
	push_b 3
	push_b 5
	addI
	push_b 3
	push_b 1
	update_b 1 2
	update_b 0 1
	pop_b 1
	addI
	push_a 4
	update_b 1 2
	updatepop_b 0 1
	buildh _Nil 0
	update_a 0 6
	pop_a 1
.d 2 2 ii
	jsr s47
.o 1 0
	pushI 1
	push_b 1
	subI
	push_b 2
	push_b 4
	addI
	push_a 3
	update_b 1 2
	updatepop_b 0 1
	update_a 3 6
	update_a 2 5
	update_a 1 4
	updatepop_a 0 3
.d 2 2 ii
	jsr s47
.o 1 0
	pushI 1
	push_b 1
	subI
	push_a 2
	push_b 2
	update_b 1 2
	updatepop_b 0 1
	update_a 2 3
	update_a 1 2
	updatepop_a 0 1
.d 2 2 ii
	jsr s47
.o 1 0
	pushI 1
	push_b 1
	subI
	push_a 1
	pushI 0
	update_a 1 2
	updatepop_a 0 1
	update_b 1 2
	updatepop_b 0 1
.d 2 2 ii
	jmp s47
.export e_Text_sconcat4
.descexp e_Text_dconcat4 e_Text_nconcat4 e_Text_lconcat4 4 0 "concat4"
.a 0 a2
.o 2 0
e_Text_lconcat4
	repl_args 3 3
.o 4 0
a2
.d 4 0
	jsr ea2
.o 1 0
	buildh ARRAY 1
.d 1 0
	rtn
.n 4 e_Text_dconcat4
.o 1 0
e_Text_nconcat4
	push_node _cycle_in_spine 4
.d 4 0
	jsr ea2
.o 1 0
	fillh ARRAY 1 1
.d 1 0
	rtn
.o 4 0
ea2
	jsr_eval 3
	jsr_eval 2
	jsr_eval 1
	jsr_eval 0
	push_array 3
	push_array 3
	push_array 3
	push_array 3
	update_a 3 7
	update_a 2 6
	update_a 1 5
	update_a 0 4
	pop_a 4
.o 4 0
e_Text_sconcat4
.o 4 0
s2
	push_a 0
	push_arraysize CHAR 0 1
	push_a 1
	push_arraysize CHAR 0 1
	push_a 2
	push_arraysize CHAR 0 1
	push_a 3
	push_arraysize CHAR 0 1
	push_b 2
	push_b 4
	addI
	push_b 2
	push_b 1
	update_b 1 2
	update_b 0 1
	pop_b 1
	addI
	push_b 1
	push_b 1
	update_b 1 2
	update_b 0 1
	pop_b 1
	addI
	create_array_ CHAR 0 1
	pushI 1
	push_b 1
	subI
	push_b 3
	push_b 5
	addI
	push_b 3
	push_b 1
	update_b 1 2
	update_b 0 1
	pop_b 1
	addI
	push_a 4
	update_b 1 2
	updatepop_b 0 1
	buildh _Nil 0
	update_a 0 6
	pop_a 1
.d 2 2 ii
	jsr s47
.o 1 0
	pushI 1
	push_b 1
	subI
	push_b 2
	push_b 4
	addI
	push_a 3
	update_b 1 2
	updatepop_b 0 1
	update_a 3 5
	update_a 2 4
	update_a 1 3
	updatepop_a 0 2
.d 2 2 ii
	jsr s47
.o 1 0
	pushI 1
	push_b 1
	subI
	push_a 2
	push_b 2
	update_b 1 2
	updatepop_b 0 1
	update_a 2 3
	update_a 1 2
	updatepop_a 0 1
.d 2 2 ii
	jsr s47
.o 1 0
	pushI 1
	push_b 1
	subI
	push_a 1
	pushI 0
	update_a 1 2
	updatepop_a 0 1
	update_b 1 2
	updatepop_b 0 1
.d 2 2 ii
	jmp s47
.export e_Text_sconcat3
.descexp e_Text_dconcat3 e_Text_nconcat3 e_Text_lconcat3 3 0 "concat3"
.a 0 a1
.o 2 0
e_Text_lconcat3
	repl_args 2 2
.o 3 0
a1
.d 3 0
	jsr ea1
.o 1 0
	buildh ARRAY 1
.d 1 0
	rtn
.n 3 e_Text_dconcat3
.o 1 0
e_Text_nconcat3
	push_node _cycle_in_spine 3
.d 3 0
	jsr ea1
.o 1 0
	fillh ARRAY 1 1
.d 1 0
	rtn
.o 3 0
ea1
	jsr_eval 2
	jsr_eval 1
	jsr_eval 0
	push_array 2
	push_array 2
	push_array 2
	update_a 2 5
	update_a 1 4
	update_a 0 3
	pop_a 3
.o 3 0
e_Text_sconcat3
.o 3 0
s1
	push_a 0
	push_arraysize CHAR 0 1
	push_a 1
	push_arraysize CHAR 0 1
	push_a 2
	push_arraysize CHAR 0 1
	push_b 1
	push_b 3
	addI
	push_b 1
	push_b 1
	update_b 1 2
	update_b 0 1
	pop_b 1
	addI
	create_array_ CHAR 0 1
	pushI 1
	push_b 1
	subI
	push_b 2
	push_b 4
	addI
	push_a 3
	update_b 1 2
	updatepop_b 0 1
	buildh _Nil 0
	update_a 0 5
	pop_a 1
.d 2 2 ii
	jsr s47
.o 1 0
	pushI 1
	push_b 1
	subI
	push_a 2
	push_b 2
	update_b 1 2
	updatepop_b 0 1
	update_a 2 4
	update_a 1 3
	updatepop_a 0 2
.d 2 2 ii
	jsr s47
.o 1 0
	pushI 1
	push_b 1
	subI
	push_a 1
	pushI 0
	update_a 1 2
	updatepop_a 0 1
	update_b 1 2
	updatepop_b 0 1
.d 2 2 ii
	jmp s47
.o 2 2 ii
s47
	eqI_b -1 1
	jmp_true case.65
	jmp case.66
case.65
	pop_a 1
	pop_b 2
.d 1 0
	rtn
case.66
	push_b 1
	push_a 0
	select CHAR 0 1
	push_b 2
	push_b 2
	addI
	push_a 1
	update_a 1 2
	updatepop_a 0 1
	update CHAR 0 1
	pushI 1
	push_b 2
	subI
	push_a 1
	push_b 1
	update_a 1 2
	updatepop_a 0 1
	update_b 1 3
	updatepop_b 0 2
.d 2 2 ii
	jmp s47
