.comp 920 000011110011000
.start _nostart_
.depend "Data.Integer.Div" "20210430140248"
.depend "Data.Integer.Mul" "20210430140248"
.depend "Data.Integer.Add" "20210430140248"
.depend "Data.Integer.ToInteger" "20210430140248"
.depend "Data.Integer.ToString" "20210430140248"
.depend "StdCharList" "20210430140248"
.depend "_SystemArray" "20210430140248"
.depend "StdArray" "20210430140248"
.depend "StdEnv" "20210430140248"
.depend "_SystemEnum" "20210430140248"
.depend "StdEnum" "20210430140248"
.depend "StdTuple" "20210430140248"
.depend "StdOrdList" "20210430140248"
.depend "Data.GenDefault" "20210430140248"
.depend "StdFile" "20210430140248"
.depend "StdString" "20210430140248"
.depend "StdMisc" "20210430140248"
.depend "Data.GenLexOrd" "20210430140248"
.depend "StdFunctions" "20210430140248"
.depend "_SystemEnumStrict" "20210430140248"
.depend "_SystemStrictLists" "20210430140248"
.depend "StdStrictLists" "20210430140248"
.depend "StdGeneric" "20210430140248"
.depend "Data.GenEq" "20210430140248"
.depend "StdReal" "20210430140248"
.depend "StdChar" "20210430140248"
.depend "StdInt" "20210430140248"
.depend "StdBool" "20210430140248"
.depend "StdClass" "20210430140248"
.depend "StdList" "20210430140248"
.depend "StdOverloaded" "20210430140248"
.depend "_SystemDynamic" "20210430140248"
.depend "Data.Integer" "20210430140248"
.module m_Data.Integer "Data.Integer" "20210430140248"
.endinfo
.impmod _system
.implab _cycle_in_spine
.implab _type_error
.implab _hnf
.impdesc e_system_dind
.implab e_system_nind e_system_eaind
.impdesc e_system_dif
.implab e_system_nif e_system_eaif
.implab e_system_sif
.impdesc e_system_dAP
.implab e_system_nAP e_system_eaAP
.implab e_system_sAP
.impdesc ARRAY
.impdesc _Nil
.impdesc _Cons
.impdesc _Conss
.implab n_Conss ea_Conss
.impdesc _Consts
.implab n_Consts ea_Consts
.impdesc _Conssts
.implab n_Conssts ea_Conssts
.impdesc _Tuple
.impdesc d_S.1
.implab n_S.1 ea_S.1
.impdesc d_S.2
.implab n_S.2 ea_S.2
.impdesc d_S.3
.implab n_S.3 ea_S.3
.impdesc d_S.4
.implab n_S.4 ea_S.4
.impdesc d_S.5
.implab n_S.5 ea_S.5
.impdesc d_S.6
.implab n_S.6 ea_S.6
.implab _driver
.impmod Data.Integer.Div
.implab e_Data.Integer.Div_srem_integer
.implab e_Data.Integer.Div_sfloordiv_integer
.impmod Data.Integer.Mul
.implab e_Data.Integer.Mul_smul_integer
.impmod Data.Integer.Add
.implab e_Data.Integer.Add_sadd_integer
.implab e_Data.Integer.Add_ssub_integer
.impmod Data.Integer.ToInteger
.implab e_Data.Integer.ToInteger_sstring_to_integer
.impmod Data.Integer.ToString
.implab e_Data.Integer.ToString_sinteger_to_string
.impmod _SystemArray
.impdesc e__SystemArray_dsize;12
.implab e__SystemArray_nsize;12
.impmod StdMisc
.implab e_StdMisc_sabort
.impmod StdChar
.implab e_StdChar_stoChar;21
.impmod StdInt
.implab e_StdInt_sbitand
.implab e_StdInt_sbitxor
.implab e_StdInt_s>>
.implab e_StdInt_sbitnot
.implab e_StdInt_s+;6
.implab e_StdInt_s-;7
.implab e_StdInt_ssign;14
.implab e_StdInt_s~;15
.implab e_StdInt_s==;16
.implab e_StdInt_s<;17
.implab e_StdInt_sisEven;18
.implab e_StdInt_stoInt;20
.impmod StdBool
.implab e_StdBool_snot
.impmod Data.GenLexOrd
.impdesc e_Data.GenLexOrd_dLT
.impdesc e_Data.GenLexOrd_dEQ
.impdesc e_Data.GenLexOrd_dGT
.export e_Data.Integer_rInteger
.record e_Data.Integer_rInteger ia 1 1 "Integer"
.descexp e_Data.Integer_tInteger e_Data.Integer_cInteger _hnf 2 1 "Integer"
.n 2 e_Data.Integer_tInteger
.o 1 0
e_Data.Integer_cInteger
	push_node _cycle_in_spine 2
	jsr_eval 1
	jsr_eval 0
	push_array 1
	pushI_a 1
	update_a 0 2
	pop_a 2
.impmod Data.Integer
.impdesc e_Data.Integer_rInteger
	fill_r e_Data.Integer_rInteger 1 1 1 0 0
	pop_a 1
	pop_b 1
.d 1 0
	rtn
.export e_Data.Integer_dInteger.integer_s
.export e_Data.Integer_nInteger.integer_s
.descs e_Data.Integer_dInteger.integer_s e_Data.Integer_nInteger.integer_s INT 2 0 "Integer.integer_s"
.n -3 e_Data.Integer_dInteger.integer_s
.o 1 0
e_Data.Integer_nInteger.integer_s
	push_node _cycle_in_spine 1
	jsr_eval 0
	push_r_args_b 0 1 1 1 1
	pop_a 1
	fillI_b 0 0
	pop_b 1
.d 1 0
	rtn
.export e_Data.Integer_dInteger.integer_a
.export e_Data.Integer_nInteger.integer_a
.desc e_Data.Integer_dInteger.integer_a e_Data.Integer_nInteger.integer_a _hnf 1 0 "Integer.integer_a"
.n 1 e_Data.Integer_dInteger.integer_a
.o 1 0
e_Data.Integer_nInteger.integer_a
	push_node _cycle_in_spine 1
	jsr_eval 0
	repl_r_args_a 1 1 1 1
	fillh ARRAY 1 1
.d 1 0
	rtn
.export e_Data.Integer_rtoInteger;
.record e_Data.Integer_rtoInteger; a 1 0 "toInteger;"
.descexp e_Data.Integer_ttoInteger; e_Data.Integer_ctoInteger; _hnf 1 1 "toInteger;"
.n 1 e_Data.Integer_ttoInteger;
.o 1 0
e_Data.Integer_ctoInteger;
	push_node _cycle_in_spine 1
	jsr_eval 0
.impdesc e_Data.Integer_rtoInteger;
	fill_r e_Data.Integer_rtoInteger; 1 0 1 0 0
	pop_a 1
.d 1 0
	rtn
.export e_Data.Integer_dtoInteger;.toInteger
.export e_Data.Integer_ntoInteger;.toInteger
.export e_Data.Integer_eatoInteger;.toInteger
.descs e_Data.Integer_dtoInteger;.toInteger e_Data.Integer_ntoInteger;.toInteger _ 1 0 "toInteger;.toInteger"
.n -4 e_Data.Integer_dtoInteger;.toInteger e_Data.Integer_eatoInteger;.toInteger
.o 1 0
e_Data.Integer_ntoInteger;.toInteger
	push_node _cycle_in_spine 1
.o 2 0
e_Data.Integer_eatoInteger;.toInteger
	jsr_eval 0
	repl_r_args_a 1 0 1 1
	fill_a 0 1
	pop_a 1
.d 1 0
	rtn
.export e_Data.Integer_sTD;Ordering
.export e_Data.Integer_eaTD;Ordering
.descexp e_Data.Integer_dTD;Ordering e_Data.Integer_nTD;Ordering e_Data.Integer_lTD;Ordering 1 0 "TD;Ordering"
.o 2 0
e_Data.Integer_lTD;Ordering
	update_a 1 0
	create
	update_a 0 2
	pop_a 1
.d 2 0
	jmp e_Data.Integer_eaTD;Ordering
.n 1 e_Data.Integer_dTD;Ordering e_Data.Integer_eaTD;Ordering
.o 1 0
e_Data.Integer_nTD;Ordering
	push_node _cycle_in_spine 1
.o 2 0
e_Data.Integer_eaTD;Ordering
.o 2 0
e_Data.Integer_sTD;Ordering
.o 2 0
s37
	fillh _Nil 0 1
	pop_a 1
.d 1 0
	rtn
.export e_Data.Integer_sTD;toInteger;
.export e_Data.Integer_eaTD;toInteger;
.descexp e_Data.Integer_dTD;toInteger; e_Data.Integer_nTD;toInteger; e_Data.Integer_lTD;toInteger; 1 0 "TD;toInteger;"
.o 2 0
e_Data.Integer_lTD;toInteger;
	update_a 1 0
	create
	update_a 0 2
	pop_a 1
.d 2 0
	jmp e_Data.Integer_eaTD;toInteger;
.n 1 e_Data.Integer_dTD;toInteger; e_Data.Integer_eaTD;toInteger;
.o 1 0
e_Data.Integer_nTD;toInteger;
	push_node _cycle_in_spine 1
.o 2 0
e_Data.Integer_eaTD;toInteger;
.o 2 0
e_Data.Integer_sTD;toInteger;
.o 2 0
s25
	fillh _Nil 0 1
	pop_a 1
.d 1 0
	rtn
.export e_Data.Integer_sTD;Integer
.export e_Data.Integer_eaTD;Integer
.descexp e_Data.Integer_dTD;Integer e_Data.Integer_nTD;Integer e_Data.Integer_lTD;Integer 1 0 "TD;Integer"
.o 2 0
e_Data.Integer_lTD;Integer
	update_a 1 0
	create
	update_a 0 2
	pop_a 1
.d 2 0
	jmp e_Data.Integer_eaTD;Integer
.n 1 e_Data.Integer_dTD;Integer e_Data.Integer_eaTD;Integer
.o 1 0
e_Data.Integer_nTD;Integer
	push_node _cycle_in_spine 1
.o 2 0
e_Data.Integer_eaTD;Integer
.o 2 0
e_Data.Integer_sTD;Integer
.o 2 0
s24
	fillh _Nil 0 1
	pop_a 1
.d 1 0
	rtn
.export e_Data.Integer_sgLexOrd_Integer;22
.export e_Data.Integer_eagLexOrd_Integer;22
.descexp e_Data.Integer_dgLexOrd_Integer;22 e_Data.Integer_ngLexOrd_Integer;22 e_Data.Integer_lgLexOrd_Integer;22 2 0 "gLexOrd_Integer;22"
.o 4 0
e_Data.Integer_igLexOrd_Integer;22
	pop_a 1
	push_r_args 1 1 1
	push_r_args 1 1 1
	update_a 1 3
	update_a 0 2
	pop_a 2
.d 3 2 ii
	jmp s23
.ai 2 e_Data.Integer_eagLexOrd_Integer;22 e_Data.Integer_igLexOrd_Integer;22
.o 2 0
e_Data.Integer_lgLexOrd_Integer;22
	push_args 0 1 1
	update_a 2 1
	create
	update_a 0 3
	pop_a 1
.d 3 0
	jmp e_Data.Integer_eagLexOrd_Integer;22
.n 2 e_Data.Integer_dgLexOrd_Integer;22 e_Data.Integer_eagLexOrd_Integer;22
.o 1 0
e_Data.Integer_ngLexOrd_Integer;22
	push_node _cycle_in_spine 2
.o 3 0
e_Data.Integer_eagLexOrd_Integer;22
	jsr_eval 1
	jsr_eval 0
	push_r_args 1 1 1
	push_r_args 1 1 1
	update_a 1 3
	update_a 0 2
	pop_a 2
.o 3 2 ii
e_Data.Integer_sgLexOrd_Integer;22
.o 3 2 ii
s23
	push_a 1
	push_b 1
	push_a 1
	push_b 1
.d 2 2 ii
	jsr s12
.o 0 1 b
	jmp_false else.1
	fillh e_Data.GenLexOrd_dEQ 0 2
	pop_a 2
	pop_b 2
.d 1 0
	rtn
else.1
	push_a 1
	push_b 1
	push_a 1
	push_b 1
	update_b 1 3
	updatepop_b 0 2
	update_a 1 3
	updatepop_a 0 2
.d 2 2 ii
	jsr s13
.o 0 1 b
	jmp_false else.2
	fillh e_Data.GenLexOrd_dLT 0 0
.d 1 0
	rtn
else.2
	fillh e_Data.GenLexOrd_dGT 0 0
.d 1 0
	rtn
.export e_Data.Integer_sgEq_Integer;21
.descexp e_Data.Integer_dgEq_Integer;21 e_Data.Integer_ngEq_Integer;21 e_Data.Integer_lgEq_Integer;21 2 0 "gEq_Integer;21"
.o 3 0
e_Data.Integer_igEq_Integer;21
	pop_a 1
	push_r_args 1 1 1
	push_r_args 1 1 1
	update_a 1 3
	update_a 0 2
	pop_a 2
.d 2 2 ii
	jmp s22
.ai 0 a22 e_Data.Integer_igEq_Integer;21
.o 2 0
e_Data.Integer_lgEq_Integer;21
	repl_args 1 1
.o 2 0
a22
.d 2 0
	jsr ea22
.o 0 1 b
	buildB_b 0
	pop_b 1
.d 1 0
	rtn
.n 2 e_Data.Integer_dgEq_Integer;21
.o 1 0
e_Data.Integer_ngEq_Integer;21
	push_node _cycle_in_spine 2
.d 2 0
	jsr ea22
.o 0 1 b
	fillB_b 0 0
	pop_b 1
.d 1 0
	rtn
.o 2 0
ea22
	jsr_eval 1
	jsr_eval 0
	push_r_args 1 1 1
	push_r_args 1 1 1
	update_a 1 3
	update_a 0 2
	pop_a 2
.o 2 2 ii
e_Data.Integer_sgEq_Integer;21
.o 2 2 ii
s22
	push_a 1
	push_b 1
	push_a 1
	push_b 1
	update_a 1 3
	updatepop_a 0 2
	update_b 1 3
	updatepop_b 0 2
.d 2 2 ii
	jmp s12
.export e_Data.Integer_sgDefault_Integer;20
.descexp e_Data.Integer_dgDefault_Integer;20 e_Data.Integer_ngDefault_Integer;20 e_Data.Integer_lgDefault_Integer;20 0 0 "gDefault_Integer;20"
.o 1 0
e_Data.Integer_igDefault_Integer;20
	pop_a 1
.d 0 0
	jsr s21
.o 1 1 i
	buildhr e_Data.Integer_rInteger 1 1
.d 1 0
	rtn
.o 1 0
e_Data.Integer_lgDefault_Integer;20
	halt
.n 0 e_Data.Integer_dgDefault_Integer;20
.o 1 0
e_Data.Integer_ngDefault_Integer;20
	push_node _cycle_in_spine 0
.d 0 0
	jsr ea21
.o 1 1 i
	fill_r e_Data.Integer_rInteger 1 1 1 0 0
	pop_a 1
	pop_b 1
.d 1 0
	rtn
.o 0 0
ea21
.o 0 0
e_Data.Integer_sgDefault_Integer;20
.o 0 0
s21
	pushI 0
	create_array_ INT 0 1
	pushI 0
.d 1 1 i
	rtn
.export e_Data.Integer_stoInteger;19
.descexp e_Data.Integer_dtoInteger;19 e_Data.Integer_ntoInteger;19 e_Data.Integer_ltoInteger;19 1 0 "toInteger;19"
.o 2 0
e_Data.Integer_itoInteger;19
	pop_a 1
	push_array 0
	update_a 0 1
	pop_a 1
.d 1 0
	jmp s20
.ai 1 _ e_Data.Integer_itoInteger;19
.o 2 0
e_Data.Integer_ltoInteger;19
	pop_a 1
.d 1 0
	jsr ea20
.o 1 1 i
	buildhr e_Data.Integer_rInteger 1 1
.d 1 0
	rtn
.n 1 e_Data.Integer_dtoInteger;19
.o 1 0
e_Data.Integer_ntoInteger;19
	push_node _cycle_in_spine 1
.d 1 0
	jsr ea20
.o 1 1 i
	fill_r e_Data.Integer_rInteger 1 1 1 0 0
	pop_a 1
	pop_b 1
.d 1 0
	rtn
.o 1 0
ea20
	jsr_eval 0
	push_array 0
	update_a 0 1
	pop_a 1
.o 1 0
e_Data.Integer_stoInteger;19
.o 1 0
s20
	push_a 0
	updatepop_a 0 1
.d 1 0
	jmp e_Data.Integer.ToInteger_sstring_to_integer
.export e_Data.Integer_stoInteger;17
.descexp e_Data.Integer_dtoInteger;17 e_Data.Integer_ntoInteger;17 e_Data.Integer_ltoInteger;17 1 0 "toInteger;17"
.o 2 0
e_Data.Integer_itoInteger;17
	pop_a 1
	pushC_a 0
	pop_a 1
.d 0 1 c
	jmp s18
.ai 1 _ e_Data.Integer_itoInteger;17
.o 2 0
e_Data.Integer_ltoInteger;17
	pop_a 1
.d 1 0
	jsr ea18
.o 1 1 i
	buildhr e_Data.Integer_rInteger 1 1
.d 1 0
	rtn
.n 1 e_Data.Integer_dtoInteger;17
.o 1 0
e_Data.Integer_ntoInteger;17
	push_node _cycle_in_spine 1
.d 1 0
	jsr ea18
.o 1 1 i
	fill_r e_Data.Integer_rInteger 1 1 1 0 0
	pop_a 1
	pop_b 1
.d 1 0
	rtn
.o 1 0
ea18
	jsr_eval 0
	pushC_a 0
	pop_a 1
.o 0 1 c
e_Data.Integer_stoInteger;17
.o 0 1 c
s18
	push_b 0
	CtoI
	updatepop_b 0 1
	pushI 0
	create_array_ INT 0 1
.d 1 1 i
	rtn
.export e_Data.Integer_stoInteger;18
.descexp e_Data.Integer_dtoInteger;18 e_Data.Integer_ntoInteger;18 e_Data.Integer_ltoInteger;18 1 0 "toInteger;18"
.o 2 0
e_Data.Integer_itoInteger;18
	pop_a 1
	pushI_a 0
	pop_a 1
.d 0 1 i
	jmp s19
.ai 1 _ e_Data.Integer_itoInteger;18
.o 2 0
e_Data.Integer_ltoInteger;18
	pop_a 1
.d 1 0
	jsr ea19
.o 1 1 i
	buildhr e_Data.Integer_rInteger 1 1
.d 1 0
	rtn
.n 1 e_Data.Integer_dtoInteger;18
.o 1 0
e_Data.Integer_ntoInteger;18
	push_node _cycle_in_spine 1
.d 1 0
	jsr ea19
.o 1 1 i
	fill_r e_Data.Integer_rInteger 1 1 1 0 0
	pop_a 1
	pop_b 1
.d 1 0
	rtn
.o 1 0
ea19
	jsr_eval 0
	pushI_a 0
	pop_a 1
.o 0 1 i
e_Data.Integer_stoInteger;18
.o 0 1 i
s19
.inline toInteger;18
	pushI 0
	create_array_ INT 0 1
.end
.d 1 1 i
	rtn
.export e_Data.Integer_stoString;16
.descexp e_Data.Integer_dtoString;16 e_Data.Integer_ntoString;16 e_Data.Integer_ltoString;16 1 0 "toString;16"
.o 2 0
e_Data.Integer_itoString;16
	pop_a 1
	push_r_args 0 1 1
	update_a 0 1
	pop_a 1
.d 1 1 i
	jmp s17
.ai 1 _ e_Data.Integer_itoString;16
.o 2 0
e_Data.Integer_ltoString;16
	pop_a 1
.d 1 0
	jsr ea17
.o 1 0
	buildh ARRAY 1
.d 1 0
	rtn
.n 1 e_Data.Integer_dtoString;16
.o 1 0
e_Data.Integer_ntoString;16
	push_node _cycle_in_spine 1
.d 1 0
	jsr ea17
.o 1 0
	fillh ARRAY 1 1
.d 1 0
	rtn
.o 1 0
ea17
	jsr_eval 0
	repl_r_args 1 1
.o 1 1 i
e_Data.Integer_stoString;16
.o 1 1 i
s17
	push_a 0
	push_b 0
	updatepop_a 0 1
	updatepop_b 0 1
.d 1 1 i
	jmp e_Data.Integer.ToString_sinteger_to_string
.export e_Data.Integer_stoChar;14
.descexp e_Data.Integer_dtoChar;14 e_Data.Integer_ntoChar;14 e_Data.Integer_ltoChar;14 1 0 "toChar;14"
.o 2 0
e_Data.Integer_itoChar;14
	pop_a 1
	push_r_args 0 1 1
	update_a 0 1
	pop_a 1
.d 1 1 i
	jmp s15
.ai 1 _ e_Data.Integer_itoChar;14
.o 2 0
e_Data.Integer_ltoChar;14
	pop_a 1
.d 1 0
	jsr ea15
.o 0 1 c
	buildC_b 0
	pop_b 1
.d 1 0
	rtn
.n 1 e_Data.Integer_dtoChar;14
.o 1 0
e_Data.Integer_ntoChar;14
	push_node _cycle_in_spine 1
.d 1 0
	jsr ea15
.o 0 1 c
	fillC_b 0 0
	pop_b 1
.d 1 0
	rtn
.o 1 0
ea15
	jsr_eval 0
	repl_r_args 1 1
.o 1 1 i
e_Data.Integer_stoChar;14
.o 1 1 i
s15
	push_a 0
	push_b 0
	updatepop_b 0 1
	updatepop_a 0 1
.d 1 1 i
	jsr s16
.o 0 1 i
	ItoC
.d 0 1 c
	rtn
.export e_Data.Integer_stoInt;15
.descexp e_Data.Integer_dtoInt;15 e_Data.Integer_ntoInt;15 e_Data.Integer_ltoInt;15 1 0 "toInt;15"
.o 2 0
e_Data.Integer_itoInt;15
	pop_a 1
	push_r_args 0 1 1
	update_a 0 1
	pop_a 1
.d 1 1 i
	jmp s16
.ai 1 _ e_Data.Integer_itoInt;15
.o 2 0
e_Data.Integer_ltoInt;15
	pop_a 1
.d 1 0
	jsr ea16
.o 0 1 i
	buildI_b 0
	pop_b 1
.d 1 0
	rtn
.n 1 e_Data.Integer_dtoInt;15
.o 1 0
e_Data.Integer_ntoInt;15
	push_node _cycle_in_spine 1
.d 1 0
	jsr ea16
.o 0 1 i
	fillI_b 0 0
	pop_b 1
.d 1 0
	rtn
.o 1 0
ea16
	jsr_eval 0
	repl_r_args 1 1
.o 1 1 i
e_Data.Integer_stoInt;15
.o 1 1 i
s16
	push_a 0
	push_arraysize INT 0 1
	pushI 0
	push_b 1
	update_b 1 2
	update_b 0 1
	pop_b 1
	eqI
	jmp_false else.3
	pop_a 1
.d 0 1 i
	rtn
else.3
	pushI 0
	push_a 0
	updatepop_a 0 1
	select INT 0 1
	push_b 1
	push_b 1
	update_b 1 2
	update_b 0 1
	pop_b 1
	xor%
	push_b 1
	push_b 1
	update_b 1 2
	update_b 0 1
	pop_b 1
	update_b 1 2
	updatepop_b 0 1
	subI
.d 0 1 i
	rtn
.export e_Data.Integer_sisEven;13
.descexp e_Data.Integer_disEven;13 e_Data.Integer_nisEven;13 e_Data.Integer_lisEven;13 1 0 "isEven;13"
.o 2 0
e_Data.Integer_iisEven;13
	pop_a 1
	push_r_args 0 1 1
	update_a 0 1
	pop_a 1
.d 1 1 i
	jmp s14
.ai 1 _ e_Data.Integer_iisEven;13
.o 2 0
e_Data.Integer_lisEven;13
	pop_a 1
.d 1 0
	jsr ea14
.o 0 1 b
	buildB_b 0
	pop_b 1
.d 1 0
	rtn
.n 1 e_Data.Integer_disEven;13
.o 1 0
e_Data.Integer_nisEven;13
	push_node _cycle_in_spine 1
.d 1 0
	jsr ea14
.o 0 1 b
	fillB_b 0 0
	pop_b 1
.d 1 0
	rtn
.o 1 0
ea14
	jsr_eval 0
	repl_r_args 1 1
.o 1 1 i
e_Data.Integer_sisEven;13
.o 1 1 i
s14
	push_a 0
	push_arraysize INT 0 1
	pushI 0
	push_b 1
	update_b 1 2
	update_b 0 1
	pop_b 1
	eqI
	jmp_false else.4
	push_b 0
	updatepop_b 0 1
	pop_a 1
	pushI 1
	and%
	pushI 0
	eqI
.d 0 1 b
	rtn
else.4
	pushI 0
	push_a 0
	updatepop_b 0 1
	updatepop_a 0 1
	select INT 0 1
	pushI 1
	and%
	pushI 0
	eqI
.d 0 1 b
	rtn
.export e_Data.Integer_s<;12
.descexp e_Data.Integer_d<;12 e_Data.Integer_n<;12 e_Data.Integer_l<;12 2 0 "<;12"
.o 3 0
e_Data.Integer_i<;12
	pop_a 1
	push_r_args 1 1 1
	push_r_args 1 1 1
	update_a 1 3
	update_a 0 2
	pop_a 2
.d 2 2 ii
	jmp s13
.ai 0 a13 e_Data.Integer_i<;12
.o 2 0
e_Data.Integer_l<;12
	repl_args 1 1
.o 2 0
a13
.d 2 0
	jsr ea13
.o 0 1 b
	buildB_b 0
	pop_b 1
.d 1 0
	rtn
.n 2 e_Data.Integer_d<;12
.o 1 0
e_Data.Integer_n<;12
	push_node _cycle_in_spine 2
.d 2 0
	jsr ea13
.o 0 1 b
	fillB_b 0 0
	pop_b 1
.d 1 0
	rtn
.o 2 0
ea13
	jsr_eval 1
	jsr_eval 0
	push_r_args 1 1 1
	push_r_args 1 1 1
	update_a 1 3
	update_a 0 2
	pop_a 2
.o 2 2 ii
e_Data.Integer_s<;12
.o 2 2 ii
s13
	push_a 0
	push_arraysize INT 0 1
	pushI 0
	push_b 1
	update_b 1 2
	update_b 0 1
	pop_b 1
	eqI
	jmp_false else.5
	push_a 1
	updatepop_a 0 2
	push_arraysize INT 0 1
	pushI 0
	push_b 1
	update_b 1 2
	update_b 0 1
	pop_b 1
	eqI
	jmp_false else.6
	push_b 1
	push_b 1
	update_b 1 3
	updatepop_b 0 2
	ltI
.d 0 1 b
	rtn
else.6
	pushI 0
	push_b 2
	ltI
	updatepop_b 0 2
	notB
.d 0 1 b
	rtn
else.5
	push_a 1
	push_arraysize INT 0 1
	pushI 0
	push_b 1
	update_b 1 2
	update_b 0 1
	pop_b 1
	eqI
	jmp_false else.7
	pushI 0
	push_b 1
	update_b 1 3
	updatepop_b 0 2
	pop_a 2
	ltI
.d 0 1 b
	rtn
else.7
	push_b 1
	push_b 1
	eqI
	notB
	jmp_false else.8
	push_b 1
	push_b 1
	update_b 1 3
	updatepop_b 0 2
	pop_a 2
	ltI
.d 0 1 b
	rtn
else.8
	push_a 1
	push_arraysize INT 0 1
	push_a 0
	push_arraysize INT 0 1
	push_a 1
	push_a 1
	push_b 2
	push_b 2
	update_b 1 3
	update_b 2 1
	update_b 0 2
	pop_b 1
	update_b 2 4
	update_b 1 3
	updatepop_b 0 2
	update_a 1 3
	updatepop_a 0 2
.d 2 3 iii
	jsr s26
.o 0 1 i
	pushI -1
	push_b 1
	update_b 1 2
	update_b 0 1
	pop_b 1
	eqI
.d 0 1 b
	rtn
.export e_Data.Integer_s==;11
.descexp e_Data.Integer_d==;11 e_Data.Integer_n==;11 e_Data.Integer_l==;11 2 0 "==;11"
.o 3 0
e_Data.Integer_i==;11
	pop_a 1
	push_r_args 1 1 1
	push_r_args 1 1 1
	update_a 1 3
	update_a 0 2
	pop_a 2
.d 2 2 ii
	jmp s12
.ai 0 a12 e_Data.Integer_i==;11
.o 2 0
e_Data.Integer_l==;11
	repl_args 1 1
.o 2 0
a12
.d 2 0
	jsr ea12
.o 0 1 b
	buildB_b 0
	pop_b 1
.d 1 0
	rtn
.n 2 e_Data.Integer_d==;11
.o 1 0
e_Data.Integer_n==;11
	push_node _cycle_in_spine 2
.d 2 0
	jsr ea12
.o 0 1 b
	fillB_b 0 0
	pop_b 1
.d 1 0
	rtn
.o 2 0
ea12
	jsr_eval 1
	jsr_eval 0
	push_r_args 1 1 1
	push_r_args 1 1 1
	update_a 1 3
	update_a 0 2
	pop_a 2
.o 2 2 ii
e_Data.Integer_s==;11
.o 2 2 ii
s12
	push_b 1
	push_b 1
	eqI
	notB
	jmp_false else.9
	pop_a 2
	pop_b 2
	pushB FALSE
.d 0 1 b
	rtn
else.9
	push_a 0
	pop_b 2
	push_arraysize INT 0 1
	push_a 1
	buildh ARRAY 1
	build e__SystemArray_dsize;12 1 e__SystemArray_nsize;12
	pushI 0
	push_b 1
	eqI
	jmp_false else.10
	push_a 0
	jsr_eval 0
	pushI_a 1
	pop_a 1
	pushI 0
	push_b 1
	update_b 1 2
	update_b 0 1
	pop_b 1
	eqI
	jmp_false else.10
	pop_a 3
	pop_b 1
	pushB TRUE
.d 0 1 b
	rtn
else.10
	push_a 0
	jsr_eval 0
	pushI_a 1
	pop_a 1
	push_b 1
	eqI
	notB
	jmp_false else.12
	pop_a 3
	pop_b 1
	pushB FALSE
.d 0 1 b
	rtn
else.12
	push_a 2
	push_a 2
	push_b 0
	pushI 0
	update_a 1 4
	updatepop_a 0 3
	update_b 1 2
	updatepop_b 0 1
.d 2 2 ii
	jmp s36
.o 2 2 ii
s36
	push_b 1
	push_b 1
	ltI
	jmp_false else.13
	push_b 0
	push_a 1
	select INT 0 1
	push_b 1
	push_a 0
	select INT 0 1
	eqI
	jmp_false else.14
	pushI 1
	push_b 1
	addI
	push_a 1
	push_a 1
	push_b 2
	push_b 1
	update_b 1 2
	update_b 0 1
	pop_b 1
	update_a 1 3
	updatepop_a 0 2
	update_b 1 3
	updatepop_b 0 2
.d 2 2 ii
	jmp s36
else.14
	pop_a 2
	pop_b 2
	pushB FALSE
.d 0 1 b
	rtn
else.13
	pop_a 2
	pop_b 2
	pushB TRUE
.d 0 1 b
	rtn
.export e_Data.Integer_s^;10
.descexp e_Data.Integer_d^;10 e_Data.Integer_n^;10 e_Data.Integer_l^;10 2 0 "^;10"
.o 3 0
e_Data.Integer_i^;10
	pop_a 1
	push_r_args 1 1 1
	push_r_args 1 1 1
	update_a 1 3
	update_a 0 2
	pop_a 2
.d 2 2 ii
	jsr s11
.o 1 1 i
	buildhr e_Data.Integer_rInteger 1 1
.d 1 0
	rtn
.ai 0 a11 e_Data.Integer_i^;10
.o 2 0
e_Data.Integer_l^;10
	repl_args 1 1
.o 2 0
a11
.d 2 0
	jsr ea11
.o 1 1 i
	buildhr e_Data.Integer_rInteger 1 1
.d 1 0
	rtn
.n 2 e_Data.Integer_d^;10
.o 1 0
e_Data.Integer_n^;10
	push_node _cycle_in_spine 2
.d 2 0
	jsr ea11
.o 1 1 i
	fill_r e_Data.Integer_rInteger 1 1 1 0 0
	pop_a 1
	pop_b 1
.d 1 0
	rtn
.o 2 0
ea11
	jsr_eval 1
	jsr_eval 0
	push_r_args 1 1 1
	push_r_args 1 1 1
	update_a 1 3
	update_a 0 2
	pop_a 2
.o 2 2 ii
e_Data.Integer_s^;10
.o 2 2 ii
s11
	push_a 1
	push_arraysize INT 0 1
	pushI 0
	push_b 1
	update_b 1 2
	update_b 0 1
	pop_b 1
	eqI
	jmp_false else.15
	push_b 1
	pushI 0
	ltI
	notB
	jmp_false else.16
	push_b 1
	pushI 0
	push_b 1
	update_b 1 2
	update_b 0 1
	pop_b 1
	eqI
	jmp_false else.17
	pop_a 2
	pop_b 2
.d 0 0
	jmp s4
else.17
	buildAC "^ (Integer) called with negative power argument"
	updatepop_a 0 2
	pop_b 2
.d 1 0
	jsr print_string_
.o 0 0
	halt
	repl_r_args 1 1
.d 1 1 i
	rtn
else.16
	push_b 1
	build_r e_Data.Integer_rInteger 1 1 0 1
	push_a 1
	push_b 1
	push_a 1
	update_a 1 2
	update_a 0 1
	pop_a 1
	update_a 1 3
	updatepop_a 0 2
	update_b 1 3
	updatepop_b 0 2
.d 2 2 ii
	jmp s35
else.15
	push_b 1
	pushI 0
	push_b 1
	update_b 1 2
	update_b 0 1
	pop_b 1
	ltI
	jmp_false else.18
	buildAC "^ (Integer) called with negative power argument"
	updatepop_a 0 2
	pop_b 2
.d 1 0
	jsr print_string_
.o 0 0
	halt
	repl_r_args 1 1
.d 1 1 i
	rtn
else.18
	push_a 0
	push_arraysize INT 0 1
	pushI 0
	push_b 1
	update_b 1 2
	update_b 0 1
	pop_b 1
	eqI
	notB
	jmp_true then.19
	push_b 0
	pushI -1
	push_b 1
	update_b 1 2
	update_b 0 1
	pop_b 1
	ltI
	jmp_true then.19
	push_b 0
	pushI 1
	ltI
	jmp_false else.19
then.19
	buildAC "^ (Integer) overflow"
	updatepop_a 0 2
	pop_b 2
.d 1 0
	jsr print_string_
.o 0 0
	halt
	repl_r_args 1 1
.d 1 1 i
	rtn
else.19
	push_b 0
	pushI -1
	push_b 1
	update_b 1 2
	update_b 0 1
	pop_b 1
	eqI
	jmp_false else.22
	push_a 1
	pushI 0
	buildh _Nil 0
	update_a 0 3
	pop_a 1
	select INT 0 1
	pushI 1
	push_b 1
	update_b 1 2
	update_b 0 1
	pop_b 1
	and%
	pushI 0
	push_b 1
	update_b 1 2
	update_b 0 1
	pop_b 1
	eqI
	jmp_false else.22
	pop_a 2
	pop_b 2
.d 0 0
	jmp s4
else.22
	updatepop_a 0 1
	updatepop_b 0 1
.d 1 1 i
	rtn
.o 2 2 ii
s35
	push_b 1
	pushI 2
	ltI
	notB
	jmp_false else.24
	pushI 2
	push_b 2
	eqI
	jmp_false else.25
	push_a 1
	push_b 0
	push_a 2
	push_b 1
	update_a 1 3
	updatepop_a 0 2
	update_b 1 3
	updatepop_b 0 2
.d 2 2 ii
	jmp s2
else.25
	updatepop_b 0 1
	pop_a 1
.d 1 1 i
	rtn
else.24
	pushI 1
	push_b 2
	and%
	pushI 0
	push_b 1
	update_b 1 2
	update_b 0 1
	pop_b 1
	eqI
	jmp_false else.26
	pushI 1
	push_b 2
	shiftr%
	push_a 0
	jsr_eval 0
	repl_r_args 1 1
	push_a 1
	update_b 1 3
	updatepop_b 0 2
	update_a 1 3
	updatepop_a 0 2
.d 2 2 ii
	jsr s35
.o 1 1 i
	push_a 0
	push_b 0
	push_a 1
	push_b 1
	update_a 1 2
	updatepop_a 0 1
	update_b 1 2
	updatepop_b 0 1
.d 2 2 ii
	jmp s2
else.26
	pushI 1
	push_b 2
	shiftr%
	push_a 0
	jsr_eval 0
	repl_r_args 1 1
	push_a 1
	update_a 1 2
	updatepop_a 0 1
.d 2 2 ii
	jsr s35
.o 1 1 i
	push_a 0
	push_b 0
	push_a 2
	push_b 2
	update_a 2 3
	update_a 1 2
	updatepop_a 0 1
.d 2 2 ii
	jsr s2
.o 1 1 i
	push_a 1
	push_b 1
	push_a 1
	update_a 1 2
	update_a 0 1
	pop_a 1
	push_b 1
	update_b 1 2
	update_b 0 1
	pop_b 1
	update_a 1 2
	updatepop_a 0 1
	update_b 1 4
	updatepop_b 0 3
.d 2 2 ii
	jmp s2
.export e_Data.Integer_srem;9
.descexp e_Data.Integer_drem;9 e_Data.Integer_nrem;9 e_Data.Integer_lrem;9 2 0 "rem;9"
.o 3 0
e_Data.Integer_irem;9
	pop_a 1
	push_r_args 1 1 1
	push_r_args 1 1 1
	update_a 1 3
	update_a 0 2
	pop_a 2
.d 2 2 ii
	jsr s10
.o 1 1 i
	buildhr e_Data.Integer_rInteger 1 1
.d 1 0
	rtn
.ai 0 a10 e_Data.Integer_irem;9
.o 2 0
e_Data.Integer_lrem;9
	repl_args 1 1
.o 2 0
a10
.d 2 0
	jsr ea10
.o 1 1 i
	buildhr e_Data.Integer_rInteger 1 1
.d 1 0
	rtn
.n 2 e_Data.Integer_drem;9
.o 1 0
e_Data.Integer_nrem;9
	push_node _cycle_in_spine 2
.d 2 0
	jsr ea10
.o 1 1 i
	fill_r e_Data.Integer_rInteger 1 1 1 0 0
	pop_a 1
	pop_b 1
.d 1 0
	rtn
.o 2 0
ea10
	jsr_eval 1
	jsr_eval 0
	push_r_args 1 1 1
	push_r_args 1 1 1
	update_a 1 3
	update_a 0 2
	pop_a 2
.o 2 2 ii
e_Data.Integer_srem;9
.o 2 2 ii
s10
	push_a 1
	push_b 1
	push_a 1
	push_b 1
	update_a 1 3
	updatepop_a 0 2
	update_b 1 3
	updatepop_b 0 2
.d 2 2 ii
	jmp e_Data.Integer.Div_srem_integer
.export e_Data.Integer_s/;8
.descexp e_Data.Integer_d/;8 e_Data.Integer_n/;8 e_Data.Integer_l/;8 2 0 "/;8"
.o 3 0
e_Data.Integer_i/;8
	pop_a 1
	push_r_args 1 1 1
	push_r_args 1 1 1
	update_a 1 3
	update_a 0 2
	pop_a 2
.d 2 2 ii
	jsr s9
.o 1 1 i
	buildhr e_Data.Integer_rInteger 1 1
.d 1 0
	rtn
.ai 0 a9 e_Data.Integer_i/;8
.o 2 0
e_Data.Integer_l/;8
	repl_args 1 1
.o 2 0
a9
.d 2 0
	jsr ea9
.o 1 1 i
	buildhr e_Data.Integer_rInteger 1 1
.d 1 0
	rtn
.n 2 e_Data.Integer_d/;8
.o 1 0
e_Data.Integer_n/;8
	push_node _cycle_in_spine 2
.d 2 0
	jsr ea9
.o 1 1 i
	fill_r e_Data.Integer_rInteger 1 1 1 0 0
	pop_a 1
	pop_b 1
.d 1 0
	rtn
.o 2 0
ea9
	jsr_eval 1
	jsr_eval 0
	push_r_args 1 1 1
	push_r_args 1 1 1
	update_a 1 3
	update_a 0 2
	pop_a 2
.o 2 2 ii
e_Data.Integer_s/;8
.o 2 2 ii
s9
	push_a 1
	push_b 1
	push_a 1
	push_b 1
	update_a 1 3
	updatepop_a 0 2
	update_b 1 3
	updatepop_b 0 2
.d 2 2 ii
	jmp e_Data.Integer.Div_sfloordiv_integer
.export e_Data.Integer_ssign;7
.descexp e_Data.Integer_dsign;7 e_Data.Integer_nsign;7 e_Data.Integer_lsign;7 1 0 "sign;7"
.o 2 0
e_Data.Integer_isign;7
	pop_a 1
	push_r_args 0 1 1
	update_a 0 1
	pop_a 1
.d 1 1 i
	jmp s8
.ai 1 _ e_Data.Integer_isign;7
.o 2 0
e_Data.Integer_lsign;7
	pop_a 1
.d 1 0
	jsr ea8
.o 0 1 i
	buildI_b 0
	pop_b 1
.d 1 0
	rtn
.n 1 e_Data.Integer_dsign;7
.o 1 0
e_Data.Integer_nsign;7
	push_node _cycle_in_spine 1
.d 1 0
	jsr ea8
.o 0 1 i
	fillI_b 0 0
	pop_b 1
.d 1 0
	rtn
.o 1 0
ea8
	jsr_eval 0
	repl_r_args 1 1
.o 1 1 i
e_Data.Integer_ssign;7
.o 1 1 i
s8
	push_a 0
	updatepop_a 0 1
	push_arraysize INT 0 1
	pushI 0
	push_b 1
	update_b 1 2
	update_b 0 1
	pop_b 1
	eqI
	jmp_false else.27
	push_b 0
	updatepop_b 0 1
.d 0 1 i
	jmp e_StdInt_ssign;14
else.27
	push_b 0
	pushI 1
	addI
	push_b 1
	push_b 1
	update_b 1 2
	update_b 0 1
	pop_b 1
	update_b 1 2
	updatepop_b 0 1
	addI
.d 0 1 i
	rtn
.export e_Data.Integer_sabs;6
.descexp e_Data.Integer_dabs;6 e_Data.Integer_nabs;6 e_Data.Integer_labs;6 1 0 "abs;6"
.o 2 0
e_Data.Integer_iabs;6
	pop_a 1
	push_r_args 0 1 1
	update_a 0 1
	pop_a 1
.d 1 1 i
	jsr s7
.o 1 1 i
	buildhr e_Data.Integer_rInteger 1 1
.d 1 0
	rtn
.ai 1 _ e_Data.Integer_iabs;6
.o 2 0
e_Data.Integer_labs;6
	pop_a 1
.d 1 0
	jsr ea7
.o 1 1 i
	buildhr e_Data.Integer_rInteger 1 1
.d 1 0
	rtn
.n 1 e_Data.Integer_dabs;6
.o 1 0
e_Data.Integer_nabs;6
	push_node _cycle_in_spine 1
.d 1 0
	jsr ea7
.o 1 1 i
	fill_r e_Data.Integer_rInteger 1 1 1 0 0
	pop_a 1
	pop_b 1
.d 1 0
	rtn
.o 1 0
ea7
	jsr_eval 0
	repl_r_args 1 1
.o 1 1 i
e_Data.Integer_sabs;6
.o 1 1 i
s7
	push_a 0
	push_arraysize INT 0 1
	pushI 0
	push_b 1
	update_b 1 2
	update_b 0 1
	pop_b 1
	eqI
	jmp_false else.28
	pushI 0
	push_b 1
	ltI
	notB
	jmp_false else.29
	push_a 0
	push_b 0
	updatepop_a 0 1
	updatepop_b 0 1
.d 1 1 i
	rtn
else.29
	pushI -9223372036854775808
	push_b 1
	eqI
	notB
	jmp_false else.30
	push_b 0
	negI
	push_a 0
	updatepop_a 0 1
	updatepop_b 0 1
.d 1 1 i
	rtn
else.30
	pushI 1
	pop_a 1
	create_array_ INT 0 1
	push_b 0
	pushI 0
	update_b 1 2
	updatepop_b 0 1
	update INT 0 1
	pushI 0
.d 1 1 i
	rtn
else.28
	push_a 0
	pushI 0
	updatepop_a 0 1
	updatepop_b 0 1
.d 1 1 i
	rtn
.export e_Data.Integer_s-;5
.descexp e_Data.Integer_d-;5 e_Data.Integer_n-;5 e_Data.Integer_l-;5 2 0 "-;5"
.o 3 0
e_Data.Integer_i-;5
	pop_a 1
	push_r_args 1 1 1
	push_r_args 1 1 1
	update_a 1 3
	update_a 0 2
	pop_a 2
.d 2 2 ii
	jsr s6
.o 1 1 i
	buildhr e_Data.Integer_rInteger 1 1
.d 1 0
	rtn
.ai 0 a6 e_Data.Integer_i-;5
.o 2 0
e_Data.Integer_l-;5
	repl_args 1 1
.o 2 0
a6
.d 2 0
	jsr ea6
.o 1 1 i
	buildhr e_Data.Integer_rInteger 1 1
.d 1 0
	rtn
.n 2 e_Data.Integer_d-;5
.o 1 0
e_Data.Integer_n-;5
	push_node _cycle_in_spine 2
.d 2 0
	jsr ea6
.o 1 1 i
	fill_r e_Data.Integer_rInteger 1 1 1 0 0
	pop_a 1
	pop_b 1
.d 1 0
	rtn
.o 2 0
ea6
	jsr_eval 1
	jsr_eval 0
	push_r_args 1 1 1
	push_r_args 1 1 1
	update_a 1 3
	update_a 0 2
	pop_a 2
.o 2 2 ii
e_Data.Integer_s-;5
.o 2 2 ii
s6
	push_a 1
	push_b 1
	push_a 1
	push_b 1
	update_a 1 3
	updatepop_a 0 2
	update_b 1 3
	updatepop_b 0 2
.d 2 2 ii
	jmp e_Data.Integer.Add_ssub_integer
.export e_Data.Integer_s~;4
.descexp e_Data.Integer_d~;4 e_Data.Integer_n~;4 e_Data.Integer_l~;4 1 0 "~;4"
.o 2 0
e_Data.Integer_i~;4
	pop_a 1
	push_r_args 0 1 1
	update_a 0 1
	pop_a 1
.d 1 1 i
	jsr s5
.o 1 1 i
	buildhr e_Data.Integer_rInteger 1 1
.d 1 0
	rtn
.ai 1 _ e_Data.Integer_i~;4
.o 2 0
e_Data.Integer_l~;4
	pop_a 1
.d 1 0
	jsr ea5
.o 1 1 i
	buildhr e_Data.Integer_rInteger 1 1
.d 1 0
	rtn
.n 1 e_Data.Integer_d~;4
.o 1 0
e_Data.Integer_n~;4
	push_node _cycle_in_spine 1
.d 1 0
	jsr ea5
.o 1 1 i
	fill_r e_Data.Integer_rInteger 1 1 1 0 0
	pop_a 1
	pop_b 1
.d 1 0
	rtn
.o 1 0
ea5
	jsr_eval 0
	repl_r_args 1 1
.o 1 1 i
e_Data.Integer_s~;4
.o 1 1 i
s5
	push_a 0
	push_arraysize INT 0 1
	pushI 0
	push_b 1
	update_b 1 2
	update_b 0 1
	pop_b 1
	eqI
	jmp_false else.31
	pushI -9223372036854775808
	push_b 1
	eqI
	notB
	jmp_false else.32
	push_b 0
	negI
	push_a 0
	updatepop_a 0 1
	updatepop_b 0 1
.d 1 1 i
	rtn
else.32
	pushI 1
	pop_a 1
	create_array_ INT 0 1
	push_b 0
	pushI 0
	update_b 1 2
	updatepop_b 0 1
	update INT 0 1
	pushI 0
.d 1 1 i
	rtn
else.31
	push_b 0
	not%
	push_a 0
	updatepop_a 0 1
	updatepop_b 0 1
.d 1 1 i
	rtn
.export e_Data.Integer_sone;3
.descexp e_Data.Integer_done;3 e_Data.Integer_none;3 e_Data.Integer_lone;3 0 0 "one;3"
.o 1 0
e_Data.Integer_ione;3
	pop_a 1
.d 0 0
	jsr s4
.o 1 1 i
	buildhr e_Data.Integer_rInteger 1 1
.d 1 0
	rtn
.o 1 0
e_Data.Integer_lone;3
	halt
.n 0 e_Data.Integer_done;3
.o 1 0
e_Data.Integer_none;3
	push_node _cycle_in_spine 0
.d 0 0
	jsr ea4
.o 1 1 i
	fill_r e_Data.Integer_rInteger 1 1 1 0 0
	pop_a 1
	pop_b 1
.d 1 0
	rtn
.o 0 0
ea4
.o 0 0
e_Data.Integer_sone;3
.o 0 0
s4
	pushI 0
	create_array_ INT 0 1
	pushI 1
.d 1 1 i
	rtn
.export e_Data.Integer_szero;2
.descexp e_Data.Integer_dzero;2 e_Data.Integer_nzero;2 e_Data.Integer_lzero;2 0 0 "zero;2"
.o 1 0
e_Data.Integer_izero;2
	pop_a 1
.d 0 0
	jsr s3
.o 1 1 i
	buildhr e_Data.Integer_rInteger 1 1
.d 1 0
	rtn
.o 1 0
e_Data.Integer_lzero;2
	halt
.n 0 e_Data.Integer_dzero;2
.o 1 0
e_Data.Integer_nzero;2
	push_node _cycle_in_spine 0
.d 0 0
	jsr ea3
.o 1 1 i
	fill_r e_Data.Integer_rInteger 1 1 1 0 0
	pop_a 1
	pop_b 1
.d 1 0
	rtn
.o 0 0
ea3
.o 0 0
e_Data.Integer_szero;2
.o 0 0
s3
	pushI 0
	create_array_ INT 0 1
	pushI 0
.d 1 1 i
	rtn
.export e_Data.Integer_s*;1
.descexp e_Data.Integer_d*;1 e_Data.Integer_n*;1 e_Data.Integer_l*;1 2 0 "*;1"
.o 3 0
e_Data.Integer_i*;1
	pop_a 1
	push_r_args 1 1 1
	push_r_args 1 1 1
	update_a 1 3
	update_a 0 2
	pop_a 2
.d 2 2 ii
	jsr s2
.o 1 1 i
	buildhr e_Data.Integer_rInteger 1 1
.d 1 0
	rtn
.ai 0 a2 e_Data.Integer_i*;1
.o 2 0
e_Data.Integer_l*;1
	repl_args 1 1
.o 2 0
a2
.d 2 0
	jsr ea2
.o 1 1 i
	buildhr e_Data.Integer_rInteger 1 1
.d 1 0
	rtn
.n 2 e_Data.Integer_d*;1
.o 1 0
e_Data.Integer_n*;1
	push_node _cycle_in_spine 2
.d 2 0
	jsr ea2
.o 1 1 i
	fill_r e_Data.Integer_rInteger 1 1 1 0 0
	pop_a 1
	pop_b 1
.d 1 0
	rtn
.o 2 0
ea2
	jsr_eval 1
	jsr_eval 0
	push_r_args 1 1 1
	push_r_args 1 1 1
	update_a 1 3
	update_a 0 2
	pop_a 2
.o 2 2 ii
e_Data.Integer_s*;1
.o 2 2 ii
s2
	push_a 1
	push_b 1
	push_a 1
	push_b 1
	update_a 1 3
	updatepop_a 0 2
	update_b 1 3
	updatepop_b 0 2
.d 2 2 ii
	jmp e_Data.Integer.Mul_smul_integer
.export e_Data.Integer_s+;0
.descexp e_Data.Integer_d+;0 e_Data.Integer_n+;0 e_Data.Integer_l+;0 2 0 "+;0"
.o 3 0
e_Data.Integer_i+;0
	pop_a 1
	push_r_args 1 1 1
	push_r_args 1 1 1
	update_a 1 3
	update_a 0 2
	pop_a 2
.d 2 2 ii
	jsr s1
.o 1 1 i
	buildhr e_Data.Integer_rInteger 1 1
.d 1 0
	rtn
.ai 0 a1 e_Data.Integer_i+;0
.o 2 0
e_Data.Integer_l+;0
	repl_args 1 1
.o 2 0
a1
.d 2 0
	jsr ea1
.o 1 1 i
	buildhr e_Data.Integer_rInteger 1 1
.d 1 0
	rtn
.n 2 e_Data.Integer_d+;0
.o 1 0
e_Data.Integer_n+;0
	push_node _cycle_in_spine 2
.d 2 0
	jsr ea1
.o 1 1 i
	fill_r e_Data.Integer_rInteger 1 1 1 0 0
	pop_a 1
	pop_b 1
.d 1 0
	rtn
.o 2 0
ea1
	jsr_eval 1
	jsr_eval 0
	push_r_args 1 1 1
	push_r_args 1 1 1
	update_a 1 3
	update_a 0 2
	pop_a 2
.o 2 2 ii
e_Data.Integer_s+;0
.o 2 2 ii
s1
	push_a 1
	push_b 1
	push_a 1
	push_b 1
	update_a 1 3
	updatepop_a 0 2
	update_b 1 3
	updatepop_b 0 2
.d 2 2 ii
	jmp e_Data.Integer.Add_sadd_integer
.o 2 3 iii
s26
	pushI 0
	push_b 3
	ltI
	notB
	jmp_false else.33
	push_b 1
	push_b 1
	ltI
	jmp_false else.34
	pop_a 2
	pop_b 3
	pushI -1
.d 0 1 i
	rtn
else.34
	push_b 0
	push_b 2
	ltI
	jmp_false else.35
	pop_a 2
	pop_b 3
	pushI 1
.d 0 1 i
	rtn
else.35
	pushI 1
	push_b 1
	subI
	push_a 1
	push_a 1
	update_a 1 3
	updatepop_a 0 2
	updatepop_b 0 3
.d 2 1 i
	jmp s33
else.33
	push_b 1
	push_b 1
	ltI
	jmp_false else.36
	pop_a 2
	pop_b 3
	pushI 1
.d 0 1 i
	rtn
else.36
	push_b 0
	push_b 2
	ltI
	jmp_false else.37
	pop_a 2
	pop_b 3
	pushI -1
.d 0 1 i
	rtn
else.37
	pushI 1
	push_b 1
	subI
	push_a 1
	push_a 1
	update_a 1 3
	updatepop_a 0 2
	updatepop_b 0 3
.d 2 1 i
	jmp s34
.o 2 1 i
s34
	pushI 0
	push_b 1
	ltI
	notB
	jmp_false else.38
	push_b 0
	push_a 1
	select INT 0 1
	push_b 1
	push_a 0
	select INT 0 1
	eqI
	jmp_false else.39
	pushI 1
	push_b 1
	subI
	push_a 1
	push_a 1
	update_a 1 3
	updatepop_a 0 2
	updatepop_b 0 1
.d 2 1 i
	jmp s34
else.39
	push_b 0
	push_a 1
	update_a 1 2
	updatepop_a 0 1
	select INT 0 1
	push_b 1
	push_a 0
	updatepop_a 0 1
	select INT 0 1
	update_b 1 2
	updatepop_b 0 1
	ltU
	jmp_false else.40
	pushI 1
.d 0 1 i
	rtn
else.40
	pushI -1
.d 0 1 i
	rtn
else.38
	pop_a 2
	pop_b 1
	pushI 0
.d 0 1 i
	rtn
.o 2 1 i
s33
	pushI 0
	push_b 1
	ltI
	notB
	jmp_false else.41
	push_b 0
	push_a 1
	select INT 0 1
	push_b 1
	push_a 0
	select INT 0 1
	eqI
	jmp_false else.42
	pushI 1
	push_b 1
	subI
	push_a 1
	push_a 1
	update_a 1 3
	updatepop_a 0 2
	updatepop_b 0 1
.d 2 1 i
	jmp s33
else.42
	push_b 0
	push_a 1
	update_a 1 2
	updatepop_a 0 1
	select INT 0 1
	push_b 1
	push_a 0
	updatepop_a 0 1
	select INT 0 1
	update_b 1 2
	updatepop_b 0 1
	ltU
	jmp_false else.43
	pushI -1
.d 0 1 i
	rtn
else.43
	pushI 1
.d 0 1 i
	rtn
else.41
	pop_a 2
	pop_b 1
	pushI 0
.d 0 1 i
	rtn
.o 0 2 ii
s28
.inline ltU
	ltU
.end
.d 0 1 b
	rtn
