.comp 920 000111010010000
.start _nostart_
.depend "predef" "20210430140106"
.depend "parse" "20210430140106"
.depend "Clean.Parse.ModuleName" "20210430140102"
.depend "containers" "20210430140106"
.depend "IndexType" "20210430140106"
.depend "Heap" "20210430140106"
.depend "typeproperties" "20210430140106"
.depend "general" "20210430140106"
.depend "scanner" "20210430140106"
.depend "StdCharList" "20210430140102"
.depend "StdArray" "20210430140102"
.depend "StdEnv" "20210430140102"
.depend "syntax" "20210430140106"
.depend "hashtable" "20210430140106"
.depend "Text" "20210430140102"
.depend "System.FilePath" "20210430140102"
.depend "System.OSError" "20210430140102"
.depend "System._Time" "20210430140102"
.depend "System.Time" "20210430140102"
.depend "System.File" "20210430140102"
.depend "Control.Monad.Trans" "20210430140102"
.depend "StdMaybe" "20210430140102"
.depend "_SystemStrictMaybes" "20210430140102"
.depend "Data.Maybe" "20210430140102"
.depend "Control.Monad.Fail" "20210430140102"
.depend "Data.Traversable" "20210430140102"
.depend "Data.Foldable" "20210430140102"
.depend "StdOverloadedList" "20210430140102"
.depend "Data.List" "20210430140102"
.depend "_SystemEnumStrict" "20210430140102"
.depend "_SystemStrictLists" "20210430140102"
.depend "StdStrictLists" "20210430140102"
.depend "StdGeneric" "20210430140102"
.depend "Data.GenEq" "20210430140102"
.depend "Data.Error" "20210430140102"
.depend "StdReal" "20210430140102"
.depend "StdList" "20210430140102"
.depend "Data.Monoid" "20210430140102"
.depend "Data.Functor" "20210430140102"
.depend "Control.Monad" "20210430140102"
.depend "Control.Applicative" "20210430140102"
.depend "StdTuple" "20210430140102"
.depend "StdString" "20210430140102"
.depend "StdOrdList" "20210430140102"
.depend "StdMisc" "20210430140102"
.depend "StdFunctions" "20210430140102"
.depend "StdFunc" "20210430140102"
.depend "StdFile" "20210430140102"
.depend "StdChar" "20210430140102"
.depend "StdInt" "20210430140102"
.depend "StdClass" "20210430140102"
.depend "_SystemEnum" "20210430140102"
.depend "StdEnum" "20210430140102"
.depend "StdOverloaded" "20210430140102"
.depend "StdBool" "20210430140102"
.depend "_SystemArray" "20210430140102"
.depend "Clean.Parse" "20210430140102"
.module m_Clean.Parse "Clean.Parse" "20210430140102"
.endinfo
.impmod _system
.implab _cycle_in_spine
.implab _type_error
.implab _hnf
.impdesc e_system_dind
.implab e_system_nind e_system_eaind
.impdesc e_system_dif
.implab e_system_nif e_system_eaif
.implab e_system_sif
.impdesc e_system_dAP
.implab e_system_nAP e_system_eaAP
.implab e_system_sAP
.impdesc ARRAY
.impdesc _Nil
.impdesc _Cons
.impdesc _Conss
.implab n_Conss ea_Conss
.impdesc _Consts
.implab n_Consts ea_Consts
.impdesc _Conssts
.implab n_Conssts ea_Conssts
.impdesc _Tuple
.impdesc d_S.1
.implab n_S.1 ea_S.1
.impdesc d_S.2
.implab n_S.2 ea_S.2
.impdesc d_S.3
.implab n_S.3 ea_S.3
.impdesc d_S.4
.implab n_S.4 ea_S.4
.impdesc d_S.5
.implab n_S.5 ea_S.5
.impdesc d_S.6
.implab n_S.6 ea_S.6
.implab _driver
.impmod parse
.implab e_parse_swantModule
.impmod Clean.Parse.ModuleName
.implab e_Clean.Parse.ModuleName_sguessModuleName
.impmod Heap
.implab e_Heap_snewHeap
.impmod hashtable
.implab e_hashtable_snewHashTable
.implab e_hashtable_sset_hte_mark
.implab e_hashtable_sputIdentInHashTable
.impmod Text
.impdesc e_Text_dendsWith;6
.implab e_Text_nendsWith;6
.impmod System.FilePath
.implab e_System.FilePath_sdropExtension
.implab e_System.FilePath_stakeFileName
.impmod System.File
.impdesc e_System.File_dtoString;11
.implab e_System.File_ntoString;11
.impmod Data.Maybe
.implab e_Data.Maybe_sfromMaybe;67
.impmod Data.Error
.implab e_Data.Error_sisError
.impdesc e_Data.Error_dfromOk
.implab e_Data.Error_nfromOk _
.impdesc e_Data.Error_dfromError
.implab e_Data.Error_nfromError _
.impmod StdString
.impdesc e_StdString_d+++;11
.implab e_StdString_n+++;11
.impmod StdFile
.impdesc e_StdFile_dstderr
.implab e_StdFile_nstderr
.implab e_StdFile_sfclose;31
.implab e_StdFile_sfopen;32
.implab e_StdFile_saccFiles;35
.impmod StdBool
.implab e_StdBool_snot
.impmod hashtable
.impdesc e_hashtable_kIC_Module
.impdesc e_hashtable_dNoQualifiedIdents
.impdesc e_hashtable_dBoxedIdent.boxed_ident
.implab e_hashtable_nBoxedIdent.boxed_ident
.impmod Data.Error
.impdesc e_Data.Error_dError
.impdesc e_Data.Error_dOk
.export e_Clean.Parse_sreadModule
.descexp e_Clean.Parse_dreadModule e_Clean.Parse_nreadModule e_Clean.Parse_lreadModule 2 0 "readModule"
.a 0 a1
.o 2 0
e_Clean.Parse_lreadModule
	repl_args 1 1
.o 2 0
a1
.d 2 0
	jsr ea1
.o 2 0
	push_a 1
	push_a 1
	buildh _Tuple 2
	updatepop_a 0 2
.d 1 0
	rtn
.n 2 e_Clean.Parse_dreadModule
.o 1 0
e_Clean.Parse_nreadModule
	push_node _cycle_in_spine 2
.d 2 0
	jsr ea1
.o 2 0
	push_a 1
	push_a 1
	fillh _Tuple 2 4
	pop_a 2
.d 1 0
	rtn
.o 2 0
ea1
	jsr_eval 1
	jsr_eval 0
	push_array 0
	update_a 0 1
	pop_a 1
.o 2 0
e_Clean.Parse_sreadModule
.o 2 0
s1
	push_a 1
	push_a 1
	update_a 2 3
	update_a 1 2
	updatepop_a 0 1
.d 2 0
	jsr e_Clean.Parse.ModuleName_sguessModuleName
.o 2 0
	push_a 0
.d 1 0
	jsr e_Data.Error_sisError
.o 0 1 b
	jmp_false else.1
	push_a 0
	build e_Data.Error_dfromError 1 e_Data.Error_nfromError
	build e_System.File_dtoString;11 1 e_System.File_ntoString;11
	buildh e_Data.Error_dError 1
	push_a 2
	push_a 1
	update_a 1 2
	update_a 0 1
	pop_a 1
	update_a 1 4
	updatepop_a 0 3
.d 2 0
	rtn
else.1
	push_a 1
	pushI 0
	push_a 3
	update_a 2 3
	update_a 1 2
	updatepop_a 0 1
.d 2 1 i
	jsr e_StdFile_sfopen;32
.o 1 3 bf
	push_b 0
	notB
	jmp_false else.2
	push_a 2
	buildh ARRAY 1
	buildAC "Couldn't open "
	buildh ARRAY 1
	build _ 2 e_StdString_n+++;11
	buildh e_Data.Error_dError 1
	push_a 1
	push_a 1
	update_a 1 2
	update_a 0 1
	pop_a 1
	update_a 1 4
	updatepop_a 0 3
	pop_b 3
.d 2 0
	rtn
else.2
	push_a 2
	buildh ARRAY 1
	buildAC "icl"
	buildh ARRAY 1
	build e_Text_dendsWith;6 2 e_Text_nendsWith;6
	buildh e_hashtable_dNoQualifiedIdents 0
	buildhr e_hashtable_kIC_Module 1 0
	push_a 3
	build e_Data.Error_dfromOk 1 e_Data.Error_nfromOk
	push_a 5
	build _ 1 n37
	push_a 3
	push_a 3
	update_a 1 4
	update_a 2 1
	update_a 3 2
	update_a 0 3
	pop_a 1
	build _ 4 n36
	build _ 0 e_StdFile_nstderr
	push_a 1
	build d_S.2 -1 n_S.2
	push_a 2
	build d_S.1 -1 n_S.1
	build e_hashtable_dBoxedIdent.boxed_ident -4 e_hashtable_nBoxedIdent.boxed_ident
	buildB TRUE
	push_a 5
	buildAC ""
	buildh ARRAY 1
	buildF_b 1
	push_a 4
	update_a 4 5
	update_a 0 4
	pop_a 1
	buildh d2 7
	push_a 3
	push_a 1
	update_a 1 2
	update_a 0 1
	pop_a 1
	pop_b 3
	update_a 1 5
	updatepop_a 0 4
.d 2 0
	jsr e_StdFile_saccFiles;35
.o 2 0
	push_args 0 5 5
	jsr_eval 4
	pushF_a 4
	update_a 3 4
	update_a 2 3
	update_a 1 2
	update_a 0 1
	pop_a 1
	push_a 5
	push_b 1
	push_b 1
	update_b 1 3
	updatepop_b 0 2
	update_a 4 6
	update_a 3 5
	updatepop_a 0 4
.d 1 2 f
	jsr e_StdFile_sfclose;31
.o 1 1 b
	push_b 0
	notB
	jmp_false else.3
	push_a 3
	buildh ARRAY 1
	buildAC "Couldn't close "
	buildh ARRAY 1
	build _ 2 e_StdString_n+++;11
	buildh e_Data.Error_dError 1
	push_a 1
	push_a 1
	update_a 1 2
	update_a 0 1
	pop_a 1
	update_a 1 5
	updatepop_a 0 4
	pop_b 1
.d 2 0
	rtn
else.3
	push_a 2
	push_a 2
	buildh _Tuple 2
	buildh e_Data.Error_dOk 1
	push_a 1
	push_a 1
	update_a 1 2
	update_a 0 1
	pop_a 1
	update_a 1 5
	updatepop_a 0 4
	pop_b 1
.d 2 0
	rtn
.n 1 _ ea37
.o 1 0
n37
	push_node _cycle_in_spine 1
.o 2 0
ea37
.o 2 0
s37
	push_a 0
	updatepop_a 0 1
.d 1 0
	jsr e_System.FilePath_sdropExtension
.o 1 0
.d 1 0
	jsr e_System.FilePath_stakeFileName
.o 1 0
	fillh ARRAY 1 1
.d 1 0
	rtn
.n 4 _ ea36
.o 1 0
n36
	push_node _cycle_in_spine 4
.o 5 0
ea36
.o 5 0
s36
.d 0 0
	jsr e_Heap_snewHeap
.o 1 0
.d 1 0
	jsr e_hashtable_snewHashTable
.o 2 1 i
	push_a 5
	jsr_eval 0
	pushB_a 6
	pop_a 1
	buildh _Nil 0
	update_a 0 6
	pop_a 1
.d 0 1 b
	jsr s3
.o 0 1 i
.d 2 2 ii
	jsr e_hashtable_sset_hte_mark
.o 2 1 i
	push_a 4
	jsr_eval 0
	push_a 4
	jsr_eval 0
	push_a 4
	buildh _Nil 0
	update_a 0 6
	update_a 0 7
	update_a 0 8
	pop_a 1
.d 2 0
	jsr e_Data.Maybe_sfromMaybe;67
.o 1 0
	push_array 0
	updatepop_a 0 1
	update_a 3 7
	update_a 2 6
	update_a 1 5
	updatepop_a 0 4
.d 4 1 i
	jsr e_hashtable_sputIdentInHashTable
.o 3 1 i
.impmod hashtable
.impdesc e_hashtable_rHashTable
	build_r e_hashtable_rHashTable 2 1 1 0
.impdesc e_hashtable_rBoxedIdent
	build_r e_hashtable_rBoxedIdent 1 0 1 0
	fillh _Tuple 2 5
	pop_a 3
	pop_b 1
.d 1 0
	rtn
.o 0 1 b
s3
	eqB_b TRUE 0
	jmp_true case.4
	jmp case.5
case.4
	pop_b 1
	pushI 1
.d 0 1 i
	rtn
case.5
	pop_b 1
	pushI 0
.d 0 1 i
	rtn
.desc d2 _hnf l2 8 0 "wantModule`;1"
.a 0 a2
.o 2 0
l2
	repl_args 7 7
.o 8 0
a2
.o 8 0
ea2
	jsr_eval 7
	jsr_eval 6
	jsr_eval 5
	jsr_eval 3
	jsr_eval 2
	pushF_a 6
	push_r_args 5 2 1
	pushB_a 6
	push_r_args 5 2 0
	pushB_a 6
	push_array 5
	pushF_a 5
	update_a 4 11
	update_a 3 10
	update_a 2 9
	update_a 1 8
	update_a 0 7
	pop_a 7
	push_a 5
	push_b 6
	push_b 6
	push_b 6
	push_a 5
	push_a 5
	push_b 6
	push_a 5
	push_a 5
	push_b 6
	push_a 5
	push_b 6
	push_b 6
	update_b 6 13
	update_b 5 12
	update_b 4 11
	update_b 3 10
	update_b 2 9
	update_b 1 8
	updatepop_b 0 7
	update_a 5 11
	update_a 4 10
	update_a 3 9
	update_a 2 8
	update_a 1 7
	updatepop_a 0 6
.d 6 7 fbbif
	jsr e_parse_swantModule
.o 10 5 bbif
	build_r e_hashtable_rHashTable 2 1 7 2
.impmod syntax
.impdesc e_syntax_rModule
	build_r e_syntax_rModule 7 0 1 0
	buildF_b 3
	buildB_b 1
	buildB_b 0
	push_a 4
	update_a 3 5
	update_a 4 3
	update_a 0 4
	pop_a 1
	buildh _Tuple 5
	push_a 10
	push_a 1
	update_a 1 2
	update_a 0 1
	pop_a 1
	update_a 1 11
	updatepop_a 0 10
	pop_b 5
	push_a 1
	push_a 1
	buildh _Tuple 2
	updatepop_a 0 2
.d 1 0
	rtn
