.comp 920 000111010010000
.start _nostart_
.depend "Clean.PrettyPrint.Definition" "20210430140102"
.depend "Clean.PrettyPrint.Expression" "20210430140102"
.depend "Clean.PrettyPrint.Common" "20210430140102"
.depend "Clean.PrettyPrint.Util" "20210430140102"
.depend "containers" "20210430140106"
.depend "IndexType" "20210430140106"
.depend "Heap" "20210430140106"
.depend "typeproperties" "20210430140106"
.depend "general" "20210430140106"
.depend "scanner" "20210430140106"
.depend "StdCharList" "20210430140102"
.depend "StdArray" "20210430140102"
.depend "StdEnv" "20210430140102"
.depend "syntax" "20210430140106"
.depend "_SystemEnumStrict" "20210430140102"
.depend "_SystemStrictLists" "20210430140102"
.depend "StdStrictLists" "20210430140102"
.depend "StdReal" "20210430140102"
.depend "StdList" "20210430140102"
.depend "StdTuple" "20210430140102"
.depend "StdString" "20210430140102"
.depend "StdOrdList" "20210430140102"
.depend "StdMisc" "20210430140102"
.depend "StdFunctions" "20210430140102"
.depend "StdFile" "20210430140102"
.depend "StdChar" "20210430140102"
.depend "StdInt" "20210430140102"
.depend "StdClass" "20210430140102"
.depend "_SystemEnum" "20210430140102"
.depend "StdEnum" "20210430140102"
.depend "StdOverloaded" "20210430140102"
.depend "StdBool" "20210430140102"
.depend "_SystemArray" "20210430140102"
.depend "Clean.PrettyPrint" "20210430140102"
.module m_Clean.PrettyPrint "Clean.PrettyPrint" "20210430140102"
.endinfo
.impmod _system
.implab _cycle_in_spine
.implab _type_error
.implab _hnf
.impdesc e_system_dind
.implab e_system_nind e_system_eaind
.impdesc e_system_dif
.implab e_system_nif e_system_eaif
.implab e_system_sif
.impdesc e_system_dAP
.implab e_system_nAP e_system_eaAP
.implab e_system_sAP
.impdesc ARRAY
.impdesc _Nil
.impdesc _Cons
.impdesc _Conss
.implab n_Conss ea_Conss
.impdesc _Consts
.implab n_Consts ea_Consts
.impdesc _Conssts
.implab n_Conssts ea_Conssts
.impdesc _Tuple
.impdesc d_S.1
.implab n_S.1 ea_S.1
.impdesc d_S.2
.implab n_S.2 ea_S.2
.impdesc d_S.3
.implab n_S.3 ea_S.3
.impdesc d_S.4
.implab n_S.4 ea_S.4
.impdesc d_S.5
.implab n_S.5 ea_S.5
.impdesc d_S.6
.implab n_S.6 ea_S.6
.implab _driver
.impmod Clean.PrettyPrint.Definition
.implab e_Clean.PrettyPrint.Definition_sprint;0
.implab e_Clean.PrettyPrint.Definition_sprint;1
.implab e_Clean.PrettyPrint.Definition_sprint;2
.implab e_Clean.PrettyPrint.Definition_sprint;4
.impmod Clean.PrettyPrint.Expression
.implab e_Clean.PrettyPrint.Expression_sprint;1
.implab e_Clean.PrettyPrint.Expression_sprint;2
.impmod Clean.PrettyPrint.Util
.implab e_Clean.PrettyPrint.Util_szero;0
.export e_Clean.PrettyPrint_rcpp;
.record e_Clean.PrettyPrint_rcpp; aa 2 0 "cpp;"
.descexp e_Clean.PrettyPrint_tcpp; e_Clean.PrettyPrint_ccpp; _hnf 2 1 "cpp;"
.n 2 e_Clean.PrettyPrint_tcpp;
.o 1 0
e_Clean.PrettyPrint_ccpp;
	push_node _cycle_in_spine 2
	jsr_eval 1
	jsr_eval 0
.impmod Clean.PrettyPrint
.impdesc e_Clean.PrettyPrint_rcpp;
	fill_r e_Clean.PrettyPrint_rcpp; 2 0 2 0 0
	pop_a 2
.d 1 0
	rtn
.export e_Clean.PrettyPrint_dcpp;.cpp
.export e_Clean.PrettyPrint_ncpp;.cpp
.export e_Clean.PrettyPrint_eacpp;.cpp
.descs e_Clean.PrettyPrint_dcpp;.cpp e_Clean.PrettyPrint_ncpp;.cpp _ 1 0 "cpp;.cpp"
.n -4 e_Clean.PrettyPrint_dcpp;.cpp e_Clean.PrettyPrint_eacpp;.cpp
.o 1 0
e_Clean.PrettyPrint_ncpp;.cpp
	push_node _cycle_in_spine 1
.o 2 0
e_Clean.PrettyPrint_eacpp;.cpp
	jsr_eval 0
	repl_r_args_a 2 0 1 1
	fill_a 0 1
	pop_a 1
.d 1 0
	rtn
.export e_Clean.PrettyPrint_dcpp;.cppp
.export e_Clean.PrettyPrint_ncpp;.cppp
.export e_Clean.PrettyPrint_eacpp;.cppp
.descs e_Clean.PrettyPrint_dcpp;.cppp e_Clean.PrettyPrint_ncpp;.cppp _ 2 0 "cpp;.cppp"
.n -4 e_Clean.PrettyPrint_dcpp;.cppp e_Clean.PrettyPrint_eacpp;.cppp
.o 1 0
e_Clean.PrettyPrint_ncpp;.cppp
	push_node _cycle_in_spine 1
.o 2 0
e_Clean.PrettyPrint_eacpp;.cppp
	jsr_eval 0
	repl_r_args_a 2 0 2 1
	fill_a 0 1
	pop_a 1
.d 1 0
	rtn
.export e_Clean.PrettyPrint_scppp;11
.descexp e_Clean.PrettyPrint_dcppp;11 e_Clean.PrettyPrint_ncppp;11 e_Clean.PrettyPrint_lcppp;11 1 0 "cppp;11"
.o 2 0
e_Clean.PrettyPrint_icppp;11
	pop_a 1
	push_r_args 0 3 0
	update_a 2 3
	update_a 1 2
	update_a 0 1
	pop_a 1
.d 3 0
	jmp s12
.ai 1 _ e_Clean.PrettyPrint_icppp;11
.o 2 0
e_Clean.PrettyPrint_lcppp;11
	pop_a 1
.d 1 0
	jsr ea12
.o 1 0
	buildh ARRAY 1
.d 1 0
	rtn
.n 1 e_Clean.PrettyPrint_dcppp;11
.o 1 0
e_Clean.PrettyPrint_ncppp;11
	push_node _cycle_in_spine 1
.d 1 0
	jsr ea12
.o 1 0
	fillh ARRAY 1 1
.d 1 0
	rtn
.o 1 0
ea12
	jsr_eval 0
	repl_r_args 3 0
.o 3 0
e_Clean.PrettyPrint_scppp;11
.o 3 0
s12
.d 0 0
	jsr s13
.o 1 2 ib
	push_a 3
	push_a 3
	push_a 3
	push_a 3
	update_a 3 4
	update_a 2 3
	update_a 1 2
	update_a 0 1
	pop_a 1
	update_a 3 6
	update_a 2 5
	update_a 1 4
	updatepop_a 0 3
.d 4 2 ib
	jmp e_Clean.PrettyPrint.Definition_sprint;4
.export e_Clean.PrettyPrint_scpp;10
.descexp e_Clean.PrettyPrint_dcpp;10 e_Clean.PrettyPrint_ncpp;10 e_Clean.PrettyPrint_lcpp;10 1 0 "cpp;10"
.o 2 0
e_Clean.PrettyPrint_icpp;10
	pop_a 1
	push_r_args 0 3 0
	update_a 2 3
	update_a 1 2
	update_a 0 1
	pop_a 1
.d 3 0
	jmp s11
.ai 1 _ e_Clean.PrettyPrint_icpp;10
.o 2 0
e_Clean.PrettyPrint_lcpp;10
	pop_a 1
.d 1 0
	jsr ea11
.o 1 0
	buildh ARRAY 1
.d 1 0
	rtn
.n 1 e_Clean.PrettyPrint_dcpp;10
.o 1 0
e_Clean.PrettyPrint_ncpp;10
	push_node _cycle_in_spine 1
.d 1 0
	jsr ea11
.o 1 0
	fillh ARRAY 1 1
.d 1 0
	rtn
.o 1 0
ea11
	jsr_eval 0
	repl_r_args 3 0
.o 3 0
e_Clean.PrettyPrint_scpp;10
.o 3 0
s11
.d 0 0
	jsr e_Clean.PrettyPrint.Util_szero;0
.o 1 2 ib
	push_a 3
	push_a 3
	push_a 3
	push_a 3
	update_a 3 4
	update_a 2 3
	update_a 1 2
	update_a 0 1
	pop_a 1
	update_a 3 6
	update_a 2 5
	update_a 1 4
	updatepop_a 0 3
.d 4 2 ib
	jmp e_Clean.PrettyPrint.Definition_sprint;4
.export e_Clean.PrettyPrint_scppp;9
.descexp e_Clean.PrettyPrint_dcppp;9 e_Clean.PrettyPrint_ncppp;9 e_Clean.PrettyPrint_lcppp;9 1 0 "cppp;9"
.o 2 0
e_Clean.PrettyPrint_icppp;9
	pop_a 1
.d 1 0
	jmp s10
.ai 1 _ e_Clean.PrettyPrint_icppp;9
.o 2 0
e_Clean.PrettyPrint_lcppp;9
	pop_a 1
.d 1 0
	jsr ea10
.o 1 0
	buildh ARRAY 1
.d 1 0
	rtn
.n 1 e_Clean.PrettyPrint_dcppp;9
.o 1 0
e_Clean.PrettyPrint_ncppp;9
	push_node _cycle_in_spine 1
.d 1 0
	jsr ea10
.o 1 0
	fillh ARRAY 1 1
.d 1 0
	rtn
.o 1 0
ea10
	jsr_eval 0
.o 1 0
e_Clean.PrettyPrint_scppp;9
.o 1 0
s10
.d 0 0
	jsr s13
.o 1 2 ib
	push_a 1
	push_a 1
	update_a 1 2
	update_a 0 1
	pop_a 1
	update_a 1 2
	updatepop_a 0 1
.d 2 2 ib
	jmp e_Clean.PrettyPrint.Definition_sprint;1
.export e_Clean.PrettyPrint_scpp;8
.descexp e_Clean.PrettyPrint_dcpp;8 e_Clean.PrettyPrint_ncpp;8 e_Clean.PrettyPrint_lcpp;8 1 0 "cpp;8"
.o 2 0
e_Clean.PrettyPrint_icpp;8
	pop_a 1
.d 1 0
	jmp s9
.ai 1 _ e_Clean.PrettyPrint_icpp;8
.o 2 0
e_Clean.PrettyPrint_lcpp;8
	pop_a 1
.d 1 0
	jsr ea9
.o 1 0
	buildh ARRAY 1
.d 1 0
	rtn
.n 1 e_Clean.PrettyPrint_dcpp;8
.o 1 0
e_Clean.PrettyPrint_ncpp;8
	push_node _cycle_in_spine 1
.d 1 0
	jsr ea9
.o 1 0
	fillh ARRAY 1 1
.d 1 0
	rtn
.o 1 0
ea9
	jsr_eval 0
.o 1 0
e_Clean.PrettyPrint_scpp;8
.o 1 0
s9
.d 0 0
	jsr e_Clean.PrettyPrint.Util_szero;0
.o 1 2 ib
	push_a 1
	push_a 1
	update_a 1 2
	update_a 0 1
	pop_a 1
	update_a 1 2
	updatepop_a 0 1
.d 2 2 ib
	jmp e_Clean.PrettyPrint.Definition_sprint;1
.export e_Clean.PrettyPrint_scppp;7
.descexp e_Clean.PrettyPrint_dcppp;7 e_Clean.PrettyPrint_ncppp;7 e_Clean.PrettyPrint_lcppp;7 1 0 "cppp;7"
.o 2 0
e_Clean.PrettyPrint_icppp;7
	pop_a 1
	push_r_args 0 2 0
	update_a 1 2
	update_a 0 1
	pop_a 1
.d 2 0
	jmp s8
.ai 1 _ e_Clean.PrettyPrint_icppp;7
.o 2 0
e_Clean.PrettyPrint_lcppp;7
	pop_a 1
.d 1 0
	jsr ea8
.o 1 0
	buildh ARRAY 1
.d 1 0
	rtn
.n 1 e_Clean.PrettyPrint_dcppp;7
.o 1 0
e_Clean.PrettyPrint_ncppp;7
	push_node _cycle_in_spine 1
.d 1 0
	jsr ea8
.o 1 0
	fillh ARRAY 1 1
.d 1 0
	rtn
.o 1 0
ea8
	jsr_eval 0
	repl_r_args 2 0
.o 2 0
e_Clean.PrettyPrint_scppp;7
.o 2 0
s8
.d 0 0
	jsr s13
.o 1 2 ib
	push_a 2
	push_a 2
	push_a 2
	update_a 2 3
	update_a 1 2
	update_a 0 1
	pop_a 1
	update_a 2 4
	update_a 1 3
	updatepop_a 0 2
.d 3 2 ib
	jmp e_Clean.PrettyPrint.Expression_sprint;2
.export e_Clean.PrettyPrint_scpp;6
.descexp e_Clean.PrettyPrint_dcpp;6 e_Clean.PrettyPrint_ncpp;6 e_Clean.PrettyPrint_lcpp;6 1 0 "cpp;6"
.o 2 0
e_Clean.PrettyPrint_icpp;6
	pop_a 1
	push_r_args 0 2 0
	update_a 1 2
	update_a 0 1
	pop_a 1
.d 2 0
	jmp s7
.ai 1 _ e_Clean.PrettyPrint_icpp;6
.o 2 0
e_Clean.PrettyPrint_lcpp;6
	pop_a 1
.d 1 0
	jsr ea7
.o 1 0
	buildh ARRAY 1
.d 1 0
	rtn
.n 1 e_Clean.PrettyPrint_dcpp;6
.o 1 0
e_Clean.PrettyPrint_ncpp;6
	push_node _cycle_in_spine 1
.d 1 0
	jsr ea7
.o 1 0
	fillh ARRAY 1 1
.d 1 0
	rtn
.o 1 0
ea7
	jsr_eval 0
	repl_r_args 2 0
.o 2 0
e_Clean.PrettyPrint_scpp;6
.o 2 0
s7
.d 0 0
	jsr e_Clean.PrettyPrint.Util_szero;0
.o 1 2 ib
	push_a 2
	push_a 2
	push_a 2
	update_a 2 3
	update_a 1 2
	update_a 0 1
	pop_a 1
	update_a 2 4
	update_a 1 3
	updatepop_a 0 2
.d 3 2 ib
	jmp e_Clean.PrettyPrint.Expression_sprint;2
.export e_Clean.PrettyPrint_scppp;5
.descexp e_Clean.PrettyPrint_dcppp;5 e_Clean.PrettyPrint_ncppp;5 e_Clean.PrettyPrint_lcppp;5 1 0 "cppp;5"
.o 2 0
e_Clean.PrettyPrint_icppp;5
	pop_a 1
.d 1 0
	jmp s6
.ai 1 _ e_Clean.PrettyPrint_icppp;5
.o 2 0
e_Clean.PrettyPrint_lcppp;5
	pop_a 1
.d 1 0
	jsr ea6
.o 1 0
	buildh ARRAY 1
.d 1 0
	rtn
.n 1 e_Clean.PrettyPrint_dcppp;5
.o 1 0
e_Clean.PrettyPrint_ncppp;5
	push_node _cycle_in_spine 1
.d 1 0
	jsr ea6
.o 1 0
	fillh ARRAY 1 1
.d 1 0
	rtn
.o 1 0
ea6
	jsr_eval 0
.o 1 0
e_Clean.PrettyPrint_scppp;5
.o 1 0
s6
.d 0 0
	jsr s13
.o 1 2 ib
	push_a 1
	push_a 1
	update_a 1 2
	update_a 0 1
	pop_a 1
	update_a 1 2
	updatepop_a 0 1
.d 2 2 ib
	jmp e_Clean.PrettyPrint.Expression_sprint;1
.export e_Clean.PrettyPrint_scpp;4
.descexp e_Clean.PrettyPrint_dcpp;4 e_Clean.PrettyPrint_ncpp;4 e_Clean.PrettyPrint_lcpp;4 1 0 "cpp;4"
.o 2 0
e_Clean.PrettyPrint_icpp;4
	pop_a 1
.d 1 0
	jmp s5
.ai 1 _ e_Clean.PrettyPrint_icpp;4
.o 2 0
e_Clean.PrettyPrint_lcpp;4
	pop_a 1
.d 1 0
	jsr ea5
.o 1 0
	buildh ARRAY 1
.d 1 0
	rtn
.n 1 e_Clean.PrettyPrint_dcpp;4
.o 1 0
e_Clean.PrettyPrint_ncpp;4
	push_node _cycle_in_spine 1
.d 1 0
	jsr ea5
.o 1 0
	fillh ARRAY 1 1
.d 1 0
	rtn
.o 1 0
ea5
	jsr_eval 0
.o 1 0
e_Clean.PrettyPrint_scpp;4
.o 1 0
s5
.d 0 0
	jsr e_Clean.PrettyPrint.Util_szero;0
.o 1 2 ib
	push_a 1
	push_a 1
	update_a 1 2
	update_a 0 1
	pop_a 1
	update_a 1 2
	updatepop_a 0 1
.d 2 2 ib
	jmp e_Clean.PrettyPrint.Expression_sprint;1
.export e_Clean.PrettyPrint_scppp;3
.descexp e_Clean.PrettyPrint_dcppp;3 e_Clean.PrettyPrint_ncppp;3 e_Clean.PrettyPrint_lcppp;3 1 0 "cppp;3"
.o 2 0
e_Clean.PrettyPrint_icppp;3
	pop_a 1
.d 1 0
	jmp s4
.ai 1 _ e_Clean.PrettyPrint_icppp;3
.o 2 0
e_Clean.PrettyPrint_lcppp;3
	pop_a 1
.d 1 0
	jsr ea4
.o 1 0
	buildh ARRAY 1
.d 1 0
	rtn
.n 1 e_Clean.PrettyPrint_dcppp;3
.o 1 0
e_Clean.PrettyPrint_ncppp;3
	push_node _cycle_in_spine 1
.d 1 0
	jsr ea4
.o 1 0
	fillh ARRAY 1 1
.d 1 0
	rtn
.o 1 0
ea4
	jsr_eval 0
.o 1 0
e_Clean.PrettyPrint_scppp;3
.o 1 0
s4
.d 0 0
	jsr s13
.o 1 2 ib
	push_a 1
	push_a 1
	update_a 1 2
	update_a 0 1
	pop_a 1
	update_a 1 2
	updatepop_a 0 1
.d 2 2 ib
	jmp e_Clean.PrettyPrint.Definition_sprint;0
.export e_Clean.PrettyPrint_scpp;2
.descexp e_Clean.PrettyPrint_dcpp;2 e_Clean.PrettyPrint_ncpp;2 e_Clean.PrettyPrint_lcpp;2 1 0 "cpp;2"
.o 2 0
e_Clean.PrettyPrint_icpp;2
	pop_a 1
.d 1 0
	jmp s3
.ai 1 _ e_Clean.PrettyPrint_icpp;2
.o 2 0
e_Clean.PrettyPrint_lcpp;2
	pop_a 1
.d 1 0
	jsr ea3
.o 1 0
	buildh ARRAY 1
.d 1 0
	rtn
.n 1 e_Clean.PrettyPrint_dcpp;2
.o 1 0
e_Clean.PrettyPrint_ncpp;2
	push_node _cycle_in_spine 1
.d 1 0
	jsr ea3
.o 1 0
	fillh ARRAY 1 1
.d 1 0
	rtn
.o 1 0
ea3
	jsr_eval 0
.o 1 0
e_Clean.PrettyPrint_scpp;2
.o 1 0
s3
.d 0 0
	jsr e_Clean.PrettyPrint.Util_szero;0
.o 1 2 ib
	push_a 1
	push_a 1
	update_a 1 2
	update_a 0 1
	pop_a 1
	update_a 1 2
	updatepop_a 0 1
.d 2 2 ib
	jmp e_Clean.PrettyPrint.Definition_sprint;0
.export e_Clean.PrettyPrint_scppp;1
.descexp e_Clean.PrettyPrint_dcppp;1 e_Clean.PrettyPrint_ncppp;1 e_Clean.PrettyPrint_lcppp;1 1 0 "cppp;1"
.o 2 0
e_Clean.PrettyPrint_icppp;1
	pop_a 1
	push_r_args 0 2 0
	update_a 1 2
	update_a 0 1
	pop_a 1
.d 2 0
	jmp s2
.ai 1 _ e_Clean.PrettyPrint_icppp;1
.o 2 0
e_Clean.PrettyPrint_lcppp;1
	pop_a 1
.d 1 0
	jsr ea2
.o 1 0
	buildh ARRAY 1
.d 1 0
	rtn
.n 1 e_Clean.PrettyPrint_dcppp;1
.o 1 0
e_Clean.PrettyPrint_ncppp;1
	push_node _cycle_in_spine 1
.d 1 0
	jsr ea2
.o 1 0
	fillh ARRAY 1 1
.d 1 0
	rtn
.o 1 0
ea2
	jsr_eval 0
	repl_r_args 2 0
.o 2 0
e_Clean.PrettyPrint_scppp;1
.o 2 0
s2
.d 0 0
	jsr s13
.o 1 2 ib
	push_a 2
	push_a 2
	push_a 2
	update_a 2 3
	update_a 1 2
	update_a 0 1
	pop_a 1
	update_a 2 4
	update_a 1 3
	updatepop_a 0 2
.d 3 2 ib
	jmp e_Clean.PrettyPrint.Definition_sprint;2
.export e_Clean.PrettyPrint_scpp;0
.descexp e_Clean.PrettyPrint_dcpp;0 e_Clean.PrettyPrint_ncpp;0 e_Clean.PrettyPrint_lcpp;0 1 0 "cpp;0"
.o 2 0
e_Clean.PrettyPrint_icpp;0
	pop_a 1
	push_r_args 0 2 0
	update_a 1 2
	update_a 0 1
	pop_a 1
.d 2 0
	jmp s1
.ai 1 _ e_Clean.PrettyPrint_icpp;0
.o 2 0
e_Clean.PrettyPrint_lcpp;0
	pop_a 1
.d 1 0
	jsr ea1
.o 1 0
	buildh ARRAY 1
.d 1 0
	rtn
.n 1 e_Clean.PrettyPrint_dcpp;0
.o 1 0
e_Clean.PrettyPrint_ncpp;0
	push_node _cycle_in_spine 1
.d 1 0
	jsr ea1
.o 1 0
	fillh ARRAY 1 1
.d 1 0
	rtn
.o 1 0
ea1
	jsr_eval 0
	repl_r_args 2 0
.o 2 0
e_Clean.PrettyPrint_scpp;0
.o 2 0
s1
.d 0 0
	jsr e_Clean.PrettyPrint.Util_szero;0
.o 1 2 ib
	push_a 2
	push_a 2
	push_a 2
	update_a 2 3
	update_a 1 2
	update_a 0 1
	pop_a 1
	update_a 2 4
	update_a 1 3
	updatepop_a 0 2
.d 3 2 ib
	jmp e_Clean.PrettyPrint.Definition_sprint;2
.o 0 0
s13
	pushB TRUE
.d 0 0
	jsr e_Clean.PrettyPrint.Util_szero;0
.o 1 2 ib
	update_b 2 1
	update_b 1 2
	updatepop_b 0 1
.d 1 2 ib
	rtn
.impmod Clean.PrettyPrint.Util
.impdesc e_Clean.PrettyPrint.Util_rCPPState
