.comp 920 000011110011000
.start _nostart_
.depend "iTasks.Internal.Util" "20210613122637"
.depend "Text" "20210613122637"
.depend "Data.Tree" "20210613122637"
.depend "System.Directory" "20210613122637"
.depend "_SystemArray" "20210613122638"
.depend "StdArray" "20210613122638"
.depend "iTasks.Internal.Serialization" "20210613122637"
.depend "StdTuple" "20210613122638"
.depend "iTasks.Internal.TaskIO" "20210613122637"
.depend "System._Signal" "20210613122637"
.depend "System.Signal" "20210613122637"
.depend "_SystemStrictMaybes" "20210613122638"
.depend "Text.GenPrint" "20210613122637"
.depend "iTasks.Extensions.DateTime" "20210613122637"
.depend "iTasks.Internal.TaskServer" "20210613122637"
.depend "AsyncIO" "20210613122637"
.depend "System._Process" "20210613122637"
.depend "System.Process" "20210613122637"
.depend "System.OS" "20210613122637"
.depend "TCPStringChannelsInternal" "20210613122630"
.depend "TCPStringChannels" "20210613122630"
.depend "TCPEvent" "20210613122630"
.depend "tcp_bytestreams" "20210613122630"
.depend "TCPDef" "20210613122630"
.depend "TCPChannels" "20210613122630"
.depend "TCPIP" "20210613122630"
.depend "iTasks.WF.Tasks.IO" "20210613122637"
.depend "Data.IntMap.Base" "20210613122637"
.depend "Data.IntMap.Strict" "20210613122637"
.depend "Data.CircularStack" "20210613122637"
.depend "iTasks.Extensions.Document" "20210613122637"
.depend "System.File" "20210613122637"
.depend "iTasks.Util.DeferredJSON" "20210613122637"
.depend "iTasks.UI.Layout" "20210613122637"
.depend "iTasks.Internal.TaskState" "20210613122637"
.depend "iTasks.Internal.SDS" "20210613122637"
.depend "Data.GenHash" "20210613122637"
.depend "Data.Maybe.Ord" "20210613122637"
.depend "Control.GenBimap" "20210613122637"
.depend "ABC.Interpreter.JavaScript" "20210613122638"
.depend "ABC.Interpreter" "20210613122638"
.depend "iTasks.UI.Editor" "20210613122637"
.depend "iTasks.UI.Editor.Generic" "20210613122637"
.depend "iTasks.Internal.Generic.Defaults" "20210613122637"
.depend "Data.GenDefault" "20210613122637"
.depend "Data.Integer" "20210613122637"
.depend "Text.HTML" "20210613122638"
.depend "iTasks.Internal.Generic.Visualization" "20210613122637"
.depend "iTasks.SDS.Definition" "20210613122637"
.depend "iTasks.WF.Combinators.Core" "20210613122637"
.depend "iTasks.Internal.TaskEval" "20210613122637"
.depend "iTasks.WF.Definition" "20210613122637"
.depend "iTasks.Internal.Task" "20210613122637"
.depend "iTasks.UI.Definition" "20210613122637"
.depend "Text.GenJSON" "20210613122637"
.depend "Data.Bifunctor" "20210613122637"
.depend "Data.Either" "20210613122637"
.depend "Data.Queue" "20210613122637"
.depend "StdFile" "20210613122638"
.depend "symbols_in_program" "20210613122637"
.depend "iTasks.Internal.IWorld" "20210613122637"
.depend "iTasks.Internal.WebService" "20210613122637"
.depend "tcp" "20210613122630"
.depend "TCPChannelClass" "20210613122630"
.depend "System._Time" "20210613122637"
.depend "System.Time" "20210613122637"
.depend "System.GetOpt" "20210613122637"
.depend "System.OSError" "20210613122637"
.depend "System.FilePath" "20210613122637"
.depend "StdString" "20210613122638"
.depend "Internet.HTTP" "20210613122637"
.depend "Control.Monad.Fail" "20210613122637"
.depend "Data.Traversable" "20210613122637"
.depend "StdMisc" "20210613122638"
.depend "StdOverloadedList" "20210613122638"
.depend "Data.List" "20210613122637"
.depend "Data.Foldable" "20210613122637"
.depend "Data.Set" "20210613122637"
.depend "Data.GenLexOrd" "20210613122637"
.depend "StdFunctions" "20210613122638"
.depend "StdFunc" "20210613122638"
.depend "Data.Map" "20210613122637"
.depend "_SystemEnumStrict" "20210613122638"
.depend "_SystemStrictLists" "20210613122638"
.depend "StdStrictLists" "20210613122638"
.depend "StdGeneric" "20210613122638"
.depend "Data.GenEq" "20210613122637"
.depend "StdReal" "20210613122638"
.depend "StdChar" "20210613122638"
.depend "StdInt" "20210613122638"
.depend "StdBool" "20210613122638"
.depend "StdClass" "20210613122638"
.depend "StdList" "20210613122638"
.depend "Data.Monoid" "20210613122637"
.depend "Control.Applicative" "20210613122637"
.depend "Control.Monad" "20210613122637"
.depend "Data.Functor" "20210613122637"
.depend "Data.Error" "20210613122637"
.depend "iTasks.Engine" "20210613122637"
.depend "StdOverloaded" "20210613122638"
.depend "_SystemDynamic" "20210613122638"
.depend "iTasks.SDS.Sources.Core" "20210613122637"
.module m_iTasks.SDS.Sources.Core "iTasks.SDS.Sources.Core" "20210613122637"
.endinfo
.impmod _system
.implab _cycle_in_spine
.implab _type_error
.implab _hnf
.impdesc e_system_dind
.implab e_system_nind e_system_eaind
.impdesc e_system_dif
.implab e_system_nif e_system_eaif
.implab e_system_sif
.impdesc e_system_dAP
.implab e_system_nAP e_system_eaAP
.implab e_system_sAP
.impdesc ARRAY
.impdesc _Nil
.impdesc _Cons
.impdesc _Conss
.implab n_Conss ea_Conss
.impdesc _Consts
.implab n_Consts ea_Consts
.impdesc _Conssts
.implab n_Conssts ea_Conssts
.impdesc _Tuple
.impdesc d_S.1
.implab n_S.1 ea_S.1
.impdesc d_S.2
.implab n_S.2 ea_S.2
.impdesc d_S.3
.implab n_S.3 ea_S.3
.impdesc d_S.4
.implab n_S.4 ea_S.4
.impdesc d_S.5
.implab n_S.5 ea_S.5
.impdesc d_S.6
.implab n_S.6 ea_S.6
.implab _driver
.impmod iTasks.Internal.Util
.impdesc e_iTasks.Internal.Util_dgenerateRandomString
.impmod Text
.implab e_Text_sjoin;9
.implab e_Text_ssplit;16
.impmod System.Directory
.implab e_System.Directory_screateDirectory
.implab e_System.Directory_sreadDirectory
.impmod _SystemArray
.impmod iTasks.Internal.Serialization
.implab e_iTasks.Internal.Serialization_sserialize
.implab e_iTasks.Internal.Serialization_sdeserialize
.impmod System.File
.implab e_System.File_sreadAll
.implab e_System.File_sfileExists
.impdesc e_System.File_dtoString;11
.impdesc e_System.File_dTD;FileError
.impmod iTasks.Internal.SDS
.implab e_iTasks.Internal.SDS_screateReadWriteSDS
.implab e_iTasks.Internal.SDS_screateReadOnlySDS
.implab e_iTasks.Internal.SDS_screateReadOnlySDSError
.impmod Data.GenHash
.impdesc e_Data.GenHash_dgHash_Int;2
.impdesc e_Data.GenHash_dgHash__String;6
.impdesc e_Data.GenHash_dgHash__Unit;7
.impmod iTasks.WF.Definition
.implab e_iTasks.WF.Definition_sexception
.impmod Text.GenJSON
.implab e_Text.GenJSON_stoJSON
.implab e_Text.GenJSON_sfromJSON
.implab e_Text.GenJSON_stoString;7
.implab e_Text.GenJSON_sfromString;8
.impmod StdFile
.implab e_StdFile_sfwrites
.implab e_StdFile_sfclose;31
.implab e_StdFile_sfopen;32
.impmod System.FilePath
.implab e_System.FilePath_spathSeparator
.impmod StdString
.impdesc e_StdString_d==;2
.implab e_StdString_s==;2
.implab e_StdString_s<;3
.impdesc e_StdString_dtoString;9
.impdesc e_StdString_d+++;11
.implab e_StdString_n+++;11
.impmod StdFunctions
.impdesc e_StdFunctions_dconst
.impmod Data.Map
.impdesc e_Data.Map_dput;48
.implab e_Data.Map_nput;48 e_Data.Map_eaput;48
.impdesc e_Data.Map_ddel;52
.implab e_Data.Map_ndel;52 e_Data.Map_eadel;52
.impmod StdInt
.implab e_StdInt_s+;6
.implab e_StdInt_s-;7
.implab e_StdInt_sone;11
.implab e_StdInt_s<;17
.impmod StdBool
.implab e_StdBool_snot
.impmod StdList
.implab e_StdList_s++
.impmod Data.Error
.implab e_Data.Error_sisError
.impmod _SystemDynamic
.impdesc e__SystemDynamic_d_initial_unification_environment
.implab e__SystemDynamic_s_initial_unification_environment
.implab e__SystemDynamic_n_initial_unification_environment e__SystemDynamic_ea_initial_unification_environment
.impdesc e__SystemDynamic_d_bind_global_type_pattern_var
.implab e__SystemDynamic_s_bind_global_type_pattern_var
.implab e__SystemDynamic_n_bind_global_type_pattern_var e__SystemDynamic_ea_bind_global_type_pattern_var
.implab e__SystemDynamic_s_unify
.impdesc e__SystemDynamic_d_normalise
.implab e__SystemDynamic_n_normalise e__SystemDynamic_ea_normalise
.impmod System.File
.impdesc e_System.File_dCannotOpen
.impdesc e_System.File_dCannotClose
.impmod iTasks.Internal.IWorld
.impdesc e_iTasks.Internal.IWorld_rIWorld
.impdesc e_iTasks.Internal.IWorld_tIWorld
.implab e_iTasks.Internal.IWorld_cIWorld
.impmod Data.Map
.impdesc e_Data.Map_kBin
.impdesc e_Data.Map_dTip
.impmod Data.Error
.impdesc e_Data.Error_dError
.impdesc e_Data.Error_dOk
.impmod StdOverloaded
.impdesc e_StdOverloaded_rtoString;
.impmod _SystemDynamic
.impdesc e__SystemDynamic_rDynamicTemp
.impdesc e__SystemDynamic_kTypeVar
.impdesc e__SystemDynamic_kTypeCons
.impdesc e__SystemDynamic_kTypeApp
.impdesc e__SystemDynamic_rTypeCodeConstructor
.impdesc e__SystemDynamic_dTC_Char
.impdesc e__SystemDynamic_dTC__UnboxedArray
.impmod _predef
.impdesc e__predef_d_Unit
.export e_iTasks.SDS.Sources.Core_rgHash_s;
.record e_iTasks.SDS.Sources.Core_rgHash_s; a 1 0 "gHash_s;"
.export e_iTasks.SDS.Sources.Core_tgHash_s;
.export e_iTasks.SDS.Sources.Core_cgHash_s;
.descn e_iTasks.SDS.Sources.Core_tgHash_s; e_iTasks.SDS.Sources.Core_cgHash_s; 1 1 "gHash_s;"
.n 1 e_iTasks.SDS.Sources.Core_tgHash_s;
.o 1 0 
e_iTasks.SDS.Sources.Core_cgHash_s;
	push_node _cycle_in_spine 1
	jsr_eval 0
.impmod iTasks.SDS.Sources.Core
.impdesc e_iTasks.SDS.Sources.Core_rgHash_s;
	fill_r e_iTasks.SDS.Sources.Core_rgHash_s; 1 0 1 0 0
.d 1 0 
	pop_a_rtn 1
.export e_iTasks.SDS.Sources.Core_sdirectoryListing
.export e_iTasks.SDS.Sources.Core_eadirectoryListing
.descexp e_iTasks.SDS.Sources.Core_ddirectoryListing e_iTasks.SDS.Sources.Core_ndirectoryListing e_iTasks.SDS.Sources.Core_ldirectoryListing 0 0 "directoryListing"
.o 1 0 
e_iTasks.SDS.Sources.Core_ldirectoryListing
	halt
.n 0 e_iTasks.SDS.Sources.Core_ddirectoryListing e_iTasks.SDS.Sources.Core_eadirectoryListing
.o 1 0 
e_iTasks.SDS.Sources.Core_ndirectoryListing
	push_node _cycle_in_spine 0
.o 1 0 
e_iTasks.SDS.Sources.Core_eadirectoryListing
.o 1 0 
e_iTasks.SDS.Sources.Core_sdirectoryListing
.o 1 0 
s11
	testcaf vdirectoryListing
	jmp_false m.1
	pushcaf vdirectoryListing 1 0
.d 1 0 
	fill_a01_pop_rtn 
.caf vdirectoryListing 1 0
m.1
.d 1 0 
	jsr s11.1
.o 1 0 
	fillcaf vdirectoryListing 1 0
.d 1 0 
	rtn 
.o 1 0 
s11.1
	buildh e_iTasks.SDS.Sources.Core_dread;34.35 0
	buildh e_Data.GenHash_dgHash__String;6 0
.d 3 0 
	jmp e_iTasks.Internal.SDS_screateReadOnlySDSError
.export e_iTasks.SDS.Sources.Core_dread;34.35
.desc e_iTasks.SDS.Sources.Core_dread;34.35 _hnf l35 2 0 "read;34.35"
.a 0 a35
.o 2 0 
l35
	repl_args 1 1
.o 2 0 
a35
.d 2 0 
	jsr ea35
.o 2 0 
	buildh _Tuple 2
.d 1 0 
	rtn 
.o 2 0 
ea35
	jsr_eval 1
	jsr_eval 0
	push_array 0
	put_a 1
.o 2 0 
s35
.d 2 0 
	jsr e_System.Directory_sreadDirectory
.o 2 0 
s62
	jmp_ne_desc e_Data.Error_dOk 1 0 case.3
	repl_args 1 1
	buildo1 e_iTasks.SDS.Sources.Core_nc;146;36;33.34 0
	buildh e_Data.Error_dOk 1
	put_a 1
.d 2 0 
	rtn 
case.3
	repl_args 1 1
	jsr_eval 0
	repl_arg 2 2
	buildh e__SystemDynamic_dTC_Char 0
	buildhr e__SystemDynamic_kTypeCons 1 0
	buildh e__SystemDynamic_dTC__UnboxedArray 0
	buildhr e__SystemDynamic_kTypeCons 1 0
	buildhr e__SystemDynamic_kTypeApp 2 0
	push_update_a 0 1
	build e_iTasks.SDS.Sources.Core_d_f15.285 2 e_iTasks.SDS.Sources.Core_n_f15.285
	buildh e_Data.Error_dError 1
	put_a 1
.d 2 0 
	rtn 
.export e_iTasks.SDS.Sources.Core_d_f15.285
.export e_iTasks.SDS.Sources.Core_n_f15.285
.descn e_iTasks.SDS.Sources.Core_d_f15.285 e_iTasks.SDS.Sources.Core_n_f15.285 2 0 "_f15.285"
.n 2 e_iTasks.SDS.Sources.Core_d_f15.285 ea285
.o 1 0 
e_iTasks.SDS.Sources.Core_n_f15.285
	push_node _cycle_in_spine 2
.o 3 0 
ea285
.o 3 0 
s285
	push_jsr_eval 1
	buildh e_StdString_dtoString;9 0
	push_jsr_eval 2
	update3pop_a 0 2
.d 3 0 
	jsr e_iTasks.WF.Definition_sexception
.o 3 0 
	push_a 2
	buildh ARRAY 1
	build_r e__SystemDynamic_rDynamicTemp 2 0 1 0
	fillh _Tuple 2 5
.d 1 0 
	pop_a_rtn 3
.export e_iTasks.SDS.Sources.Core_dc;146;36;33.34
.export e_iTasks.SDS.Sources.Core_nc;146;36;33.34
.descn e_iTasks.SDS.Sources.Core_dc;146;36;33.34 e_iTasks.SDS.Sources.Core_nc;146;36;33.34 1 0 "c;146;36;33.34"
.n 1 e_iTasks.SDS.Sources.Core_dc;146;36;33.34 ea34
.o 1 0 
e_iTasks.SDS.Sources.Core_nc;146;36;33.34
	push_node _cycle_in_spine 1
.o 2 0 
ea34
	jsr_eval 0
.o 2 0 
s34
s61
	jmp_ne_desc _Cons 2 0 case.5
	repl_args 2 2
	jsr_eval 0
	push_a 0
	push_array 0
	put_a 1
	buildAC "."
	swap_a1 
.d 2 0 
	jsr eqAC
.o 0 1 b
	jmp_true else.6
	buildAC ".."
	push_array 1
.d 2 0 
	jsr eqAC
.o 0 1 b
	jmp_true else.6
	buildo1 e_iTasks.SDS.Sources.Core_nc;146;36;33.34 1
	push_a 1
	fillh _Cons 2 4
.d 1 0 
	pop_a_rtn 2
else.6
	pop_a 1
	jsr_eval 0
.d 2 0 
	jmp s34
case.5
	fillh _Nil 0 1
.d 1 0 
	pop_a_rtn 1
.export e_iTasks.SDS.Sources.Core_sgraphFileShare
.export e_iTasks.SDS.Sources.Core_eagraphFileShare
.descexp e_iTasks.SDS.Sources.Core_dgraphFileShare e_iTasks.SDS.Sources.Core_ngraphFileShare e_iTasks.SDS.Sources.Core_lgraphFileShare 0 0 "graphFileShare"
.o 1 0 
e_iTasks.SDS.Sources.Core_lgraphFileShare
	halt
.n 0 e_iTasks.SDS.Sources.Core_dgraphFileShare e_iTasks.SDS.Sources.Core_eagraphFileShare
.o 1 0 
e_iTasks.SDS.Sources.Core_ngraphFileShare
	push_node _cycle_in_spine 0
.o 1 0 
e_iTasks.SDS.Sources.Core_eagraphFileShare
.o 1 0 
e_iTasks.SDS.Sources.Core_sgraphFileShare
.o 1 0 
s10
	testcaf vgraphFileShare
	jmp_false m.8
	pushcaf vgraphFileShare 1 0
.d 1 0 
	fill_a01_pop_rtn 
.caf vgraphFileShare 1 0
m.8
.d 1 0 
	jsr s10.1
.o 1 0 
	fillcaf vgraphFileShare 1 0
.d 1 0 
	rtn 
.o 1 0 
s10.1
	buildh e_iTasks.SDS.Sources.Core_d_f1.271 0
	buildh e_iTasks.SDS.Sources.Core_d_f0.270 0
	buildh e_Data.GenHash_dgHash__String;6 0
	buildAC "graphFileShare"
	buildAC "_core_"
	push_a 2
	update3pop_a 0 1
.d 6 0 
	jmp e_iTasks.Internal.SDS_screateReadWriteSDS
.export e_iTasks.SDS.Sources.Core_d_f1.271
.desc e_iTasks.SDS.Sources.Core_d_f1.271 _hnf l271 3 0 "_f1.271"
.a 3 ea271
.o 2 0 
l271
	push_args 0 2 2
	update_a 3 2
	create 
	put_a 4
.o 4 0 
ea271
.o 4 0 
s271
	push_jsr_eval 1
	put_a 2
	buildh e_iTasks.SDS.Sources.Core_dtoFile;30.31 0
.d 4 0 
	jsr s13
.o 2 0 
	fillh _Tuple 2 2
.d 1 0 
	rtn 
.export e_iTasks.SDS.Sources.Core_d_f0.270
.desc e_iTasks.SDS.Sources.Core_d_f0.270 _hnf l270 2 0 "_f0.270"
.a 2 ea270
.o 2 0 
l270
	push_args 0 1 1
	update_a 2 1
	create 
	put_a 3
.o 3 0 
ea270
.o 3 0 
s270
	push_jsr_eval 1
	push_jsr_eval 1
	push_array 0
	put_a 1
	update2_a 0 2
	pop_a 2
	buildh e_iTasks.SDS.Sources.Core_dfromFile;539.45 0
.d 3 0 
	jsr s12
.o 2 0 
	fillh _Tuple 2 2
.d 1 0 
	rtn 
.export e_iTasks.SDS.Sources.Core_dfromFile;539.45
.desc e_iTasks.SDS.Sources.Core_dfromFile;539.45 _hnf l45 2 0 "fromFile;539.45"
.a 2 ea45
.o 2 0 
l45
	push_args 0 1 1
	update_a 2 1
	create 
	put_a 3
.o 3 0 
ea45
	jsr_eval 1
	push_array 1
	put_a 2
.o 3 0 
s45
	update_a 1 0
	push_arraysize CHAR 0 1
	decI
	push_b_incI 0
	create_array_ CHAR 0 1
	pushI 0
.d 2 2 ii
	jsr s46
.o 1 0 
	create 
	swap_a1 
.d 2 0 
	jsr e_iTasks.Internal.Serialization_sdeserialize
.o 1 0 
s60
	jmp_ne_desc e_Data.Error_dOk 1 0 case.10
	repl_args 1 1
	push_a 0
	fillh e_Data.Error_dOk 1 2
.d 1 0 
	pop_a_rtn 1
case.10
	repl_args 1 1
	buildh e__SystemDynamic_dTC_Char 0
	buildhr e__SystemDynamic_kTypeCons 1 0
	buildh e__SystemDynamic_dTC__UnboxedArray 0
	buildhr e__SystemDynamic_kTypeCons 1 0
	buildhr e__SystemDynamic_kTypeApp 2 0
	push_update_a 0 1
	build e_iTasks.SDS.Sources.Core_d_f8.278 2 e_iTasks.SDS.Sources.Core_n_f8.278
	fillh e_Data.Error_dError 1 2
.d 1 0 
	pop_a_rtn 1
.export e_iTasks.SDS.Sources.Core_d_f8.278
.export e_iTasks.SDS.Sources.Core_n_f8.278
.descn e_iTasks.SDS.Sources.Core_d_f8.278 e_iTasks.SDS.Sources.Core_n_f8.278 2 0 "_f8.278"
.n 2 e_iTasks.SDS.Sources.Core_d_f8.278 ea278
.o 1 0 
e_iTasks.SDS.Sources.Core_n_f8.278
	push_node _cycle_in_spine 2
.o 3 0 
ea278
.o 3 0 
s278
	push_jsr_eval 1
	buildh e_StdString_dtoString;9 0
	push_jsr_eval 2
	update3pop_a 0 2
.d 3 0 
	jsr e_iTasks.WF.Definition_sexception
.o 3 0 
	push_a 2
	buildh ARRAY 1
	build_r e__SystemDynamic_rDynamicTemp 2 0 1 0
	fillh _Tuple 2 5
.d 1 0 
	pop_a_rtn 3
.o 2 2 ii
s46
	push_b2 0 1
	jmp_ltI else.11
	push_ab 1 0
	exchange_a 2 1
	select CHAR 0 1
	push_b_incI 1
	push_b2 1 2
	swap_a1 
	update CHAR 0 1
	updatepop_b 0 2
.d 2 2 ii
	jmp s46
else.11
	put_a 1
.d 1 0 
	pop_b_rtn 2
.export e_iTasks.SDS.Sources.Core_dtoFile;30.31
.desc e_iTasks.SDS.Sources.Core_dtoFile;30.31 _hnf l31 2 0 "toFile;30.31"
.a 0 a31
.o 2 0 
l31
	repl_args 1 1
.o 2 0 
a31
.d 2 0 
	jsr ea31
.o 1 0 
	buildh ARRAY 1
.d 1 0 
	rtn 
.o 2 0 
ea31
	jsr_eval 1
.o 2 0 
s31
.d 1 0 
	pop_a_jmp 1 e_iTasks.Internal.Serialization_sserialize
.export e_iTasks.SDS.Sources.Core_sjsonFileShare
.export e_iTasks.SDS.Sources.Core_eajsonFileShare
.descexp e_iTasks.SDS.Sources.Core_djsonFileShare e_iTasks.SDS.Sources.Core_njsonFileShare e_iTasks.SDS.Sources.Core_ljsonFileShare 2 0 "jsonFileShare"
.a 2 e_iTasks.SDS.Sources.Core_eajsonFileShare
.o 2 0 
e_iTasks.SDS.Sources.Core_ljsonFileShare
	push_args 0 1 1
	update_a 2 1
	create 
.d 3 0 
	put_a_jmp 3 e_iTasks.SDS.Sources.Core_eajsonFileShare
.n 2 e_iTasks.SDS.Sources.Core_djsonFileShare e_iTasks.SDS.Sources.Core_eajsonFileShare
.o 1 0 
e_iTasks.SDS.Sources.Core_njsonFileShare
	push_node _cycle_in_spine 2
.o 3 0 
e_iTasks.SDS.Sources.Core_eajsonFileShare
	jsr_eval 1
	jsr_eval 0
	push_r_args 1 1 0
	push_r_args 1 1 0
	update2pop_a 0 2
.o 3 0 
e_iTasks.SDS.Sources.Core_sjsonFileShare
.o 3 0 
s9
.impmod StdGeneric
.impdesc e_StdGeneric_rGenericDict
	build_r e_StdGeneric_rGenericDict 1 0 0 0
	buildh e_iTasks.SDS.Sources.Core_dtoFile;27.28 1
	buildh e_iTasks.SDS.Sources.Core_dfileWrite.13 1
	build_r e_StdGeneric_rGenericDict 1 0 2 0
	buildh e_iTasks.SDS.Sources.Core_dfromFile;26.27 1
	buildh e_iTasks.SDS.Sources.Core_dfileRead.12 1
	buildh e_Data.GenHash_dgHash__String;6 0
	buildAC "jsonFileShare"
	buildAC "_core_"
	update2_a 3 5
	update2_a 0 3
.d 6 0 
	pop_a_jmp 2 e_iTasks.Internal.SDS_screateReadWriteSDS
.export e_iTasks.SDS.Sources.Core_dfromFile;26.27
.desc e_iTasks.SDS.Sources.Core_dfromFile;26.27 _hnf l27 3 0 "fromFile;26.27"
.a 3 ea27
.o 2 0 
l27
	push_args 0 2 2
	update_a 3 2
	create 
	put_a 4
.o 4 0 
ea27
	jsr_eval 2
	push_array 2
	push_r_args 1 1 0
	update_a 1 4
	updatepop_a 0 2
.o 4 0 
s27
	create 
	push_a 3
.d 2 0 
	buildh0_put_a_jsr _Nil 5 e_Text.GenJSON_sfromString;8
.o 1 0 
	create 
	updates2_a 0 3 4
	exchange_a 2 1
.d 3 0 
	pop_a_jsr 1 e_Text.GenJSON_sfromJSON
.o 1 0 
s58
	jmp_ne_desc _Just 1 0 case.13
	repl_args 1 1
	push_a 0
	fillh e_Data.Error_dOk 1 3
.d 1 0 
	pop_a_rtn 2
case.13
	push_a 1
	buildAC "Could not parse json file "
	buildh ARRAY 1
	build e_StdString_d+++;11 2 e_StdString_n+++;11
	buildh e__SystemDynamic_dTC_Char 0
	buildhr e__SystemDynamic_kTypeCons 1 0
	buildh e__SystemDynamic_dTC__UnboxedArray 0
	buildhr e__SystemDynamic_kTypeCons 1 0
	buildhr e__SystemDynamic_kTypeApp 2 0
	build e_iTasks.SDS.Sources.Core_d_f7.277 2 e_iTasks.SDS.Sources.Core_n_f7.277
	fillh e_Data.Error_dError 1 3
.d 1 0 
	pop_a_rtn 2
.export e_iTasks.SDS.Sources.Core_d_f7.277
.export e_iTasks.SDS.Sources.Core_n_f7.277
.descn e_iTasks.SDS.Sources.Core_d_f7.277 e_iTasks.SDS.Sources.Core_n_f7.277 2 0 "_f7.277"
.n 2 e_iTasks.SDS.Sources.Core_d_f7.277 ea277
.o 1 0 
e_iTasks.SDS.Sources.Core_n_f7.277
	push_node _cycle_in_spine 2
.o 3 0 
ea277
.o 3 0 
s277
	push_jsr_eval 1
	buildh e_StdString_dtoString;9 0
	push_jsr_eval 2
	update3pop_a 0 2
.d 3 0 
	jsr e_iTasks.WF.Definition_sexception
.o 3 0 
	push_a 2
	buildh ARRAY 1
	build_r e__SystemDynamic_rDynamicTemp 2 0 1 0
	fillh _Tuple 2 5
.d 1 0 
	pop_a_rtn 3
.export e_iTasks.SDS.Sources.Core_dtoFile;27.28
.desc e_iTasks.SDS.Sources.Core_dtoFile;27.28 _hnf l28 3 0 "toFile;27.28"
.a 0 a28
.o 2 0 
l28
	repl_args 2 2
.o 3 0 
a28
.d 3 0 
	jsr ea28
.o 1 0 
	buildh ARRAY 1
.d 1 0 
	rtn 
.o 3 0 
ea28
	jsr_eval 2
	repl_r_args 1 0
.o 3 0 
s28
	create 
	updates2_a 0 3 2
.d 3 0 
	pop_a_jsr 1 e_Text.GenJSON_stoJSON
.o 1 0 
.d 1 0 
	jmp e_Text.GenJSON_stoString;7
.export e_iTasks.SDS.Sources.Core_sfileShare
.export e_iTasks.SDS.Sources.Core_eafileShare
.descexp e_iTasks.SDS.Sources.Core_dfileShare e_iTasks.SDS.Sources.Core_nfileShare e_iTasks.SDS.Sources.Core_lfileShare 0 0 "fileShare"
.o 1 0 
e_iTasks.SDS.Sources.Core_lfileShare
	halt
.n 0 e_iTasks.SDS.Sources.Core_dfileShare e_iTasks.SDS.Sources.Core_eafileShare
.o 1 0 
e_iTasks.SDS.Sources.Core_nfileShare
	push_node _cycle_in_spine 0
.o 1 0 
e_iTasks.SDS.Sources.Core_eafileShare
.o 1 0 
e_iTasks.SDS.Sources.Core_sfileShare
.o 1 0 
s8
	testcaf vfileShare
	jmp_false m.14
	pushcaf vfileShare 1 0
.d 1 0 
	fill_a01_pop_rtn 
.caf vfileShare 1 0
m.14
.d 1 0 
	jsr s8.1
.o 1 0 
	fillcaf vfileShare 1 0
.d 1 0 
	rtn 
.o 1 0 
s8.1
	buildh e_iTasks.SDS.Sources.Core_d_f3.273 0
	buildh e_iTasks.SDS.Sources.Core_d_f2.272 0
	buildh e_Data.GenHash_dgHash__String;6 0
	buildAC "fileShare"
	buildAC "_core_"
	push_a 2
	update3pop_a 0 1
.d 6 0 
	jmp e_iTasks.Internal.SDS_screateReadWriteSDS
.export e_iTasks.SDS.Sources.Core_d_f3.273
.desc e_iTasks.SDS.Sources.Core_d_f3.273 _hnf l273 3 0 "_f3.273"
.a 3 ea273
.o 2 0 
l273
	push_args 0 2 2
	update_a 3 2
	create 
	put_a 4
.o 4 0 
ea273
.o 4 0 
s273
	push_jsr_eval 1
	put_a 2
	buildh e_iTasks.SDS.Sources.Core_dtoFile;25.26 0
.d 4 0 
	jsr s13
.o 2 0 
	fillh _Tuple 2 2
.d 1 0 
	rtn 
.export e_iTasks.SDS.Sources.Core_d_f2.272
.desc e_iTasks.SDS.Sources.Core_d_f2.272 _hnf l272 2 0 "_f2.272"
.a 2 ea272
.o 2 0 
l272
	push_args 0 1 1
	update_a 2 1
	create 
	put_a 3
.o 3 0 
ea272
.o 3 0 
s272
	push_jsr_eval 1
	push_jsr_eval 1
	push_array 0
	put_a 1
	update2_a 0 2
	pop_a 2
	buildh e_iTasks.SDS.Sources.Core_dfromFile;24.25 0
.d 3 0 
	jsr s12
.o 2 0 
	fillh _Tuple 2 2
.d 1 0 
	rtn 
.export e_iTasks.SDS.Sources.Core_dfileRead.12
.desc e_iTasks.SDS.Sources.Core_dfileRead.12 _hnf l12 3 0 "fileRead.12"
.a 0 a12
.o 2 0 
l12
	repl_args 2 2
.o 3 0 
a12
.d 3 0 
	jsr ea12
.o 2 0 
	buildh _Tuple 2
.d 1 0 
	rtn 
.o 3 0 
ea12
	jsr_eval 2
	jsr_eval 1
	push_array 1
	put_a 2
.o 3 0 
s12
	push_r_args_u 2 26 1
	pop_a 26
	pop_b 1
	push_r_arg_u 2 26 1 24 1 1 0
	pushI 3
.d 2 1 i
	push_a_jsr 2 e_StdFile_sfopen;32
.o 1 3 bf
	push_b 0
	jmp_true else.15
	push_a 0
	fill2_r e_iTasks.Internal.IWorld_rIWorld 26 1 4 0000000000000000000000001000
	push_a 3
	buildh _Nothing 0
	buildh e_Data.Error_dOk 1
	update2pop_a 0 4
.d 2 0 
	pop_b_rtn 3
else.15
.d 0 2 f
	pop_b_jsr 1 e_System.File_sreadAll
.o 1 2 f
	swap_a1 
.d 1 2 f
	jsr e_StdFile_sfclose;31
.o 1 1 b
	push_b 0
	jmp_true else.16
	push_a 0
	fill2_r e_iTasks.Internal.IWorld_rIWorld 26 1 5 0000000000000000000000001000
	push_a 4
	buildh e_System.File_dTD;FileError 0
	buildhr e__SystemDynamic_kTypeCons 1 0
	build e_iTasks.SDS.Sources.Core_d_f9.279 1 e_iTasks.SDS.Sources.Core_n_f9.279
	buildh e_Data.Error_dError 1
	update2pop_a 0 5
.d 2 0 
	pop_b_rtn 1
else.16
	push_update_a 1 4
	update_a 4 5
	updates3pop_a 0 1 3 4
.d 5 0 
	pop_b_jmp 1 s57
.export e_iTasks.SDS.Sources.Core_d_f9.279
.export e_iTasks.SDS.Sources.Core_n_f9.279
.descn e_iTasks.SDS.Sources.Core_d_f9.279 e_iTasks.SDS.Sources.Core_n_f9.279 1 0 "_f9.279"
.n 1 e_iTasks.SDS.Sources.Core_d_f9.279 ea279
.o 1 0 
e_iTasks.SDS.Sources.Core_n_f9.279
	push_node _cycle_in_spine 1
.o 2 0 
ea279
.o 2 0 
s279
	buildh e_System.File_dCannotClose 0
	buildh e_System.File_dtoString;11 0
	push_jsr_eval 2
	update3pop_a 0 1
.d 3 0 
	jsr e_iTasks.WF.Definition_sexception
.o 3 0 
	push_a 2
	buildh ARRAY 1
	build_r e__SystemDynamic_rDynamicTemp 2 0 1 0
	fillh _Tuple 2 5
.d 1 0 
	pop_a_rtn 3
.o 5 0 
s57
	jmp_ne_desc e_Data.Error_dError 1 0 case.18
	repl_args 1 1
	push_a 2
	fill2_r e_iTasks.Internal.IWorld_rIWorld 26 1 2 0000000000000000000000001000
	push_a 1
	buildh e_System.File_dTD;FileError 0
	buildhr e__SystemDynamic_kTypeCons 1 0
	push_update_a 0 2
	build e_iTasks.SDS.Sources.Core_d_f10.280 2 e_iTasks.SDS.Sources.Core_n_f10.280
	buildh e_Data.Error_dError 1
	update2pop_a 0 5
.d 2 0 
	rtn 
case.18
	repl_args 1 1
	push_a2 0 3
	jsr_eval 0
	push_a 6
	buildh ARRAY 1
	update2_a 4 6
	update_a 2 5
	dup_a 4
	updatepop_a 1 3
	jsr_ap 2
.d 3 0 
	jmp s56
.export e_iTasks.SDS.Sources.Core_d_f10.280
.export e_iTasks.SDS.Sources.Core_n_f10.280
.descn e_iTasks.SDS.Sources.Core_d_f10.280 e_iTasks.SDS.Sources.Core_n_f10.280 2 0 "_f10.280"
.n 2 e_iTasks.SDS.Sources.Core_d_f10.280 ea280
.o 1 0 
e_iTasks.SDS.Sources.Core_n_f10.280
	push_node _cycle_in_spine 2
.o 3 0 
ea280
.o 3 0 
s280
	push_jsr_eval 1
	buildh e_System.File_dtoString;11 0
	push_jsr_eval 2
	update3pop_a 0 2
.d 3 0 
	jsr e_iTasks.WF.Definition_sexception
.o 3 0 
	push_a 2
	buildh ARRAY 1
	build_r e__SystemDynamic_rDynamicTemp 2 0 1 0
	fillh _Tuple 2 5
.d 1 0 
	pop_a_rtn 3
.o 3 0 
s56
	jmp_ne_desc e_Data.Error_dOk 1 0 case.20
	repl_args 1 1
	push_a 2
	fill2_r e_iTasks.Internal.IWorld_rIWorld 26 1 2 0000000000000000000000001000
	push2_a 1
	build _Justs 1 n_Justs
	buildh e_Data.Error_dOk 1
	update2pop_a 0 3
.d 2 0 
	rtn 
case.20
	repl_args 1 1
	push_a 2
	fill2_r e_iTasks.Internal.IWorld_rIWorld 26 1 2 0000000000000000000000001000
	push2_a 1
	buildh e_Data.Error_dError 1
	update2pop_a 0 3
.d 2 0 
	rtn 
.export e_iTasks.SDS.Sources.Core_dfromFile;24.25
.desc e_iTasks.SDS.Sources.Core_dfromFile;24.25 _hnf l25 2 0 "fromFile;24.25"
.a 2 ea25
.o 2 0 
l25
	push_args 0 1 1
	update_a 2 1
	create 
	put_a 3
.o 3 0 
ea25
.o 3 0 
s25
	push_a 1
	fillh e_Data.Error_dOk 1 3
.d 1 0 
	pop_a_rtn 2
.export e_iTasks.SDS.Sources.Core_dfileWrite.13
.desc e_iTasks.SDS.Sources.Core_dfileWrite.13 _hnf l13 4 0 "fileWrite.13"
.a 0 a13
.o 2 0 
l13
	repl_args 3 3
.o 4 0 
a13
.d 4 0 
	jsr ea13
.o 2 0 
	buildh _Tuple 2
.d 1 0 
	rtn 
.o 4 0 
ea13
	jsr_eval 2
.o 4 0 
s13
	jmp_ne_desc _Just 1 2 case.22
	push_args 2 1 1
	buildh0_put_a _Nil 4
	jsr_eval 4
	push_r_args_u 4 26 1
	update_a 23 25
	updatepop_a 28 24
	pop_b 1
	jsr_eval 0
	push_array 0
	put_a 1
	pushI 4
.d 2 1 i
	jsr e_StdFile_sfopen;32
.o 1 3 bf
	jmp_b_false 0 else.23
	push_a 0
	fill2_r e_iTasks.Internal.IWorld_rIWorld 26 1 6 0000000000000000000000001000
	push_a2 5 2
	jsr_eval 0
	pop_b 1
	update_a 1 7
	update_a 3 6
	updatepop_a 0 4
.d 4 2 f
	jmp s43
else.23
	push_b 0
	jmp_true else.24
	push_a 0
	push_array 4
	update2pop_a 0 1
.d 2 0 
	jsr s14
.o 1 1 b
	push_b 0
	jmp_true else.25
	push_a2 0 5
	build e_iTasks.SDS.Sources.Core_d_upd0.286 2 e_iTasks.SDS.Sources.Core_n_upd0.286
	buildh e_System.File_dTD;FileError 0
	buildhr e__SystemDynamic_kTypeCons 1 0
	build e_iTasks.SDS.Sources.Core_d_f11.281 1 e_iTasks.SDS.Sources.Core_n_f11.281
	buildh e_Data.Error_dError 1
	update2pop_a 0 6
.d 2 0 
	pop_b_rtn 4
else.25
	jsr_eval 0
	push_a 0
	pushI 4
	push_array 4
	put_b 1
	update2pop_a 0 1
.d 2 1 i
	jsr e_StdFile_sfopen;32
.o 1 3 bf
	jmp_b_false 0 else.26
	push_a 0
	fill2_r e_iTasks.Internal.IWorld_rIWorld 26 1 6 0000000000000000000000001000
	push_a2 5 2
	jsr_eval 0
	update2pop_b 1 4
	update_a 1 7
	update_a 3 6
	updatepop_a 0 4
.d 4 2 f
	jmp s43
else.26
	push_a 0
	fill2_r e_iTasks.Internal.IWorld_rIWorld 26 1 6 0000000000000000000000001000
	push_a 5
	buildh e_System.File_dTD;FileError 0
	buildhr e__SystemDynamic_kTypeCons 1 0
	build e_iTasks.SDS.Sources.Core_d_f12.282 1 e_iTasks.SDS.Sources.Core_n_f12.282
	buildh e_Data.Error_dError 1
	update2pop_a 0 6
.d 2 0 
	pop_b_rtn 6
else.24
	pop_b 3
	pop_a_jmp 2 s13.1
case.22
	buildh e__SystemDynamic_dTC_Char 0
	buildhr e__SystemDynamic_kTypeCons 1 0
	buildh e__SystemDynamic_dTC__UnboxedArray 0
	buildhr e__SystemDynamic_kTypeCons 1 0
	buildhr e__SystemDynamic_kTypeApp 2 0
	build e_iTasks.SDS.Sources.Core_d_f13.283 1 e_iTasks.SDS.Sources.Core_n_f13.283
	buildh e_Data.Error_dError 1
	updatepop_a 0 3
.d 2 0 
	rtn 
s13.1
	pushD m_iTasks.SDS.Sources.Core
	pushD e_iTasks.SDS.Sources.Core_dfileWrite.13
.d 0 2 ii
	pop_a_jmp 4 _match_error
.export e_iTasks.SDS.Sources.Core_d_upd0.286
.export e_iTasks.SDS.Sources.Core_n_upd0.286
.descn e_iTasks.SDS.Sources.Core_d_upd0.286 e_iTasks.SDS.Sources.Core_n_upd0.286 2 0 "_upd0.286"
.n 2 e_iTasks.SDS.Sources.Core_d_upd0.286 ea286
.o 1 0 
e_iTasks.SDS.Sources.Core_n_upd0.286
	push_node _cycle_in_spine 2
.o 3 0 
ea286
	jsr_eval 0
.o 3 0 
s286
	push_jsr_eval 1
	push_r_args 1 26 1
	update_a 26 23
	fill_r e_iTasks.Internal.IWorld_rIWorld 26 1 29 0 0
.d 1 0 
	pop_ab_rtn 29 1
.export e_iTasks.SDS.Sources.Core_d_f13.283
.export e_iTasks.SDS.Sources.Core_n_f13.283
.descn e_iTasks.SDS.Sources.Core_d_f13.283 e_iTasks.SDS.Sources.Core_n_f13.283 1 0 "_f13.283"
.n 1 e_iTasks.SDS.Sources.Core_d_f13.283 ea283
.o 1 0 
e_iTasks.SDS.Sources.Core_n_f13.283
	push_node _cycle_in_spine 1
.o 2 0 
ea283
.o 2 0 
s283
	buildh e_StdString_dtoString;9 0
	push_jsr_eval 1
	buildAC "Removing files through fileShare SDS not yet supported"
	buildh ARRAY 1
	put_a 3
.d 3 0 
	jsr e_iTasks.WF.Definition_sexception
.o 3 0 
	push_a 2
	buildh ARRAY 1
	build_r e__SystemDynamic_rDynamicTemp 2 0 1 0
	fillh _Tuple 2 5
.d 1 0 
	pop_a_rtn 3
.export e_iTasks.SDS.Sources.Core_d_f12.282
.export e_iTasks.SDS.Sources.Core_n_f12.282
.descn e_iTasks.SDS.Sources.Core_d_f12.282 e_iTasks.SDS.Sources.Core_n_f12.282 1 0 "_f12.282"
.n 1 e_iTasks.SDS.Sources.Core_d_f12.282 ea282
.o 1 0 
e_iTasks.SDS.Sources.Core_n_f12.282
	push_node _cycle_in_spine 1
.o 2 0 
ea282
.o 2 0 
s282
	buildh e_System.File_dCannotOpen 0
	buildh e_System.File_dtoString;11 0
	push_jsr_eval 2
	update3pop_a 0 1
.d 3 0 
	jsr e_iTasks.WF.Definition_sexception
.o 3 0 
	push_a 2
	buildh ARRAY 1
	build_r e__SystemDynamic_rDynamicTemp 2 0 1 0
	fillh _Tuple 2 5
.d 1 0 
	pop_a_rtn 3
.export e_iTasks.SDS.Sources.Core_d_f11.281
.export e_iTasks.SDS.Sources.Core_n_f11.281
.descn e_iTasks.SDS.Sources.Core_d_f11.281 e_iTasks.SDS.Sources.Core_n_f11.281 1 0 "_f11.281"
.n 1 e_iTasks.SDS.Sources.Core_d_f11.281 ea281
.o 1 0 
e_iTasks.SDS.Sources.Core_n_f11.281
	push_node _cycle_in_spine 1
.o 2 0 
ea281
.o 2 0 
s281
	buildh e_System.File_dCannotOpen 0
	buildh e_System.File_dtoString;11 0
	push_jsr_eval 2
	update3pop_a 0 1
.d 3 0 
	jsr e_iTasks.WF.Definition_sexception
.o 3 0 
	push_a 2
	buildh ARRAY 1
	build_r e__SystemDynamic_rDynamicTemp 2 0 1 0
	fillh _Tuple 2 5
.d 1 0 
	pop_a_rtn 3
.o 4 2 f
s43
	push_r_args_u 3 26 1
	update2_a 26 24
	updates3_a 23 27 28 26
	pop_a 24
	pop_b 1
	jsr_ap 2
	push_array 0
	put_a 1
.d 1 2 f
	jsr writeFS
.o 0 2 f
.d 1 2 f
	jsr e_StdFile_sfclose;31
.o 1 1 b
	push_b 0
	jmp_true else.27
	push_a 0
	fill2_r e_iTasks.Internal.IWorld_rIWorld 26 1 3 0000000000000000000000001000
	push_a 2
	buildh e_System.File_dTD;FileError 0
	buildhr e__SystemDynamic_kTypeCons 1 0
	build e_iTasks.SDS.Sources.Core_d_f14.284 1 e_iTasks.SDS.Sources.Core_n_f14.284
	buildh e_Data.Error_dError 1
	update2pop_a 0 3
.d 2 0 
	pop_b_rtn 1
else.27
	push_a 0
	fill2_r e_iTasks.Internal.IWorld_rIWorld 26 1 3 0000000000000000000000001000
	push2_a 2
	buildh e_StdString_d==;2 1
	buildh e_StdFunctions_dconst 1
	buildh e_Data.Error_dOk 1
	update2pop_a 0 3
.d 2 0 
	pop_b_rtn 1
.export e_iTasks.SDS.Sources.Core_d_f14.284
.export e_iTasks.SDS.Sources.Core_n_f14.284
.descn e_iTasks.SDS.Sources.Core_d_f14.284 e_iTasks.SDS.Sources.Core_n_f14.284 1 0 "_f14.284"
.n 1 e_iTasks.SDS.Sources.Core_d_f14.284 ea284
.o 1 0 
e_iTasks.SDS.Sources.Core_n_f14.284
	push_node _cycle_in_spine 1
.o 2 0 
ea284
.o 2 0 
s284
	buildh e_System.File_dCannotClose 0
	buildh e_System.File_dtoString;11 0
	push_jsr_eval 2
	update3pop_a 0 1
.d 3 0 
	jsr e_iTasks.WF.Definition_sexception
.o 3 0 
	push_a 2
	buildh ARRAY 1
	build_r e__SystemDynamic_rDynamicTemp 2 0 1 0
	fillh _Tuple 2 5
.d 1 0 
	pop_a_rtn 3
.o 2 0 
s14
.d 0 0 
	jsr e_System.FilePath_spathSeparator
.o 0 1 c
	pushI 1
	create_array_ CHAR 0 1
	pushI 0
	update CHAR 0 1
	create 
	push_a 1
	updates3pop_a 0 1 3 2
.d 3 0 
	jsr e_Text_ssplit;16
.o 1 0 
	eq_desc _Cons 2 0
	exit_false selector_m_error
	repl_args 2 2
	jsr_eval 1
	buildh _Nil 0
	push_a 1
	buildh _Cons 2
.d 3 0 
	put_a_jmp 1 s269
.export e_iTasks.SDS.Sources.Core_dtoFile;25.26
.desc e_iTasks.SDS.Sources.Core_dtoFile;25.26 _hnf l26 2 0 "toFile;25.26"
.a 0 ea26
.o 2 0 
l26
	repl_args 1 1
.o 2 0 
ea26
	jsr_eval 1
.o 2 0 
s26
.d 1 0 
	pop_a_rtn 1
.export e_iTasks.SDS.Sources.Core_smemoryShare
.export e_iTasks.SDS.Sources.Core_eamemoryShare
.descexp e_iTasks.SDS.Sources.Core_dmemoryShare e_iTasks.SDS.Sources.Core_nmemoryShare e_iTasks.SDS.Sources.Core_lmemoryShare 1 0 "memoryShare"
.o 2 0 
e_iTasks.SDS.Sources.Core_lmemoryShare
	update_a 1 0
	create 
.d 2 0 
	put_a_jmp 2 e_iTasks.SDS.Sources.Core_eamemoryShare
.n 1 e_iTasks.SDS.Sources.Core_dmemoryShare e_iTasks.SDS.Sources.Core_eamemoryShare
.o 1 0 
e_iTasks.SDS.Sources.Core_nmemoryShare
	push_node _cycle_in_spine 1
.o 2 0 
e_iTasks.SDS.Sources.Core_eamemoryShare
	jsr_eval 0
.o 2 0 
e_iTasks.SDS.Sources.Core_smemoryShare
.o 2 0 
s7
	push_a 0
	buildh e_iTasks.SDS.Sources.Core_dwrite;23.24 1
	push_a 1
	buildh e_iTasks.SDS.Sources.Core_dread;22.23 1
	buildh e_Data.GenHash_dgHash__String;6 0
	buildAC "memoryShare"
	buildAC "_core_"
	updates4_a 2 1 3 4 5
.d 6 0 
	put_a_jmp 2 e_iTasks.Internal.SDS_screateReadWriteSDS
.export e_iTasks.SDS.Sources.Core_dread;22.23
.desc e_iTasks.SDS.Sources.Core_dread;22.23 _hnf l23 3 0 "read;22.23"
.a 0 a23
.o 2 0 
l23
	repl_args 2 2
.o 3 0 
a23
.d 3 0 
	jsr ea23
.o 2 0 
	buildh _Tuple 2
.d 1 0 
	rtn 
.o 3 0 
ea23
	jsr_eval 2
.o 3 0 
s23
	push_r_args 2 26 1
	updatepop_a 8 25
	pop_b 1
	create 
	push_a2 3 1
	updates2_a 0 2 3
.d 3 0 
	pop_a_jsr 1 s42
.o 1 0 
	exchange_a 3 2
s55
	jmp_ne_desc _Just 1 0 case.29
	push_args 0 1 1
	push_a 1
	push3_a 5
	push_r_args 4 2 0
	update3_a 3 8
	update3pop_a 0 5
.d 6 0 
	jmp s54
case.29
	updates2pop_a 0 2 3
.d 2 0 
	jmp s53
.o 6 0 
s54
	jmp case.30
case.30
	pushI 0
	buildhr e__SystemDynamic_kTypeVar 0 1
	push_jsr_eval 2
	create 
	pushI 0
	pushI 1
	buildh0_dup_a _Nil 9
	put_a 5
.d 1 2 ii
	jsr e__SystemDynamic_s_initial_unification_environment
.o 1 0 
	pushI 0
	buildhr e__SystemDynamic_kTypeVar 0 1
	create 
	push_update_a 1 2
	updates2_a 8 1 3
.d 4 0 
	buildh0_put_a_jsr _Nil 9 e__SystemDynamic_s_bind_global_type_pattern_var
.o 1 0 
	update_a 3 5
	update3pop_a 0 2
.d 3 0 
	jsr e__SystemDynamic_s_unify
.o 1 1 b
	jmp_b_false 0 else.32
	buildo1 n_Justs 1
	buildh e_Data.Error_dOk 1
	update_a 3 5
	updatepop_a 0 4
.d 2 0 
	pop_b_rtn 1
else.32
	push_a 3
	buildAC "Read shared memory with incorrect type "
	buildh ARRAY 1
	build e_StdString_d+++;11 2 e_StdString_n+++;11
	buildh e__SystemDynamic_dTC_Char 0
	buildhr e__SystemDynamic_kTypeCons 1 0
	buildh e__SystemDynamic_dTC__UnboxedArray 0
	buildhr e__SystemDynamic_kTypeCons 1 0
	buildhr e__SystemDynamic_kTypeApp 2 0
	build e_iTasks.SDS.Sources.Core_d_f6.276 2 e_iTasks.SDS.Sources.Core_n_f6.276
	buildh e_Data.Error_dError 1
	update_a 3 5
	updatepop_a 0 4
.d 2 0 
	pop_b_rtn 1
case.31
	updates2_a 3 5 4
.d 2 0 
	pop_a_jmp 4 s53
.export e_iTasks.SDS.Sources.Core_d_f6.276
.export e_iTasks.SDS.Sources.Core_n_f6.276
.descn e_iTasks.SDS.Sources.Core_d_f6.276 e_iTasks.SDS.Sources.Core_n_f6.276 2 0 "_f6.276"
.n 2 e_iTasks.SDS.Sources.Core_d_f6.276 ea276
.o 1 0 
e_iTasks.SDS.Sources.Core_n_f6.276
	push_node _cycle_in_spine 2
.o 3 0 
ea276
.o 3 0 
s276
	push_jsr_eval 1
	buildh e_StdString_dtoString;9 0
	push_jsr_eval 2
	update3pop_a 0 2
.d 3 0 
	jsr e_iTasks.WF.Definition_sexception
.o 3 0 
	push_a 2
	buildh ARRAY 1
	build_r e__SystemDynamic_rDynamicTemp 2 0 1 0
	fillh _Tuple 2 5
.d 1 0 
	pop_a_rtn 3
.o 2 0 
s53
	jmp_ne_desc _Nothing 0 0 s53.1
	buildh _Nothing 0
	buildh e_Data.Error_dOk 1
	put_a 1
.d 2 0 
	rtn 
s53.1
	pushD m_iTasks.SDS.Sources.Core
	pushD x_53
.d 0 2 ii
	pop_a_jmp 2 _match_error
.string x_53 "<case>[line:55];11;547"
.o 3 0 
s42
	jmp_ne_desc e_Data.Map_kBin 0 1 case.35
	push_r_args 1 4 1
	buildh _Nil 0
	updates2_a 5 0 6
	pop_b 1
	jsr_eval 0
	push_array 0
	put_a 1
	push_array 1
	swap_a1 
.d 2 0 
	jsr cmpAC
.o 0 1 i
	pushI 0
	gtI
	jmp_false else.36
	update_a 2 5
.d 3 0 
	pop_a_jmp 4 s42
else.36
	push_array 4
	push_array 1
	update_a 3 4
	update2pop_a 0 2
.d 2 0 
	jsr cmpAC
.o 0 1 i
	pushI 0
	gtI
	jmp_false else.37
	update_a 1 3
.d 3 0 
	pop_a_jmp 2 s42
else.37
	push_a 0
	fillh _Just 1 5
.d 1 0 
	pop_a_rtn 4
case.35
	fillh _Nothing 0 2
.d 1 0 
	pop_a_rtn 2
.export e_iTasks.SDS.Sources.Core_dwrite;23.24
.desc e_iTasks.SDS.Sources.Core_dwrite;23.24 _hnf l24 4 0 "write;23.24"
.a 0 a24
.o 2 0 
l24
	repl_args 3 3
.o 4 0 
a24
.d 4 0 
	jsr ea24
.o 2 0 
	buildh _Tuple 2
.d 1 0 
	rtn 
.o 4 0 
ea24
	jsr_eval 3
	jsr_eval 2
.o 4 0 
s24
	jmp_ne_desc _Just 1 2 case.39
	push_args 2 1 1
	push_update_a 4 3
	update_a 2 4
	updates3pop_a 0 1 3 2
.d 5 0 
	jmp s52
case.39
	push_a 2
	updates3pop_a 0 2 4 3
.d 3 0 
	jmp s51
.o 5 0 
s52
	jmp case.40
case.40
	push_r_args_u 0 26 1
	updatepop_a 8 25
	pop_b 1
	pushI 0
	buildhr e__SystemDynamic_kTypeVar 0 1
	buildI 0
	buildI 1
	build e__SystemDynamic_d_initial_unification_environment 2 e__SystemDynamic_n_initial_unification_environment
	pushI 0
	buildhr e__SystemDynamic_kTypeVar 0 1
	push_update_a 0 7
	build e__SystemDynamic_d_bind_global_type_pattern_var 3 e__SystemDynamic_n_bind_global_type_pattern_var
	build e__SystemDynamic_d_normalise 2 e__SystemDynamic_n_normalise
	push_a 4
	buildhr e__SystemDynamic_rDynamicTemp 2 0
	push_a2 0 3
	update_a 3 2
	build e_Data.Map_dput;48 3 e_Data.Map_nput;48
	push_a 2
	build e_iTasks.SDS.Sources.Core_d_upd1.287 2 e_iTasks.SDS.Sources.Core_n_upd1.287
	push_a 3
	buildh e_iTasks.SDS.Sources.Core_d\;61;16;534.40 1
	buildh e_Data.Error_dOk 1
	update2pop_a 0 6
.d 2 0 
	rtn 
case.41
	dup_a 3
	updates2_a 1 4 2
.d 3 0 
	pop_a_jmp 2 s51
.export e_iTasks.SDS.Sources.Core_d_upd1.287
.export e_iTasks.SDS.Sources.Core_n_upd1.287
.descn e_iTasks.SDS.Sources.Core_d_upd1.287 e_iTasks.SDS.Sources.Core_n_upd1.287 2 0 "_upd1.287"
.n 2 e_iTasks.SDS.Sources.Core_d_upd1.287 ea287
.o 1 0 
e_iTasks.SDS.Sources.Core_n_upd1.287
	push_node _cycle_in_spine 2
.o 3 0 
ea287
.o 3 0 
s287
	push_jsr_eval 1
	push_r_args 1 26 1
	update_a 26 8
	fill_r e_iTasks.Internal.IWorld_rIWorld 26 1 29 0 0
.d 1 0 
	pop_ab_rtn 29 1
.o 3 0 
s51
	jmp_ne_desc _Nothing 0 0 s51.1
	push_r_args_u 1 26 1
	update_a 8 25
	update_a 8 24
	updatepop_a 28 23
	pop_b 1
	build e_Data.Map_ddel;52 2 e_Data.Map_ndel;52
	push_a 3
	build e_iTasks.SDS.Sources.Core_d_upd2.288 2 e_iTasks.SDS.Sources.Core_n_upd2.288
	push_a 4
	buildh e_iTasks.SDS.Sources.Core_d\;63;16;535.41 1
	buildh e_Data.Error_dOk 1
	update2pop_a 0 4
.d 2 0 
	rtn 
s51.1
	pushD m_iTasks.SDS.Sources.Core
	pushD x_51
.d 0 2 ii
	pop_a_jmp 3 _match_error
.string x_51 "_f545;545"
.export e_iTasks.SDS.Sources.Core_d_upd2.288
.export e_iTasks.SDS.Sources.Core_n_upd2.288
.descn e_iTasks.SDS.Sources.Core_d_upd2.288 e_iTasks.SDS.Sources.Core_n_upd2.288 2 0 "_upd2.288"
.n 2 e_iTasks.SDS.Sources.Core_d_upd2.288 ea288
.o 1 0 
e_iTasks.SDS.Sources.Core_n_upd2.288
	push_node _cycle_in_spine 2
.o 3 0 
ea288
.o 3 0 
s288
	push_jsr_eval 1
	push_r_args 1 26 1
	update_a 26 8
	fill_r e_iTasks.Internal.IWorld_rIWorld 26 1 29 0 0
.d 1 0 
	pop_ab_rtn 29 1
.export e_iTasks.SDS.Sources.Core_d\;61;16;534.40
.desc e_iTasks.SDS.Sources.Core_d\;61;16;534.40 _hnf l40 3 0 "\;61;16;534.40"
.a 0 a40
.o 2 0 
l40
	repl_args 2 2
.o 3 0 
a40
.d 3 0 
	jsr ea40
.o 0 1 b
	buildB_b 0
.d 1 0 
	pop_b_rtn 1
.o 3 0 
ea40
	jsr_eval 2
	jsr_eval 0
	push_array 2
	push_array 1
	update_a 1 4
	updatepop_a 0 2
.o 3 0 
s40
	updates2_a 0 2 1
.d 2 0 
	pop_a_jsr 1 eqAC
.o 0 1 b
.d 0 1 b
	rtn 
.export e_iTasks.SDS.Sources.Core_d\;63;16;535.41
.desc e_iTasks.SDS.Sources.Core_d\;63;16;535.41 _hnf l41 3 0 "\;63;16;535.41"
.a 0 a41
.o 2 0 
l41
	repl_args 2 2
.o 3 0 
a41
.d 3 0 
	jsr ea41
.o 0 1 b
	buildB_b 0
.d 1 0 
	pop_b_rtn 1
.o 3 0 
ea41
	jsr_eval 2
	jsr_eval 0
	push_array 2
	push_array 1
	update_a 1 4
	updatepop_a 0 2
.o 3 0 
s41
	updates2_a 0 2 1
.d 2 0 
	pop_a_jsr 1 eqAC
.o 0 1 b
.d 0 1 b
	rtn 
.export e_iTasks.SDS.Sources.Core_sworldShare
.export e_iTasks.SDS.Sources.Core_eaworldShare
.descexp e_iTasks.SDS.Sources.Core_dworldShare e_iTasks.SDS.Sources.Core_nworldShare e_iTasks.SDS.Sources.Core_lworldShare 4 0 "worldShare"
.a 4 e_iTasks.SDS.Sources.Core_eaworldShare
.o 2 0 
e_iTasks.SDS.Sources.Core_lworldShare
	push_args 0 3 3
	update_a 4 3
	create 
.d 5 0 
	put_a_jmp 5 e_iTasks.SDS.Sources.Core_eaworldShare
.n 4 e_iTasks.SDS.Sources.Core_dworldShare e_iTasks.SDS.Sources.Core_eaworldShare
.o 1 0 
e_iTasks.SDS.Sources.Core_nworldShare
	push_node _cycle_in_spine 4
.o 5 0 
e_iTasks.SDS.Sources.Core_eaworldShare
	jsr_eval 0
	repl_r_args 1 0
.o 5 0 
e_iTasks.SDS.Sources.Core_sworldShare
.o 5 0 
s6
	buildh e__SystemDynamic_dTC_Char 0
	buildhr e__SystemDynamic_kTypeCons 1 0
	buildh e__SystemDynamic_dTC__UnboxedArray 0
	buildhr e__SystemDynamic_kTypeCons 1 0
	buildhr e__SystemDynamic_kTypeApp 2 0
	push_a2 4 0
	update_a 5 2
	buildh e_iTasks.SDS.Sources.Core_dwrite`;533.39 3
	buildh e__SystemDynamic_dTC_Char 0
	buildhr e__SystemDynamic_kTypeCons 1 0
	buildh e__SystemDynamic_dTC__UnboxedArray 0
	buildhr e__SystemDynamic_kTypeCons 1 0
	buildhr e__SystemDynamic_kTypeApp 2 0
	push_update_a 0 3
	buildh e_iTasks.SDS.Sources.Core_dread`;532.38 2
	buildAC "worldShare"
	buildAC "_core_"
	update3_a 1 5
	updates2_a 0 4 3
.d 6 0 
	pop_a_jmp 3 e_iTasks.Internal.SDS_screateReadWriteSDS
.export e_iTasks.SDS.Sources.Core_dread`;532.38
.desc e_iTasks.SDS.Sources.Core_dread`;532.38 _hnf l38 4 0 "read`;532.38"
.a 0 a38
.o 2 0 
l38
	repl_args 3 3
.o 4 0 
a38
.d 4 0 
	jsr ea38
.o 2 0 
	buildh _Tuple 2
.d 1 0 
	rtn 
.o 4 0 
ea38
	jsr_eval 3
	jsr_eval 1
.o 4 0 
s38
	push_r_args 3 26 1
	updates2_a 23 27 25
	exchange_a 28 26
	pop_a 25
	pop_b 1
	jsr_ap 2
	repl_args 2 2
	jsr_eval 0
	exchange_a 3 2
s50
	jmp_ne_desc e_Data.Error_dOk 1 0 case.44
	repl_args 1 1
	push_a2 1 2
	build e_iTasks.SDS.Sources.Core_d_upd3.289 2 e_iTasks.SDS.Sources.Core_n_upd3.289
	push_a 1
	buildh e_Data.Error_dOk 1
	update2pop_a 0 4
.d 2 0 
	rtn 
case.44
	repl_args 1 1
	push_a2 1 2
	build e_iTasks.SDS.Sources.Core_d_upd4.290 2 e_iTasks.SDS.Sources.Core_n_upd4.290
	push_a2 1 4
	build e_iTasks.SDS.Sources.Core_d_f5.275 2 e_iTasks.SDS.Sources.Core_n_f5.275
	buildh e_Data.Error_dError 1
	update2pop_a 0 4
.d 2 0 
	rtn 
.export e_iTasks.SDS.Sources.Core_d_upd3.289
.export e_iTasks.SDS.Sources.Core_n_upd3.289
.descn e_iTasks.SDS.Sources.Core_d_upd3.289 e_iTasks.SDS.Sources.Core_n_upd3.289 2 0 "_upd3.289"
.n 2 e_iTasks.SDS.Sources.Core_d_upd3.289 ea289
.o 1 0 
e_iTasks.SDS.Sources.Core_n_upd3.289
	push_node _cycle_in_spine 2
.o 3 0 
ea289
.o 3 0 
s289
	push_jsr_eval 1
	push_r_args 1 26 1
	update_a 26 23
	fill_r e_iTasks.Internal.IWorld_rIWorld 26 1 29 0 0
.d 1 0 
	pop_ab_rtn 29 1
.export e_iTasks.SDS.Sources.Core_d_upd4.290
.export e_iTasks.SDS.Sources.Core_n_upd4.290
.descn e_iTasks.SDS.Sources.Core_d_upd4.290 e_iTasks.SDS.Sources.Core_n_upd4.290 2 0 "_upd4.290"
.n 2 e_iTasks.SDS.Sources.Core_d_upd4.290 ea290
.o 1 0 
e_iTasks.SDS.Sources.Core_n_upd4.290
	push_node _cycle_in_spine 2
.o 3 0 
ea290
.o 3 0 
s290
	push_jsr_eval 1
	push_r_args 1 26 1
	update_a 26 23
	fill_r e_iTasks.Internal.IWorld_rIWorld 26 1 29 0 0
.d 1 0 
	pop_ab_rtn 29 1
.export e_iTasks.SDS.Sources.Core_d_f5.275
.export e_iTasks.SDS.Sources.Core_n_f5.275
.descn e_iTasks.SDS.Sources.Core_d_f5.275 e_iTasks.SDS.Sources.Core_n_f5.275 2 0 "_f5.275"
.n 2 e_iTasks.SDS.Sources.Core_d_f5.275 ea275
.o 1 0 
e_iTasks.SDS.Sources.Core_n_f5.275
	push_node _cycle_in_spine 2
.o 3 0 
ea275
.o 3 0 
s275
	push_jsr_eval 1
	updates2_a 1 0 2
.d 3 0 
	buildh0_put_a_jsr e_StdString_dtoString;9 2 e_iTasks.WF.Definition_sexception
.o 3 0 
	push_a 2
	buildh ARRAY 1
	build_r e__SystemDynamic_rDynamicTemp 2 0 1 0
	fillh _Tuple 2 5
.d 1 0 
	pop_a_rtn 3
.export e_iTasks.SDS.Sources.Core_dwrite`;533.39
.desc e_iTasks.SDS.Sources.Core_dwrite`;533.39 _hnf l39 6 0 "write`;533.39"
.a 0 a39
.o 2 0 
l39
	repl_args 5 5
.o 6 0 
a39
.d 6 0 
	jsr ea39
.o 2 0 
	buildh _Tuple 2
.d 1 0 
	rtn 
.o 6 0 
ea39
	jsr_eval 5
	jsr_eval 2
.o 6 0 
s39
	push_r_args 5 26 1
	update_a 23 25
	update3pop_a 28 22
	pop_b 1
	buildh0_dup_a _Nil 9
	put_a 7
	jsr_ap 3
	repl_args 2 2
	jsr_eval 0
	updates2_a 2 7 6
	update_a 3 4
	update2pop_a 0 2
s49
	jmp_ne_desc e_Data.Error_dOk 1 0 case.46
	repl_args 1 1
	jsr_eval 0
	push_a2 1 4
	build e_iTasks.SDS.Sources.Core_d_upd5.291 2 e_iTasks.SDS.Sources.Core_n_upd5.291
	push2_a 4
	build e_system_dAP 2 e_system_nAP
	buildh e_Data.Error_dOk 1
	update2pop_a 0 6
.d 2 0 
	rtn 
case.46
	repl_args 1 1
	push_a2 1 4
	build e_iTasks.SDS.Sources.Core_d_upd6.292 2 e_iTasks.SDS.Sources.Core_n_upd6.292
	push_a2 1 6
	build e_iTasks.SDS.Sources.Core_d_f4.274 2 e_iTasks.SDS.Sources.Core_n_f4.274
	buildh e_Data.Error_dError 1
	update2pop_a 0 6
.d 2 0 
	rtn 
.export e_iTasks.SDS.Sources.Core_d_upd5.291
.export e_iTasks.SDS.Sources.Core_n_upd5.291
.descn e_iTasks.SDS.Sources.Core_d_upd5.291 e_iTasks.SDS.Sources.Core_n_upd5.291 2 0 "_upd5.291"
.n 2 e_iTasks.SDS.Sources.Core_d_upd5.291 ea291
.o 1 0 
e_iTasks.SDS.Sources.Core_n_upd5.291
	push_node _cycle_in_spine 2
.o 3 0 
ea291
.o 3 0 
s291
	push_jsr_eval 1
	push_r_args 1 26 1
	update_a 26 23
	fill_r e_iTasks.Internal.IWorld_rIWorld 26 1 29 0 0
.d 1 0 
	pop_ab_rtn 29 1
.export e_iTasks.SDS.Sources.Core_d_upd6.292
.export e_iTasks.SDS.Sources.Core_n_upd6.292
.descn e_iTasks.SDS.Sources.Core_d_upd6.292 e_iTasks.SDS.Sources.Core_n_upd6.292 2 0 "_upd6.292"
.n 2 e_iTasks.SDS.Sources.Core_d_upd6.292 ea292
.o 1 0 
e_iTasks.SDS.Sources.Core_n_upd6.292
	push_node _cycle_in_spine 2
.o 3 0 
ea292
.o 3 0 
s292
	push_jsr_eval 1
	push_r_args 1 26 1
	update_a 26 23
	fill_r e_iTasks.Internal.IWorld_rIWorld 26 1 29 0 0
.d 1 0 
	pop_ab_rtn 29 1
.export e_iTasks.SDS.Sources.Core_d_f4.274
.export e_iTasks.SDS.Sources.Core_n_f4.274
.descn e_iTasks.SDS.Sources.Core_d_f4.274 e_iTasks.SDS.Sources.Core_n_f4.274 2 0 "_f4.274"
.n 2 e_iTasks.SDS.Sources.Core_d_f4.274 ea274
.o 1 0 
e_iTasks.SDS.Sources.Core_n_f4.274
	push_node _cycle_in_spine 2
.o 3 0 
ea274
.o 3 0 
s274
	push_jsr_eval 1
	updates2_a 1 0 2
.d 3 0 
	buildh0_put_a_jsr e_StdString_dtoString;9 2 e_iTasks.WF.Definition_sexception
.o 3 0 
	push_a 2
	buildh ARRAY 1
	build_r e__SystemDynamic_rDynamicTemp 2 0 1 0
	fillh _Tuple 2 5
.d 1 0 
	pop_a_rtn 3
.export e_iTasks.SDS.Sources.Core_srandomString
.export e_iTasks.SDS.Sources.Core_earandomString
.descexp e_iTasks.SDS.Sources.Core_drandomString e_iTasks.SDS.Sources.Core_nrandomString e_iTasks.SDS.Sources.Core_lrandomString 0 0 "randomString"
.o 1 0 
e_iTasks.SDS.Sources.Core_lrandomString
	halt
.n 0 e_iTasks.SDS.Sources.Core_drandomString e_iTasks.SDS.Sources.Core_earandomString
.o 1 0 
e_iTasks.SDS.Sources.Core_nrandomString
	push_node _cycle_in_spine 0
.o 1 0 
e_iTasks.SDS.Sources.Core_earandomString
.o 1 0 
e_iTasks.SDS.Sources.Core_srandomString
.o 1 0 
s5
	testcaf vrandomString
	jmp_false m.47
	pushcaf vrandomString 1 0
.d 1 0 
	fill_a01_pop_rtn 
.caf vrandomString 1 0
m.47
.d 1 0 
	jsr s5.1
.o 1 0 
	fillcaf vrandomString 1 0
.d 1 0 
	rtn 
.o 1 0 
s5.1
	buildh e_iTasks.Internal.Util_dgenerateRandomString 0
	buildh e_Data.GenHash_dgHash_Int;2 0
.d 3 0 
	jmp e_iTasks.Internal.SDS_screateReadOnlySDS
.export e_iTasks.SDS.Sources.Core_srandomInt
.export e_iTasks.SDS.Sources.Core_earandomInt
.descexp e_iTasks.SDS.Sources.Core_drandomInt e_iTasks.SDS.Sources.Core_nrandomInt e_iTasks.SDS.Sources.Core_lrandomInt 0 0 "randomInt"
.o 1 0 
e_iTasks.SDS.Sources.Core_lrandomInt
	halt
.n 0 e_iTasks.SDS.Sources.Core_drandomInt e_iTasks.SDS.Sources.Core_earandomInt
.o 1 0 
e_iTasks.SDS.Sources.Core_nrandomInt
	push_node _cycle_in_spine 0
.o 1 0 
e_iTasks.SDS.Sources.Core_earandomInt
.o 1 0 
e_iTasks.SDS.Sources.Core_srandomInt
.o 1 0 
s4
	testcaf vrandomInt
	jmp_false m.48
	pushcaf vrandomInt 1 0
.d 1 0 
	fill_a01_pop_rtn 
.caf vrandomInt 1 0
m.48
.d 1 0 
	jsr s4.1
.o 1 0 
	fillcaf vrandomInt 1 0
.d 1 0 
	rtn 
.o 1 0 
s4.1
	buildh e_iTasks.SDS.Sources.Core_drandomInt;19.20 0
	buildh e_Data.GenHash_dgHash__Unit;7 0
.d 3 0 
	jmp e_iTasks.Internal.SDS_screateReadOnlySDS
.export e_iTasks.SDS.Sources.Core_drandomInt;19.20
.desc e_iTasks.SDS.Sources.Core_drandomInt;19.20 _hnf l20 2 0 "randomInt;19.20"
.a 0 a20
.o 2 0 
l20
	repl_args 1 1
.o 2 0 
a20
.o 2 0 
ea20
	jsr_eval 1
	jsr_eval 0
	push_r_args_u 1 26 1
	updatepop_a 4 25
	pop_b 1
	jsr_eval 0
	jmp_eq_desc _Cons 2 0 case.49
	pop_a_jmp 1 s20.1
case.49
	repl_args 2 2
	push_a 1
	fill2_r e_iTasks.Internal.IWorld_rIWorld 26 1 4 0000010000000000000000000000
	updatepop_a 0 2
	buildh _Tuple 2
.d 1 0 
	rtn 
s20.1
	pushD m_iTasks.SDS.Sources.Core
	pushD e_iTasks.SDS.Sources.Core_drandomInt;19.20
.d 0 2 ii
	pop_a_jmp 2 _match_error
.export e_iTasks.SDS.Sources.Core_sunitShare
.export e_iTasks.SDS.Sources.Core_eaunitShare
.descexp e_iTasks.SDS.Sources.Core_dunitShare e_iTasks.SDS.Sources.Core_nunitShare e_iTasks.SDS.Sources.Core_lunitShare 0 0 "unitShare"
.o 1 0 
e_iTasks.SDS.Sources.Core_lunitShare
	halt
.n 0 e_iTasks.SDS.Sources.Core_dunitShare e_iTasks.SDS.Sources.Core_eaunitShare
.o 1 0 
e_iTasks.SDS.Sources.Core_nunitShare
	push_node _cycle_in_spine 0
.o 1 0 
e_iTasks.SDS.Sources.Core_eaunitShare
.o 1 0 
e_iTasks.SDS.Sources.Core_sunitShare
.o 1 0 
s3
s37
	buildh e_iTasks.SDS.Sources.Core_d\;20;79;16.17 0
	buildh e_iTasks.SDS.Sources.Core_d\;20;54;15.16 0
	buildh e_Data.GenHash_dgHash__Unit;7 0
	buildAC "nullShare"
	buildAC "_core_"
	push_a 2
	update3pop_a 0 1
.d 6 0 
	jmp e_iTasks.Internal.SDS_screateReadWriteSDS
.export e_iTasks.SDS.Sources.Core_snullShare
.export e_iTasks.SDS.Sources.Core_eanullShare
.descexp e_iTasks.SDS.Sources.Core_dnullShare e_iTasks.SDS.Sources.Core_nnullShare e_iTasks.SDS.Sources.Core_lnullShare 1 0 "nullShare"
.o 2 0 
e_iTasks.SDS.Sources.Core_lnullShare
	update_a 1 0
	create 
.d 2 0 
	put_a_jmp 2 e_iTasks.SDS.Sources.Core_eanullShare
.n 1 e_iTasks.SDS.Sources.Core_dnullShare e_iTasks.SDS.Sources.Core_eanullShare
.o 1 0 
e_iTasks.SDS.Sources.Core_nnullShare
	push_node _cycle_in_spine 1
.o 2 0 
e_iTasks.SDS.Sources.Core_eanullShare
	jsr_eval 0
	repl_r_args 1 0
.o 2 0 
e_iTasks.SDS.Sources.Core_snullShare
.o 2 0 
s2
	buildh e_iTasks.SDS.Sources.Core_d\;20;79;16.17 0
	buildh e_iTasks.SDS.Sources.Core_d\;20;54;15.16 0
	buildAC "nullShare"
	buildAC "_core_"
	push_update_a 4 3
	update_a 3 4
	update3pop_a 0 1
.d 6 0 
	jmp e_iTasks.Internal.SDS_screateReadWriteSDS
.export e_iTasks.SDS.Sources.Core_d\;20;54;15.16
.desc e_iTasks.SDS.Sources.Core_d\;20;54;15.16 _hnf l16 2 0 "\;20;54;15.16"
.a 0 a16
.o 2 0 
l16
	repl_args 1 1
.o 2 0 
a16
.o 2 0 
ea16
	buildh e__predef_d_Unit 0
	buildh e_Data.Error_dOk 1
	put_a 1
	buildh _Tuple 2
.d 1 0 
	rtn 
.export e_iTasks.SDS.Sources.Core_d\;20;79;16.17
.desc e_iTasks.SDS.Sources.Core_d\;20;79;16.17 _hnf l17 3 0 "\;20;79;16.17"
.a 0 a17
.o 2 0 
l17
	repl_args 2 2
.o 3 0 
a17
.o 3 0 
ea17
	buildB FALSE
	buildh e_StdFunctions_dconst 1
	buildh e_StdFunctions_dconst 1
	buildh e_Data.Error_dOk 1
	updatepop_a 0 2
	buildh _Tuple 2
.d 1 0 
	rtn 
.export e_iTasks.SDS.Sources.Core_sconstShare
.export e_iTasks.SDS.Sources.Core_eaconstShare
.descexp e_iTasks.SDS.Sources.Core_dconstShare e_iTasks.SDS.Sources.Core_nconstShare e_iTasks.SDS.Sources.Core_lconstShare 2 0 "constShare"
.a 2 e_iTasks.SDS.Sources.Core_eaconstShare
.o 2 0 
e_iTasks.SDS.Sources.Core_lconstShare
	push_args 0 1 1
	update_a 2 1
	create 
.d 3 0 
	put_a_jmp 3 e_iTasks.SDS.Sources.Core_eaconstShare
.n 2 e_iTasks.SDS.Sources.Core_dconstShare e_iTasks.SDS.Sources.Core_eaconstShare
.o 1 0 
e_iTasks.SDS.Sources.Core_nconstShare
	push_node _cycle_in_spine 2
.o 3 0 
e_iTasks.SDS.Sources.Core_eaconstShare
	jsr_eval 1
	jsr_eval 0
	repl_r_args 1 0
.o 3 0 
e_iTasks.SDS.Sources.Core_sconstShare
.o 3 0 
s1
	push_a 1
	buildh e_iTasks.SDS.Sources.Core_d\;17;35;14.15 1
.d 3 0 
	put_a_jmp 2 e_iTasks.Internal.SDS_screateReadOnlySDS
.export e_iTasks.SDS.Sources.Core_d\;17;35;14.15
.desc e_iTasks.SDS.Sources.Core_d\;17;35;14.15 _hnf l15 3 0 "\;17;35;14.15"
.a 0 a15
.o 2 0 
l15
	repl_args 2 2
.o 3 0 
a15
.o 3 0 
ea15
	put_a 1
	buildh _Tuple 2
.d 1 0 
	rtn 
.o 3 0 
s269
	jmp_ne_desc _Nil 0 1 case.51
	pushB TRUE
.d 1 1 b
	pop_a_rtn 2
case.51
	push_args 1 2 2
	buildh0_put_a _Nil 4
	jsr_eval 1
	jmp_ne_desc _Nil 0 1 case.53
	pushB TRUE
.d 1 1 b
	pop_a_rtn 4
case.53
	buildh _Nil 0
	push_a 1
	buildh _Cons 2
	push_jsr_eval 3
	create 
	update_a 4 6
	dup_a 5
	update2pop_a 1 3
.d 3 0 
	jsr e_StdList_s++
.o 1 0 
.d 0 0 
	jsr e_System.FilePath_spathSeparator
.o 0 1 c
	pushI 1
	create_array_ CHAR 0 1
	pushI 0
	update CHAR 0 1
	push_update_a 0 1
.d 2 0 
	jsr e_Text_sjoin;9
.o 1 0 
	push_jsr_eval 3
	push_a 1
.d 2 0 
	buildh0_put_a_jsr _Nil 6 e_System.File_sfileExists
.o 1 1 b
	jmp_b_false 0 else.54
	dup_a 4
	pop_b 1
.d 3 0 
	pop_a_jmp 2 s269
else.54
	swap_a1 
.d 2 0 
	pop_b_jsr 1 e_System.Directory_screateDirectory
.o 2 0 
.d 1 0 
	jsr e_Data.Error_sisError
.o 0 1 b
	jmp_false else.55
	updatepop_a 0 3
	pushB FALSE
.d 1 1 b
	rtn 
else.55
.d 3 0 
	put_a_jmp 3 s269
.impmod _system
.implab _match_error
.implab selector_m_error
