.comp 920 000011110011000
.start _nostart_
.depend "Data.Tuple" "20210609153506"
.depend "Text" "20210609153507"
.depend "StdCharList" "20210609153507"
.depend "_SystemArray" "20210609153507"
.depend "StdArray" "20210609153507"
.depend "StdEnv" "20210609153507"
.depend "_SystemEnum" "20210609153507"
.depend "StdEnum" "20210609153507"
.depend "StdTuple" "20210609153507"
.depend "StdOrdList" "20210609153507"
.depend "System.File" "20210609153506"
.depend "Data.Bifunctor" "20210609153506"
.depend "StdFile" "20210609153507"
.depend "Control.Monad.Fail" "20210609153506"
.depend "Data.Traversable" "20210609153506"
.depend "StdMisc" "20210609153507"
.depend "StdOverloadedList" "20210609153507"
.depend "Data.List" "20210609153506"
.depend "Data.Foldable" "20210609153506"
.depend "StdFunctions" "20210609153507"
.depend "StdFunc" "20210609153507"
.depend "StdString" "20210609153507"
.depend "System._Time" "20210609153506"
.depend "System.Time" "20210609153506"
.depend "System.OSError" "20210609153506"
.depend "System.FilePath" "20210609153506"
.depend "_SystemEnumStrict" "20210609153507"
.depend "_SystemStrictLists" "20210609153507"
.depend "StdStrictLists" "20210609153507"
.depend "StdGeneric" "20210609153507"
.depend "Data.GenEq" "20210609153506"
.depend "StdReal" "20210609153507"
.depend "StdChar" "20210609153507"
.depend "StdInt" "20210609153507"
.depend "StdBool" "20210609153507"
.depend "StdClass" "20210609153507"
.depend "StdList" "20210609153507"
.depend "Data.Monoid" "20210609153506"
.depend "Control.Applicative" "20210609153506"
.depend "Control.Monad" "20210609153506"
.depend "Data.Functor" "20210609153506"
.depend "Data.Error" "20210609153506"
.depend "StdOverloaded" "20210609153507"
.depend "_SystemDynamic" "20210609153507"
.depend "Crypto.Hash.SHA1" "20210609153506"
.module m_Crypto.Hash.SHA1 "Crypto.Hash.SHA1" "20210609153506"
.endinfo
.impmod _system
.implab _cycle_in_spine
.implab _type_error
.implab _hnf
.impdesc e_system_dind
.implab e_system_nind e_system_eaind
.impdesc e_system_dif
.implab e_system_nif e_system_eaif
.implab e_system_sif
.impdesc e_system_dAP
.implab e_system_nAP e_system_eaAP
.implab e_system_sAP
.impdesc ARRAY
.impdesc _Nil
.impdesc _Cons
.impdesc _Conss
.implab n_Conss ea_Conss
.impdesc _Consts
.implab n_Consts ea_Consts
.impdesc _Conssts
.implab n_Conssts ea_Conssts
.impdesc _Tuple
.impdesc d_S.1
.implab n_S.1 ea_S.1
.impdesc d_S.2
.implab n_S.2 ea_S.2
.impdesc d_S.3
.implab n_S.3 ea_S.3
.impdesc d_S.4
.implab n_S.4 ea_S.4
.impdesc d_S.5
.implab n_S.5 ea_S.5
.impdesc d_S.6
.implab n_S.6 ea_S.6
.implab _driver
.impmod Data.Tuple
.implab e_Data.Tuple_sappFst
.impmod Text
.implab e_Text_sjoin;9
.impmod _SystemArray
.impmod _SystemEnum
.implab e__SystemEnum_s_from_to;6
.impmod System.File
.implab e_System.File_sreadFile
.impmod StdString
.implab e_StdString_s+++;11
.impmod StdChar
.implab e_StdChar_stoChar;21
.impmod StdInt
.implab e_StdInt_sbitor
.implab e_StdInt_sbitand
.implab e_StdInt_sbitxor
.implab e_StdInt_s<<
.implab e_StdInt_s>>
.implab e_StdInt_sbitnot
.implab e_StdInt_s+;6
.implab e_StdInt_s-;7
.impdesc e_StdInt_d*;9
.implab e_StdInt_s*;9
.implab e_StdInt_n*;9
.implab e_StdInt_s/;10
.implab e_StdInt_sone;11
.implab e_StdInt_s==;16
.implab e_StdInt_s<;17
.implab e_StdInt_stoInt;20
.implab e_StdInt_srem;28
.impmod StdBool
.implab e_StdBool_snot
.impmod StdList
.implab e_StdList_s!!
.implab e_StdList_s++
.implab e_StdList_szip
.impmod Data.Error
.implab e_Data.Error_sfmap;13
.export e_Crypto.Hash.SHA1_dSHA1Digest
.desc e_Crypto.Hash.SHA1_dSHA1Digest _hnf _add_arg 1 0 "SHA1Digest"
.export e_Crypto.Hash.SHA1_sTD;SHA1Digest
.export e_Crypto.Hash.SHA1_eaTD;SHA1Digest
.descexp e_Crypto.Hash.SHA1_dTD;SHA1Digest e_Crypto.Hash.SHA1_nTD;SHA1Digest e_Crypto.Hash.SHA1_lTD;SHA1Digest 1 0 "TD;SHA1Digest"
.o 2 0
e_Crypto.Hash.SHA1_lTD;SHA1Digest
	update_a 1 0
	create
	update_a 0 2
	pop_a 1
.d 2 0
	jmp e_Crypto.Hash.SHA1_eaTD;SHA1Digest
.n 1 e_Crypto.Hash.SHA1_dTD;SHA1Digest e_Crypto.Hash.SHA1_eaTD;SHA1Digest
.o 1 0
e_Crypto.Hash.SHA1_nTD;SHA1Digest
	push_node _cycle_in_spine 1
.o 2 0
e_Crypto.Hash.SHA1_eaTD;SHA1Digest
.o 2 0
e_Crypto.Hash.SHA1_sTD;SHA1Digest
.o 2 0
s5
	fillh _Nil 0 1
	pop_a 1
.d 1 0
	rtn
.export e_Crypto.Hash.SHA1_ssha1FileDigest
.descexp e_Crypto.Hash.SHA1_dsha1FileDigest e_Crypto.Hash.SHA1_nsha1FileDigest e_Crypto.Hash.SHA1_lsha1FileDigest 3 0 "sha1FileDigest"
.a 0 a3
.o 2 0
e_Crypto.Hash.SHA1_lsha1FileDigest
	repl_args 2 2
.o 3 0
a3
.d 3 0
	jsr ea3
.o 2 0
	push_a 1
	push_a 1
	buildh _Tuple 2
	updatepop_a 0 2
.d 1 0
	rtn
.n 3 e_Crypto.Hash.SHA1_dsha1FileDigest
.o 1 0
e_Crypto.Hash.SHA1_nsha1FileDigest
	push_node _cycle_in_spine 3
.d 3 0
	jsr ea3
.o 2 0
	push_a 1
	push_a 1
	fillh _Tuple 2 4
	pop_a 2
.d 1 0
	rtn
.o 3 0
ea3
	jsr_eval 2
	jsr_eval 1
	jsr_eval 0
	push_array 1
	push_r_args 1 4 0
	update_a 4 6
	update_a 2 4
	update_a 0 2
	update_a 3 5
	update_a 1 3
	pop_a 2
.o 6 0
e_Crypto.Hash.SHA1_ssha1FileDigest
.o 6 0
s3
	push_a 5
	push_a 5
	push_a 5
	push_a 5
	push_a 5
	push_a 5
	update_a 5 11
	update_a 4 10
	update_a 3 9
	update_a 2 8
	update_a 1 7
	updatepop_a 0 6
.d 6 0
	jsr e_System.File_sreadFile
.o 2 0
	buildh e_Crypto.Hash.SHA1_d_f0.112 0
.d 3 0
	jsr e_Data.Tuple_sappFst
.o 2 0
	jsr_eval 1
	jsr_eval 0
.d 2 0
	rtn
.export e_Crypto.Hash.SHA1_d_f0.112
.desc e_Crypto.Hash.SHA1_d_f0.112 _hnf l112 1 0 "_f0.112"
.o 2 0
l112
	update_a 1 0
	create
	update_a 0 2
	pop_a 1
.o 2 0
ea112
.o 2 0
s112
	push_a 0
	jsr_eval 0
	buildh e_Crypto.Hash.SHA1_dsha1StringDigest 0
	update_a 1 2
	updatepop_a 0 1
.d 3 0
	jmp e_Data.Error_sfmap;13
.export e_Crypto.Hash.SHA1_ssha1
.descexp e_Crypto.Hash.SHA1_dsha1 e_Crypto.Hash.SHA1_nsha1 e_Crypto.Hash.SHA1_lsha1 1 0 "sha1"
.o 2 0
e_Crypto.Hash.SHA1_lsha1
	pop_a 1
.d 1 0
	jsr ea1
.o 1 0
	buildh ARRAY 1
.d 1 0
	rtn
.n 1 e_Crypto.Hash.SHA1_dsha1
.o 1 0
e_Crypto.Hash.SHA1_nsha1
	push_node _cycle_in_spine 1
.d 1 0
	jsr ea1
.o 1 0
	fillh ARRAY 1 1
.d 1 0
	rtn
.o 1 0
ea1
	jsr_eval 0
	push_array 0
	update_a 0 1
	pop_a 1
.o 1 0
e_Crypto.Hash.SHA1_ssha1
.o 1 0
s1
	create
	push_a 1
	update_a 1 2
	updatepop_a 0 1
.d 2 0
	jsr s2
.o 1 0
.d 1 0
	jmp s4
.export e_Crypto.Hash.SHA1_stoString;3
.descexp e_Crypto.Hash.SHA1_dtoString;3 e_Crypto.Hash.SHA1_ntoString;3 e_Crypto.Hash.SHA1_ltoString;3 1 0 "toString;3"
.o 2 0
e_Crypto.Hash.SHA1_itoString;3
	pop_a 1
.d 1 0
	jmp s4
.ai 1 _ e_Crypto.Hash.SHA1_itoString;3
.o 2 0
e_Crypto.Hash.SHA1_ltoString;3
	pop_a 1
.d 1 0
	jsr ea4
.o 1 0
	buildh ARRAY 1
.d 1 0
	rtn
.n 1 e_Crypto.Hash.SHA1_dtoString;3
.o 1 0
e_Crypto.Hash.SHA1_ntoString;3
	push_node _cycle_in_spine 1
.d 1 0
	jsr ea4
.o 1 0
	fillh ARRAY 1 1
.d 1 0
	rtn
.o 1 0
ea4
	jsr_eval 0
.o 1 0
e_Crypto.Hash.SHA1_stoString;3
.o 1 0
s4
	repl_args 1 1
	push_a 0
	jsr_eval 0
	push_array 0
	updatepop_a 0 1
	updatepop_a 0 1
	push_a 0
	push_arraysize CHAR 0 1
	pushI 1
	push_b 1
	subI
	create
	push_a 1
	buildh ARRAY 1
	pushI 0
	buildAC "0123456789abcdef"
	buildh ARRAY 1
	update_b 1 2
	updatepop_b 0 1
	update_a 2 3
	update_a 1 2
	updatepop_a 0 1
.d 3 2 ii
	jsr s57
.o 1 0
	buildAC ""
.d 2 0
	jmp e_Text_sjoin;9
.o 3 2 ii
s57
	push_b 0
	push_b 2
	ltI
	notB
	jmp_false else.1
	push_b 0
	push_array 1
	update_a 1 2
	updatepop_a 0 1
	push_a 0
	select CHAR 0 1
	push_a 0
	buildh ARRAY 1
	push_a 0
	push_b 2
	push_b 2
	push_a 3
	build_u e_Crypto.Hash.SHA1_d_f10.122 2 2 e_Crypto.Hash.SHA1_n_f10.122
	push_b 0
	push_a 3
	build_u e_Crypto.Hash.SHA1_dchar;106.58 1 1 e_Crypto.Hash.SHA1_nchar;106.58
	fillh _Cons 2 5
	pop_a 3
	pop_b 3
.d 1 0
	rtn
else.1
	fillh _Nil 0 2
	pop_a 2
	pop_b 2
.d 1 0
	rtn
.export e_Crypto.Hash.SHA1_d_f10.122
.export e_Crypto.Hash.SHA1_n_f10.122
.descn e_Crypto.Hash.SHA1_d_f10.122 e_Crypto.Hash.SHA1_n_f10.122 4 0 "_f10.122"
.nu 2 2 e_Crypto.Hash.SHA1_d_f10.122 _
.o 1 0
e_Crypto.Hash.SHA1_n_f10.122
	push_node_u _cycle_in_spine 2 2
.o 3 2 ii
ea122
.o 3 2 ii
s122
	pushI 1
	push_b 1
	addI
	push_a 1
	push_b 2
	push_a 1
	push_b 1
	update_b 1 2
	update_b 0 1
	pop_b 1
	update_a 1 3
	updatepop_a 0 2
	update_b 1 3
	updatepop_b 0 2
.d 3 2 ii
	jmp s57
.export e_Crypto.Hash.SHA1_dchar;106.58
.export e_Crypto.Hash.SHA1_nchar;106.58
.descn e_Crypto.Hash.SHA1_dchar;106.58 e_Crypto.Hash.SHA1_nchar;106.58 2 0 "char;106.58"
.nu 1 1 e_Crypto.Hash.SHA1_dchar;106.58
.o 1 0
e_Crypto.Hash.SHA1_nchar;106.58
	push_node_u _cycle_in_spine 1 1
.d 1 1 c
	jsr ea58
.o 1 0
	fillh ARRAY 1 1
.d 1 0
	rtn
.o 1 1 c
ea58
	jsr_eval 0
	push_array 0
	update_a 0 1
	pop_a 1
.o 1 1 c
s58
	push_b 0
	CtoI
	pushI 4
	push_b 1
	update_b 1 2
	update_b 0 1
	pop_b 1
	shiftr%
	pushI 15
	push_b 1
	update_b 1 2
	update_b 0 1
	pop_b 1
	and%
	push_a 0
	select CHAR 0 1
	push_b 1
	CtoI
	pushI 15
	push_b 1
	update_b 1 2
	update_b 0 1
	pop_b 1
	and%
	push_a 0
	updatepop_a 0 1
	select CHAR 0 1
	pushI 2
	create_array_ CHAR 0 1
	pushI 1
	update CHAR 0 1
	pushI 0
	update_b 1 2
	updatepop_b 0 1
	update CHAR 0 1
.d 1 0
	rtn
.export e_Crypto.Hash.SHA1_ssha1StringDigest
.export e_Crypto.Hash.SHA1_easha1StringDigest
.descexp e_Crypto.Hash.SHA1_dsha1StringDigest e_Crypto.Hash.SHA1_nsha1StringDigest e_Crypto.Hash.SHA1_lsha1StringDigest 1 0 "sha1StringDigest"
.o 2 0
e_Crypto.Hash.SHA1_lsha1StringDigest
	update_a 1 0
	create
	update_a 0 2
	pop_a 1
.d 2 0
	jmp e_Crypto.Hash.SHA1_easha1StringDigest
.n 1 e_Crypto.Hash.SHA1_dsha1StringDigest e_Crypto.Hash.SHA1_easha1StringDigest
.o 1 0
e_Crypto.Hash.SHA1_nsha1StringDigest
	push_node _cycle_in_spine 1
.o 2 0
e_Crypto.Hash.SHA1_easha1StringDigest
	jsr_eval 0
	push_array 0
	update_a 0 1
	pop_a 1
.o 2 0
e_Crypto.Hash.SHA1_ssha1StringDigest
.o 2 0
s2
	push_a 0
	build e_Crypto.Hash.SHA1_d_f2.114 1 e_Crypto.Hash.SHA1_n_f2.114
	build e_Crypto.Hash.SHA1_d_f1.113 1 e_Crypto.Hash.SHA1_n_f1.113
	build e_Crypto.Hash.SHA1_dtoBytes;26.27 1 e_Crypto.Hash.SHA1_ntoBytes;26.27
	fillh e_Crypto.Hash.SHA1_dSHA1Digest 1 2
	pop_a 1
.d 1 0
	rtn
.export e_Crypto.Hash.SHA1_d_f2.114
.export e_Crypto.Hash.SHA1_n_f2.114
.descn e_Crypto.Hash.SHA1_d_f2.114 e_Crypto.Hash.SHA1_n_f2.114 1 0 "_f2.114"
.n 1 e_Crypto.Hash.SHA1_d_f2.114 ea114
.o 1 0
e_Crypto.Hash.SHA1_n_f2.114
	push_node _cycle_in_spine 1
.o 2 0
ea114
.o 2 0
s114
	push_a 0
	updatepop_a 0 1
.d 1 0
	jsr s23
.o 1 0
.d 2 0
	jmp s24
.export e_Crypto.Hash.SHA1_d_f1.113
.export e_Crypto.Hash.SHA1_n_f1.113
.descn e_Crypto.Hash.SHA1_d_f1.113 e_Crypto.Hash.SHA1_n_f1.113 1 0 "_f1.113"
.n 1 e_Crypto.Hash.SHA1_d_f1.113 ea113
.o 1 0
e_Crypto.Hash.SHA1_n_f1.113
	push_node _cycle_in_spine 1
.o 2 0
ea113
.o 2 0
s113
	push_a 0
	jsr_eval 0
	buildh _Nil 0
	update_a 0 2
	pop_a 1
.d 0 0
	jsr s25
.o 1 0
	update_a 1 2
	updatepop_a 0 1
.d 2 0
	jsr s51
.o 1 0
	fillh ARRAY 1 1
.d 1 0
	rtn
.o 2 0
s51
	eq_desc _Nil 0 1
	jmp_true case.2
	jmp case.3
case.2
	updatepop_a 0 1
.d 1 0
	rtn
case.3
	push_args 1 2 2
	buildh _Nil 0
	update_a 0 4
	pop_a 1
	push_a 1
	jsr_eval 0
	push_a 1
	push_a 4
	buildh _Nil 0
	update_a 0 6
	update_a 0 4
	update_a 0 5
	pop_a 1
.d 2 0
	jsr s26
.o 1 0
	update_a 1 5
	updatepop_a 0 4
.d 2 0
	jmp s51
.export e_Crypto.Hash.SHA1_dtoBytes;26.27
.export e_Crypto.Hash.SHA1_ntoBytes;26.27
.descn e_Crypto.Hash.SHA1_dtoBytes;26.27 e_Crypto.Hash.SHA1_ntoBytes;26.27 1 0 "toBytes;26.27"
.n 1 e_Crypto.Hash.SHA1_dtoBytes;26.27
.o 1 0
e_Crypto.Hash.SHA1_ntoBytes;26.27
	push_node _cycle_in_spine 1
.d 1 0
	jsr ea27
.o 1 0
	fillh ARRAY 1 1
.d 1 0
	rtn
.o 1 0
ea27
.o 1 0
s27
	create
	pushI 4
	pushI 0
	push_a 1
	update_a 1 2
	updatepop_a 0 1
.d 2 2 ii
	jsr s49
.o 1 0
	buildAC ""
.d 2 0
	jmp e_Text_sjoin;9
.o 2 2 ii
s49
	push_b 0
	push_b 2
	ltI
	notB
	jmp_false else.4
	push_b 1
	push_b 1
	push_a 0
	build_u e_Crypto.Hash.SHA1_d_f8.120 1 2 e_Crypto.Hash.SHA1_n_f8.120
	buildh _Nil 0
	buildI 0
	buildh _Cons 2
	buildI 1
	buildh _Cons 2
	buildI 2
	buildh _Cons 2
	buildI 3
	buildh _Cons 2
	buildh _Nil 0
	buildI 0
	buildh _Cons 2
	buildI 1
	buildh _Cons 2
	buildI 2
	buildh _Cons 2
	buildI 3
	buildh _Cons 2
	push_b 0
	push_a 3
	build_u e_Crypto.Hash.SHA1_d_f7.119 3 1 e_Crypto.Hash.SHA1_n_f7.119
	fillh _Cons 2 3
	pop_a 1
	pop_b 2
.d 1 0
	rtn
else.4
	fillh _Nil 0 1
	pop_a 1
	pop_b 2
.d 1 0
	rtn
.export e_Crypto.Hash.SHA1_d_f8.120
.export e_Crypto.Hash.SHA1_n_f8.120
.descn e_Crypto.Hash.SHA1_d_f8.120 e_Crypto.Hash.SHA1_n_f8.120 3 0 "_f8.120"
.nu 1 2 e_Crypto.Hash.SHA1_d_f8.120 _
.o 1 0
e_Crypto.Hash.SHA1_n_f8.120
	push_node_u _cycle_in_spine 1 2
.o 2 2 ii
ea120
.o 2 2 ii
s120
	pushI 1
	push_b 1
	addI
	push_b 2
	push_a 0
	push_b 1
	update_b 1 2
	update_b 0 1
	pop_b 1
	updatepop_a 0 1
	update_b 1 3
	updatepop_b 0 2
.d 2 2 ii
	jmp s49
.export e_Crypto.Hash.SHA1_d_f7.119
.export e_Crypto.Hash.SHA1_n_f7.119
.descn e_Crypto.Hash.SHA1_d_f7.119 e_Crypto.Hash.SHA1_n_f7.119 4 0 "_f7.119"
.nu 3 1 e_Crypto.Hash.SHA1_d_f7.119 _
.o 1 0
e_Crypto.Hash.SHA1_n_f7.119
	push_node_u _cycle_in_spine 3 1
.o 4 1 i
ea119
.o 4 1 i
s119
	push_a 1
	pushI 0
	update_a 1 2
	updatepop_a 0 1
.d 1 1 i
	jsr s46
.o 0 1 i
	create_array_ CHAR 0 1
	push_a 2
	buildI 0
	buildI_b 0
	push_a 4
	push_a 4
	update_a 4 5
	update_a 3 4
	update_a 0 3
	pop_a 1
	update_a 4 6
	update_a 3 5
	update_a 2 4
	update_a 1 3
	updatepop_a 0 2
	pop_b 1
.d 5 0
	jsr s50
.o 1 0
	fillh ARRAY 1 1
.d 1 0
	rtn
.o 5 0
s50
	push_a 3
	push_a 3
	push_a 3
	push_a 3
	push_a 8
	update_a 4 9
	update_a 3 8
	update_a 2 7
	update_a 1 6
	updatepop_a 0 5
.d 5 0
	jmp s75
.o 5 0
s75
	eq_desc _Cons 2 0
	jmp_true case.5
	jmp case.6
case.5
	repl_args 2 2
	push_a 1
	jsr_eval 0
	push_a 6
	build e_Crypto.Hash.SHA1_d_f9.121 1 e_Crypto.Hash.SHA1_n_f9.121
	push_a 2
	jsr_eval 0
	pushI_a 3
	pop_a 1
	pushI 8
	push_b 1
	update_b 1 2
	update_b 0 1
	pop_b 1
	mulI
	push_a 5
	jsr_eval 0
	pushI_a 6
	pop_a 1
	push_a 4
	jsr_eval 0
	push_array 0
	updatepop_a 0 1
	buildh _Nil 0
	update_a 0 4
	update_a 0 5
	pop_a 1
	select INT 0 1
	shiftr%
	ItoC
	push_a 7
	jsr_eval 0
	pushI_a 8
	pop_a 1
	push_a 6
	buildh _Nil 0
	update_a 0 8
	update_a 0 9
	pop_a 1
	update CHAR 0 1
	push_a 6
	push_a 6
	update_a 4 10
	update_a 3 9
	update_a 2 8
	update_a 1 7
	updatepop_a 0 6
.d 5 0
	jmp s50
case.6
	updatepop_a 3 4
.d 1 0
	rtn
.export e_Crypto.Hash.SHA1_d_f9.121
.export e_Crypto.Hash.SHA1_n_f9.121
.descn e_Crypto.Hash.SHA1_d_f9.121 e_Crypto.Hash.SHA1_n_f9.121 1 0 "_f9.121"
.n 1 e_Crypto.Hash.SHA1_d_f9.121 ea121
.o 1 0
e_Crypto.Hash.SHA1_n_f9.121
	push_node _cycle_in_spine 1
.o 2 0
ea121
.o 2 0
s121
	pushI 1
	push_a 0
	jsr_eval 0
	pushI_a 1
	pop_a 1
	pop_a 1
	addI
	fillI_b 0 0
	pop_b 1
.d 1 0
	rtn
.o 1 1 i
s46
	push_b 0
	push_a 0
	updatepop_a 0 1
	updatepop_b 0 1
.d 1 1 i
	jmp s73
.o 1 1 i
s73
	eq_desc _Cons 2 0
	jmp_true case.7
	jmp case.8
case.7
	repl_args 2 2
	pop_a 1
	push_a 0
	jsr_eval 0
	pushI 1
	push_b 1
	addI
	updatepop_a 0 1
	updatepop_b 0 1
.d 1 1 i
	jmp s46
case.8
	pop_a 1
.d 0 1 i
	rtn
.o 2 0
s26
	push_a 1
	build e_Crypto.Hash.SHA1_dW;14.15 1 e_Crypto.Hash.SHA1_nW;14.15
	create
	pushI 79
	pushI 0
	buildh _Nil 0
	update_a 0 4
	pop_a 1
.d 1 2 ii
	jsr e__SystemEnum_s_from_to;6
.o 1 0
	create
	push_a 2
	update_a 1 3
	update_a 2 1
	update_a 0 2
	pop_a 1
	update_a 3 4
	update_a 2 3
	update_a 1 2
	updatepop_a 0 1
.d 3 0
	jsr e_StdList_szip
.o 1 0
	pushI 4
	push_a 1
	select INT 0 1
	pushI 3
	push_a 1
	select INT 0 1
	pushI 2
	push_a 1
	select INT 0 1
	pushI 1
	push_a 1
	select INT 0 1
	pushI 0
	push_a 1
	select INT 0 1
.d 1 5 iiiii
	jsr s110
.o 0 5 iiiii
	pushI 0
	push_a 0
	select INT 0 1
	push_b 1
	push_b 1
	update_b 1 2
	update_b 0 1
	pop_b 1
	addI
	pushI 1
	push_a 0
	select INT 0 1
	push_b 3
	push_b 1
	update_b 1 2
	update_b 0 1
	pop_b 1
	addI
	pushI 2
	push_a 0
	select INT 0 1
	push_b 5
	push_b 1
	update_b 1 2
	update_b 0 1
	pop_b 1
	addI
	pushI 3
	push_a 0
	select INT 0 1
	push_b 7
	push_b 1
	update_b 1 2
	update_b 0 1
	pop_b 1
	addI
	pushI 4
	push_a 0
	updatepop_a 0 1
	select INT 0 1
	push_b 9
	push_b 1
	update_b 1 2
	update_b 0 1
	pop_b 1
	addI
	pushI 5
	create_array_ INT 0 1
	pushI 4
	update INT 0 1
	pushI 3
	update INT 0 1
	pushI 2
	update INT 0 1
	pushI 1
	update INT 0 1
	pushI 0
	update_b 1 6
	updatepop_b 0 5
	update INT 0 1
.d 1 0
	rtn
.o 0 4 iiii
s19
	push_b 0
	pushI 19
	ltI
	notB
	jmp_false else.9
	push_b 1
	not%
	push_b 4
	push_b 1
	update_b 1 2
	update_b 0 1
	pop_b 1
	and%
	push_b 3
	push_b 3
	and%
	update_b 1 5
	updatepop_b 0 4
	or%
.d 0 1 i
	rtn
else.9
	push_b 0
	pushI 39
	ltI
	notB
	jmp_false else.10
	push_b 2
	push_b 2
	xor%
	push_b 4
	push_b 1
	update_b 1 2
	update_b 0 1
	pop_b 1
	update_b 1 5
	updatepop_b 0 4
	xor%
.d 0 1 i
	rtn
else.10
	push_b 0
	pushI 59
	ltI
	notB
	jmp_false else.11
	push_b 3
	push_b 3
	and%
	push_b 4
	push_b 3
	and%
	push_b 4
	push_b 4
	and%
	or%
	update_b 1 5
	updatepop_b 0 4
	or%
.d 0 1 i
	rtn
else.11
	push_b 2
	push_b 2
	xor%
	push_b 4
	push_b 1
	update_b 1 2
	update_b 0 1
	pop_b 1
	update_b 1 5
	updatepop_b 0 4
	xor%
.d 0 1 i
	rtn
.o 0 1 i
s17
	push_b 0
	pushI 19
	ltI
	notB
	jmp_false else.12
	pop_b 1
	pushI 1518500249
.d 0 1 i
	rtn
else.12
	push_b 0
	pushI 39
	ltI
	notB
	jmp_false else.13
	pop_b 1
	pushI 1859775393
.d 0 1 i
	rtn
else.13
	push_b 0
	pushI 59
	ltI
	notB
	jmp_false else.14
	pop_b 1
	pushI 2400959708
.d 0 1 i
	rtn
else.14
	pop_b 1
	pushI 3395469782
.d 0 1 i
	rtn
.export e_Crypto.Hash.SHA1_dW;14.15
.export e_Crypto.Hash.SHA1_nW;14.15
.descn e_Crypto.Hash.SHA1_dW;14.15 e_Crypto.Hash.SHA1_nW;14.15 1 0 "W;14.15"
.n 1 e_Crypto.Hash.SHA1_dW;14.15 ea15
.o 1 0
e_Crypto.Hash.SHA1_nW;14.15
	push_node _cycle_in_spine 1
.o 2 0
ea15
.o 2 0
s15
	buildh _Nil 0
	pushI 0
	push_a 1
	update_a 1 2
	updatepop_a 0 1
.d 3 1 i
	jmp s42
.o 3 1 i
s42
	pushI 80
	push_b 1
	eqI
	jmp_false else.15
	pop_b 1
	fill_a 1 2
	pop_a 2
.d 1 0
	rtn
else.15
	pushI 16
	push_b 1
	ltI
	jmp_false else.16
	buildh _Nil 0
	push_a 1
	push_b 0
	build_u e_Crypto.Hash.SHA1_dwordAt;91.43 1 1 e_Crypto.Hash.SHA1_nwordAt;91.43
	buildh _Cons 2
	create
	push_a 3
	push_a 2
	update_a 2 3
	update_a 0 2
	pop_a 1
.d 3 0
	jsr e_StdList_s++
.o 1 0
	pushI 1
	push_b 1
	addI
	push_a 1
	update_a 1 3
	updatepop_a 0 2
	updatepop_b 0 1
.d 3 1 i
	jmp s42
else.16
	buildh _Nil 0
	push_b 0
	push_a 2
	build_u e_Crypto.Hash.SHA1_d_f3.115 1 1 e_Crypto.Hash.SHA1_n_f3.115
	buildh _Cons 2
	create
	push_a 3
	push_a 2
	update_a 2 3
	update_a 0 2
	pop_a 1
.d 3 0
	jsr e_StdList_s++
.o 1 0
	pushI 1
	push_b 1
	addI
	push_a 1
	update_a 1 3
	updatepop_a 0 2
	updatepop_b 0 1
.d 3 1 i
	jmp s42
.export e_Crypto.Hash.SHA1_d_f3.115
.export e_Crypto.Hash.SHA1_n_f3.115
.descn e_Crypto.Hash.SHA1_d_f3.115 e_Crypto.Hash.SHA1_n_f3.115 2 0 "_f3.115"
.nu 1 1 e_Crypto.Hash.SHA1_d_f3.115 _
.o 1 0
e_Crypto.Hash.SHA1_n_f3.115
	push_node_u _cycle_in_spine 1 1
.o 2 1 i
ea115
.o 2 1 i
s115
	pushI 16
	push_b 1
	subI
	push_a 0
.d 1 1 i
	jsr e_StdList_s!!
.o 1 0
	pushI_a 0
	pop_a 1
	pushI 14
	push_b 2
	subI
	push_a 0
.d 1 1 i
	jsr e_StdList_s!!
.o 1 0
	pushI_a 0
	pop_a 1
	pushI 8
	push_b 3
	subI
	push_a 0
.d 1 1 i
	jsr e_StdList_s!!
.o 1 0
	pushI_a 0
	pop_a 1
	pushI 3
	push_b 4
	subI
	push_a 0
	updatepop_a 0 1
.d 1 1 i
	jsr e_StdList_s!!
.o 1 0
	pushI_a 0
	pop_a 1
	xor%
	xor%
	xor%
	pushI 1
	update_b 1 2
	updatepop_b 0 1
.d 0 2 ii
	jsr s18
.o 0 1 i
	fillI_b 0 0
	pop_b 1
.d 1 0
	rtn
.export e_Crypto.Hash.SHA1_dwordAt;91.43
.export e_Crypto.Hash.SHA1_nwordAt;91.43
.descn e_Crypto.Hash.SHA1_dwordAt;91.43 e_Crypto.Hash.SHA1_nwordAt;91.43 2 0 "wordAt;91.43"
.nu 1 1 e_Crypto.Hash.SHA1_dwordAt;91.43
.o 1 0
e_Crypto.Hash.SHA1_nwordAt;91.43
	push_node_u _cycle_in_spine 1 1
.d 1 1 i
	jsr ea43
.o 0 1 i
	fillI_b 0 0
	pop_b 1
.d 1 0
	rtn
.o 1 1 i
ea43
	jsr_eval 0
	push_array 0
	update_a 0 1
	pop_a 1
.o 1 1 i
s43
	pushI 4
	push_b 1
	mulI
	pushI 3
	push_b 1
	update_b 1 2
	update_b 0 1
	pop_b 1
	addI
	push_a 0
	select CHAR 0 1
	CtoI
	pushI 4
	push_b 2
	mulI
	pushI 2
	push_b 1
	update_b 1 2
	update_b 0 1
	pop_b 1
	addI
	push_a 0
	select CHAR 0 1
	CtoI
	pushI 8
	push_b 1
	update_b 1 2
	update_b 0 1
	pop_b 1
	shiftl%
	pushI 4
	push_b 3
	mulI
	pushI 1
	push_b 1
	update_b 1 2
	update_b 0 1
	pop_b 1
	addI
	push_a 0
	select CHAR 0 1
	CtoI
	pushI 16
	push_b 1
	update_b 1 2
	update_b 0 1
	pop_b 1
	shiftl%
	pushI 4
	push_b 4
	mulI
	push_a 0
	updatepop_a 0 1
	select CHAR 0 1
	CtoI
	pushI 24
	push_b 1
	update_b 1 2
	update_b 0 1
	pop_b 1
	shiftl%
	addI
	addI
	update_b 1 2
	updatepop_b 0 1
	addI
.d 0 1 i
	rtn
.o 0 2 ii
s18
	push_b 0
	pushI 1
	shiftl%
	pushI 1
	push_b 1
	update_b 1 2
	update_b 0 1
	pop_b 1
	subI
	push_b 1
	pushI 32
	subI
	push_b 3
	shiftr%
	and%
	push_b 1
	push_b 3
	shiftl%
	or%
	pushI 4294967295
	push_b 1
	update_b 1 2
	update_b 0 1
	pop_b 1
	update_b 1 3
	updatepop_b 0 2
	and%
.d 0 1 i
	rtn
.o 0 0
s25
	pushI 5
	create_array_ INT 0 1
	pushI 3285377520
	pushI 4
	update INT 0 1
	pushI 271733878
	pushI 3
	update INT 0 1
	pushI 2562383102
	pushI 2
	update INT 0 1
	pushI 4023233417
	pushI 1
	update INT 0 1
	pushI 1732584193
	pushI 0
	update INT 0 1
.d 1 0
	rtn
.o 2 0
s24
	push_a 0
	push_arraysize CHAR 0 1
	pushI 64
	push_b 1
	update_b 1 2
	update_b 0 1
	pop_b 1
	divI
	pushI 1
	push_b 1
	update_b 1 2
	update_b 0 1
	pop_b 1
	subI
	pushI 0
	push_a 0
	buildh ARRAY 1
	updatepop_a 0 1
.d 2 2 ii
	jmp s38
.o 2 2 ii
s38
	push_b 0
	push_b 2
	ltI
	notB
	jmp_false else.17
	buildI 63
	push_b 1
	push_b 1
	push_a 1
	build_u e_Crypto.Hash.SHA1_d_f6.118 1 2 e_Crypto.Hash.SHA1_n_f6.118
	buildI 64
	buildI_b 0
	build e_StdInt_d*;9 2 e_StdInt_n*;9
	push_a 2
	push_a 4
	push_a 2
	update_a 2 3
	update_a 0 2
	pop_a 1
	build e_Crypto.Hash.SHA1_d_f5.117 3 e_Crypto.Hash.SHA1_n_f5.117
	fillh _Cons 2 4
	pop_a 2
	pop_b 2
.d 1 0
	rtn
else.17
	fillh _Nil 0 1
	pop_a 1
	pop_b 2
.d 1 0
	rtn
.export e_Crypto.Hash.SHA1_d_f6.118
.export e_Crypto.Hash.SHA1_n_f6.118
.descn e_Crypto.Hash.SHA1_d_f6.118 e_Crypto.Hash.SHA1_n_f6.118 3 0 "_f6.118"
.nu 1 2 e_Crypto.Hash.SHA1_d_f6.118 _
.o 1 0
e_Crypto.Hash.SHA1_n_f6.118
	push_node_u _cycle_in_spine 1 2
.o 2 2 ii
ea118
.o 2 2 ii
s118
	pushI 1
	push_b 1
	addI
	push_b 2
	push_a 0
	push_b 1
	update_b 1 2
	update_b 0 1
	pop_b 1
	updatepop_a 0 1
	update_b 1 3
	updatepop_b 0 2
.d 2 2 ii
	jmp s38
.export e_Crypto.Hash.SHA1_d_f5.117
.export e_Crypto.Hash.SHA1_n_f5.117
.descn e_Crypto.Hash.SHA1_d_f5.117 e_Crypto.Hash.SHA1_n_f5.117 3 0 "_f5.117"
.n 3 e_Crypto.Hash.SHA1_d_f5.117 ea117
.o 1 0
e_Crypto.Hash.SHA1_n_f5.117
	push_node _cycle_in_spine 3
.o 4 0
ea117
.o 4 0
s117
	pushI 1
	pushI_a 2
	addI
	create_array_ CHAR 0 1
	pushI_a 3
	pushI 0
	push_a 2
	push_a 2
	update_a 2 5
	update_a 1 4
	updatepop_a 0 3
.d 3 2 ii
	jsr s39
.o 1 0
	fillh ARRAY 1 1
.d 1 0
	rtn
.o 3 2 ii
s39
	push_b 0
	push_b 2
	ltI
	notB
	jmp_false else.18
	pushI 1
	push_b 1
	addI
	push_a 1
	jsr_eval 0
	pushI_a 2
	pop_a 1
	push_b 2
	push_b 1
	update_b 1 2
	update_b 0 1
	pop_b 1
	addI
	push_a 0
	jsr_eval 0
	push_array 0
	updatepop_a 0 1
	select CHAR 0 1
	push_b 2
	push_a 2
	buildh _Nil 0
	update_a 0 4
	pop_a 1
	update CHAR 0 1
	push_b 2
	push_a 2
	push_a 2
	push_b 1
	update_b 1 2
	update_b 0 1
	pop_b 1
	update_a 2 5
	update_a 1 4
	updatepop_a 0 3
	update_b 1 3
	updatepop_b 0 2
.d 3 2 ii
	jmp s39
else.18
	pop_a 2
	pop_b 2
.d 1 0
	rtn
.o 1 0
s23
	push_a 0
	push_arraysize CHAR 0 1
	pushI 64
	push_b 1
	remI
	push_b 1
.d 0 1 i
	jsr s34
.o 1 0
	pushI 9
	push_b 1
	addI
	pushI 64
	ltI
	push_b 1
	push_b 1
	update_b 1 2
	update_b 0 1
	pop_b 1
	update_b 1 3
	updatepop_b 0 2
.d 0 2 bi
	jsr s69
.o 0 1 i
	pushC '\000'
	push_b 1
	update_b 1 2
	update_b 0 1
	pop_b 1
	create_array CHAR 0 1
.d 2 0
	jsr catAC
.o 1 0
	pushI 128
	ItoC
	pushI 1
	create_array_ CHAR 0 1
	pushI 0
	update CHAR 0 1
.d 2 0
	jsr catAC
.o 1 0
	push_a 1
	update_a 1 2
	updatepop_a 0 1
.d 2 0
	jsr catAC
.o 1 0
.d 1 0
	rtn
.o 0 2 bi
s69
	eqB_b TRUE 0
	jmp_true case.19
	jmp case.20
case.19
	push_b 1
	pushI 119
	update_b 1 3
	updatepop_b 0 2
	subI
.d 0 1 i
	rtn
case.20
	push_b 1
	pushI 55
	update_b 1 3
	updatepop_b 0 2
	subI
.d 0 1 i
	rtn
.o 0 1 i
s34
	buildh _Nil 0
	buildI 0
	buildh _Cons 2
	buildI 1
	buildh _Cons 2
	buildI 2
	buildh _Cons 2
	buildI 3
	buildh _Cons 2
	buildI 4
	buildh _Cons 2
	buildI 5
	buildh _Cons 2
	buildI 6
	buildh _Cons 2
	buildI 7
	buildh _Cons 2
	buildh _Nil 0
	buildI 0
	buildh _Cons 2
	buildI 1
	buildh _Cons 2
	buildI 2
	buildh _Cons 2
	buildI 3
	buildh _Cons 2
	buildI 4
	buildh _Cons 2
	buildI 5
	buildh _Cons 2
	buildI 6
	buildh _Cons 2
	buildI 7
	buildh _Cons 2
	pushI 0
.d 1 1 i
	jsr s33
.o 0 1 i
	create_array_ CHAR 0 1
	buildI 0
	buildI_b 0
	push_a 2
	update_a 2 3
	update_a 0 2
	pop_a 1
	pop_b 1
.d 4 0
	jmp s35
.o 4 0
s35
	push_a 2
	push_a 2
	push_a 2
	push_a 6
	update_a 3 7
	update_a 2 6
	update_a 1 5
	updatepop_a 0 4
.d 4 0
	jmp s68
.o 4 0
s68
	eq_desc _Cons 2 0
	jmp_true case.21
	jmp case.22
case.21
	repl_args 2 2
	push_a 1
	jsr_eval 0
	push_a 5
	build e_Crypto.Hash.SHA1_d_f4.116 1 e_Crypto.Hash.SHA1_n_f4.116
	push_a 4
	jsr_eval 0
	pushI_a 5
	pop_a 1
	push_a 2
	jsr_eval 0
	pushI_a 3
	pop_a 1
	pushI 0
	push_b 1
	update_b 1 2
	update_b 0 1
	pop_b 1
	eqI
	push_a 2
	buildh _Nil 0
	update_a 0 4
	update_a 0 5
	pop_a 1
.d 1 2 bi
	jsr s67
.o 0 1 i
	ItoC
	push_a 6
	jsr_eval 0
	pushI_a 7
	pop_a 1
	push_a 5
	buildh _Nil 0
	update_a 0 7
	update_a 0 8
	pop_a 1
	update CHAR 0 1
	push_a 5
	update_a 3 8
	update_a 2 7
	update_a 1 6
	updatepop_a 0 5
.d 4 0
	jmp s35
case.22
	updatepop_a 2 3
.d 1 0
	rtn
.export e_Crypto.Hash.SHA1_d_f4.116
.export e_Crypto.Hash.SHA1_n_f4.116
.descn e_Crypto.Hash.SHA1_d_f4.116 e_Crypto.Hash.SHA1_n_f4.116 1 0 "_f4.116"
.n 1 e_Crypto.Hash.SHA1_d_f4.116 ea116
.o 1 0
e_Crypto.Hash.SHA1_n_f4.116
	push_node _cycle_in_spine 1
.o 2 0
ea116
.o 2 0
s116
	pushI 1
	push_a 0
	jsr_eval 0
	pushI_a 1
	pop_a 1
	pop_a 1
	addI
	fillI_b 0 0
	pop_b 1
.d 1 0
	rtn
.o 1 2 bi
s67
	eqB_b TRUE 0
	jmp_true case.23
	jmp case.24
case.23
	pushI 3
	push_b 2
	update_b 1 3
	updatepop_b 0 2
	pop_a 1
	shiftl%
.d 0 1 i
	rtn
case.24
	push_a 0
	jsr_eval 0
	pushI_a 1
	pop_a 1
	pushI 8
	push_b 1
	update_b 1 2
	update_b 0 1
	pop_b 1
	mulI
	pushI 3
	push_b 1
	update_b 1 2
	update_b 0 1
	pop_b 1
	subI
	push_b 2
	update_b 1 3
	updatepop_b 0 2
	pop_a 1
	shiftr%
.d 0 1 i
	rtn
.o 1 1 i
s33
	push_b 0
	push_a 0
	updatepop_a 0 1
	updatepop_b 0 1
.d 1 1 i
	jmp s66
.o 1 1 i
s66
	eq_desc _Cons 2 0
	jmp_true case.25
	jmp case.26
case.25
	repl_args 2 2
	pop_a 1
	push_a 0
	jsr_eval 0
	pushI 1
	push_b 1
	addI
	updatepop_a 0 1
	updatepop_b 0 1
.d 1 1 i
	jmp s33
case.26
	pop_a 1
.d 0 1 i
	rtn
.o 1 5 iiiii
s110
	eq_desc _Nil 0 0
	jmp_true case.27
	jmp case.28
case.27
	pop_a 1
.d 0 5 iiiii
	rtn
case.28
	repl_args 2 2
	push_a 1
	jsr_eval 0
	push_a 1
	jsr_eval 0
	repl_args 2 2
	jsr_eval 1
	jsr_eval 0
	pushI_a 1
	pushI_a 0
	pop_a 2
	push_b 6
	push_b 6
	push_b 6
	push_b 6
	push_b 6
	update_b 6 11
	update_b 5 10
	update_b 4 9
	update_b 3 8
	update_b 2 7
	update_b 1 6
	updatepop_b 0 5
	buildh _Nil 0
	update_a 0 2
	update_a 0 3
	pop_a 1
.d 0 7 iiiiiii
	jsr s111
.o 0 5 iiiii
	updatepop_a 0 2
.d 1 5 iiiii
	jmp s110
.o 0 7 iiiiiii
s111
	push_b 1
	pushI 30
.d 0 2 ii
	jsr s18
.o 0 1 i
	push_b 6
.d 0 1 i
	jsr s17
.o 0 1 i
	push_b 5
	push_b 5
	push_b 5
	push_b 10
.d 0 4 iiii
	jsr s19
.o 0 1 i
	push_b 3
	pushI 5
.d 0 2 ii
	jsr s18
.o 0 1 i
	addI
	push_b 7
	push_b 1
	update_b 1 2
	update_b 0 1
	pop_b 1
	addI
	push_b 9
	push_b 1
	update_b 1 2
	update_b 0 1
	pop_b 1
	addI
	addI
	push_b 5
	push_b 5
	push_b 4
	push_b 4
	update_b 3 5
	update_b 0 3
	update_b 4 0
	update_b 2 4
	update_b 1 2
	update_b 0 1
	pop_b 1
	update_b 4 11
	update_b 3 10
	update_b 2 9
	update_b 1 8
	updatepop_b 0 7
.d 0 5 iiiii
	rtn
