.comp 920 000011110011000
.start _nostart_
.depend "graph_copy" "20210613122637"
.depend "StdCharList" "20210613122638"
.depend "_SystemArray" "20210613122638"
.depend "StdArray" "20210613122638"
.depend "StdEnv" "20210613122638"
.depend "_SystemEnum" "20210613122638"
.depend "StdEnum" "20210613122638"
.depend "StdTuple" "20210613122638"
.depend "StdOrdList" "20210613122638"
.depend "StdFile" "20210613122638"
.depend "symbols_in_program" "20210613122637"
.depend "StdString" "20210613122638"
.depend "StdMisc" "20210613122638"
.depend "StdFunctions" "20210613122638"
.depend "_SystemEnumStrict" "20210613122638"
.depend "_SystemStrictLists" "20210613122638"
.depend "StdStrictLists" "20210613122638"
.depend "StdReal" "20210613122638"
.depend "StdChar" "20210613122638"
.depend "StdInt" "20210613122638"
.depend "StdBool" "20210613122638"
.depend "StdClass" "20210613122638"
.depend "StdList" "20210613122638"
.depend "StdOverloaded" "20210613122638"
.depend "_SystemDynamic" "20210613122638"
.depend "graph_copy_with_names" "20210613122637"
.module m_graph_copy_with_names "graph_copy_with_names" "20210613122637"
.endinfo
.impmod _system
.implab _cycle_in_spine
.implab _type_error
.implab _hnf
.impdesc e_system_dind
.implab e_system_nind e_system_eaind
.impdesc e_system_dif
.implab e_system_nif e_system_eaif
.implab e_system_sif
.impdesc e_system_dAP
.implab e_system_nAP e_system_eaAP
.implab e_system_sAP
.impdesc ARRAY
.impdesc _Nil
.impdesc _Cons
.impdesc _Conss
.implab n_Conss ea_Conss
.impdesc _Consts
.implab n_Consts ea_Consts
.impdesc _Conssts
.implab n_Conssts ea_Conssts
.impdesc _Tuple
.impdesc d_S.1
.implab n_S.1 ea_S.1
.impdesc d_S.2
.implab n_S.2 ea_S.2
.impdesc d_S.3
.implab n_S.3 ea_S.3
.impdesc d_S.4
.implab n_S.4 ea_S.4
.impdesc d_S.5
.implab n_S.5 ea_S.5
.impdesc d_S.6
.implab n_S.6 ea_S.6
.implab _driver
.impmod graph_copy
.implab e_graph_copy_scopy_to_string
.implab e_graph_copy_scopy_from_string
.impmod _SystemArray
.impmod symbols_in_program
.implab e_symbols_in_program_sget_symbol_value
.impmod StdString
.implab e_StdString_stoString;5
.implab e_StdString_stoString;6
.implab e_StdString_s%;10
.implab e_StdString_s+++;11
.impmod StdMisc
.implab e_StdMisc_sabort
.impmod StdChar
.implab e_StdChar_s==;18
.implab e_StdChar_s<;19
.implab e_StdChar_stoChar;21
.impmod StdInt
.implab e_StdInt_sbitand
.implab e_StdInt_s<<
.implab e_StdInt_s>>
.impdesc e_StdInt_d+;6
.implab e_StdInt_s+;6
.implab e_StdInt_n+;6
.implab e_StdInt_s-;7
.implab e_StdInt_s*;9
.implab e_StdInt_sone;11
.implab e_StdInt_s==;16
.implab e_StdInt_s<;17
.implab e_StdInt_stoInt;20
.impmod StdBool
.implab e_StdBool_snot
.export e_graph_copy_with_names_rDescInfo
.record e_graph_copy_with_names_rDescInfo ia 1 1 "DescInfo"
.descexp e_graph_copy_with_names_tDescInfo e_graph_copy_with_names_cDescInfo _hnf 2 1 "DescInfo"
.n 2 e_graph_copy_with_names_tDescInfo
.o 1 0 
e_graph_copy_with_names_cDescInfo
	push_node _cycle_in_spine 2
	jsr_eval 1
	jsr_eval 0
	push_array 1
	pushI_a 1
	updatepop_a 0 2
.impmod graph_copy_with_names
.impdesc e_graph_copy_with_names_rDescInfo
	fill_r e_graph_copy_with_names_rDescInfo 1 1 1 0 0
.d 1 0 
	pop_ab_rtn 1 1
.export e_graph_copy_with_names_dDescInfo.di_prefix_arity_and_mod
.export e_graph_copy_with_names_nDescInfo.di_prefix_arity_and_mod
.descs e_graph_copy_with_names_dDescInfo.di_prefix_arity_and_mod e_graph_copy_with_names_nDescInfo.di_prefix_arity_and_mod INT 2 0 "DescInfo.di_prefix_arity_and_mod"
.n -3 e_graph_copy_with_names_dDescInfo.di_prefix_arity_and_mod
.o 1 0 
e_graph_copy_with_names_nDescInfo.di_prefix_arity_and_mod
	push_node _cycle_in_spine 1
	jsr_eval 0
	push_r_args_b 0 1 1 1 1
	pop_a 1
	fillI_b 0 0
.d 1 0 
	pop_b_rtn 1
.export e_graph_copy_with_names_dDescInfo.di_name
.export e_graph_copy_with_names_nDescInfo.di_name
.desc e_graph_copy_with_names_dDescInfo.di_name e_graph_copy_with_names_nDescInfo.di_name _hnf 1 0 "DescInfo.di_name"
.n 1 e_graph_copy_with_names_dDescInfo.di_name
.o 1 0 
e_graph_copy_with_names_nDescInfo.di_name
	push_node _cycle_in_spine 1
	jsr_eval 0
	repl_r_args_a 1 1 1 1
	fillh ARRAY 1 1
.d 1 0 
	rtn 
.export e_graph_copy_with_names_dDescOrModTreeNode
.export e_graph_copy_with_names_nDescOrModTreeNode
.descn e_graph_copy_with_names_dDescOrModTreeNode e_graph_copy_with_names_nDescOrModTreeNode 4 0 "DescOrModTreeNode"
.a 4 ea82
.o 2 0 
l82
	push_args 0 3 3
	update_a 4 3
	create 
.d 5 0 
	put_a_jmp 5 ea82
.n 4 e_graph_copy_with_names_dDescOrModTreeNode ea82
.o 1 0 
e_graph_copy_with_names_nDescOrModTreeNode
	push_node _cycle_in_spine 4
.o 5 0 
ea82
	jsr_eval 3
	jsr_eval 2
	jsr_eval 1
	jsr_eval 0
	pushI_a 1
	pushI_a 0
	pop_a 2
	fill_r e_graph_copy_with_names_kDescOrModTreeNode 2 2 2 0 0
.d 1 0 
	pop_ab_rtn 2 2
.export e_graph_copy_with_names_kDescOrModTreeNode
.record e_graph_copy_with_names_kDescOrModTreeNode diiaa 2 2 "DescOrModTreeNode"
.export e_graph_copy_with_names_dEmptyDescOrModTree
.desc e_graph_copy_with_names_dEmptyDescOrModTree _hnf _hnf 0 0 "EmptyDescOrModTree"
.export e_graph_copy_with_names_rDesc_ModuleN
.record e_graph_copy_with_names_rDesc_ModuleN ii 0 2 "Desc_ModuleN"
.export e_graph_copy_with_names_tDesc_ModuleN
.export e_graph_copy_with_names_cDesc_ModuleN
.descn e_graph_copy_with_names_tDesc_ModuleN e_graph_copy_with_names_cDesc_ModuleN 2 1 "Desc_ModuleN"
.n 2 e_graph_copy_with_names_tDesc_ModuleN
.o 1 0 
e_graph_copy_with_names_cDesc_ModuleN
	push_node _cycle_in_spine 2
	jsr_eval 1
	jsr_eval 0
	pushI_a 1
	pushI_a 0
	pop_a 2
.impdesc e_graph_copy_with_names_rDesc_ModuleN
	fill_r e_graph_copy_with_names_rDesc_ModuleN 0 2 0 0 0
.d 1 0 
	pop_b_rtn 2
.export e_graph_copy_with_names_sTD;Desc_ModuleN
.export e_graph_copy_with_names_eaTD;Desc_ModuleN
.descexp e_graph_copy_with_names_dTD;Desc_ModuleN e_graph_copy_with_names_nTD;Desc_ModuleN e_graph_copy_with_names_lTD;Desc_ModuleN 1 0 "TD;Desc_ModuleN"
.o 2 0 
e_graph_copy_with_names_lTD;Desc_ModuleN
	update_a 1 0
	create 
.d 2 0 
	put_a_jmp 2 e_graph_copy_with_names_eaTD;Desc_ModuleN
.n 1 e_graph_copy_with_names_dTD;Desc_ModuleN e_graph_copy_with_names_eaTD;Desc_ModuleN
.o 1 0 
e_graph_copy_with_names_nTD;Desc_ModuleN
	push_node _cycle_in_spine 1
.o 2 0 
e_graph_copy_with_names_eaTD;Desc_ModuleN
.o 2 0 
e_graph_copy_with_names_sTD;Desc_ModuleN
.o 2 0 
s61
	fillh _Nil 0 1
.d 1 0 
	pop_a_rtn 1
.export e_graph_copy_with_names_sTD;DescOrModTree
.export e_graph_copy_with_names_eaTD;DescOrModTree
.descexp e_graph_copy_with_names_dTD;DescOrModTree e_graph_copy_with_names_nTD;DescOrModTree e_graph_copy_with_names_lTD;DescOrModTree 1 0 "TD;DescOrModTree"
.o 2 0 
e_graph_copy_with_names_lTD;DescOrModTree
	update_a 1 0
	create 
.d 2 0 
	put_a_jmp 2 e_graph_copy_with_names_eaTD;DescOrModTree
.n 1 e_graph_copy_with_names_dTD;DescOrModTree e_graph_copy_with_names_eaTD;DescOrModTree
.o 1 0 
e_graph_copy_with_names_nTD;DescOrModTree
	push_node _cycle_in_spine 1
.o 2 0 
e_graph_copy_with_names_eaTD;DescOrModTree
.o 2 0 
e_graph_copy_with_names_sTD;DescOrModTree
.o 2 0 
s60
	fillh _Nil 0 1
.d 1 0 
	pop_a_rtn 1
.export e_graph_copy_with_names_sTD;DescInfo
.export e_graph_copy_with_names_eaTD;DescInfo
.descexp e_graph_copy_with_names_dTD;DescInfo e_graph_copy_with_names_nTD;DescInfo e_graph_copy_with_names_lTD;DescInfo 1 0 "TD;DescInfo"
.o 2 0 
e_graph_copy_with_names_lTD;DescInfo
	update_a 1 0
	create 
.d 2 0 
	put_a_jmp 2 e_graph_copy_with_names_eaTD;DescInfo
.n 1 e_graph_copy_with_names_dTD;DescInfo e_graph_copy_with_names_eaTD;DescInfo
.o 1 0 
e_graph_copy_with_names_nTD;DescInfo
	push_node _cycle_in_spine 1
.o 2 0 
e_graph_copy_with_names_eaTD;DescInfo
.o 2 0 
e_graph_copy_with_names_sTD;DescInfo
.o 2 0 
s5
	fillh _Nil 0 1
.d 1 0 
	pop_a_rtn 1
.export e_graph_copy_with_names_scopy_from_string_with_names
.descexp e_graph_copy_with_names_dcopy_from_string_with_names e_graph_copy_with_names_ncopy_from_string_with_names e_graph_copy_with_names_lcopy_from_string_with_names 4 0 "copy_from_string_with_names"
.a 0 a2
.o 2 0 
e_graph_copy_with_names_lcopy_from_string_with_names
	repl_args 3 3
.o 4 0 
a2
.d 4 0 
	jsr ea2
.o 1 1 i
	buildI_b 0
	push_a 1
	buildh _Tuple 2
	put_a 1
.d 1 0 
	pop_b_rtn 1
.n 4 e_graph_copy_with_names_dcopy_from_string_with_names
.o 1 0 
e_graph_copy_with_names_ncopy_from_string_with_names
	push_node _cycle_in_spine 4
.d 4 0 
	jsr ea2
.o 1 1 i
	buildI_b 0
	push_a 1
	fillh _Tuple 2 3
.d 1 0 
	pop_ab_rtn 1 1
.o 4 0 
ea2
	jsr_eval 3
	jsr_eval 2
	jsr_eval 1
	jsr_eval 0
	push_array 3
	push_array 3
	push_array 3
	push_array 3
	update_a 3 7
	update3pop_a 0 4
.o 4 0 
e_graph_copy_with_names_scopy_from_string_with_names
.o 4 0 
s2
.d 0 0 
	jsr s21
.o 0 1 i
	jmp_neIi 1 else.1
	pushI 0
	create_array_ INT 0 1
.d 1 0 
	jsr s20
.o 0 1 i
	pushI 2
	push_b 1
	subI
	put_b 1
	push_a 3
	buildAC "__ARRAY__"
.d 2 0 
	jsr e_symbols_in_program_sget_symbol_value
.o 0 1 i
	push_b 1
	subI
	push_update_a 1 2
	updates3pop_a 0 1 4 3
.d 3 0 
	jsr s71
.o 1 0 
	push_b 1
	swap_a1 
	put_b 2
	pushI 0
.d 2 3 iii
	jsr s3
.o 1 0 
.d 1 0 
	jmp e_graph_copy_scopy_from_string
else.1
	push_update_a 1 2
	updates3pop_a 0 1 4 3
.d 3 0 
	jsr s71
.o 1 0 
	pushI 0
	pushI 0
	swap_a1 
	pushI 0
.d 2 3 iii
	jsr s3
.o 1 0 
.d 1 0 
	jmp e_graph_copy_scopy_from_string
.o 3 0 
s71
	push_arraysize_a e_graph_copy_with_names_rDescInfo 1 1 0
	decI
	push_b_incI 0
	create_array_ INT 0 1
	swap_a 2
	exchange_a 3 1
	pushI 0
s72
	push_b2 0 1
	jmp_ltI else.2
	push_ab 3 0
	buildh _Nil 0
	updates2_a 1 0 5
	select e_graph_copy_with_names_rDescInfo 1 1
	push_b_incI 1
	push_a2 2 0
	update_a 5 2
.d 3 1 i
	push_b_jsr 1 s73
.o 0 1 i
	push_ab 3 3
	buildh0_put_a _Nil 5
	update INT 0 1
	update2_a 0 4
	pop_a 2
	updatepop_b 0 2
.d 4 2 ii
	jmp s72
else.2
	updatepop_a 2 3
.d 1 0 
	pop_b_rtn 2
.o 3 1 i
s73
	andIio 255 0
	pushI 4
	jmp_o_geI 1 else.3
	push_b 0
	pushI 1
	jmp_ltI else.4
	pushI 8
	push_b 2
	shiftr%
	decI
	swap_a1 
	select _ 1 0
	put_b 1
.d 2 1 i
	jsr s4
.o 1 0 
	push_a2 0 1
	updates2_a 0 2 3
.d 2 0 
	pop_a_jsr 1 e_symbols_in_program_sget_symbol_value
.o 0 1 i
	jmp_neI_b -1 0 else.5
	push_a 0
	buildAC "lookup_desc_info not found "
	pop_b 1
	update2pop_a 0 1
.d 2 0 
	jsr catAC
.o 1 0 
.d 1 0 
	jsr print_string_
.o 0 0 
	halt
	pushI0_pop_a1 
.d 0 1 i
	rtn 
else.5
.d 0 1 i
	pop_a_rtn 1
else.4
	pushI 8
	push_b 2
	shiftr%
	decI
	swap_a1 
	select _ 1 0
	put_b 1
.d 2 1 i
	jsr s4
.o 1 0 
	push_a2 0 1
	updates2_a 0 2 3
.d 2 0 
	pop_a_jsr 1 e_symbols_in_program_sget_symbol_value
.o 0 1 i
	jmp_neI_b -1 0 else.6
	push_a 0
	buildAC "lookup_desc_info not found "
	pop_b 1
	update2pop_a 0 1
.d 2 0 
	jsr catAC
.o 1 0 
.d 1 0 
	jsr print_string_
.o 0 0 
	halt
	pushI0_pop_a1 
.d 0 1 i
	rtn 
else.6
	pushI 2
	swap_b1 
	pop_a 1
	addI
.d 0 1 i
	rtn 
else.3
	pushI 8
	push_b 2
	shiftr%
	decI
	swap_a1 
	select _ 1 0
	pushI 4
.d 2 1 i
	jsr s4
.o 1 0 
	push_a2 0 1
	updates2_a 0 2 3
.d 2 0 
	pop_a_jsr 1 e_symbols_in_program_sget_symbol_value
.o 0 1 i
	jmp_neI_b -1 0 else.7
	push_a 0
	buildAC "lookup_desc_info not found "
	pop_b 3
	update2pop_a 0 1
.d 2 0 
	jsr catAC
.o 1 0 
.d 1 0 
	jsr print_string_
.o 0 0 
	halt
	pushI0_pop_a1 
.d 0 1 i
	rtn 
else.7
	pop_a 1
	get_desc_arity_offset
	pushI 4
	push_b 3
	subI
	mulI
	push_b 1
	addI
	pushI 2
	update_b 0 4
	updatepop_b 1 3
	addI
.d 0 1 i
	rtn 
.export e_graph_copy_with_names_sreplace_desc_numbers_by_descs
.descexp e_graph_copy_with_names_dreplace_desc_numbers_by_descs e_graph_copy_with_names_nreplace_desc_numbers_by_descs e_graph_copy_with_names_lreplace_desc_numbers_by_descs 5 0 "replace_desc_numbers_by_descs"
.a 0 a3
.o 2 0 
e_graph_copy_with_names_lreplace_desc_numbers_by_descs
	repl_args 4 4
.o 5 0 
a3
.d 5 0 
	jsr ea3
.o 1 0 
	buildh ARRAY 1
.d 1 0 
	rtn 
.n 5 e_graph_copy_with_names_dreplace_desc_numbers_by_descs
.o 1 0 
e_graph_copy_with_names_nreplace_desc_numbers_by_descs
	push_node _cycle_in_spine 5
.d 5 0 
	jsr ea3
.o 1 0 
	fillh ARRAY 1 1
.d 1 0 
	rtn 
.o 5 0 
ea3
	jsr_eval 4
	jsr_eval 3
	jsr_eval 2
	jsr_eval 1
	jsr_eval 0
	pushI_a 4
	pushI_a 3
	push_array 2
	push_array 2
	pushI_a 2
	update2pop_a 0 5
.o 2 3 iii
e_graph_copy_with_names_sreplace_desc_numbers_by_descs
.o 2 3 iii
s3
	push_arraysize_a CHAR 0 1 0
	push_b 1
	jmp_ltI else.8
	dup_a 1
	push_arraysize CHAR 0 1
	push_b 1
	jmp_neI else.9
.d 1 0 
	pop_b_rtn 3
else.9
	updatepop_b 0 2
.d 0 1 i
	pop_a_jsr 1 ItoAC
.o 1 0 
	buildAC "error in replace_desc_numbers_by_descs "
.d 2 0 
	jsr catAC
.o 1 0 
.d 1 0 
	jsr print_string_
.o 0 0 
	halt
	push_array 0
	put_a 1
.d 1 0 
	rtn 
else.8
	push_ab 0 0
	push_a_b 0
	pop_a 1
	addI
	load_i 16
	pushI 0
	jmp_o_geI 1 else.10
	pushI 8
	push_b 2
	addI
	updatepop_b 0 2
.d 2 3 iii
	jmp s3
else.10
	decI
	push_a 1
	select INT 0 1
	push_b 0
	update_b 3 1
	addI
	andIio 2 0
	jmp_neIi 0 else.11
	push_b2 3 0
	subI
.d 1 2 ii
	push_b_jsr 2 s34
.o 1 0 
.d 0 1 i
	jsr s38
.o 0 1 i
	pushI 3
	swap_b1 
	shiftl%
	pushI 8
	push_b 2
	addI
	addI
.d 2 3 iii
	put_b_jmp 1 s3
else.11
.d 0 1 i
	push_b_jsr 0 s36
.o 0 2 ib
	jmp_b_false 1 else.12
	push_b2 5 2
	subI
.d 1 2 ii
	push_b_jsr 4 s34
.o 1 0 
	pushI 3
	push_b 1
	shiftl%
	pushI 8
	push_b 5
	addI
	addI
	updatepop_b 0 4
.d 2 3 iii
	jmp s3
else.12
	push_b 0
	jmp_neI_b 0 0 else.13
	push_b2 6 3
	subI
	update_b 0 4
	updatepop_b 5 3
.d 1 2 ii
	jsr s34
.o 1 0 
	pushI 8
	push_b 1
	addI
	push_a 0
	push_a_b 0
	pop_a 1
	addI
	load_i 16
	pushI 7
	push_b 1
	addI
	andIi -8
	pushI 16
	push_b 3
	addI
	addI
	updatepop_b 0 2
.d 2 3 iii
	jmp s3
else.13
	jmp_neI_b 1 0 else.14
	push_b2 6 3
	subI
	update_b 0 4
	updatepop_b 5 3
.d 1 2 ii
	jsr s34
.o 1 0 
	pushI 16
	push_b 1
	addI
	push_a 0
	push_a_b 0
	pop_a 1
	addI
	load_i 16
	jmp_neI_b 0 0 else.15
	pushI 24
	push_b 2
	addI
	updatepop_b 0 2
.d 2 3 iii
	jmp s3
else.15
	decI
	push_a 1
	select INT 0 1
	push_b 0
	update_b 3 1
	addI
	push_b2 3 0
	subI
	pushI 16
	push_b 3
	addI
.d 1 2 ii
	jsr s34
.o 1 0 
	pushI 8
	push_b 2
	addI
	push_a 0
	push_a_b 0
	pop_a 1
	addI
	load_i 16
	push_b 1
	eq_desc_b INT 0
	jmp_false else.16
	pushI 3
	push_b 1
	shiftl%
	pushI 24
	push_b 4
	addI
	addI
	updatepop_b 0 3
.d 2 3 iii
	jmp s3
else.16
	push_b 1
	eq_desc_b REAL 0
	jmp_false else.17
	pushI 3
	push_b 1
	shiftl%
	pushI 24
	push_b 4
	addI
	addI
	updatepop_b 0 3
.d 2 3 iii
	jmp s3
else.17
	push_b 1
	eq_desc_b BOOL 0
	jmp_false else.18
	pushI 7
	push_b 1
	addI
	andIi -8
	pushI 24
	push_b 4
	addI
	addI
	updatepop_b 0 3
.d 2 3 iii
	jmp s3
else.18
	push_b 1
	load_si16 -2
	pushI 256
	push_b 1
	jmp_ltI else.19
	push_b 2
	load_si16 0
	pushI 256
	push_b 2
	subI
	subI
	push_b 2
	mulI
	pushI 3
	swap_b1 
	shiftl%
	pushI 24
	push_b 5
	addI
	addI
	updatepop_b 0 4
.d 2 3 iii
	jmp s3
else.19
	update_b 2 0
.d 0 1 i
	pop_a_jsr 2 ItoAC
.o 1 0 
	buildAC " "
.d 2 0 
	jsr catAC
.o 1 0 
	updatepop_b 0 4
.d 0 1 i
	jsr ItoAC
.o 1 0 
.d 2 0 
	jsr catAC
.o 1 0 
.d 1 0 
	jsr print_string_
.o 0 0 
	halt
	push_array 0
	put_a 1
.d 1 0 
	rtn 
else.14
	pop_b_jmp 4 s3.1
s3.1
	pop_b 3
	pushD m_graph_copy_with_names
	pushD e_graph_copy_with_names_dreplace_desc_numbers_by_descs
.d 0 2 ii
	pop_a_jmp 2 _match_error
.o 0 0 
s19
.inline desc_arity_offset
	get_desc_arity_offset
.end
.d 0 1 i
	rtn 
.export e_graph_copy_with_names_smake_symbol_name
.descexp e_graph_copy_with_names_dmake_symbol_name e_graph_copy_with_names_nmake_symbol_name e_graph_copy_with_names_lmake_symbol_name 3 0 "make_symbol_name"
.a 0 a4
.o 2 0 
e_graph_copy_with_names_lmake_symbol_name
	repl_args 2 2
.o 3 0 
a4
.d 3 0 
	jsr ea4
.o 1 0 
	buildh ARRAY 1
.d 1 0 
	rtn 
.n 3 e_graph_copy_with_names_dmake_symbol_name
.o 1 0 
e_graph_copy_with_names_nmake_symbol_name
	push_node _cycle_in_spine 3
.d 3 0 
	jsr ea4
.o 1 0 
	fillh ARRAY 1 1
.d 1 0 
	rtn 
.o 3 0 
ea4
	jsr_eval 2
	jsr_eval 1
	jsr_eval 0
	pushI_a 2
	push_array 1
	push_array 1
	update2pop_a 0 3
.o 2 1 i
e_graph_copy_with_names_smake_symbol_name
.o 2 1 i
s4
	push_a 0
	eqAC_a "_system"
	jmp_false case.21
.d 1 1 i
	pop_a_jmp 1 s75
case.21
	swap_a1 
	pushI 0
.d 1 1 i
	jsr s39
.o 1 0 
.d 0 1 i
	jsr s40
.o 1 0 
.d 2 0 
	jsr catAC
.o 1 0 
	buildAC "__"
.d 2 0 
	jsr catAC
.o 1 0 
	push_a 1
	pushI 0
.d 1 1 i
	buildh0_put_a_jsr _Nil 3 s39
.o 1 0 
	update2pop_a 0 1
.d 2 0 
	jsr catAC
.o 1 0 
	buildAC "e__"
.d 2 0 
	jsr catAC
.o 1 0 
.d 1 0 
	rtn 
.o 1 1 i
s75
	jmp_eqACio "INT" 0 case.22
	jmp_eqACio "CHAR" 0 case.23
	jmp_eqACio "REAL" 0 case.24
	jmp_eqACio "BOOL" 0 case.25
	jmp_eqACio "_STRING_" 0 case.26
	jmp_eqACio "_ARRAY_" 0 case.27
	jmp_eqACio "ARRAY" 0 case.28
	jmp_eqACio "Cons" 0 case.29
	jmp_eqACio "Nil" 0 case.30
	jmp_eqACio "_Tuple" 0 case.31
	jmp_eqACio "Cons!" 0 case.32
	jmp_eqACio "Cons!!" 0 case.33
	jmp_eqACio "Cons^!" 0 case.34
	jmp_eqACio "[#Int]" 0 case.35
	jmp_eqACio "[#Int!]" 0 case.36
	jmp_eqACio "[#Char]" 0 case.37
	jmp_eqACio "[#Char!]" 0 case.38
	jmp_eqACio "[#Real]" 0 case.39
	jmp_eqACio "[#Real!]" 0 case.40
	jmp_eqACio "[#Bool]" 0 case.41
	jmp_eqACio "[#Bool!]" 0 case.42
	jmp_eqACio "[#File]" 0 case.43
	jmp_eqACio "[#File!]" 0 case.44
	jmp_eqACio "[#{}]" 0 case.45
	jmp_eqACio "?None" 0 case.46
	jmp_eqACio "?Just" 0 case.47
	jmp_eqACio "?^Just" 0 case.48
	jmp_eqACio "?#JustInt" 0 case.49
	jmp_eqACio "?#JustReal" 0 case.50
	jmp_eqACio "?#JustChar" 0 case.51
	jmp_eqACio "?#JustBool" 0 case.52
	jmp_eqACio "?#JustFile" 0 case.53
	jmp_eqACio "?#Just{}" 0 case.54
	jmp_eqACio "AP" 0 case.55
	jmp_eqACio "_ind" 0 case.56
	jmp_eqACio "_Unit" 0 case.57
	jmp case.58
case.22
.d 1 0 
	pop_b_rtn 1
case.23
.d 1 0 
	pop_b_rtn 1
case.24
.d 1 0 
	pop_b_rtn 1
case.25
.d 1 0 
	pop_b_rtn 1
case.26
	pop_a 1
	pop_b 1
	buildAC "__STRING__"
.d 1 0 
	rtn 
case.27
	pop_a 1
	pop_b 1
	buildAC "__ARRAY__"
.d 1 0 
	rtn 
case.28
.d 1 0 
	pop_b_rtn 1
case.29
	pop_a 1
	pop_b 1
	buildAC "__Cons"
.d 1 0 
	rtn 
case.30
	pop_a 1
	pop_b 1
	buildAC "__Nil"
.d 1 0 
	rtn 
case.31
	pop_a 1
	pop_b 1
	buildAC "__Tuple"
.d 1 0 
	rtn 
case.32
.d 0 1 i
	pop_a_jsr 1 s40
.o 1 0 
	buildAC "__Conss"
	swap_a1 
.d 2 0 
	jsr catAC
.o 1 0 
.d 1 0 
	rtn 
case.33
.d 0 1 i
	pop_a_jsr 1 s40
.o 1 0 
	buildAC "__Conssts"
	swap_a1 
.d 2 0 
	jsr catAC
.o 1 0 
.d 1 0 
	rtn 
case.34
.d 0 1 i
	pop_a_jsr 1 s40
.o 1 0 
	buildAC "__Consts"
	swap_a1 
.d 2 0 
	jsr catAC
.o 1 0 
.d 1 0 
	rtn 
case.35
	pop_a 1
	pop_b 1
	buildAC "__Consi"
.d 1 0 
	rtn 
case.36
	pop_a 1
	pop_b 1
	buildAC "__Consits"
.d 1 0 
	rtn 
case.37
	pop_a 1
	pop_b 1
	buildAC "__Consc"
.d 1 0 
	rtn 
case.38
	pop_a 1
	pop_b 1
	buildAC "__Conscts"
.d 1 0 
	rtn 
case.39
	pop_a 1
	pop_b 1
	buildAC "__Consr"
.d 1 0 
	rtn 
case.40
	pop_a 1
	pop_b 1
	buildAC "__Consrts"
.d 1 0 
	rtn 
case.41
	pop_a 1
	pop_b 1
	buildAC "__Consb"
.d 1 0 
	rtn 
case.42
	pop_a 1
	pop_b 1
	buildAC "__Consbts"
.d 1 0 
	rtn 
case.43
	pop_a 1
	pop_b 1
	buildAC "__Consf"
.d 1 0 
	rtn 
case.44
	pop_a 1
	pop_b 1
	buildAC "__Consfts"
.d 1 0 
	rtn 
case.45
	pop_a 1
	pop_b 1
	buildAC "__Consa"
.d 1 0 
	rtn 
case.46
	pop_a 1
	pop_b 1
	buildAC "__None"
.d 1 0 
	rtn 
case.47
	pop_a 1
	pop_b 1
	buildAC "__Justs"
.d 1 0 
	rtn 
case.48
	pop_a 1
	pop_b 1
	buildAC "__Just"
.d 1 0 
	rtn 
case.49
	pop_a 1
	pop_b 1
	buildAC "__Justi"
.d 1 0 
	rtn 
case.50
	pop_a 1
	pop_b 1
	buildAC "__Justr"
.d 1 0 
	rtn 
case.51
	pop_a 1
	pop_b 1
	buildAC "__Justc"
.d 1 0 
	rtn 
case.52
	pop_a 1
	pop_b 1
	buildAC "__Justb"
.d 1 0 
	rtn 
case.53
	pop_a 1
	pop_b 1
	buildAC "__Justf"
.d 1 0 
	rtn 
case.54
	pop_a 1
	pop_b 1
	buildAC "__Justa"
.d 1 0 
	rtn 
case.55
.d 0 1 i
	jsr s40
.o 1 0 
.d 2 0 
	jsr catAC
.o 1 0 
	buildAC "e__system__"
.d 2 0 
	jsr catAC
.o 1 0 
.d 1 0 
	rtn 
case.56
.d 0 1 i
	pop_a_jsr 1 s40
.o 1 0 
	buildAC "ind"
	swap_a1 
.d 2 0 
	jsr catAC
.o 1 0 
	buildAC "e__system__"
.d 2 0 
	jsr catAC
.o 1 0 
.d 1 0 
	rtn 
case.57
	pop_a 1
	pop_b 1
	buildAC "e____predef__d__Unit"
.d 1 0 
	rtn 
case.58
	pushI 0
.d 1 1 i
	jsr s39
.o 1 0 
.d 0 1 i
	jsr s40
.o 1 0 
.d 2 0 
	jsr catAC
.o 1 0 
.d 1 0 
	rtn 
.o 0 1 i
s40
	jmp_eqI_b2 4 2 0 case.59 case.60
	jmp_eqI_b2 3 0 0 case.61 case.62
	jmp_eqI_b 1 0 case.63
	jmp s40.1
case.59
	pop_b 1
	buildAC "d"
.d 1 0 
	rtn 
case.60
	pop_b 1
	buildAC "r"
.d 1 0 
	rtn 
case.61
	pop_b 1
	buildAC "k"
.d 1 0 
	rtn 
case.62
	pop_b 1
	buildAC "n"
.d 1 0 
	rtn 
case.63
	pop_b 1
	buildAC "c"
.d 1 0 
	rtn 
s40.1
	pop_b 1
	pushD m_graph_copy_with_names
	pushD x_40
.d 0 2 ii
	jmp _match_error
.string x_40 "prefix_char"
.o 1 1 i
s39
	jmp_o_geI_arraysize_a CHAR 0 0 else.64
	selectoo CHAR 0 1 0 0
	pushC 'a'
	push_b 1
	ltC
	jmp_true else.65
	push_b 0
	pushC 'z'
	ltC
	jmp_true else.65
	push_b_incI 1
	updatepop_b 0 2
.d 1 1 i
	jmp s39
else.65
	pushC 'A'
	push_b 1
	ltC
	jmp_true else.67
	push_b 0
	pushC 'Z'
	ltC
	jmp_true else.67
	push_b_incI 1
	updatepop_b 0 2
.d 1 1 i
	jmp s39
else.67
	pushC '0'
	push_b 1
	ltC
	jmp_true else.69
	push_b 0
	pushC '9'
	ltC
	jmp_true else.69
	push_b_incI 1
	updatepop_b 0 2
.d 1 1 i
	jmp s39
else.69
	jmp_neC_b '_' 0 else.71
	push_a 0
	pop_b 1
	push_arraysize CHAR 0 1
	decI
	push_ab 0 1
.d 1 2 ii
	jsr sliceAC
.o 1 0 
	buildAC "_"
.d 2 0 
	jsr catAC
.o 1 0 
	push_b_decI 0
	pushI 0
	push_a 1
.d 1 2 ii
	buildh0_put_a_jsr _Nil 3 sliceAC
.o 1 0 
	update2pop_a 0 1
.d 2 0 
	jsr catAC
.o 1 0 
	push_b_incI 0
	incI
.d 1 1 i
	put_b_jmp 1 s39
else.71
	push_b 0
	CtoI
	pushI 32
	push_b 1
	jmp_ltI else.72
	pushI 127
	jmp_o_geI 1 else.72
	pushI 32
	push_b 1
	subI
	buildAC " eNHdpas01MA4SPD8901234567CILEGQt567890123456789012345678901b3c5B789012345678901234567890123O5T"
	updatepop_b 0 2
	select CHAR 0 1
	pushC 'A'
	push_b 1
	ltC
	jmp_true else.74
	push_b 0
	pushC 'Z'
	ltC
	jmp_true else.74
	push_arraysize_a CHAR 0 1 0
	decI
	push_b_incI 2
.d 1 2 ii
	push_a_jsr 0 sliceAC
.o 1 0 
	pushI 2
	create_array_ CHAR 0 1
	pushI 1
	update CHAR 0 1
	pushC '_'
	pushI 0
	update CHAR 0 1
.d 2 0 
	jsr catAC
.o 1 0 
	push_b_decI 0
	pushI 0
	push_a 1
.d 1 2 ii
	buildh0_put_a_jsr _Nil 3 sliceAC
.o 1 0 
	update2pop_a 0 1
.d 2 0 
	jsr catAC
.o 1 0 
	push_b_incI 0
	incI
.d 1 1 i
	put_b_jmp 1 s39
else.74
	pushC 'a'
	push_b 1
	ltC
	jmp_true else.76
	push_b 0
	pushC 'z'
	ltC
	jmp_true else.76
	push_arraysize_a CHAR 0 1 0
	decI
	push_b_incI 2
.d 1 2 ii
	push_a_jsr 0 sliceAC
.o 1 0 
	push_b 0
	CtoI
	pushI 32
	push_b 1
	subI
	put_b 1
	ItoC
	pushI 3
	create_array_ CHAR 0 1
	put_b 1
	pushI 2
	update CHAR 0 1
	pushC 'N'
	pushI 1
	update CHAR 0 1
	pushC '_'
	pushI 0
	update CHAR 0 1
.d 2 0 
	jsr catAC
.o 1 0 
	push_b_decI 0
	pushI 0
	push_a 1
.d 1 2 ii
	buildh0_put_a_jsr _Nil 3 sliceAC
.o 1 0 
	update2pop_a 0 1
.d 2 0 
	jsr catAC
.o 1 0 
	pushI 3
	addI
.d 1 1 i
	jmp s39
else.76
	push_b 0
	CtoAC
	pop_b 1
	push_a 1
	buildh0_put_a _Nil 3
	select CHAR 0 1
	pushI 2
	create_array_ CHAR 0 1
	pushC ' '
	pushI 1
	update CHAR 0 1
	pushI 0
	update CHAR 0 1
	update2pop_a 0 1
.d 2 0 
	jsr catAC
.o 1 0 
	buildAC "expand special characters "
.d 2 0 
	jsr catAC
.o 1 0 
.d 1 0 
	jsr print_string_
.o 0 0 
	halt
	push_array 0
	put_a 1
.d 1 0 
	rtn 
else.72
	push_b 1
	CtoAC
	pop_b 2
	push_a 1
	buildh0_put_a _Nil 3
	select CHAR 0 1
	pushI 2
	create_array_ CHAR 0 1
	pushC ' '
	pushI 1
	update CHAR 0 1
	pushI 0
	update CHAR 0 1
	update2pop_a 0 1
.d 2 0 
	jsr catAC
.o 1 0 
	buildAC "expand special characters "
.d 2 0 
	jsr catAC
.o 1 0 
.d 1 0 
	jsr print_string_
.o 0 0 
	halt
	push_array 0
	put_a 1
.d 1 0 
	rtn 
else.64
.d 1 0 
	pop_b_rtn 1
.export e_graph_copy_with_names_scopy_to_string_with_names
.descexp e_graph_copy_with_names_dcopy_to_string_with_names e_graph_copy_with_names_ncopy_to_string_with_names e_graph_copy_with_names_lcopy_to_string_with_names 1 0 "copy_to_string_with_names"
.o 2 0 
e_graph_copy_with_names_lcopy_to_string_with_names
.d 1 0 
	pop_a_jsr 1 ea1
.o 3 0 
	push_a 2
	buildh ARRAY 1
	push_a 2
	buildh ARRAY 1
	push_a 2
	buildh ARRAY 1
	buildh _Tuple 3
	updatepop_a 0 3
.d 1 0 
	rtn 
.n 1 e_graph_copy_with_names_dcopy_to_string_with_names
.o 1 0 
e_graph_copy_with_names_ncopy_to_string_with_names
	push_node _cycle_in_spine 1
.d 1 0 
	jsr ea1
.o 3 0 
	push_a 2
	buildh ARRAY 1
	push_a 2
	buildh ARRAY 1
	push_a 2
	buildh ARRAY 1
	fillh _Tuple 3 6
.d 1 0 
	pop_a_rtn 3
.o 1 0 
e_graph_copy_with_names_scopy_to_string_with_names
.o 1 0 
ea1
	jsr_eval 0
.o 1 0 
s1
	buildh e_graph_copy_with_names_dEmptyDescOrModTree 0
.d 0 0 
	jsr s21
.o 0 1 i
	eqIi 1
.d 0 1 b
	jsr s74
.o 0 1 i
	push_a 1
.d 1 0 
	buildh0_put_a_jsr _Nil 3 e_graph_copy_scopy_to_string
.o 1 0 
	pushI 0
	pushI 0
	update2pop_a 0 1
.d 2 3 iii
	jsr s46
.o 2 1 i
	swap_a1 
.d 1 1 i
	jsr s48
.o 1 0 
.d 1 0 
	jsr s49
.o 2 1 i
	push_arraysize_a e_graph_copy_with_names_rDesc_ModuleN 0 2 0
	decI
	swap_a1 
.d 1 1 i
	push_b_jsr 1 s50
.o 1 0 
	push_arraysize_a INT 0 1 0
	decI
	push_b_incI 0
	create_array_ _ 1 0
	pushI 0
.d 2 2 ii
	jsr s66
.o 1 0 
	push_b_incI 0
	create_array_ e_graph_copy_with_names_rDescInfo 1 1
	push_update_a 0 2
	put_b 1
	pushI 0
.d 2 2 ii
	buildh0_put_a_jsr _Nil 4 s67
.o 1 0 
	dup_a 2
	exchange_a 3 1
.d 3 0 
	pop_a_rtn 1
.o 0 1 b
s74
	eqB_b TRUE 0
	jmp_false case.79
	pop_b 1
	pushI 0
	create_array_ INT 0 1
.d 1 0 
	jsr s20
.o 0 1 i
	pushI 2
	push_b 1
	subI
	put_b 1
.d 0 1 i
	rtn 
case.79
	pop_b 1
	pushI 0
.d 0 1 i
	rtn 
.o 2 2 ii
s67
	push_b2 0 1
	jmp_ltI else.80
	push_ab 1 0
	exchange_a 2 1
	select e_graph_copy_with_names_rDesc_ModuleN 0 2
	push_b_incI 2
	push2_b 2
.d 0 2 ii
	jsr s42
.o 1 1 i
	push_ab 2 4
	update3pop_a 0 1
	update e_graph_copy_with_names_rDescInfo 1 1
	updatepop_b 0 3
.d 2 2 ii
	jmp s67
else.80
	put_a 1
.d 1 0 
	pop_b_rtn 2
.o 2 2 ii
s66
	push_b2 0 1
	jmp_ltI else.81
	push_ab 1 0
	exchange_a 2 1
	select INT 0 1
	push_b_incI 1
.d 0 1 i
	push_b_jsr 1 s31
.o 1 0 
	push_ab 2 2
	update3pop_a 0 1
	update _ 1 0
	updatepop_b 0 2
.d 2 2 ii
	jmp s66
else.81
	put_a 1
.d 1 0 
	pop_b_rtn 2
.o 0 2 ii
s42
	andIio 2 0
	jmp_neIi 0 else.82
	push_b 0
	get_thunk_desc
	push_b_incI 0
	incI
.d 0 1 i
	jsr s22
.o 1 0 
	push_b 1
	get_thunk_arity
	pushI 256
	jmp_o_geI 1 else.83
	pushI 0
	push_b 1
	jmp_ltI else.83
	push_b_incI 1
	incI
	updatepop_b 0 3
.d 0 1 i
	jsr s25
.o 0 1 i
	andIi 1
	eqIi 0
	notB
	pushI 0
	push_b2 0 1
	jmp_false else.83
	pushI 8
	push_b 4
	shiftl%
	incI
	updatepop_b 0 4
.d 1 1 i
	rtn 
else.83
	pushI 8
	push_b 4
	shiftl%
	pushI 0
	addI
	updatepop_b 0 4
.d 1 1 i
	rtn 
else.82
.d 0 1 i
	push_b_jsr 0 s22
.o 1 0 
	push_b 0
	load_si16 -2
	jmp_neI_b 0 0 else.86
	pushI 8
	push_b 3
	shiftl%
	pushI 4
	addI
	updatepop_b 0 3
.d 1 1 i
	rtn 
else.86
	pushI 256
	jmp_o_geI 1 else.87
	pushI 8
	push_b 3
	shiftl%
	push_b 1
	pushI 4
	addI
	addI
	updatepop_b 0 3
.d 1 1 i
	rtn 
else.87
	update_b 1 0
	pushI 0
	put_b 2
.d 0 2 ii
	jsr s26
.o 0 1 c
	jmp_eqCc 'd' else.88
	pushI 8
	push_b 1
	shiftl%
	pushI 2
	addI
	put_b 1
.d 1 1 i
	rtn 
else.88
	pushI 8
	push_b 1
	shiftl%
	pushI 3
	addI
	put_b 1
.d 1 1 i
	rtn 
.o 0 2 ii
s26
	addI
	load_ui8 2
.d 0 1 c
	rtn 
.o 0 1 i
s22
.d 0 1 i
	jsr DtoAC
.o 1 0 
.d 1 0 
	rtn 
.o 0 1 i
s25
	push_b 0
	load_si16 0
	addI
	load_si32 2
.d 0 1 i
	rtn 
.o 0 1 i
s31
.d 0 1 i
	push_b_jsr 0 s29
.o 0 1 i
	decI
	push_b_incI 0
	create_array_ CHAR 0 1
	push_b 0
	pushI 0
	update_b 0 2
	push_b 3
	updates2pop_b 0 2 4
s63
	push_b2 1 2
	jmp_ltI else.89
	push_b_incI 1
	push2_b 2
.d 0 2 ii
	jsr s30
.o 0 1 c
	push_b 3
	update CHAR 0 1
.d 1 3 iii
	put_b_jmp 2 s63
else.89
.d 1 0 
	pop_b_rtn 3
.o 0 2 ii
s30
	addI
	load_ui8 4
.d 0 1 c
	rtn 
.o 0 1 i
s29
	load_si32 0
.d 0 1 i
	rtn 
.o 1 1 i
s50
	pushI 0
	swap_b1 
	create_array INT 0 1
	swap_a1 
s56
	jmp_ne_desc e_graph_copy_with_names_kDescOrModTreeNode 0 0 case.91
	repl_r_args 2 2
	swap_b1 
	push_a 2
	buildh0_put_a _Nil 4
	update INT 0 1
	updates2_a 0 2 3
.d 2 0 
	pop_a_jsr 1 s56
.o 1 0 
	swap_a1 
.d 2 0 
	jmp s56
case.91
.d 1 0 
	pop_a_rtn 1
.o 1 0 
s49
	buildh e_graph_copy_with_names_dEmptyDescOrModTree 0
	buildI 0
	push_a 2
	update3pop_a 0 1
	pushI 0
.d 3 1 i
	jmp s87
.o 0 1 i
s41
	andIio 2 0
	jmp_neIi 0 else.92
	get_thunk_desc
	pushI 2
	addI
.d 0 1 i
	jmp s23
else.92
	push_b 0
	load_si16 -2
	pushI 256
	swap_b1 
	jmp_geI else.93
.d 0 1 i
	jmp s23
else.93
s27
	pushI -10
	addI
	load_module_name
.d 0 1 i
	rtn 
.o 0 1 i
s23
	push_b 0
	load_si16 0
	addI
	pushI 6
	addI
	load_module_name
.d 0 1 i
	rtn 
.o 0 1 i
s11
.inline get_thunk_descriptor
	get_thunk_desc
.end
.d 0 1 i
	rtn 
.o 1 1 i
s48
	pushI 0
	pushI 0
	push_b 2
	update3pop_b 0 1
	create_array e_graph_copy_with_names_rDesc_ModuleN 0 2
	swap_a1 
s54
	jmp_ne_desc e_graph_copy_with_names_kDescOrModTreeNode 0 0 case.95
	repl_r_args 2 2
	push_ab 2 1
	buildh _Nil 0
	updates2_a 1 0 4
	select e_graph_copy_with_names_rDesc_ModuleN 0 2
	push_b 3
	updates2pop_b 0 2 4
	update e_graph_copy_with_names_rDesc_ModuleN 0 2
	updates2_a 0 2 3
.d 2 0 
	pop_a_jsr 1 s54
.o 1 0 
	swap_a1 
.d 2 0 
	jmp s54
case.95
.d 1 0 
	pop_a_rtn 1
.o 2 3 iii
s46
	push_arraysize_a CHAR 0 1 0
	push_b 1
	jmp_ltI else.96
	push_arraysize_a CHAR 0 1 0
	push_b 1
	jmp_neI else.97
	updatepop_b 1 2
.d 2 1 i
	rtn 
else.97
	buildAC "error in replace_descs_by_desc_numbers_and_build_desc_tree"
	updatepop_a 0 2
.d 1 0 
	pop_b_jsr 3 print_string_
.o 0 0 
	halt
	repl_args 3 3
	jsr_eval 2
	jsr_eval 1
	jsr_eval 0
	pushI_a 1
	push_array 0
	updatepop_a 0 2
.d 2 1 i
	rtn 
else.96
	push_ab 0 0
	push_a_b 0
	pop_a 1
	addI
	load_i 16
	push_b 0
	update_b 4 1
	addI
	andIio 1 0
	jmp_eqIi 0 else.98
	pushI 8
	push_b 2
	addI
	updatepop_b 0 2
.d 2 3 iii
	jmp s46
else.98
	andIio 2 0
	jmp_neIi 0 else.99
	push3_b 2
.d 2 3 iii
	jsr s47
.o 2 1 i
.d 0 1 i
	push_b_jsr 1 s38
.o 0 1 i
	pushI 3
	swap_b1 
	shiftl%
	pushI 8
	push_b 4
	addI
	addI
	update2pop_b 0 3
.d 2 3 iii
	jmp s46
else.99
.d 0 1 i
	push_b_jsr 0 s36
.o 0 2 ib
	jmp_b_false 1 else.100
	push3_b 4
.d 2 3 iii
	jsr s47
.o 2 1 i
	pushI 3
	push_b 2
	shiftl%
	pushI 8
	push_b 6
	addI
	addI
	update2pop_b 0 5
.d 2 3 iii
	jmp s46
else.100
	push_b 0
	jmp_neI_b 0 0 else.101
	update2_b 3 1
	update_b 5 3
.d 2 3 iii
	pop_b_jsr 1 s47
.o 2 1 i
	pushI 8
	push_b 2
	addI
	push_a 0
	push_a_b 0
	pop_a 1
	addI
	load_i 16
	pushI 7
	push_b 1
	addI
	andIi -8
	pushI 16
	push_b 4
	addI
	addI
	update_b 2 4
	updatepop_b 0 3
.d 2 3 iii
	jmp s46
else.101
	jmp_neI_b 1 0 else.102
	update2_b 3 1
	update_b 5 3
.d 2 3 iii
	pop_b_jsr 1 s47
.o 2 1 i
	pushI 16
	push_b 2
	addI
	push_a 0
	push_a_b 0
	pop_a 1
	addI
	load_i 16
	jmp_neI_b 0 0 else.103
	pushI 24
	push_b 3
	addI
	update_b 2 4
	updatepop_b 0 3
.d 2 3 iii
	jmp s46
else.103
	push_b 0
	update_b 5 1
	addI
	pushI 16
	push_b 3
	addI
	push_b2 0 1
	update_b 4 2
.d 2 3 iii
	jsr s47
.o 2 1 i
	pushI 8
	push_b 4
	addI
	push_a 0
	push_a_b 0
	pop_a 1
	addI
	load_i 16
	push_b 2
	eq_desc_b INT 0
	jmp_false else.104
	pushI 3
	push_b 1
	shiftl%
	pushI 24
	push_b 6
	addI
	addI
	update_b 2 6
	updatepop_b 0 5
.d 2 3 iii
	jmp s46
else.104
	push_b 2
	eq_desc_b REAL 0
	jmp_false else.105
	pushI 3
	push_b 1
	shiftl%
	pushI 24
	push_b 6
	addI
	addI
	update_b 2 6
	updatepop_b 0 5
.d 2 3 iii
	jmp s46
else.105
	push_b 2
	eq_desc_b BOOL 0
	jmp_false else.106
	pushI 7
	push_b 1
	addI
	andIi -8
	pushI 24
	push_b 6
	addI
	addI
	update_b 2 6
	updatepop_b 0 5
.d 2 3 iii
	jmp s46
else.106
	push_b 2
	load_si16 -2
	pushI 256
	push_b 1
	jmp_ltI else.107
	push_b 3
	load_si16 0
	pushI 256
	push_b 2
	subI
	subI
	push_b 2
	mulI
	pushI 3
	swap_b1 
	shiftl%
	pushI 24
	push_b 7
	addI
	addI
	update_b 3 7
	updatepop_b 0 6
.d 2 3 iii
	jmp s46
else.107
	update_b 3 0
.d 0 1 i
	pop_a_jsr 2 ItoAC
.o 1 0 
	buildAC " "
.d 2 0 
	jsr catAC
.o 1 0 
	updatepop_b 0 6
.d 0 1 i
	jsr ItoAC
.o 1 0 
.d 2 0 
	jsr catAC
.o 1 0 
.d 1 0 
	jsr print_string_
.o 0 0 
	halt
	repl_args 3 3
	jsr_eval 2
	jsr_eval 1
	jsr_eval 0
	pushI_a 1
	push_array 0
	updatepop_a 0 2
.d 2 1 i
	rtn 
else.102
	pop_b_jmp 4 s46.1
s46.1
	pop_b 3
	pushD m_graph_copy_with_names
	pushD x_46
.d 0 2 ii
	pop_a_jmp 2 _match_error
.string x_46 "replace_descs_by_desc_numbers_and_build_desc_tree"
.o 0 1 i
s36
	push_b 0
	load_si16 -2
	jmp_neI_b 0 0 else.108
	update_b 1 0
	eq_desc_b INT 0
	jmp_false else.109
	pop_b_pushB 1 TRUE
	pushI 1
.d 0 2 ib
	rtn 
else.109
	push_b 0
	eq_desc_b CHAR 0
	jmp_false else.110
	pop_b_pushB 1 TRUE
	pushI 1
.d 0 2 ib
	rtn 
else.110
	push_b 0
	eq_desc_b REAL 0
	jmp_false else.111
	pop_b_pushB 1 TRUE
	pushI 1
.d 0 2 ib
	rtn 
else.111
	push_b 0
	eq_desc_b BOOL 0
	jmp_false else.112
	pop_b_pushB 1 TRUE
	pushI 1
.d 0 2 ib
	rtn 
else.112
	push_b 0
	eq_desc_b _STRING_ 0
	jmp_false else.113
	pop_b_pushB 1 FALSE
	pushI 0
.d 0 2 ib
	rtn 
else.113
	eq_desc_b _ARRAY_ 0
	jmp_false else.114
	pushB FALSE
	pushI 1
.d 0 2 ib
	rtn 
else.114
	pushB TRUE
	pushI 0
.d 0 2 ib
	rtn 
else.108
	pushI 256
	jmp_o_geI 1 else.115
	pop_b_pushB 2 TRUE
	pushI 0
.d 0 2 ib
	rtn 
else.115
	push_b 1
	load_si16 0
	pushI 256
	push_b 2
	subI
	subI
	pushB TRUE
	update_b 0 3
	updatepop_b 1 2
.d 0 2 ib
	rtn 
.o 0 1 i
s9
.inline get_D_record_a_arity
	load_si16 0
.end
.d 0 1 i
	rtn 
.o 0 1 i
s17
.inline is__Array__D
	eq_desc_b _ARRAY_ 0
.end
.d 0 1 b
	rtn 
.o 0 1 i
s16
.inline is__String__D
	eq_desc_b _STRING_ 0
.end
.d 0 1 b
	rtn 
.o 0 1 i
s15
.inline is_Bool_D
	eq_desc_b BOOL 0
.end
.d 0 1 b
	rtn 
.o 0 1 i
s14
.inline is_Real_D
	eq_desc_b REAL 0
.end
.d 0 1 b
	rtn 
.o 0 1 i
s13
.inline is_Char_D
	eq_desc_b CHAR 0
.end
.d 0 1 b
	rtn 
.o 0 1 i
s12
.inline is_Int_D
	eq_desc_b INT 0
.end
.d 0 1 b
	rtn 
.o 0 1 i
s8
.inline get_D_node_arity
	load_si16 -2
.end
.d 0 1 i
	rtn 
.o 0 1 i
s38
	get_thunk_arity
	pushI 256
	jmp_o_geI 1 else.116
	pop_b 1
	pushI 0
.d 0 1 i
	rtn 
else.116
	pushI 8
	swap_b1 
	shiftr%
.d 0 1 i
	rtn 
.o 0 1 i
s10
.inline get_thunk_arity
	get_thunk_arity
.end
.d 0 1 i
	rtn 
.o 2 3 iii
s47
	push_ab 1 0
.d 1 1 i
	jsr s32
.o 0 1 i
	pushI 0
	push_b 1
	jmp_ltI else.117
	push_b_incI 0
	updates2_b 0 3 2
.d 1 2 ii
	pop_b_jsr 2 s34
.o 1 0 
.d 2 1 i
	rtn 
else.117
	create 
	push_a 2
	update3pop_a 0 1
	updates2_b 3 1 0
.d 2 2 ii
	jsr s33
.o 1 0 
	push_b_incI 1
	push_b_incI 2
	push_ab 1 2
.d 1 2 ii
	buildh0_put_a_jsr _Nil 3 s34
.o 1 0 
	update2pop_a 0 1
	updatepop_b 0 2
.d 2 1 i
	rtn 
.o 2 2 ii
s33
	jmp_ne_desc e_graph_copy_with_names_kDescOrModTreeNode 0 0 case.119
	repl_r_args 2 2
	push_b2 0 2
	jmp_neI else.120
	buildAC "add_desc_or_mod_to_tree: desc already in tree"
	updatepop_a 0 2
.d 1 0 
	pop_b_jsr 4 print_string_
.o 0 0 
	halt
.d 1 0 
	fill_a01_pop_rtn 
else.120
	push_b2 0 2
	jmp_geI else.121
	create 
	push_a2 2 0
	exchange_a 3 2
	push3_b 3
	push_b 3
	fill_r e_graph_copy_with_names_kDescOrModTreeNode 2 2 5 0 0
	pop_b 2
.d 2 2 ii
	pop_a_jsr 2 s33.2
.o 1 0 
.d 1 0 
	pop_ab_rtn 2 4
else.121
	create 
	push_a2 0 1
	push_update_a 4 3
	updates2_a_pop_a 0 3 4 1
	push3_b 3
	push_b 3
	fill_r e_graph_copy_with_names_kDescOrModTreeNode 2 2 5 0 0
	pop_b 2
.d 2 2 ii
	pop_a_jsr 2 s33.2
.o 1 0 
.d 1 0 
	pop_ab_rtn 2 4
case.119
	buildh e_graph_copy_with_names_dEmptyDescOrModTree 0
	buildh e_graph_copy_with_names_dEmptyDescOrModTree 0
	push2_b 1
	fill_r e_graph_copy_with_names_kDescOrModTreeNode 2 2 3 0 0
.d 1 0 
	pop_ab_rtn 3 4
.o 2 2 ii
s33.2
	jmp_ne_desc e_graph_copy_with_names_kDescOrModTreeNode 0 0 case.123
	repl_r_args 2 2
	push_b2 0 2
	jmp_neI else.124
	buildAC "add_desc_or_mod_to_tree: desc already in tree"
	updatepop_a 0 2
.d 1 0 
	pop_b_jsr 4 print_string_
.o 0 0 
	halt
.d 1 0 
	fill_a01_pop_rtn 
else.124
	push_b2 0 2
	jmp_geI else.125
	create 
	push_a2 2 0
	exchange_a 3 2
	push3_b 3
	push_b 3
	fill_r e_graph_copy_with_names_kDescOrModTreeNode 2 2 5 0 0
	pop_a 2
	pop_b 2
.keep 3 1
	update2pop_a 0 2
	update2pop_b 0 4
.d 2 2 ii
	jmp s33.2
else.125
	create 
	push_a2 0 1
	push_update_a 4 3
	updates2_a_pop_a 0 3 4 1
	push3_b 3
	push_b 3
	fill_r e_graph_copy_with_names_kDescOrModTreeNode 2 2 5 0 0
	pop_a 2
	pop_b 2
.keep 3 1
	update2pop_a 0 2
	update2pop_b 0 4
.d 2 2 ii
	jmp s33.2
case.123
	buildh e_graph_copy_with_names_dEmptyDescOrModTree 0
	buildh e_graph_copy_with_names_dEmptyDescOrModTree 0
	push2_b 1
	fill_r e_graph_copy_with_names_kDescOrModTreeNode 2 2 3 0 0
.d 1 0 
	pop_ab_rtn 3 4
.o 1 2 ii
s34
	pushI 56
	push_b 2
	shiftr%
	ItoC
	pushI 7
	push_b 2
	addI
	pushI 48
	push_b 4
	shiftr%
	ItoC
	pushI 6
	push_b 4
	addI
	pushI 40
	push_b 6
	shiftr%
	ItoC
	pushI 5
	push_b 6
	addI
	pushI 32
	push_b 8
	shiftr%
	ItoC
	pushI 4
	push_b 8
	addI
	pushI 24
	push_b 10
	shiftr%
	ItoC
	pushI 3
	push_b 10
	addI
	pushI 16
	push_b 12
	shiftr%
	ItoC
	push_b_incI 11
	incI
	pushI 8
	push_b 14
	shiftr%
	ItoC
	push_b_incI 13
	push_b 15
	ItoC
	push_b 15
	update CHAR 0 1
	update CHAR 0 1
	update CHAR 0 1
	update CHAR 0 1
	update CHAR 0 1
	update CHAR 0 1
	update CHAR 0 1
	update2pop_b 0 2
	update CHAR 0 1
.d 1 0 
	rtn 
.o 1 1 i
s32
	jmp_ne_desc e_graph_copy_with_names_kDescOrModTreeNode 0 0 case.127
	repl_r_args 2 2
	push_b2 0 2
	jmp_neI else.128
	updatepop_b 1 2
.d 0 1 i
	pop_a_rtn 2
else.128
	push_b2 0 2
	jmp_geI else.129
	put_a 1
.d 1 1 i
	pop_b_jmp 2 s32
else.129
	pop_b 2
.d 1 1 i
	pop_a_jmp 1 s32
case.127
	pop_b 1
	pushI -1
.d 0 1 i
	pop_a_rtn 1
.o 1 1 i
s7
.inline get_D_from_string_64
	push_a_b 0
	pop_a 1
	addI
	load_i 16
.end
.d 0 1 i
	rtn 
.o 1 0 
s20
	pushD_a 0
.d 0 1 i
	pop_a_rtn 1
.o 0 0 
s21
	ccall is_using_desc_relative_to_array ":I"
.d 0 1 i
	rtn 
.o 3 1 i
s87
	jmp_o_geI_arraysize_a e_graph_copy_with_names_rDesc_ModuleN 0 0 else.130
	selectoo e_graph_copy_with_names_rDesc_ModuleN 0 2 0 0
	put_b 1
.d 0 1 i
	jsr s41
.o 0 1 i
	push_ab 2 0
.d 1 1 i
	jsr s32
.o 0 1 i
	pushI 0
	push_b 1
	jmp_ltI else.131
	selectoo e_graph_copy_with_names_rDesc_ModuleN 0 2 0 2
	push_b_incI 2
	update_b 0 4
	update_b 1 3
	updatepop_b 5 2
	update e_graph_copy_with_names_rDesc_ModuleN 0 2
	incI
.d 3 1 i
	jmp s87
else.131
	update_b 2 0
	push_a 0
	select e_graph_copy_with_names_rDesc_ModuleN 0 2
	push_jsr_eval 1
	pushI_a 2
	pop_a 1
	create 
	push_ab 3 3
.d 2 2 ii
	buildh0_put_a_jsr _Nil 5 s33
.o 1 0 
	buildI 1
	push_a 3
	build e_StdInt_d+;6 2 e_StdInt_n+;6
	pushI_a 3
	incI
	update_b 0 3
	updates2pop_b 4 1 2
	push_a 2
	buildh0_dup2_a _Nil 4
	pop_a 1
	update e_graph_copy_with_names_rDesc_ModuleN 0 2
	incI
	update3pop_a 0 3
.d 3 1 i
	jmp s87
else.130
	push_jsr_eval 1
	pushI_a 2
	updatepop_a 1 2
	put_b 1
.d 2 1 i
	rtn 
.impmod _system
.implab _match_error
