.comp 920 000011110011000
.start _nostart_
.depend "StdOverloaded" "20210613122638"
.depend "_SystemDynamic" "20210613122638"
.depend "graph_copy" "20210613122637"
.impobj "copy_graph_to_string_interface."
.impobj "copy_graph_to_string."
.impobj "copy_string_to_graph_interface."
.impobj "copy_string_to_graph."
.module m_graph_copy "graph_copy" "20210613122637"
.endinfo
.impmod _system
.implab _cycle_in_spine
.implab _type_error
.implab _hnf
.impdesc e_system_dind
.implab e_system_nind e_system_eaind
.impdesc e_system_dif
.implab e_system_nif e_system_eaif
.implab e_system_sif
.impdesc e_system_dAP
.implab e_system_nAP e_system_eaAP
.implab e_system_sAP
.impdesc ARRAY
.impdesc _Nil
.impdesc _Cons
.impdesc _Conss
.implab n_Conss ea_Conss
.impdesc _Consts
.implab n_Consts ea_Consts
.impdesc _Conssts
.implab n_Conssts ea_Conssts
.impdesc _Tuple
.impdesc d_S.1
.implab n_S.1 ea_S.1
.impdesc d_S.2
.implab n_S.2 ea_S.2
.impdesc d_S.3
.implab n_S.3 ea_S.3
.impdesc d_S.4
.implab n_S.4 ea_S.4
.impdesc d_S.5
.implab n_S.5 ea_S.5
.impdesc d_S.6
.implab n_S.6 ea_S.6
.implab _driver
.export e_graph_copy_scopy_from_string
.descexp e_graph_copy_dcopy_from_string e_graph_copy_ncopy_from_string e_graph_copy_lcopy_from_string 1 0 "copy_from_string"
.o 2 0
e_graph_copy_lcopy_from_string
	pop_a 1
.d 1 0
	jsr ea2
.o 1 1 i
	buildI_b 0
	push_a 1
	buildh _Tuple 2
	updatepop_a 0 1
	pop_b 1
.d 1 0
	rtn
.n 1 e_graph_copy_dcopy_from_string
.o 1 0
e_graph_copy_ncopy_from_string
	push_node _cycle_in_spine 1
.d 1 0
	jsr ea2
.o 1 1 i
	buildI_b 0
	push_a 1
	fillh _Tuple 2 3
	pop_a 1
	pop_b 1
.d 1 0
	rtn
.o 1 0
ea2
	jsr_eval 0
	push_array 0
	update_a 0 1
	pop_a 1
.o 1 0
e_graph_copy_scopy_from_string
.o 1 0
s2
.d 1 0
	jsr _copy_string_to_graph
.o 1 0
	pushI 0
.d 1 1 i
	rtn
.export e_graph_copy_scopy_to_string
.descexp e_graph_copy_dcopy_to_string e_graph_copy_ncopy_to_string e_graph_copy_lcopy_to_string 1 0 "copy_to_string"
.o 2 0
e_graph_copy_lcopy_to_string
	pop_a 1
.d 1 0
	jsr ea1
.o 1 0
	buildh ARRAY 1
.d 1 0
	rtn
.n 1 e_graph_copy_dcopy_to_string
.o 1 0
e_graph_copy_ncopy_to_string
	push_node _cycle_in_spine 1
.d 1 0
	jsr ea1
.o 1 0
	fillh ARRAY 1 1
.d 1 0
	rtn
.o 1 0
ea1
	jsr_eval 0
.o 1 0
e_graph_copy_scopy_to_string
.o 1 0
s1
.d 1 0
	jsr _copy_graph_to_string
.o 1 0
.d 1 0
	rtn
