.comp 920 000011110011000
.start _nostart_
.depend "StdCharList" "20210613122638"
.depend "_SystemArray" "20210613122638"
.depend "StdArray" "20210613122638"
.depend "StdEnv" "20210613122638"
.depend "_SystemEnum" "20210613122638"
.depend "StdEnum" "20210613122638"
.depend "StdTuple" "20210613122638"
.depend "StdOrdList" "20210613122638"
.depend "StdFile" "20210613122638"
.depend "StdString" "20210613122638"
.depend "StdMisc" "20210613122638"
.depend "StdFunctions" "20210613122638"
.depend "_SystemEnumStrict" "20210613122638"
.depend "_SystemStrictLists" "20210613122638"
.depend "StdStrictLists" "20210613122638"
.depend "StdReal" "20210613122638"
.depend "StdChar" "20210613122638"
.depend "StdInt" "20210613122638"
.depend "StdBool" "20210613122638"
.depend "StdClass" "20210613122638"
.depend "StdList" "20210613122638"
.depend "StdOverloaded" "20210613122638"
.depend "_SystemDynamic" "20210613122638"
.depend "symbols_in_program" "20210613122637"
.module m_symbols_in_program "symbols_in_program" "20210613122637"
.endinfo
.impmod _system
.implab _cycle_in_spine
.implab _type_error
.implab _hnf
.impdesc e_system_dind
.implab e_system_nind e_system_eaind
.impdesc e_system_dif
.implab e_system_nif e_system_eaif
.implab e_system_sif
.impdesc e_system_dAP
.implab e_system_nAP e_system_eaAP
.implab e_system_sAP
.impdesc ARRAY
.impdesc _Nil
.impdesc _Cons
.impdesc _Conss
.implab n_Conss ea_Conss
.impdesc _Consts
.implab n_Consts ea_Consts
.impdesc _Conssts
.implab n_Conssts ea_Conssts
.impdesc _Tuple
.impdesc d_S.1
.implab n_S.1 ea_S.1
.impdesc d_S.2
.implab n_S.2 ea_S.2
.impdesc d_S.3
.implab n_S.3 ea_S.3
.impdesc d_S.4
.implab n_S.4 ea_S.4
.impdesc d_S.5
.implab n_S.5 ea_S.5
.impdesc d_S.6
.implab n_S.6 ea_S.6
.implab _driver
.impmod _SystemArray
.impmod StdOrdList
.implab e_StdOrdList_ssortBy
.impmod StdFile
.implab e_StdFile_sfreadc
.implab e_StdFile_sfreadi
.implab e_StdFile_sfreads
.implab e_StdFile_sfseek
.implab e_StdFile_sfclose;27
.implab e_StdFile_sfopen;28
.impmod StdString
.implab e_StdString_s==;2
.implab e_StdString_s<;3
.implab e_StdString_stoString;5
.implab e_StdString_s%;10
.implab e_StdString_s+++;11
.impmod StdMisc
.implab e_StdMisc_sabort
.impmod StdChar
.implab e_StdChar_s==;18
.implab e_StdChar_s<;19
.implab e_StdChar_stoChar;21
.impmod StdInt
.implab e_StdInt_sbitand
.implab e_StdInt_s<<
.implab e_StdInt_s>>
.implab e_StdInt_sbitnot
.implab e_StdInt_s+;6
.implab e_StdInt_s-;7
.implab e_StdInt_s*;9
.implab e_StdInt_sone;11
.implab e_StdInt_s==;16
.implab e_StdInt_s<;17
.implab e_StdInt_stoInt;20
.impmod StdBool
.implab e_StdBool_snot
.export e_symbols_in_program_rSymbol
.record e_symbols_in_program_rSymbol ai 1 1 "Symbol"
.descexp e_symbols_in_program_tSymbol e_symbols_in_program_cSymbol _hnf 2 1 "Symbol"
.n 2 e_symbols_in_program_tSymbol
.o 1 0
e_symbols_in_program_cSymbol
	push_node _cycle_in_spine 2
	jsr_eval 1
	jsr_eval 0
	pushI_a 1
	push_array 0
	update_a 0 2
	pop_a 2
.impmod symbols_in_program
.impdesc e_symbols_in_program_rSymbol
	fill_r e_symbols_in_program_rSymbol 1 1 1 0 0
	pop_a 1
	pop_b 1
.d 1 0
	rtn
.export e_symbols_in_program_dSymbol.symbol_name
.export e_symbols_in_program_nSymbol.symbol_name
.desc e_symbols_in_program_dSymbol.symbol_name e_symbols_in_program_nSymbol.symbol_name _hnf 1 0 "Symbol.symbol_name"
.n 1 e_symbols_in_program_dSymbol.symbol_name
.o 1 0
e_symbols_in_program_nSymbol.symbol_name
	push_node _cycle_in_spine 1
	jsr_eval 0
	repl_r_args_a 1 1 1 1
	fillh ARRAY 1 1
.d 1 0
	rtn
.export e_symbols_in_program_dSymbol.symbol_value
.export e_symbols_in_program_nSymbol.symbol_value
.descs e_symbols_in_program_dSymbol.symbol_value e_symbols_in_program_nSymbol.symbol_value INT 2 0 "Symbol.symbol_value"
.n -3 e_symbols_in_program_dSymbol.symbol_value
.o 1 0
e_symbols_in_program_nSymbol.symbol_value
	push_node _cycle_in_spine 1
	jsr_eval 0
	push_r_args_b 0 1 1 1 1
	pop_a 1
	fillI_b 0 0
	pop_b 1
.d 1 0
	rtn
.export e_symbols_in_program_rSectionInfo
.record e_symbols_in_program_rSectionInfo iiiiii 0 6 "SectionInfo"
.export e_symbols_in_program_tSectionInfo
.export e_symbols_in_program_cSectionInfo
.descn e_symbols_in_program_tSectionInfo e_symbols_in_program_cSectionInfo 6 1 "SectionInfo"
.n 6 e_symbols_in_program_tSectionInfo
.o 1 0
e_symbols_in_program_cSectionInfo
	push_node _cycle_in_spine 6
	jsr_eval 5
	jsr_eval 4
	jsr_eval 3
	jsr_eval 2
	jsr_eval 1
	jsr_eval 0
	pushI_a 5
	pushI_a 4
	pushI_a 3
	pushI_a 2
	pushI_a 1
	pushI_a 0
	pop_a 6
.impdesc e_symbols_in_program_rSectionInfo
	fill_r e_symbols_in_program_rSectionInfo 0 6 0 0 0
	pop_b 6
.d 1 0
	rtn
.export e_symbols_in_program_sTD;SectionInfo
.export e_symbols_in_program_eaTD;SectionInfo
.descexp e_symbols_in_program_dTD;SectionInfo e_symbols_in_program_nTD;SectionInfo e_symbols_in_program_lTD;SectionInfo 1 0 "TD;SectionInfo"
.o 2 0
e_symbols_in_program_lTD;SectionInfo
	update_a 1 0
	create
	update_a 0 2
	pop_a 1
.d 2 0
	jmp e_symbols_in_program_eaTD;SectionInfo
.n 1 e_symbols_in_program_dTD;SectionInfo e_symbols_in_program_eaTD;SectionInfo
.o 1 0
e_symbols_in_program_nTD;SectionInfo
	push_node _cycle_in_spine 1
.o 2 0
e_symbols_in_program_eaTD;SectionInfo
.o 2 0
e_symbols_in_program_sTD;SectionInfo
.o 2 0
s17
	fillh _Nil 0 1
	pop_a 1
.d 1 0
	rtn
.export e_symbols_in_program_sTD;Symbol
.export e_symbols_in_program_eaTD;Symbol
.descexp e_symbols_in_program_dTD;Symbol e_symbols_in_program_nTD;Symbol e_symbols_in_program_lTD;Symbol 1 0 "TD;Symbol"
.o 2 0
e_symbols_in_program_lTD;Symbol
	update_a 1 0
	create
	update_a 0 2
	pop_a 1
.d 2 0
	jmp e_symbols_in_program_eaTD;Symbol
.n 1 e_symbols_in_program_dTD;Symbol e_symbols_in_program_eaTD;Symbol
.o 1 0
e_symbols_in_program_nTD;Symbol
	push_node _cycle_in_spine 1
.o 2 0
e_symbols_in_program_eaTD;Symbol
.o 2 0
e_symbols_in_program_sTD;Symbol
.o 2 0
s3
	fillh _Nil 0 1
	pop_a 1
.d 1 0
	rtn
.export e_symbols_in_program_sget_symbol_value
.descexp e_symbols_in_program_dget_symbol_value e_symbols_in_program_nget_symbol_value e_symbols_in_program_lget_symbol_value 2 0 "get_symbol_value"
.a 0 a2
.o 2 0
e_symbols_in_program_lget_symbol_value
	repl_args 1 1
.o 2 0
a2
.d 2 0
	jsr ea2
.o 0 1 i
	buildI_b 0
	pop_b 1
.d 1 0
	rtn
.n 2 e_symbols_in_program_dget_symbol_value
.o 1 0
e_symbols_in_program_nget_symbol_value
	push_node _cycle_in_spine 2
.d 2 0
	jsr ea2
.o 0 1 i
	fillI_b 0 0
	pop_b 1
.d 1 0
	rtn
.o 2 0
ea2
	jsr_eval 1
	jsr_eval 0
	push_array 1
	push_array 1
	update_a 1 3
	update_a 0 2
	pop_a 2
.o 2 0
e_symbols_in_program_sget_symbol_value
.o 2 0
s2
	push_a 1
	push_arraysize e_symbols_in_program_rSymbol 1 1
	push_a 1
	push_a 1
	pushI 0
	update_a 1 3
	updatepop_a 0 2
.d 2 2 ii
	jmp s16
.o 2 2 ii
s16
	push_b 1
	push_b 1
	ltI
	jmp_false else.1
	push_b 0
	push_b 2
	subI
	pushI 1
	push_b 1
	update_b 1 2
	update_b 0 1
	pop_b 1
	shiftr%
	push_b 1
	addI
	push_b 0
	push_a 1
	select e_symbols_in_program_rSymbol 1 1
	pop_b 1
	push_a 0
	push_a 2
.d 2 0
	jsr eqAC
.o 0 1 b
	jmp_false else.2
	push_b 0
	push_a 2
	updatepop_b 0 3
	updatepop_a 0 3
	select e_symbols_in_program_rSymbol 1 1
	pop_a 1
.d 0 1 i
	rtn
else.2
	push_a 0
	push_a 2
	update_a 1 2
	updatepop_a 0 1
.d 2 0
	jsr cmpAC
.o 0 1 i
	pushI 0
	gtI
	jmp_false else.3
	push_a 1
	push_a 1
	push_b 0
	push_b 2
	update_a 1 3
	updatepop_a 0 2
	update_b 1 4
	updatepop_b 0 3
.d 2 2 ii
	jmp s16
else.3
	pushI 1
	push_b 1
	addI
	push_a 1
	push_a 1
	push_b 3
	push_b 1
	update_b 1 2
	update_b 0 1
	pop_b 1
	update_a 1 3
	updatepop_a 0 2
	update_b 1 4
	updatepop_b 0 3
.d 2 2 ii
	jmp s16
else.1
	pop_a 2
	pop_b 2
	pushI -1
.d 0 1 i
	rtn
.export e_symbols_in_program_sread_symbols
.descexp e_symbols_in_program_dread_symbols e_symbols_in_program_nread_symbols e_symbols_in_program_lread_symbols 2 0 "read_symbols"
.a 0 a1
.o 2 0
e_symbols_in_program_lread_symbols
	repl_args 1 1
.o 2 0
a1
.d 2 0
	jsr ea1
.o 2 0
	push_a 1
	push_a 1
	buildh ARRAY 1
	buildh _Tuple 2
	updatepop_a 0 2
.d 1 0
	rtn
.n 2 e_symbols_in_program_dread_symbols
.o 1 0
e_symbols_in_program_nread_symbols
	push_node _cycle_in_spine 2
.d 2 0
	jsr ea1
.o 2 0
	push_a 1
	push_a 1
	buildh ARRAY 1
	fillh _Tuple 2 4
	pop_a 2
.d 1 0
	rtn
.o 2 0
ea1
	jsr_eval 1
	jsr_eval 0
	push_array 0
	update_a 0 1
	pop_a 1
.o 2 0
e_symbols_in_program_sread_symbols
.o 2 0
s1
	push_a 1
	pushI 3
	push_a 1
	update_a 2 3
	update_a 1 2
	updatepop_a 0 1
.d 2 1 i
	jsr e_StdFile_sfopen;28
.o 1 3 bf
	push_b 0
	notB
	jmp_false else.4
	push_a 1
	buildAC "Could not open file "
	pop_b 3
	update_a 1 3
	updatepop_a 0 2
.d 2 0
	jsr catAC
.o 1 0
.d 1 0
	jsr print_string_
.o 0 0
	halt
	repl_args 2 2
	jsr_eval 1
	jsr_eval 0
	push_array 0
	update_a 0 1
	pop_a 1
.d 2 0
	rtn
else.4
	pushI 0
	pushI 60
	push_b 4
	push_b 4
	update_b 3 6
	update_b 2 5
	update_b 1 4
	updatepop_b 0 3
	update_a 0 1
	pop_a 1
.d 0 4 f i i
	jsr seekF
.o 0 3 b f
	push_b 0
	notB
	jmp_false else.5
	buildAC "fseek failed"
	updatepop_a 0 1
	pop_b 3
.d 1 0
	jsr print_string_
.o 0 0
	halt
	repl_args 2 2
	jsr_eval 1
	jsr_eval 0
	push_array 0
	update_a 0 1
	pop_a 1
.d 2 0
	rtn
else.5
	push_b 2
	push_b 2
	update_b 1 4
	updatepop_b 0 3
.d 0 2 f
	jsr readFI
.o 0 4 b i f
	pushI 64
	push_b 2
	eqI
	notB
	push_b 2
	push_b 5
	push_b 5
	push_b 3
	update_b 3 4
	update_b 2 3
	update_b 1 2
	update_b 0 1
	pop_b 1
	update_b 3 4
	update_b 2 3
	update_b 1 2
	updatepop_b 0 1
.d 0 4 bfi
	jsr s35
.o 0 3 bf
	push_b 0
	notB
	jmp_false else.6
	push_b 3
	updatepop_b 0 3
	pop_a 1
.d 0 1 i
	jsr ItoAC
.o 1 0
	buildAC " failed"
	push_a 1
	update_a 1 2
	update_a 0 1
	pop_a 1
.d 2 0
	jsr catAC
.o 1 0
	buildAC "fseek to "
.d 2 0
	jsr catAC
.o 1 0
	pop_b 3
.d 1 0
	jsr print_string_
.o 0 0
	halt
	repl_args 2 2
	jsr_eval 1
	jsr_eval 0
	push_array 0
	update_a 0 1
	pop_a 1
.d 2 0
	rtn
else.6
	push_b 2
	push_b 2
	update_b 1 4
	updatepop_b 0 3
.d 0 2 f
	jsr readFC
.o 0 4 b c f
	push_b 0
	notB
	jmp_true then.7
	pushC 'P'
	push_b 2
	eqC
	notB
	jmp_false else.7
then.7
	buildAC "Not a PECOFF image file (error in PE header)"
	updatepop_a 0 1
	pop_b 7
.d 1 0
	jsr print_string_
.o 0 0
	halt
	repl_args 2 2
	jsr_eval 1
	jsr_eval 0
	push_array 0
	update_a 0 1
	pop_a 1
.d 2 0
	rtn
else.7
	push_b 3
	push_b 3
	update_b 1 5
	updatepop_b 0 4
.d 0 2 f
	jsr readFC
.o 0 4 b c f
	push_b 0
	notB
	jmp_true then.9
	pushC 'E'
	push_b 2
	eqC
	notB
	jmp_false else.9
then.9
	buildAC "Not a PECOFF image file (error in PE header)"
	updatepop_a 0 1
	pop_b 7
.d 1 0
	jsr print_string_
.o 0 0
	halt
	repl_args 2 2
	jsr_eval 1
	jsr_eval 0
	push_array 0
	update_a 0 1
	pop_a 1
.d 2 0
	rtn
else.9
	push_b 3
	push_b 3
	update_b 1 5
	updatepop_b 0 4
.d 0 2 f
	jsr readFC
.o 0 4 b c f
	push_b 0
	notB
	jmp_true then.11
	pushC '\000'
	push_b 2
	eqC
	notB
	jmp_false else.11
then.11
	buildAC "Not a PECOFF image file (error in PE header)"
	updatepop_a 0 1
	pop_b 7
.d 1 0
	jsr print_string_
.o 0 0
	halt
	repl_args 2 2
	jsr_eval 1
	jsr_eval 0
	push_array 0
	update_a 0 1
	pop_a 1
.d 2 0
	rtn
else.11
	push_b 3
	push_b 3
	update_b 1 5
	updatepop_b 0 4
.d 0 2 f
	jsr readFC
.o 0 4 b c f
	push_b 0
	notB
	jmp_true then.13
	pushC '\000'
	push_b 2
	eqC
	notB
	jmp_false else.13
then.13
	buildAC "Not a PECOFF image file (error in PE header)"
	updatepop_a 0 1
	pop_b 7
.d 1 0
	jsr print_string_
.o 0 0
	halt
	repl_args 2 2
	jsr_eval 1
	jsr_eval 0
	push_array 0
	update_a 0 1
	pop_a 1
.d 2 0
	rtn
else.13
	push_b 3
	push_b 3
	update_b 1 5
	updatepop_b 0 4
.d 0 2 f
	jsr s4
.o 0 4 bif
	push_b 0
	notB
	jmp_false else.15
	buildAC "Not a PECOFF image file (error in PE header)"
	updatepop_a 0 1
	pop_b 7
.d 1 0
	jsr print_string_
.o 0 0
	halt
	repl_args 2 2
	jsr_eval 1
	jsr_eval 0
	push_array 0
	update_a 0 1
	pop_a 1
.d 2 0
	rtn
else.15
	pushI 34404
	push_b 2
	eqI
	notB
	jmp_false else.16
	buildAC "Not a PECOFF image file for an AMD64 processor"
	updatepop_a 0 1
	pop_b 7
.d 1 0
	jsr print_string_
.o 0 0
	halt
	repl_args 2 2
	jsr_eval 1
	jsr_eval 0
	push_array 0
	update_a 0 1
	pop_a 1
.d 2 0
	rtn
else.16
	push_b 3
	push_b 3
	update_b 1 5
	updatepop_b 0 4
.d 0 2 f
	jsr s4
.o 0 4 bif
	push_b 0
	notB
	jmp_false else.17
	buildAC "Not a PECOFF image file (error in PE header)"
	updatepop_a 0 1
	pop_b 7
.d 1 0
	jsr print_string_
.o 0 0
	halt
	repl_args 2 2
	jsr_eval 1
	jsr_eval 0
	push_array 0
	update_a 0 1
	pop_a 1
.d 2 0
	rtn
else.17
	push_b 3
	push_b 3
	update_b 1 2
	updatepop_b 0 1
.d 0 2 f
	jsr readFI
.o 0 4 b i f
	push_b 0
	notB
	jmp_false else.18
	buildAC "Not a PECOFF image file (error in PE header)"
	updatepop_a 0 1
	pop_b 10
.d 1 0
	jsr print_string_
.o 0 0
	halt
	repl_args 2 2
	jsr_eval 1
	jsr_eval 0
	push_array 0
	update_a 0 1
	pop_a 1
.d 2 0
	rtn
else.18
	push_b 3
	push_b 3
	update_b 1 5
	updatepop_b 0 4
.d 0 2 f
	jsr readFI
.o 0 4 b i f
	push_b 0
	notB
	jmp_false else.19
	buildAC "Not a PECOFF image file (error in PE header)"
	updatepop_a 0 1
	pop_b 10
.d 1 0
	jsr print_string_
.o 0 0
	halt
	repl_args 2 2
	jsr_eval 1
	jsr_eval 0
	push_array 0
	update_a 0 1
	pop_a 1
.d 2 0
	rtn
else.19
	pushI 0
	push_b 2
	eqI
	jmp_false else.20
	buildAC "This PECOFF image file does not have a symbol table"
	updatepop_a 0 1
	pop_b 10
.d 1 0
	jsr print_string_
.o 0 0
	halt
	repl_args 2 2
	jsr_eval 1
	jsr_eval 0
	push_array 0
	update_a 0 1
	pop_a 1
.d 2 0
	rtn
else.20
	push_b 3
	push_b 3
	update_b 1 2
	updatepop_b 0 1
.d 0 2 f
	jsr readFI
.o 0 4 b i f
	push_b 0
	notB
	jmp_false else.21
	buildAC "Not a PECOFF image file (error in PE header)"
	updatepop_a 0 1
	pop_b 13
.d 1 0
	jsr print_string_
.o 0 0
	halt
	repl_args 2 2
	jsr_eval 1
	jsr_eval 0
	push_array 0
	update_a 0 1
	pop_a 1
.d 2 0
	rtn
else.21
	push_b 3
	push_b 3
	update_b 1 2
	updatepop_b 0 1
.d 0 2 f
	jsr s4
.o 0 4 bif
	buildI_b 1
	push_b 0
	notB
	jmp_true then.22
	pushI 88
	pushI_a 0
	ltI
	jmp_false else.22
then.22
	buildAC "Not a PECOFF image file (error in PE header)"
	updatepop_a 0 2
	pop_b 16
.d 1 0
	jsr print_string_
.o 0 0
	halt
	repl_args 2 2
	jsr_eval 1
	jsr_eval 0
	push_array 0
	update_a 0 1
	pop_a 1
.d 2 0
	rtn
else.22
	push_b 3
	push_b 3
	update_b 1 5
	updatepop_b 0 4
.d 0 2 f
	jsr s4
.o 0 4 bif
	push_b 0
	notB
	jmp_false else.24
	buildAC "Not a PECOFF image file (error in PE header)"
	updatepop_a 0 2
	pop_b 16
.d 1 0
	jsr print_string_
.o 0 0
	halt
	repl_args 2 2
	jsr_eval 1
	jsr_eval 0
	push_array 0
	update_a 0 1
	pop_a 1
.d 2 0
	rtn
else.24
	push_b 3
	push_b 3
	update_b 1 5
	updatepop_b 0 4
.d 0 2 f
	jsr s4
.o 0 4 bif
	push_b 0
	notB
	jmp_true then.25
	pushI 523
	push_b 2
	eqI
	notB
	jmp_false else.25
then.25
	buildAC "Not a PECOFF image file (error in optional PE header)"
	updatepop_a 0 2
	pop_b 16
.d 1 0
	jsr print_string_
.o 0 0
	halt
	repl_args 2 2
	jsr_eval 1
	jsr_eval 0
	push_array 0
	update_a 0 1
	pop_a 1
.d 2 0
	rtn
else.25
	push_b 3
	push_b 3
	update_b 1 5
	updatepop_b 0 4
.d 0 2 f
	jsr readFC
.o 0 4 b c f
	push_b 0
	notB
	jmp_false else.27
	buildAC "Not a PECOFF image file (error in optional PE header)"
	updatepop_a 0 2
	pop_b 16
.d 1 0
	jsr print_string_
.o 0 0
	halt
	repl_args 2 2
	jsr_eval 1
	jsr_eval 0
	push_array 0
	update_a 0 1
	pop_a 1
.d 2 0
	rtn
else.27
	push_b 3
	push_b 3
	update_b 1 5
	updatepop_b 0 4
.d 0 2 f
	jsr readFC
.o 0 4 b c f
	push_b 0
	notB
	jmp_false else.28
	buildAC "Not a PECOFF image file (error in optional PE header)"
	updatepop_a 0 2
	pop_b 16
.d 1 0
	jsr print_string_
.o 0 0
	halt
	repl_args 2 2
	jsr_eval 1
	jsr_eval 0
	push_array 0
	update_a 0 1
	pop_a 1
.d 2 0
	rtn
else.28
	push_b 3
	push_b 3
	update_b 1 5
	updatepop_b 0 4
.d 0 2 f
	jsr readFI
.o 0 4 b i f
	push_b 0
	notB
	jmp_false else.29
	buildAC "Not a PECOFF image file (error in optional PE header)"
	updatepop_a 0 2
	pop_b 16
.d 1 0
	jsr print_string_
.o 0 0
	halt
	repl_args 2 2
	jsr_eval 1
	jsr_eval 0
	push_array 0
	update_a 0 1
	pop_a 1
.d 2 0
	rtn
else.29
	push_b 3
	push_b 3
	update_b 1 5
	updatepop_b 0 4
.d 0 2 f
	jsr readFI
.o 0 4 b i f
	push_b 0
	notB
	jmp_false else.30
	buildAC "Not a PECOFF image file (error in optional PE header)"
	updatepop_a 0 2
	pop_b 16
.d 1 0
	jsr print_string_
.o 0 0
	halt
	repl_args 2 2
	jsr_eval 1
	jsr_eval 0
	push_array 0
	update_a 0 1
	pop_a 1
.d 2 0
	rtn
else.30
	push_b 3
	push_b 3
	update_b 1 5
	updatepop_b 0 4
.d 0 2 f
	jsr readFI
.o 0 4 b i f
	push_b 0
	notB
	jmp_false else.31
	buildAC "Not a PECOFF image file (error in optional PE header)"
	updatepop_a 0 2
	pop_b 16
.d 1 0
	jsr print_string_
.o 0 0
	halt
	repl_args 2 2
	jsr_eval 1
	jsr_eval 0
	push_array 0
	update_a 0 1
	pop_a 1
.d 2 0
	rtn
else.31
	push_b 3
	push_b 3
	update_b 1 5
	updatepop_b 0 4
.d 0 2 f
	jsr readFI
.o 0 4 b i f
	push_b 0
	notB
	jmp_false else.32
	buildAC "Not a PECOFF image file (error in optional PE header)"
	updatepop_a 0 2
	pop_b 16
.d 1 0
	jsr print_string_
.o 0 0
	halt
	repl_args 2 2
	jsr_eval 1
	jsr_eval 0
	push_array 0
	update_a 0 1
	pop_a 1
.d 2 0
	rtn
else.32
	push_b 3
	push_b 3
	update_b 1 5
	updatepop_b 0 4
.d 0 2 f
	jsr readFI
.o 0 4 b i f
	push_b 0
	notB
	jmp_false else.33
	buildAC "Not a PECOFF image file (error in optional PE header)"
	updatepop_a 0 2
	pop_b 16
.d 1 0
	jsr print_string_
.o 0 0
	halt
	repl_args 2 2
	jsr_eval 1
	jsr_eval 0
	push_array 0
	update_a 0 1
	pop_a 1
.d 2 0
	rtn
else.33
	buildF_b 2
	buildI 0
	pushB TRUE
	push_b 0
	notB
	jmp_false else.34
	buildAC "Not a PECOFF image file (error in optional PE header)"
	updatepop_a 0 4
	pop_b 17
.d 1 0
	jsr print_string_
.o 0 0
	halt
	repl_args 2 2
	jsr_eval 1
	jsr_eval 0
	push_array 0
	update_a 0 1
	pop_a 1
.d 2 0
	rtn
else.34
	push_a 1
	jsr_eval 0
	pushF_a 2
	pop_a 1
	update_b 1 6
	updatepop_b 0 5
	pop_a 2
.d 0 2 f
	jsr readFI
.o 0 4 b i f
	push_b 0
	notB
	jmp_false else.35
	buildAC "Not a PECOFF image file (error in optional PE header)"
	updatepop_a 0 2
	pop_b 16
.d 1 0
	jsr print_string_
.o 0 0
	halt
	repl_args 2 2
	jsr_eval 1
	jsr_eval 0
	push_array 0
	update_a 0 1
	pop_a 1
.d 2 0
	rtn
else.35
	pushI 28
	pushI_a 0
	subI
	pushI 1
	push_b 5
	push_b 5
	push_b 3
	update_b 3 4
	update_b 0 3
	pop_b 1
	update_b 3 4
	update_b 2 3
	update_b 1 2
	updatepop_b 0 1
	pop_a 1
.d 0 4 f i i
	jsr seekF
.o 0 3 b f
	push_b 0
	notB
	jmp_false else.36
	buildAC "Not a PECOFF image file (error in optional PE header)"
	updatepop_a 0 1
	pop_b 18
.d 1 0
	jsr print_string_
.o 0 0
	halt
	repl_args 2 2
	jsr_eval 1
	jsr_eval 0
	push_array 0
	update_a 0 1
	pop_a 1
.d 2 0
	rtn
else.36
	pushI 0
	pushI 0
	pushI 0
	pushI 0
	pushI 0
	pushI 0
	push_b 8
	push_b 8
	push_b 20
	pushI 1
	push_b 9
	update_b 4 10
	update_b 6 4
	update_b 8 6
	update_b 0 8
	update_b 9 0
	update_b 3 9
	update_b 5 3
	update_b 7 5
	update_b 0 7
	pop_b 1
	update_b 9 12
	update_b 8 11
	update_b 7 10
	update_b 6 9
	update_b 5 8
	update_b 4 7
	update_b 3 6
	update_b 2 5
	update_b 1 4
	updatepop_b 0 3
.d 0 10 iiiiiiiif
	jsr s5
.o 0 8 iiiiiif
	push_b 5
	push_b 9
	addI
	push_b 5
	push_b 10
	addI
	push_b 5
	push_b 11
	addI
	push_b 8
	push_b 8
	push_b 8
	push_b 8
	push_b 8
	push_b 8
	update_b 6 3
	update_b 7 4
	update_b 8 5
	update_b 5 8
	update_b 4 7
	update_b 3 6
	update_b 2 5
	update_b 1 4
	updatepop_b 0 3
	push_b 0
	pushI 0
	push_b 1
	update_b 1 2
	update_b 0 1
	pop_b 1
	eqI
	jmp_true then.37
	push_b 1
	pushI 0
	push_b 1
	update_b 1 2
	update_b 0 1
	pop_b 1
	eqI
	jmp_true then.37
	push_b 2
	pushI 0
	push_b 1
	update_b 1 2
	update_b 0 1
	pop_b 1
	eqI
	jmp_false else.37
then.37
	buildAC "Error in section headers, .text, .data or .bss section missing"
	updatepop_a 0 1
	pop_b 29
.d 1 0
	jsr print_string_
.o 0 0
	halt
	repl_args 2 2
	jsr_eval 1
	jsr_eval 0
	push_array 0
	update_a 0 1
	pop_a 1
.d 2 0
	rtn
else.37
	push_b 17
	pushI 18
	mulI
	push_b 21
	addI
	pushI 0
	push_b 15
	push_b 15
	push_b 3
	update_b 3 4
	update_b 0 3
	pop_b 1
.d 0 4 f i i
	jsr seekF
.o 0 3 b f
	push_b 0
	notB
	jmp_false else.40
	buildAC "fseek failed"
	updatepop_a 0 1
	pop_b 32
.d 1 0
	jsr print_string_
.o 0 0
	halt
	repl_args 2 2
	jsr_eval 1
	jsr_eval 0
	push_array 0
	update_a 0 1
	pop_a 1
.d 2 0
	rtn
else.40
	push_b 2
	push_b 2
	update_b 1 4
	updatepop_b 0 3
.d 0 2 f
	jsr readFI
.o 0 4 b i f
	push_b 0
	notB
	jmp_false else.41
	buildAC "Error reading string table size"
	updatepop_a 0 1
	pop_b 33
.d 1 0
	jsr print_string_
.o 0 0
	halt
	repl_args 2 2
	jsr_eval 1
	jsr_eval 0
	push_array 0
	update_a 0 1
	pop_a 1
.d 2 0
	rtn
else.41
	push_b 1
	push_b 4
	push_b 4
	update_b 2 3
	update_b 1 2
	updatepop_b 0 1
.d 0 3 f i
	jsr readFS
.o 1 2 f
	pushI 4
	push_b 3
	subI
	push_a 0
	push_arraysize CHAR 0 1
	eqI
	notB
	jmp_false else.42
	buildAC "Error reading string table"
	updatepop_a 0 2
	pop_b 34
.d 1 0
	jsr print_string_
.o 0 0
	halt
	repl_args 2 2
	jsr_eval 1
	jsr_eval 0
	push_array 0
	update_a 0 1
	pop_a 1
.d 2 0
	rtn
else.42
	pushI 0
	push_b 26
	push_b 3
	push_b 3
	update_b 3 5
	update_b 2 4
	update_b 1 3
	updatepop_b 0 2
.d 0 4 f i i
	jsr seekF
.o 0 3 b f
	push_b 0
	notB
	jmp_false else.43
	buildAC "fseek failed"
	updatepop_a 0 2
	pop_b 35
.d 1 0
	jsr print_string_
.o 0 0
	halt
	repl_args 2 2
	jsr_eval 1
	jsr_eval 0
	push_array 0
	update_a 0 1
	pop_a 1
.d 2 0
	rtn
else.43
	buildh _Nil 0
	push_b 11
	push_b 11
	push_b 11
	push_b 11
	push_b 11
	push_b 11
	push_b 8
	push_b 8
	push_a 1
	push_b 31
	pushI 0
	update_b 9 12
	update_b 8 11
	update_b 7 10
	update_b 6 9
	update_b 5 8
	update_b 4 7
	update_b 3 6
	update_b 2 5
	update_b 1 4
	updatepop_b 0 3
	update_a 1 2
	updatepop_a 0 1
.d 2 10 iifiiiiii
	jsr s11
.o 1 2 f
	push_a 1
	push_b 1
	push_b 1
	update_b 1 3
	updatepop_b 0 2
	update_a 1 2
	updatepop_a 0 1
.d 1 2 f
	jsr e_StdFile_sfclose;27
.o 1 1 b
	push_b 0
	notB
	jmp_false else.44
	buildAC "Read error"
	updatepop_a 0 2
	pop_b 33
.d 1 0
	jsr print_string_
.o 0 0
	halt
	repl_args 2 2
	jsr_eval 1
	jsr_eval 0
	push_array 0
	update_a 0 1
	pop_a 1
.d 2 0
	rtn
else.44
	buildh e_symbols_in_program_d\;384;25;27.20 0
	create
	push_a 3
	push_a 2
	update_a 2 3
	update_a 1 2
	update_a 0 1
	pop_a 1
	pop_b 1
	update_a 3 4
	update_a 2 3
	update_a 1 2
	updatepop_a 0 1
.d 3 0
	jsr e_StdOrdList_ssortBy
.o 1 0
	push_a 0
	pushI 0
.d 1 1 i
	jsr s23
.o 0 1 i
	create_array_ e_symbols_in_program_rSymbol 1 1
	push_a 1
	buildI 0
	push_a 2
	update_a 2 3
	update_a 1 2
	update_a 0 1
	pop_a 1
	update_a 2 3
	update_a 1 2
	updatepop_a 0 1
.d 3 0
	jsr s22
.o 1 0
	push_a 1
	push_a 1
	update_a 1 2
	update_a 0 1
	pop_a 1
	update_a 1 2
	updatepop_a 0 1
	pop_b 32
.d 2 0
	rtn
.o 0 4 bfi
s35
	eqB_b TRUE 0
	jmp_true case.45
	jmp case.46
case.45
	pushI 0
	push_b 4
	push_b 4
	push_b 4
	update_b 3 7
	update_b 2 6
	update_b 1 5
	updatepop_b 0 4
.d 0 4 f i i
	jsr seekF
.o 0 3 b f
.d 0 3 bf
	rtn
case.46
	push_b 2
	push_b 2
	pushB TRUE
	update_b 2 6
	update_b 1 5
	updatepop_b 0 4
.d 0 3 bf
	rtn
.o 1 1 i
s23
	push_b 0
	push_a 0
	updatepop_a 0 1
	updatepop_b 0 1
.d 1 1 i
	jmp s34
.o 1 1 i
s34
	eq_desc _Cons 2 0
	jmp_true case.47
	jmp case.48
case.47
	repl_args 2 2
	push_a 1
	jsr_eval 0
	push_a 1
	jsr_eval 0
	repl_args 2 2
	push_b 0
	update_a 2 4
	update_a 1 3
	updatepop_a 0 2
	updatepop_b 0 1
.d 3 1 i
	jmp s33
case.48
	pop_a 1
.d 0 1 i
	rtn
.o 3 1 i
s33
case.49
	pushI 1
	push_b 1
	addI
	push_a 2
	updatepop_a 0 3
	updatepop_b 0 1
.d 1 1 i
	jmp s23
case.50
	push_a 2
	push_b 0
	updatepop_a 0 3
	updatepop_b 0 1
.d 1 1 i
	jmp s23
.o 3 0
s22
	push_a 1
	push_a 1
	push_a 4
	update_a 2 5
	update_a 1 4
	updatepop_a 0 3
.d 3 0
	jmp s32
.o 3 0
s32
	eq_desc _Cons 2 0
	jmp_true case.51
	jmp case.52
case.51
	repl_args 2 2
	push_a 1
	jsr_eval 0
	push_a 4
	jsr_eval 0
	pushI_a 5
	pop_a 1
	push_a 1
	jsr_eval 0
	repl_args 2 2
	jsr_eval 1
	jsr_eval 0
	pushI_a 1
	push_array 0
	update_a 0 2
	pop_a 2
	push_a 4
	push_a 1
	update_a 1 2
	update_a 0 1
	pop_a 1
	update_a 2 6
	update_a 1 5
	updatepop_a 0 4
.d 3 2 ii
	jmp s31
case.52
	updatepop_a 1 2
.d 1 0
	rtn
.o 3 2 ii
s31
case.53
	push_b 1
	build_u e_symbols_in_program_d_f0.48 0 1 e_symbols_in_program_n_f0.48
	push_b 0
	push_a 1
	push_b 2
	push_a 3
	update_b 1 3
	updatepop_b 0 2
	buildh _Nil 0
	update_a 0 5
	update_a 0 4
	pop_a 1
	update e_symbols_in_program_rSymbol 1 1
	push_a 4
	push_a 2
	update_a 1 3
	update_a 2 1
	update_a 0 2
	pop_a 1
	update_a 2 5
	update_a 1 4
	updatepop_a 0 3
.d 3 0
	jmp s22
case.54
	push_b 1
	build_u e_symbols_in_program_d_f1.49 0 1 e_symbols_in_program_n_f1.49
	push_a 3
	push_a 3
	push_a 2
	update_a 2 3
	update_a 0 2
	pop_a 1
	update_a 2 5
	update_a 1 4
	updatepop_a 0 3
	pop_b 2
.d 3 0
	jmp s22
.export e_symbols_in_program_d_f1.49
.export e_symbols_in_program_n_f1.49
.descn e_symbols_in_program_d_f1.49 e_symbols_in_program_n_f1.49 1 0 "_f1.49"
.nu 0 1 e_symbols_in_program_d_f1.49 _
.o 1 0
e_symbols_in_program_n_f1.49
	push_node_u _cycle_in_spine 0 1
.o 1 1 i
ea49
.o 1 1 i
s49
	pushI 1
	push_b 1
	update_b 1 2
	updatepop_b 0 1
	addI
	fillI_b 0 0
	pop_b 1
.d 1 0
	rtn
.export e_symbols_in_program_d_f0.48
.export e_symbols_in_program_n_f0.48
.descn e_symbols_in_program_d_f0.48 e_symbols_in_program_n_f0.48 1 0 "_f0.48"
.nu 0 1 e_symbols_in_program_d_f0.48 _
.o 1 0
e_symbols_in_program_n_f0.48
	push_node_u _cycle_in_spine 0 1
.o 1 1 i
ea48
.o 1 1 i
s48
	pushI 1
	push_b 1
	update_b 1 2
	updatepop_b 0 1
	addI
	fillI_b 0 0
	pop_b 1
.d 1 0
	rtn
.export e_symbols_in_program_d\;384;25;27.20
.desc e_symbols_in_program_d\;384;25;27.20 _hnf l20 2 0 "\;384;25;27.20"
.a 0 a20
.o 2 0
l20
	repl_args 1 1
.o 2 0
a20
.d 2 0
	jsr ea20
.o 0 1 b
	buildB_b 0
	pop_b 1
.d 1 0
	rtn
.o 2 0
ea20
	push_a 1
	jsr_eval 0
	repl_args 2 2
	jsr_eval 0
	push_a 2
	jsr_eval 0
	repl_args 2 2
	jsr_eval 0
	push_array 2
	push_array 1
	update_a 5 7
	update_a 3 5
	update_a 1 6
	update_a 0 4
	pop_a 4
.o 4 0
s20
	push_a 2
	push_a 1
	update_a 1 5
	updatepop_a 0 4
.d 2 0
	jsr cmpAC
.o 0 1 i
	pushI 0
	gtI
.d 0 1 b
	rtn
.o 2 10 iifiiiiii
s11
	push_b 1
	push_b 1
	ltI
	jmp_false else.55
	push_b 3
	push_b 3
	push_a 0
.d 1 2 f
	jsr s9
.o 1 2 f
	push_b 1
	push_b 1
	update_b 1 3
	updatepop_b 0 2
.d 0 2 f
	jsr readFI
.o 0 4 b i f
	push_b 0
	notB
	jmp_false else.56
	buildAC "Error reading symbol table"
	updatepop_a 0 3
	pop_b 14
.d 1 0
	jsr print_string_
.o 0 0
	halt
	repl_args 2 2
	jsr_eval 1
	jsr_eval 0
	pushF_a 1
	update_a 0 1
	pop_a 1
.d 1 2 f
	rtn
else.56
	push_b 3
	push_b 3
	update_b 1 2
	updatepop_b 0 1
.d 0 2 f
	jsr s4
.o 0 4 bif
	push_b 0
	notB
	jmp_false else.57
	buildAC "Error reading symbol table"
	updatepop_a 0 3
	pop_b 17
.d 1 0
	jsr print_string_
.o 0 0
	halt
	repl_args 2 2
	jsr_eval 1
	jsr_eval 0
	pushF_a 1
	update_a 0 1
	pop_a 1
.d 1 2 f
	rtn
else.57
	push_b 3
	push_b 3
	update_b 1 2
	updatepop_b 0 1
.d 0 2 f
	jsr s4
.o 0 4 bif
	push_b 0
	notB
	jmp_false else.58
	buildAC "Error reading symbol table"
	updatepop_a 0 3
	pop_b 20
.d 1 0
	jsr print_string_
.o 0 0
	halt
	repl_args 2 2
	jsr_eval 1
	jsr_eval 0
	pushF_a 1
	update_a 0 1
	pop_a 1
.d 1 2 f
	rtn
else.58
	push_b 3
	push_b 3
	update_b 1 5
	updatepop_b 0 4
.d 0 2 f
	jsr readFC
.o 0 4 b c f
	push_b 0
	notB
	jmp_false else.59
	buildAC "Error reading symbol table"
	updatepop_a 0 3
	pop_b 20
.d 1 0
	jsr print_string_
.o 0 0
	halt
	repl_args 2 2
	jsr_eval 1
	jsr_eval 0
	pushF_a 1
	update_a 0 1
	pop_a 1
.d 1 2 f
	rtn
else.59
	push_b 3
	push_b 3
	update_b 1 2
	updatepop_b 0 1
.d 0 2 f
	jsr readFC
.o 0 4 b c f
	push_b 0
	notB
	jmp_false else.60
	buildAC "Error reading symbol table"
	updatepop_a 0 3
	pop_b 23
.d 1 0
	jsr print_string_
.o 0 0
	halt
	repl_args 2 2
	jsr_eval 1
	jsr_eval 0
	pushF_a 1
	update_a 0 1
	pop_a 1
.d 1 2 f
	rtn
else.60
	push_a 0
	buildh ARRAY 1
	pushC '\002'
	push_b 5
	eqC
	notB
	jmp_true then.61
	push_array 0
	pop_b 1
	buildh _Nil 0
	update_a 0 3
	pop_a 1
	push_arraysize CHAR 0 1
	pushI 0
	push_b 1
	update_b 1 2
	update_b 0 1
	pop_b 1
	eqI
	pushI 0
	update_b 1 0
	jmp_false else.61
then.61
	push_b 1
	pushC '\000'
	push_b 1
	eqC
	jmp_false else.63
	pushI 1
	push_b 15
	addI
	push_b 24
	push_b 24
	push_b 24
	push_b 24
	push_b 24
	push_b 24
	push_b 11
	push_b 11
	push_a 3
	push_a 3
	push_b 24
	push_b 9
	update_b 9 10
	update_b 8 9
	update_b 7 8
	update_b 6 7
	update_b 5 6
	update_b 4 5
	update_b 3 4
	update_b 2 3
	update_b 1 2
	update_b 0 1
	pop_b 1
	update_a 1 5
	updatepop_a 0 4
	update_b 9 33
	update_b 8 32
	update_b 7 31
	update_b 6 30
	update_b 5 29
	update_b 4 28
	update_b 3 27
	update_b 2 26
	update_b 1 25
	updatepop_b 0 24
.d 2 10 iifiiiiii
	jmp s11
else.63
	push_b 4
	push_b 4
	push_b 2
	pop_a 2
.d 0 3 cf
	jsr s19
.o 0 2 f
	push_b 2
	CtoI
	pushI 1
	push_b 18
	addI
	addI
	push_b 26
	push_b 26
	push_b 26
	push_b 26
	push_b 26
	push_b 26
	push_a 1
	push_a 1
	push_b 24
	push_b 9
	update_b 7 10
	update_b 4 7
	update_b 0 4
	update_b 9 0
	update_b 6 9
	update_b 3 6
	update_b 0 3
	update_b 8 0
	update_b 5 8
	update_b 2 5
	update_b 1 2
	update_b 0 1
	pop_b 1
	update_a 1 3
	updatepop_a 0 2
	update_b 9 33
	update_b 8 32
	update_b 7 31
	update_b 6 30
	update_b 5 29
	update_b 4 28
	update_b 3 27
	update_b 2 26
	update_b 1 25
	updatepop_b 0 24
.d 2 10 iifiiiiii
	jmp s11
else.61
	push_b 17
	push_b 8
	eqI
	jmp_false else.64
	push_b 20
	push_b 11
	update_b 1 2
	updatepop_b 0 1
	update_a 0 1
	pop_a 1
	addI
	push_b 1
	pushC '\000'
	push_b 1
	eqC
	jmp_false else.65
	push_a 2
	buildI_b 1
	push_a 2
	buildh _Tuple 2
	buildh _Cons 2
	pushI 1
	push_b 15
	addI
	push_b 24
	push_b 24
	push_b 24
	push_b 24
	push_b 24
	push_b 24
	push_b 11
	push_b 11
	push_a 2
	push_b 24
	push_b 9
	update_b 9 10
	update_b 8 9
	update_b 7 8
	update_b 6 7
	update_b 5 6
	update_b 4 5
	update_b 3 4
	update_b 2 3
	update_b 1 2
	update_b 0 1
	pop_b 1
	update_a 1 4
	updatepop_a 0 3
	update_b 9 33
	update_b 8 32
	update_b 7 31
	update_b 6 30
	update_b 5 29
	update_b 4 28
	update_b 3 27
	update_b 2 26
	update_b 1 25
	updatepop_b 0 24
.d 2 10 iifiiiiii
	jmp s11
else.65
	push_b 4
	push_b 4
	push_b 2
.d 0 3 cf
	jsr s19
.o 0 2 f
	push_a 2
	buildI_b 3
	push_a 2
	buildh _Tuple 2
	buildh _Cons 2
	push_b 2
	CtoI
	pushI 1
	push_b 18
	addI
	addI
	push_b 26
	push_b 26
	push_b 26
	push_b 26
	push_b 26
	push_b 26
	push_a 2
	push_b 24
	push_b 9
	update_b 7 10
	update_b 4 7
	update_b 0 4
	update_b 9 0
	update_b 6 9
	update_b 3 6
	update_b 0 3
	update_b 8 0
	update_b 5 8
	update_b 2 5
	update_b 1 2
	update_b 0 1
	pop_b 1
	update_a 1 4
	updatepop_a 0 3
	update_b 9 33
	update_b 8 32
	update_b 7 31
	update_b 6 30
	update_b 5 29
	update_b 4 28
	update_b 3 27
	update_b 2 26
	update_b 1 25
	updatepop_b 0 24
.d 2 10 iifiiiiii
	jmp s11
else.64
	push_b 18
	push_b 8
	eqI
	jmp_false else.66
	push_b 21
	push_b 11
	update_b 1 2
	updatepop_b 0 1
	update_a 0 1
	pop_a 1
	addI
	push_b 1
	pushC '\000'
	push_b 1
	eqC
	jmp_false else.67
	push_a 2
	buildI_b 1
	push_a 2
	buildh _Tuple 2
	buildh _Cons 2
	pushI 1
	push_b 15
	addI
	push_b 24
	push_b 24
	push_b 24
	push_b 24
	push_b 24
	push_b 24
	push_b 11
	push_b 11
	push_a 2
	push_b 24
	push_b 9
	update_b 9 10
	update_b 8 9
	update_b 7 8
	update_b 6 7
	update_b 5 6
	update_b 4 5
	update_b 3 4
	update_b 2 3
	update_b 1 2
	update_b 0 1
	pop_b 1
	update_a 1 4
	updatepop_a 0 3
	update_b 9 33
	update_b 8 32
	update_b 7 31
	update_b 6 30
	update_b 5 29
	update_b 4 28
	update_b 3 27
	update_b 2 26
	update_b 1 25
	updatepop_b 0 24
.d 2 10 iifiiiiii
	jmp s11
else.67
	push_b 4
	push_b 4
	push_b 2
.d 0 3 cf
	jsr s19
.o 0 2 f
	push_a 2
	buildI_b 3
	push_a 2
	buildh _Tuple 2
	buildh _Cons 2
	push_b 2
	CtoI
	pushI 1
	push_b 18
	addI
	addI
	push_b 26
	push_b 26
	push_b 26
	push_b 26
	push_b 26
	push_b 26
	push_a 2
	push_b 24
	push_b 9
	update_b 7 10
	update_b 4 7
	update_b 0 4
	update_b 9 0
	update_b 6 9
	update_b 3 6
	update_b 0 3
	update_b 8 0
	update_b 5 8
	update_b 2 5
	update_b 1 2
	update_b 0 1
	pop_b 1
	update_a 1 4
	updatepop_a 0 3
	update_b 9 33
	update_b 8 32
	update_b 7 31
	update_b 6 30
	update_b 5 29
	update_b 4 28
	update_b 3 27
	update_b 2 26
	update_b 1 25
	updatepop_b 0 24
.d 2 10 iifiiiiii
	jmp s11
else.66
	push_b 19
	push_b 8
	eqI
	jmp_false else.68
	push_b 22
	push_b 11
	update_b 1 2
	updatepop_b 0 1
	update_a 0 1
	pop_a 1
	addI
	push_b 1
	pushC '\000'
	push_b 1
	eqC
	jmp_false else.69
	push_a 2
	buildI_b 1
	push_a 2
	buildh _Tuple 2
	buildh _Cons 2
	pushI 1
	push_b 15
	addI
	push_b 24
	push_b 24
	push_b 24
	push_b 24
	push_b 24
	push_b 24
	push_b 11
	push_b 11
	push_a 2
	push_b 24
	push_b 9
	update_b 9 10
	update_b 8 9
	update_b 7 8
	update_b 6 7
	update_b 5 6
	update_b 4 5
	update_b 3 4
	update_b 2 3
	update_b 1 2
	update_b 0 1
	pop_b 1
	update_a 1 4
	updatepop_a 0 3
	update_b 9 33
	update_b 8 32
	update_b 7 31
	update_b 6 30
	update_b 5 29
	update_b 4 28
	update_b 3 27
	update_b 2 26
	update_b 1 25
	updatepop_b 0 24
.d 2 10 iifiiiiii
	jmp s11
else.69
	push_b 4
	push_b 4
	push_b 2
.d 0 3 cf
	jsr s19
.o 0 2 f
	push_a 2
	buildI_b 3
	push_a 2
	buildh _Tuple 2
	buildh _Cons 2
	push_b 2
	CtoI
	pushI 1
	push_b 18
	addI
	addI
	push_b 26
	push_b 26
	push_b 26
	push_b 26
	push_b 26
	push_b 26
	push_a 2
	push_b 24
	push_b 9
	update_b 7 10
	update_b 4 7
	update_b 0 4
	update_b 9 0
	update_b 6 9
	update_b 3 6
	update_b 0 3
	update_b 8 0
	update_b 5 8
	update_b 2 5
	update_b 1 2
	update_b 0 1
	pop_b 1
	update_a 1 4
	updatepop_a 0 3
	update_b 9 33
	update_b 8 32
	update_b 7 31
	update_b 6 30
	update_b 5 29
	update_b 4 28
	update_b 3 27
	update_b 2 26
	update_b 1 25
	updatepop_b 0 24
.d 2 10 iifiiiiii
	jmp s11
else.68
	push_b 1
	pushC '\000'
	push_b 1
	eqC
	jmp_false else.70
	pushI 1
	push_b 15
	addI
	push_b 24
	push_b 24
	push_b 24
	push_b 24
	push_b 24
	push_b 24
	push_b 11
	push_b 11
	push_a 3
	push_a 3
	push_b 24
	push_b 9
	update_b 9 10
	update_b 8 9
	update_b 7 8
	update_b 6 7
	update_b 5 6
	update_b 4 5
	update_b 3 4
	update_b 2 3
	update_b 1 2
	update_b 0 1
	pop_b 1
	update_a 1 5
	updatepop_a 0 4
	update_b 9 33
	update_b 8 32
	update_b 7 31
	update_b 6 30
	update_b 5 29
	update_b 4 28
	update_b 3 27
	update_b 2 26
	update_b 1 25
	updatepop_b 0 24
.d 2 10 iifiiiiii
	jmp s11
else.70
	push_b 4
	push_b 4
	push_b 2
	pop_a 2
.d 0 3 cf
	jsr s19
.o 0 2 f
	push_b 2
	CtoI
	pushI 1
	push_b 18
	addI
	addI
	push_b 26
	push_b 26
	push_b 26
	push_b 26
	push_b 26
	push_b 26
	push_a 1
	push_a 1
	push_b 24
	push_b 9
	update_b 7 10
	update_b 4 7
	update_b 0 4
	update_b 9 0
	update_b 6 9
	update_b 3 6
	update_b 0 3
	update_b 8 0
	update_b 5 8
	update_b 2 5
	update_b 1 2
	update_b 0 1
	pop_b 1
	update_a 1 3
	updatepop_a 0 2
	update_b 9 33
	update_b 8 32
	update_b 7 31
	update_b 6 30
	update_b 5 29
	update_b 4 28
	update_b 3 27
	update_b 2 26
	update_b 1 25
	updatepop_b 0 24
.d 2 10 iifiiiiii
	jmp s11
else.55
	push_b 3
	push_b 3
	push_a 1
	updatepop_a 0 2
	update_b 1 11
	updatepop_b 0 10
.d 1 2 f
	rtn
.o 0 3 cf
s19
	push_b 0
	CtoI
	pushI 18
	update_b 1 2
	updatepop_b 0 1
	mulI
	push_b 0
	push_b 3
	push_b 3
.d 0 3 f i
	jsr readFS
.o 1 2 f
	push_a 0
	updatepop_a 0 1
	push_arraysize CHAR 0 1
	push_b 3
	push_b 1
	update_b 1 2
	update_b 0 1
	pop_b 1
	eqI
	notB
	jmp_false else.71
	buildAC "Error reading symbol table"
	pop_b 5
.d 1 0
	jsr print_string_
.o 0 0
	halt
	pushF_a 0
	pop_a 1
.d 0 2 f
	rtn
else.71
	update_b 1 4
	update_b 0 3
	pop_b 3
.d 0 2 f
	rtn
.o 1 2 f
s9
	push_b 1
	push_b 1
	update_b 1 3
	updatepop_b 0 2
.d 0 2 f
	jsr readFI
.o 0 4 b i f
	push_b 0
	notB
	jmp_false else.72
	buildAC "Error reading symbol table"
	updatepop_a 0 1
	pop_b 4
.d 1 0
	jsr print_string_
.o 0 0
	halt
	repl_args 2 2
	jsr_eval 1
	jsr_eval 0
	pushF_a 1
	push_array 0
	update_a 0 2
	pop_a 2
.d 1 2 f
	rtn
else.72
	pushI 0
	push_b 2
	eqI
	jmp_false else.73
	push_b 3
	push_b 3
	update_b 1 2
	updatepop_b 0 1
.d 0 2 f
	jsr readFI
.o 0 4 b i f
	push_b 0
	notB
	jmp_false else.74
	buildAC "Error reading symbol table"
	updatepop_a 0 1
	pop_b 7
.d 1 0
	jsr print_string_
.o 0 0
	halt
	repl_args 2 2
	jsr_eval 1
	jsr_eval 0
	pushF_a 1
	push_array 0
	update_a 0 2
	pop_a 2
.d 1 2 f
	rtn
else.74
	pushI 4
	push_b 2
	update_b 1 3
	updatepop_b 0 2
	subI
	push_a 0
	push_b 0
.d 1 1 i
	jsr s7
.o 0 1 b
	jmp_false else.75
	push_a 0
	push_b 0
.d 1 1 i
	jsr s18
.o 0 1 i
	pushI 1
	push_b 1
	update_b 1 2
	update_b 0 1
	pop_b 1
	subI
	push_b 1
	push_a 0
	update_b 1 2
	updatepop_b 0 1
	updatepop_a 0 1
.d 1 2 ii
	jsr sliceAC
.o 1 0
	push_b 1
	push_b 1
	update_b 1 6
	updatepop_b 0 5
.d 1 2 f
	rtn
else.75
	push_b 2
	push_b 2
	buildAC ""
	updatepop_a 0 1
	update_b 1 7
	updatepop_b 0 6
.d 1 2 f
	rtn
else.73
	push_b 3
	push_b 3
	update_b 1 2
	updatepop_b 0 1
	pop_a 1
.d 0 2 f
	jsr readFI
.o 0 4 b i f
	push_b 0
	notB
	jmp_false else.76
	buildAC "Error reading symbol table"
	pop_b 7
.d 1 0
	jsr print_string_
.o 0 0
	halt
	repl_args 2 2
	jsr_eval 1
	jsr_eval 0
	pushF_a 1
	push_array 0
	update_a 0 2
	pop_a 2
.d 1 2 f
	rtn
else.76
	push_b 4
	not%
	pushI 16843009
	push_b 6
	subI
	and%
	pushI 2155905152
	push_b 1
	update_b 1 2
	update_b 0 1
	pop_b 1
	and%
	pushI 0
	push_b 1
	update_b 1 2
	update_b 0 1
	pop_b 1
	eqI
	notB
	jmp_false else.77
	pushI 255
	push_b 5
	and%
	pushI 0
	push_b 1
	update_b 1 2
	update_b 0 1
	pop_b 1
	eqI
	jmp_false else.78
	push_b 3
	push_b 3
	buildAC ""
	update_b 1 8
	updatepop_b 0 7
.d 1 2 f
	rtn
else.78
	pushI 65280
	push_b 5
	and%
	pushI 0
	push_b 1
	update_b 1 2
	update_b 0 1
	pop_b 1
	eqI
	jmp_false else.79
	push_b 4
	ItoC
	pushI 1
	create_array_ CHAR 0 1
	pushI 0
	update_b 1 3
	updatepop_b 0 2
	update CHAR 0 1
	push_b 1
	push_b 1
	update_b 1 6
	updatepop_b 0 5
.d 1 2 f
	jmp s10
else.79
	pushI 16711680
	push_b 5
	and%
	pushI 0
	push_b 1
	update_b 1 2
	update_b 0 1
	pop_b 1
	eqI
	jmp_false else.80
	push_b 4
	ItoC
	pushI 8
	push_b 6
	shiftr%
	ItoC
	pushI 2
	create_array_ CHAR 0 1
	pushI 1
	update CHAR 0 1
	pushI 0
	update_b 1 3
	updatepop_b 0 2
	update CHAR 0 1
	push_b 1
	push_b 1
	update_b 1 6
	updatepop_b 0 5
.d 1 2 f
	jmp s10
else.80
	push_b 4
	ItoC
	pushI 8
	push_b 6
	shiftr%
	ItoC
	pushI 16
	push_b 7
	shiftr%
	ItoC
	pushI 3
	create_array_ CHAR 0 1
	pushI 2
	update CHAR 0 1
	pushI 1
	update CHAR 0 1
	pushI 0
	update_b 1 3
	updatepop_b 0 2
	update CHAR 0 1
	push_b 1
	push_b 1
	update_b 1 6
	updatepop_b 0 5
.d 1 2 f
	jmp s10
else.77
	pushI 255
	push_b 2
	and%
	pushI 0
	push_b 1
	update_b 1 2
	update_b 0 1
	pop_b 1
	eqI
	jmp_false else.81
	push_b 4
	ItoC
	pushI 8
	push_b 6
	shiftr%
	ItoC
	pushI 16
	push_b 7
	shiftr%
	ItoC
	pushI 24
	push_b 8
	shiftr%
	ItoC
	pushI 4
	create_array_ CHAR 0 1
	pushI 3
	update CHAR 0 1
	pushI 2
	update CHAR 0 1
	pushI 1
	update CHAR 0 1
	pushI 0
	update_b 1 2
	updatepop_b 0 1
	update CHAR 0 1
	push_b 2
	push_b 2
	update_b 1 7
	updatepop_b 0 6
.d 1 2 f
	jmp s10
else.81
	pushI 65280
	push_b 2
	and%
	pushI 0
	push_b 1
	update_b 1 2
	update_b 0 1
	pop_b 1
	eqI
	jmp_false else.82
	push_b 4
	ItoC
	pushI 8
	push_b 6
	shiftr%
	ItoC
	pushI 16
	push_b 7
	shiftr%
	ItoC
	pushI 24
	push_b 8
	shiftr%
	ItoC
	push_b 5
	ItoC
	pushI 5
	create_array_ CHAR 0 1
	pushI 4
	update CHAR 0 1
	pushI 3
	update CHAR 0 1
	pushI 2
	update CHAR 0 1
	pushI 1
	update CHAR 0 1
	pushI 0
	update_b 1 2
	updatepop_b 0 1
	update CHAR 0 1
	push_b 2
	push_b 2
	update_b 1 7
	updatepop_b 0 6
.d 1 2 f
	jmp s10
else.82
	pushI 16711680
	push_b 2
	and%
	pushI 0
	push_b 1
	update_b 1 2
	update_b 0 1
	pop_b 1
	eqI
	jmp_false else.83
	push_b 4
	ItoC
	pushI 8
	push_b 6
	shiftr%
	ItoC
	pushI 16
	push_b 7
	shiftr%
	ItoC
	pushI 24
	push_b 8
	shiftr%
	ItoC
	push_b 5
	ItoC
	pushI 8
	push_b 7
	shiftr%
	ItoC
	pushI 6
	create_array_ CHAR 0 1
	pushI 5
	update CHAR 0 1
	pushI 4
	update CHAR 0 1
	pushI 3
	update CHAR 0 1
	pushI 2
	update CHAR 0 1
	pushI 1
	update CHAR 0 1
	pushI 0
	update_b 1 2
	updatepop_b 0 1
	update CHAR 0 1
	push_b 2
	push_b 2
	update_b 1 7
	updatepop_b 0 6
.d 1 2 f
	jmp s10
else.83
	pushI 4278190080
	push_b 2
	and%
	pushI 0
	push_b 1
	update_b 1 2
	update_b 0 1
	pop_b 1
	eqI
	jmp_false else.84
	push_b 4
	ItoC
	pushI 8
	push_b 6
	shiftr%
	ItoC
	pushI 16
	push_b 7
	shiftr%
	ItoC
	pushI 24
	push_b 8
	shiftr%
	ItoC
	push_b 5
	ItoC
	pushI 8
	push_b 7
	shiftr%
	ItoC
	pushI 16
	push_b 8
	shiftr%
	ItoC
	pushI 7
	create_array_ CHAR 0 1
	pushI 6
	update CHAR 0 1
	pushI 5
	update CHAR 0 1
	pushI 4
	update CHAR 0 1
	pushI 3
	update CHAR 0 1
	pushI 2
	update CHAR 0 1
	pushI 1
	update CHAR 0 1
	pushI 0
	update_b 1 2
	updatepop_b 0 1
	update CHAR 0 1
	push_b 2
	push_b 2
	update_b 1 7
	updatepop_b 0 6
.d 1 2 f
	jmp s10
else.84
	push_b 4
	ItoC
	pushI 8
	push_b 6
	shiftr%
	ItoC
	pushI 16
	push_b 7
	shiftr%
	ItoC
	pushI 24
	push_b 8
	shiftr%
	ItoC
	push_b 5
	ItoC
	pushI 8
	push_b 7
	shiftr%
	ItoC
	pushI 16
	push_b 8
	shiftr%
	ItoC
	pushI 24
	push_b 9
	shiftr%
	ItoC
	pushI 8
	create_array_ CHAR 0 1
	pushI 7
	update CHAR 0 1
	pushI 6
	update CHAR 0 1
	pushI 5
	update CHAR 0 1
	pushI 4
	update CHAR 0 1
	pushI 3
	update CHAR 0 1
	pushI 2
	update CHAR 0 1
	pushI 1
	update CHAR 0 1
	pushI 0
	update_b 1 2
	updatepop_b 0 1
	update CHAR 0 1
	push_b 2
	push_b 2
	update_b 1 7
	updatepop_b 0 6
.d 1 2 f
	jmp s10
.o 1 1 i
s18
	push_b 0
	push_a 0
	select CHAR 0 1
	pushC '\000'
	push_b 1
	update_b 1 2
	update_b 0 1
	pop_b 1
	eqC
	notB
	jmp_false else.85
	pushI 1
	push_b 1
	addI
	push_a 0
	updatepop_a 0 1
	updatepop_b 0 1
.d 1 1 i
	jmp s18
else.85
	pop_a 1
.d 0 1 i
	rtn
.o 1 2 f
s10
	push_a 0
.d 1 0
	jsr s8
.o 0 1 b
	jmp_false else.86
	push_b 1
	push_b 1
	push_a 0
	updatepop_a 0 1
	update_b 1 3
	updatepop_b 0 2
.d 1 2 f
	rtn
else.86
	push_b 1
	push_b 1
	buildAC ""
	updatepop_a 0 1
	update_b 1 3
	updatepop_b 0 2
.d 1 2 f
	rtn
.o 1 0
s8
	push_a 0
	push_arraysize CHAR 0 1
	pushI 3
	push_b 1
	update_b 1 2
	update_b 0 1
	pop_b 1
	ltI
	notB
	jmp_false else.87
	pushI 0
	push_a 0
	select CHAR 0 1
	pushC 'e'
	push_b 1
	update_b 1 2
	update_b 0 1
	pop_b 1
	eqC
	jmp_false else.87
	pushI 1
	push_a 0
	select CHAR 0 1
	pushC '_'
	push_b 1
	update_b 1 2
	update_b 0 1
	pop_b 1
	eqC
	jmp_false else.87
	pushI 2
	push_a 0
	select CHAR 0 1
	pushC '_'
	push_b 1
	update_b 1 2
	update_b 0 1
	pop_b 1
	eqC
	jmp_false else.87
	pop_a 1
	pushB TRUE
.d 0 1 b
	rtn
else.87
	push_a 0
	push_arraysize CHAR 0 1
	pushI 2
	push_b 1
	update_b 1 2
	update_b 0 1
	pop_b 1
	ltI
	notB
	jmp_false else.91
	pushI 0
	push_a 0
	select CHAR 0 1
	pushC '_'
	push_b 1
	update_b 1 2
	update_b 0 1
	pop_b 1
	eqC
	jmp_false else.91
	pushI 1
	push_a 0
	select CHAR 0 1
	pushC '_'
	push_b 1
	update_b 1 2
	update_b 0 1
	pop_b 1
	eqC
	jmp_false else.91
	push_a 0
	push_arraysize CHAR 0 1
	pushI 6
	push_b 1
	update_b 1 2
	update_b 0 1
	pop_b 1
	ltI
	notB
	jmp_false else.94
	pushI 2
	push_a 0
	select CHAR 0 1
	pushC 'C'
	push_b 1
	update_b 1 2
	update_b 0 1
	pop_b 1
	eqC
	jmp_false else.94
	pushI 3
	push_a 0
	select CHAR 0 1
	pushC 'o'
	push_b 1
	update_b 1 2
	update_b 0 1
	pop_b 1
	eqC
	jmp_false else.94
	pushI 4
	push_a 0
	select CHAR 0 1
	pushC 'n'
	push_b 1
	update_b 1 2
	update_b 0 1
	pop_b 1
	eqC
	jmp_false else.94
	pushI 5
	push_a 0
	select CHAR 0 1
	pushC 's'
	push_b 1
	update_b 1 2
	update_b 0 1
	pop_b 1
	eqC
	jmp_false else.94
	push_a 0
	push_arraysize CHAR 0 1
	pushI 6
	push_b 1
	update_b 1 2
	update_b 0 1
	pop_b 1
	eqI
	jmp_false else.99
	pop_a 1
	pushB TRUE
.d 0 1 b
	rtn
else.99
	pushI 6
	push_a 0
	select CHAR 0 1
	pushC 's'
	push_b 1
	update_b 1 2
	update_b 0 1
	pop_b 1
	eqC
	jmp_true then.100
	pushI 6
	push_a 0
	select CHAR 0 1
	pushC 'i'
	push_b 1
	update_b 1 2
	update_b 0 1
	pop_b 1
	eqC
	jmp_true then.100
	pushI 6
	push_a 0
	select CHAR 0 1
	pushC 'c'
	push_b 1
	update_b 1 2
	update_b 0 1
	pop_b 1
	eqC
	jmp_true then.100
	pushI 6
	push_a 0
	select CHAR 0 1
	pushC 'r'
	push_b 1
	update_b 1 2
	update_b 0 1
	pop_b 1
	eqC
	jmp_true then.100
	pushI 6
	push_a 0
	select CHAR 0 1
	pushC 'b'
	push_b 1
	update_b 1 2
	update_b 0 1
	pop_b 1
	eqC
	jmp_true then.100
	pushI 6
	push_a 0
	select CHAR 0 1
	pushC 'f'
	push_b 1
	update_b 1 2
	update_b 0 1
	pop_b 1
	eqC
	jmp_false else.100
then.100
	push_a 0
	updatepop_a 0 1
	push_arraysize CHAR 0 1
	pushI 7
	push_b 1
	update_b 1 2
	update_b 0 1
	pop_b 1
	eqI
	jmp_false else.106
	pushB TRUE
.d 0 1 b
	rtn
else.106
	pushB FALSE
.d 0 1 b
	rtn
else.100
	pushI 6
	push_a 0
	select CHAR 0 1
	pushC 'a'
	push_b 1
	update_b 1 2
	update_b 0 1
	pop_b 1
	eqC
	jmp_false else.107
	push_a 0
	push_arraysize CHAR 0 1
	pushI 7
	push_b 1
	update_b 1 2
	update_b 0 1
	pop_b 1
	eqI
	jmp_false else.107
	pop_a 1
	pushB TRUE
.d 0 1 b
	rtn
else.107
	push_a 0
	push_arraysize CHAR 0 1
	pushI 8
	push_b 1
	update_b 1 2
	update_b 0 1
	pop_b 1
	eqI
	jmp_false else.109
	pushI 6
	push_a 0
	select CHAR 0 1
	pushC 't'
	push_b 1
	update_b 1 2
	update_b 0 1
	pop_b 1
	eqC
	jmp_false else.109
	pushI 7
	push_a 0
	updatepop_a 0 1
	select CHAR 0 1
	pushC 's'
	push_b 1
	update_b 1 2
	update_b 0 1
	pop_b 1
	eqC
	buildh _Nil 0
	jmp_false else.109
	pop_a 1
	pushB TRUE
.d 0 1 b
	rtn
else.109
	pop_a 1
	pushB FALSE
.d 0 1 b
	rtn
else.94
	push_a 0
	push_arraysize CHAR 0 1
	pushI 5
	push_b 1
	update_b 1 2
	update_b 0 1
	pop_b 1
	eqI
	jmp_false else.112
	pushI 2
	push_a 0
	select CHAR 0 1
	pushC 'N'
	push_b 1
	update_b 1 2
	update_b 0 1
	pop_b 1
	eqC
	jmp_false else.112
	pushI 3
	push_a 0
	select CHAR 0 1
	pushC 'i'
	push_b 1
	update_b 1 2
	update_b 0 1
	pop_b 1
	eqC
	jmp_false else.112
	pushI 4
	push_a 0
	select CHAR 0 1
	pushC 'l'
	push_b 1
	update_b 1 2
	update_b 0 1
	pop_b 1
	eqC
	jmp_false else.112
	pop_a 1
	pushB TRUE
.d 0 1 b
	rtn
else.112
	push_a 0
	push_arraysize CHAR 0 1
	pushI 6
	push_b 1
	update_b 1 2
	update_b 0 1
	pop_b 1
	eqI
	jmp_false else.116
	pushI 2
	push_a 0
	select CHAR 0 1
	pushC 'N'
	push_b 1
	update_b 1 2
	update_b 0 1
	pop_b 1
	eqC
	jmp_false else.116
	pushI 3
	push_a 0
	select CHAR 0 1
	pushC 'o'
	push_b 1
	update_b 1 2
	update_b 0 1
	pop_b 1
	eqC
	jmp_false else.116
	pushI 4
	push_a 0
	select CHAR 0 1
	pushC 'n'
	push_b 1
	update_b 1 2
	update_b 0 1
	pop_b 1
	eqC
	jmp_false else.116
	pushI 5
	push_a 0
	select CHAR 0 1
	pushC 'e'
	push_b 1
	update_b 1 2
	update_b 0 1
	pop_b 1
	eqC
	jmp_false else.116
	pop_a 1
	pushB TRUE
.d 0 1 b
	rtn
else.116
	push_a 0
	push_arraysize CHAR 0 1
	pushI 7
	push_b 1
	update_b 1 2
	update_b 0 1
	pop_b 1
	eqI
	jmp_false else.121
	pushI 2
	push_a 0
	select CHAR 0 1
	pushC 'T'
	push_b 1
	update_b 1 2
	update_b 0 1
	pop_b 1
	eqC
	jmp_false else.121
	pushI 3
	push_a 0
	select CHAR 0 1
	pushC 'u'
	push_b 1
	update_b 1 2
	update_b 0 1
	pop_b 1
	eqC
	jmp_false else.121
	pushI 4
	push_a 0
	select CHAR 0 1
	pushC 'p'
	push_b 1
	update_b 1 2
	update_b 0 1
	pop_b 1
	eqC
	jmp_false else.121
	pushI 5
	push_a 0
	select CHAR 0 1
	pushC 'l'
	push_b 1
	update_b 1 2
	update_b 0 1
	pop_b 1
	eqC
	jmp_false else.121
	pushI 6
	push_a 0
	select CHAR 0 1
	pushC 'e'
	push_b 1
	update_b 1 2
	update_b 0 1
	pop_b 1
	eqC
	jmp_false else.121
	pop_a 1
	pushB TRUE
.d 0 1 b
	rtn
else.121
	push_a 0
	push_arraysize CHAR 0 1
	pushI 6
	push_b 1
	update_b 1 2
	update_b 0 1
	pop_b 1
	eqI
	jmp_false else.127
	pushI 2
	push_a 0
	select CHAR 0 1
	pushC 'J'
	push_b 1
	update_b 1 2
	update_b 0 1
	pop_b 1
	eqC
	jmp_false else.127
	pushI 3
	push_a 0
	select CHAR 0 1
	pushC 'u'
	push_b 1
	update_b 1 2
	update_b 0 1
	pop_b 1
	eqC
	jmp_false else.127
	pushI 4
	push_a 0
	select CHAR 0 1
	pushC 's'
	push_b 1
	update_b 1 2
	update_b 0 1
	pop_b 1
	eqC
	jmp_false else.127
	pushI 5
	push_a 0
	select CHAR 0 1
	pushC 't'
	push_b 1
	update_b 1 2
	update_b 0 1
	pop_b 1
	eqC
	jmp_false else.127
	pop_a 1
	pushB TRUE
.d 0 1 b
	rtn
else.127
	push_a 0
	push_arraysize CHAR 0 1
	pushI 7
	push_b 1
	update_b 1 2
	update_b 0 1
	pop_b 1
	eqI
	jmp_false else.132
	pushI 2
	push_a 0
	select CHAR 0 1
	pushC 'J'
	push_b 1
	update_b 1 2
	update_b 0 1
	pop_b 1
	eqC
	jmp_false else.132
	pushI 3
	push_a 0
	select CHAR 0 1
	pushC 'u'
	push_b 1
	update_b 1 2
	update_b 0 1
	pop_b 1
	eqC
	jmp_false else.132
	pushI 4
	push_a 0
	select CHAR 0 1
	pushC 's'
	push_b 1
	update_b 1 2
	update_b 0 1
	pop_b 1
	eqC
	jmp_false else.132
	pushI 5
	push_a 0
	select CHAR 0 1
	pushC 't'
	push_b 1
	update_b 1 2
	update_b 0 1
	pop_b 1
	eqC
	jmp_false else.132
	pushI 6
	push_a 0
	select CHAR 0 1
	pushC 's'
	push_b 1
	update_b 1 2
	update_b 0 1
	pop_b 1
	eqC
	jmp_true then.137
	pushI 6
	push_a 0
	select CHAR 0 1
	pushC 'i'
	push_b 1
	update_b 1 2
	update_b 0 1
	pop_b 1
	eqC
	jmp_true then.137
	pushI 6
	push_a 0
	select CHAR 0 1
	pushC 'c'
	push_b 1
	update_b 1 2
	update_b 0 1
	pop_b 1
	eqC
	jmp_true then.137
	pushI 6
	push_a 0
	select CHAR 0 1
	pushC 'r'
	push_b 1
	update_b 1 2
	update_b 0 1
	pop_b 1
	eqC
	jmp_true then.137
	pushI 6
	push_a 0
	select CHAR 0 1
	pushC 'b'
	push_b 1
	update_b 1 2
	update_b 0 1
	pop_b 1
	eqC
	jmp_true then.137
	pushI 6
	push_a 0
	select CHAR 0 1
	pushC 'f'
	push_b 1
	update_b 1 2
	update_b 0 1
	pop_b 1
	eqC
	jmp_true then.137
	pushI 6
	push_a 0
	updatepop_a 0 1
	select CHAR 0 1
	pushC 'a'
	push_b 1
	update_b 1 2
	update_b 0 1
	pop_b 1
	eqC
	buildh _Nil 0
	jmp_false else.137
then.137
	pop_a 1
	pushB TRUE
.d 0 1 b
	rtn
else.137
	pop_a 1
	pushB FALSE
.d 0 1 b
	rtn
else.132
	pop_a 1
	pushB FALSE
.d 0 1 b
	rtn
else.91
	push_a 0
	push_arraysize CHAR 0 1
	pushI 3
	push_b 1
	update_b 1 2
	update_b 0 1
	pop_b 1
	eqI
	jmp_false else.144
	pushI 0
	push_a 0
	select CHAR 0 1
	pushC 'I'
	push_b 1
	update_b 1 2
	update_b 0 1
	pop_b 1
	eqC
	jmp_false else.144
	pushI 1
	push_a 0
	select CHAR 0 1
	pushC 'N'
	push_b 1
	update_b 1 2
	update_b 0 1
	pop_b 1
	eqC
	jmp_false else.144
	pushI 2
	push_a 0
	select CHAR 0 1
	pushC 'T'
	push_b 1
	update_b 1 2
	update_b 0 1
	pop_b 1
	eqC
	jmp_false else.144
	pop_a 1
	pushB TRUE
.d 0 1 b
	rtn
else.144
	push_a 0
	push_arraysize CHAR 0 1
	pushI 4
	push_b 1
	update_b 1 2
	update_b 0 1
	pop_b 1
	eqI
	jmp_false else.148
	pushI 0
	push_a 0
	select CHAR 0 1
	pushC 'C'
	push_b 1
	update_b 1 2
	update_b 0 1
	pop_b 1
	eqC
	jmp_false else.148
	pushI 1
	push_a 0
	select CHAR 0 1
	pushC 'H'
	push_b 1
	update_b 1 2
	update_b 0 1
	pop_b 1
	eqC
	jmp_false else.148
	pushI 2
	push_a 0
	select CHAR 0 1
	pushC 'A'
	push_b 1
	update_b 1 2
	update_b 0 1
	pop_b 1
	eqC
	jmp_false else.148
	pushI 3
	push_a 0
	select CHAR 0 1
	pushC 'R'
	push_b 1
	update_b 1 2
	update_b 0 1
	pop_b 1
	eqC
	jmp_false else.148
	pop_a 1
	pushB TRUE
.d 0 1 b
	rtn
else.148
	push_a 0
	push_arraysize CHAR 0 1
	pushI 4
	push_b 1
	update_b 1 2
	update_b 0 1
	pop_b 1
	eqI
	jmp_false else.153
	pushI 0
	push_a 0
	select CHAR 0 1
	pushC 'R'
	push_b 1
	update_b 1 2
	update_b 0 1
	pop_b 1
	eqC
	jmp_false else.153
	pushI 1
	push_a 0
	select CHAR 0 1
	pushC 'E'
	push_b 1
	update_b 1 2
	update_b 0 1
	pop_b 1
	eqC
	jmp_false else.153
	pushI 2
	push_a 0
	select CHAR 0 1
	pushC 'A'
	push_b 1
	update_b 1 2
	update_b 0 1
	pop_b 1
	eqC
	jmp_false else.153
	pushI 3
	push_a 0
	select CHAR 0 1
	pushC 'L'
	push_b 1
	update_b 1 2
	update_b 0 1
	pop_b 1
	eqC
	jmp_false else.153
	pop_a 1
	pushB TRUE
.d 0 1 b
	rtn
else.153
	push_a 0
	push_arraysize CHAR 0 1
	pushI 4
	push_b 1
	update_b 1 2
	update_b 0 1
	pop_b 1
	eqI
	jmp_false else.158
	pushI 0
	push_a 0
	select CHAR 0 1
	pushC 'B'
	push_b 1
	update_b 1 2
	update_b 0 1
	pop_b 1
	eqC
	jmp_false else.158
	pushI 1
	push_a 0
	select CHAR 0 1
	pushC 'O'
	push_b 1
	update_b 1 2
	update_b 0 1
	pop_b 1
	eqC
	jmp_false else.158
	pushI 2
	push_a 0
	select CHAR 0 1
	pushC 'O'
	push_b 1
	update_b 1 2
	update_b 0 1
	pop_b 1
	eqC
	jmp_false else.158
	pushI 3
	push_a 0
	select CHAR 0 1
	pushC 'L'
	push_b 1
	update_b 1 2
	update_b 0 1
	pop_b 1
	eqC
	jmp_false else.158
	pop_a 1
	pushB TRUE
.d 0 1 b
	rtn
else.158
	push_a 0
	push_arraysize CHAR 0 1
	pushI 5
	push_b 1
	update_b 1 2
	update_b 0 1
	pop_b 1
	eqI
	jmp_false else.163
	pushI 0
	push_a 0
	select CHAR 0 1
	pushC 'A'
	push_b 1
	update_b 1 2
	update_b 0 1
	pop_b 1
	eqC
	jmp_false else.163
	pushI 1
	push_a 0
	select CHAR 0 1
	pushC 'R'
	push_b 1
	update_b 1 2
	update_b 0 1
	pop_b 1
	eqC
	jmp_false else.163
	pushI 2
	push_a 0
	select CHAR 0 1
	pushC 'R'
	push_b 1
	update_b 1 2
	update_b 0 1
	pop_b 1
	eqC
	jmp_false else.163
	pushI 3
	push_a 0
	select CHAR 0 1
	pushC 'A'
	push_b 1
	update_b 1 2
	update_b 0 1
	pop_b 1
	eqC
	jmp_false else.163
	pushI 4
	push_a 0
	select CHAR 0 1
	pushC 'Y'
	push_b 1
	update_b 1 2
	update_b 0 1
	pop_b 1
	eqC
	jmp_false else.163
	pop_a 1
	pushB TRUE
.d 0 1 b
	rtn
else.163
	push_a 0
	push_arraysize CHAR 0 1
	pushI 3
	push_b 1
	update_b 1 2
	update_b 0 1
	pop_b 1
	ltI
	notB
	jmp_false else.169
	pushI 0
	push_a 0
	select CHAR 0 1
	pushC 'n'
	push_b 1
	update_b 1 2
	update_b 0 1
	pop_b 1
	eqC
	jmp_false else.169
	pushI 1
	push_a 0
	select CHAR 0 1
	pushC '_'
	push_b 1
	update_b 1 2
	update_b 0 1
	pop_b 1
	eqC
	jmp_false else.169
	pushI 2
	push_a 0
	select CHAR 0 1
	pushC '_'
	push_b 1
	update_b 1 2
	update_b 0 1
	pop_b 1
	eqC
	jmp_false else.169
	push_a 0
	push_arraysize CHAR 0 1
	pushI 7
	push_b 1
	update_b 1 2
	update_b 0 1
	pop_b 1
	eqI
	jmp_false else.173
	pushI 3
	push_a 0
	select CHAR 0 1
	pushC 'S'
	push_b 1
	update_b 1 2
	update_b 0 1
	pop_b 1
	eqC
	jmp_false else.173
	pushI 4
	push_a 0
	select CHAR 0 1
	pushC '_'
	push_b 1
	update_b 1 2
	update_b 0 1
	pop_b 1
	eqC
	jmp_false else.173
	pushI 5
	push_a 0
	select CHAR 0 1
	pushC 'P'
	push_b 1
	update_b 1 2
	update_b 0 1
	pop_b 1
	eqC
	jmp_false else.173
	pushI 6
	push_a 0
	select CHAR 0 1
	pushC '1'
	push_b 1
	update_b 1 2
	update_b 0 1
	pop_b 1
	ltC
	notB
	jmp_false else.173
	pushI 6
	push_a 0
	select CHAR 0 1
	pushC '6'
	ltC
	notB
	jmp_false else.173
	pop_a 1
	pushB TRUE
.d 0 1 b
	rtn
else.173
	push_a 0
	push_arraysize CHAR 0 1
	pushI 7
	push_b 1
	update_b 1 2
	update_b 0 1
	pop_b 1
	ltI
	notB
	jmp_false else.179
	pushI 3
	push_a 0
	select CHAR 0 1
	pushC 'C'
	push_b 1
	update_b 1 2
	update_b 0 1
	pop_b 1
	eqC
	jmp_false else.179
	pushI 4
	push_a 0
	select CHAR 0 1
	pushC 'o'
	push_b 1
	update_b 1 2
	update_b 0 1
	pop_b 1
	eqC
	jmp_false else.179
	pushI 5
	push_a 0
	select CHAR 0 1
	pushC 'n'
	push_b 1
	update_b 1 2
	update_b 0 1
	pop_b 1
	eqC
	jmp_false else.179
	pushI 6
	push_a 0
	select CHAR 0 1
	pushC 's'
	push_b 1
	update_b 1 2
	update_b 0 1
	pop_b 1
	eqC
	jmp_false else.179
	push_a 0
	push_arraysize CHAR 0 1
	pushI 8
	push_b 1
	update_b 1 2
	update_b 0 1
	pop_b 1
	ltI
	notB
	jmp_false else.184
	pushI 7
	push_a 0
	select CHAR 0 1
	pushC 's'
	push_b 1
	update_b 1 2
	update_b 0 1
	pop_b 1
	eqC
	jmp_false else.184
	push_a 0
	updatepop_a 0 1
	push_arraysize CHAR 0 1
	pushI 8
	push_b 1
	update_b 1 2
	update_b 0 1
	pop_b 1
	eqI
	jmp_false else.186
	pushB TRUE
.d 0 1 b
	rtn
else.186
	pushB FALSE
.d 0 1 b
	rtn
else.184
	pop_a 1
	pushB FALSE
.d 0 1 b
	rtn
else.179
	push_a 0
	push_arraysize CHAR 0 1
	pushI 8
	push_b 1
	update_b 1 2
	update_b 0 1
	pop_b 1
	eqI
	jmp_false else.187
	pushI 3
	push_a 0
	select CHAR 0 1
	pushC 'J'
	push_b 1
	update_b 1 2
	update_b 0 1
	pop_b 1
	eqC
	jmp_false else.187
	pushI 4
	push_a 0
	select CHAR 0 1
	pushC 'u'
	push_b 1
	update_b 1 2
	update_b 0 1
	pop_b 1
	eqC
	jmp_false else.187
	pushI 5
	push_a 0
	select CHAR 0 1
	pushC 's'
	push_b 1
	update_b 1 2
	update_b 0 1
	pop_b 1
	eqC
	jmp_false else.187
	pushI 6
	push_a 0
	select CHAR 0 1
	pushC 't'
	push_b 1
	update_b 1 2
	update_b 0 1
	pop_b 1
	eqC
	jmp_false else.187
	pushI 7
	push_a 0
	updatepop_a 0 1
	select CHAR 0 1
	pushC 's'
	push_b 1
	update_b 1 2
	update_b 0 1
	pop_b 1
	eqC
	buildh _Nil 0
	jmp_false else.187
	pop_a 1
	pushB TRUE
.d 0 1 b
	rtn
else.187
	pop_a 1
	pushB FALSE
.d 0 1 b
	rtn
else.169
	pop_a 1
	pushB FALSE
.d 0 1 b
	rtn
.o 1 1 i
s7
	push_b 0
	push_a 0
	select CHAR 0 1
	pushC 'e'
	push_b 1
	update_b 1 2
	update_b 0 1
	pop_b 1
	eqC
	jmp_false else.193
	pushI 1
	push_b 1
	addI
	push_a 0
	select CHAR 0 1
	pushC '_'
	push_b 1
	update_b 1 2
	update_b 0 1
	pop_b 1
	eqC
	jmp_false else.193
	pushI 2
	push_b 1
	addI
	push_a 0
	select CHAR 0 1
	pushC '_'
	push_b 1
	update_b 1 2
	update_b 0 1
	pop_b 1
	eqC
	jmp_false else.193
	pop_a 1
	pop_b 1
	pushB TRUE
.d 0 1 b
	rtn
else.193
	push_b 0
	push_a 0
	select CHAR 0 1
	pushC '_'
	push_b 1
	update_b 1 2
	update_b 0 1
	pop_b 1
	eqC
	jmp_false else.196
	pushI 1
	push_b 1
	addI
	push_a 0
	select CHAR 0 1
	pushC '_'
	push_b 1
	update_b 1 2
	update_b 0 1
	pop_b 1
	eqC
	jmp_false else.196
	pushI 2
	push_b 1
	addI
	push_a 0
	select CHAR 0 1
	pushC 'S'
	push_b 1
	update_b 1 2
	update_b 0 1
	pop_b 1
	eqC
	jmp_false else.198
	pushI 3
	push_b 1
	addI
	push_a 0
	select CHAR 0 1
	pushC 'T'
	push_b 1
	update_b 1 2
	update_b 0 1
	pop_b 1
	eqC
	jmp_false else.198
	pushI 4
	push_b 1
	addI
	push_a 0
	select CHAR 0 1
	pushC 'R'
	push_b 1
	update_b 1 2
	update_b 0 1
	pop_b 1
	eqC
	jmp_false else.198
	pushI 5
	push_b 1
	addI
	push_a 0
	select CHAR 0 1
	pushC 'I'
	push_b 1
	update_b 1 2
	update_b 0 1
	pop_b 1
	eqC
	jmp_false else.198
	pushI 6
	push_b 1
	addI
	push_a 0
	select CHAR 0 1
	pushC 'N'
	push_b 1
	update_b 1 2
	update_b 0 1
	pop_b 1
	eqC
	jmp_false else.198
	pushI 7
	push_b 1
	addI
	push_a 0
	select CHAR 0 1
	pushC 'G'
	push_b 1
	update_b 1 2
	update_b 0 1
	pop_b 1
	eqC
	jmp_false else.198
	pushI 8
	push_b 1
	addI
	push_a 0
	select CHAR 0 1
	pushC '_'
	push_b 1
	update_b 1 2
	update_b 0 1
	pop_b 1
	eqC
	jmp_false else.198
	pushI 9
	push_b 1
	addI
	push_a 0
	select CHAR 0 1
	pushC '_'
	push_b 1
	update_b 1 2
	update_b 0 1
	pop_b 1
	eqC
	jmp_false else.198
	pushI 10
	push_b 1
	addI
	push_a 0
	select CHAR 0 1
	pushC '\000'
	push_b 1
	update_b 1 2
	update_b 0 1
	pop_b 1
	eqC
	jmp_false else.198
	pop_a 1
	pop_b 1
	pushB TRUE
.d 0 1 b
	rtn
else.198
	pushI 2
	push_b 1
	addI
	push_a 0
	select CHAR 0 1
	pushC 'C'
	push_b 1
	update_b 1 2
	update_b 0 1
	pop_b 1
	eqC
	jmp_false else.207
	pushI 3
	push_b 1
	addI
	push_a 0
	select CHAR 0 1
	pushC 'o'
	push_b 1
	update_b 1 2
	update_b 0 1
	pop_b 1
	eqC
	jmp_false else.207
	pushI 4
	push_b 1
	addI
	push_a 0
	select CHAR 0 1
	pushC 'n'
	push_b 1
	update_b 1 2
	update_b 0 1
	pop_b 1
	eqC
	jmp_false else.207
	pushI 5
	push_b 1
	addI
	push_a 0
	select CHAR 0 1
	pushC 's'
	push_b 1
	update_b 1 2
	update_b 0 1
	pop_b 1
	eqC
	jmp_false else.207
	pushI 6
	push_b 1
	addI
	push_a 0
	select CHAR 0 1
	pushC 's'
	push_b 1
	update_b 1 2
	update_b 0 1
	pop_b 1
	eqC
	jmp_true then.212
	pushI 6
	push_b 1
	addI
	push_a 0
	select CHAR 0 1
	pushC 'i'
	push_b 1
	update_b 1 2
	update_b 0 1
	pop_b 1
	eqC
	jmp_true then.212
	pushI 6
	push_b 1
	addI
	push_a 0
	select CHAR 0 1
	pushC 'c'
	push_b 1
	update_b 1 2
	update_b 0 1
	pop_b 1
	eqC
	jmp_true then.212
	pushI 6
	push_b 1
	addI
	push_a 0
	select CHAR 0 1
	pushC 'r'
	push_b 1
	update_b 1 2
	update_b 0 1
	pop_b 1
	eqC
	jmp_true then.212
	pushI 6
	push_b 1
	addI
	push_a 0
	select CHAR 0 1
	pushC 'b'
	push_b 1
	update_b 1 2
	update_b 0 1
	pop_b 1
	eqC
	jmp_true then.212
	pushI 6
	push_b 1
	addI
	push_a 0
	select CHAR 0 1
	pushC 'f'
	push_b 1
	update_b 1 2
	update_b 0 1
	pop_b 1
	eqC
	jmp_false else.207
then.212
	pushI 7
	push_b 1
	addI
	push_a 0
	select CHAR 0 1
	pushC 't'
	push_b 1
	update_b 1 2
	update_b 0 1
	pop_b 1
	eqC
	jmp_false else.207
	pushI 8
	push_b 1
	addI
	push_a 0
	select CHAR 0 1
	pushC 's'
	push_b 1
	update_b 1 2
	update_b 0 1
	pop_b 1
	eqC
	jmp_false else.207
	pushI 9
	push_b 1
	addI
	push_a 0
	select CHAR 0 1
	pushC '\000'
	push_b 1
	update_b 1 2
	update_b 0 1
	pop_b 1
	eqC
	jmp_false else.207
	pop_a 1
	pop_b 1
	pushB TRUE
.d 0 1 b
	rtn
else.207
	pushI 2
	push_b 1
	addI
	push_a 0
	select CHAR 0 1
	pushC 'A'
	push_b 1
	update_b 1 2
	update_b 0 1
	pop_b 1
	eqC
	jmp_false else.220
	pushI 3
	push_b 1
	addI
	push_a 0
	select CHAR 0 1
	pushC 'R'
	push_b 1
	update_b 1 2
	update_b 0 1
	pop_b 1
	eqC
	jmp_false else.220
	pushI 4
	push_b 1
	addI
	push_a 0
	select CHAR 0 1
	pushC 'R'
	push_b 1
	update_b 1 2
	update_b 0 1
	pop_b 1
	eqC
	jmp_false else.220
	pushI 5
	push_b 1
	addI
	push_a 0
	select CHAR 0 1
	pushC 'A'
	push_b 1
	update_b 1 2
	update_b 0 1
	pop_b 1
	eqC
	jmp_false else.220
	pushI 6
	push_b 1
	addI
	push_a 0
	select CHAR 0 1
	pushC 'Y'
	push_b 1
	update_b 1 2
	update_b 0 1
	pop_b 1
	eqC
	jmp_false else.220
	pushI 7
	push_b 1
	addI
	push_a 0
	select CHAR 0 1
	pushC '_'
	push_b 1
	update_b 1 2
	update_b 0 1
	pop_b 1
	eqC
	jmp_false else.220
	pushI 8
	push_b 1
	addI
	push_a 0
	select CHAR 0 1
	pushC '_'
	push_b 1
	update_b 1 2
	update_b 0 1
	pop_b 1
	eqC
	jmp_false else.220
	pushI 9
	push_b 1
	addI
	push_a 0
	updatepop_b 0 1
	updatepop_a 0 1
	select CHAR 0 1
	pushC '\000'
	push_b 1
	update_b 1 2
	update_b 0 1
	pop_b 1
	eqC
	buildh _Nil 0
	pushI 0
	update_b 1 0
	jmp_false else.220
	pop_a 1
	pop_b 1
	pushB TRUE
.d 0 1 b
	rtn
else.220
	pop_a 1
	pop_b 1
	pushB FALSE
.d 0 1 b
	rtn
else.196
	push_b 0
	push_a 0
	select CHAR 0 1
	pushC 'n'
	push_b 1
	update_b 1 2
	update_b 0 1
	pop_b 1
	eqC
	jmp_false else.228
	pushI 1
	push_b 1
	addI
	push_a 0
	select CHAR 0 1
	pushC '_'
	push_b 1
	update_b 1 2
	update_b 0 1
	pop_b 1
	eqC
	jmp_false else.228
	pushI 2
	push_b 1
	addI
	push_a 0
	select CHAR 0 1
	pushC '_'
	push_b 1
	update_b 1 2
	update_b 0 1
	pop_b 1
	eqC
	jmp_false else.228
	pushI 3
	push_b 1
	addI
	push_a 0
	select CHAR 0 1
	pushC 'C'
	push_b 1
	update_b 1 2
	update_b 0 1
	pop_b 1
	eqC
	jmp_false else.228
	pushI 4
	push_b 1
	addI
	push_a 0
	select CHAR 0 1
	pushC 'o'
	push_b 1
	update_b 1 2
	update_b 0 1
	pop_b 1
	eqC
	jmp_false else.228
	pushI 5
	push_b 1
	addI
	push_a 0
	select CHAR 0 1
	pushC 'n'
	push_b 1
	update_b 1 2
	update_b 0 1
	pop_b 1
	eqC
	jmp_false else.228
	pushI 6
	push_b 1
	addI
	push_a 0
	select CHAR 0 1
	pushC 's'
	push_b 1
	update_b 1 2
	update_b 0 1
	pop_b 1
	eqC
	jmp_false else.228
	pushI 7
	push_b 1
	addI
	push_a 0
	select CHAR 0 1
	pushC 's'
	push_b 1
	update_b 1 2
	update_b 0 1
	pop_b 1
	eqC
	jmp_false else.228
	pushI 8
	push_b 1
	addI
	push_a 0
	select CHAR 0 1
	pushC 't'
	push_b 1
	update_b 1 2
	update_b 0 1
	pop_b 1
	eqC
	jmp_false else.228
	pushI 9
	push_b 1
	addI
	push_a 0
	select CHAR 0 1
	pushC 's'
	push_b 1
	update_b 1 2
	update_b 0 1
	pop_b 1
	eqC
	jmp_false else.228
	pushI 10
	push_b 1
	addI
	push_a 0
	updatepop_b 0 1
	updatepop_a 0 1
	select CHAR 0 1
	pushC '\000'
	push_b 1
	update_b 1 2
	update_b 0 1
	pop_b 1
	eqC
	buildh _Nil 0
	pushI 0
	update_b 1 0
	jmp_false else.228
	pop_a 1
	pop_b 1
	pushB TRUE
.d 0 1 b
	rtn
else.228
	pop_a 1
	pop_b 1
	pushB FALSE
.d 0 1 b
	rtn
.o 0 10 iiiiiiiif
s5
	push_b 1
	push_b 1
	eqI
	jmp_false else.239
	push_b 9
	push_b 9
	push_b 9
	push_b 9
	push_b 9
	push_b 9
	push_b 9
	push_b 9
	update_b 7 17
	update_b 6 16
	update_b 5 15
	update_b 4 14
	update_b 3 13
	update_b 2 12
	update_b 1 11
	updatepop_b 0 10
.d 0 8 iiiiiif
	rtn
else.239
	pushI 8
	push_b 10
	push_b 10
.d 0 3 f i
	jsr readFS
.o 1 2 f
	push_a 0
	push_arraysize CHAR 0 1
	pushI 8
	push_b 1
	update_b 1 2
	update_b 0 1
	pop_b 1
	eqI
	notB
	jmp_false else.240
	buildAC "Error in section header"
	updatepop_a 0 1
	pop_b 12
.d 1 0
	jsr print_string_
.o 0 0
	halt
	repl_args 2 2
	jsr_eval 1
	jsr_eval 0
	pushF_a 1
	repl_r_args 0 6
	pop_a 1
.d 0 8 iiiiiif
	rtn
else.240
	push_b 1
	push_b 1
	update_b 1 3
	updatepop_b 0 2
.d 0 2 f
	jsr readFI
.o 0 4 b i f
	push_b 0
	notB
	jmp_false else.241
	buildAC "Error in section header"
	updatepop_a 0 1
	pop_b 14
.d 1 0
	jsr print_string_
.o 0 0
	halt
	repl_args 2 2
	jsr_eval 1
	jsr_eval 0
	pushF_a 1
	repl_r_args 0 6
	pop_a 1
.d 0 8 iiiiiif
	rtn
else.241
	push_b 3
	push_b 3
	update_b 1 5
	updatepop_b 0 4
.d 0 2 f
	jsr readFI
.o 0 4 b i f
	push_b 0
	notB
	jmp_false else.242
	buildAC "Error in section header"
	updatepop_a 0 1
	pop_b 14
.d 1 0
	jsr print_string_
.o 0 0
	halt
	repl_args 2 2
	jsr_eval 1
	jsr_eval 0
	pushF_a 1
	repl_r_args 0 6
	pop_a 1
.d 0 8 iiiiiif
	rtn
else.242
	push_b 3
	push_b 3
	update_b 1 2
	updatepop_b 0 1
.d 0 2 f
	jsr readFI
.o 0 4 b i f
	push_b 0
	notB
	jmp_false else.243
	buildAC "Error in section header"
	updatepop_a 0 1
	pop_b 17
.d 1 0
	jsr print_string_
.o 0 0
	halt
	repl_args 2 2
	jsr_eval 1
	jsr_eval 0
	pushF_a 1
	repl_r_args 0 6
	pop_a 1
.d 0 8 iiiiiif
	rtn
else.243
	push_b 3
	push_b 3
	update_b 1 5
	updatepop_b 0 4
.d 0 2 f
	jsr readFI
.o 0 4 b i f
	push_b 0
	notB
	jmp_false else.244
	buildAC "Error in section header"
	updatepop_a 0 1
	pop_b 17
.d 1 0
	jsr print_string_
.o 0 0
	halt
	repl_args 2 2
	jsr_eval 1
	jsr_eval 0
	pushF_a 1
	repl_r_args 0 6
	pop_a 1
.d 0 8 iiiiiif
	rtn
else.244
	push_b 3
	push_b 3
	update_b 1 5
	updatepop_b 0 4
.d 0 2 f
	jsr readFI
.o 0 4 b i f
	push_b 0
	notB
	jmp_false else.245
	buildAC "Error in section header"
	updatepop_a 0 1
	pop_b 17
.d 1 0
	jsr print_string_
.o 0 0
	halt
	repl_args 2 2
	jsr_eval 1
	jsr_eval 0
	pushF_a 1
	repl_r_args 0 6
	pop_a 1
.d 0 8 iiiiiif
	rtn
else.245
	push_b 3
	push_b 3
	update_b 1 5
	updatepop_b 0 4
.d 0 2 f
	jsr readFI
.o 0 4 b i f
	push_b 0
	notB
	jmp_false else.246
	buildAC "Error in section header"
	updatepop_a 0 1
	pop_b 17
.d 1 0
	jsr print_string_
.o 0 0
	halt
	repl_args 2 2
	jsr_eval 1
	jsr_eval 0
	pushF_a 1
	repl_r_args 0 6
	pop_a 1
.d 0 8 iiiiiif
	rtn
else.246
	push_b 3
	push_b 3
	update_b 1 5
	updatepop_b 0 4
.d 0 2 f
	jsr s4
.o 0 4 bif
	push_b 0
	notB
	jmp_false else.247
	buildAC "Error in section header"
	updatepop_a 0 1
	pop_b 17
.d 1 0
	jsr print_string_
.o 0 0
	halt
	repl_args 2 2
	jsr_eval 1
	jsr_eval 0
	pushF_a 1
	repl_r_args 0 6
	pop_a 1
.d 0 8 iiiiiif
	rtn
else.247
	push_b 3
	push_b 3
	update_b 1 5
	updatepop_b 0 4
.d 0 2 f
	jsr s4
.o 0 4 bif
	push_b 0
	notB
	jmp_false else.248
	buildAC "Error in section header"
	updatepop_a 0 1
	pop_b 17
.d 1 0
	jsr print_string_
.o 0 0
	halt
	repl_args 2 2
	jsr_eval 1
	jsr_eval 0
	pushF_a 1
	repl_r_args 0 6
	pop_a 1
.d 0 8 iiiiiif
	rtn
else.248
	push_b 3
	push_b 3
	update_b 1 5
	updatepop_b 0 4
.d 0 2 f
	jsr readFI
.o 0 4 b i f
	push_b 0
	notB
	jmp_false else.249
	buildAC "Error in section header"
	updatepop_a 0 1
	pop_b 17
.d 1 0
	jsr print_string_
.o 0 0
	halt
	repl_args 2 2
	jsr_eval 1
	jsr_eval 0
	pushF_a 1
	repl_r_args 0 6
	pop_a 1
.d 0 8 iiiiiif
	rtn
else.249
	push_b 4
	push_b 8
	push_b 16
	push_b 16
	push_b 16
	push_b 16
	push_b 16
	push_b 16
	push_a 0
	update_b 7 9
	update_b 6 8
	update_b 5 7
	update_b 4 6
	update_b 3 5
	update_b 2 4
	update_b 1 3
	updatepop_b 0 2
	updatepop_a 0 1
.d 1 8 iiiiiiii
	jsr s24
.o 0 6 iiiiii
	pushI 1
	push_b 12
	addI
	push_b 8
	push_b 8
	push_b 15
	push_b 9
	update_b 3 10
	update_b 5 3
	update_b 7 5
	update_b 9 7
	update_b 2 9
	update_b 1 2
	update_b 4 1
	update_b 6 4
	update_b 8 6
	update_b 0 8
	pop_b 1
	update_b 9 24
	update_b 8 23
	update_b 7 22
	update_b 6 21
	update_b 5 20
	update_b 4 19
	update_b 3 18
	update_b 2 17
	update_b 1 16
	updatepop_b 0 15
.d 0 10 iiiiiiiif
	jmp s5
.o 1 8 iiiiiiii
s24
	push_a 0
	eqAC_a ".text\000\000\000"
	jmp_true case.250
	push_a 0
	eqAC_a ".data\000\000\000"
	jmp_true case.251
	push_a 0
	eqAC_a ".bss\000\000\000\000"
	jmp_true case.252
	jmp case.253
case.250
	push_b 7
	push_b 7
	push_b 7
	push_b 7
	push_b 7
	push_b 7
	push_b 7
	push_b 7
	update_b 6 0
	update_b 7 3
	update_b 5 15
	update_b 4 14
	update_b 3 13
	update_b 2 12
	update_b 1 11
	updatepop_b 0 10
	pop_a 1
.d 0 6 iiiiii
	rtn
case.251
	push_b 7
	push_b 7
	push_b 7
	push_b 7
	push_b 7
	push_b 7
	push_b 7
	push_b 7
	update_b 6 1
	update_b 7 4
	update_b 5 15
	update_b 4 14
	update_b 3 13
	update_b 2 12
	update_b 1 11
	updatepop_b 0 10
	pop_a 1
.d 0 6 iiiiii
	rtn
case.252
	push_b 7
	push_b 7
	push_b 7
	push_b 7
	push_b 7
	push_b 7
	push_b 7
	push_b 7
	update_b 6 2
	update_b 7 5
	update_b 5 15
	update_b 4 14
	update_b 3 13
	update_b 2 12
	update_b 1 11
	updatepop_b 0 10
	pop_a 1
.d 0 6 iiiiii
	rtn
case.253
	update_b 5 7
	update_b 4 6
	update_b 3 5
	update_b 2 4
	update_b 1 3
	updatepop_b 0 2
	pop_a 1
.d 0 6 iiiiii
	rtn
.o 0 2 f
s4
	push_b 1
	push_b 1
	update_b 1 3
	updatepop_b 0 2
.d 0 2 f
	jsr readFC
.o 0 4 b c f
	push_b 0
	notB
	jmp_false else.254
	push_b 1
	CtoI
	push_b 4
	push_b 4
	pushB FALSE
	push_b 3
	update_b 3 4
	update_b 2 3
	update_b 0 2
	pop_b 1
	update_b 3 7
	update_b 2 6
	update_b 1 5
	updatepop_b 0 4
.d 0 4 bif
	rtn
else.254
	push_b 3
	push_b 3
	update_b 1 2
	updatepop_b 0 1
.d 0 2 f
	jsr readFC
.o 0 4 b c f
	push_b 4
	CtoI
	push_b 2
	CtoI
	pushI 8
	push_b 1
	update_b 1 2
	update_b 0 1
	pop_b 1
	shiftl%
	addI
	push_b 4
	push_b 4
	push_b 3
	push_b 3
	update_b 3 4
	update_b 2 3
	update_b 0 2
	pop_b 1
	update_b 3 10
	update_b 2 9
	update_b 1 8
	updatepop_b 0 7
.d 0 4 bif
	rtn
