.comp 920 000011110011000
.start _nostart_
.depend "iTasks.Internal.AsyncSDS" "20210430140248"
.depend "iTasks.Internal.Util" "20210430140248"
.depend "StdCharList" "20210430140248"
.depend "_SystemArray" "20210430140248"
.depend "StdArray" "20210430140248"
.depend "StdEnv" "20210430140248"
.depend "_SystemEnum" "20210430140248"
.depend "StdEnum" "20210430140248"
.depend "StdTuple" "20210430140248"
.depend "StdOrdList" "20210430140248"
.depend "iTasks.WF.Tasks.Core" "20210430140248"
.depend "System._Signal" "20210430140248"
.depend "System.Signal" "20210430140248"
.depend "_SystemStrictMaybes" "20210430140248"
.depend "Text.GenPrint" "20210430140248"
.depend "iTasks.Extensions.DateTime" "20210430140248"
.depend "iTasks.Internal.TaskServer" "20210430140248"
.depend "iTasks.Extensions.Document" "20210430140248"
.depend "System.File" "20210430140248"
.depend "iTasks.Util.DeferredJSON" "20210430140248"
.depend "iTasks.Internal.SDS" "20210430140248"
.depend "iTasks.Internal.TaskEval" "20210430140248"
.depend "iTasks.UI.Layout" "20210430140248"
.depend "iTasks.Internal.TaskState" "20210430140248"
.depend "iTasks.WF.Combinators.Core" "20210430140248"
.depend "Data.IntMap.Base" "20210430140248"
.depend "Data.IntMap.Strict" "20210430140248"
.depend "Data.CircularStack" "20210430140248"
.depend "System._Process" "20210430140248"
.depend "System.Process" "20210430140248"
.depend "System.OS" "20210430140248"
.depend "Data.GenHash" "20210430140248"
.depend "Data.Maybe.Ord" "20210430140248"
.depend "Control.GenBimap" "20210430140248"
.depend "ABC.Interpreter.JavaScript" "20210430140248"
.depend "ABC.Interpreter" "20210430140248"
.depend "iTasks.UI.Editor" "20210430140248"
.depend "iTasks.UI.Editor.Generic" "20210430140248"
.depend "iTasks.Internal.Generic.Defaults" "20210430140248"
.depend "Data.GenDefault" "20210430140248"
.depend "Data.Integer" "20210430140248"
.depend "Text.HTML" "20210430140248"
.depend "iTasks.Internal.Generic.Visualization" "20210430140248"
.depend "iTasks.SDS.Definition" "20210430140248"
.depend "TCPStringChannelsInternal" "20210430140248"
.depend "TCPStringChannels" "20210430140248"
.depend "TCPEvent" "20210430140248"
.depend "tcp_bytestreams" "20210430140248"
.depend "TCPDef" "20210430140248"
.depend "TCPChannels" "20210430140248"
.depend "TCPIP" "20210430140248"
.depend "iTasks.WF.Tasks.IO" "20210430140248"
.depend "iTasks.Internal.Task" "20210430140248"
.depend "iTasks.UI.Definition" "20210430140248"
.depend "Text.GenJSON" "20210430140248"
.depend "Data.Bifunctor" "20210430140248"
.depend "Data.Either" "20210430140248"
.depend "Data.Queue" "20210430140248"
.depend "StdFile" "20210430140248"
.depend "symbols_in_program" "20210430140248"
.depend "iTasks.Internal.IWorld" "20210430140248"
.depend "iTasks.WF.Definition" "20210430140248"
.depend "tcp" "20210430140248"
.depend "TCPChannelClass" "20210430140248"
.depend "System._Time" "20210430140248"
.depend "System.Time" "20210430140248"
.depend "System.GetOpt" "20210430140248"
.depend "System.OSError" "20210430140248"
.depend "System.FilePath" "20210430140248"
.depend "StdString" "20210430140248"
.depend "Internet.HTTP" "20210430140248"
.depend "Control.Monad.Fail" "20210430140248"
.depend "Data.Traversable" "20210430140248"
.depend "StdMisc" "20210430140248"
.depend "StdOverloadedList" "20210430140248"
.depend "Data.List" "20210430140248"
.depend "Data.Foldable" "20210430140248"
.depend "Data.Set" "20210430140248"
.depend "Data.GenLexOrd" "20210430140248"
.depend "StdFunctions" "20210430140248"
.depend "StdFunc" "20210430140248"
.depend "Data.Map" "20210430140248"
.depend "_SystemEnumStrict" "20210430140248"
.depend "_SystemStrictLists" "20210430140248"
.depend "StdStrictLists" "20210430140248"
.depend "StdGeneric" "20210430140248"
.depend "Data.GenEq" "20210430140248"
.depend "StdReal" "20210430140248"
.depend "StdChar" "20210430140248"
.depend "StdInt" "20210430140248"
.depend "StdBool" "20210430140248"
.depend "StdClass" "20210430140248"
.depend "StdList" "20210430140248"
.depend "Data.Monoid" "20210430140248"
.depend "Control.Applicative" "20210430140248"
.depend "Control.Monad" "20210430140248"
.depend "Data.Functor" "20210430140248"
.depend "Data.Error" "20210430140248"
.depend "iTasks.Engine" "20210430140248"
.depend "StdOverloaded" "20210430140248"
.depend "_SystemDynamic" "20210430140248"
.depend "iTasks.WF.Tasks.SDS" "20210430140248"
.module m_iTasks.WF.Tasks.SDS "iTasks.WF.Tasks.SDS" "20210430140248"
.endinfo
.impmod _system
.implab _cycle_in_spine
.implab _type_error
.implab _hnf
.impdesc e_system_dind
.implab e_system_nind e_system_eaind
.impdesc e_system_dif
.implab e_system_nif e_system_eaif
.implab e_system_sif
.impdesc e_system_dAP
.implab e_system_nAP e_system_eaAP
.implab e_system_sAP
.impdesc ARRAY
.impdesc _Nil
.impdesc _Cons
.impdesc _Conss
.implab n_Conss ea_Conss
.impdesc _Consts
.implab n_Consts ea_Consts
.impdesc _Conssts
.implab n_Conssts ea_Conssts
.impdesc _Tuple
.impdesc d_S.1
.implab n_S.1 ea_S.1
.impdesc d_S.2
.implab n_S.2 ea_S.2
.impdesc d_S.3
.implab n_S.3 ea_S.3
.impdesc d_S.4
.implab n_S.4 ea_S.4
.impdesc d_S.5
.implab n_S.5 ea_S.5
.impdesc d_S.6
.implab n_S.6 ea_S.6
.implab _driver
.impmod iTasks.Internal.AsyncSDS
.implab e_iTasks.Internal.AsyncSDS_sasyncSDSLoaderUI
.impdesc e_iTasks.Internal.AsyncSDS_dreadCompletely
.impdesc e_iTasks.Internal.AsyncSDS_dwriteCompletely
.impdesc e_iTasks.Internal.AsyncSDS_dmodifyCompletely
.impdesc e_iTasks.Internal.AsyncSDS_dreadRegisterCompletely
.impmod iTasks.Internal.Util
.impdesc e_iTasks.Internal.Util_dmkTaskEvalInfo
.implab e_iTasks.Internal.Util_nmkTaskEvalInfo
.implab e_iTasks.Internal.Util_smkUIIfReset
.impdesc e_iTasks.Internal.Util_dmkEmptyUI
.implab e_iTasks.Internal.Util_nmkEmptyUI e_iTasks.Internal.Util_eamkEmptyUI
.impmod iTasks.WF.Tasks.Core
.impdesc e_iTasks.WF.Tasks.Core_dreturn
.implab e_iTasks.WF.Tasks.Core_nreturn e_iTasks.WF.Tasks.Core_eareturn
.impmod iTasks.WF.Definition
.impdesc e_iTasks.WF.Definition_dTask
.implab e_iTasks.WF.Definition_sTask
.implab e_iTasks.WF.Definition_nTask e_iTasks.WF.Definition_eaTask
.impdesc e_iTasks.WF.Definition_dapTask
.impmod iTasks.Internal.AsyncSDS
.impdesc e_iTasks.Internal.AsyncSDS_dRead
.impdesc e_iTasks.Internal.AsyncSDS_dWrite
.impdesc e_iTasks.Internal.AsyncSDS_dModify
.impmod iTasks.SDS.Definition
.impdesc e_iTasks.SDS.Definition_dRWShared;.Modifiable
.implab e_iTasks.SDS.Definition_nRWShared;.Modifiable
.impmod iTasks.WF.Definition
.impdesc e_iTasks.WF.Definition_kValueResult
.impdesc e_iTasks.WF.Definition_dValueResult
.implab e_iTasks.WF.Definition_nValueResult e_iTasks.WF.Definition_eaValueResult
.impdesc e_iTasks.WF.Definition_dNoValue
.impdesc e_iTasks.WF.Definition_kValue
.impdesc e_iTasks.WF.Definition_dValue
.implab e_iTasks.WF.Definition_nValue e_iTasks.WF.Definition_eaValue
.export e_iTasks.WF.Tasks.SDS_swatch
.export e_iTasks.WF.Tasks.SDS_eawatch
.descexp e_iTasks.WF.Tasks.SDS_dwatch e_iTasks.WF.Tasks.SDS_nwatch e_iTasks.WF.Tasks.SDS_lwatch 5 0 "watch"
.a 5 e_iTasks.WF.Tasks.SDS_eawatch
.o 2 0 
e_iTasks.WF.Tasks.SDS_lwatch
	push_args 0 4 4
	update_a 5 4
	create 
.d 6 0 
	put_a_jmp 6 e_iTasks.WF.Tasks.SDS_eawatch
.n 5 e_iTasks.WF.Tasks.SDS_dwatch e_iTasks.WF.Tasks.SDS_eawatch
.o 1 0 
e_iTasks.WF.Tasks.SDS_nwatch
	push_node _cycle_in_spine 5
.o 6 0 
e_iTasks.WF.Tasks.SDS_eawatch
	jsr_eval 4
	jsr_eval 3
	jsr_eval 2
	jsr_eval 1
	jsr_eval 0
	push_r_args 3 2 0
	push_r_args 4 2 0
	update2_a 2 6
	updates2_a 1 5 3
	updates2_a_pop_a 0 4 2 2
.o 8 0 
e_iTasks.WF.Tasks.SDS_swatch
.o 8 0 
s4
.impmod iTasks.SDS.Definition
.impdesc e_iTasks.SDS.Definition_rRegistrable;
	build_r e_iTasks.SDS.Definition_rRegistrable; 2 0 4 0
	push_a 0
	push2_a 3
	update_a 10 3
	buildh e_iTasks.WF.Tasks.SDS_dcont;7.8 4
	buildh e_iTasks.Internal.Util_dmkEmptyUI 0
	buildh e_iTasks.WF.Definition_dNoValue 0
	build_r e_iTasks.SDS.Definition_rRegistrable; 2 0 7 0
	push_a 0
	push2_a 6
	update_a 13 3
	buildh e_iTasks.Internal.AsyncSDS_dreadRegisterCompletely 7
	updatepop_a 0 7
.d 2 0 
	jmp e_iTasks.WF.Definition_sTask
.export e_iTasks.WF.Tasks.SDS_dcont;7.8
.desc e_iTasks.WF.Tasks.SDS_dcont;7.8 _hnf l8 8 0 "cont;7.8"
.a 0 a8
.o 2 0 
l8
	repl_args 7 7
.o 8 0 
a8
.o 8 0 
ea8
	jsr_eval 6
	jsr_eval 2
	jsr_eval 1
	jsr_eval 0
	push_r_args 6 1 2
	push_r_args 3 2 0
	update_a 2 9
	update_a 1 5
	updates3_a 0 4 3 2
	pop_a 2
	build_r e_iTasks.SDS.Definition_rRegistrable; 2 0 2 0
	push_a 0
	push2_a 3
	update_a 8 3
	buildh e_iTasks.WF.Tasks.SDS_dcont;7.8 4
	buildh e_iTasks.Internal.Util_dmkEmptyUI 0
	buildB FALSE
	push_a 8
	build e_iTasks.WF.Definition_dValue 2 e_iTasks.WF.Definition_nValue
	build_r e_iTasks.SDS.Definition_rRegistrable; 2 0 5 0
	push_a 0
	push2_a 6
	update_a 11 3
	buildh e_iTasks.Internal.AsyncSDS_dreadRegisterCompletely 7
	build e_iTasks.WF.Definition_dTask 1 e_iTasks.WF.Definition_nTask
	buildo1 e_iTasks.Internal.Util_nmkEmptyUI 7
	buildI_b 1
	build e_iTasks.Internal.Util_dmkTaskEvalInfo 1 e_iTasks.Internal.Util_nmkTaskEvalInfo
	buildB FALSE
	push_a 9
	build e_iTasks.WF.Definition_dValue 2 e_iTasks.WF.Definition_nValue
	build e_iTasks.WF.Definition_dValueResult 4 e_iTasks.WF.Definition_nValueResult
	updatepop_a 0 8
	pop_b 2
	buildh _Tuple 2
.d 1 0 
	rtn 
.export e_iTasks.WF.Tasks.SDS_supd
.export e_iTasks.WF.Tasks.SDS_eaupd
.descexp e_iTasks.WF.Tasks.SDS_dupd e_iTasks.WF.Tasks.SDS_nupd e_iTasks.WF.Tasks.SDS_lupd 5 0 "upd"
.a 5 e_iTasks.WF.Tasks.SDS_eaupd
.o 2 0 
e_iTasks.WF.Tasks.SDS_lupd
	push_args 0 4 4
	update_a 5 4
	create 
.d 6 0 
	put_a_jmp 6 e_iTasks.WF.Tasks.SDS_eaupd
.n 5 e_iTasks.WF.Tasks.SDS_dupd e_iTasks.WF.Tasks.SDS_eaupd
.o 1 0 
e_iTasks.WF.Tasks.SDS_nupd
	push_node _cycle_in_spine 5
.o 6 0 
e_iTasks.WF.Tasks.SDS_eaupd
	jsr_eval 4
	jsr_eval 3
	jsr_eval 2
	jsr_eval 1
	jsr_eval 0
	push_r_args 2 2 0
	updates4_a 0 3 2 1 4
	pop_a 1
.o 7 0 
e_iTasks.WF.Tasks.SDS_supd
.o 7 0 
s3
	buildh e_iTasks.WF.Tasks.SDS_d\;15;13;504.14 0
	buildh e_iTasks.WF.Tasks.SDS_d\;21;55;6.7 0
	buildh e_iTasks.WF.Definition_dNoValue 0
	push2_a 8
	push3_a 7
	buildh e_iTasks.Internal.AsyncSDS_dmodifyCompletely 8
	updatepop_a 0 6
.d 2 0 
	jmp e_iTasks.WF.Definition_sTask
.export e_iTasks.WF.Tasks.SDS_d\;15;13;504.14
.desc e_iTasks.WF.Tasks.SDS_d\;15;13;504.14 _hnf l14 1 0 "\;15;13;504.14"
.o 2 0 
l14
	update_a 1 0
	create 
	put_a 2
.o 2 0 
ea14
	jsr_eval 0
.o 2 0 
s14
	buildo1 e_iTasks.WF.Tasks.Core_nreturn 0
	fillh e_iTasks.WF.Definition_dapTask 1 2
.d 1 0 
	pop_a_rtn 1
.export e_iTasks.WF.Tasks.SDS_d\;21;55;6.7
.desc e_iTasks.WF.Tasks.SDS_d\;21;55;6.7 _hnf l7 1 0 "\;21;55;6.7"
.o 2 0 
l7
	update_a 1 0
	create 
	put_a 2
.o 2 0 
ea7
	jsr_eval 0
.o 2 0 
s7
	buildh e_iTasks.Internal.AsyncSDS_dModify 0
	create 
	swap_a1 
.d 2 0 
	jsr e_iTasks.Internal.AsyncSDS_sasyncSDSLoaderUI
.o 1 0 
	swap_a1 
.d 3 0 
	jmp e_iTasks.Internal.Util_smkUIIfReset
.export e_iTasks.WF.Tasks.SDS_sset
.export e_iTasks.WF.Tasks.SDS_easet
.descexp e_iTasks.WF.Tasks.SDS_dset e_iTasks.WF.Tasks.SDS_nset e_iTasks.WF.Tasks.SDS_lset 5 0 "set"
.a 5 e_iTasks.WF.Tasks.SDS_easet
.o 2 0 
e_iTasks.WF.Tasks.SDS_lset
	push_args 0 4 4
	update_a 5 4
	create 
.d 6 0 
	put_a_jmp 6 e_iTasks.WF.Tasks.SDS_easet
.n 5 e_iTasks.WF.Tasks.SDS_dset e_iTasks.WF.Tasks.SDS_easet
.o 1 0 
e_iTasks.WF.Tasks.SDS_nset
	push_node _cycle_in_spine 5
.o 6 0 
e_iTasks.WF.Tasks.SDS_easet
	jsr_eval 4
	jsr_eval 3
	jsr_eval 2
	jsr_eval 1
	jsr_eval 0
	push_r_args 2 2 0
	updates4_a 0 3 2 1 4
	pop_a 1
.o 7 0 
e_iTasks.WF.Tasks.SDS_sset
.o 7 0 
s2
	buildo1 e_iTasks.WF.Tasks.Core_nreturn 4
	buildh e_iTasks.WF.Definition_dapTask 1
	buildh e_iTasks.WF.Tasks.SDS_d\;18;54;5.6 0
	buildh e_iTasks.WF.Definition_dNoValue 0
.impdesc e_iTasks.SDS.Definition_rWriteable;
	build_r e_iTasks.SDS.Definition_rWriteable; 2 0 5 0
	push_a2 8 4
	push_a2 7 2
	update_a 13 4
	buildh e_iTasks.Internal.AsyncSDS_dwriteCompletely 8
	updatepop_a 0 6
.d 2 0 
	jmp e_iTasks.WF.Definition_sTask
.export e_iTasks.WF.Tasks.SDS_d\;18;54;5.6
.desc e_iTasks.WF.Tasks.SDS_d\;18;54;5.6 _hnf l6 1 0 "\;18;54;5.6"
.o 2 0 
l6
	update_a 1 0
	create 
	put_a 2
.o 2 0 
ea6
	jsr_eval 0
.o 2 0 
s6
	buildh e_iTasks.Internal.AsyncSDS_dWrite 0
	create 
	swap_a1 
.d 2 0 
	jsr e_iTasks.Internal.AsyncSDS_sasyncSDSLoaderUI
.o 1 0 
	swap_a1 
.d 3 0 
	jmp e_iTasks.Internal.Util_smkUIIfReset
.export e_iTasks.WF.Tasks.SDS_sget
.export e_iTasks.WF.Tasks.SDS_eaget
.descexp e_iTasks.WF.Tasks.SDS_dget e_iTasks.WF.Tasks.SDS_nget e_iTasks.WF.Tasks.SDS_lget 4 0 "get"
.a 4 e_iTasks.WF.Tasks.SDS_eaget
.o 2 0 
e_iTasks.WF.Tasks.SDS_lget
	push_args 0 3 3
	update_a 4 3
	create 
.d 5 0 
	put_a_jmp 5 e_iTasks.WF.Tasks.SDS_eaget
.n 4 e_iTasks.WF.Tasks.SDS_dget e_iTasks.WF.Tasks.SDS_eaget
.o 1 0 
e_iTasks.WF.Tasks.SDS_nget
	push_node _cycle_in_spine 4
.o 5 0 
e_iTasks.WF.Tasks.SDS_eaget
	jsr_eval 3
	jsr_eval 2
	jsr_eval 1
	jsr_eval 0
	push_r_args 1 2 0
	updates3_a 0 2 1 3
	pop_a 1
.o 6 0 
e_iTasks.WF.Tasks.SDS_sget
.o 6 0 
s1
	buildh e_iTasks.WF.Tasks.SDS_d\;15;13;502.12 0
	buildh e_iTasks.WF.Tasks.SDS_d\;15;45;4.5 0
	buildh e_iTasks.WF.Definition_dNoValue 0
.impdesc e_iTasks.SDS.Definition_rReadable;
	build_r e_iTasks.SDS.Definition_rReadable; 2 0 4 0
	push_a2 7 4
	push_update_a 2 10
	buildh e_iTasks.Internal.AsyncSDS_dreadCompletely 7
	updatepop_a 0 5
.d 2 0 
	jmp e_iTasks.WF.Definition_sTask
.export e_iTasks.WF.Tasks.SDS_d\;15;13;502.12
.desc e_iTasks.WF.Tasks.SDS_d\;15;13;502.12 _hnf l12 1 0 "\;15;13;502.12"
.o 2 0 
l12
	update_a 1 0
	create 
	put_a 2
.o 2 0 
ea12
	jsr_eval 0
.o 2 0 
s12
	buildo1 e_iTasks.WF.Tasks.Core_nreturn 0
	fillh e_iTasks.WF.Definition_dapTask 1 2
.d 1 0 
	pop_a_rtn 1
.export e_iTasks.WF.Tasks.SDS_d\;15;45;4.5
.desc e_iTasks.WF.Tasks.SDS_d\;15;45;4.5 _hnf l5 1 0 "\;15;45;4.5"
.o 2 0 
l5
	update_a 1 0
	create 
	put_a 2
.o 2 0 
ea5
	jsr_eval 0
.o 2 0 
s5
	buildh e_iTasks.Internal.AsyncSDS_dRead 0
	create 
	swap_a1 
.d 2 0 
	jsr e_iTasks.Internal.AsyncSDS_sasyncSDSLoaderUI
.o 1 0 
	swap_a1 
.d 3 0 
	jmp e_iTasks.Internal.Util_smkUIIfReset
