.comp 920 000011110011000
.start _nostart_
.depend "iTasks.Internal.Util" "20210430140248"
.depend "iTasks.Internal.EngineTasks" "20210430140248"
.depend "System._Signal" "20210430140248"
.depend "System.Signal" "20210430140248"
.depend "_SystemStrictMaybes" "20210430140248"
.depend "Text.GenPrint" "20210430140248"
.depend "iTasks.Extensions.DateTime" "20210430140248"
.depend "iTasks.Internal.TaskServer" "20210430140248"
.depend "iTasks.Extensions.Document" "20210430140248"
.depend "System.File" "20210430140248"
.depend "iTasks.Util.DeferredJSON" "20210430140248"
.depend "iTasks.Internal.SDS" "20210430140248"
.depend "iTasks.Internal.TaskEval" "20210430140248"
.depend "iTasks.UI.Layout" "20210430140248"
.depend "iTasks.Internal.TaskState" "20210430140248"
.depend "iTasks.WF.Combinators.Core" "20210430140248"
.depend "Data.IntMap.Base" "20210430140248"
.depend "Data.IntMap.Strict" "20210430140248"
.depend "Data.CircularStack" "20210430140248"
.depend "System._Process" "20210430140248"
.depend "System.Process" "20210430140248"
.depend "System.OS" "20210430140248"
.depend "Data.GenHash" "20210430140248"
.depend "Data.Maybe.Ord" "20210430140248"
.depend "Control.GenBimap" "20210430140248"
.depend "ABC.Interpreter.JavaScript" "20210430140248"
.depend "ABC.Interpreter" "20210430140248"
.depend "iTasks.UI.Editor" "20210430140248"
.depend "iTasks.UI.Editor.Generic" "20210430140248"
.depend "iTasks.Internal.Generic.Defaults" "20210430140248"
.depend "Data.GenDefault" "20210430140248"
.depend "Data.Integer" "20210430140248"
.depend "Text.HTML" "20210430140248"
.depend "iTasks.Internal.Generic.Visualization" "20210430140248"
.depend "iTasks.SDS.Definition" "20210430140248"
.depend "TCPStringChannelsInternal" "20210430140248"
.depend "TCPStringChannels" "20210430140248"
.depend "TCPEvent" "20210430140248"
.depend "tcp_bytestreams" "20210430140248"
.depend "TCPDef" "20210430140248"
.depend "TCPChannels" "20210430140248"
.depend "TCPIP" "20210430140248"
.depend "iTasks.WF.Tasks.IO" "20210430140248"
.depend "iTasks.Internal.Task" "20210430140248"
.depend "iTasks.UI.Definition" "20210430140248"
.depend "Text.GenJSON" "20210430140248"
.depend "Data.Bifunctor" "20210430140248"
.depend "Data.Either" "20210430140248"
.depend "Data.Queue" "20210430140248"
.depend "StdFile" "20210430140248"
.depend "symbols_in_program" "20210430140248"
.depend "iTasks.Internal.IWorld" "20210430140248"
.depend "iTasks.WF.Definition" "20210430140248"
.depend "tcp" "20210430140248"
.depend "TCPChannelClass" "20210430140248"
.depend "System._Time" "20210430140248"
.depend "System.Time" "20210430140248"
.depend "System.GetOpt" "20210430140248"
.depend "System.OSError" "20210430140248"
.depend "System.FilePath" "20210430140248"
.depend "StdString" "20210430140248"
.depend "Internet.HTTP" "20210430140248"
.depend "Control.Monad.Fail" "20210430140248"
.depend "Data.Traversable" "20210430140248"
.depend "StdMisc" "20210430140248"
.depend "StdOverloadedList" "20210430140248"
.depend "Data.List" "20210430140248"
.depend "Data.Foldable" "20210430140248"
.depend "Data.Set" "20210430140248"
.depend "Data.GenLexOrd" "20210430140248"
.depend "StdFunctions" "20210430140248"
.depend "StdFunc" "20210430140248"
.depend "Data.Map" "20210430140248"
.depend "_SystemEnumStrict" "20210430140248"
.depend "_SystemStrictLists" "20210430140248"
.depend "StdStrictLists" "20210430140248"
.depend "StdGeneric" "20210430140248"
.depend "Data.GenEq" "20210430140248"
.depend "StdReal" "20210430140248"
.depend "StdChar" "20210430140248"
.depend "StdInt" "20210430140248"
.depend "StdBool" "20210430140248"
.depend "StdClass" "20210430140248"
.depend "StdList" "20210430140248"
.depend "Data.Monoid" "20210430140248"
.depend "Control.Applicative" "20210430140248"
.depend "Control.Monad" "20210430140248"
.depend "Data.Functor" "20210430140248"
.depend "Data.Error" "20210430140248"
.depend "iTasks.Engine" "20210430140248"
.depend "StdOverloaded" "20210430140248"
.depend "_SystemDynamic" "20210430140248"
.depend "iTasks.WF.Tasks.System" "20210430140248"
.module m_iTasks.WF.Tasks.System "iTasks.WF.Tasks.System" "20210430140248"
.endinfo
.impmod _system
.implab _cycle_in_spine
.implab _type_error
.implab _hnf
.impdesc e_system_dind
.implab e_system_nind e_system_eaind
.impdesc e_system_dif
.implab e_system_nif e_system_eaif
.implab e_system_sif
.impdesc e_system_dAP
.implab e_system_nAP e_system_eaAP
.implab e_system_sAP
.impdesc ARRAY
.impdesc _Nil
.impdesc _Cons
.impdesc _Conss
.implab n_Conss ea_Conss
.impdesc _Consts
.implab n_Consts ea_Consts
.impdesc _Conssts
.implab n_Conssts ea_Conssts
.impdesc _Tuple
.impdesc d_S.1
.implab n_S.1 ea_S.1
.impdesc d_S.2
.implab n_S.2 ea_S.2
.impdesc d_S.3
.implab n_S.3 ea_S.3
.impdesc d_S.4
.implab n_S.4 ea_S.4
.impdesc d_S.5
.implab n_S.5 ea_S.5
.impdesc d_S.6
.implab n_S.6 ea_S.6
.implab _driver
.impmod iTasks.Internal.Util
.impdesc e_iTasks.Internal.Util_diShowErr
.implab e_iTasks.Internal.Util_niShowErr e_iTasks.Internal.Util_eaiShowErr
.impmod iTasks.Internal.Generic.Visualization
.impdesc e_iTasks.Internal.Generic.Visualization_dtoSingleLineText
.implab e_iTasks.Internal.Generic.Visualization_ntoSingleLineText
.impmod iTasks.Internal.Task
.implab e_iTasks.Internal.Task_smkInstantTask
.impmod iTasks.WF.Definition
.impdesc e_iTasks.WF.Definition_diTask;.gText_s
.implab e_iTasks.WF.Definition_niTask;.gText_s
.impmod Data.Error
.impdesc e_Data.Error_dOk
.export e_iTasks.WF.Tasks.System_sshutDown
.export e_iTasks.WF.Tasks.System_eashutDown
.descexp e_iTasks.WF.Tasks.System_dshutDown e_iTasks.WF.Tasks.System_nshutDown e_iTasks.WF.Tasks.System_lshutDown 1 0 "shutDown"
.o 2 0 
e_iTasks.WF.Tasks.System_lshutDown
	update_a 1 0
	create 
.d 2 0 
	put_a_jmp 2 e_iTasks.WF.Tasks.System_eashutDown
.n 1 e_iTasks.WF.Tasks.System_dshutDown e_iTasks.WF.Tasks.System_eashutDown
.o 1 0 
e_iTasks.WF.Tasks.System_nshutDown
	push_node _cycle_in_spine 1
.o 2 0 
e_iTasks.WF.Tasks.System_eashutDown
.o 2 0 
e_iTasks.WF.Tasks.System_sshutDown
.o 2 0 
s2
	push_a 0
	buildh e_iTasks.WF.Tasks.System_d\;13;36;3.4 1
.d 2 0 
	put_a_jmp 1 e_iTasks.Internal.Task_smkInstantTask
.export e_iTasks.WF.Tasks.System_d\;13;36;3.4
.desc e_iTasks.WF.Tasks.System_d\;13;36;3.4 _hnf l4 3 0 "\;13;36;3.4"
.a 0 a4
.o 2 0 
l4
	repl_args 2 2
.o 3 0 
a4
.o 3 0 
ea4
	buildo1 n_Justs 0
	push_a 3
	build e_iTasks.WF.Tasks.System_d_upd0.211 2 e_iTasks.WF.Tasks.System_n_upd0.211
	buildh e__predef_d_Unit 0
	buildh e_Data.Error_dOk 1
	update2pop_a 0 3
	buildh _Tuple 2
.d 1 0 
	rtn 
.export e_iTasks.WF.Tasks.System_d_upd0.211
.export e_iTasks.WF.Tasks.System_n_upd0.211
.descn e_iTasks.WF.Tasks.System_d_upd0.211 e_iTasks.WF.Tasks.System_n_upd0.211 2 0 "_upd0.211"
.n 2 e_iTasks.WF.Tasks.System_d_upd0.211 ea211
.o 1 0 
e_iTasks.WF.Tasks.System_n_upd0.211
	push_node _cycle_in_spine 2
.o 3 0 
ea211
.o 3 0 
s211
	push_jsr_eval 1
	push_jsr_eval 1
	repl_r_args 18 1
	update_a 18 17
.impmod iTasks.Internal.IWorld
.impdesc e_iTasks.Internal.IWorld_rIWorld
	fill_r e_iTasks.Internal.IWorld_rIWorld 18 1 21 0 0
.d 1 0 
	pop_ab_rtn 21 1
.export e_iTasks.WF.Tasks.System_straceValue
.export e_iTasks.WF.Tasks.System_eatraceValue
.descexp e_iTasks.WF.Tasks.System_dtraceValue e_iTasks.WF.Tasks.System_ntraceValue e_iTasks.WF.Tasks.System_ltraceValue 2 0 "traceValue"
.a 2 e_iTasks.WF.Tasks.System_eatraceValue
.o 2 0 
e_iTasks.WF.Tasks.System_ltraceValue
	push_args 0 1 1
	update_a 2 1
	create 
.d 3 0 
	put_a_jmp 3 e_iTasks.WF.Tasks.System_eatraceValue
.n 2 e_iTasks.WF.Tasks.System_dtraceValue e_iTasks.WF.Tasks.System_eatraceValue
.o 1 0 
e_iTasks.WF.Tasks.System_ntraceValue
	push_node _cycle_in_spine 2
.o 3 0 
e_iTasks.WF.Tasks.System_eatraceValue
	jsr_eval 0
	repl_r_args 6 0
.o 8 0 
e_iTasks.WF.Tasks.System_straceValue
.o 8 0 
s1
.impmod StdGeneric
.impdesc e_StdGeneric_rGenericDict
	build_r e_StdGeneric_rGenericDict 1 0 1 0
	push_update_a 0 7
	buildh e_iTasks.WF.Tasks.System_d\;10;31;2.3 2
	updatepop_a 0 7
.d 2 0 
	jmp e_iTasks.Internal.Task_smkInstantTask
.export e_iTasks.WF.Tasks.System_d\;10;31;2.3
.desc e_iTasks.WF.Tasks.System_d\;10;31;2.3 _hnf l3 4 0 "\;10;31;2.3"
.a 0 a3
.o 2 0 
l3
	repl_args 3 3
.o 4 0 
a3
.o 4 0 
ea3
	repl_r_args 1 0
	buildh _Nil 0
	build_r e_StdGeneric_rGenericDict 1 0 1 0
	push_update_a 0 3
	build e_iTasks.Internal.Generic.Visualization_dtoSingleLineText 2 e_iTasks.Internal.Generic.Visualization_ntoSingleLineText
	buildh _Cons 2
	push_update_a 0 4
	build e_iTasks.Internal.Util_diShowErr 2 e_iTasks.Internal.Util_niShowErr
	push_a 2
	buildh e_Data.Error_dOk 1
	update2pop_a 0 4
	buildh _Tuple 2
.d 1 0 
	rtn 
