.comp 920 000011110011000
.start _nostart_
.depend "iTasks.Internal.TaskIO" "20210430140248"
.depend "iTasks.Internal.WebService" "20210430140248"
.depend "iTasks.Internal.SDSService" "20210430140248"
.depend "iTasks.Internal.Serialization" "20210430140248"
.depend "_SystemEnum" "20210430140248"
.depend "StdEnum" "20210430140248"
.depend "StdTuple" "20210430140248"
.depend "StdOrdList" "20210430140248"
.depend "Control.Monad.Trans" "20210430140248"
.depend "StdMaybe" "20210430140248"
.depend "Data.Maybe" "20210430140248"
.depend "iTasks.Extensions.Admin.WorkflowAdmin" "20210430140248"
.depend "iTasks.Extensions.User" "20210430140248"
.depend "iTasks.Extensions.Admin.UserAdmin" "20210430140248"
.depend "iTasks.UI.Layout.Common" "20210430140248"
.depend "iTasks.UI.Editor.Modifiers" "20210430140248"
.depend "iTasks.UI.Editor.Containers" "20210430140248"
.depend "iTasks.UI.Tune" "20210430140248"
.depend "iTasks.Internal.Distributed.Domain" "20210430140248"
.depend "iTasks.WF.Combinators.Common" "20210430140248"
.depend "iTasks.WF.Combinators.SDS" "20210430140248"
.depend "iTasks.UI.Editor.Controls" "20210430140248"
.depend "iTasks.WF.Tasks.Interaction" "20210430140248"
.depend "iTasks.WF.Tasks.System" "20210430140248"
.depend "iTasks.WF.Tasks.SDS" "20210430140248"
.depend "iTasks.WF.Tasks.Core" "20210430140248"
.depend "System.Time.GenJSON" "20210430140248"
.depend "Text.HTML.GenJSON" "20210430140248"
.depend "Data.Map.GenJSON" "20210430140248"
.depend "Data.Error.GenJSON" "20210430140248"
.depend "Data.Either.GenJSON" "20210430140248"
.depend "iTasks.WF.Derives" "20210430140248"
.depend "iTasks.SDS.Combinators.Common" "20210430140248"
.depend "iTasks.SDS.Combinators.Core" "20210430140248"
.depend "iTasks.SDS.Sources.System" "20210430140248"
.depend "iTasks.SDS.Sources.Store" "20210430140248"
.depend "iTasks.SDS.Sources.Core" "20210430140248"
.depend "System._Signal" "20210430140248"
.depend "System.Signal" "20210430140248"
.depend "_SystemStrictMaybes" "20210430140248"
.depend "Text.GenPrint" "20210430140248"
.depend "iTasks.Extensions.DateTime" "20210430140248"
.depend "iTasks.Internal.TaskServer" "20210430140248"
.depend "iTasks.Extensions.Document" "20210430140248"
.depend "System.File" "20210430140248"
.depend "iTasks.Util.DeferredJSON" "20210430140248"
.depend "iTasks.Internal.SDS" "20210430140248"
.depend "iTasks.Internal.TaskEval" "20210430140248"
.depend "iTasks.UI.Layout" "20210430140248"
.depend "iTasks.Internal.TaskState" "20210430140248"
.depend "iTasks.WF.Combinators.Core" "20210430140248"
.depend "Data.IntMap.Base" "20210430140248"
.depend "Data.IntMap.Strict" "20210430140248"
.depend "Data.CircularStack" "20210430140248"
.depend "System._Process" "20210430140248"
.depend "System.Process" "20210430140248"
.depend "System.OS" "20210430140248"
.depend "Data.GenHash" "20210430140248"
.depend "Data.Maybe.Ord" "20210430140248"
.depend "Control.GenBimap" "20210430140248"
.depend "ABC.Interpreter.JavaScript" "20210430140248"
.depend "ABC.Interpreter" "20210430140248"
.depend "iTasks.UI.Editor" "20210430140248"
.depend "iTasks.UI.Editor.Generic" "20210430140248"
.depend "iTasks.Internal.Generic.Defaults" "20210430140248"
.depend "Data.GenDefault" "20210430140248"
.depend "Data.Integer" "20210430140248"
.depend "Text.HTML" "20210430140248"
.depend "iTasks.Internal.Generic.Visualization" "20210430140248"
.depend "iTasks.SDS.Definition" "20210430140248"
.depend "TCPStringChannelsInternal" "20210430140248"
.depend "TCPStringChannels" "20210430140248"
.depend "TCPEvent" "20210430140248"
.depend "tcp_bytestreams" "20210430140248"
.depend "TCPDef" "20210430140248"
.depend "TCPChannels" "20210430140248"
.depend "TCPIP" "20210430140248"
.depend "iTasks.WF.Tasks.IO" "20210430140248"
.depend "iTasks.Internal.Task" "20210430140248"
.depend "iTasks.UI.Definition" "20210430140248"
.depend "Text.GenJSON" "20210430140248"
.depend "Data.Bifunctor" "20210430140248"
.depend "Data.Either" "20210430140248"
.depend "Data.Queue" "20210430140248"
.depend "StdFile" "20210430140248"
.depend "symbols_in_program" "20210430140248"
.depend "iTasks.Internal.IWorld" "20210430140248"
.depend "iTasks.WF.Definition" "20210430140248"
.depend "tcp" "20210430140248"
.depend "TCPChannelClass" "20210430140248"
.depend "System._Time" "20210430140248"
.depend "System.Time" "20210430140248"
.depend "System.GetOpt" "20210430140248"
.depend "System.OSError" "20210430140248"
.depend "System.FilePath" "20210430140248"
.depend "StdString" "20210430140248"
.depend "Internet.HTTP" "20210430140248"
.depend "Control.Monad.Fail" "20210430140248"
.depend "Data.Traversable" "20210430140248"
.depend "StdMisc" "20210430140248"
.depend "StdOverloadedList" "20210430140248"
.depend "Data.List" "20210430140248"
.depend "Data.Foldable" "20210430140248"
.depend "Data.Set" "20210430140248"
.depend "Data.GenLexOrd" "20210430140248"
.depend "StdFunctions" "20210430140248"
.depend "StdFunc" "20210430140248"
.depend "Data.Map" "20210430140248"
.depend "_SystemEnumStrict" "20210430140248"
.depend "_SystemStrictLists" "20210430140248"
.depend "StdStrictLists" "20210430140248"
.depend "StdGeneric" "20210430140248"
.depend "Data.GenEq" "20210430140248"
.depend "StdReal" "20210430140248"
.depend "StdChar" "20210430140248"
.depend "StdInt" "20210430140248"
.depend "StdBool" "20210430140248"
.depend "StdClass" "20210430140248"
.depend "StdList" "20210430140248"
.depend "Data.Monoid" "20210430140248"
.depend "Control.Applicative" "20210430140248"
.depend "Control.Monad" "20210430140248"
.depend "Data.Functor" "20210430140248"
.depend "Data.Error" "20210430140248"
.depend "iTasks.Engine" "20210430140248"
.depend "iTasks" "20210430140248"
.depend "StdOverloaded" "20210430140248"
.depend "_SystemDynamic" "20210430140248"
.depend "BasicAPIExamples.EditorsOnBasicAndPredefinedTypes.EnterInteger" "20210430140249"
.module m_BasicAPIExamples.EditorsOnBasicAndPredefinedTypes.EnterInteger "BasicAPIExamples.EditorsOnBasicAndPredefinedTypes.EnterInteger" "20210430140249"
.endinfo
.impmod _system
.implab _cycle_in_spine
.implab _type_error
.implab _hnf
.impdesc e_system_dind
.implab e_system_nind e_system_eaind
.impdesc e_system_dif
.implab e_system_nif e_system_eaif
.implab e_system_sif
.impdesc e_system_dAP
.implab e_system_nAP e_system_eaAP
.implab e_system_sAP
.impdesc ARRAY
.impdesc _Nil
.impdesc _Cons
.impdesc _Conss
.implab n_Conss ea_Conss
.impdesc _Consts
.implab n_Consts ea_Consts
.impdesc _Conssts
.implab n_Conssts ea_Conssts
.impdesc _Tuple
.impdesc d_S.1
.implab n_S.1 ea_S.1
.impdesc d_S.2
.implab n_S.2 ea_S.2
.impdesc d_S.3
.implab n_S.3 ea_S.3
.impdesc d_S.4
.implab n_S.4 ea_S.4
.impdesc d_S.5
.implab n_S.5 ea_S.5
.impdesc d_S.6
.implab n_S.6 ea_S.6
.implab _driver
.impmod iTasks.Extensions.Admin.WorkflowAdmin
.implab e_iTasks.Extensions.Admin.WorkflowAdmin_sworkflow
.impdesc e_iTasks.Extensions.Admin.WorkflowAdmin_dtoWorkflow;13
.impmod iTasks.UI.Tune
.implab e_iTasks.UI.Tune_s@>>
.impdesc e_iTasks.UI.Tune_dtune;7
.impmod iTasks.WF.Combinators.Common
.implab e_iTasks.WF.Combinators.Common_s>>!
.implab e_iTasks.WF.Combinators.Common_s@!
.impmod iTasks.WF.Tasks.Interaction
.implab e_iTasks.WF.Tasks.Interaction_senterInformation
.implab e_iTasks.WF.Tasks.Interaction_sviewInformation
.impmod iTasks.UI.Editor.Generic
.impdesc e_iTasks.UI.Editor.Generic_dgEditor_Int;7
.impmod iTasks.Internal.Generic.Visualization
.impdesc e_iTasks.Internal.Generic.Visualization_dgText_Int;12
.impmod Text.GenJSON
.impdesc e_Text.GenJSON_dJSONEncode_Int;12
.impdesc e_Text.GenJSON_dJSONDecode_Int;42
.impmod Data.GenEq
.impdesc e_Data.GenEq_dgEq_Int;7
.impmod iTasks.Extensions.Admin.WorkflowAdmin
.impdesc e_iTasks.Extensions.Admin.WorkflowAdmin_rtoWorkflow;
.impmod iTasks.UI.Tune
.impdesc e_iTasks.UI.Tune_rtune;
.impmod iTasks.UI.Definition
.impdesc e_iTasks.UI.Definition_kHint
.impmod iTasks.WF.Definition
.impdesc e_iTasks.WF.Definition_riTask;
.impmod _SystemDynamic
.impdesc e__SystemDynamic_kTypeCons
.impdesc e__SystemDynamic_rTypeCodeConstructor
.impdesc e__SystemDynamic_dTC_Int
.export e_BasicAPIExamples.EditorsOnBasicAndPredefinedTypes.EnterInteger_rgEditor_s;
.record e_BasicAPIExamples.EditorsOnBasicAndPredefinedTypes.EnterInteger_rgEditor_s; a 1 0 "gEditor_s;"
.export e_BasicAPIExamples.EditorsOnBasicAndPredefinedTypes.EnterInteger_tgEditor_s;
.export e_BasicAPIExamples.EditorsOnBasicAndPredefinedTypes.EnterInteger_cgEditor_s;
.descn e_BasicAPIExamples.EditorsOnBasicAndPredefinedTypes.EnterInteger_tgEditor_s; e_BasicAPIExamples.EditorsOnBasicAndPredefinedTypes.EnterInteger_cgEditor_s; 1 1 "gEditor_s;"
.n 1 e_BasicAPIExamples.EditorsOnBasicAndPredefinedTypes.EnterInteger_tgEditor_s;
.o 1 0 
e_BasicAPIExamples.EditorsOnBasicAndPredefinedTypes.EnterInteger_cgEditor_s;
	push_node _cycle_in_spine 1
	jsr_eval 0
.impmod BasicAPIExamples.EditorsOnBasicAndPredefinedTypes.EnterInteger
.impdesc e_BasicAPIExamples.EditorsOnBasicAndPredefinedTypes.EnterInteger_rgEditor_s;
	fill_r e_BasicAPIExamples.EditorsOnBasicAndPredefinedTypes.EnterInteger_rgEditor_s; 1 0 1 0 0
.d 1 0 
	pop_a_rtn 1
.export e_BasicAPIExamples.EditorsOnBasicAndPredefinedTypes.EnterInteger_rgText_s;
.record e_BasicAPIExamples.EditorsOnBasicAndPredefinedTypes.EnterInteger_rgText_s; a 1 0 "gText_s;"
.export e_BasicAPIExamples.EditorsOnBasicAndPredefinedTypes.EnterInteger_tgText_s;
.export e_BasicAPIExamples.EditorsOnBasicAndPredefinedTypes.EnterInteger_cgText_s;
.descn e_BasicAPIExamples.EditorsOnBasicAndPredefinedTypes.EnterInteger_tgText_s; e_BasicAPIExamples.EditorsOnBasicAndPredefinedTypes.EnterInteger_cgText_s; 1 1 "gText_s;"
.n 1 e_BasicAPIExamples.EditorsOnBasicAndPredefinedTypes.EnterInteger_tgText_s;
.o 1 0 
e_BasicAPIExamples.EditorsOnBasicAndPredefinedTypes.EnterInteger_cgText_s;
	push_node _cycle_in_spine 1
	jsr_eval 0
.impdesc e_BasicAPIExamples.EditorsOnBasicAndPredefinedTypes.EnterInteger_rgText_s;
	fill_r e_BasicAPIExamples.EditorsOnBasicAndPredefinedTypes.EnterInteger_rgText_s; 1 0 1 0 0
.d 1 0 
	pop_a_rtn 1
.export e_BasicAPIExamples.EditorsOnBasicAndPredefinedTypes.EnterInteger_rJSONEncode_s;
.record e_BasicAPIExamples.EditorsOnBasicAndPredefinedTypes.EnterInteger_rJSONEncode_s; a 1 0 "JSONEncode_s;"
.export e_BasicAPIExamples.EditorsOnBasicAndPredefinedTypes.EnterInteger_tJSONEncode_s;
.export e_BasicAPIExamples.EditorsOnBasicAndPredefinedTypes.EnterInteger_cJSONEncode_s;
.descn e_BasicAPIExamples.EditorsOnBasicAndPredefinedTypes.EnterInteger_tJSONEncode_s; e_BasicAPIExamples.EditorsOnBasicAndPredefinedTypes.EnterInteger_cJSONEncode_s; 1 1 "JSONEncode_s;"
.n 1 e_BasicAPIExamples.EditorsOnBasicAndPredefinedTypes.EnterInteger_tJSONEncode_s;
.o 1 0 
e_BasicAPIExamples.EditorsOnBasicAndPredefinedTypes.EnterInteger_cJSONEncode_s;
	push_node _cycle_in_spine 1
	jsr_eval 0
.impdesc e_BasicAPIExamples.EditorsOnBasicAndPredefinedTypes.EnterInteger_rJSONEncode_s;
	fill_r e_BasicAPIExamples.EditorsOnBasicAndPredefinedTypes.EnterInteger_rJSONEncode_s; 1 0 1 0 0
.d 1 0 
	pop_a_rtn 1
.export e_BasicAPIExamples.EditorsOnBasicAndPredefinedTypes.EnterInteger_rJSONDecode_s;
.record e_BasicAPIExamples.EditorsOnBasicAndPredefinedTypes.EnterInteger_rJSONDecode_s; a 1 0 "JSONDecode_s;"
.export e_BasicAPIExamples.EditorsOnBasicAndPredefinedTypes.EnterInteger_tJSONDecode_s;
.export e_BasicAPIExamples.EditorsOnBasicAndPredefinedTypes.EnterInteger_cJSONDecode_s;
.descn e_BasicAPIExamples.EditorsOnBasicAndPredefinedTypes.EnterInteger_tJSONDecode_s; e_BasicAPIExamples.EditorsOnBasicAndPredefinedTypes.EnterInteger_cJSONDecode_s; 1 1 "JSONDecode_s;"
.n 1 e_BasicAPIExamples.EditorsOnBasicAndPredefinedTypes.EnterInteger_tJSONDecode_s;
.o 1 0 
e_BasicAPIExamples.EditorsOnBasicAndPredefinedTypes.EnterInteger_cJSONDecode_s;
	push_node _cycle_in_spine 1
	jsr_eval 0
.impdesc e_BasicAPIExamples.EditorsOnBasicAndPredefinedTypes.EnterInteger_rJSONDecode_s;
	fill_r e_BasicAPIExamples.EditorsOnBasicAndPredefinedTypes.EnterInteger_rJSONDecode_s; 1 0 1 0 0
.d 1 0 
	pop_a_rtn 1
.export e_BasicAPIExamples.EditorsOnBasicAndPredefinedTypes.EnterInteger_rgEq_s;
.record e_BasicAPIExamples.EditorsOnBasicAndPredefinedTypes.EnterInteger_rgEq_s; a 1 0 "gEq_s;"
.export e_BasicAPIExamples.EditorsOnBasicAndPredefinedTypes.EnterInteger_tgEq_s;
.export e_BasicAPIExamples.EditorsOnBasicAndPredefinedTypes.EnterInteger_cgEq_s;
.descn e_BasicAPIExamples.EditorsOnBasicAndPredefinedTypes.EnterInteger_tgEq_s; e_BasicAPIExamples.EditorsOnBasicAndPredefinedTypes.EnterInteger_cgEq_s; 1 1 "gEq_s;"
.n 1 e_BasicAPIExamples.EditorsOnBasicAndPredefinedTypes.EnterInteger_tgEq_s;
.o 1 0 
e_BasicAPIExamples.EditorsOnBasicAndPredefinedTypes.EnterInteger_cgEq_s;
	push_node _cycle_in_spine 1
	jsr_eval 0
.impdesc e_BasicAPIExamples.EditorsOnBasicAndPredefinedTypes.EnterInteger_rgEq_s;
	fill_r e_BasicAPIExamples.EditorsOnBasicAndPredefinedTypes.EnterInteger_rgEq_s; 1 0 1 0 0
.d 1 0 
	pop_a_rtn 1
.export e_BasicAPIExamples.EditorsOnBasicAndPredefinedTypes.EnterInteger_smain
.export e_BasicAPIExamples.EditorsOnBasicAndPredefinedTypes.EnterInteger_eamain
.descexp e_BasicAPIExamples.EditorsOnBasicAndPredefinedTypes.EnterInteger_dmain e_BasicAPIExamples.EditorsOnBasicAndPredefinedTypes.EnterInteger_nmain e_BasicAPIExamples.EditorsOnBasicAndPredefinedTypes.EnterInteger_lmain 0 0 "main"
.o 1 0 
e_BasicAPIExamples.EditorsOnBasicAndPredefinedTypes.EnterInteger_lmain
	halt
.n 0 e_BasicAPIExamples.EditorsOnBasicAndPredefinedTypes.EnterInteger_dmain e_BasicAPIExamples.EditorsOnBasicAndPredefinedTypes.EnterInteger_eamain
.o 1 0 
e_BasicAPIExamples.EditorsOnBasicAndPredefinedTypes.EnterInteger_nmain
	push_node _cycle_in_spine 0
.o 1 0 
e_BasicAPIExamples.EditorsOnBasicAndPredefinedTypes.EnterInteger_eamain
.o 1 0 
e_BasicAPIExamples.EditorsOnBasicAndPredefinedTypes.EnterInteger_smain
.o 1 0 
s2
	buildh e__predef_d_Unit 0
	create 
.d 1 0 
	jsr s3
.o 1 0 
.d 3 0 
	jmp e_iTasks.WF.Combinators.Common_s@!
.export e_BasicAPIExamples.EditorsOnBasicAndPredefinedTypes.EnterInteger_swf
.descexp e_BasicAPIExamples.EditorsOnBasicAndPredefinedTypes.EnterInteger_dwf e_BasicAPIExamples.EditorsOnBasicAndPredefinedTypes.EnterInteger_nwf e_BasicAPIExamples.EditorsOnBasicAndPredefinedTypes.EnterInteger_lwf 1 0 "wf"
.o 2 0 
e_BasicAPIExamples.EditorsOnBasicAndPredefinedTypes.EnterInteger_lwf
.d 1 0 
	pop_a_jsr 1 ea1
.o 6 0 
.impmod iTasks.Extensions.Admin.WorkflowAdmin
.impdesc e_iTasks.Extensions.Admin.WorkflowAdmin_rWorkflow
	buildhr e_iTasks.Extensions.Admin.WorkflowAdmin_rWorkflow 6 0
.d 1 0 
	rtn 
.n 1 e_BasicAPIExamples.EditorsOnBasicAndPredefinedTypes.EnterInteger_dwf
.o 1 0 
e_BasicAPIExamples.EditorsOnBasicAndPredefinedTypes.EnterInteger_nwf
	push_node _cycle_in_spine 1
.d 1 0 
	jsr ea1
.o 6 0 
	fill_r e_iTasks.Extensions.Admin.WorkflowAdmin_rWorkflow 6 0 6 0 0
.d 1 0 
	pop_a_rtn 6
.o 1 0 
ea1
.o 1 0 
e_BasicAPIExamples.EditorsOnBasicAndPredefinedTypes.EnterInteger_swf
.o 1 0 
s1
	build e_BasicAPIExamples.EditorsOnBasicAndPredefinedTypes.EnterInteger_denterInt.3 0 e_BasicAPIExamples.EditorsOnBasicAndPredefinedTypes.EnterInteger_nenterInt.3
	buildh e__SystemDynamic_dTC_Int 0
	buildhr e__SystemDynamic_kTypeCons 1 0
	buildh e_Data.GenEq_dgEq_Int;7 0
	buildh e_Text.GenJSON_dJSONDecode_Int;42 0
	buildh e_Text.GenJSON_dJSONEncode_Int;12 0
	buildh e_iTasks.Internal.Generic.Visualization_dgText_Int;12 0
	buildh e_iTasks.UI.Editor.Generic_dgEditor_Int;7 0
	buildhr e_iTasks.WF.Definition_riTask; 6 0
	buildh e_iTasks.Extensions.Admin.WorkflowAdmin_dtoWorkflow;13 1
	buildAC "Enter an Integer"
	buildh ARRAY 1
	push_update_a 1 3
	updates3pop_a 0 1 3 4
.d 4 0 
	jmp e_iTasks.Extensions.Admin.WorkflowAdmin_sworkflow
.export e_BasicAPIExamples.EditorsOnBasicAndPredefinedTypes.EnterInteger_denterInt.3
.export e_BasicAPIExamples.EditorsOnBasicAndPredefinedTypes.EnterInteger_nenterInt.3
.descn e_BasicAPIExamples.EditorsOnBasicAndPredefinedTypes.EnterInteger_denterInt.3 e_BasicAPIExamples.EditorsOnBasicAndPredefinedTypes.EnterInteger_nenterInt.3 0 0 "enterInt.3"
.n 0 e_BasicAPIExamples.EditorsOnBasicAndPredefinedTypes.EnterInteger_denterInt.3 ea3
.o 1 0 
e_BasicAPIExamples.EditorsOnBasicAndPredefinedTypes.EnterInteger_nenterInt.3
	push_node _cycle_in_spine 0
.o 1 0 
ea3
.o 1 0 
s3
	buildh e_BasicAPIExamples.EditorsOnBasicAndPredefinedTypes.EnterInteger_d\;16;9;537.5 0
	buildh _Nil 0
	buildh e__SystemDynamic_dTC_Int 0
	buildhr e__SystemDynamic_kTypeCons 1 0
	buildh e_Data.GenEq_dgEq_Int;7 0
	buildh e_Text.GenJSON_dJSONDecode_Int;42 0
	buildh e_Text.GenJSON_dJSONEncode_Int;12 0
	buildh e_iTasks.Internal.Generic.Visualization_dgText_Int;12 0
	buildh e_iTasks.UI.Editor.Generic_dgEditor_Int;7 0
	create 
	push_update_a 1 2
	updates4_a 7 6 5 4 3
	updates3pop_a 0 1 8 7
.d 8 0 
	jsr e_iTasks.WF.Tasks.Interaction_senterInformation
.o 1 0 
	buildAC "Enter an Integer number:"
	buildhr e_iTasks.UI.Definition_kHint 1 0
	buildh e_iTasks.UI.Tune_dtune;7 0
.d 3 0 
	jsr e_iTasks.UI.Tune_s@>>
.o 1 0 
	buildh e_Text.GenJSON_dJSONEncode_Int;12 0
	buildh e__SystemDynamic_dTC_Int 0
	buildhr e__SystemDynamic_kTypeCons 1 0
.d 5 0 
	jmp e_iTasks.WF.Combinators.Common_s>>!
.export e_BasicAPIExamples.EditorsOnBasicAndPredefinedTypes.EnterInteger_d\;16;9;537.5
.desc e_BasicAPIExamples.EditorsOnBasicAndPredefinedTypes.EnterInteger_d\;16;9;537.5 _hnf l5 1 0 "\;16;9;537.5"
.o 2 0 
l5
	update_a 1 0
	create 
	put_a 2
.o 2 0 
ea5
	jsr_eval 0
	pushI0_pop_a1 
.o 1 1 i
s5
	buildh _Nil 0
	buildh e__SystemDynamic_dTC_Int 0
	buildhr e__SystemDynamic_kTypeCons 1 0
	buildh e_Data.GenEq_dgEq_Int;7 0
	buildh e_Text.GenJSON_dJSONDecode_Int;42 0
	buildh e_Text.GenJSON_dJSONEncode_Int;12 0
	buildh e_iTasks.Internal.Generic.Visualization_dgText_Int;12 0
	buildh e_iTasks.UI.Editor.Generic_dgEditor_Int;7 0
	create 
	buildI_b 0
	push_update_a 2 4
	updates4_a 4 2 9 7 5
	update_a 6 4
	updates3pop_a 0 1 8 6
.d 9 0 
	pop_b_jsr 1 e_iTasks.WF.Tasks.Interaction_sviewInformation
.o 1 0 
	buildAC "You entered:"
	buildhr e_iTasks.UI.Definition_kHint 1 0
	buildh e_iTasks.UI.Tune_dtune;7 0
.d 3 0 
	jsr e_iTasks.UI.Tune_s@>>
.o 1 0 
.d 1 0 
	fill_a01_pop_rtn 
