.comp 920 000011110011000
.start _nostart_
.depend "_SystemArray" "20210613144732"
.depend "StdArray" "20210613144732"
.depend "_SystemEnum" "20210613144732"
.depend "StdEnum" "20210613144732"
.depend "StdString" "20210613144732"
.depend "StdMisc" "20210613144732"
.depend "StdReal" "20210613144732"
.depend "StdChar" "20210613144732"
.depend "StdInt" "20210613144732"
.depend "StdBool" "20210613144732"
.depend "StdClass" "20210613144732"
.depend "StdOverloaded" "20210613144732"
.depend "_SystemDynamic" "20210613144732"
.depend "StdList" "20210613144732"
.module m_StdList "StdList" "20210613144732"
.endinfo
.impmod _system
.implab _cycle_in_spine
.implab _type_error
.implab _hnf
.impdesc e_system_dind
.implab e_system_nind e_system_eaind
.impdesc e_system_dif
.implab e_system_nif e_system_eaif
.implab e_system_sif
.impdesc e_system_dAP
.implab e_system_nAP e_system_eaAP
.implab e_system_sAP
.impdesc ARRAY
.impdesc _Nil
.impdesc _Cons
.impdesc _Conss
.implab n_Conss ea_Conss
.impdesc _Consts
.implab n_Consts ea_Consts
.impdesc _Conssts
.implab n_Conssts ea_Conssts
.impdesc _Tuple
.impdesc d_S.1
.implab n_S.1 ea_S.1
.impdesc d_S.2
.implab n_S.2 ea_S.2
.impdesc d_S.3
.implab n_S.3 ea_S.3
.impdesc d_S.4
.implab n_S.4 ea_S.4
.impdesc d_S.5
.implab n_S.5 ea_S.5
.impdesc d_S.6
.implab n_S.6 ea_S.6
.implab _driver
.impmod _SystemArray
.impmod StdMisc
.implab e_StdMisc_sabort
.impmod StdReal
.implab e_StdReal_s+;1
.implab e_StdReal_szero;3
.implab e_StdReal_s*;4
.implab e_StdReal_s/;5
.implab e_StdReal_sone;6
.implab e_StdReal_s==;11
.implab e_StdReal_s<;12
.impmod StdChar
.implab e_StdChar_s==;18
.implab e_StdChar_s<;19
.implab e_StdChar_stoChar;20
.implab e_StdChar_sfromChar;23
.impmod StdInt
.implab e_StdInt_s+;6
.implab e_StdInt_s-;7
.implab e_StdInt_szero;8
.implab e_StdInt_s*;9
.implab e_StdInt_s/;10
.implab e_StdInt_sone;11
.implab e_StdInt_s==;16
.implab e_StdInt_s<;17
.impmod StdBool
.implab e_StdBool_snot
.impmod StdOverloaded
.impdesc e_StdOverloaded_dfromChar;.fromChar
.implab e_StdOverloaded_nfromChar;.fromChar e_StdOverloaded_eafromChar;.fromChar
.export e_StdList_s==;85
.descexp e_StdList_d==;85 e_StdList_n==;85 e_StdList_l==;85 2 0 "==;85"
.o 3 0 
e_StdList_i==;85
.d 2 0 
	pop_a_jmp 1 s86
.ai 0 a86 e_StdList_i==;85
.o 2 0 
e_StdList_l==;85
	repl_args 1 1
.o 2 0 
a86
.d 2 0 
	jsr ea86
.o 0 1 b
	buildB_b 0
.d 1 0 
	pop_b_rtn 1
.n 2 e_StdList_d==;85
.o 1 0 
e_StdList_n==;85
	push_node _cycle_in_spine 2
.d 2 0 
	jsr ea86
.o 0 1 b
	fillB_b 0 0
.d 1 0 
	pop_b_rtn 1
.o 2 0 
ea86
	jsr_eval 1
	jsr_eval 0
.o 2 0 
e_StdList_s==;85
.o 2 0 
s86
s155
	jmp_ne_desc _Nil 0 0 case.2
	jmp_ne_desc _Nil 0 1 case.4
	pushB TRUE
.d 0 1 b
	pop_a_rtn 2
case.4
	pushB FALSE
.d 0 1 b
	pop_a_rtn 2
case.2
	repl_args 2 2
	jmp_ne_desc _Nil 0 2 case.6
	pushB FALSE
.d 0 1 b
	pop_a_rtn 3
case.6
	push_args 2 2 2
	buildh0_put_a _Nil 5
	jsr_eval 0
	pushI_a 0
	push_jsr_eval 2
	pushI_a 3
	pop_a 1
	jmp_neI else.7
	push_jsr_eval 1
	push_jsr_eval 4
	update2pop_a 0 5
.d 2 0 
	jmp s155
else.7
	pushB FALSE
.d 0 1 b
	pop_a_rtn 5
.export e_StdList_s==;84
.descexp e_StdList_d==;84 e_StdList_n==;84 e_StdList_l==;84 2 0 "==;84"
.o 3 0 
e_StdList_i==;84
.d 2 0 
	pop_a_jmp 1 s85
.ai 0 a85 e_StdList_i==;84
.o 2 0 
e_StdList_l==;84
	repl_args 1 1
.o 2 0 
a85
.d 2 0 
	jsr ea85
.o 0 1 b
	buildB_b 0
.d 1 0 
	pop_b_rtn 1
.n 2 e_StdList_d==;84
.o 1 0 
e_StdList_n==;84
	push_node _cycle_in_spine 2
.d 2 0 
	jsr ea85
.o 0 1 b
	fillB_b 0 0
.d 1 0 
	pop_b_rtn 1
.o 2 0 
ea85
	jsr_eval 1
	jsr_eval 0
.o 2 0 
e_StdList_s==;84
.o 2 0 
s85
s154
	jmp_ne_desc _Nil 0 0 case.9
	jmp_ne_desc _Nil 0 1 case.11
	pushB TRUE
.d 0 1 b
	pop_a_rtn 2
case.11
	pushB FALSE
.d 0 1 b
	pop_a_rtn 2
case.9
	repl_args 2 2
	jmp_ne_desc _Nil 0 2 case.13
	pushB FALSE
.d 0 1 b
	pop_a_rtn 3
case.13
	push_args 2 2 2
	buildh0_put_a _Nil 5
	jsr_eval 0
	pushC_a 0
	push_jsr_eval 2
	pushC_a 3
	pop_a 1
	eqC
	jmp_false else.14
	push_jsr_eval 1
	push_jsr_eval 4
	update2pop_a 0 5
.d 2 0 
	jmp s154
else.14
	pushB FALSE
.d 0 1 b
	pop_a_rtn 5
.export e_StdList_s==;83
.descexp e_StdList_d==;83 e_StdList_n==;83 e_StdList_l==;83 2 0 "==;83"
.o 3 0 
e_StdList_i==;83
.d 2 0 
	pop_a_jmp 1 s84
.ai 0 a84 e_StdList_i==;83
.o 2 0 
e_StdList_l==;83
	repl_args 1 1
.o 2 0 
a84
.d 2 0 
	jsr ea84
.o 0 1 b
	buildB_b 0
.d 1 0 
	pop_b_rtn 1
.n 2 e_StdList_d==;83
.o 1 0 
e_StdList_n==;83
	push_node _cycle_in_spine 2
.d 2 0 
	jsr ea84
.o 0 1 b
	fillB_b 0 0
.d 1 0 
	pop_b_rtn 1
.o 2 0 
ea84
	jsr_eval 1
	jsr_eval 0
.o 2 0 
e_StdList_s==;83
.o 2 0 
s84
s153
	jmp_ne_desc _Nil 0 0 case.16
	jmp_ne_desc _Nil 0 1 case.18
	pushB TRUE
.d 0 1 b
	pop_a_rtn 2
case.18
	pushB FALSE
.d 0 1 b
	pop_a_rtn 2
case.16
	repl_args 2 2
	jmp_ne_desc _Nil 0 2 case.20
	pushB FALSE
.d 0 1 b
	pop_a_rtn 3
case.20
	push_args 2 2 2
	buildh0_put_a _Nil 5
	jsr_eval 0
	push_a 0
	pushR_a 1
	update_a 3 0
	jsr_eval 0
	pushR_a 3
	pop_a 1
	eqR
	jmp_false else.21
	push_jsr_eval 1
	push_jsr_eval 4
	update2pop_a 0 5
.d 2 0 
	jmp s153
else.21
	pushB FALSE
.d 0 1 b
	pop_a_rtn 5
.export e_StdList_s<;82
.descexp e_StdList_d<;82 e_StdList_n<;82 e_StdList_l<;82 2 0 "<;82"
.o 3 0 
e_StdList_i<;82
.d 2 0 
	pop_a_jmp 1 s83
.ai 0 a83 e_StdList_i<;82
.o 2 0 
e_StdList_l<;82
	repl_args 1 1
.o 2 0 
a83
.d 2 0 
	jsr ea83
.o 0 1 b
	buildB_b 0
.d 1 0 
	pop_b_rtn 1
.n 2 e_StdList_d<;82
.o 1 0 
e_StdList_n<;82
	push_node _cycle_in_spine 2
.d 2 0 
	jsr ea83
.o 0 1 b
	fillB_b 0 0
.d 1 0 
	pop_b_rtn 1
.o 2 0 
ea83
	jsr_eval 1
	jsr_eval 0
.o 2 0 
e_StdList_s<;82
.o 2 0 
s83
s152
	jmp_ne_desc _Nil 0 0 case.23
	jmp_ne_desc _Nil 0 1 case.25
	pushB FALSE
.d 0 1 b
	pop_a_rtn 2
case.25
	pushB TRUE
.d 0 1 b
	pop_a_rtn 2
case.23
	repl_args 2 2
	jmp_ne_desc _Nil 0 2 case.27
	pushB FALSE
.d 0 1 b
	pop_a_rtn 3
case.27
	push_args 2 2 2
	buildh0_put_a _Nil 5
	jsr_eval 0
	pushI_a 0
	push_jsr_eval 2
	pushI_a 3
	pop_a 1
	jmp_geI else.28
	pushB TRUE
.d 0 1 b
	pop_a_rtn 5
else.28
	pushI_a 2
	pushI_a 0
	jmp_geI else.29
	pushB FALSE
.d 0 1 b
	pop_a_rtn 5
else.29
	push_jsr_eval 1
	push_jsr_eval 4
	update2pop_a 0 5
.d 2 0 
	jmp s152
.export e_StdList_s<;81
.descexp e_StdList_d<;81 e_StdList_n<;81 e_StdList_l<;81 2 0 "<;81"
.o 3 0 
e_StdList_i<;81
.d 2 0 
	pop_a_jmp 1 s82
.ai 0 a82 e_StdList_i<;81
.o 2 0 
e_StdList_l<;81
	repl_args 1 1
.o 2 0 
a82
.d 2 0 
	jsr ea82
.o 0 1 b
	buildB_b 0
.d 1 0 
	pop_b_rtn 1
.n 2 e_StdList_d<;81
.o 1 0 
e_StdList_n<;81
	push_node _cycle_in_spine 2
.d 2 0 
	jsr ea82
.o 0 1 b
	fillB_b 0 0
.d 1 0 
	pop_b_rtn 1
.o 2 0 
ea82
	jsr_eval 1
	jsr_eval 0
.o 2 0 
e_StdList_s<;81
.o 2 0 
s82
s151
	jmp_ne_desc _Nil 0 0 case.31
	jmp_ne_desc _Nil 0 1 case.33
	pushB FALSE
.d 0 1 b
	pop_a_rtn 2
case.33
	pushB TRUE
.d 0 1 b
	pop_a_rtn 2
case.31
	repl_args 2 2
	jmp_ne_desc _Nil 0 2 case.35
	pushB FALSE
.d 0 1 b
	pop_a_rtn 3
case.35
	push_args 2 2 2
	buildh0_put_a _Nil 5
	jsr_eval 0
	pushC_a 0
	push_jsr_eval 2
	pushC_a 3
	pop_a 1
	ltC
	jmp_false else.36
	pushB TRUE
.d 0 1 b
	pop_a_rtn 5
else.36
	pushC_a 2
	pushC_a 0
	ltC
	jmp_false else.37
	pushB FALSE
.d 0 1 b
	pop_a_rtn 5
else.37
	push_jsr_eval 1
	push_jsr_eval 4
	update2pop_a 0 5
.d 2 0 
	jmp s151
.export e_StdList_s<;80
.descexp e_StdList_d<;80 e_StdList_n<;80 e_StdList_l<;80 2 0 "<;80"
.o 3 0 
e_StdList_i<;80
.d 2 0 
	pop_a_jmp 1 s81
.ai 0 a81 e_StdList_i<;80
.o 2 0 
e_StdList_l<;80
	repl_args 1 1
.o 2 0 
a81
.d 2 0 
	jsr ea81
.o 0 1 b
	buildB_b 0
.d 1 0 
	pop_b_rtn 1
.n 2 e_StdList_d<;80
.o 1 0 
e_StdList_n<;80
	push_node _cycle_in_spine 2
.d 2 0 
	jsr ea81
.o 0 1 b
	fillB_b 0 0
.d 1 0 
	pop_b_rtn 1
.o 2 0 
ea81
	jsr_eval 1
	jsr_eval 0
.o 2 0 
e_StdList_s<;80
.o 2 0 
s81
s150
	jmp_ne_desc _Nil 0 0 case.39
	jmp_ne_desc _Nil 0 1 case.41
	pushB FALSE
.d 0 1 b
	pop_a_rtn 2
case.41
	pushB TRUE
.d 0 1 b
	pop_a_rtn 2
case.39
	repl_args 2 2
	jmp_ne_desc _Nil 0 2 case.43
	pushB FALSE
.d 0 1 b
	pop_a_rtn 3
case.43
	push_args 2 2 2
	buildh0_put_a _Nil 5
	jsr_eval 0
	push_a 0
	pushR_a 1
	update_a 3 0
	jsr_eval 0
	pushR_a 3
	pop_a 1
	ltR
	jmp_false else.44
	pushB TRUE
.d 0 1 b
	pop_a_rtn 5
else.44
	pushR_a 2
	pushR_a 0
	ltR
	jmp_false else.45
	pushB FALSE
.d 0 1 b
	pop_a_rtn 5
else.45
	push_jsr_eval 1
	push_jsr_eval 4
	update2pop_a 0 5
.d 2 0 
	jmp s150
.export e_StdList_stoString;79
.descexp e_StdList_dtoString;79 e_StdList_ntoString;79 e_StdList_ltoString;79 1 0 "toString;79"
.o 2 0 
e_StdList_itoString;79
.d 1 0 
	pop_a_jmp 1 s80
.ai 1 _ e_StdList_itoString;79
.o 2 0 
e_StdList_ltoString;79
.d 1 0 
	pop_a_jsr 1 ea80
.o 1 0 
	buildh ARRAY 1
.d 1 0 
	rtn 
.n 1 e_StdList_dtoString;79
.o 1 0 
e_StdList_ntoString;79
	push_node _cycle_in_spine 1
.d 1 0 
	jsr ea80
.o 1 0 
	fillh ARRAY 1 1
.d 1 0 
	rtn 
.o 1 0 
ea80
	jsr_eval 0
.o 1 0 
e_StdList_stoString;79
.o 1 0 
s80
s148
.d 1 0 
	push_a_jsr 0 s48
.o 0 1 i
	pushC ' '
	swap_b1 
	create_array CHAR 0 1
	push_a 1
	buildI 0
	update3pop_a 0 1
s149
	jmp_ne_desc _Cons 2 1 case.47
	push_args 1 2 2
	buildh0_put_a _Nil 4
	jsr_eval 0
	pushC_a 0
	push_jsr_eval 2
	pushI_a 3
	update_a 2 4
	push_a 5
	updates2pop_a 0 4 6
	update CHAR 0 1
	push_jsr_eval 1
	buildo1 e_StdList_n_f14.179 3
	update3pop_a 0 2
.d 3 0 
	jmp s149
case.47
.d 1 0 
	pop_a_rtn 2
.export e_StdList_d_f14.179
.export e_StdList_n_f14.179
.descn e_StdList_d_f14.179 e_StdList_n_f14.179 1 0 "_f14.179"
.n 1 e_StdList_d_f14.179 ea179
.o 1 0 
e_StdList_n_f14.179
	push_node _cycle_in_spine 1
.o 2 0 
ea179
.o 2 0 
s179
	jsr_eval 0
	pushI0_pop_a1 
	incI
	fillI_b 0 0
.d 1 0 
	pop_b_rtn 1
.export e_StdList_sfromString;78
.export e_StdList_eafromString;78
.descexp e_StdList_dfromString;78 e_StdList_nfromString;78 e_StdList_lfromString;78 1 0 "fromString;78"
.o 2 0 
e_StdList_ifromString;78
	pop_a 1
	create 
	swap_a1 
.d 2 0 
	jmp s79
.ai 1 _ e_StdList_ifromString;78
.o 2 0 
e_StdList_lfromString;78
	update_a 1 0
	create 
.d 2 0 
	put_a_jmp 2 e_StdList_eafromString;78
.n 1 e_StdList_dfromString;78 e_StdList_eafromString;78
.o 1 0 
e_StdList_nfromString;78
	push_node _cycle_in_spine 1
.o 2 0 
e_StdList_eafromString;78
	jsr_eval 0
	push_array 0
	put_a 1
.o 2 0 
e_StdList_sfromString;78
.o 2 0 
s79
s146
	buildh _Nil 0
	push_arraysize_a CHAR 0 1 1
	decI
	swap_a1 
s147
	pushI 0
	push_b 1
	jmp_ltI else.48
	push2_a 1
	push_b 0
	build_u e_StdList_d_f13.178 1 1 e_StdList_n_f13.178
	buildh _Cons 2
	decI
.d 3 1 i
	put_a_jmp 2 s147
else.48
	pop_b 1
	fill_a 1 2
.d 1 0 
	pop_a_rtn 2
.export e_StdList_d_f13.178
.export e_StdList_n_f13.178
.descn e_StdList_d_f13.178 e_StdList_n_f13.178 2 0 "_f13.178"
.nu 1 1 e_StdList_d_f13.178 _
.o 1 0 
e_StdList_n_f13.178
	push_node_u _cycle_in_spine 1 1
.o 2 1 i
ea178
.o 2 1 i
s178
	select CHAR 0 1
	fillC_b 0 0
.d 1 0 
	pop_b_rtn 1
.export e_StdList_savg;77
.descexp e_StdList_davg;77 e_StdList_navg;77 e_StdList_lavg;77 1 0 "avg;77"
.o 2 0 
e_StdList_lavg;77
.d 1 0 
	pop_a_jsr 1 ea78
.o 0 1 r
	buildR_b 0
.d 1 0 
	pop_b_rtn 1
.n 1 e_StdList_davg;77
.o 1 0 
e_StdList_navg;77
	push_node _cycle_in_spine 1
.d 1 0 
	jsr ea78
.o 0 1 r
	fillR_b 0 0
.d 1 0 
	pop_b_rtn 1
.o 1 0 
ea78
	jsr_eval 0
.o 1 0 
e_StdList_savg;77
.o 1 0 
s78
s144
	jmp_ne_desc _Nil 0 0 case.50
	buildAC "avg called with empty list"
	put_a 1
.d 1 0 
	jsr print_string_
.o 0 0 
	halt
	pushR_a 0
.d 0 1 r
	pop_a_rtn 1
case.50
	pushR 0.0
	pushR 0.0
s145
	jmp_ne_desc _Cons 2 0 case.52
	repl_args 2 2
	push_jsr_eval 1
	pushR 1.0
	push_b 2
	addR
	push_jsr_eval 1
	pushR_a 2
	pop_a 1
	push_b 2
	addR
	updatepop_a 0 2
	update2pop_b 0 2
.d 1 2 rr
	jmp s145
case.52
	pop_a 1
	divR
.d 0 1 r
	rtn 
.export e_StdList_savg;76
.descexp e_StdList_davg;76 e_StdList_navg;76 e_StdList_lavg;76 1 0 "avg;76"
.o 2 0 
e_StdList_lavg;76
.d 1 0 
	pop_a_jsr 1 ea77
.o 0 1 i
	buildI_b 0
.d 1 0 
	pop_b_rtn 1
.n 1 e_StdList_davg;76
.o 1 0 
e_StdList_navg;76
	push_node _cycle_in_spine 1
.d 1 0 
	jsr ea77
.o 0 1 i
	fillI_b 0 0
.d 1 0 
	pop_b_rtn 1
.o 1 0 
ea77
	jsr_eval 0
.o 1 0 
e_StdList_savg;76
.o 1 0 
s77
s142
	jmp_ne_desc _Nil 0 0 case.54
	buildAC "avg called with empty list"
	put_a 1
.d 1 0 
	jsr print_string_
.o 0 0 
	halt
	pushI0_pop_a1 
.d 0 1 i
	rtn 
case.54
	pushI 0
	pushI 0
s143
	jmp_ne_desc _Cons 2 0 case.56
	repl_args 2 2
	push_jsr_eval 1
	push_b_incI 1
	push_jsr_eval 1
	pushI_a 2
	pop_a 1
	push_b 2
	addI
	updatepop_a 0 2
	update2pop_b 0 2
.d 1 2 ii
	jmp s143
case.56
	pop_a 1
	divI
.d 0 1 i
	rtn 
.export e_StdList_sprod;75
.descexp e_StdList_dprod;75 e_StdList_nprod;75 e_StdList_lprod;75 1 0 "prod;75"
.o 2 0 
e_StdList_lprod;75
.d 1 0 
	pop_a_jsr 1 ea76
.o 0 1 r
	buildR_b 0
.d 1 0 
	pop_b_rtn 1
.n 1 e_StdList_dprod;75
.o 1 0 
e_StdList_nprod;75
	push_node _cycle_in_spine 1
.d 1 0 
	jsr ea76
.o 0 1 r
	fillR_b 0 0
.d 1 0 
	pop_b_rtn 1
.o 1 0 
ea76
	jsr_eval 0
.o 1 0 
e_StdList_sprod;75
.o 1 0 
s76
s141
	pushR 1.0
s140
	jmp_ne_desc _Cons 2 0 case.58
	repl_args 2 2
	push_jsr_eval 1
	push_jsr_eval 1
	pushR_a 2
	pop_a 1
	push_b 1
	mulR
	updatepop_a 0 2
.d 1 1 r
	put_b_jmp 1 s140
case.58
.d 0 1 r
	pop_a_rtn 1
.export e_StdList_sprod;74
.descexp e_StdList_dprod;74 e_StdList_nprod;74 e_StdList_lprod;74 1 0 "prod;74"
.o 2 0 
e_StdList_lprod;74
.d 1 0 
	pop_a_jsr 1 ea75
.o 0 1 i
	buildI_b 0
.d 1 0 
	pop_b_rtn 1
.n 1 e_StdList_dprod;74
.o 1 0 
e_StdList_nprod;74
	push_node _cycle_in_spine 1
.d 1 0 
	jsr ea75
.o 0 1 i
	fillI_b 0 0
.d 1 0 
	pop_b_rtn 1
.o 1 0 
ea75
	jsr_eval 0
.o 1 0 
e_StdList_sprod;74
.o 1 0 
s75
s139
	pushI 1
s138
	jmp_ne_desc _Cons 2 0 case.60
	repl_args 2 2
	push_jsr_eval 1
	push_jsr_eval 1
	pushI_a 2
	pop_a 1
	push_b 1
	mulI
	updatepop_a 0 2
.d 1 1 i
	put_b_jmp 1 s138
case.60
.d 0 1 i
	pop_a_rtn 1
.export e_StdList_ssum;73
.descexp e_StdList_dsum;73 e_StdList_nsum;73 e_StdList_lsum;73 1 0 "sum;73"
.o 2 0 
e_StdList_lsum;73
.d 1 0 
	pop_a_jsr 1 ea74
.o 0 1 r
	buildR_b 0
.d 1 0 
	pop_b_rtn 1
.n 1 e_StdList_dsum;73
.o 1 0 
e_StdList_nsum;73
	push_node _cycle_in_spine 1
.d 1 0 
	jsr ea74
.o 0 1 r
	fillR_b 0 0
.d 1 0 
	pop_b_rtn 1
.o 1 0 
ea74
	jsr_eval 0
.o 1 0 
e_StdList_ssum;73
.o 1 0 
s74
s137
	pushR 0.0
s136
	jmp_ne_desc _Cons 2 0 case.62
	repl_args 2 2
	jsr_eval 0
	push_a 0
	pushR_a 1
	pop_a 1
	push_b 1
	addR
	pop_a 1
	jsr_eval 0
.d 1 1 r
	put_b_jmp 1 s136
case.62
.d 0 1 r
	pop_a_rtn 1
.export e_StdList_ssum;72
.descexp e_StdList_dsum;72 e_StdList_nsum;72 e_StdList_lsum;72 1 0 "sum;72"
.o 2 0 
e_StdList_lsum;72
.d 1 0 
	pop_a_jsr 1 ea73
.o 0 1 i
	buildI_b 0
.d 1 0 
	pop_b_rtn 1
.n 1 e_StdList_dsum;72
.o 1 0 
e_StdList_nsum;72
	push_node _cycle_in_spine 1
.d 1 0 
	jsr ea73
.o 0 1 i
	fillI_b 0 0
.d 1 0 
	pop_b_rtn 1
.o 1 0 
ea73
	jsr_eval 0
.o 1 0 
e_StdList_ssum;72
.o 1 0 
s73
s135
	pushI 0
s134
	jmp_ne_desc _Cons 2 0 case.64
	repl_args 2 2
	jsr_eval 0
	pushI_a 0
	push_b 1
	addI
	pop_a 1
	jsr_eval 0
.d 1 1 i
	put_b_jmp 1 s134
case.64
.d 0 1 i
	pop_a_rtn 1
.export e_StdList_slimit;71
.descexp e_StdList_dlimit;71 e_StdList_nlimit;71 e_StdList_llimit;71 1 0 "limit;71"
.o 2 0 
e_StdList_llimit;71
.d 1 0 
	pop_a_jsr 1 ea72
.o 0 1 r
	buildR_b 0
.d 1 0 
	pop_b_rtn 1
.n 1 e_StdList_dlimit;71
.o 1 0 
e_StdList_nlimit;71
	push_node _cycle_in_spine 1
.d 1 0 
	jsr ea72
.o 0 1 r
	fillR_b 0 0
.d 1 0 
	pop_b_rtn 1
.o 1 0 
ea72
	jsr_eval 0
.o 1 0 
e_StdList_slimit;71
.o 1 0 
s72
s133
	jmp_ne_desc _Cons 2 0 case.66
	repl_args 2 2
	jsr_eval 1
	jmp_eq_desc _Cons 2 1 case.67
	pop_a_jmp 1 case.66
case.67
	push_args 1 2 2
	put_a 1
	jsr_eval 0
	push_a 0
	pushR_a 1
	update_a 2 0
	jsr_eval 0
	pushR_a 2
	pop_a 1
	eqR
	jmp_false else.68
	pushR_a 1
.d 0 1 r
	pop_a_rtn 3
else.68
.d 1 0 
	pop_a_jmp 2 s133
case.66
	buildAC "incorrect use of limit"
	put_a 1
.d 1 0 
	jsr print_string_
.o 0 0 
	halt
	pushR_a 0
.d 0 1 r
	pop_a_rtn 1
.export e_StdList_slimit;70
.descexp e_StdList_dlimit;70 e_StdList_nlimit;70 e_StdList_llimit;70 1 0 "limit;70"
.o 2 0 
e_StdList_llimit;70
.d 1 0 
	pop_a_jsr 1 ea71
.o 0 1 c
	buildC_b 0
.d 1 0 
	pop_b_rtn 1
.n 1 e_StdList_dlimit;70
.o 1 0 
e_StdList_nlimit;70
	push_node _cycle_in_spine 1
.d 1 0 
	jsr ea71
.o 0 1 c
	fillC_b 0 0
.d 1 0 
	pop_b_rtn 1
.o 1 0 
ea71
	jsr_eval 0
.o 1 0 
e_StdList_slimit;70
.o 1 0 
s71
s132
	jmp_ne_desc _Cons 2 0 case.70
	repl_args 2 2
	jsr_eval 1
	jmp_eq_desc _Cons 2 1 case.71
	pop_a_jmp 1 case.70
case.71
	push_args 1 2 2
	put_a 1
	jsr_eval 0
	pushC_a 0
	push_jsr_eval 1
	pushC_a 2
	pop_a 1
	eqC
	jmp_false else.72
	pushC_a 1
.d 0 1 c
	pop_a_rtn 3
else.72
.d 1 0 
	pop_a_jmp 2 s132
case.70
	buildAC "incorrect use of limit"
	put_a 1
.d 1 0 
	jsr print_string_
.o 0 0 
	halt
	pushC0_pop_a1 
.d 0 1 c
	rtn 
.export e_StdList_slimit;69
.descexp e_StdList_dlimit;69 e_StdList_nlimit;69 e_StdList_llimit;69 1 0 "limit;69"
.o 2 0 
e_StdList_llimit;69
.d 1 0 
	pop_a_jsr 1 ea70
.o 0 1 i
	buildI_b 0
.d 1 0 
	pop_b_rtn 1
.n 1 e_StdList_dlimit;69
.o 1 0 
e_StdList_nlimit;69
	push_node _cycle_in_spine 1
.d 1 0 
	jsr ea70
.o 0 1 i
	fillI_b 0 0
.d 1 0 
	pop_b_rtn 1
.o 1 0 
ea70
	jsr_eval 0
.o 1 0 
e_StdList_slimit;69
.o 1 0 
s70
s131
	jmp_ne_desc _Cons 2 0 case.74
	repl_args 2 2
	jsr_eval 1
	jmp_eq_desc _Cons 2 1 case.75
	pop_a_jmp 1 case.74
case.75
	push_args 1 2 2
	put_a 1
	jsr_eval 0
	pushI_a 0
	push_jsr_eval 1
	pushI_a 2
	pop_a 1
	jmp_neI else.76
	pushI_a 1
.d 0 1 i
	pop_a_rtn 3
else.76
.d 1 0 
	pop_a_jmp 2 s131
case.74
	buildAC "incorrect use of limit"
	put_a 1
.d 1 0 
	jsr print_string_
.o 0 0 
	halt
	pushI0_pop_a1 
.d 0 1 i
	rtn 
.export e_StdList_sremoveIndex;68
.descexp e_StdList_dremoveIndex;68 e_StdList_nremoveIndex;68 e_StdList_lremoveIndex;68 2 0 "removeIndex;68"
.a 0 a69
.o 2 0 
e_StdList_lremoveIndex;68
	repl_args 1 1
.o 2 0 
a69
.d 2 0 
	jsr ea69
.o 2 0 
	buildh _Tuple 2
.d 1 0 
	rtn 
.n 2 e_StdList_dremoveIndex;68
.o 1 0 
e_StdList_nremoveIndex;68
	push_node _cycle_in_spine 2
.d 2 0 
	jsr ea69
.o 2 0 
	fillh _Tuple 2 2
.d 1 0 
	rtn 
.o 2 0 
ea69
	jsr_eval 1
	jsr_eval 0
	pushR_a 0
	pop_a 1
.o 1 1 r
e_StdList_sremoveIndex;68
.o 1 1 r
s69
s129
	pushI 0
	swap_b1 
s130
	jmp_ne_desc _Cons 2 0 case.78
	repl_args 2 2
	jsr_eval 0
	push_a 0
	pushR_a 1
	pop_a 1
	push_b 0
	update_b 2 1
	eqR
	jmp_false else.79
	push_a 1
	buildI_b 1
	update2pop_a 0 2
.d 2 0 
	pop_b_rtn 2
else.79
	push2_b 1
	push_a 1
	build_u e_StdList_d_f12.177 1 2 e_StdList_n_f12.177
	buildo1 n_S.2 0
	push_a 2
	buildh _Cons 2
	buildo1 n_S.1 1
	update2pop_a 0 3
.d 2 0 
	pop_b_rtn 2
case.78
	buildAC "Error in removeIndex: element not found"
	put_a 1
.d 1 0 
	pop_b_jsr 2 print_string_
.o 0 0 
	halt
	repl_args 2 2
.d 2 0 
	rtn 
.export e_StdList_d_f12.177
.export e_StdList_n_f12.177
.descn e_StdList_d_f12.177 e_StdList_n_f12.177 3 0 "_f12.177"
.nu 1 2 e_StdList_d_f12.177 _
.o 1 0 
e_StdList_n_f12.177
	push_node_u _cycle_in_spine 1 2
.o 2 2 ri
ea177
.o 2 2 ri
s177
	push_b_incI 1
	jsr_eval 0
	put_b 2
.d 1 2 ri
	jsr s130
.o 2 0 
	fillh _Tuple 2 2
.d 1 0 
	rtn 
.export e_StdList_sremoveIndex;67
.descexp e_StdList_dremoveIndex;67 e_StdList_nremoveIndex;67 e_StdList_lremoveIndex;67 2 0 "removeIndex;67"
.a 0 a68
.o 2 0 
e_StdList_lremoveIndex;67
	repl_args 1 1
.o 2 0 
a68
.d 2 0 
	jsr ea68
.o 2 0 
	buildh _Tuple 2
.d 1 0 
	rtn 
.n 2 e_StdList_dremoveIndex;67
.o 1 0 
e_StdList_nremoveIndex;67
	push_node _cycle_in_spine 2
.d 2 0 
	jsr ea68
.o 2 0 
	fillh _Tuple 2 2
.d 1 0 
	rtn 
.o 2 0 
ea68
	jsr_eval 1
	jsr_eval 0
	pushC0_pop_a1 
.o 1 1 c
e_StdList_sremoveIndex;67
.o 1 1 c
s68
s127
	pushI 0
	swap_b1 
s128
	jmp_ne_desc _Cons 2 0 case.81
	repl_args 2 2
	jsr_eval 0
	pushC_a 0
	push_b 0
	update_b 2 1
	eqC
	jmp_false else.82
	push_a 1
	buildI_b 1
	update2pop_a 0 2
.d 2 0 
	pop_b_rtn 2
else.82
	push2_b 1
	push_a 1
	build_u e_StdList_d_f11.176 1 2 e_StdList_n_f11.176
	buildo1 n_S.2 0
	push_a 2
	buildh _Cons 2
	buildo1 n_S.1 1
	update2pop_a 0 3
.d 2 0 
	pop_b_rtn 2
case.81
	buildAC "Error in removeIndex: element not found"
	put_a 1
.d 1 0 
	pop_b_jsr 2 print_string_
.o 0 0 
	halt
	repl_args 2 2
.d 2 0 
	rtn 
.export e_StdList_d_f11.176
.export e_StdList_n_f11.176
.descn e_StdList_d_f11.176 e_StdList_n_f11.176 3 0 "_f11.176"
.nu 1 2 e_StdList_d_f11.176 _
.o 1 0 
e_StdList_n_f11.176
	push_node_u _cycle_in_spine 1 2
.o 2 2 ci
ea176
.o 2 2 ci
s176
	push_b_incI 1
	jsr_eval 0
	put_b 2
.d 1 2 ci
	jsr s128
.o 2 0 
	fillh _Tuple 2 2
.d 1 0 
	rtn 
.export e_StdList_sremoveIndex;66
.descexp e_StdList_dremoveIndex;66 e_StdList_nremoveIndex;66 e_StdList_lremoveIndex;66 2 0 "removeIndex;66"
.a 0 a67
.o 2 0 
e_StdList_lremoveIndex;66
	repl_args 1 1
.o 2 0 
a67
.d 2 0 
	jsr ea67
.o 2 0 
	buildh _Tuple 2
.d 1 0 
	rtn 
.n 2 e_StdList_dremoveIndex;66
.o 1 0 
e_StdList_nremoveIndex;66
	push_node _cycle_in_spine 2
.d 2 0 
	jsr ea67
.o 2 0 
	fillh _Tuple 2 2
.d 1 0 
	rtn 
.o 2 0 
ea67
	jsr_eval 1
	jsr_eval 0
	pushI0_pop_a1 
.o 1 1 i
e_StdList_sremoveIndex;66
.o 1 1 i
s67
s125
	pushI 0
	swap_b1 
s126
	jmp_ne_desc _Cons 2 0 case.84
	repl_args 2 2
	jsr_eval 0
	pushI_a 0
	push_b 0
	update_b 2 1
	jmp_neI else.85
	push_a 1
	buildI_b 1
	update2pop_a 0 2
.d 2 0 
	pop_b_rtn 2
else.85
	push2_b 1
	push_a 1
	build_u e_StdList_d_f10.175 1 2 e_StdList_n_f10.175
	buildo1 n_S.2 0
	push_a 2
	buildh _Cons 2
	buildo1 n_S.1 1
	update2pop_a 0 3
.d 2 0 
	pop_b_rtn 2
case.84
	buildAC "Error in removeIndex: element not found"
	put_a 1
.d 1 0 
	pop_b_jsr 2 print_string_
.o 0 0 
	halt
	repl_args 2 2
.d 2 0 
	rtn 
.export e_StdList_d_f10.175
.export e_StdList_n_f10.175
.descn e_StdList_d_f10.175 e_StdList_n_f10.175 3 0 "_f10.175"
.nu 1 2 e_StdList_d_f10.175 _
.o 1 0 
e_StdList_n_f10.175
	push_node_u _cycle_in_spine 1 2
.o 2 2 ii
ea175
.o 2 2 ii
s175
	push_b_incI 1
	jsr_eval 0
	put_b 2
.d 1 2 ii
	jsr s126
.o 2 0 
	fillh _Tuple 2 2
.d 1 0 
	rtn 
.export e_StdList_sremoveDup;65
.export e_StdList_earemoveDup;65
.descexp e_StdList_dremoveDup;65 e_StdList_nremoveDup;65 e_StdList_lremoveDup;65 1 0 "removeDup;65"
.o 2 0 
e_StdList_lremoveDup;65
	update_a 1 0
	create 
.d 2 0 
	put_a_jmp 2 e_StdList_earemoveDup;65
.n 1 e_StdList_dremoveDup;65 e_StdList_earemoveDup;65
.o 1 0 
e_StdList_nremoveDup;65
	push_node _cycle_in_spine 1
.o 2 0 
e_StdList_earemoveDup;65
	jsr_eval 0
.o 2 0 
e_StdList_sremoveDup;65
.o 2 0 
s66
.d 2 0 
	jmp s123
.export e_StdList_dremoveDup;129.123
.export e_StdList_nremoveDup;129.123
.descn e_StdList_dremoveDup;129.123 e_StdList_nremoveDup;129.123 1 0 "removeDup;129.123"
.n 1 e_StdList_dremoveDup;129.123 ea123
.o 1 0 
e_StdList_nremoveDup;129.123
	push_node _cycle_in_spine 1
.o 2 0 
ea123
	jsr_eval 0
.o 2 0 
s123
	jmp_ne_desc _Cons 2 0 case.87
	repl_args 2 2
	push_a 0
	buildh e_StdList_d<>;130.124 1
	push_update_a 0 2
	build e_StdList_dfilter 2 e_StdList_nfilter
	build e_StdList_dremoveDup;129.123 1 e_StdList_nremoveDup;129.123
	push_a 1
	fillh _Cons 2 4
.d 1 0 
	pop_a_rtn 2
case.87
	fillh _Nil 0 1
.d 1 0 
	pop_a_rtn 1
.export e_StdList_d<>;130.124
.desc e_StdList_d<>;130.124 _hnf l124 2 0 "<>;130.124"
.a 0 a124
.o 2 0 
l124
	repl_args 1 1
.o 2 0 
a124
.d 2 0 
	jsr ea124
.o 0 1 b
	buildB_b 0
.d 1 0 
	pop_b_rtn 1
.o 2 0 
ea124
	jsr_eval 1
	jsr_eval 0
	pushR_a 1
	pushR_a 0
	pop_a 2
.o 0 2 rr
s124
	push2_b 1
	eqR
	updatepop_b 0 2
	notB
.d 0 1 b
	rtn 
.export e_StdList_sremoveDup;64
.export e_StdList_earemoveDup;64
.descexp e_StdList_dremoveDup;64 e_StdList_nremoveDup;64 e_StdList_lremoveDup;64 1 0 "removeDup;64"
.o 2 0 
e_StdList_lremoveDup;64
	update_a 1 0
	create 
.d 2 0 
	put_a_jmp 2 e_StdList_earemoveDup;64
.n 1 e_StdList_dremoveDup;64 e_StdList_earemoveDup;64
.o 1 0 
e_StdList_nremoveDup;64
	push_node _cycle_in_spine 1
.o 2 0 
e_StdList_earemoveDup;64
	jsr_eval 0
.o 2 0 
e_StdList_sremoveDup;64
.o 2 0 
s65
.d 2 0 
	jmp s121
.export e_StdList_dremoveDup;127.121
.export e_StdList_nremoveDup;127.121
.descn e_StdList_dremoveDup;127.121 e_StdList_nremoveDup;127.121 1 0 "removeDup;127.121"
.n 1 e_StdList_dremoveDup;127.121 ea121
.o 1 0 
e_StdList_nremoveDup;127.121
	push_node _cycle_in_spine 1
.o 2 0 
ea121
	jsr_eval 0
.o 2 0 
s121
	jmp_ne_desc _Cons 2 0 case.89
	repl_args 2 2
	push_a 0
	buildh e_StdList_d<>;128.122 1
	push_update_a 0 2
	build e_StdList_dfilter 2 e_StdList_nfilter
	build e_StdList_dremoveDup;127.121 1 e_StdList_nremoveDup;127.121
	push_a 1
	fillh _Cons 2 4
.d 1 0 
	pop_a_rtn 2
case.89
	fillh _Nil 0 1
.d 1 0 
	pop_a_rtn 1
.export e_StdList_d<>;128.122
.desc e_StdList_d<>;128.122 _hnf l122 2 0 "<>;128.122"
.a 0 a122
.o 2 0 
l122
	repl_args 1 1
.o 2 0 
a122
.d 2 0 
	jsr ea122
.o 0 1 b
	buildB_b 0
.d 1 0 
	pop_b_rtn 1
.o 2 0 
ea122
	jsr_eval 1
	jsr_eval 0
	pushC_a 1
	pushC_a 0
	pop_a 2
.o 0 2 cc
s122
	push2_b 1
	eqC
	updatepop_b 0 2
	notB
.d 0 1 b
	rtn 
.export e_StdList_sremoveDup;63
.export e_StdList_earemoveDup;63
.descexp e_StdList_dremoveDup;63 e_StdList_nremoveDup;63 e_StdList_lremoveDup;63 1 0 "removeDup;63"
.o 2 0 
e_StdList_lremoveDup;63
	update_a 1 0
	create 
.d 2 0 
	put_a_jmp 2 e_StdList_earemoveDup;63
.n 1 e_StdList_dremoveDup;63 e_StdList_earemoveDup;63
.o 1 0 
e_StdList_nremoveDup;63
	push_node _cycle_in_spine 1
.o 2 0 
e_StdList_earemoveDup;63
	jsr_eval 0
.o 2 0 
e_StdList_sremoveDup;63
.o 2 0 
s64
.d 2 0 
	jmp s119
.export e_StdList_dremoveDup;125.119
.export e_StdList_nremoveDup;125.119
.descn e_StdList_dremoveDup;125.119 e_StdList_nremoveDup;125.119 1 0 "removeDup;125.119"
.n 1 e_StdList_dremoveDup;125.119 ea119
.o 1 0 
e_StdList_nremoveDup;125.119
	push_node _cycle_in_spine 1
.o 2 0 
ea119
	jsr_eval 0
.o 2 0 
s119
	jmp_ne_desc _Cons 2 0 case.91
	repl_args 2 2
	push_a 0
	buildh e_StdList_d<>;126.120 1
	push_update_a 0 2
	build e_StdList_dfilter 2 e_StdList_nfilter
	build e_StdList_dremoveDup;125.119 1 e_StdList_nremoveDup;125.119
	push_a 1
	fillh _Cons 2 4
.d 1 0 
	pop_a_rtn 2
case.91
	fillh _Nil 0 1
.d 1 0 
	pop_a_rtn 1
.export e_StdList_d<>;126.120
.desc e_StdList_d<>;126.120 _hnf l120 2 0 "<>;126.120"
.a 0 a120
.o 2 0 
l120
	repl_args 1 1
.o 2 0 
a120
.d 2 0 
	jsr ea120
.o 0 1 b
	buildB_b 0
.d 1 0 
	pop_b_rtn 1
.o 2 0 
ea120
	jsr_eval 1
	jsr_eval 0
	pushI_a 1
	pushI_a 0
	pop_a 2
.o 0 2 ii
s120
	push2_b 1
	eqI
	updatepop_b 0 2
	notB
.d 0 1 b
	rtn 
.export e_StdList_sremoveMembers;62
.export e_StdList_earemoveMembers;62
.descexp e_StdList_dremoveMembers;62 e_StdList_nremoveMembers;62 e_StdList_lremoveMembers;62 2 0 "removeMembers;62"
.a 2 e_StdList_earemoveMembers;62
.o 2 0 
e_StdList_lremoveMembers;62
	push_args 0 1 1
	update_a 2 1
	create 
.d 3 0 
	put_a_jmp 3 e_StdList_earemoveMembers;62
.n 2 e_StdList_dremoveMembers;62 e_StdList_earemoveMembers;62
.o 1 0 
e_StdList_nremoveMembers;62
	push_node _cycle_in_spine 2
.o 3 0 
e_StdList_earemoveMembers;62
	jsr_eval 1
	jsr_eval 0
.o 3 0 
e_StdList_sremoveMembers;62
.o 3 0 
s63
s118
	jmp_ne_desc _Nil 0 1 case.93
	fill_a 0 2
.d 1 0 
	pop_a_rtn 2
case.93
	push_args 1 2 2
	buildh _Nil 0
	updates2_a 2 0 4
	jsr_eval 0
	create 
	push_a2 4 2
	buildh0_dup3_a _Nil 5
.d 3 0 
	pop_a_jsr 1 s115
.o 1 0 
	update2pop_a 0 4
.d 3 0 
	jmp s118
.export e_StdList_sremoveMembers;61
.export e_StdList_earemoveMembers;61
.descexp e_StdList_dremoveMembers;61 e_StdList_nremoveMembers;61 e_StdList_lremoveMembers;61 2 0 "removeMembers;61"
.a 2 e_StdList_earemoveMembers;61
.o 2 0 
e_StdList_lremoveMembers;61
	push_args 0 1 1
	update_a 2 1
	create 
.d 3 0 
	put_a_jmp 3 e_StdList_earemoveMembers;61
.n 2 e_StdList_dremoveMembers;61 e_StdList_earemoveMembers;61
.o 1 0 
e_StdList_nremoveMembers;61
	push_node _cycle_in_spine 2
.o 3 0 
e_StdList_earemoveMembers;61
	jsr_eval 1
	jsr_eval 0
.o 3 0 
e_StdList_sremoveMembers;61
.o 3 0 
s62
s117
	jmp_ne_desc _Nil 0 1 case.95
	fill_a 0 2
.d 1 0 
	pop_a_rtn 2
case.95
	push_args 1 2 2
	buildh _Nil 0
	updates2_a 2 0 4
	jsr_eval 0
	create 
	push_a2 4 2
	buildh0_dup3_a _Nil 5
.d 3 0 
	pop_a_jsr 1 s114
.o 1 0 
	update2pop_a 0 4
.d 3 0 
	jmp s117
.export e_StdList_sremoveMembers;60
.export e_StdList_earemoveMembers;60
.descexp e_StdList_dremoveMembers;60 e_StdList_nremoveMembers;60 e_StdList_lremoveMembers;60 2 0 "removeMembers;60"
.a 2 e_StdList_earemoveMembers;60
.o 2 0 
e_StdList_lremoveMembers;60
	push_args 0 1 1
	update_a 2 1
	create 
.d 3 0 
	put_a_jmp 3 e_StdList_earemoveMembers;60
.n 2 e_StdList_dremoveMembers;60 e_StdList_earemoveMembers;60
.o 1 0 
e_StdList_nremoveMembers;60
	push_node _cycle_in_spine 2
.o 3 0 
e_StdList_earemoveMembers;60
	jsr_eval 1
	jsr_eval 0
.o 3 0 
e_StdList_sremoveMembers;60
.o 3 0 
s61
s116
	jmp_ne_desc _Nil 0 1 case.97
	fill_a 0 2
.d 1 0 
	pop_a_rtn 2
case.97
	push_args 1 2 2
	buildh _Nil 0
	updates2_a 2 0 4
	jsr_eval 0
	create 
	push_a2 4 2
	buildh0_dup3_a _Nil 5
.d 3 0 
	pop_a_jsr 1 s113
.o 1 0 
	update2pop_a 0 4
.d 3 0 
	jmp s116
.export e_StdList_sremoveMember;59
.export e_StdList_earemoveMember;59
.descexp e_StdList_dremoveMember;59 e_StdList_nremoveMember;59 e_StdList_lremoveMember;59 2 0 "removeMember;59"
.a 2 e_StdList_earemoveMember;59
.o 2 0 
e_StdList_lremoveMember;59
	push_args 0 1 1
	update_a 2 1
	create 
.d 3 0 
	put_a_jmp 3 e_StdList_earemoveMember;59
.n 2 e_StdList_dremoveMember;59 e_StdList_earemoveMember;59
.o 1 0 
e_StdList_nremoveMember;59
	push_node _cycle_in_spine 2
.o 3 0 
e_StdList_earemoveMember;59
	jsr_eval 1
.o 3 0 
e_StdList_sremoveMember;59
.o 3 0 
s60
.d 3 0 
	jmp s115
.export e_StdList_dremoveMember;121.115
.export e_StdList_nremoveMember;121.115
.descn e_StdList_dremoveMember;121.115 e_StdList_nremoveMember;121.115 2 0 "removeMember;121.115"
.n 2 e_StdList_dremoveMember;121.115 ea115
.o 1 0 
e_StdList_nremoveMember;121.115
	push_node _cycle_in_spine 2
.o 3 0 
ea115
	jsr_eval 1
.o 3 0 
s115
	jmp_ne_desc _Cons 2 1 case.99
	push_args 1 2 2
	buildh _Nil 0
	updates2_a 3 0 4
	jsr_eval 0
	pushR_a 3
	pop_a 1
	jsr_eval 0
	push_a 0
	pushR_a 1
	pop_a 1
	eqR
	jmp_false else.100
	updatepop_a 1 3
	jmp_eval_upd
else.100
	push_a2 1 2
	build e_StdList_dremoveMember;121.115 2 e_StdList_nremoveMember;121.115
	push_a 1
	fillh _Cons 2 6
.d 1 0 
	pop_a_rtn 4
case.99
	fillh _Nil 0 2
.d 1 0 
	pop_a_rtn 2
.export e_StdList_sremoveMember;58
.export e_StdList_earemoveMember;58
.descexp e_StdList_dremoveMember;58 e_StdList_nremoveMember;58 e_StdList_lremoveMember;58 2 0 "removeMember;58"
.a 2 e_StdList_earemoveMember;58
.o 2 0 
e_StdList_lremoveMember;58
	push_args 0 1 1
	update_a 2 1
	create 
.d 3 0 
	put_a_jmp 3 e_StdList_earemoveMember;58
.n 2 e_StdList_dremoveMember;58 e_StdList_earemoveMember;58
.o 1 0 
e_StdList_nremoveMember;58
	push_node _cycle_in_spine 2
.o 3 0 
e_StdList_earemoveMember;58
	jsr_eval 1
.o 3 0 
e_StdList_sremoveMember;58
.o 3 0 
s59
.d 3 0 
	jmp s114
.export e_StdList_dremoveMember;120.114
.export e_StdList_nremoveMember;120.114
.descn e_StdList_dremoveMember;120.114 e_StdList_nremoveMember;120.114 2 0 "removeMember;120.114"
.n 2 e_StdList_dremoveMember;120.114 ea114
.o 1 0 
e_StdList_nremoveMember;120.114
	push_node _cycle_in_spine 2
.o 3 0 
ea114
	jsr_eval 1
.o 3 0 
s114
	jmp_ne_desc _Cons 2 1 case.102
	push_args 1 2 2
	buildh _Nil 0
	updates2_a 3 0 4
	jsr_eval 0
	pushC_a 3
	pop_a 1
	jsr_eval 0
	pushC_a 0
	eqC
	jmp_false else.103
	updatepop_a 1 3
	jmp_eval_upd
else.103
	push_a2 1 2
	build e_StdList_dremoveMember;120.114 2 e_StdList_nremoveMember;120.114
	push_a 1
	fillh _Cons 2 6
.d 1 0 
	pop_a_rtn 4
case.102
	fillh _Nil 0 2
.d 1 0 
	pop_a_rtn 2
.export e_StdList_sremoveMember;57
.export e_StdList_earemoveMember;57
.descexp e_StdList_dremoveMember;57 e_StdList_nremoveMember;57 e_StdList_lremoveMember;57 2 0 "removeMember;57"
.a 2 e_StdList_earemoveMember;57
.o 2 0 
e_StdList_lremoveMember;57
	push_args 0 1 1
	update_a 2 1
	create 
.d 3 0 
	put_a_jmp 3 e_StdList_earemoveMember;57
.n 2 e_StdList_dremoveMember;57 e_StdList_earemoveMember;57
.o 1 0 
e_StdList_nremoveMember;57
	push_node _cycle_in_spine 2
.o 3 0 
e_StdList_earemoveMember;57
	jsr_eval 1
.o 3 0 
e_StdList_sremoveMember;57
.o 3 0 
s58
.d 3 0 
	jmp s113
.export e_StdList_dremoveMember;119.113
.export e_StdList_nremoveMember;119.113
.descn e_StdList_dremoveMember;119.113 e_StdList_nremoveMember;119.113 2 0 "removeMember;119.113"
.n 2 e_StdList_dremoveMember;119.113 ea113
.o 1 0 
e_StdList_nremoveMember;119.113
	push_node _cycle_in_spine 2
.o 3 0 
ea113
	jsr_eval 1
.o 3 0 
s113
	jmp_ne_desc _Cons 2 1 case.105
	push_args 1 2 2
	buildh _Nil 0
	updates2_a 3 0 4
	jsr_eval 0
	pushI_a 3
	pop_a 1
	jsr_eval 0
	pushI_a 0
	jmp_neI else.106
	updatepop_a 1 3
	jmp_eval_upd
else.106
	push_a2 1 2
	build e_StdList_dremoveMember;119.113 2 e_StdList_nremoveMember;119.113
	push_a 1
	fillh _Cons 2 6
.d 1 0 
	pop_a_rtn 4
case.105
	fillh _Nil 0 2
.d 1 0 
	pop_a_rtn 2
.export e_StdList_sisAnyMember;56
.descexp e_StdList_disAnyMember;56 e_StdList_nisAnyMember;56 e_StdList_lisAnyMember;56 2 0 "isAnyMember;56"
.a 0 a57
.o 2 0 
e_StdList_lisAnyMember;56
	repl_args 1 1
.o 2 0 
a57
.d 2 0 
	jsr ea57
.o 0 1 b
	buildB_b 0
.d 1 0 
	pop_b_rtn 1
.n 2 e_StdList_disAnyMember;56
.o 1 0 
e_StdList_nisAnyMember;56
	push_node _cycle_in_spine 2
.d 2 0 
	jsr ea57
.o 0 1 b
	fillB_b 0 0
.d 1 0 
	pop_b_rtn 1
.o 2 0 
ea57
	jsr_eval 1
	jsr_eval 0
.o 2 0 
e_StdList_sisAnyMember;56
.o 2 0 
s57
s112
	jmp_ne_desc _Cons 2 0 case.108
	repl_args 2 2
	push_update_a 0 2
.d 2 0 
	jsr s109
.o 0 1 b
	jmp_false else.109
	pushB TRUE
.d 0 1 b
	pop_a_rtn 2
else.109
	jsr_eval 0
.d 2 0 
	jmp s112
case.108
	pushB FALSE
.d 0 1 b
	pop_a_rtn 2
.export e_StdList_sisAnyMember;55
.descexp e_StdList_disAnyMember;55 e_StdList_nisAnyMember;55 e_StdList_lisAnyMember;55 2 0 "isAnyMember;55"
.a 0 a56
.o 2 0 
e_StdList_lisAnyMember;55
	repl_args 1 1
.o 2 0 
a56
.d 2 0 
	jsr ea56
.o 0 1 b
	buildB_b 0
.d 1 0 
	pop_b_rtn 1
.n 2 e_StdList_disAnyMember;55
.o 1 0 
e_StdList_nisAnyMember;55
	push_node _cycle_in_spine 2
.d 2 0 
	jsr ea56
.o 0 1 b
	fillB_b 0 0
.d 1 0 
	pop_b_rtn 1
.o 2 0 
ea56
	jsr_eval 1
	jsr_eval 0
.o 2 0 
e_StdList_sisAnyMember;55
.o 2 0 
s56
s111
	jmp_ne_desc _Cons 2 0 case.111
	repl_args 2 2
	push_update_a 0 2
.d 2 0 
	jsr s108
.o 0 1 b
	jmp_false else.112
	pushB TRUE
.d 0 1 b
	pop_a_rtn 2
else.112
	jsr_eval 0
.d 2 0 
	jmp s111
case.111
	pushB FALSE
.d 0 1 b
	pop_a_rtn 2
.export e_StdList_sisAnyMember;54
.descexp e_StdList_disAnyMember;54 e_StdList_nisAnyMember;54 e_StdList_lisAnyMember;54 2 0 "isAnyMember;54"
.a 0 a55
.o 2 0 
e_StdList_lisAnyMember;54
	repl_args 1 1
.o 2 0 
a55
.d 2 0 
	jsr ea55
.o 0 1 b
	buildB_b 0
.d 1 0 
	pop_b_rtn 1
.n 2 e_StdList_disAnyMember;54
.o 1 0 
e_StdList_nisAnyMember;54
	push_node _cycle_in_spine 2
.d 2 0 
	jsr ea55
.o 0 1 b
	fillB_b 0 0
.d 1 0 
	pop_b_rtn 1
.o 2 0 
ea55
	jsr_eval 1
	jsr_eval 0
.o 2 0 
e_StdList_sisAnyMember;54
.o 2 0 
s55
s110
	jmp_ne_desc _Cons 2 0 case.114
	repl_args 2 2
	push_update_a 0 2
.d 2 0 
	jsr s107
.o 0 1 b
	jmp_false else.115
	pushB TRUE
.d 0 1 b
	pop_a_rtn 2
else.115
	jsr_eval 0
.d 2 0 
	jmp s110
case.114
	pushB FALSE
.d 0 1 b
	pop_a_rtn 2
.export e_StdList_sisMember;53
.descexp e_StdList_disMember;53 e_StdList_nisMember;53 e_StdList_lisMember;53 2 0 "isMember;53"
.a 0 a54
.o 2 0 
e_StdList_lisMember;53
	repl_args 1 1
.o 2 0 
a54
.d 2 0 
	jsr ea54
.o 0 1 b
	buildB_b 0
.d 1 0 
	pop_b_rtn 1
.n 2 e_StdList_disMember;53
.o 1 0 
e_StdList_nisMember;53
	push_node _cycle_in_spine 2
.d 2 0 
	jsr ea54
.o 0 1 b
	fillB_b 0 0
.d 1 0 
	pop_b_rtn 1
.o 2 0 
ea54
	jsr_eval 1
.o 2 0 
e_StdList_sisMember;53
.o 2 0 
s54
s109
	jmp_ne_desc _Cons 2 1 case.117
	push_args 1 2 2
	buildh _Nil 0
	updates2_a 3 0 4
	jsr_eval 0
	pushR_a 3
	pop_a 1
	jsr_eval 0
	push_a 0
	pushR_a 1
	pop_a 1
	eqR
	jmp_false else.118
	pushB TRUE
.d 0 1 b
	pop_a_rtn 4
else.118
	push_jsr_eval 1
	dup_a 4
.d 2 0 
	pop_a_jmp 3 s109
case.117
	pushB FALSE
.d 0 1 b
	pop_a_rtn 2
.export e_StdList_sisMember;52
.descexp e_StdList_disMember;52 e_StdList_nisMember;52 e_StdList_lisMember;52 2 0 "isMember;52"
.a 0 a53
.o 2 0 
e_StdList_lisMember;52
	repl_args 1 1
.o 2 0 
a53
.d 2 0 
	jsr ea53
.o 0 1 b
	buildB_b 0
.d 1 0 
	pop_b_rtn 1
.n 2 e_StdList_disMember;52
.o 1 0 
e_StdList_nisMember;52
	push_node _cycle_in_spine 2
.d 2 0 
	jsr ea53
.o 0 1 b
	fillB_b 0 0
.d 1 0 
	pop_b_rtn 1
.o 2 0 
ea53
	jsr_eval 1
.o 2 0 
e_StdList_sisMember;52
.o 2 0 
s53
s108
	jmp_ne_desc _Cons 2 1 case.120
	push_args 1 2 2
	buildh _Nil 0
	updates2_a 3 0 4
	jsr_eval 0
	pushC_a 3
	pop_a 1
	jsr_eval 0
	pushC_a 0
	eqC
	jmp_false else.121
	pushB TRUE
.d 0 1 b
	pop_a_rtn 4
else.121
	push_jsr_eval 1
	dup_a 4
.d 2 0 
	pop_a_jmp 3 s108
case.120
	pushB FALSE
.d 0 1 b
	pop_a_rtn 2
.export e_StdList_sisMember;51
.descexp e_StdList_disMember;51 e_StdList_nisMember;51 e_StdList_lisMember;51 2 0 "isMember;51"
.a 0 a52
.o 2 0 
e_StdList_lisMember;51
	repl_args 1 1
.o 2 0 
a52
.d 2 0 
	jsr ea52
.o 0 1 b
	buildB_b 0
.d 1 0 
	pop_b_rtn 1
.n 2 e_StdList_disMember;51
.o 1 0 
e_StdList_nisMember;51
	push_node _cycle_in_spine 2
.d 2 0 
	jsr ea52
.o 0 1 b
	fillB_b 0 0
.d 1 0 
	pop_b_rtn 1
.o 2 0 
ea52
	jsr_eval 1
.o 2 0 
e_StdList_sisMember;51
.o 2 0 
s52
s107
	jmp_ne_desc _Cons 2 1 case.123
	push_args 1 2 2
	buildh _Nil 0
	updates2_a 3 0 4
	jsr_eval 0
	pushI_a 3
	pop_a 1
	jsr_eval 0
	pushI_a 0
	jmp_neI else.124
	pushB TRUE
.d 0 1 b
	pop_a_rtn 4
else.124
	push_jsr_eval 1
	dup_a 4
.d 2 0 
	pop_a_jmp 3 s107
case.123
	pushB FALSE
.d 0 1 b
	pop_a_rtn 2
.export e_StdList_sfromString;50
.export e_StdList_eafromString;50
.descexp e_StdList_dfromString;50 e_StdList_nfromString;50 e_StdList_lfromString;50 2 0 "fromString;50"
.o 2 0 
e_StdList_ifromString;50
	repl_args 1 1
	create 
	jsr_eval 1
	push_r_args 1 1 0
	updates3pop_a 0 1 3 2
.d 3 0 
	jmp s51
.ai 2 e_StdList_eafromString;50 e_StdList_ifromString;50
.o 2 0 
e_StdList_lfromString;50
	push_args 0 1 1
	update_a 2 1
	create 
.d 3 0 
	put_a_jmp 3 e_StdList_eafromString;50
.n 2 e_StdList_dfromString;50 e_StdList_eafromString;50
.o 1 0 
e_StdList_nfromString;50
	push_node _cycle_in_spine 2
.o 3 0 
e_StdList_eafromString;50
	jsr_eval 1
	jsr_eval 0
	push_array 1
	push_r_args 1 1 0
	update2pop_a 0 2
.o 3 0 
e_StdList_sfromString;50
.o 3 0 
s51
	buildh _Nil 0
	push_arraysize_a CHAR 0 1 2
	decI
	push_a 1
	updates3pop_a 0 1 3 2
s103
	pushI 0
	push_b 1
	jmp_ltI else.125
	push3_a 2
	push_b 0
	build_u e_StdList_d_f9.174 2 1 e_StdList_n_f9.174
	buildh _Cons 2
	decI
.d 4 1 i
	put_a_jmp 3 s103
else.125
	pop_b 1
	fill_a 2 3
.d 1 0 
	pop_a_rtn 3
.export e_StdList_d_f9.174
.export e_StdList_n_f9.174
.descn e_StdList_d_f9.174 e_StdList_n_f9.174 3 0 "_f9.174"
.nu 2 1 e_StdList_d_f9.174 _
.o 1 0 
e_StdList_n_f9.174
	push_node_u _cycle_in_spine 2 1
.o 3 1 i
ea174
.o 3 1 i
s174
	swap_a1 
	select CHAR 0 1
	jsr_eval 0
.d 1 1 c
	jsr_i 1
.o 1 0 
.d 1 0 
	fill_a01_pop_rtn 
.export e_StdList_stoString;49
.descexp e_StdList_dtoString;49 e_StdList_ntoString;49 e_StdList_ltoString;49 2 0 "toString;49"
.o 2 0 
e_StdList_itoString;49
	repl_args 1 1
	jsr_eval 0
	push_r_args 0 1 0
.d 2 0 
	put_a_jmp 1 s50
.ai 0 a50 e_StdList_itoString;49
.o 2 0 
e_StdList_ltoString;49
	repl_args 1 1
.o 2 0 
a50
.d 2 0 
	jsr ea50
.o 1 0 
	buildh ARRAY 1
.d 1 0 
	rtn 
.n 2 e_StdList_dtoString;49
.o 1 0 
e_StdList_ntoString;49
	push_node _cycle_in_spine 2
.d 2 0 
	jsr ea50
.o 1 0 
	fillh ARRAY 1 1
.d 1 0 
	rtn 
.o 2 0 
ea50
	jsr_eval 1
	jsr_eval 0
	repl_r_args 1 0
.o 2 0 
e_StdList_stoString;49
.o 2 0 
s50
.d 1 0 
	push_a_jsr 1 s48
.o 0 1 i
	pushC ' '
	swap_b1 
	create_array CHAR 0 1
	push_a 2
	buildI 0
	updates2_a 0 2 4
	exchange_a 3 1
.d 4 0 
	pop_a_jmp 1 s106
.o 4 0 
s106
	jmp_ne_desc _Cons 2 2 case.127
	push_args 2 2 2
	buildh0_put_a _Nil 5
	jsr_eval 0
	push_a 2
.d 2 0 
	jsr_i 1
.o 0 1 c
	push_jsr_eval 2
	pushI_a 3
	update_a 5 0
	buildh0_put_a _Nil 6
	update CHAR 0 1
	push_jsr_eval 1
	buildo1 e_StdList_n_f8.173 4
	update3_a 0 5
.d 4 0 
	pop_a_jmp 4 s106
case.127
.d 1 0 
	pop_a_rtn 3
.export e_StdList_d_f8.173
.export e_StdList_n_f8.173
.descn e_StdList_d_f8.173 e_StdList_n_f8.173 1 0 "_f8.173"
.n 1 e_StdList_d_f8.173 ea173
.o 1 0 
e_StdList_n_f8.173
	push_node _cycle_in_spine 1
.o 2 0 
ea173
.o 2 0 
s173
	jsr_eval 0
	pushI0_pop_a1 
	incI
	fillI_b 0 0
.d 1 0 
	pop_b_rtn 1
.export e_StdList_s%;48
.export e_StdList_ea%;48
.descexp e_StdList_d%;48 e_StdList_n%;48 e_StdList_l%;48 2 0 "%;48"
.o 2 2 ii
e_StdList_i%;48
	pop_a 1
	create 
	swap_a1 
.d 2 2 ii
	jmp s49
.ai 2 e_StdList_ea%;48 e_StdList_i%;48
.o 2 0 
e_StdList_l%;48
	push_args 0 1 1
	update_a 2 1
	create 
.d 3 0 
	put_a_jmp 3 e_StdList_ea%;48
.n 2 e_StdList_d%;48 e_StdList_ea%;48
.o 1 0 
e_StdList_n%;48
	push_node _cycle_in_spine 2
.o 3 0 
e_StdList_ea%;48
	push_jsr_eval 1
	repl_args 2 2
	jsr_eval 1
	jsr_eval 0
	jsr_eval 2
	pushI_a 1
	pushI_a 0
	updatepop_a 2 3
.o 2 2 ii
e_StdList_s%;48
.o 2 2 ii
s49
	push_a 0
	buildI_b 0
	build e_StdList_ddrop 2 e_StdList_ndrop
	push_b2 0 1
	subI
	incI
	put_a 1
	updatepop_b 0 2
.d 2 1 i
	jmp s9
.export e_StdList_slength;47
.descexp e_StdList_dlength;47 e_StdList_nlength;47 e_StdList_llength;47 1 0 "length;47"
.o 2 0 
e_StdList_ilength;47
.d 1 0 
	pop_a_jmp 1 s48
.ai 1 _ e_StdList_ilength;47
.o 2 0 
e_StdList_llength;47
.d 1 0 
	pop_a_jsr 1 ea48
.o 0 1 i
	buildI_b 0
.d 1 0 
	pop_b_rtn 1
.n 1 e_StdList_dlength;47
.o 1 0 
e_StdList_nlength;47
	push_node _cycle_in_spine 1
.d 1 0 
	jsr ea48
.o 0 1 i
	fillI_b 0 0
.d 1 0 
	pop_b_rtn 1
.o 1 0 
ea48
	jsr_eval 0
.o 1 0 
e_StdList_slength;47
.o 1 0 
s48
	pushI 0
s105
	jmp_ne_desc _Cons 2 0 case.129
	repl_arg 2 2
	jsr_eval 0
	push_a 0
	incI
.d 1 1 i
	put_a_jmp 1 s105
case.129
.d 0 1 i
	pop_a_rtn 1
.export e_StdList_s<;46
.descexp e_StdList_d<;46 e_StdList_n<;46 e_StdList_l<;46 3 0 "<;46"
.o 3 0 
e_StdList_i<;46
	repl_args 1 1
	jsr_eval 0
	push_r_args 0 1 0
.d 3 0 
	put_a_jmp 1 s47
.ai 0 a47 e_StdList_i<;46
.o 2 0 
e_StdList_l<;46
	repl_args 2 2
.o 3 0 
a47
.d 3 0 
	jsr ea47
.o 0 1 b
	buildB_b 0
.d 1 0 
	pop_b_rtn 1
.n 3 e_StdList_d<;46
.o 1 0 
e_StdList_n<;46
	push_node _cycle_in_spine 3
.d 3 0 
	jsr ea47
.o 0 1 b
	fillB_b 0 0
.d 1 0 
	pop_b_rtn 1
.o 3 0 
ea47
	jsr_eval 2
	jsr_eval 1
	jsr_eval 0
	repl_r_args 1 0
.o 3 0 
e_StdList_s<;46
.o 3 0 
s47
	jmp_ne_desc _Nil 0 1 case.131
	jmp_ne_desc _Nil 0 2 case.133
	pushB FALSE
.d 0 1 b
	pop_a_rtn 3
case.133
	pushB TRUE
.d 0 1 b
	pop_a_rtn 3
case.131
	push_args 1 2 2
	buildh0_put_a _Nil 4
	jmp_ne_desc _Nil 0 4 case.135
	pushB FALSE
.d 0 1 b
	pop_a_rtn 5
case.135
	push_args 4 2 2
	buildh0_put_a _Nil 7
	jsr_eval 0
	push_a2 0 2
	jsr_eval 0
	push_a 6
.d 3 0 
	jsr_i 2
.o 0 1 b
	jmp_false else.136
	pushB TRUE
.d 0 1 b
	pop_a_rtn 7
else.136
	push_a2 4 2
	updates2_a_pop_a 0 3 4 1
.d 3 0 
	jsr_i 2
.o 0 1 b
	jmp_false else.137
	pushB FALSE
.d 0 1 b
	pop_a_rtn 5
else.137
	jsr_eval 0
	push_a2 0 1
	jsr_eval 0
	update2_a 0 5
.d 3 0 
	pop_a_jmp 4 s47
.export e_StdList_s==;45
.descexp e_StdList_d==;45 e_StdList_n==;45 e_StdList_l==;45 3 0 "==;45"
.o 3 0 
e_StdList_i==;45
	repl_args 1 1
	jsr_eval 0
	push_r_args 0 1 0
.d 3 0 
	put_a_jmp 1 s46
.ai 0 a46 e_StdList_i==;45
.o 2 0 
e_StdList_l==;45
	repl_args 2 2
.o 3 0 
a46
.d 3 0 
	jsr ea46
.o 0 1 b
	buildB_b 0
.d 1 0 
	pop_b_rtn 1
.n 3 e_StdList_d==;45
.o 1 0 
e_StdList_n==;45
	push_node _cycle_in_spine 3
.d 3 0 
	jsr ea46
.o 0 1 b
	fillB_b 0 0
.d 1 0 
	pop_b_rtn 1
.o 3 0 
ea46
	jsr_eval 2
	jsr_eval 1
	jsr_eval 0
	repl_r_args 1 0
.o 3 0 
e_StdList_s==;45
.o 3 0 
s46
	jmp_ne_desc _Nil 0 1 case.139
	jmp_ne_desc _Nil 0 2 case.141
	pushB TRUE
.d 0 1 b
	pop_a_rtn 3
case.141
	pushB FALSE
.d 0 1 b
	pop_a_rtn 3
case.139
	push_args 1 2 2
	buildh0_put_a _Nil 4
	jmp_ne_desc _Nil 0 4 case.143
	pushB FALSE
.d 0 1 b
	pop_a_rtn 5
case.143
	push_args 4 2 2
	buildh0_put_a _Nil 7
	jsr_eval 0
	push_a2 0 2
	jsr_eval 0
	updates2_a 1 3 4
	dup_a 2
	updatepop_a 6 1
.d 3 0 
	jsr_i 2
.o 0 1 b
	jmp_false else.144
	jsr_eval 0
	push_a2 0 1
	jsr_eval 0
	update2_a 0 5
.d 3 0 
	pop_a_jmp 4 s46
else.144
	pushB FALSE
.d 0 1 b
	pop_a_rtn 5
.export e_StdList_savg
.descexp e_StdList_davg e_StdList_navg e_StdList_lavg 3 0 "avg"
.a 0 ea45
.o 2 0 
e_StdList_lavg
	repl_args 2 2
.d 3 0 
	jmp ea45
.n 3 e_StdList_davg _
.o 1 0 
e_StdList_navg
	push_node _cycle_in_spine 3
.d 3 0 
	jsr ea45
.o 1 0 
.d 1 0 
	fill_a01_pop_rtn 
.o 3 0 
ea45
	jsr_eval 2
	jsr_eval 1
	jsr_eval 0
	push_r_args 1 4 0
	push_r_args 4 1 0
	update2_a 3 5
	update3pop_a 0 2
.o 6 0 
e_StdList_savg
.o 6 0 
s45
	jmp_ne_desc _Nil 0 5 case.146
	buildAC "avg called with empty list"
	updatepop_a 0 6
.d 1 0 
	jsr print_string_
.o 0 0 
	halt
.d 1 0 
	rtn 
case.146
	push_jsr_eval 4
	push_jsr_eval 5
	update_a 1 6
	updates4_a 0 5 3 2 4
.d 6 0 
	pop_a_jmp 2 s102
.o 6 0 
s102
	jmp_ne_desc _Cons 2 5 case.148
	push_args 5 2 2
	buildh _Nil 0
	updates2_a 2 0 8
	jsr_eval 0
	push_jsr_eval 4
	push_a2 8 4
	buildh0_dup_a _Nil 11
	put_a 6
.d 3 0 
	jsr_i 2
.o 1 0 
	push_jsr_eval 2
	push_a2 8 5
	buildh0_dup_a _Nil 11
	put_a 6
.d 3 0 
	jsr_i 2
.o 1 0 
	update3_a 0 8
.d 6 0 
	pop_a_jmp 5 s102
case.148
	update3pop_a 2 3
.d 3 0 
	jmp_i 2
.export e_StdList_sprod
.descexp e_StdList_dprod e_StdList_nprod e_StdList_lprod 3 0 "prod"
.a 0 ea44
.o 2 0 
e_StdList_lprod
	repl_args 2 2
.d 3 0 
	jmp ea44
.n 3 e_StdList_dprod _
.o 1 0 
e_StdList_nprod
	push_node _cycle_in_spine 3
.d 3 0 
	jsr ea44
.o 1 0 
.d 1 0 
	fill_a01_pop_rtn 
.o 3 0 
ea44
	jsr_eval 2
	jsr_eval 1
	jsr_eval 0
	push_r_args 1 1 0
	push_r_args 1 1 0
	update2pop_a 0 2
.o 3 0 
e_StdList_sprod
.o 3 0 
s44
	push_jsr_eval 1
.d 3 0 
	put_a_jmp 2 s101
.o 3 0 
s101
	jmp_ne_desc _Cons 2 2 case.150
	push_args 2 2 2
	buildh _Nil 0
	updates2_a 2 0 5
	jsr_eval 0
	push_jsr_eval 1
	push2_a 5
	buildh0_dup_a _Nil 8
	dup2_a 5
	pop_a 1
.d 3 0 
	jsr_i 2
.o 1 0 
	update2_a 0 5
.d 3 0 
	pop_a_jmp 4 s101
case.150
	updatepop_a 1 2
.d 1 0 
	rtn 
.export e_StdList_ssum
.descexp e_StdList_dsum e_StdList_nsum e_StdList_lsum 3 0 "sum"
.a 0 ea43
.o 2 0 
e_StdList_lsum
	repl_args 2 2
.d 3 0 
	jmp ea43
.n 3 e_StdList_dsum _
.o 1 0 
e_StdList_nsum
	push_node _cycle_in_spine 3
.d 3 0 
	jsr ea43
.o 1 0 
.d 1 0 
	fill_a01_pop_rtn 
.o 3 0 
ea43
	jsr_eval 2
	jsr_eval 1
	jsr_eval 0
	push_r_args 1 1 0
	push_r_args 1 1 0
	update2pop_a 0 2
.o 3 0 
e_StdList_ssum
.o 3 0 
s43
	push_jsr_eval 1
	updates2_a 0 3 2
.d 3 0 
	pop_a_jmp 1 s100
.o 3 0 
s100
	jmp_ne_desc _Cons 2 1 case.152
	push_args 1 2 2
	buildh0_put_a _Nil 4
	jsr_eval 0
	updates3_a 2 4 1 3
	swap_a 2
.d 3 0 
	jsr_i 2
.o 1 0 
	push_jsr_eval 1
	dup_a 2
	exchange_a 3 1
.d 3 0 
	pop_a_jmp 1 s100
case.152
.d 1 0 
	pop_a_rtn 2
.export e_StdList_slimit
.descexp e_StdList_dlimit e_StdList_nlimit e_StdList_llimit 2 0 "limit"
.a 0 ea42
.o 2 0 
e_StdList_llimit
	repl_args 1 1
.d 2 0 
	jmp ea42
.n 2 e_StdList_dlimit _
.o 1 0 
e_StdList_nlimit
	push_node _cycle_in_spine 2
.d 2 0 
	jsr ea42
.o 1 0 
.d 1 0 
	fill_a01_pop_rtn 
.o 2 0 
ea42
	jsr_eval 1
	jsr_eval 0
	repl_r_args 1 0
.o 2 0 
e_StdList_slimit
.o 2 0 
s42
	jmp_ne_desc _Cons 2 1 case.154
	push_args 1 2 2
	buildh0_put_a _Nil 4
	jsr_eval 1
	jmp_eq_desc _Cons 2 1 case.155
	pop_a_jmp 2 case.154
case.155
	push_args 1 2 2
	put_a 1
	jsr_eval 0
	push_a2 0 1
	jsr_eval 0
	updates3_a 5 0 1 2
.d 3 0 
	jsr_i 2
.o 0 1 b
	jmp_false else.156
	updatepop_a 0 3
.d 1 0 
	rtn 
else.156
	update_a 1 3
.d 2 0 
	pop_a_jmp 2 s42
case.154
	buildAC "incorrect use of limit"
	updatepop_a 0 2
.d 1 0 
	jsr print_string_
.o 0 0 
	halt
.d 1 0 
	rtn 
.export e_StdList_sremoveIndex
.descexp e_StdList_dremoveIndex e_StdList_nremoveIndex e_StdList_lremoveIndex 3 0 "removeIndex"
.a 0 a41
.o 2 0 
e_StdList_lremoveIndex
	repl_args 2 2
.o 3 0 
a41
.d 3 0 
	jsr ea41
.o 2 0 
	buildh _Tuple 2
.d 1 0 
	rtn 
.n 3 e_StdList_dremoveIndex
.o 1 0 
e_StdList_nremoveIndex
	push_node _cycle_in_spine 3
.d 3 0 
	jsr ea41
.o 2 0 
	fillh _Tuple 2 2
.d 1 0 
	rtn 
.o 3 0 
ea41
	jsr_eval 2
	jsr_eval 1
	jsr_eval 0
	repl_r_args 1 0
.o 3 0 
e_StdList_sremoveIndex
.o 3 0 
s41
	pushI 0
s99
	jmp_ne_desc _Cons 2 2 case.158
	push_args 2 2 2
	buildh _Nil 0
	push_a 1
	updates2_a 5 1 6
	jsr_eval 0
	push_a 4
.d 3 0 
	jsr_i 2
.o 0 1 b
	jmp_false else.159
	push_a 1
	buildI_b 0
	update2pop_a 0 5
.d 2 0 
	pop_b_rtn 1
else.159
.impdesc e_StdOverloaded_r==;
	build_r e_StdOverloaded_r==; 1 0 2 0
	push_ab 4 0
	push_update_a 1 3
	build_u e_StdList_d_f7.172 3 1 e_StdList_n_f7.172
	buildo1 n_S.2 0
	push_a 2
	buildh _Cons 2
	buildo1 n_S.1 1
	update2pop_a 0 6
.d 2 0 
	pop_b_rtn 1
case.158
	buildAC "Error in removeIndex: element not found"
	updatepop_a 0 3
.d 1 0 
	pop_b_jsr 1 print_string_
.o 0 0 
	halt
	repl_args 2 2
.d 2 0 
	rtn 
.export e_StdList_d_f7.172
.export e_StdList_n_f7.172
.descn e_StdList_d_f7.172 e_StdList_n_f7.172 4 0 "_f7.172"
.nu 3 1 e_StdList_d_f7.172 _
.o 1 0 
e_StdList_n_f7.172
	push_node_u _cycle_in_spine 3 1
.o 4 1 i
ea172
.o 4 1 i
s172
	push_b_incI 0
	push_jsr_eval 2
	push_r_args 1 1 0
	update_a 1 4
	updatepop_a 0 2
	put_b 1
.d 3 1 i
	jsr s99
.o 2 0 
	fillh _Tuple 2 2
.d 1 0 
	rtn 
.export e_StdList_sremoveDup
.export e_StdList_earemoveDup
.descexp e_StdList_dremoveDup e_StdList_nremoveDup e_StdList_lremoveDup 2 0 "removeDup"
.a 2 e_StdList_earemoveDup
.o 2 0 
e_StdList_lremoveDup
	push_args 0 1 1
	update_a 2 1
	create 
.d 3 0 
	put_a_jmp 3 e_StdList_earemoveDup
.n 2 e_StdList_dremoveDup e_StdList_earemoveDup
.o 1 0 
e_StdList_nremoveDup
	push_node _cycle_in_spine 2
.o 3 0 
e_StdList_earemoveDup
	jsr_eval 1
	jsr_eval 0
	repl_r_args 1 0
.o 3 0 
e_StdList_sremoveDup
.o 3 0 
s40
	jmp_ne_desc _Cons 2 1 case.161
	push_args 1 2 2
	buildh0_put_a _Nil 4
.impmod StdClass
.impdesc e_StdClass_rEq;
	build_r e_StdClass_rEq; 1 0 2 0
	push_update_a 0 1
	buildh e_StdList_d<>;109.104 2
	push_update_a 0 2
	build e_StdList_dfilter 2 e_StdList_nfilter
	build_r e_StdClass_rEq; 1 0 3 0
	build e_StdList_dremoveDup 2 e_StdList_nremoveDup
	push_a 1
	fillh _Cons 2 6
.d 1 0 
	pop_a_rtn 4
case.161
	fillh _Nil 0 2
.d 1 0 
	pop_a_rtn 2
.export e_StdList_d<>;109.104
.desc e_StdList_d<>;109.104 _hnf l104 3 0 "<>;109.104"
.a 0 a104
.o 2 0 
l104
	repl_args 2 2
.o 3 0 
a104
.d 3 0 
	jsr ea104
.o 0 1 b
	buildB_b 0
.d 1 0 
	pop_b_rtn 1
.o 3 0 
ea104
	jsr_eval 2
	jsr_eval 1
	repl_r_args 1 0
.o 3 0 
s104
.d 3 0 
	jsr_i 2
.o 0 1 b
	notB
.d 0 1 b
	rtn 
.export e_StdList_sremoveMembers
.export e_StdList_earemoveMembers
.descexp e_StdList_dremoveMembers e_StdList_nremoveMembers e_StdList_lremoveMembers 3 0 "removeMembers"
.a 3 e_StdList_earemoveMembers
.o 2 0 
e_StdList_lremoveMembers
	push_args 0 2 2
	update_a 3 2
	create 
.d 4 0 
	put_a_jmp 4 e_StdList_earemoveMembers
.n 3 e_StdList_dremoveMembers e_StdList_earemoveMembers
.o 1 0 
e_StdList_nremoveMembers
	push_node _cycle_in_spine 3
.o 4 0 
e_StdList_earemoveMembers
	jsr_eval 2
	jsr_eval 1
	jsr_eval 0
	repl_r_args 1 0
.o 4 0 
e_StdList_sremoveMembers
.o 4 0 
s39
	jmp_ne_desc _Nil 0 2 case.163
	fill_a 1 3
.d 1 0 
	pop_a_rtn 3
case.163
	push_args 2 2 2
	buildh _Nil 0
	updates2_a 2 0 5
	jsr_eval 0
	create 
	push_a2 5 2
	push_a 6
	buildh0_dup_a _Nil 9
	dup2_a 6
.d 4 0 
	pop_a_jsr 1 s38
.o 1 0 
	update2_a 0 5
.d 4 0 
	pop_a_jmp 4 s39
.export e_StdList_sremoveMember
.export e_StdList_earemoveMember
.descexp e_StdList_dremoveMember e_StdList_nremoveMember e_StdList_lremoveMember 3 0 "removeMember"
.a 3 e_StdList_earemoveMember
.o 2 0 
e_StdList_lremoveMember
	push_args 0 2 2
	update_a 3 2
	create 
.d 4 0 
	put_a_jmp 4 e_StdList_earemoveMember
.n 3 e_StdList_dremoveMember e_StdList_earemoveMember
.o 1 0 
e_StdList_nremoveMember
	push_node _cycle_in_spine 3
.o 4 0 
e_StdList_earemoveMember
	jsr_eval 2
	jsr_eval 0
	repl_r_args 1 0
.o 4 0 
e_StdList_sremoveMember
.o 4 0 
s38
	jmp_ne_desc _Cons 2 2 case.165
	push_args 2 2 2
	buildh _Nil 0
	updates2_a 4 0 5
	jsr_eval 0
	push_jsr_eval 1
	push_a 4
.d 3 0 
	jsr_i 2
.o 0 1 b
	jmp_false else.166
	updatepop_a 1 4
	jmp_eval_upd
else.166
	build_r e_StdClass_rEq; 1 0 2 0
	push_a2 4 0
	update_a 4 2
	build e_StdList_dremoveMember 3 e_StdList_nremoveMember
	push_a 1
	fillh _Cons 2 7
.d 1 0 
	pop_a_rtn 5
case.165
	fillh _Nil 0 3
.d 1 0 
	pop_a_rtn 3
.export e_StdList_sisAnyMember
.descexp e_StdList_disAnyMember e_StdList_nisAnyMember e_StdList_lisAnyMember 3 0 "isAnyMember"
.a 0 a37
.o 2 0 
e_StdList_lisAnyMember
	repl_args 2 2
.o 3 0 
a37
.d 3 0 
	jsr ea37
.o 0 1 b
	buildB_b 0
.d 1 0 
	pop_b_rtn 1
.n 3 e_StdList_disAnyMember
.o 1 0 
e_StdList_nisAnyMember
	push_node _cycle_in_spine 3
.d 3 0 
	jsr ea37
.o 0 1 b
	fillB_b 0 0
.d 1 0 
	pop_b_rtn 1
.o 3 0 
ea37
	jsr_eval 2
	jsr_eval 1
	jsr_eval 0
	repl_r_args 1 0
.o 3 0 
e_StdList_sisAnyMember
.o 3 0 
s37
	jmp_ne_desc _Cons 2 1 case.168
	push_args 1 2 2
	buildh _Nil 0
	push_a 3
	updates3_a 6 2 1 5
.d 3 0 
	jsr s36
.o 0 1 b
	jmp_false else.169
	pushB TRUE
.d 0 1 b
	pop_a_rtn 4
else.169
	jsr_eval 0
.d 3 0 
	put_a_jmp 2 s37
case.168
	pushB FALSE
.d 0 1 b
	pop_a_rtn 3
.export e_StdList_sisMember
.descexp e_StdList_disMember e_StdList_nisMember e_StdList_lisMember 3 0 "isMember"
.a 0 a36
.o 2 0 
e_StdList_lisMember
	repl_args 2 2
.o 3 0 
a36
.d 3 0 
	jsr ea36
.o 0 1 b
	buildB_b 0
.d 1 0 
	pop_b_rtn 1
.n 3 e_StdList_disMember
.o 1 0 
e_StdList_nisMember
	push_node _cycle_in_spine 3
.d 3 0 
	jsr ea36
.o 0 1 b
	fillB_b 0 0
.d 1 0 
	pop_b_rtn 1
.o 3 0 
ea36
	jsr_eval 2
	jsr_eval 0
	repl_r_args 1 0
.o 3 0 
e_StdList_sisMember
.o 3 0 
s36
	jmp_ne_desc _Cons 2 2 case.171
	push_args 2 2 2
	buildh _Nil 0
	updates2_a 4 0 5
	jsr_eval 0
	push_jsr_eval 1
	updates3_a 4 0 1 2
.d 3 0 
	jsr_i 2
.o 0 1 b
	jmp_false else.172
	pushB TRUE
.d 0 1 b
	pop_a_rtn 4
else.172
	jsr_eval 0
.d 3 0 
	put_a_jmp 3 s36
case.171
	pushB FALSE
.d 0 1 b
	pop_a_rtn 3
.export e_StdList_sall
.descexp e_StdList_dall e_StdList_nall e_StdList_lall 2 0 "all"
.a 0 a35
.o 2 0 
e_StdList_lall
	repl_args 1 1
.o 2 0 
a35
.d 2 0 
	jsr ea35
.o 0 1 b
	buildB_b 0
.d 1 0 
	pop_b_rtn 1
.n 2 e_StdList_dall
.o 1 0 
e_StdList_nall
	push_node _cycle_in_spine 2
.d 2 0 
	jsr ea35
.o 0 1 b
	fillB_b 0 0
.d 1 0 
	pop_b_rtn 1
.o 2 0 
ea35
	jsr_eval 1
.o 2 0 
e_StdList_sall
.o 2 0 
s35
	jmp_ne_desc _Nil 0 1 case.174
	pushB TRUE
.d 0 1 b
	pop_a_rtn 2
case.174
	push_args 1 2 2
	buildh _Nil 0
	updates2_a 3 0 4
	jsr_eval 0
	jsr_ap 1
	pushB0_pop_a1 
	jmp_false else.175
	jsr_eval 0
.d 2 0 
	put_a_jmp 2 s35
else.175
	pushB FALSE
.d 0 1 b
	pop_a_rtn 3
.export e_StdList_sany
.descexp e_StdList_dany e_StdList_nany e_StdList_lany 2 0 "any"
.a 0 a34
.o 2 0 
e_StdList_lany
	repl_args 1 1
.o 2 0 
a34
.d 2 0 
	jsr ea34
.o 0 1 b
	buildB_b 0
.d 1 0 
	pop_b_rtn 1
.n 2 e_StdList_dany
.o 1 0 
e_StdList_nany
	push_node _cycle_in_spine 2
.d 2 0 
	jsr ea34
.o 0 1 b
	fillB_b 0 0
.d 1 0 
	pop_b_rtn 1
.o 2 0 
ea34
	jsr_eval 1
.o 2 0 
e_StdList_sany
.o 2 0 
s34
	jmp_ne_desc _Nil 0 1 case.177
	pushB FALSE
.d 0 1 b
	pop_a_rtn 2
case.177
	push_args 1 2 2
	buildh _Nil 0
	updates2_a 3 0 4
	jsr_eval 0
	jsr_ap 1
	pushB0_pop_a1 
	jmp_false else.178
	pushB TRUE
.d 0 1 b
	pop_a_rtn 3
else.178
	jsr_eval 0
.d 2 0 
	put_a_jmp 2 s34
.export e_StdList_sor
.descexp e_StdList_dor e_StdList_nor e_StdList_lor 1 0 "or"
.o 2 0 
e_StdList_lor
.d 1 0 
	pop_a_jsr 1 ea33
.o 0 1 b
	buildB_b 0
.d 1 0 
	pop_b_rtn 1
.n 1 e_StdList_dor
.o 1 0 
e_StdList_nor
	push_node _cycle_in_spine 1
.d 1 0 
	jsr ea33
.o 0 1 b
	fillB_b 0 0
.d 1 0 
	pop_b_rtn 1
.o 1 0 
ea33
	jsr_eval 0
.o 1 0 
e_StdList_sor
.o 1 0 
s33
	jmp_ne_desc _Nil 0 0 case.180
	pushB FALSE
.d 0 1 b
	pop_a_rtn 1
case.180
	repl_args 2 2
	jsr_eval 0
	pushB_a 0
	jmp_false else.181
	pushB TRUE
.d 0 1 b
	pop_a_rtn 2
else.181
	pop_a 1
	jsr_eval 0
.d 1 0 
	jmp s33
.export e_StdList_sand
.descexp e_StdList_dand e_StdList_nand e_StdList_land 1 0 "and"
.o 2 0 
e_StdList_land
.d 1 0 
	pop_a_jsr 1 ea32
.o 0 1 b
	buildB_b 0
.d 1 0 
	pop_b_rtn 1
.n 1 e_StdList_dand
.o 1 0 
e_StdList_nand
	push_node _cycle_in_spine 1
.d 1 0 
	jsr ea32
.o 0 1 b
	fillB_b 0 0
.d 1 0 
	pop_b_rtn 1
.o 1 0 
ea32
	jsr_eval 0
.o 1 0 
e_StdList_sand
.o 1 0 
s32
	jmp_ne_desc _Nil 0 0 case.183
	pushB TRUE
.d 0 1 b
	pop_a_rtn 1
case.183
	repl_args 2 2
	jsr_eval 0
	pushB_a 0
	jmp_false else.184
	pop_a 1
	jsr_eval 0
.d 1 0 
	jmp s32
else.184
	pushB FALSE
.d 0 1 b
	pop_a_rtn 2
.export e_StdList_sscan
.export e_StdList_eascan
.descexp e_StdList_dscan e_StdList_nscan e_StdList_lscan 3 0 "scan"
.a 3 e_StdList_eascan
.o 2 0 
e_StdList_lscan
	push_args 0 2 2
	update_a 3 2
	create 
.d 4 0 
	put_a_jmp 4 e_StdList_eascan
.n 3 e_StdList_dscan e_StdList_eascan
.o 1 0 
e_StdList_nscan
	push_node _cycle_in_spine 3
.o 4 0 
e_StdList_eascan
	jsr_eval 2
.o 4 0 
e_StdList_sscan
.o 4 0 
s31
	jmp_ne_desc _Cons 2 2 case.186
	push_args 2 2 2
	buildh _Nil 0
	push2_a 4
	updates2_a 3 2 7
	build e_StdList_d_f0.165 3 e_StdList_n_f0.165
	push_a2 0 3
	update_a 4 2
	build e_StdList_dscan 3 e_StdList_nscan
	push_a 4
	fillh _Cons 2 7
.d 1 0 
	pop_a_rtn 5
case.186
	buildh _Nil 0
	push_a 2
	fillh _Cons 2 5
.d 1 0 
	pop_a_rtn 3
.export e_StdList_d_f0.165
.export e_StdList_n_f0.165
.descn e_StdList_d_f0.165 e_StdList_n_f0.165 3 0 "_f0.165"
.n 3 e_StdList_d_f0.165 ea165
.o 1 0 
e_StdList_n_f0.165
	push_node _cycle_in_spine 3
.o 4 0 
ea165
.o 4 0 
s165
	push_a2 2 0
	jsr_eval 0
	update_a 1 4
	updatepop_a 0 2
	jsr_ap 2
.d 1 0 
	fill_a01_pop_rtn 
.export e_StdList_sdiag3
.export e_StdList_eadiag3
.descexp e_StdList_ddiag3 e_StdList_ndiag3 e_StdList_ldiag3 3 0 "diag3"
.a 3 e_StdList_eadiag3
.o 2 0 
e_StdList_ldiag3
	push_args 0 2 2
	update_a 3 2
	create 
.d 4 0 
	put_a_jmp 4 e_StdList_eadiag3
.n 3 e_StdList_ddiag3 e_StdList_eadiag3
.o 1 0 
e_StdList_ndiag3
	push_node _cycle_in_spine 3
.o 4 0 
e_StdList_eadiag3
	jsr_eval 0
.o 4 0 
e_StdList_sdiag3
.o 4 0 
s30
	create 
	push_a 1
	updates3pop_a 0 1 3 2
.d 3 0 
	jsr s29
.o 1 0 
	create 
	push_a 1
	updates3pop_a 0 1 3 2
.d 3 0 
	jsr s29
.o 1 0 
.d 2 0 
	jmp s92
.export e_StdList_dc;265;28;91.92
.export e_StdList_nc;265;28;91.92
.descn e_StdList_dc;265;28;91.92 e_StdList_nc;265;28;91.92 1 0 "c;265;28;91.92"
.n 1 e_StdList_dc;265;28;91.92 ea92
.o 1 0 
e_StdList_nc;265;28;91.92
	push_node _cycle_in_spine 1
.o 2 0 
ea92
	jsr_eval 0
.o 2 0 
s92
s161
	jmp_ne_desc _Cons 2 0 case.188
	repl_args 2 2
	jsr_eval 0
	push_args 0 2 2
	jsr_eval 0
	repl_args 2 2
	update3pop_a 0 1
.d 5 0 
	jmp s160
case.188
	fillh _Nil 0 1
.d 1 0 
	pop_a_rtn 1
.o 5 0 
s160
case.189
	buildo1 e_StdList_nc;265;28;91.92 3
	push3_a 3
	buildh _Tuple 3
	fillh _Cons 2 6
.d 1 0 
	pop_a_rtn 4
case.190
	push_jsr_eval 3
	updatepop_a 0 4
.d 2 0 
	jmp s92
.export e_StdList_sdiag2
.export e_StdList_eadiag2
.descexp e_StdList_ddiag2 e_StdList_ndiag2 e_StdList_ldiag2 2 0 "diag2"
.a 2 e_StdList_eadiag2
.o 2 0 
e_StdList_ldiag2
	push_args 0 1 1
	update_a 2 1
	create 
.d 3 0 
	put_a_jmp 3 e_StdList_eadiag2
.n 2 e_StdList_ddiag2 e_StdList_eadiag2
.o 1 0 
e_StdList_ndiag2
	push_node _cycle_in_spine 2
.o 3 0 
e_StdList_eadiag2
	jsr_eval 0
.o 3 0 
e_StdList_sdiag2
.o 3 0 
s29
	jmp_ne_desc _Nil 0 0 case.192
	fillh _Nil 0 2
.d 1 0 
	pop_a_rtn 2
case.192
	jsr_eval 1
	jmp_ne_desc _Nil 0 1 case.194
	fillh _Nil 0 2
.d 1 0 
	pop_a_rtn 2
case.194
	buildh _Nil 0
	buildh _Nil 0
	create 
	push_update_a 3 2
	updates3pop_a 0 1 5 3
.d 5 0 
	jsr s98
.o 1 0 
.d 2 0 
	jmp s94
.export e_StdList_dtakeall;97.98
.export e_StdList_ntakeall;97.98
.descn e_StdList_dtakeall;97.98 e_StdList_ntakeall;97.98 4 0 "takeall;97.98"
.n 4 e_StdList_dtakeall;97.98 ea98
.o 1 0 
e_StdList_ntakeall;97.98
	push_node _cycle_in_spine 4
.o 5 0 
ea98
	jsr_eval 2
	jsr_eval 0
.o 5 0 
s98
	push2_a 1
.d 2 0 
	jsr s164
.o 2 1 b
	push2_a 5
	build e_StdList_dtakeynext;95.96 2 e_StdList_ntakeynext;95.96
	buildo1 n_S.1 0
	jmp_b_false 0 else.195
	jsr_eval 0
	pushB_a 0
	jmp_false else.195
	push_a2 3 1
	build d_S.3 -1 n_S.3
	buildo1 n_S.2 3
	push_a2 0 2
	push_a 7
	update_a 4 3
	build e_StdList_dtakeall;97.98 4 e_StdList_ntakeall;97.98
	buildho2 _Tuple 2 1
	fillh _Cons 2 12
.d 1 0 
	pop_ab_rtn 10 1
else.195
	jsr_eval 0
	pushB_a 0
	jmp_false else.197
	buildo1 n_S.3 1
	buildo1 e_StdList_ntl 0
	buildo1 n_S.2 3
	push2_a 8
	build e_StdList_dtakeall;97.98 4 e_StdList_ntakeall;97.98
	buildo1 e_StdList_ntl 1
	push_a 8
	buildh _Tuple 2
	fillh _Cons 2 11
.d 1 0 
	pop_ab_rtn 9 1
else.197
	jmp_b_false 0 else.198
	push_a 3
	push2_a 8
	push2_a 6
	build e_StdList_dtakeall;97.98 4 e_StdList_ntakeall;97.98
	buildho2 _Tuple 1 9
	fillh _Cons 2 11
.d 1 0 
	pop_ab_rtn 9 1
else.198
	push_jsr_eval 7
	dup_a 8
	updatepop_a 6 7
.d 3 0 
	pop_b_jmp 1 s97
.export e_StdList_dshift;96.97
.export e_StdList_nshift;96.97
.descn e_StdList_dshift;96.97 e_StdList_nshift;96.97 2 0 "shift;96.97"
.n 2 e_StdList_dshift;96.97 ea97
.o 1 0 
e_StdList_nshift;96.97
	push_node _cycle_in_spine 2
.o 3 0 
ea97
	jsr_eval 1
.o 3 0 
s97
	jmp_ne_desc _Cons 2 1 case.200
	push_args 1 2 2
	buildh0_dup_a _Nil 4
	update_a 2 1
	update_a 3 0
	build e_StdList_dshift;96.97 2 e_StdList_nshift;96.97
	buildho2 _Tuple 2 1
	fillh _Cons 2 5
.d 1 0 
	pop_a_rtn 3
case.200
	fillh _Nil 0 2
.d 1 0 
	pop_a_rtn 2
.export e_StdList_dtakeynext;95.96
.export e_StdList_ntakeynext;95.96
.descn e_StdList_dtakeynext;95.96 e_StdList_ntakeynext;95.96 2 0 "takeynext;95.96"
.n 2 e_StdList_dtakeynext;95.96
.o 1 0 
e_StdList_ntakeynext;95.96
	push_node _cycle_in_spine 2
.d 2 0 
	jsr ea96
.o 3 0 
	fillh _Tuple 3 3
.d 1 0 
	rtn 
.o 2 0 
ea96
.o 2 0 
s96
	jmp_ne_desc _Cons 2 0 case.202
	repl_args 2 2
	buildh _Nil 0
	push_a 1
	buildh _Cons 2
	push_a 3
	build e_StdList_d++ 2 e_StdList_n++
	push_a 2
	buildB TRUE
	update3pop_a 0 3
.d 3 0 
	rtn 
case.202
	buildh _Nil 0
	push_a 2
	buildB FALSE
	update_a 1 4
	updates2pop_a 0 2 3
.d 3 0 
	rtn 
.export e_StdList_dc;277;66;92.93
.export e_StdList_nc;277;66;92.93
.descn e_StdList_dc;277;66;92.93 e_StdList_nc;277;66;92.93 3 0 "c;277;66;92.93"
.n 3 e_StdList_dc;277;66;92.93 ea93
.o 1 0 
e_StdList_nc;277;66;92.93
	push_node _cycle_in_spine 3
.o 4 0 
ea93
	jsr_eval 1
.o 4 0 
s93
	push_a 1
	updates3pop_a 0 1 3 2
.d 4 0 
	jmp s159
.o 2 0 
s94
.d 2 0 
	jmp s157
.o 4 0 
s159
	jmp_ne_desc _Cons 2 0 case.204
	repl_args 2 2
	push_jsr_eval 2
	update_a 4 3
	updates3pop_a 0 1 2 4
.d 5 0 
	jmp s158
case.204
	push_jsr_eval 2
	updatepop_a 0 3
.d 2 0 
	jmp s94
.o 5 0 
s158
	jmp_ne_desc _Cons 2 0 case.206
	repl_args 2 2
	push_a 1
	push2_a 5
	build e_StdList_dc;277;66;92.93 3 e_StdList_nc;277;66;92.93
	buildho2 _Tuple 3 1
	fillh _Cons 2 7
.d 1 0 
	pop_a_rtn 5
case.206
	push_jsr_eval 2
	updatepop_a 0 4
.d 2 0 
	jmp s94
.o 2 0 
s157
	jmp_ne_desc _Cons 2 0 case.208
	repl_args 2 2
	jsr_eval 0
	push_args 0 2 2
	jsr_eval 0
	update2pop_a 0 1
.d 4 0 
	jmp s156
case.208
	fillh _Nil 0 1
.d 1 0 
	pop_a_rtn 1
.o 4 0 
s156
case.209
	push_a 2
	update3pop_a 0 1
.d 4 0 
	jmp s93
case.210
	push_jsr_eval 2
	updatepop_a 0 3
.d 2 0 
	jmp s94
.export e_StdList_szip
.export e_StdList_eazip
.descexp e_StdList_dzip e_StdList_nzip e_StdList_lzip 1 0 "zip"
.o 2 0 
e_StdList_lzip
	update_a 1 0
	create 
.d 2 0 
	put_a_jmp 2 e_StdList_eazip
.n 1 e_StdList_dzip e_StdList_eazip
.o 1 0 
e_StdList_nzip
	push_node _cycle_in_spine 1
.o 2 0 
e_StdList_eazip
	jsr_eval 0
	repl_args 2 2
	jsr_eval 0
.o 3 0 
e_StdList_szip
.o 3 0 
s28
.d 3 0 
	jmp s27
.export e_StdList_szip2
.export e_StdList_eazip2
.descexp e_StdList_dzip2 e_StdList_nzip2 e_StdList_lzip2 2 0 "zip2"
.a 2 e_StdList_eazip2
.o 2 0 
e_StdList_lzip2
	push_args 0 1 1
	update_a 2 1
	create 
.d 3 0 
	put_a_jmp 3 e_StdList_eazip2
.n 2 e_StdList_dzip2 e_StdList_eazip2
.o 1 0 
e_StdList_nzip2
	push_node _cycle_in_spine 2
.o 3 0 
e_StdList_eazip2
	jsr_eval 0
.o 3 0 
e_StdList_szip2
.o 3 0 
s27
	jmp_ne_desc _Cons 2 0 case.212
	repl_args 2 2
	jsr_eval 2
	jmp_eq_desc _Cons 2 2 case.213
	pop_a_jmp 1 case.212
case.213
	push_args 2 2 2
	buildh _Nil 0
	push_a 4
	updates2_a 3 1 6
	build e_StdList_dzip2 2 e_StdList_nzip2
	buildho2 _Tuple 3 1
	fillh _Cons 2 7
.d 1 0 
	pop_a_rtn 5
case.212
	fillh _Nil 0 2
.d 1 0 
	pop_a_rtn 2
.export e_StdList_sunzip
.descexp e_StdList_dunzip e_StdList_nunzip e_StdList_lunzip 1 0 "unzip"
.o 2 0 
e_StdList_lunzip
.d 1 0 
	pop_a_jsr 1 ea26
.o 2 0 
	buildh _Tuple 2
.d 1 0 
	rtn 
.n 1 e_StdList_dunzip
.o 1 0 
e_StdList_nunzip
	push_node _cycle_in_spine 1
.d 1 0 
	jsr ea26
.o 2 0 
	fillh _Tuple 2 2
.d 1 0 
	rtn 
.o 1 0 
ea26
	jsr_eval 0
.o 1 0 
e_StdList_sunzip
.o 1 0 
s26
	jmp_ne_desc _Nil 0 0 case.215
	buildh0_put_a _Nil 1
	buildh _Nil 0
.d 2 0 
	rtn 
case.215
	repl_args 2 2
	jsr_eval 0
	repl_args 2 2
	buildo1 e_StdList_nunzip 2
	buildo1 n_S.2 0
	push_a 3
	buildh _Cons 2
	buildo1 n_S.1 1
	push_a 3
	buildh _Cons 2
	update2pop_a 0 4
.d 2 0 
	rtn 
.export e_StdList_srepeatn
.export e_StdList_earepeatn
.descexp e_StdList_drepeatn e_StdList_nrepeatn e_StdList_lrepeatn 2 0 "repeatn"
.a 2 e_StdList_earepeatn
.o 2 0 
e_StdList_lrepeatn
	push_args 0 1 1
	update_a 2 1
	create 
.d 3 0 
	put_a_jmp 3 e_StdList_earepeatn
.n 2 e_StdList_drepeatn e_StdList_earepeatn
.o 1 0 
e_StdList_nrepeatn
	push_node _cycle_in_spine 2
.o 3 0 
e_StdList_earepeatn
	jsr_eval 0
	pushI0_pop_a1 
.o 2 1 i
e_StdList_srepeatn
.o 2 1 i
s24
	buildo1 e_StdList_nrepeat 0
.d 2 1 i
	put_a_jmp 1 s9
.export e_StdList_srepeat
.export e_StdList_earepeat
.descexp e_StdList_drepeat e_StdList_nrepeat e_StdList_lrepeat 1 0 "repeat"
.o 2 0 
e_StdList_lrepeat
	update_a 1 0
	create 
.d 2 0 
	put_a_jmp 2 e_StdList_earepeat
.n 1 e_StdList_drepeat e_StdList_earepeat
.o 1 0 
e_StdList_nrepeat
	push_node _cycle_in_spine 1
.o 2 0 
e_StdList_earepeat
.o 2 0 
e_StdList_srepeat
.o 2 0 
s25
	push2_a 1
	fillh _Cons 2 3
.d 1 0 
	pop_a_rtn 1
.export e_StdList_sindexList
.export e_StdList_eaindexList
.descexp e_StdList_dindexList e_StdList_nindexList e_StdList_lindexList 1 0 "indexList"
.o 2 0 
e_StdList_lindexList
	update_a 1 0
	create 
.d 2 0 
	put_a_jmp 2 e_StdList_eaindexList
.n 1 e_StdList_dindexList e_StdList_eaindexList
.o 1 0 
e_StdList_nindexList
	push_node _cycle_in_spine 1
.o 2 0 
e_StdList_eaindexList
	jsr_eval 0
.o 2 0 
e_StdList_sindexList
.o 2 0 
s23
	pushI 0
s91
	jmp_ne_desc _Cons 2 0 case.217
	repl_args 2 2
	update_a 1 0
	push_b 0
	build_u e_StdList_d_f6.171 1 1 e_StdList_n_f6.171
	buildI_b 0
	fillh _Cons 2 3
.d 1 0 
	pop_ab_rtn 1 1
case.217
	fillh _Nil 0 1
.d 1 0 
	pop_ab_rtn 1 1
.export e_StdList_d_f6.171
.export e_StdList_n_f6.171
.descn e_StdList_d_f6.171 e_StdList_n_f6.171 2 0 "_f6.171"
.nu 1 1 e_StdList_d_f6.171 _
.o 1 0 
e_StdList_n_f6.171
	push_node_u _cycle_in_spine 1 1
.o 2 1 i
ea171
.o 2 1 i
s171
	jsr_eval 0
	push_a 0
	incI
.d 2 1 i
	put_a_jmp 1 s91
.export e_StdList_siterate
.export e_StdList_eaiterate
.descexp e_StdList_diterate e_StdList_niterate e_StdList_literate 2 0 "iterate"
.a 2 e_StdList_eaiterate
.o 2 0 
e_StdList_literate
	push_args 0 1 1
	update_a 2 1
	create 
.d 3 0 
	put_a_jmp 3 e_StdList_eaiterate
.n 2 e_StdList_diterate e_StdList_eaiterate
.o 1 0 
e_StdList_niterate
	push_node _cycle_in_spine 2
.o 3 0 
e_StdList_eaiterate
.o 3 0 
e_StdList_siterate
.o 3 0 
s22
	push2_a 1
	build e_system_dAP 2 e_system_nAP
	push_a 1
	build e_StdList_diterate 2 e_StdList_niterate
	push_a 2
	fillh _Cons 2 4
.d 1 0 
	pop_a_rtn 2
.export e_StdList_smap
.export e_StdList_eamap
.descexp e_StdList_dmap e_StdList_nmap e_StdList_lmap 2 0 "map"
.a 2 e_StdList_eamap
.o 2 0 
e_StdList_lmap
	push_args 0 1 1
	update_a 2 1
	create 
.d 3 0 
	put_a_jmp 3 e_StdList_eamap
.n 2 e_StdList_dmap e_StdList_eamap
.o 1 0 
e_StdList_nmap
	push_node _cycle_in_spine 2
.o 3 0 
e_StdList_eamap
	jsr_eval 1
.o 3 0 
e_StdList_smap
.o 3 0 
s21
	jmp_ne_desc _Cons 2 1 case.219
	push_args 1 2 2
	buildh _Nil 0
	push_a 3
	updates2_a 3 1 5
	build e_StdList_dmap 2 e_StdList_nmap
	push_a2 1 3
	build e_system_dAP 2 e_system_nAP
	fillh _Cons 2 6
.d 1 0 
	pop_a_rtn 4
case.219
	fillh _Nil 0 2
.d 1 0 
	pop_a_rtn 2
.export e_StdList_ssplitAt
.descexp e_StdList_dsplitAt e_StdList_nsplitAt e_StdList_lsplitAt 2 0 "splitAt"
.a 0 a20
.o 2 0 
e_StdList_lsplitAt
	repl_args 1 1
.o 2 0 
a20
.d 2 0 
	jsr ea20
.o 2 0 
	buildh _Tuple 2
.d 1 0 
	rtn 
.n 2 e_StdList_dsplitAt
.o 1 0 
e_StdList_nsplitAt
	push_node _cycle_in_spine 2
.d 2 0 
	jsr ea20
.o 2 0 
	fillh _Tuple 2 2
.d 1 0 
	rtn 
.o 2 0 
ea20
	jsr_eval 0
	pushI0_pop_a1 
.o 1 1 i
e_StdList_ssplitAt
.o 1 1 i
s20
	jmp_neI_b 0 0 case.221
	buildh _Nil 0
.d 2 0 
	pop_b_rtn 1
case.221
	jsr_eval 0
	jmp_ne_desc _Nil 0 0 case.223
	buildh0_put_a _Nil 1
	buildh _Nil 0
.d 2 0 
	pop_b_rtn 1
case.223
	repl_args 2 2
	push_ab 1 0
	build_u e_StdList_d_f1.166 1 1 e_StdList_n_f1.166
	buildo1 n_S.2 0
	buildo1 n_S.1 1
	push_a 3
	buildh _Cons 2
	update2pop_a 0 3
.d 2 0 
	pop_b_rtn 1
.export e_StdList_d_f1.166
.export e_StdList_n_f1.166
.descn e_StdList_d_f1.166 e_StdList_n_f1.166 2 0 "_f1.166"
.nu 1 1 e_StdList_d_f1.166 _
.o 1 0 
e_StdList_n_f1.166
	push_node_u _cycle_in_spine 1 1
.o 2 1 i
ea166
.o 2 1 i
s166
	decI
.d 1 1 i
	jsr s20
.o 2 0 
	fillh _Tuple 2 2
.d 1 0 
	rtn 
.export e_StdList_supdateAt
.export e_StdList_eaupdateAt
.descexp e_StdList_dupdateAt e_StdList_nupdateAt e_StdList_lupdateAt 3 0 "updateAt"
.a 3 e_StdList_eaupdateAt
.o 2 0 
e_StdList_lupdateAt
	push_args 0 2 2
	update_a 3 2
	create 
.d 4 0 
	put_a_jmp 4 e_StdList_eaupdateAt
.n 3 e_StdList_dupdateAt e_StdList_eaupdateAt
.o 1 0 
e_StdList_nupdateAt
	push_node _cycle_in_spine 3
.o 4 0 
e_StdList_eaupdateAt
	jsr_eval 2
	jsr_eval 0
	pushI0_pop_a1 
.o 3 1 i
e_StdList_supdateAt
.o 3 1 i
s19
	jmp_neI_b 0 0 case.225
	jmp_ne_desc _Nil 0 1 case.227
	fillh _Nil 0 2
.d 1 0 
	pop_ab_rtn 2 1
case.227
	push_args 1 2 2
	buildh0_dup_a _Nil 4
	update_a 2 1
	update_a 3 0
	fillh _Cons 2 5
.d 1 0 
	pop_ab_rtn 3 1
case.225
	jmp_ne_desc _Nil 0 1 case.229
	fillh _Nil 0 2
.d 1 0 
	pop_ab_rtn 2 1
case.229
	push_args 1 2 2
	buildh _Nil 0
	push_a 3
	updates2_a 3 1 5
	push_b 0
	build_u e_StdList_d_f2.167 2 1 e_StdList_n_f2.167
	push_a 1
	fillh _Cons 2 6
.d 1 0 
	pop_ab_rtn 4 1
.export e_StdList_d_f2.167
.export e_StdList_n_f2.167
.descn e_StdList_d_f2.167 e_StdList_n_f2.167 3 0 "_f2.167"
.nu 2 1 e_StdList_d_f2.167 _
.o 1 0 
e_StdList_n_f2.167
	push_node_u _cycle_in_spine 2 1
.o 3 1 i
ea167
.o 3 1 i
s167
	push_jsr_eval 1
	decI
.d 3 1 i
	put_a_jmp 2 s19
.export e_StdList_sremoveAt
.export e_StdList_earemoveAt
.descexp e_StdList_dremoveAt e_StdList_nremoveAt e_StdList_lremoveAt 2 0 "removeAt"
.a 2 e_StdList_earemoveAt
.o 2 0 
e_StdList_lremoveAt
	push_args 0 1 1
	update_a 2 1
	create 
.d 3 0 
	put_a_jmp 3 e_StdList_earemoveAt
.n 2 e_StdList_dremoveAt e_StdList_earemoveAt
.o 1 0 
e_StdList_nremoveAt
	push_node _cycle_in_spine 2
.o 3 0 
e_StdList_earemoveAt
	jsr_eval 1
	jsr_eval 0
	pushI0_pop_a1 
.o 2 1 i
e_StdList_sremoveAt
.o 2 1 i
s18
	jmp_neI_b 0 0 case.231
	jmp_ne_desc _Cons 2 0 case.231
	push_args 0 2 2
	updatepop_a 1 2
	pop_b 1
	jmp_eval_upd
case.231
	jmp_ne_desc _Cons 2 0 case.234
	repl_args 2 2
	push_ab 1 0
	build_u e_StdList_d_f3.168 1 1 e_StdList_n_f3.168
	push_a 1
	fillh _Cons 2 4
.d 1 0 
	pop_ab_rtn 2 1
case.234
	fillh _Nil 0 1
.d 1 0 
	pop_ab_rtn 1 1
.export e_StdList_d_f3.168
.export e_StdList_n_f3.168
.descn e_StdList_d_f3.168 e_StdList_n_f3.168 2 0 "_f3.168"
.nu 1 1 e_StdList_d_f3.168 _
.o 1 0 
e_StdList_n_f3.168
	push_node_u _cycle_in_spine 1 1
.o 2 1 i
ea168
.o 2 1 i
s168
	jsr_eval 0
	push_a 0
	decI
.d 2 1 i
	put_a_jmp 1 s18
.export e_StdList_sinsertAt
.export e_StdList_eainsertAt
.descexp e_StdList_dinsertAt e_StdList_ninsertAt e_StdList_linsertAt 3 0 "insertAt"
.a 3 e_StdList_eainsertAt
.o 2 0 
e_StdList_linsertAt
	push_args 0 2 2
	update_a 3 2
	create 
.d 4 0 
	put_a_jmp 4 e_StdList_eainsertAt
.n 3 e_StdList_dinsertAt e_StdList_eainsertAt
.o 1 0 
e_StdList_ninsertAt
	push_node _cycle_in_spine 3
.o 4 0 
e_StdList_eainsertAt
	jsr_eval 0
	pushI0_pop_a1 
.o 3 1 i
e_StdList_sinsertAt
.o 3 1 i
s17
	jmp_neI_b 0 0 case.236
	fillh _Cons 2 2
.d 1 0 
	pop_b_rtn 1
case.236
	jsr_eval 1
	jmp_ne_desc _Nil 0 1 case.238
	buildh _Nil 0
	push_a 1
	fillh _Cons 2 4
.d 1 0 
	pop_ab_rtn 2 1
case.238
	push_args 1 2 2
	buildh _Nil 0
	push_a 3
	updates2_a 3 1 5
	push_b 0
	build_u e_StdList_d_f4.169 2 1 e_StdList_n_f4.169
	push_a 1
	fillh _Cons 2 6
.d 1 0 
	pop_ab_rtn 4 1
.export e_StdList_d_f4.169
.export e_StdList_n_f4.169
.descn e_StdList_d_f4.169 e_StdList_n_f4.169 3 0 "_f4.169"
.nu 2 1 e_StdList_d_f4.169 _
.o 1 0 
e_StdList_n_f4.169
	push_node_u _cycle_in_spine 2 1
.o 3 1 i
ea169
.o 3 1 i
s169
	decI
.d 3 1 i
	jmp s17
.export e_StdList_sinsert
.export e_StdList_eainsert
.descexp e_StdList_dinsert e_StdList_ninsert e_StdList_linsert 3 0 "insert"
.a 3 e_StdList_eainsert
.o 2 0 
e_StdList_linsert
	push_args 0 2 2
	update_a 3 2
	create 
.d 4 0 
	put_a_jmp 4 e_StdList_eainsert
.n 3 e_StdList_dinsert e_StdList_eainsert
.o 1 0 
e_StdList_ninsert
	push_node _cycle_in_spine 3
.o 4 0 
e_StdList_eainsert
	jsr_eval 2
.o 4 0 
e_StdList_sinsert
.o 4 0 
s16
	jmp_ne_desc _Cons 2 2 case.240
	push_args 2 2 2
	push_a2 0 2
	jsr_eval 0
	push_update_a 0 5
	jsr_ap 2
	pushB0_pop_a1 
	jmp_false else.241
	push2_a 4
	fillh _Cons 2 7
.d 1 0 
	pop_a_rtn 5
else.241
	push_a 1
	push2_a 4
	build e_StdList_dinsert 3 e_StdList_ninsert
	push_a 1
	fillh _Cons 2 7
.d 1 0 
	pop_a_rtn 5
case.240
	buildh _Nil 0
	push_a 2
	fillh _Cons 2 5
.d 1 0 
	pop_a_rtn 3
.export e_StdList_sreverse
.export e_StdList_eareverse
.descexp e_StdList_dreverse e_StdList_nreverse e_StdList_lreverse 1 0 "reverse"
.o 2 0 
e_StdList_lreverse
	update_a 1 0
	create 
.d 2 0 
	put_a_jmp 2 e_StdList_eareverse
.n 1 e_StdList_dreverse e_StdList_eareverse
.o 1 0 
e_StdList_nreverse
	push_node _cycle_in_spine 1
.o 2 0 
e_StdList_eareverse
	jsr_eval 0
.o 2 0 
e_StdList_sreverse
.o 2 0 
s15
	buildh _Nil 0
	swap_a1 
s90
	jmp_ne_desc _Cons 2 0 case.243
	repl_args 2 2
	buildho2 _Cons 0 2
	push_jsr_eval 2
	update2pop_a 0 3
.d 3 0 
	jmp s90
case.243
	fill_a 1 2
.d 1 0 
	pop_a_rtn 2
.export e_StdList_sfilter
.export e_StdList_eafilter
.descexp e_StdList_dfilter e_StdList_nfilter e_StdList_lfilter 2 0 "filter"
.a 2 e_StdList_eafilter
.o 2 0 
e_StdList_lfilter
	push_args 0 1 1
	update_a 2 1
	create 
.d 3 0 
	put_a_jmp 3 e_StdList_eafilter
.n 2 e_StdList_dfilter e_StdList_eafilter
.o 1 0 
e_StdList_nfilter
	push_node _cycle_in_spine 2
.o 3 0 
e_StdList_eafilter
	jsr_eval 1
.o 3 0 
e_StdList_sfilter
.o 3 0 
s14
	jmp_ne_desc _Cons 2 1 case.245
	push_args 1 2 2
	buildh _Nil 0
	updates2_a 3 0 4
	jsr_eval 0
	push_update_a 0 1
	jsr_ap 1
	pushB0_pop_a1 
	jmp_false else.246
	push_a2 1 2
	build e_StdList_dfilter 2 e_StdList_nfilter
	push_a 1
	fillh _Cons 2 6
.d 1 0 
	pop_a_rtn 4
else.246
	push_jsr_eval 1
	dup_a 4
.d 3 0 
	pop_a_jmp 3 s14
case.245
	fillh _Nil 0 2
.d 1 0 
	pop_a_rtn 2
.export e_StdList_sspan
.descexp e_StdList_dspan e_StdList_nspan e_StdList_lspan 2 0 "span"
.a 0 a13
.o 2 0 
e_StdList_lspan
	repl_args 1 1
.o 2 0 
a13
.d 2 0 
	jsr ea13
.o 2 0 
	buildh _Tuple 2
.d 1 0 
	rtn 
.n 2 e_StdList_dspan
.o 1 0 
e_StdList_nspan
	push_node _cycle_in_spine 2
.d 2 0 
	jsr ea13
.o 2 0 
	fillh _Tuple 2 2
.d 1 0 
	rtn 
.o 2 0 
ea13
	jsr_eval 1
.o 2 0 
e_StdList_sspan
.o 2 0 
s13
	jmp_ne_desc _Cons 2 1 case.248
	push_args 1 2 2
	push_jsr_eval 2
	push_update_a 0 1
	jsr_ap 1
	pushB0_pop_a1 
	jmp_false else.249
	push_a2 1 2
	build e_StdList_dspan 2 e_StdList_nspan
	buildo1 n_S.2 0
	buildo1 n_S.1 1
	push_a 3
	buildh _Cons 2
	update2pop_a 0 5
.d 2 0 
	rtn 
else.249
	pop_a 3
	buildh _Nil 0
.d 2 0 
	rtn 
case.248
	buildh0_dup_a _Nil 2
	pop_a 2
	buildh _Nil 0
.d 2 0 
	rtn 
.export e_StdList_sdropWhile
.export e_StdList_eadropWhile
.descexp e_StdList_ddropWhile e_StdList_ndropWhile e_StdList_ldropWhile 2 0 "dropWhile"
.a 2 e_StdList_eadropWhile
.o 2 0 
e_StdList_ldropWhile
	push_args 0 1 1
	update_a 2 1
	create 
.d 3 0 
	put_a_jmp 3 e_StdList_eadropWhile
.n 2 e_StdList_ddropWhile e_StdList_eadropWhile
.o 1 0 
e_StdList_ndropWhile
	push_node _cycle_in_spine 2
.o 3 0 
e_StdList_eadropWhile
	jsr_eval 1
.o 3 0 
e_StdList_sdropWhile
.o 3 0 
s12
	jmp_ne_desc _Cons 2 1 case.251
	push_args 1 2 2
	push_jsr_eval 2
	jsr_ap 1
	pushB0_pop_a1 
	jmp_false else.252
	jsr_eval 0
.d 3 0 
	put_a_jmp 2 s12
else.252
	fill_a 2 3
.d 1 0 
	pop_a_rtn 3
case.251
	fillh _Nil 0 2
.d 1 0 
	pop_a_rtn 2
.export e_StdList_sdrop
.export e_StdList_eadrop
.descexp e_StdList_ddrop e_StdList_ndrop e_StdList_ldrop 2 0 "drop"
.a 2 e_StdList_eadrop
.o 2 0 
e_StdList_ldrop
	push_args 0 1 1
	update_a 2 1
	create 
.d 3 0 
	put_a_jmp 3 e_StdList_eadrop
.n 2 e_StdList_ddrop e_StdList_eadrop
.o 1 0 
e_StdList_ndrop
	push_node _cycle_in_spine 2
.o 3 0 
e_StdList_eadrop
	jsr_eval 1
	jsr_eval 0
	pushI0_pop_a1 
.o 2 1 i
e_StdList_sdrop
.o 2 1 i
s11
	push_b 0
	pushI 0
	jmp_ltI else.254
	pop_b 1
.d 1 0 
	fill_a01_pop_rtn 
else.254
	jmp fail.253
fail.253
	jmp_ne_desc _Cons 2 0 case.256
	repl_arg 2 2
	jsr_eval 0
	push_a 0
	decI
.d 2 1 i
	put_a_jmp 1 s11
case.256
	fillh _Nil 0 1
.d 1 0 
	pop_ab_rtn 1 1
.export e_StdList_stakeWhile
.export e_StdList_eatakeWhile
.descexp e_StdList_dtakeWhile e_StdList_ntakeWhile e_StdList_ltakeWhile 2 0 "takeWhile"
.a 2 e_StdList_eatakeWhile
.o 2 0 
e_StdList_ltakeWhile
	push_args 0 1 1
	update_a 2 1
	create 
.d 3 0 
	put_a_jmp 3 e_StdList_eatakeWhile
.n 2 e_StdList_dtakeWhile e_StdList_eatakeWhile
.o 1 0 
e_StdList_ntakeWhile
	push_node _cycle_in_spine 2
.o 3 0 
e_StdList_eatakeWhile
	jsr_eval 1
.o 3 0 
e_StdList_stakeWhile
.o 3 0 
s10
	jmp_ne_desc _Cons 2 1 case.258
	push_args 1 2 2
	buildh _Nil 0
	updates2_a 3 0 4
	jsr_eval 0
	push_update_a 0 1
	jsr_ap 1
	pushB0_pop_a1 
	jmp_false else.259
	push_a2 1 2
	build e_StdList_dtakeWhile 2 e_StdList_ntakeWhile
	push_a 1
	fillh _Cons 2 6
.d 1 0 
	pop_a_rtn 4
else.259
	fillh _Nil 0 4
.d 1 0 
	pop_a_rtn 4
case.258
	fillh _Nil 0 2
.d 1 0 
	pop_a_rtn 2
.export e_StdList_stake
.export e_StdList_eatake
.descexp e_StdList_dtake e_StdList_ntake e_StdList_ltake 2 0 "take"
.a 2 e_StdList_eatake
.o 2 0 
e_StdList_ltake
	push_args 0 1 1
	update_a 2 1
	create 
.d 3 0 
	put_a_jmp 3 e_StdList_eatake
.n 2 e_StdList_dtake e_StdList_eatake
.o 1 0 
e_StdList_ntake
	push_node _cycle_in_spine 2
.o 3 0 
e_StdList_eatake
	jsr_eval 0
	pushI0_pop_a1 
.o 2 1 i
e_StdList_stake
.o 2 1 i
s9
	push_b 0
	pushI 0
	jmp_ltI else.260
	fillh _Nil 0 1
.d 1 0 
	pop_ab_rtn 1 1
else.260
	jsr_eval 0
s89
	jmp_ne_desc _Cons 2 0 case.262
	repl_args 2 2
	push_b 0
	pushI 1
	jmp_ltI else.263
	buildh _Nil 0
	push_a 1
	fillh _Cons 2 4
.d 1 0 
	pop_ab_rtn 2 1
else.263
	push_ab 1 0
	build_u e_StdList_d_f5.170 1 1 e_StdList_n_f5.170
	push_a 1
	fillh _Cons 2 4
.d 1 0 
	pop_ab_rtn 2 1
case.262
	fillh _Nil 0 1
.d 1 0 
	pop_ab_rtn 1 1
.export e_StdList_d_f5.170
.export e_StdList_n_f5.170
.descn e_StdList_d_f5.170 e_StdList_n_f5.170 2 0 "_f5.170"
.nu 1 1 e_StdList_d_f5.170 _
.o 1 0 
e_StdList_n_f5.170
	push_node_u _cycle_in_spine 1 1
.o 2 1 i
ea170
.o 2 1 i
s170
	jsr_eval 0
	push_a 0
	decI
.d 2 1 i
	put_a_jmp 1 s89
.export e_StdList_sinit
.export e_StdList_eainit
.descexp e_StdList_dinit e_StdList_ninit e_StdList_linit 1 0 "init"
.o 2 0 
e_StdList_linit
	update_a 1 0
	create 
.d 2 0 
	put_a_jmp 2 e_StdList_eainit
.n 1 e_StdList_dinit e_StdList_eainit
.o 1 0 
e_StdList_ninit
	push_node _cycle_in_spine 1
.o 2 0 
e_StdList_eainit
	jsr_eval 0
.o 2 0 
e_StdList_sinit
.o 2 0 
s8
	jmp_ne_desc _Nil 0 0 case.265
	fillh _Nil 0 1
.d 1 0 
	pop_a_rtn 1
case.265
	repl_args 2 2
	jsr_eval 1
	jmp_ne_desc _Nil 0 1 case.267
	fillh _Nil 0 2
.d 1 0 
	pop_a_rtn 2
case.267
	buildo1 e_StdList_ninit 1
	push_a 1
	fillh _Cons 2 4
.d 1 0 
	pop_a_rtn 2
.export e_StdList_slast
.descexp e_StdList_dlast e_StdList_nlast e_StdList_llast 1 0 "last"
.o 2 0 
e_StdList_llast
.d 1 0 
	pop_a_jmp 1 ea7
.n 1 e_StdList_dlast _
.o 1 0 
e_StdList_nlast
	push_node _cycle_in_spine 1
.d 1 0 
	jsr ea7
.o 1 0 
.d 1 0 
	fill_a01_pop_rtn 
.o 1 0 
ea7
	jsr_eval 0
.o 1 0 
e_StdList_slast
.o 1 0 
s7
	jmp_ne_desc _Cons 2 0 case.269
	repl_args 2 2
	jsr_eval 1
	jmp_ne_desc _Nil 0 1 case.271
	put_a 1
	jmp_eval
case.271
.d 1 0 
	pop_a_jmp 1 s7
case.269
	buildAC "last of []"
	put_a 1
.d 1 0 
	jsr print_string_
.o 0 0 
	halt
.d 1 0 
	rtn 
.export e_StdList_stl
.export e_StdList_eatl
.descexp e_StdList_dtl e_StdList_ntl e_StdList_ltl 1 0 "tl"
.o 2 0 
e_StdList_ltl
	update_a 1 0
	create 
.d 2 0 
	put_a_jmp 2 e_StdList_eatl
.n 1 e_StdList_dtl e_StdList_eatl
.o 1 0 
e_StdList_ntl
	push_node _cycle_in_spine 1
.o 2 0 
e_StdList_eatl
	jsr_eval 0
.o 2 0 
e_StdList_stl
.o 2 0 
s6
	jmp_ne_desc _Cons 2 0 case.273
	repl_arg 2 2
	jmp_eval_upd
case.273
	buildAC "tl of []"
	put_a 1
.d 1 0 
	jsr print_string_
.o 0 0 
	halt
.d 1 0 
	fill_a01_pop_rtn 
.export e_StdList_shd
.descexp e_StdList_dhd e_StdList_nhd e_StdList_lhd 1 0 "hd"
.o 2 0 
e_StdList_lhd
.d 1 0 
	pop_a_jmp 1 ea5
.n 1 e_StdList_dhd _
.o 1 0 
e_StdList_nhd
	push_node _cycle_in_spine 1
.d 1 0 
	jsr ea5
.o 1 0 
.d 1 0 
	fill_a01_pop_rtn 
.o 1 0 
ea5
	jsr_eval 0
.o 1 0 
e_StdList_shd
.o 1 0 
s5
	jmp_ne_desc _Cons 2 0 case.275
	repl_args 2 2
	put_a 1
	jmp_eval
case.275
	buildAC "hd of []"
	put_a 1
.d 1 0 
	jsr print_string_
.o 0 0 
	halt
.d 1 0 
	rtn 
.export e_StdList_sisEmpty
.descexp e_StdList_disEmpty e_StdList_nisEmpty e_StdList_lisEmpty 1 0 "isEmpty"
.o 2 0 
e_StdList_lisEmpty
.d 1 0 
	pop_a_jsr 1 ea4
.o 0 1 b
	buildB_b 0
.d 1 0 
	pop_b_rtn 1
.n 1 e_StdList_disEmpty
.o 1 0 
e_StdList_nisEmpty
	push_node _cycle_in_spine 1
.d 1 0 
	jsr ea4
.o 0 1 b
	fillB_b 0 0
.d 1 0 
	pop_b_rtn 1
.o 1 0 
ea4
	jsr_eval 0
.o 1 0 
e_StdList_sisEmpty
.o 1 0 
s4
	eq_desc _Nil 0 0
.d 0 1 b
	pop_a_rtn 1
.export e_StdList_sflatten
.export e_StdList_eaflatten
.descexp e_StdList_dflatten e_StdList_nflatten e_StdList_lflatten 1 0 "flatten"
.o 2 0 
e_StdList_lflatten
	update_a 1 0
	create 
.d 2 0 
	put_a_jmp 2 e_StdList_eaflatten
.n 1 e_StdList_dflatten e_StdList_eaflatten
.o 1 0 
e_StdList_nflatten
	push_node _cycle_in_spine 1
.o 2 0 
e_StdList_eaflatten
	jsr_eval 0
.o 2 0 
e_StdList_sflatten
.o 2 0 
s3
	jmp_ne_desc _Cons 2 0 case.277
	repl_args 2 2
	buildo1 e_StdList_nflatten 1
	push_jsr_eval 1
	update2pop_a 0 2
.d 3 0 
	jmp s2
case.277
	fillh _Nil 0 1
.d 1 0 
	pop_a_rtn 1
.export e_StdList_s++
.export e_StdList_ea++
.descexp e_StdList_d++ e_StdList_n++ e_StdList_l++ 2 0 "++"
.a 2 e_StdList_ea++
.o 2 0 
e_StdList_l++
	push_args 0 1 1
	update_a 2 1
	create 
.d 3 0 
	put_a_jmp 3 e_StdList_ea++
.n 2 e_StdList_d++ e_StdList_ea++
.o 1 0 
e_StdList_n++
	push_node _cycle_in_spine 2
.o 3 0 
e_StdList_ea++
	jsr_eval 0
.o 3 0 
e_StdList_s++
.o 3 0 
s2
	jmp_ne_desc _Cons 2 0 case.279
	repl_args 2 2
	push2_a 2
	build e_StdList_d++ 2 e_StdList_n++
	push_a 1
	fillh _Cons 2 5
.d 1 0 
	pop_a_rtn 3
case.279
	pop_a 1
	jmp_eval_upd
.export e_StdList_s!!
.descexp e_StdList_d!! e_StdList_n!! e_StdList_l!! 2 0 "!!"
.a 0 ea1
.o 2 0 
e_StdList_l!!
	repl_args 1 1
.d 2 0 
	jmp ea1
.n 2 e_StdList_d!! _
.o 1 0 
e_StdList_n!!
	push_node _cycle_in_spine 2
.d 2 0 
	jsr ea1
.o 1 0 
.d 1 0 
	fill_a01_pop_rtn 
.o 2 0 
ea1
	jsr_eval 1
	jsr_eval 0
	pushI_a 1
	put_a 1
.o 1 1 i
e_StdList_s!!
.o 1 1 i
s1
	jmp_ne_desc _Nil 0 0 case.281
	pop_b 1
.d 0 0 
	pop_a_jmp 1 s87
case.281
s88
	jmp_ne_desc _Cons 2 0 case.283
	repl_args 2 2
	jmp_neI_b 0 0 case.285
	put_a 1
	pop_b 1
	jmp_eval
case.285
	decI
	pop_a 1
	jsr_eval 0
.d 1 1 i
	jmp s88
case.283
	pop_b 1
.d 0 0 
	pop_a_jmp 1 s87
.o 0 0 
s87
	buildAC "Subscript error in !!,index too large"
.d 1 0 
	jsr print_string_
.o 0 0 
	halt
.d 1 0 
	rtn 
.o 2 0 
s164
	jmp_ne_desc _Cons 2 0 case.287
	repl_args 2 2
	buildho2 _Cons 0 2
	dup_a 3
	pushB TRUE
.d 2 1 b
	pop_a_rtn 2
case.287
	pop_a 1
	buildh _Nil 0
	pushB FALSE
.d 2 1 b
	rtn 
