.comp 920 000011110011000
.start _nostart_
.depend "Text" "20210613122637"
.depend "Control.Monad.Trans" "20210613122637"
.depend "StdMaybe" "20210613122638"
.depend "Data.Maybe" "20210613122637"
.depend "_SystemStrictMaybes" "20210613122638"
.depend "System.OS" "20210613122637"
.depend "Text.HTML" "20210613122638"
.depend "Text.GenJSON" "20210613122637"
.depend "StdFile" "20210613122638"
.depend "StdString" "20210613122638"
.depend "Internet.HTTP" "20210613122637"
.depend "Control.Monad.Fail" "20210613122637"
.depend "Data.Traversable" "20210613122637"
.depend "StdMisc" "20210613122638"
.depend "StdOverloadedList" "20210613122638"
.depend "Data.List" "20210613122637"
.depend "Data.Foldable" "20210613122637"
.depend "Data.Set" "20210613122637"
.depend "Data.GenLexOrd" "20210613122637"
.depend "StdFunctions" "20210613122638"
.depend "StdFunc" "20210613122638"
.depend "Data.Map" "20210613122637"
.depend "_SystemEnumStrict" "20210613122638"
.depend "_SystemStrictLists" "20210613122638"
.depend "StdStrictLists" "20210613122638"
.depend "StdGeneric" "20210613122638"
.depend "Data.GenEq" "20210613122637"
.depend "StdReal" "20210613122638"
.depend "StdChar" "20210613122638"
.depend "StdInt" "20210613122638"
.depend "StdBool" "20210613122638"
.depend "StdClass" "20210613122638"
.depend "StdList" "20210613122638"
.depend "Data.Monoid" "20210613122637"
.depend "Control.Applicative" "20210613122637"
.depend "Control.Monad" "20210613122637"
.depend "Data.Functor" "20210613122637"
.depend "Data.Error" "20210613122637"
.depend "StdOverloaded" "20210613122638"
.depend "_SystemDynamic" "20210613122638"
.depend "iTasks.Internal.HtmlUtil" "20210613122637"
.module m_iTasks.Internal.HtmlUtil "iTasks.Internal.HtmlUtil" "20210613122637"
.endinfo
.impmod _system
.implab _cycle_in_spine
.implab _type_error
.implab _hnf
.impdesc e_system_dind
.implab e_system_nind e_system_eaind
.impdesc e_system_dif
.implab e_system_nif e_system_eaif
.implab e_system_sif
.impdesc e_system_dAP
.implab e_system_nAP e_system_eaAP
.implab e_system_sAP
.impdesc ARRAY
.impdesc _Nil
.impdesc _Cons
.impdesc _Conss
.implab n_Conss ea_Conss
.impdesc _Consts
.implab n_Consts ea_Consts
.impdesc _Conssts
.implab n_Conssts ea_Conssts
.impdesc _Tuple
.impdesc d_S.1
.implab n_S.1 ea_S.1
.impdesc d_S.2
.implab n_S.2 ea_S.2
.impdesc d_S.3
.implab n_S.3 ea_S.3
.impdesc d_S.4
.implab n_S.4 ea_S.4
.impdesc d_S.5
.implab n_S.5 ea_S.5
.impdesc d_S.6
.implab n_S.6 ea_S.6
.implab _driver
.impmod Text
.impdesc e_Text_dindexOf;7
.implab e_Text_sindexOf;7
.implab e_Text_nindexOf;7
.implab e_Text_sreplaceSubString;13
.implab e_Text_ssplit;16
.implab e_Text_ssubString;18
.implab e_Text_stextSize;19
.impmod Text.HTML
.impdesc e_Text.HTML_dtoString;7
.implab e_Text.HTML_ntoString;7
.impdesc e_Text.HTML_dhtml;29
.impdesc e_Text.HTML_dhtml;30
.implab e_Text.HTML_shtml;30
.impmod StdString
.implab e_StdString_s<;3
.implab e_StdString_s+++;11
.impmod Internet.HTTP
.implab e_Internet.HTTP_snotfoundResponse
.impmod StdInt
.implab e_StdInt_s+;6
.implab e_StdInt_s-;7
.implab e_StdInt_s==;16
.implab e_StdInt_s<;17
.impmod StdBool
.implab e_StdBool_snot
.impmod StdList
.impdesc e_StdList_d++
.implab e_StdList_n++ e_StdList_ea++
.impmod Text.HTML
.impdesc e_Text.HTML_kText
.impdesc e_Text.HTML_dText
.implab e_Text.HTML_nText e_Text.HTML_eaText
.impdesc e_Text.HTML_kHtml
.impdesc e_Text.HTML_kBodyTag
.impdesc e_Text.HTML_kBrTag
.impdesc e_Text.HTML_kDivTag
.impdesc e_Text.HTML_dDivTag
.implab e_Text.HTML_nDivTag e_Text.HTML_eaDivTag
.impdesc e_Text.HTML_kH1Tag
.impdesc e_Text.HTML_kHeadTag
.impdesc e_Text.HTML_kHtmlTag
.impdesc e_Text.HTML_kPTag
.impdesc e_Text.HTML_kStrongTag
.impdesc e_Text.HTML_kStyleTag
.impdesc e_Text.HTML_kTitleTag
.impdesc e_Text.HTML_kClassAttr
.impdesc e_Text.HTML_kIdAttr
.impdesc e_Text.HTML_kTypeAttr
.impdesc e_Text.HTML_rhtml;
.impmod Internet.HTTP
.impdesc e_Internet.HTTP_dHTTPRequest.req_path
.implab e_Internet.HTTP_nHTTPRequest.req_path
.impmod Data.Map
.impdesc e_Data.Map_kBin
.impdesc e_Data.Map_dTip
.export e_iTasks.Internal.HtmlUtil_shtml2text
.descexp e_iTasks.Internal.HtmlUtil_dhtml2text e_iTasks.Internal.HtmlUtil_nhtml2text e_iTasks.Internal.HtmlUtil_lhtml2text 1 0 "html2text"
.o 2 0
e_iTasks.Internal.HtmlUtil_lhtml2text
	pop_a 1
.d 1 0
	jsr ea5
.o 1 0
	buildh ARRAY 1
.d 1 0
	rtn
.n 1 e_iTasks.Internal.HtmlUtil_dhtml2text
.o 1 0
e_iTasks.Internal.HtmlUtil_nhtml2text
	push_node _cycle_in_spine 1
.d 1 0
	jsr ea5
.o 1 0
	fillh ARRAY 1 1
.d 1 0
	rtn
.o 1 0
ea5
	jsr_eval 0
	push_array 0
	update_a 0 1
	pop_a 1
.o 1 0
e_iTasks.Internal.HtmlUtil_shtml2text
.o 1 0
s5
	push_a 0
	buildAC "\r\n"
	buildAC "<br>"
	update_a 2 3
	update_a 1 2
	updatepop_a 0 1
.d 3 0
	jsr e_Text_sreplaceSubString;13
.o 1 0
	buildAC "\r\n"
	buildAC "<BR>"
.d 3 0
	jsr e_Text_sreplaceSubString;13
.o 1 0
	buildAC "\r\n"
	buildAC "<br/>"
.d 3 0
	jsr e_Text_sreplaceSubString;13
.o 1 0
	buildAC "\r\n"
	buildAC "<BR/>"
.d 3 0
	jsr e_Text_sreplaceSubString;13
.o 1 0
	buildAC "\r\n"
	buildAC "</li>"
.d 3 0
	jsr e_Text_sreplaceSubString;13
.o 1 0
.d 1 0
	jsr s10
.o 1 0
	buildAC " "
	buildAC "&nbsp;"
.d 3 0
	jsr e_Text_sreplaceSubString;13
.o 1 0
	buildAC "<"
	buildAC "&lt;"
.d 3 0
	jsr e_Text_sreplaceSubString;13
.o 1 0
	buildAC ">"
	buildAC "&gt;"
.d 3 0
	jsr e_Text_sreplaceSubString;13
.o 1 0
	buildAC "&"
	buildAC "&amp;"
.d 3 0
	jmp e_Text_sreplaceSubString;13
.o 1 0
s10
	push_a 0
	buildAC "<"
.d 2 0
	jsr e_Text_sindexOf;7
.o 0 1 i
	push_a 0
	buildh ARRAY 1
	buildAC ">"
	buildh ARRAY 1
	build e_Text_dindexOf;7 2 e_Text_nindexOf;7
	pushI -1
	push_b 1
	eqI
	notB
	jmp_false else.1
	push_a 0
	jsr_eval 0
	pushI_a 1
	pop_a 1
	pushI -1
	push_b 1
	update_b 1 2
	update_b 0 1
	pop_b 1
	eqI
	notB
	jmp_false else.1
	pushI_a 0
	push_b 1
	ltI
	jmp_false else.1
	push_a 0
	jsr_eval 0
	pushI_a 1
	pop_a 1
	push_a 1
.d 1 0
	jsr e_Text_stextSize;19
.o 0 1 i
	subI
	pushI 1
	pushI_a 0
	addI
	push_a 1
	updatepop_a 0 1
.d 1 2 ii
	jsr e_Text_ssubString;18
.o 1 0
	push_a 1
	push_b 0
	pushI 0
	update_b 1 2
	updatepop_b 0 1
	buildh _Nil 0
	update_a 0 3
	pop_a 1
.d 1 2 ii
	jsr e_Text_ssubString;18
.o 1 0
	update_a 1 2
	updatepop_a 0 1
.d 2 0
	jsr catAC
.o 1 0
.d 1 0
	jmp s10
else.1
	pop_a 1
	pop_b 1
.d 1 0
	rtn
.export e_iTasks.Internal.HtmlUtil_snl2br
.export e_iTasks.Internal.HtmlUtil_eanl2br
.descexp e_iTasks.Internal.HtmlUtil_dnl2br e_iTasks.Internal.HtmlUtil_nnl2br e_iTasks.Internal.HtmlUtil_lnl2br 1 0 "nl2br"
.o 2 0
e_iTasks.Internal.HtmlUtil_lnl2br
	update_a 1 0
	create
	update_a 0 2
	pop_a 1
.d 2 0
	jmp e_iTasks.Internal.HtmlUtil_eanl2br
.n 1 e_iTasks.Internal.HtmlUtil_dnl2br e_iTasks.Internal.HtmlUtil_eanl2br
.o 1 0
e_iTasks.Internal.HtmlUtil_nnl2br
	push_node _cycle_in_spine 1
.o 2 0
e_iTasks.Internal.HtmlUtil_eanl2br
	jsr_eval 0
	push_array 0
	update_a 0 1
	pop_a 1
.o 2 0
e_iTasks.Internal.HtmlUtil_snl2br
.o 2 0
s4
	create
	push_a 1
	buildAC "\r\n"
	update_a 2 3
	update_a 1 2
	updatepop_a 0 1
.d 3 0
	jsr e_Text_ssplit;16
.o 1 0
	create
	push_a 1
	update_a 1 2
	update_a 0 1
	pop_a 1
.d 2 0
	jsr s9
.o 1 0
	buildh e_Text.HTML_dhtml;29 0
	buildhr e_Text.HTML_rhtml; 1 0
	buildh e_Text.HTML_dhtml;30 1
.d 3 0
	jmp e_Text.HTML_shtml;30
.export e_iTasks.Internal.HtmlUtil_dc;56;40;8.9
.export e_iTasks.Internal.HtmlUtil_nc;56;40;8.9
.descn e_iTasks.Internal.HtmlUtil_dc;56;40;8.9 e_iTasks.Internal.HtmlUtil_nc;56;40;8.9 1 0 "c;56;40;8.9"
.n 1 e_iTasks.Internal.HtmlUtil_dc;56;40;8.9 ea9
.o 1 0
e_iTasks.Internal.HtmlUtil_nc;56;40;8.9
	push_node _cycle_in_spine 1
.o 2 0
ea9
	jsr_eval 0
.o 2 0
s9
	push_a 0
	updatepop_a 0 1
.d 2 0
	jmp s23
.o 2 0
s23
	eq_desc _Cons 2 0
	jmp_true case.4
	jmp case.5
case.4
	repl_args 2 2
	push_a 1
	build e_iTasks.Internal.HtmlUtil_dc;56;40;8.9 1 e_iTasks.Internal.HtmlUtil_nc;56;40;8.9
	buildh _Nil 0
	buildh _Nil 0
	buildhr e_Text.HTML_kBrTag 1 0
	buildh _Cons 2
	push_a 2
	build e_Text.HTML_dText 1 e_Text.HTML_nText
	buildh _Cons 2
	fillh _Cons 2 4
	pop_a 2
.d 1 0
	rtn
case.5
	fillh _Nil 0 1
	pop_a 1
.d 1 0
	rtn
.export e_iTasks.Internal.HtmlUtil_shasParam
.descexp e_iTasks.Internal.HtmlUtil_dhasParam e_iTasks.Internal.HtmlUtil_nhasParam e_iTasks.Internal.HtmlUtil_lhasParam 2 0 "hasParam"
.a 0 a3
.o 2 0
e_iTasks.Internal.HtmlUtil_lhasParam
	repl_args 1 1
.o 2 0
a3
.d 2 0
	jsr ea3
.o 0 1 b
	buildB_b 0
	pop_b 1
.d 1 0
	rtn
.n 2 e_iTasks.Internal.HtmlUtil_dhasParam
.o 1 0
e_iTasks.Internal.HtmlUtil_nhasParam
	push_node _cycle_in_spine 2
.d 2 0
	jsr ea3
.o 0 1 b
	fillB_b 0 0
	pop_b 1
.d 1 0
	rtn
.o 2 0
ea3
	jsr_eval 1
	jsr_eval 0
	push_r_args 1 14 0
	push_array 14
	update_a 14 16
	update_a 12 14
	update_a 10 12
	update_a 8 10
	update_a 6 8
	update_a 4 6
	update_a 2 4
	update_a 0 2
	update_a 13 15
	update_a 11 13
	update_a 9 11
	update_a 7 9
	update_a 5 7
	update_a 3 5
	update_a 1 3
	pop_a 2
.o 15 0
e_iTasks.Internal.HtmlUtil_shasParam
.o 15 0
s3
	push_a 9
	jsr_eval 0
	create
	push_a 2
	buildh ARRAY 1
	push_a 2
	update_a 2 3
	update_a 0 2
	pop_a 1
.d 3 0
	jsr s17
.o 1 0
	eq_desc _Just 1 0
	pop_a 1
	jmp_false else.6
	pop_a 15
	pushB TRUE
.d 0 1 b
	rtn
else.6
	push_a 8
	jsr_eval 0
	create
	push_a 2
	buildh ARRAY 1
	push_a 2
	update_a 2 3
	update_a 0 2
	pop_a 1
	update_a 2 17
	update_a 1 16
	updatepop_a 0 15
.d 3 0
	jsr s18
.o 1 0
	eq_desc _Just 1 0
	pop_a 1
.d 0 1 b
	rtn
.o 3 0
s17
	eq_desc e_Data.Map_kBin 0 1
	jmp_true case.7
	jmp case.8
case.7
	push_r_args 1 4 1
	buildh _Nil 0
	update_a 0 6
	pop_a 1
	pop_b 1
	push_a 4
	jsr_eval 0
	push_array 0
	updatepop_a 0 1
	push_array 1
	push_a 1
	update_a 1 2
	update_a 0 1
	pop_a 1
.d 2 0
	jsr cmpAC
.o 0 1 i
	pushI 0
	gtI
	jmp_false else.9
	push_a 2
	push_a 5
	update_a 1 7
	updatepop_a 0 6
.d 3 0
	jmp s17
else.9
	push_array 4
	push_array 1
	update_a 3 4
	update_a 1 3
	updatepop_a 0 2
.d 2 0
	jsr cmpAC
.o 0 1 i
	pushI 0
	gtI
	jmp_false else.10
	push_a 1
	push_a 3
	update_a 1 5
	updatepop_a 0 4
.d 3 0
	jmp s17
else.10
	push_a 0
	fillh _Just 1 5
	pop_a 4
.d 1 0
	rtn
case.8
	fillh _Nothing 0 2
	pop_a 2
.d 1 0
	rtn
.o 3 0
s18
	eq_desc e_Data.Map_kBin 0 1
	jmp_true case.11
	jmp case.12
case.11
	push_r_args 1 4 1
	buildh _Nil 0
	update_a 0 6
	pop_a 1
	pop_b 1
	push_a 4
	jsr_eval 0
	push_array 0
	updatepop_a 0 1
	push_array 1
	push_a 1
	update_a 1 2
	update_a 0 1
	pop_a 1
.d 2 0
	jsr cmpAC
.o 0 1 i
	pushI 0
	gtI
	jmp_false else.13
	push_a 2
	push_a 5
	update_a 1 7
	updatepop_a 0 6
.d 3 0
	jmp s18
else.13
	push_array 4
	push_array 1
	update_a 3 4
	update_a 1 3
	updatepop_a 0 2
.d 2 0
	jsr cmpAC
.o 0 1 i
	pushI 0
	gtI
	jmp_false else.14
	push_a 1
	push_a 3
	update_a 1 5
	updatepop_a 0 4
.d 3 0
	jmp s18
else.14
	push_a 0
	fillh _Just 1 5
	pop_a 4
.d 1 0
	rtn
case.12
	fillh _Nothing 0 2
	pop_a 2
.d 1 0
	rtn
.export e_iTasks.Internal.HtmlUtil_sparamValue
.descexp e_iTasks.Internal.HtmlUtil_dparamValue e_iTasks.Internal.HtmlUtil_nparamValue e_iTasks.Internal.HtmlUtil_lparamValue 2 0 "paramValue"
.a 0 a2
.o 2 0
e_iTasks.Internal.HtmlUtil_lparamValue
	repl_args 1 1
.o 2 0
a2
.d 2 0
	jsr ea2
.o 1 0
	buildh ARRAY 1
.d 1 0
	rtn
.n 2 e_iTasks.Internal.HtmlUtil_dparamValue
.o 1 0
e_iTasks.Internal.HtmlUtil_nparamValue
	push_node _cycle_in_spine 2
.d 2 0
	jsr ea2
.o 1 0
	fillh ARRAY 1 1
.d 1 0
	rtn
.o 2 0
ea2
	jsr_eval 1
	jsr_eval 0
	push_r_args 1 14 0
	push_array 14
	update_a 14 16
	update_a 12 14
	update_a 10 12
	update_a 8 10
	update_a 6 8
	update_a 4 6
	update_a 2 4
	update_a 0 2
	update_a 13 15
	update_a 11 13
	update_a 9 11
	update_a 7 9
	update_a 5 7
	update_a 3 5
	update_a 1 3
	pop_a 2
.o 15 0
e_iTasks.Internal.HtmlUtil_sparamValue
.o 15 0
s2
.impmod Internet.HTTP
.impdesc e_Internet.HTTP_rHTTPRequest
	build_r e_Internet.HTTP_rHTTPRequest 14 0 1 0
	push_a 10
	jsr_eval 0
	create
	push_a 3
	buildh ARRAY 1
	push_a 2
	update_a 2 3
	update_a 0 2
	pop_a 1
	buildh _Nil 0
	update_a 0 6
	update_a 0 7
	update_a 0 8
	update_a 0 9
	update_a 0 10
	update_a 0 11
	update_a 0 12
	update_a 0 13
	update_a 0 14
	update_a 0 15
	update_a 0 16
	update_a 0 17
	update_a 0 18
	update_a 0 19
	pop_a 1
.d 3 0
	jsr s15
.o 1 0
	push_a 2
	push_a 1
	update_a 1 2
	update_a 0 1
	pop_a 1
	update_a 2 17
	update_a 1 16
	updatepop_a 0 15
.d 3 0
	jmp s20
.o 3 0
s20
	eq_desc _Just 1 0
	jmp_true case.15
	jmp case.16
case.15
	repl_args 1 1
	updatepop_a 0 2
	push_array 0
	updatepop_a 0 1
.d 1 0
	rtn
case.16
	push_r_args_a 2 14 0 8 1
	jsr_eval 0
	create
	push_a 3
	buildh ARRAY 1
	push_a 2
	update_a 2 3
	update_a 0 2
	pop_a 1
	update_a 2 5
	update_a 1 4
	updatepop_a 0 3
.d 3 0
	jsr s16
.o 1 0
.d 1 0
	jmp s19
.o 1 0
s19
	eq_desc _Just 1 0
	jmp_true case.17
	jmp case.18
case.17
	repl_args 1 1
	push_array 0
	updatepop_a 0 1
.d 1 0
	rtn
case.18
	pop_a 1
	buildAC ""
.d 1 0
	rtn
.o 3 0
s16
	eq_desc e_Data.Map_kBin 0 1
	jmp_true case.19
	jmp case.20
case.19
	push_r_args 1 4 1
	buildh _Nil 0
	update_a 0 6
	pop_a 1
	pop_b 1
	push_a 4
	jsr_eval 0
	push_array 0
	updatepop_a 0 1
	push_array 1
	push_a 1
	update_a 1 2
	update_a 0 1
	pop_a 1
.d 2 0
	jsr cmpAC
.o 0 1 i
	pushI 0
	gtI
	jmp_false else.21
	push_a 2
	push_a 5
	update_a 1 7
	updatepop_a 0 6
.d 3 0
	jmp s16
else.21
	push_array 4
	push_array 1
	update_a 3 4
	update_a 1 3
	updatepop_a 0 2
.d 2 0
	jsr cmpAC
.o 0 1 i
	pushI 0
	gtI
	jmp_false else.22
	push_a 1
	push_a 3
	update_a 1 5
	updatepop_a 0 4
.d 3 0
	jmp s16
else.22
	push_a 0
	fillh _Just 1 5
	pop_a 4
.d 1 0
	rtn
case.20
	fillh _Nothing 0 2
	pop_a 2
.d 1 0
	rtn
.o 3 0
s15
	eq_desc e_Data.Map_kBin 0 1
	jmp_true case.23
	jmp case.24
case.23
	push_r_args 1 4 1
	buildh _Nil 0
	update_a 0 6
	pop_a 1
	pop_b 1
	push_a 4
	jsr_eval 0
	push_array 0
	updatepop_a 0 1
	push_array 1
	push_a 1
	update_a 1 2
	update_a 0 1
	pop_a 1
.d 2 0
	jsr cmpAC
.o 0 1 i
	pushI 0
	gtI
	jmp_false else.25
	push_a 2
	push_a 5
	update_a 1 7
	updatepop_a 0 6
.d 3 0
	jmp s15
else.25
	push_array 4
	push_array 1
	update_a 3 4
	update_a 1 3
	updatepop_a 0 2
.d 2 0
	jsr cmpAC
.o 0 1 i
	pushI 0
	gtI
	jmp_false else.26
	push_a 1
	push_a 3
	update_a 1 5
	updatepop_a 0 4
.d 3 0
	jmp s15
else.26
	push_a 0
	fillh _Just 1 5
	pop_a 4
.d 1 0
	rtn
case.24
	fillh _Nothing 0 2
	pop_a 2
.d 1 0
	rtn
.export e_iTasks.Internal.HtmlUtil_snotFoundResponse
.descexp e_iTasks.Internal.HtmlUtil_dnotFoundResponse e_iTasks.Internal.HtmlUtil_nnotFoundResponse e_iTasks.Internal.HtmlUtil_lnotFoundResponse 1 0 "notFoundResponse"
.o 2 0
e_iTasks.Internal.HtmlUtil_lnotFoundResponse
	pop_a 1
.d 1 0
	jsr ea1
.o 5 0
.impdesc e_Internet.HTTP_rHTTPResponse
	buildhr e_Internet.HTTP_rHTTPResponse 5 0
.d 1 0
	rtn
.n 1 e_iTasks.Internal.HtmlUtil_dnotFoundResponse
.o 1 0
e_iTasks.Internal.HtmlUtil_nnotFoundResponse
	push_node _cycle_in_spine 1
.d 1 0
	jsr ea1
.o 5 0
	fill_r e_Internet.HTTP_rHTTPResponse 5 0 5 0 0
	pop_a 5
.d 1 0
	rtn
.o 1 0
ea1
	jsr_eval 0
	repl_r_args 14 0
.o 14 0
e_iTasks.Internal.HtmlUtil_snotFoundResponse
.o 14 0
s1
	build_r e_Internet.HTTP_rHTTPRequest 14 0 0 0
	build e_iTasks.Internal.HtmlUtil_dnotFoundPage.8 1 e_iTasks.Internal.HtmlUtil_nnotFoundPage.8
	build e_Text.HTML_dtoString;7 1 e_Text.HTML_ntoString;7
	buildh _Nil 0
	update_a 0 2
	update_a 0 3
	update_a 0 4
	update_a 0 5
	update_a 0 6
	update_a 0 7
	update_a 0 8
	update_a 0 9
	update_a 0 10
	update_a 0 11
	update_a 0 12
	update_a 0 13
	update_a 0 14
	update_a 0 15
	pop_a 1
.d 0 0
	jsr e_Internet.HTTP_snotfoundResponse
.o 5 0
	update_a 5 4
	update_a 4 19
	update_a 3 18
	update_a 2 17
	update_a 1 16
	updatepop_a 0 15
.d 5 0
	rtn
.export e_iTasks.Internal.HtmlUtil_dnotFoundPage.8
.export e_iTasks.Internal.HtmlUtil_nnotFoundPage.8
.descn e_iTasks.Internal.HtmlUtil_dnotFoundPage.8 e_iTasks.Internal.HtmlUtil_nnotFoundPage.8 1 0 "notFoundPage.8"
.n 1 e_iTasks.Internal.HtmlUtil_dnotFoundPage.8 ea8
.o 1 0
e_iTasks.Internal.HtmlUtil_nnotFoundPage.8
	push_node _cycle_in_spine 1
.o 2 0
ea8
	repl_r_args 14 0
.o 15 0
s8
	buildh _Nil 0
	buildh _Nil 0
	buildAC " could not be found."
	buildhr e_Text.HTML_kText 1 0
	buildh _Cons 2
	buildh _Nil 0
	push_a 4
	build e_Text.HTML_dText 1 e_Text.HTML_nText
	buildh _Cons 2
	buildh _Nil 0
	buildhr e_Text.HTML_kStrongTag 2 0
	buildh _Cons 2
	buildAC "The resource you tried to access "
	buildhr e_Text.HTML_kText 1 0
	buildh _Cons 2
	buildh _Nil 0
	buildAC "content"
	buildhr e_Text.HTML_kIdAttr 1 0
	buildh _Cons 2
	buildhr e_Text.HTML_kDivTag 2 0
	buildh _Cons 2
	buildAC ""
	buildAC "404 - Not Found"
	update_a 2 16
	update_a 1 15
	updatepop_a 0 14
.d 4 0
	jmp s7
.o 4 0
s7
	buildh _Nil 0
	buildh _Nil 0
	buildh _Nil 0
	buildh _Nil 0
	buildh _Nil 0
	push_a 6
	buildhr e_Text.HTML_kHtml 1 0
	buildh _Cons 2
	buildh _Nil 0
	buildAC "description"
	buildhr e_Text.HTML_kClassAttr 1 0
	buildh _Cons 2
	buildhr e_Text.HTML_kDivTag 2 0
	buildh _Cons 2
	buildh _Nil 0
	buildhr e_Text.HTML_kPTag 2 0
	buildh _Cons 2
	buildh _Nil 0
	push_a 4
	buildhr e_Text.HTML_kText 1 0
	buildh _Cons 2
	buildh _Nil 0
	buildhr e_Text.HTML_kH1Tag 2 0
	buildh _Cons 2
	push_a 5
	push_a 1
	update_a 1 2
	update_a 0 1
	pop_a 1
	build e_StdList_d++ 2 e_StdList_n++
	buildh _Nil 0
	buildAC "main"
	buildhr e_Text.HTML_kIdAttr 1 0
	buildh _Cons 2
	build e_Text.HTML_dDivTag 2 e_Text.HTML_nDivTag
	buildh _Cons 2
	buildh _Nil 0
	buildhr e_Text.HTML_kBodyTag 2 0
	buildh _Cons 2
	buildh _Nil 0
	build e_iTasks.Internal.HtmlUtil_dembeddedStyle.6 0 e_iTasks.Internal.HtmlUtil_nembeddedStyle.6
	buildh _Cons 2
	buildh _Nil 0
	push_a 3
	buildhr e_Text.HTML_kText 1 0
	buildh _Cons 2
	buildh _Nil 0
	buildhr e_Text.HTML_kTitleTag 2 0
	buildh _Cons 2
	buildh _Nil 0
	buildhr e_Text.HTML_kHeadTag 2 0
	buildh _Cons 2
	buildh _Nil 0
	fill_r e_Text.HTML_kHtmlTag 2 0 5 0 0
	pop_a 5
.d 1 0
	rtn
.export e_iTasks.Internal.HtmlUtil_dembeddedStyle.6
.export e_iTasks.Internal.HtmlUtil_nembeddedStyle.6
.descn e_iTasks.Internal.HtmlUtil_dembeddedStyle.6 e_iTasks.Internal.HtmlUtil_nembeddedStyle.6 0 0 "embeddedStyle.6"
.n 0 e_iTasks.Internal.HtmlUtil_dembeddedStyle.6 ea6
.o 1 0
e_iTasks.Internal.HtmlUtil_nembeddedStyle.6
	push_node _cycle_in_spine 0
.o 1 0
ea6
.o 1 0
s6
	buildh _Nil 0
	build e_iTasks.Internal.HtmlUtil_d_f0.110 0 e_iTasks.Internal.HtmlUtil_n_f0.110
	buildh _Cons 2
	buildh _Nil 0
	buildAC "text/css"
	buildhr e_Text.HTML_kTypeAttr 1 0
	buildh _Cons 2
	fill_r e_Text.HTML_kStyleTag 2 0 2 0 0
	pop_a 2
.d 1 0
	rtn
.export e_iTasks.Internal.HtmlUtil_d_f0.110
.export e_iTasks.Internal.HtmlUtil_n_f0.110
.descn e_iTasks.Internal.HtmlUtil_d_f0.110 e_iTasks.Internal.HtmlUtil_n_f0.110 0 0 "_f0.110"
.n 0 e_iTasks.Internal.HtmlUtil_d_f0.110 ea110
.o 1 0
e_iTasks.Internal.HtmlUtil_n_f0.110
	push_node _cycle_in_spine 0
.o 1 0
ea110
.o 1 0
s110
	buildAC "button {-moz-border-radius: 3px; }"
	buildAC "p { margin: 0px 0px 10px 0px; } "
.d 2 0
	jsr catAC
.o 1 0
	buildAC "h2 { margin: 5px 5px 5px 0px; font-weight: bold; font-size: 14px;  border: solid #999; border-width: 0px 0px 1px 0px;} "
.d 2 0
	jsr catAC
.o 1 0
	buildAC "h1 { margin: 10px 15px 10px 15px; font-weight: normal; font-size: 24px;} "
.d 2 0
	jsr catAC
.o 1 0
	buildAC ".json ul { padding-left: 15px;} "
.d 2 0
	jsr catAC
.o 1 0
	buildAC ".json { font-family: Courier, monotype; font-size: 12px;} "
.d 2 0
	jsr catAC
.o 1 0
	buildAC ".parameters th, { width: 150px; } "
.d 2 0
	jsr catAC
.o 1 0
	buildAC ".description { margin: 0px 15px 0px 15px; } "
.d 2 0
	jsr catAC
.o 1 0
	buildAC ".section { margin: 10px; padding: 5px; overflow: auto;} "
.d 2 0
	jsr catAC
.o 1 0
	buildAC ".buttons { padding: 5px; background-color: #3a81ad; } "
.d 2 0
	jsr catAC
.o 1 0
	buildAC "#content { padding: 10px; } "
.d 2 0
	jsr catAC
.o 1 0
	buildAC "#main {margin: 20px; background: #d1dded; border: solid 2px #3a81ad; -moz-border-radius: 5px; background: -moz-linear-gradient(bottom,  #d1dded,  #fff);} "
.d 2 0
	jsr catAC
.o 1 0
	buildAC ".field-error em {color: #f00; font-weight: bold} .field-error input {border-color: #f00;} "
.d 2 0
	jsr catAC
.o 1 0
	buildAC "body { background: #fff; font-family: Verdana, Arial, sans-serif; font-size: 12px;} th { text-align: left; } "
.d 2 0
	jsr catAC
.o 1 0
	fill_r e_Text.HTML_kHtml 1 0 1 0 0
	pop_a 1
.d 1 0
	rtn
