.comp 920 000011110011000
.start _nostart_
.depend "_SystemArray" "20210613144732"
.depend "StdArray" "20210613144732"
.depend "StdFile" "20210613144732"
.depend "symbols_in_program" "20210613144730"
.depend "_SystemStrictLists" "20210613144732"
.depend "StdReal" "20210613144732"
.depend "StdChar" "20210613144732"
.depend "StdInt" "20210613144732"
.depend "StdBool" "20210613144732"
.depend "StdClass" "20210613144732"
.depend "StdList" "20210613144732"
.depend "StdOverloaded" "20210613144732"
.depend "_SystemDynamic" "20210613144732"
.depend "ABC.Interpreter.Util" "20210613144730"
.impobj "abci_abc_instructions."
.impobj "abci_bcgen_instructions."
.impobj "abci_bytecode."
.impobj "abci_copy_host_to_interpreter."
.impobj "abci_copy_interpreter_to_host."
.impobj "abci_finalizers."
.impobj "abci_gc."
.impobj "abci_interface."
.impobj "abci_interpret."
.impobj "abci_parse."
.impobj "abci_strip."
.impobj "abci_util."
.implib "msvcrt_library"
.implib "kernel32_library"
.implib "ucrtbase_library"
.module m_ABC.Interpreter.Util "ABC.Interpreter.Util" "20210613144730"
.endinfo
.impmod _system
.implab _cycle_in_spine
.implab _type_error
.implab _hnf
.impdesc e_system_dind
.implab e_system_nind e_system_eaind
.impdesc e_system_dif
.implab e_system_nif e_system_eaif
.implab e_system_sif
.impdesc e_system_dAP
.implab e_system_nAP e_system_eaAP
.implab e_system_sAP
.impdesc ARRAY
.impdesc _Nil
.impdesc _Cons
.impdesc _Conss
.implab n_Conss ea_Conss
.impdesc _Consts
.implab n_Consts ea_Consts
.impdesc _Conssts
.implab n_Conssts ea_Conssts
.impdesc _Tuple
.impdesc d_S.1
.implab n_S.1 ea_S.1
.impdesc d_S.2
.implab n_S.2 ea_S.2
.impdesc d_S.3
.implab n_S.3 ea_S.3
.impdesc d_S.4
.implab n_S.4 ea_S.4
.impdesc d_S.5
.implab n_S.5 ea_S.5
.impdesc d_S.6
.implab n_S.6 ea_S.6
.implab _driver
.impmod _SystemArray
.impdesc e__SystemArray_d_createArray;16
.impdesc e__SystemArray_dcreateArray;17
.impdesc e__SystemArray_dreplace;18
.impdesc e__SystemArray_dselect;19
.impdesc e__SystemArray_dsize;20
.implab e__SystemArray_nsize;20
.impdesc e__SystemArray_dupdate;21
.impdesc e__SystemArray_duselect;22
.impdesc e__SystemArray_dusize;23
.impmod StdChar
.implab e_StdChar_stoChar;21
.impmod StdInt
.implab e_StdInt_s>>
.implab e_StdInt_s+;6
.implab e_StdInt_s-;7
.implab e_StdInt_s*;9
.implab e_StdInt_sone;11
.implab e_StdInt_s==;16
.implab e_StdInt_s<;17
.impmod StdBool
.implab e_StdBool_snot
.impmod StdList
.implab e_StdList_ssum;72
.impmod _SystemArray
.impdesc e__SystemArray_rArray;
.impmod symbols_in_program
.impdesc e_symbols_in_program_dSymbol.symbol_name
.implab e_symbols_in_program_nSymbol.symbol_name
.export e_ABC.Interpreter.Util_sparse
.export e_ABC.Interpreter.Util_eaparse
.descexp e_ABC.Interpreter.Util_dparse e_ABC.Interpreter.Util_nparse e_ABC.Interpreter.Util_lparse 2 0 "parse"
.a 2 e_ABC.Interpreter.Util_eaparse
.o 2 0
e_ABC.Interpreter.Util_lparse
	push_args 0 1 1
	update_a 2 1
	create
	update_a 0 3
	pop_a 1
.d 3 0
	jmp e_ABC.Interpreter.Util_eaparse
.n 2 e_ABC.Interpreter.Util_dparse e_ABC.Interpreter.Util_eaparse
.o 1 0
e_ABC.Interpreter.Util_nparse
	push_node _cycle_in_spine 2
.o 3 0
e_ABC.Interpreter.Util_eaparse
	jsr_eval 1
	jsr_eval 0
	push_array 1
	push_array 1
	update_a 1 3
	update_a 0 2
	pop_a 2
.o 3 0
e_ABC.Interpreter.Util_sparse
.o 3 0
s2
	push_a 1
	update_a 1 2
	updatepop_a 0 1
.d 1 0
	jsr s4
.o 0 1 i
	push_a 0
	updatepop_a 0 1
.d 1 0
	jsr s3
.o 0 1 i
	push_b 1
	push_b 1
.d 0 2 ii
	jsr s6
.o 0 1 i
	push_b 2
.d 0 1 i
	jsr s5
.o 0 1 b
	jmp_true then.1
	push_b 2
.d 0 1 i
	jsr s7
.o 0 1 b
	jmp_false else.1
then.1
	fillh _None 0 0
	pop_b 3
.d 1 0
	rtn
else.1
	pushI 0
	push_b 1
	eqI
	notB
	jmp_false else.3
	fillh _None 0 0
	pop_b 3
.d 1 0
	rtn
else.3
	push_b 1
	push_b 2
	update_b 1 2
	updatepop_b 0 1
.d 0 2 ii
	jsr s11
.o 0 1 i
	pushI 8
	push_b 2
	addI
.d 0 1 i
	jsr s12
.o 0 1 i
	push_b 1
.d 0 1 i
	jsr s7
.o 0 1 b
	jmp_false else.4
	fillh _None 0 0
	pop_b 4
.d 1 0
	rtn
else.4
	buildI_b 0
	fillh _Just 1 1
	pop_b 4
.d 1 0
	rtn
.export e_ABC.Interpreter.Util_sfree_char_provider_to_false
.descexp e_ABC.Interpreter.Util_dfree_char_provider_to_false e_ABC.Interpreter.Util_nfree_char_provider_to_false e_ABC.Interpreter.Util_lfree_char_provider_to_false 1 0 "free_char_provider_to_false"
.o 2 0
e_ABC.Interpreter.Util_lfree_char_provider_to_false
	pop_a 1
.d 1 0
	jsr ea5
.o 0 1 b
	buildB_b 0
	pop_b 1
.d 1 0
	rtn
.n 1 e_ABC.Interpreter.Util_dfree_char_provider_to_false
.o 1 0
e_ABC.Interpreter.Util_nfree_char_provider_to_false
	push_node _cycle_in_spine 1
.d 1 0
	jsr ea5
.o 0 1 b
	fillB_b 0 0
	pop_b 1
.d 1 0
	rtn
.o 1 0
ea5
	jsr_eval 0
	pushI_a 0
	pop_a 1
.o 0 1 i
e_ABC.Interpreter.Util_sfree_char_provider_to_false
.o 0 1 i
s5
	push_b 0
	pushB FALSE
	update_b 0 2
	pop_b 1
	ccall free_char_provider "p:V:I"
.d 0 1 b
	rtn
.export e_ABC.Interpreter.Util_sfree_to_false
.descexp e_ABC.Interpreter.Util_dfree_to_false e_ABC.Interpreter.Util_nfree_to_false e_ABC.Interpreter.Util_lfree_to_false 1 0 "free_to_false"
.o 2 0
e_ABC.Interpreter.Util_lfree_to_false
	pop_a 1
.d 1 0
	jsr ea7
.o 0 1 b
	buildB_b 0
	pop_b 1
.d 1 0
	rtn
.n 1 e_ABC.Interpreter.Util_dfree_to_false
.o 1 0
e_ABC.Interpreter.Util_nfree_to_false
	push_node _cycle_in_spine 1
.d 1 0
	jsr ea7
.o 0 1 b
	fillB_b 0 0
	pop_b 1
.d 1 0
	rtn
.o 1 0
ea7
	jsr_eval 0
	pushI_a 0
	pop_a 1
.o 0 1 i
e_ABC.Interpreter.Util_sfree_to_false
.o 0 1 i
s7
	push_b 0
	updatepop_b 0 1
.d 0 1 i
	jsr s10
.o 0 1 i
	pushI 0
	push_b 1
	eqI
	jmp_false else.5
	pushI 0
	push_b 1
	eqI
	updatepop_b 0 1
	notB
.d 0 1 b
	rtn
else.5
	pop_b 1
	pushB FALSE
.d 0 1 b
	rtn
.o 0 1 i
s10
	ccall free "p:I"
.d 0 1 i
	rtn
.o 0 2 ii
s11
	ccall free_parser "p:V:p"
.d 0 1 i
	rtn
.o 0 1 i
s12
	load_i 0
.d 0 1 i
	rtn
.export e_ABC.Interpreter.Util_sparse_program
.descexp e_ABC.Interpreter.Util_dparse_program e_ABC.Interpreter.Util_nparse_program e_ABC.Interpreter.Util_lparse_program 2 0 "parse_program"
.a 0 a6
.o 2 0
e_ABC.Interpreter.Util_lparse_program
	repl_args 1 1
.o 2 0
a6
.d 2 0
	jsr ea6
.o 0 1 i
	buildI_b 0
	pop_b 1
.d 1 0
	rtn
.n 2 e_ABC.Interpreter.Util_dparse_program
.o 1 0
e_ABC.Interpreter.Util_nparse_program
	push_node _cycle_in_spine 2
.d 2 0
	jsr ea6
.o 0 1 i
	fillI_b 0 0
	pop_b 1
.d 1 0
	rtn
.o 2 0
ea6
	jsr_eval 1
	jsr_eval 0
	pushI_a 1
	pushI_a 0
	pop_a 2
.o 0 2 ii
e_ABC.Interpreter.Util_sparse_program
.o 0 2 ii
s6
	ccall parse_program "pp:I"
.d 0 1 i
	rtn
.export e_ABC.Interpreter.Util_snew_parser
.descexp e_ABC.Interpreter.Util_dnew_parser e_ABC.Interpreter.Util_nnew_parser e_ABC.Interpreter.Util_lnew_parser 1 0 "new_parser"
.o 2 0
e_ABC.Interpreter.Util_lnew_parser
	pop_a 1
.d 1 0
	jsr ea3
.o 0 1 i
	buildI_b 0
	pop_b 1
.d 1 0
	rtn
.n 1 e_ABC.Interpreter.Util_dnew_parser
.o 1 0
e_ABC.Interpreter.Util_nnew_parser
	push_node _cycle_in_spine 1
.d 1 0
	jsr ea3
.o 0 1 i
	fillI_b 0 0
	pop_b 1
.d 1 0
	rtn
.o 1 0
ea3
	jsr_eval 0
	push_array 0
	update_a 0 1
	pop_a 1
.o 1 0
e_ABC.Interpreter.Util_snew_parser
.o 1 0
s3
	pushI 100
.d 0 1 i
	jsr s9
.o 0 1 i
	push_a 0
.impdesc e_symbols_in_program_rSymbol
	push_arraysize e_symbols_in_program_rSymbol 1 1
	push_a 0
	push_a 0
	push_arraysize e_symbols_in_program_rSymbol 1 1
	pushI 1
	push_b 1
	subI
	create
	push_a 1
	buildh ARRAY 1
	pushI 0
	update_b 1 2
	updatepop_b 0 1
	update_a 1 2
	updatepop_a 0 1
.d 2 2 ii
	jsr s18
.o 1 0
.d 1 0
	jsr e_StdList_ssum;72
.o 0 1 i
	push_b 0
	push_b 2
	build_u e_ABC.Interpreter.Util_d_f0.22 0 2 e_ABC.Interpreter.Util_n_f0.22
	buildh e__SystemArray_dusize;23 0
	buildh e__SystemArray_duselect;22 0
	buildh e__SystemArray_dupdate;21 0
	buildh e__SystemArray_dsize;20 0
	buildh e__SystemArray_dselect;19 0
	buildh e__SystemArray_dreplace;18 0
	buildh e__SystemArray_dcreateArray;17 0
	buildh e__SystemArray_d_createArray;16 0
.d 9 0
	jsr s8
.o 1 0
	push_array 0
	updatepop_a 0 1
	pushI 0
	pushI 0
	push_b 3
	push_a 1
	update_a 1 2
	updatepop_a 0 1
.d 2 3 iii
	jsr s19
.o 1 0
	push_b 2
	push_b 1
	push_b 3
	push_b 5
	update_b 3 6
	update_b 2 5
	update_b 1 4
	updatepop_b 0 3
.d 1 4 iiii
	jmp s15
.export e_ABC.Interpreter.Util_d_f0.22
.export e_ABC.Interpreter.Util_n_f0.22
.descn e_ABC.Interpreter.Util_d_f0.22 e_ABC.Interpreter.Util_n_f0.22 2 0 "_f0.22"
.nu 0 2 e_ABC.Interpreter.Util_d_f0.22 _
.o 1 0
e_ABC.Interpreter.Util_n_f0.22
	push_node_u _cycle_in_spine 0 2
.o 1 2 ii
ea22
.o 1 2 ii
s22
	pushI 9
	push_b 1
	mulI
	push_b 2
	push_b 1
	update_b 1 2
	update_b 0 1
	pop_b 1
	update_b 1 3
	updatepop_b 0 2
	addI
	fillI_b 0 0
	pop_b 1
.d 1 0
	rtn
.o 1 4 iiii
s15
	ccall init_parser "pIIs:V:p"
.d 0 1 i
	rtn
.export e_ABC.Interpreter.Util_screate_array_
.descexp e_ABC.Interpreter.Util_dcreate_array_ e_ABC.Interpreter.Util_ncreate_array_ e_ABC.Interpreter.Util_lcreate_array_ 2 0 "create_array_"
.a 0 ea8
.o 2 0
e_ABC.Interpreter.Util_lcreate_array_
	repl_args 1 1
.d 2 0
	jmp ea8
.n 2 e_ABC.Interpreter.Util_dcreate_array_ _
.o 1 0
e_ABC.Interpreter.Util_ncreate_array_
	push_node _cycle_in_spine 2
.d 2 0
	jsr ea8
.o 1 0
	fill_a 0 1
	pop_a 1
.d 1 0
	rtn
.o 2 0
ea8
	jsr_eval 0
	repl_r_args 8 0
.o 9 0
e_ABC.Interpreter.Util_screate_array_
.o 9 0
s8
	updatepop_a 0 7
	jmp_ap 1
.d 1 0
	rtn
.o 2 3 iii
s19
	push_b 0
	push_b 2
	eqI
	jmp_false else.6
	pop_a 1
	pop_b 3
.d 1 0
	rtn
else.6
	push_b 1
	push_a 0
	select e_symbols_in_program_rSymbol 1 1
	push_b 0
	push_a 2
	push_b 4
	push_b 1
	update_b 1 2
	update_b 0 1
	pop_b 1
	buildh _Nil 0
	update_a 0 4
	pop_a 1
.d 1 2 ii
	jsr s13
.o 1 1 i
	push_a 1
	push_arraysize CHAR 0 1
	push_a 1
	push_a 1
	push_b 1
	pushI 0
	push_a 1
	update_a 1 2
	update_a 0 1
	pop_a 1
	push_b 2
	update_b 2 3
	update_b 1 2
	update_b 0 1
	pop_b 1
	update_b 2 4
	update_b 1 3
	updatepop_b 0 2
	update_a 4 5
	update_a 1 4
	updatepop_a 0 3
.d 2 3 iii
	jsr s14
.o 1 1 i
	pushI 1
	push_b 3
	addI
	push_a 0
	push_b 1
	push_b 3
	push_a 2
	push_b 2
	update_b 2 3
	update_b 0 2
	pop_b 1
	update_a 1 3
	updatepop_a 0 2
	update_b 2 6
	update_b 1 5
	updatepop_b 0 4
.d 2 3 iii
	jmp s19
.o 2 3 iii
s14
	push_b 0
	push_b 2
	eqI
	jmp_false else.7
	pushC '\000'
	push_b 3
	push_a 1
	update_b 1 3
	updatepop_b 0 2
	updatepop_a 0 2
	update CHAR 0 1
	pushI 1
	push_b 1
	addI
	updatepop_b 0 1
.d 1 1 i
	rtn
else.7
	push_b 1
	push_a 0
	select CHAR 0 1
	push_b 3
	push_a 1
	update_a 1 2
	updatepop_a 0 1
	update CHAR 0 1
	pushI 1
	push_b 3
	addI
	pushI 1
	push_b 3
	addI
	push_b 2
	push_a 1
	update_a 1 2
	updatepop_a 0 1
	update_b 2 5
	update_b 1 4
	updatepop_b 0 3
.d 2 3 iii
	jmp s14
.o 1 2 ii
s13
	pushI 7
	pushI 0
	push_a 0
	push_b 3
	push_b 3
	update_b 3 4
	update_b 2 3
	update_b 1 2
	updatepop_b 0 1
	updatepop_a 0 1
.d 1 4 iiii
	jsr s17
.o 1 0
	pushI 8
	push_b 1
	addI
	updatepop_b 0 1
.d 1 1 i
	rtn
.o 1 4 iiii
s17
	push_b 2
	push_b 4
	ltI
	notB
	jmp_false else.8
	pushI 1
	push_b 3
	addI
	push_b 3
	pushI 8
	mulI
	push_b 2
	shiftr%
	ItoC
	push_b 4
	push_b 4
	addI
	push_a 0
	updatepop_a 0 1
	update CHAR 0 1
	push_b 4
	push_b 3
	push_b 3
	push_b 3
	update_b 3 4
	update_b 0 3
	pop_b 1
	update_b 3 7
	update_b 2 6
	update_b 1 5
	updatepop_b 0 4
.d 1 4 iiii
	jmp s17
else.8
	pop_b 4
.d 1 0
	rtn
.o 2 2 ii
s18
	push_b 0
	push_b 2
	ltI
	notB
	jmp_false else.9
	push_b 0
	push_array 0
	updatepop_a 0 1
	push_a 0
	select e_symbols_in_program_rSymbol 1 1
	push_a 1
	buildh ARRAY 1
	push_a 0
	push_b 2
	push_b 2
	build_u e_ABC.Interpreter.Util_d_f1.23 1 2 e_ABC.Interpreter.Util_n_f1.23
	push_a 2
	buildh ARRAY 1
	build e__SystemArray_dsize;20 1 e__SystemArray_nsize;20
	fillh _Cons 2 5
	pop_a 3
	pop_b 3
.d 1 0
	rtn
else.9
	fillh _Nil 0 1
	pop_a 1
	pop_b 2
.d 1 0
	rtn
.export e_ABC.Interpreter.Util_d_f1.23
.export e_ABC.Interpreter.Util_n_f1.23
.descn e_ABC.Interpreter.Util_d_f1.23 e_ABC.Interpreter.Util_n_f1.23 3 0 "_f1.23"
.nu 1 2 e_ABC.Interpreter.Util_d_f1.23 _
.o 1 0
e_ABC.Interpreter.Util_n_f1.23
	push_node_u _cycle_in_spine 1 2
.o 2 2 ii
ea23
.o 2 2 ii
s23
	pushI 1
	push_b 1
	addI
	push_a 0
	push_b 2
	push_b 1
	update_b 1 2
	update_b 0 1
	pop_b 1
	updatepop_a 0 1
	update_b 1 3
	updatepop_b 0 2
.d 2 2 ii
	jmp s18
.export e_ABC.Interpreter.Util_snew_string_char_provider
.descexp e_ABC.Interpreter.Util_dnew_string_char_provider e_ABC.Interpreter.Util_nnew_string_char_provider e_ABC.Interpreter.Util_lnew_string_char_provider 1 0 "new_string_char_provider"
.o 2 0
e_ABC.Interpreter.Util_lnew_string_char_provider
	pop_a 1
.d 1 0
	jsr ea4
.o 0 1 i
	buildI_b 0
	pop_b 1
.d 1 0
	rtn
.n 1 e_ABC.Interpreter.Util_dnew_string_char_provider
.o 1 0
e_ABC.Interpreter.Util_nnew_string_char_provider
	push_node _cycle_in_spine 1
.d 1 0
	jsr ea4
.o 0 1 i
	fillI_b 0 0
	pop_b 1
.d 1 0
	rtn
.o 1 0
ea4
	jsr_eval 0
	push_array 0
	update_a 0 1
	pop_a 1
.o 1 0
e_ABC.Interpreter.Util_snew_string_char_provider
.o 1 0
s4
	pushI 16
.d 0 1 i
	jsr s9
.o 0 1 i
	push_a 0
	push_arraysize CHAR 0 1
	push_b 1
	pushI 1
	push_a 0
	push_b 3
	push_b 3
	update_b 3 4
	update_b 2 3
	update_b 0 2
	pop_b 1
	updatepop_a 0 1
	update_b 3 4
	update_b 2 3
	update_b 1 2
	updatepop_b 0 1
.d 1 4 iiii
	jmp s16
.o 1 4 iiii
s16
	ccall new_string_char_provider "psII:V:p"
.d 0 1 i
	rtn
.o 0 1 i
s9
	ccall malloc "I:p"
.d 0 1 i
	rtn
.export e_ABC.Interpreter.Util_sensure_interpreter_init
.descexp e_ABC.Interpreter.Util_densure_interpreter_init e_ABC.Interpreter.Util_nensure_interpreter_init e_ABC.Interpreter.Util_lensure_interpreter_init 0 0 "ensure_interpreter_init"
.o 1 0
e_ABC.Interpreter.Util_lensure_interpreter_init
	halt
.n 0 e_ABC.Interpreter.Util_densure_interpreter_init
.o 1 0
e_ABC.Interpreter.Util_nensure_interpreter_init
	push_node _cycle_in_spine 0
.d 0 0
	jsr ea1
.o 0 1 b
	fillB_b 0 0
	pop_b 1
.d 1 0
	rtn
.o 0 0
ea1
.o 0 0
e_ABC.Interpreter.Util_sensure_interpreter_init
.o 0 0
s1
	ccall ensure_interpreter_init ":I"
.d 0 1 b
	rtn
