.comp 920 000111010010000
.start _nostart_
.depend "clCCall_12" "20210609153047"
.depend "StdBool" "20210609153010"
.depend "StdClass" "20210609153010"
.depend "commondef" "20210609153047"
.depend "ostime" "20210609153047"
.depend "clCrossCall_12" "20210609153047"
.depend "StdInt" "20210609153010"
.depend "osevent" "20210609153047"
.depend "systemid" "20210609153047"
.depend "device" "20210609153047"
.depend "id" "20210609153047"
.depend "oskey" "20210609153047"
.depend "StdKey" "20210609153047"
.depend "StdPicture" "20210609153047"
.depend "StdIOBasic" "20210609153047"
.depend "StdPictureDef" "20210609153047"
.depend "osfont" "20210609153047"
.depend "ostypes" "20210609153047"
.depend "ostoolbox" "20210609153047"
.depend "osrgn" "20210609153047"
.depend "ospicture" "20210609153047"
.depend "osbitmap" "20210609153049"
.depend "StdFile" "20210609153010"
.depend "_SystemStrictMaybes" "20210609153011"
.depend "StdMaybe" "20210609153011"
.depend "StdBitmap" "20210609153047"
.depend "StdString" "20210609153011"
.depend "StdOverloaded" "20210609153011"
.depend "StdIOCommon" "20210609153049"
.depend "StdFunctions" "20210609153011"
.depend "StdFunc" "20210609153011"
.depend "osfileselect" "20210609153047"
.impobj "cCrossCallFileSelectors_121."
.module m_osfileselect "osfileselect" "20210609153047"
.endinfo
.impmod _system
.implab _cycle_in_spine
.implab _type_error
.implab _hnf
.impdesc e_system_dind
.implab e_system_nind e_system_eaind
.impdesc e_system_dif
.implab e_system_nif e_system_eaif
.implab e_system_sif
.impdesc e_system_dAP
.implab e_system_nAP e_system_eaAP
.implab e_system_sAP
.impdesc ARRAY
.impdesc _Nil
.impdesc _Cons
.impdesc _Conss
.implab n_Conss ea_Conss
.impdesc _Consts
.implab n_Consts ea_Consts
.impdesc _Conssts
.implab n_Conssts ea_Conssts
.impdesc _Tuple
.impdesc d_S.1
.implab n_S.1 ea_S.1
.impdesc d_S.2
.implab n_S.2 ea_S.2
.impdesc d_S.3
.implab n_S.3 ea_S.3
.impdesc d_S.4
.implab n_S.4 ea_S.4
.impdesc d_S.5
.implab n_S.5 ea_S.5
.impdesc d_S.6
.implab n_S.6 ea_S.6
.implab _driver
.impmod clCCall_12
.implab e_clCCall_12_swinReleaseCString
.implab e_clCCall_12_swinGetCStringAndFree
.implab e_clCCall_12_swinMakeCString
.impmod commondef
.implab e_commondef_sfatalError
.impmod clCrossCall_12
.implab e_clCrossCall_12_sissueCleanRequest
.implab e_clCrossCall_12_sreturn0Cci
.impmod StdInt
.implab e_StdInt_s==;16
.impmod StdString
.implab e_StdString_stoString;5
.implab e_StdString_s+++;11
.impmod clCrossCall_12
.impdesc e_clCrossCall_12_rCrossCallInfo
.export e_osfileselect_sosSelectdirectory
.descexp e_osfileselect_dosSelectdirectory e_osfileselect_nosSelectdirectory e_osfileselect_losSelectdirectory 3 0 "osSelectdirectory"
.a 0 a4
.o 2 0
e_osfileselect_losSelectdirectory
	repl_args 2 2
.o 3 0
a4
.d 3 0
	jsr ea4
.o 2 2 bi
	buildI_b 1
	push_a 2
	push_a 2
	buildh ARRAY 1
	buildB_b 0
	buildh _Tuple 4
	updatepop_a 0 2
	pop_b 2
.d 1 0
	rtn
.n 3 e_osfileselect_dosSelectdirectory
.o 1 0
e_osfileselect_nosSelectdirectory
	push_node _cycle_in_spine 3
.d 3 0
	jsr ea4
.o 2 2 bi
	buildI_b 1
	push_a 2
	push_a 2
	buildh ARRAY 1
	buildB_b 0
	fillh _Tuple 4 6
	pop_a 2
	pop_b 2
.d 1 0
	rtn
.o 3 0
ea4
	jsr_eval 2
	jsr_eval 1
	jsr_eval 0
	pushI_a 2
	update_a 1 2
	update_a 0 1
	pop_a 1
.o 2 1 i
e_osfileselect_sosSelectdirectory
.o 2 1 i
s4
	pushI 0
	pushI 0
	pushI 0
	pushI 0
	pushI 0
	pushI 0
	pushI 1802
	push_a 0
	buildh d6 1
	push_b 7
	push_a 2
	push_a 1
	update_a 1 2
	update_a 0 1
	pop_a 1
	push_b 7
	update_b 1 8
	update_b 2 1
	update_b 3 2
	update_b 4 3
	update_b 5 4
	update_b 6 5
	update_b 7 6
	update_b 0 7
	pop_b 1
	update_b 7 8
	update_b 6 7
	update_b 5 6
	update_b 4 5
	update_b 3 4
	update_b 2 3
	update_b 1 2
	updatepop_b 0 1
	update_a 1 3
	updatepop_a 0 2
.d 2 8 iiiiiiii
	jsr e_clCrossCall_12_sissueCleanRequest
.o 1 8 iiiiiiii
	push_b 7
	push_b 7
	push_b 7
	push_b 7
	push_b 7
	push_b 7
	push_b 7
	push_b 7
	update_b 7 15
	update_b 6 14
	update_b 5 13
	update_b 4 12
	update_b 3 11
	update_b 2 10
	update_b 1 9
	updatepop_b 0 8
.d 0 8 iiiiiiii
	jsr s9
.o 1 2 bi
	push_b 1
	push_a 1
	push_a 1
	push_b 1
	update_a 1 3
	updatepop_a 0 2
	update_b 1 3
	updatepop_b 0 2
.d 2 2 bi
	rtn
.o 0 8 iiiiiiii
s9
	eqI_b 12 0
	jmp_true case.1
	eqI_b 1 0
	jmp_true case.2
	jmp case.3
case.1
	pushI 0
	push_b 2
	eqI
	jmp_false else.4
	push_b 7
	buildAC ""
	pushB FALSE
	update_b 1 9
	updatepop_b 0 8
.d 1 2 bi
	rtn
else.4
	push_b 7
	push_b 3
	update_b 1 9
	updatepop_b 0 8
.d 0 2 ii
	jsr e_clCCall_12_swinGetCStringAndFree
.o 1 1 i
	push_b 0
	push_a 0
	pushB TRUE
	updatepop_a 0 1
	update_b 1 2
	updatepop_b 0 1
.d 1 2 bi
	rtn
case.2
	push_b 7
	buildAC ""
	pushB FALSE
	update_b 1 9
	updatepop_b 0 8
.d 1 2 bi
	rtn
case.3
	push_b 0
	updatepop_b 0 8
.d 0 1 i
	jsr ItoAC
.o 1 0
	buildAC ")"
	push_a 1
	update_a 1 2
	update_a 0 1
	pop_a 1
.d 2 0
	jsr catAC
.o 1 0
	buildAC "unexpected ccMsg field of return CrossCallInfo ("
.d 2 0
	jsr catAC
.o 1 0
	buildAC "osSelectdirectory"
.d 2 0
	jsr s5
.o 1 0
	repl_args 3 3
	jsr_eval 2
	jsr_eval 1
	jsr_eval 0
	pushI_a 2
	push_array 1
	pushB_a 1
	update_a 0 3
	pop_a 3
.d 1 2 bi
	rtn
.export e_osfileselect_sosSelectoutputfile
.descexp e_osfileselect_dosSelectoutputfile e_osfileselect_nosSelectoutputfile e_osfileselect_losSelectoutputfile 5 0 "osSelectoutputfile"
.a 0 a3
.o 2 0
e_osfileselect_losSelectoutputfile
	repl_args 4 4
.o 5 0
a3
.d 5 0
	jsr ea3
.o 2 2 bi
	buildI_b 1
	push_a 2
	push_a 2
	buildh ARRAY 1
	buildB_b 0
	buildh _Tuple 4
	updatepop_a 0 2
	pop_b 2
.d 1 0
	rtn
.n 5 e_osfileselect_dosSelectoutputfile
.o 1 0
e_osfileselect_nosSelectoutputfile
	push_node _cycle_in_spine 5
.d 5 0
	jsr ea3
.o 2 2 bi
	buildI_b 1
	push_a 2
	push_a 2
	buildh ARRAY 1
	buildB_b 0
	fillh _Tuple 4 6
	pop_a 2
	pop_b 2
.d 1 0
	rtn
.o 5 0
ea3
	jsr_eval 4
	jsr_eval 3
	jsr_eval 2
	jsr_eval 1
	jsr_eval 0
	pushI_a 4
	push_array 3
	push_array 3
	update_a 1 6
	update_a 0 5
	update_a 3 4
	update_a 2 3
	pop_a 3
.o 4 1 i
e_osfileselect_sosSelectoutputfile
.o 4 1 i
s3
	push_b 0
	push_a 2
	updatepop_b 0 1
	buildh _Nil 0
	update_a 0 4
	pop_a 1
.d 1 1 i
	jsr e_clCCall_12_swinMakeCString
.o 0 2 ii
	push_b 1
	push_a 3
	update_a 2 4
	update_a 1 3
	updatepop_a 0 2
.d 1 1 i
	jsr e_clCCall_12_swinMakeCString
.o 0 2 ii
	pushI 0
	pushI 0
	pushI 0
	pushI 0
	push_b 4
	push_b 7
	pushI 1801
	push_a 0
	buildh d6 1
	push_b 8
	push_a 2
	push_a 1
	update_a 1 2
	update_a 0 1
	pop_a 1
	push_b 7
	update_b 1 8
	update_b 2 1
	update_b 3 2
	update_b 4 3
	update_b 5 4
	update_b 6 5
	update_b 7 6
	update_b 0 7
	pop_b 1
	update_a 1 3
	updatepop_a 0 2
.d 2 8 iiiiiiii
	jsr e_clCrossCall_12_sissueCleanRequest
.o 1 8 iiiiiiii
	push_b 7
	push_b 11
.d 0 2 ii
	jsr e_clCCall_12_swinReleaseCString
.o 0 1 i
	push_b 9
.d 0 2 ii
	jsr e_clCCall_12_swinReleaseCString
.o 0 1 i
	push_b 7
	push_b 7
	push_b 7
	push_b 7
	push_b 7
	push_b 7
	push_b 7
	update_b 7 15
	update_b 6 14
	update_b 5 13
	update_b 4 12
	update_b 3 11
	update_b 2 10
	update_b 1 9
	updatepop_b 0 8
.d 0 8 iiiiiiii
	jsr s8
.o 1 2 bi
	push_b 1
	push_a 1
	push_a 1
	push_b 1
	update_a 1 3
	updatepop_a 0 2
	update_b 1 7
	updatepop_b 0 6
.d 2 2 bi
	rtn
.o 0 8 iiiiiiii
s8
	eqI_b 12 0
	jmp_true case.5
	eqI_b 1 0
	jmp_true case.6
	jmp case.7
case.5
	pushI 0
	push_b 2
	eqI
	jmp_false else.8
	push_b 7
	buildAC ""
	pushB FALSE
	update_b 1 9
	updatepop_b 0 8
.d 1 2 bi
	rtn
else.8
	push_b 7
	push_b 3
	update_b 1 9
	updatepop_b 0 8
.d 0 2 ii
	jsr e_clCCall_12_swinGetCStringAndFree
.o 1 1 i
	push_b 0
	push_a 0
	pushB TRUE
	updatepop_a 0 1
	update_b 1 2
	updatepop_b 0 1
.d 1 2 bi
	rtn
case.6
	push_b 7
	buildAC ""
	pushB FALSE
	update_b 1 9
	updatepop_b 0 8
.d 1 2 bi
	rtn
case.7
	push_b 0
	updatepop_b 0 8
.d 0 1 i
	jsr ItoAC
.o 1 0
	buildAC ")"
	push_a 1
	update_a 1 2
	update_a 0 1
	pop_a 1
.d 2 0
	jsr catAC
.o 1 0
	buildAC "unexpected ccMsg field of return CrossCallInfo ("
.d 2 0
	jsr catAC
.o 1 0
	buildAC "osSelectoutputfile"
.d 2 0
	jsr s5
.o 1 0
	repl_args 3 3
	jsr_eval 2
	jsr_eval 1
	jsr_eval 0
	pushI_a 2
	push_array 1
	pushB_a 1
	update_a 0 3
	pop_a 3
.d 1 2 bi
	rtn
.export e_osfileselect_sosSelectinputfile
.descexp e_osfileselect_dosSelectinputfile e_osfileselect_nosSelectinputfile e_osfileselect_losSelectinputfile 3 0 "osSelectinputfile"
.a 0 a2
.o 2 0
e_osfileselect_losSelectinputfile
	repl_args 2 2
.o 3 0
a2
.d 3 0
	jsr ea2
.o 2 2 bi
	buildI_b 1
	push_a 2
	push_a 2
	buildh ARRAY 1
	buildB_b 0
	buildh _Tuple 4
	updatepop_a 0 2
	pop_b 2
.d 1 0
	rtn
.n 3 e_osfileselect_dosSelectinputfile
.o 1 0
e_osfileselect_nosSelectinputfile
	push_node _cycle_in_spine 3
.d 3 0
	jsr ea2
.o 2 2 bi
	buildI_b 1
	push_a 2
	push_a 2
	buildh ARRAY 1
	buildB_b 0
	fillh _Tuple 4 6
	pop_a 2
	pop_b 2
.d 1 0
	rtn
.o 3 0
ea2
	jsr_eval 2
	jsr_eval 1
	jsr_eval 0
	pushI_a 2
	update_a 1 2
	update_a 0 1
	pop_a 1
.o 2 1 i
e_osfileselect_sosSelectinputfile
.o 2 1 i
s2
	pushI 0
	pushI 0
	pushI 0
	pushI 0
	pushI 0
	pushI 0
	pushI 1800
	push_a 0
	buildh d6 1
	push_b 7
	push_a 2
	push_a 1
	update_a 1 2
	update_a 0 1
	pop_a 1
	push_b 7
	update_b 1 8
	update_b 2 1
	update_b 3 2
	update_b 4 3
	update_b 5 4
	update_b 6 5
	update_b 7 6
	update_b 0 7
	pop_b 1
	update_b 7 8
	update_b 6 7
	update_b 5 6
	update_b 4 5
	update_b 3 4
	update_b 2 3
	update_b 1 2
	updatepop_b 0 1
	update_a 1 3
	updatepop_a 0 2
.d 2 8 iiiiiiii
	jsr e_clCrossCall_12_sissueCleanRequest
.o 1 8 iiiiiiii
	push_b 7
	push_b 7
	push_b 7
	push_b 7
	push_b 7
	push_b 7
	push_b 7
	push_b 7
	update_b 7 15
	update_b 6 14
	update_b 5 13
	update_b 4 12
	update_b 3 11
	update_b 2 10
	update_b 1 9
	updatepop_b 0 8
.d 0 8 iiiiiiii
	jsr s7
.o 1 2 bi
	push_b 1
	push_a 1
	push_a 1
	push_b 1
	update_a 1 3
	updatepop_a 0 2
	update_b 1 3
	updatepop_b 0 2
.d 2 2 bi
	rtn
.o 0 8 iiiiiiii
s7
	eqI_b 12 0
	jmp_true case.9
	eqI_b 1 0
	jmp_true case.10
	jmp case.11
case.9
	pushI 0
	push_b 2
	eqI
	jmp_false else.12
	push_b 7
	buildAC ""
	pushB FALSE
	update_b 1 9
	updatepop_b 0 8
.d 1 2 bi
	rtn
else.12
	push_b 7
	push_b 3
	update_b 1 9
	updatepop_b 0 8
.d 0 2 ii
	jsr e_clCCall_12_swinGetCStringAndFree
.o 1 1 i
	push_b 0
	push_a 0
	pushB TRUE
	updatepop_a 0 1
	update_b 1 2
	updatepop_b 0 1
.d 1 2 bi
	rtn
case.10
	push_b 7
	buildAC ""
	pushB FALSE
	update_b 1 9
	updatepop_b 0 8
.d 1 2 bi
	rtn
case.11
	push_b 0
	updatepop_b 0 8
.d 0 1 i
	jsr ItoAC
.o 1 0
	buildAC ")"
	push_a 1
	update_a 1 2
	update_a 0 1
	pop_a 1
.d 2 0
	jsr catAC
.o 1 0
	buildAC "unexpected ccMsg field of return CrossCallInfo ("
.d 2 0
	jsr catAC
.o 1 0
	buildAC "osSelectinputfile"
.d 2 0
	jsr s5
.o 1 0
	repl_args 3 3
	jsr_eval 2
	jsr_eval 1
	jsr_eval 0
	pushI_a 2
	push_array 1
	pushB_a 1
	update_a 0 3
	pop_a 3
.d 1 2 bi
	rtn
.o 2 0
s5
	push_a 1
	buildAC "osfileselect"
	push_a 2
	update_a 2 4
	update_a 1 3
	updatepop_a 0 2
.d 3 0
	jmp e_commondef_sfatalError
.desc d6 _hnf l6 4 0 "callback"
.a 0 a6
.o 2 0
l6
	repl_args 3 3
.o 4 0
a6
.o 4 0
ea6
	jsr_eval 3
	jsr_eval 2
	jsr_eval 1
	jsr_eval 0
	pushI_a 3
	push_r_args 1 0 7
	update_a 2 3
	update_a 0 2
	pop_a 2
	push_a 1
	build_r e_clCrossCall_12_rCrossCallInfo 0 7 0 0
	push_a 2
	pop_b 7
	update_a 2 4
	update_a 1 3
	updatepop_a 0 2
	jsr_ap 2
.d 0 0
	jsr e_clCrossCall_12_sreturn0Cci
.o 0 7 iiiiiii
	push_b 7
	push_b 7
	update_b 1 8
	update_b 2 1
	update_b 3 2
	update_b 4 3
	update_b 5 4
	update_b 6 5
	update_b 7 6
	update_b 0 7
	pop_b 1
	update_b 7 8
	update_b 6 7
	update_b 5 6
	update_b 4 5
	update_b 3 4
	update_b 2 3
	update_b 1 2
	updatepop_b 0 1
	buildI_b 7
	push_a 1
	build_r e_clCrossCall_12_rCrossCallInfo 0 7 0 0
	buildh _Tuple 3
	updatepop_a 0 1
	pop_b 8
.d 1 0
	rtn
.export e_osfileselect_sosInitialiseFileSelectors
.descexp e_osfileselect_dosInitialiseFileSelectors e_osfileselect_nosInitialiseFileSelectors e_osfileselect_losInitialiseFileSelectors 1 0 "osInitialiseFileSelectors"
.o 2 0
e_osfileselect_losInitialiseFileSelectors
	pop_a 1
.d 1 0
	jsr ea1
.o 0 1 i
	buildI_b 0
	pop_b 1
.d 1 0
	rtn
.n 1 e_osfileselect_dosInitialiseFileSelectors
.o 1 0
e_osfileselect_nosInitialiseFileSelectors
	push_node _cycle_in_spine 1
.d 1 0
	jsr ea1
.o 0 1 i
	fillI_b 0 0
	pop_b 1
.d 1 0
	rtn
.o 1 0
ea1
	jsr_eval 0
	pushI_a 0
	pop_a 1
.o 0 1 i
e_osfileselect_sosInitialiseFileSelectors
.o 0 1 i
s1
.inline InstallCrossCallFileSelectors
	ccall InstallCrossCallFileSelectors "I-I"
.end
.d 0 1 i
	rtn
