.comp 920 000111010010000
.start _nostart_
.depend "timeraccess" "20210609153047"
.depend "roundrobin" "20210609153047"
.depend "processstack" "20210609153047"
.depend "timerhandle" "20210609153047"
.depend "processhandle" "20210609153047"
.depend "osmenu" "20210609153047"
.depend "StdMenuDef" "20210609153047"
.depend "menuhandle" "20210609153047"
.depend "devicesystemstate" "20210609153047"
.depend "keyfocus" "20210609153047"
.depend "StdBool" "20210609153010"
.depend "StdClass" "20210609153010"
.depend "commondef" "20210609153047"
.depend "receiverhandle" "20210609153047"
.depend "StdWindowDef" "20210609153047"
.depend "StdControlDef" "20210609153047"
.depend "windowhandle" "20210609153047"
.depend "StdTimerDef" "20210609153047"
.depend "timertable" "20210609153047"
.depend "semidynamic" "20210609153047"
.depend "receivertable" "20210609153047"
.depend "receivermessage" "20210609153047"
.depend "deviceevents" "20210609153049"
.depend "devicefunctions" "20210609153047"
.depend "ossystem" "20210609153047"
.depend "osguishare" "20210609153047"
.depend "ostime" "20210609153047"
.depend "clCrossCall_12" "20210609153047"
.depend "StdInt" "20210609153010"
.depend "osevent" "20210609153047"
.depend "ostoolbar" "20210609153047"
.depend "menuCrossCall_12" "20210609153047"
.depend "osdocumentinterface" "20210609153047"
.depend "osactivaterequests" "20210609153047"
.depend "iostate" "20210609153047"
.depend "systemid" "20210609153047"
.depend "device" "20210609153047"
.depend "id" "20210609153047"
.depend "oskey" "20210609153047"
.depend "StdKey" "20210609153047"
.depend "StdPicture" "20210609153047"
.depend "StdIOBasic" "20210609153047"
.depend "StdPictureDef" "20210609153047"
.depend "osfont" "20210609153047"
.depend "ostypes" "20210609153047"
.depend "ostoolbox" "20210609153047"
.depend "osrgn" "20210609153047"
.depend "ospicture" "20210609153047"
.depend "osbitmap" "20210609153049"
.depend "StdFile" "20210609153010"
.depend "_SystemStrictMaybes" "20210609153011"
.depend "StdMaybe" "20210609153011"
.depend "StdBitmap" "20210609153047"
.depend "StdString" "20210609153011"
.depend "StdOverloaded" "20210609153011"
.depend "StdIOCommon" "20210609153049"
.depend "StdFunctions" "20210609153011"
.depend "StdFunc" "20210609153011"
.depend "StdPSt" "20210609153047"
.depend "timerevent" "20210609153047"
.module m_timerevent "timerevent" "20210609153047"
.endinfo
.impmod _system
.implab _cycle_in_spine
.implab _type_error
.implab _hnf
.impdesc e_system_dind
.implab e_system_nind e_system_eaind
.impdesc e_system_dif
.implab e_system_nif e_system_eaif
.implab e_system_sif
.impdesc e_system_dAP
.implab e_system_nAP e_system_eaAP
.implab e_system_sAP
.impdesc ARRAY
.impdesc _Nil
.impdesc _Cons
.impdesc _Conss
.implab n_Conss ea_Conss
.impdesc _Consts
.implab n_Consts ea_Consts
.impdesc _Conssts
.implab n_Conssts ea_Conssts
.impdesc _Tuple
.impdesc d_S.1
.implab n_S.1 ea_S.1
.impdesc d_S.2
.implab n_S.2 ea_S.2
.impdesc d_S.3
.implab n_S.3 ea_S.3
.impdesc d_S.4
.implab n_S.4 ea_S.4
.impdesc d_S.5
.implab n_S.5 ea_S.5
.impdesc d_S.6
.implab n_S.6 ea_S.6
.implab _driver
.impmod timeraccess
.impdesc e_timeraccess_didentifyTimerStateHandle
.impmod devicesystemstate
.implab e_devicesystemstate_stimerSystemStateGetTimerHandles
.impmod StdBool
.implab e_StdBool_snot
.impmod commondef
.implab e_commondef_sfatalError
.implab e_commondef_sucontains
.impmod iostate
.impdesc e_iostate_dioStGetIOId
.implab e_iostate_sioStGetIOId
.implab e_iostate_sioStHasDevice
.implab e_iostate_sioStGetDevice
.implab e_iostate_sioStSetDevice
.impmod systemid
.implab e_systemid_s==;5
.impmod device
.implab e_device_s==;2
.impmod StdPSt
.implab e_StdPSt_saccPIO
.impmod timerhandle
.impdesc e_timerhandle_rTimerHandles
.impmod devicesystemstate
.impdesc e_devicesystemstate_dTimerSystemState
.impmod deviceevents
.impdesc e_deviceevents_kQASyncMessage
.impdesc e_deviceevents_kASyncMessage
.impdesc e_deviceevents_kSyncMessage
.impdesc e_deviceevents_kScheduleMsgEvent
.impdesc e_deviceevents_kScheduleTimerEvent
.impdesc e_deviceevents_kReceiverEvent
.impdesc e_deviceevents_kTimerEvent
.impmod iostate
.impdesc e_iostate_rPSt
.impmod device
.impdesc e_device_dTimerDevice
.export e_timerevent_stimerEvent
.descexp e_timerevent_dtimerEvent e_timerevent_ntimerEvent e_timerevent_ltimerEvent 2 0 "timerEvent"
.a 0 a1
.o 2 0
e_timerevent_ltimerEvent
	repl_args 1 1
.o 2 0
a1
.d 2 0
	jsr ea1
.o 4 1 b
	build_r e_iostate_rPSt 2 0 2 0
	push_a 2
	push_a 2
	buildB_b 0
	buildh _Tuple 4
	updatepop_a 0 4
	pop_b 1
.d 1 0
	rtn
.n 2 e_timerevent_dtimerEvent
.o 1 0
e_timerevent_ntimerEvent
	push_node _cycle_in_spine 2
.d 2 0
	jsr ea1
.o 4 1 b
	build_r e_iostate_rPSt 2 0 2 0
	push_a 2
	push_a 2
	buildB_b 0
	fillh _Tuple 4 8
	pop_a 4
	pop_b 1
.d 1 0
	rtn
.o 2 0
ea1
	jsr_eval 1
	jsr_eval 0
	push_r_args 1 2 0
	update_a 1 3
	update_a 2 1
	update_a 0 2
	pop_a 1
.o 3 0
e_timerevent_stimerEvent
.o 3 0
s1
	buildh d8 0
	push_a 3
	push_a 3
	push_a 2
	update_a 2 3
	update_a 1 2
	update_a 0 1
	pop_a 1
	update_a 3 5
	update_a 2 4
	update_a 1 3
	updatepop_a 0 2
.d 3 0
	jsr e_StdPSt_saccPIO
.o 3 0
	pushB_a 0
	notB
	jmp_false else.1
	buildAC "could not retrieve TimerSystemState from IOSt"
	buildAC "TimerFunctions.dEvent"
	update_a 1 5
	updatepop_a 0 4
.d 2 0
	jsr s2
.o 1 0
	repl_args 4 4
	jsr_eval 3
	jsr_eval 2
	jsr_eval 1
	jsr_eval 0
	push_r_args 3 2 0
	pushB_a 2
	update_a 1 5
	update_a 3 2
	update_a 4 3
	update_a 0 4
	pop_a 2
.d 4 1 b
	rtn
else.1
	push_a 2
	push_a 2
	push_a 5
	update_a 2 6
	update_a 1 5
	updatepop_a 0 4
.d 3 0
	jmp s4
.desc d8 _hnf l8 1 0 "_f0"
.o 2 0
l8
	update_a 1 0
	create
	update_a 0 2
	pop_a 1
.o 2 0
ea8
.o 2 0
s8
	push_a 0
	jsr_eval 0
	buildh e_device_dTimerDevice 0
	update_a 1 2
	updatepop_a 0 1
.d 2 0
	jsr e_iostate_sioStHasDevice
.o 1 1 b
	push_a 0
	buildB_b 0
	fillh _Tuple 2 3
	pop_a 1
	pop_b 1
.d 1 0
	rtn
.o 3 0
s4
	pushD_a 0
	jmpD ae e_deviceevents_kScheduleMsgEvent 0 case.2 case.3
	pop_b 1
	jmp case.4
case.2
	pop_b 1
	push_r_args 0 1 1
	push_a 0
	push_b 0
	pop_b 1
	push_a 4
.d 1 0
	jsr e_iostate_sioStGetIOId
.o 2 0
	push_r_args_a 2 4 0 1 1
	push_a 1
	push_a 1
	update_a 1 2
	update_a 0 1
	pop_a 1
	update_a 1 2
	updatepop_a 0 1
.d 2 0
	jsr e_systemid_s==;5
.o 0 1 b
	notB
	jmp_true then.5
	buildh e_device_dTimerDevice 0
	push_r_args_a 2 4 0 2 1
.d 2 0
	jsr e_device_s==;2
.o 0 1 b
	notB
	jmp_false else.5
then.5
	push_a 0
	push_a 6
	push_a 6
	update_a 2 1
	update_a 1 2
	updatepop_a 0 1
	buildh _Nothing 0
	push_a 6
	pushB FALSE
	push_a 1
	update_a 1 2
	update_a 0 1
	pop_a 1
	update_a 3 9
	update_a 2 8
	update_a 1 7
	updatepop_a 0 6
	updatepop_b 0 1
.d 4 1 b
	rtn
else.5
	buildh e_device_dTimerDevice 0
	push_a 1
	push_a 1
	update_a 1 2
	update_a 0 1
	pop_a 1
	update_a 1 2
	updatepop_a 0 1
.d 2 0
	jsr e_iostate_sioStGetDevice
.o 2 1 b
	push_a 0
	jsr_eval 0
	pop_b 1
	updatepop_a 0 1
.d 1 0
	jsr e_devicesystemstate_stimerSystemStateGetTimerHandles
.o 1 0
	push_r_args_a 2 4 0 3 1
	update_a 2 3
	update_a 1 2
	updatepop_a 0 1
.d 2 0
	jsr s3
.o 1 1 b
	push_b 0
	jmp_false else.7
	push_b 1
	push_a 2
	buildhr e_deviceevents_kTimerEvent 1 1
	build_r e_timerhandle_rTimerHandles 1 0 1 0
	buildh e_devicesystemstate_dTimerSystemState 1
	create
	push_a 4
	push_a 2
	update_a 2 3
	update_a 1 2
	update_a 0 1
	pop_a 1
	pop_b 2
	update_a 3 6
	update_a 2 5
	update_a 1 4
	updatepop_a 0 3
.d 3 0
	jsr e_iostate_sioStSetDevice
.o 1 0
	push_a 4
	push_a 4
	update_a 2 1
	update_a 1 2
	updatepop_a 0 1
	push_a 2
	buildh _Just 1
	push_a 4
	pushB TRUE
	push_a 1
	update_a 1 2
	update_a 0 1
	pop_a 1
	update_a 3 7
	update_a 2 6
	update_a 1 5
	updatepop_a 0 4
.d 4 1 b
	rtn
else.7
	build_r e_timerhandle_rTimerHandles 1 0 0 0
	buildh e_devicesystemstate_dTimerSystemState 1
	create
	push_a 3
	push_a 2
	update_a 2 3
	update_a 1 2
	update_a 0 1
	pop_a 1
	pop_b 2
	update_a 2 5
	update_a 1 4
	updatepop_a 0 3
.d 3 0
	jsr e_iostate_sioStSetDevice
.o 1 0
	push_a 3
	push_a 3
	update_a 2 1
	update_a 1 2
	updatepop_a 0 1
	buildh _Nothing 0
	push_a 3
	pushB FALSE
	push_a 1
	update_a 1 2
	update_a 0 1
	pop_a 1
	update_a 3 6
	update_a 2 5
	update_a 1 4
	updatepop_a 0 3
.d 4 1 b
	rtn
case.3
	pop_b 1
	push_args 0 1 1
	buildh e_iostate_dioStGetIOId 0
	push_a 4
	push_a 4
	push_a 2
	update_a 2 3
	update_a 1 2
	update_a 0 1
	pop_a 1
	update_a 4 6
	update_a 3 5
	update_a 2 4
	update_a 1 3
	updatepop_a 0 2
.d 3 0
	jsr e_StdPSt_saccPIO
.o 3 0
	push_a 3
.d 1 0
	jsr s5
.o 4 0
	push_a 0
	push_a 5
	buildh _Nil 0
	update_a 0 7
	pop_a 1
.d 2 0
	jsr e_systemid_s==;5
.o 0 1 b
	jmp_false else.8
	push_a 1
	buildh e_device_dTimerDevice 0
	update_a 1 6
	updatepop_a 0 5
.d 2 0
	jsr e_device_s==;2
.o 0 1 b
	buildh _Nil 0
	push_a 0
	push_a 1
	push_a 2
	push_a 3
	jmp_false else.8
	push_a 7
	buildhr e_deviceevents_kReceiverEvent 1 0
	buildh _Just 1
	push_a 7
	push_a 7
	push_a 11
	pushB TRUE
	push_a 3
	update_a 3 4
	update_a 2 3
	update_a 1 2
	update_a 0 1
	pop_a 1
	update_a 3 12
	update_a 2 11
	update_a 1 10
	updatepop_a 0 9
.d 4 1 b
	rtn
else.8
	buildh _Nothing 0
	push_a 7
	push_a 7
	push_a 11
	pushB FALSE
	push_a 3
	update_a 3 4
	update_a 2 3
	update_a 1 2
	update_a 0 1
	pop_a 1
	update_a 3 12
	update_a 2 11
	update_a 1 10
	updatepop_a 0 9
.d 4 1 b
	rtn
case.4
	buildh _Nothing 0
	push_a 3
	push_a 3
	push_a 3
	pushB FALSE
	push_a 3
	update_a 3 4
	update_a 2 3
	update_a 1 2
	update_a 0 1
	pop_a 1
	update_a 3 6
	update_a 2 5
	update_a 1 4
	updatepop_a 0 3
.d 4 1 b
	rtn
.o 1 0
s5
	pushD_a 0
	jmpD ea e_deviceevents_kASyncMessage 0 case.11 case.12
case.10
	pop_b 1
	repl_args 2 2
	update_a 0 1
	pop_a 1
	repl_r_args 4 0
.d 4 0
	rtn
case.11
	pop_b 1
	repl_args 1 1
	repl_r_args 4 0
.d 4 0
	rtn
case.12
	pop_b 1
	repl_args 4 4
	update_a 0 3
	pop_a 3
	repl_r_args 4 0
.d 4 0
	rtn
.o 2 0
s3
	push_a 0
	buildh e_timeraccess_didentifyTimerStateHandle 1
	push_a 2
	push_a 1
	update_a 1 2
	update_a 0 1
	pop_a 1
	update_a 1 2
	updatepop_a 0 1
.d 2 0
	jsr e_commondef_sucontains
.o 1 1 b
	push_a 0
	push_a 2
	update_a 1 0
	updatepop_a 0 1
	push_b 0
	updatepop_a 0 2
	updatepop_b 0 1
.d 1 1 b
	rtn
.o 2 0
s2
	push_a 1
	buildAC "timerevent"
	push_a 2
	update_a 2 4
	update_a 1 3
	updatepop_a 0 2
.d 3 0
	jmp e_commondef_sfatalError
