.comp 920 000011110011000
.start _nostart_
.depend "Control.Monad.Trans" "20210613143554"
.depend "StdMaybe" "20210613143554"
.depend "Data.Maybe" "20210613143554"
.depend "_SystemStrictMaybes" "20210613143554"
.depend "Control.Monad.Fail" "20210613143554"
.depend "Data.Traversable" "20210613143554"
.depend "StdMisc" "20210613143554"
.depend "StdOverloadedList" "20210613143554"
.depend "Data.List" "20210613143554"
.depend "StdFunctions" "20210613143554"
.depend "StdFunc" "20210613143554"
.depend "_SystemEnumStrict" "20210613143554"
.depend "_SystemStrictLists" "20210613143554"
.depend "StdStrictLists" "20210613143554"
.depend "StdGeneric" "20210613143554"
.depend "Data.GenEq" "20210613143554"
.depend "StdReal" "20210613143554"
.depend "StdChar" "20210613143554"
.depend "StdInt" "20210613143554"
.depend "StdBool" "20210613143554"
.depend "StdClass" "20210613143554"
.depend "StdList" "20210613143554"
.depend "Data.Monoid" "20210613143554"
.depend "Control.Applicative" "20210613143554"
.depend "Control.Monad" "20210613143554"
.depend "Data.Functor" "20210613143554"
.depend "StdOverloaded" "20210613143554"
.depend "_SystemDynamic" "20210613143554"
.depend "Data.Foldable" "20210613143554"
.module m_Data.Foldable "Data.Foldable" "20210613143554"
.endinfo
.impmod _system
.implab _cycle_in_spine
.implab _type_error
.implab _hnf
.impdesc e_system_dind
.implab e_system_nind e_system_eaind
.impdesc e_system_dif
.implab e_system_nif e_system_eaif
.implab e_system_sif
.impdesc e_system_dAP
.implab e_system_nAP e_system_eaAP
.implab e_system_sAP
.impdesc ARRAY
.impdesc _Nil
.impdesc _Cons
.impdesc _Conss
.implab n_Conss ea_Conss
.impdesc _Consts
.implab n_Consts ea_Consts
.impdesc _Conssts
.implab n_Conssts ea_Conssts
.impdesc _Tuple
.impdesc d_S.1
.implab n_S.1 ea_S.1
.impdesc d_S.2
.implab n_S.2 ea_S.2
.impdesc d_S.3
.implab n_S.3 ea_S.3
.impdesc d_S.4
.implab n_S.4 ea_S.4
.impdesc d_S.5
.implab n_S.5 ea_S.5
.impdesc d_S.6
.implab n_S.6 ea_S.6
.implab _driver
.impmod StdMaybe
.implab e_StdMaybe_slistToMaybe;20
.impmod Data.Maybe
.implab e_Data.Maybe_sfromMaybe;67
.impmod StdMisc
.impdesc e_StdMisc_dabort
.implab e_StdMisc_nabort _
.impmod Data.List
.impdesc e_Data.List_dmappend;95
.impdesc e_Data.List_dmempty;96
.implab e_Data.List_nmempty;96 e_Data.List_eamempty;96
.impmod StdFunctions
.impdesc e_StdFunctions_did
.impmod StdBool
.implab e_StdBool_snot
.impmod Data.Monoid
.implab e_Data.Monoid_sgetDual
.implab e_Data.Monoid_sappEndo
.implab e_Data.Monoid_sgetAll
.implab e_Data.Monoid_sgetAny
.implab e_Data.Monoid_sgetSum
.implab e_Data.Monoid_sgetProduct
.impdesc e_Data.Monoid_dmappend;11
.impdesc e_Data.Monoid_dmappend;12
.impdesc e_Data.Monoid_dmappend;13
.impdesc e_Data.Monoid_dmappend;14
.impdesc e_Data.Monoid_dmappend;15
.implab e_Data.Monoid_smempty;18
.impdesc e_Data.Monoid_dmempty;19
.implab e_Data.Monoid_smempty;19
.implab e_Data.Monoid_nmempty;19 e_Data.Monoid_eamempty;19
.impdesc e_Data.Monoid_dmempty;20
.implab e_Data.Monoid_nmempty;20 e_Data.Monoid_eamempty;20
.impdesc e_Data.Monoid_dmempty;21
.implab e_Data.Monoid_nmempty;21 e_Data.Monoid_eamempty;21
.impdesc e_Data.Monoid_dmempty;22
.implab e_Data.Monoid_nmempty;22 e_Data.Monoid_eamempty;22
.impdesc e_Data.Monoid_dmempty;23
.implab e_Data.Monoid_nmempty;23 e_Data.Monoid_eamempty;23
.impdesc e_Data.Monoid_dDual
.impdesc e_Data.Monoid_dEndo
.impdesc e_Data.Monoid_dAll
.impdesc e_Data.Monoid_dAny
.impdesc e_Data.Monoid_dSum
.impdesc e_Data.Monoid_dProduct
.impdesc e_Data.Monoid_rSemigroup;
.impdesc e_Data.Monoid_rMonoid;
.impmod Control.Applicative
.impdesc e_Control.Applicative_dpure;.pure
.implab e_Control.Applicative_npure;.pure e_Control.Applicative_eapure;.pure
.impdesc e_Control.Applicative_dApplicative;.pure
.implab e_Control.Applicative_nApplicative;.pure
.impdesc e_Control.Applicative_d*>;.*>
.implab e_Control.Applicative_n*>;.*> e_Control.Applicative_ea*>;.*>
.impdesc e_Control.Applicative_d*>;.Applicative
.implab e_Control.Applicative_n*>;.Applicative
.impmod Control.Monad
.impdesc e_Control.Monad_dMonad;.Applicative
.implab e_Control.Monad_nMonad;.Applicative
.export e_Data.Foldable_rFoldable;
.record e_Data.Foldable_rFoldable; aaaaaaaa 8 0 "Foldable;"
.descexp e_Data.Foldable_tFoldable; e_Data.Foldable_cFoldable; _hnf 8 1 "Foldable;"
.n 8 e_Data.Foldable_tFoldable;
.o 1 0 
e_Data.Foldable_cFoldable;
	push_node _cycle_in_spine 8
	jsr_eval 7
	jsr_eval 6
	jsr_eval 5
	jsr_eval 4
	jsr_eval 3
	jsr_eval 2
	jsr_eval 1
	jsr_eval 0
.impmod Data.Foldable
.impdesc e_Data.Foldable_rFoldable;
	fill_r e_Data.Foldable_rFoldable; 8 0 8 0 0
.d 1 0 
	pop_a_rtn 8
.export e_Data.Foldable_dFoldable;.fold
.export e_Data.Foldable_nFoldable;.fold
.export e_Data.Foldable_eaFoldable;.fold
.descs e_Data.Foldable_dFoldable;.fold e_Data.Foldable_nFoldable;.fold _ 1 0 "Foldable;.fold"
.n -4 e_Data.Foldable_dFoldable;.fold e_Data.Foldable_eaFoldable;.fold
.o 1 0 
e_Data.Foldable_nFoldable;.fold
	push_node _cycle_in_spine 1
.o 2 0 
e_Data.Foldable_eaFoldable;.fold
	jsr_eval 0
	repl_r_args_a 8 0 1 1
.d 1 0 
	fill_a01_pop_rtn 
.export e_Data.Foldable_dFoldable;.foldMap
.export e_Data.Foldable_nFoldable;.foldMap
.export e_Data.Foldable_eaFoldable;.foldMap
.descs e_Data.Foldable_dFoldable;.foldMap e_Data.Foldable_nFoldable;.foldMap _ 3 0 "Foldable;.foldMap"
.n -4 e_Data.Foldable_dFoldable;.foldMap e_Data.Foldable_eaFoldable;.foldMap
.o 1 0 
e_Data.Foldable_nFoldable;.foldMap
	push_node _cycle_in_spine 1
.o 2 0 
e_Data.Foldable_eaFoldable;.foldMap
	jsr_eval 0
	repl_r_args_a 8 0 2 1
.d 1 0 
	fill_a01_pop_rtn 
.export e_Data.Foldable_dFoldable;.foldl
.export e_Data.Foldable_nFoldable;.foldl
.export e_Data.Foldable_eaFoldable;.foldl
.descs e_Data.Foldable_dFoldable;.foldl e_Data.Foldable_nFoldable;.foldl _ 4 0 "Foldable;.foldl"
.n -4 e_Data.Foldable_dFoldable;.foldl e_Data.Foldable_eaFoldable;.foldl
.o 1 0 
e_Data.Foldable_nFoldable;.foldl
	push_node _cycle_in_spine 1
.o 2 0 
e_Data.Foldable_eaFoldable;.foldl
	jsr_eval 0
	repl_r_args_a 8 0 3 1
.d 1 0 
	fill_a01_pop_rtn 
.export e_Data.Foldable_dFoldable;.foldl1
.export e_Data.Foldable_nFoldable;.foldl1
.export e_Data.Foldable_eaFoldable;.foldl1
.descs e_Data.Foldable_dFoldable;.foldl1 e_Data.Foldable_nFoldable;.foldl1 _ 5 0 "Foldable;.foldl1"
.n -4 e_Data.Foldable_dFoldable;.foldl1 e_Data.Foldable_eaFoldable;.foldl1
.o 1 0 
e_Data.Foldable_nFoldable;.foldl1
	push_node _cycle_in_spine 1
.o 2 0 
e_Data.Foldable_eaFoldable;.foldl1
	jsr_eval 0
	repl_r_args_a 8 0 4 1
.d 1 0 
	fill_a01_pop_rtn 
.export e_Data.Foldable_dFoldable;.foldl`
.export e_Data.Foldable_nFoldable;.foldl`
.export e_Data.Foldable_eaFoldable;.foldl`
.descs e_Data.Foldable_dFoldable;.foldl` e_Data.Foldable_nFoldable;.foldl` _ 6 0 "Foldable;.foldl`"
.n -4 e_Data.Foldable_dFoldable;.foldl` e_Data.Foldable_eaFoldable;.foldl`
.o 1 0 
e_Data.Foldable_nFoldable;.foldl`
	push_node _cycle_in_spine 1
.o 2 0 
e_Data.Foldable_eaFoldable;.foldl`
	jsr_eval 0
	repl_r_args_a 8 0 5 1
.d 1 0 
	fill_a01_pop_rtn 
.export e_Data.Foldable_dFoldable;.foldr
.export e_Data.Foldable_nFoldable;.foldr
.export e_Data.Foldable_eaFoldable;.foldr
.descs e_Data.Foldable_dFoldable;.foldr e_Data.Foldable_nFoldable;.foldr _ 7 0 "Foldable;.foldr"
.n -4 e_Data.Foldable_dFoldable;.foldr e_Data.Foldable_eaFoldable;.foldr
.o 1 0 
e_Data.Foldable_nFoldable;.foldr
	push_node _cycle_in_spine 1
.o 2 0 
e_Data.Foldable_eaFoldable;.foldr
	jsr_eval 0
	repl_r_args_a 8 0 6 1
.d 1 0 
	fill_a01_pop_rtn 
.export e_Data.Foldable_dFoldable;.foldr1
.export e_Data.Foldable_nFoldable;.foldr1
.export e_Data.Foldable_eaFoldable;.foldr1
.descs e_Data.Foldable_dFoldable;.foldr1 e_Data.Foldable_nFoldable;.foldr1 _ 8 0 "Foldable;.foldr1"
.n -4 e_Data.Foldable_dFoldable;.foldr1 e_Data.Foldable_eaFoldable;.foldr1
.o 1 0 
e_Data.Foldable_nFoldable;.foldr1
	push_node _cycle_in_spine 1
.o 2 0 
e_Data.Foldable_eaFoldable;.foldr1
	jsr_eval 0
	repl_r_args_a 8 0 7 1
.d 1 0 
	fill_a01_pop_rtn 
.export e_Data.Foldable_dFoldable;.foldr`
.export e_Data.Foldable_nFoldable;.foldr`
.export e_Data.Foldable_eaFoldable;.foldr`
.descs e_Data.Foldable_dFoldable;.foldr` e_Data.Foldable_nFoldable;.foldr` _ 9 0 "Foldable;.foldr`"
.n -4 e_Data.Foldable_dFoldable;.foldr` e_Data.Foldable_eaFoldable;.foldr`
.o 1 0 
e_Data.Foldable_nFoldable;.foldr`
	push_node _cycle_in_spine 1
.o 2 0 
e_Data.Foldable_eaFoldable;.foldr`
	jsr_eval 0
	repl_r_args_a 8 0 8 1
.d 1 0 
	fill_a01_pop_rtn 
.export e_Data.Foldable_sTD;Foldable;
.export e_Data.Foldable_eaTD;Foldable;
.descexp e_Data.Foldable_dTD;Foldable; e_Data.Foldable_nTD;Foldable; e_Data.Foldable_lTD;Foldable; 1 0 "TD;Foldable;"
.o 2 0 
e_Data.Foldable_lTD;Foldable;
	update_a 1 0
	create 
.d 2 0 
	put_a_jmp 2 e_Data.Foldable_eaTD;Foldable;
.n 1 e_Data.Foldable_dTD;Foldable; e_Data.Foldable_eaTD;Foldable;
.o 1 0 
e_Data.Foldable_nTD;Foldable;
	push_node _cycle_in_spine 1
.o 2 0 
e_Data.Foldable_eaTD;Foldable;
.o 2 0 
e_Data.Foldable_sTD;Foldable;
.o 2 0 
s29
	fillh _Nil 0 1
.d 1 0 
	pop_a_rtn 1
.export e_Data.Foldable_sfoldr`;27
.descexp e_Data.Foldable_dfoldr`;27 e_Data.Foldable_nfoldr`;27 e_Data.Foldable_lfoldr`;27 3 0 "foldr`;27"
.o 4 0 
e_Data.Foldable_ifoldr`;27
.d 3 0 
	pop_a_jmp 1 s28
.ai 0 ea28 e_Data.Foldable_ifoldr`;27
.o 2 0 
e_Data.Foldable_lfoldr`;27
	repl_args 2 2
.d 3 0 
	jmp ea28
.n 3 e_Data.Foldable_dfoldr`;27 _
.o 1 0 
e_Data.Foldable_nfoldr`;27
	push_node _cycle_in_spine 3
.d 3 0 
	jsr ea28
.o 1 0 
.d 1 0 
	fill_a01_pop_rtn 
.o 3 0 
ea28
	jsr_eval 2
	jsr_eval 1
.o 3 0 
e_Data.Foldable_sfoldr`;27
.o 3 0 
s28
	buildh e_StdFunctions_did 0
	push_a 1
	buildh e_Data.Foldable_df`;37.38 1
	update2_a 0 1
	exchange_a 4 3
.d 3 0 
	pop_a_jsr 1 s23
.o 1 0 
	jmp_ap 1
.export e_Data.Foldable_df`;37.38
.desc e_Data.Foldable_df`;37.38 _hnf l38 4 0 "f`;37.38"
.a 0 ea38
.o 2 0 
l38
	repl_args 3 3
.o 4 0 
ea38
	jsr_eval 1
.o 4 0 
s38
	push2_a 3
	push_a 2
	build e_Data.Foldable_d_f1.96 3 e_Data.Foldable_n_f1.96
	dup_a 4
	updatepop_a 2 3
	jmp_ap 1
.export e_Data.Foldable_d_f1.96
.export e_Data.Foldable_n_f1.96
.descn e_Data.Foldable_d_f1.96 e_Data.Foldable_n_f1.96 3 0 "_f1.96"
.n 3 e_Data.Foldable_d_f1.96 ea96
.o 1 0 
e_Data.Foldable_n_f1.96
	push_node _cycle_in_spine 3
.o 4 0 
ea96
.o 4 0 
s96
	push_a2 2 0
	jsr_eval 0
	update_a 1 4
	updatepop_a 0 2
	jsr_ap 2
.d 1 0 
	fill_a01_pop_rtn 
.export e_Data.Foldable_sfoldr1;26
.descexp e_Data.Foldable_dfoldr1;26 e_Data.Foldable_nfoldr1;26 e_Data.Foldable_lfoldr1;26 2 0 "foldr1;26"
.o 3 0 
e_Data.Foldable_ifoldr1;26
.d 2 0 
	pop_a_jmp 1 s27
.ai 0 ea27 e_Data.Foldable_ifoldr1;26
.o 2 0 
e_Data.Foldable_lfoldr1;26
	repl_args 1 1
.d 2 0 
	jmp ea27
.n 2 e_Data.Foldable_dfoldr1;26 _
.o 1 0 
e_Data.Foldable_nfoldr1;26
	push_node _cycle_in_spine 2
.d 2 0 
	jsr ea27
.o 1 0 
.d 1 0 
	fill_a01_pop_rtn 
.o 2 0 
ea27
	jsr_eval 1
	jsr_eval 0
.o 2 0 
e_Data.Foldable_sfoldr1;26
.o 2 0 
s27
	buildh _None 0
	push_a 1
	buildh e_Data.Foldable_dmf;39.40 1
	update2pop_a 0 1
.d 3 0 
	jsr s26
.o 1 0 
	buildAC "foldr1: empty structure\n"
	buildh ARRAY 1
	build e_StdMisc_dabort 1 e_StdMisc_nabort
.d 2 0 
	jmp e_Data.Maybe_sfromMaybe;67
.export e_Data.Foldable_dmf;39.40
.desc e_Data.Foldable_dmf;39.40 _hnf l40 3 0 "mf;39.40"
.a 3 ea40
.o 2 0 
l40
	push_args 0 2 2
	update_a 3 2
	create 
	put_a 4
.o 4 0 
ea40
	jsr_eval 2
.o 4 0 
s40
	jmp_ne_desc _None 0 2 case.2
	push_jsr_eval 1
	fillh _Just 1 4
.d 1 0 
	pop_a_rtn 3
case.2
	push_args 2 1 1
	buildh _Nil 0
	push_a 2
	updates2_a 2 1 5
	jsr_eval 0
	update_a 1 5
	updatepop_a 0 3
	jsr_ap 2
	fillh _Just 1 1
.d 1 0 
	rtn 
.export e_Data.Foldable_sfoldl`;24
.descexp e_Data.Foldable_dfoldl`;24 e_Data.Foldable_nfoldl`;24 e_Data.Foldable_lfoldl`;24 3 0 "foldl`;24"
.o 4 0 
e_Data.Foldable_ifoldl`;24
.d 3 0 
	pop_a_jmp 1 s25
.ai 0 ea25 e_Data.Foldable_ifoldl`;24
.o 2 0 
e_Data.Foldable_lfoldl`;24
	repl_args 2 2
.d 3 0 
	jmp ea25
.n 3 e_Data.Foldable_dfoldl`;24 _
.o 1 0 
e_Data.Foldable_nfoldl`;24
	push_node _cycle_in_spine 3
.d 3 0 
	jsr ea25
.o 1 0 
.d 1 0 
	fill_a01_pop_rtn 
.o 3 0 
ea25
	jsr_eval 2
	jsr_eval 1
.o 3 0 
e_Data.Foldable_sfoldl`;24
.o 3 0 
s25
	buildh e_StdFunctions_did 0
	push_a 1
	buildh e_Data.Foldable_df`;38.39 1
	update2_a 0 1
	exchange_a 4 3
.d 3 0 
	pop_a_jsr 1 s26
.o 1 0 
	jmp_ap 1
.export e_Data.Foldable_df`;38.39
.desc e_Data.Foldable_df`;38.39 _hnf l39 4 0 "f`;38.39"
.a 0 ea39
.o 2 0 
l39
	repl_args 3 3
.o 4 0 
ea39
	jsr_eval 2
.o 4 0 
s39
	push_a2 1 3
	push_a 2
	build e_Data.Foldable_d_f0.95 3 e_Data.Foldable_n_f0.95
	dup_a 4
	pop_a 3
	jmp_ap 1
.export e_Data.Foldable_d_f0.95
.export e_Data.Foldable_n_f0.95
.descn e_Data.Foldable_d_f0.95 e_Data.Foldable_n_f0.95 3 0 "_f0.95"
.n 3 e_Data.Foldable_d_f0.95 ea95
.o 1 0 
e_Data.Foldable_n_f0.95
	push_node _cycle_in_spine 3
.o 4 0 
ea95
.o 4 0 
s95
	push_a2 2 0
	jsr_eval 0
	update_a 1 4
	updatepop_a 0 2
	jsr_ap 2
.d 1 0 
	fill_a01_pop_rtn 
.export e_Data.Foldable_sfoldr;25
.descexp e_Data.Foldable_dfoldr;25 e_Data.Foldable_nfoldr;25 e_Data.Foldable_lfoldr;25 3 0 "foldr;25"
.o 4 0 
e_Data.Foldable_ifoldr;25
.d 3 0 
	pop_a_jmp 1 s26
.ai 0 ea26 e_Data.Foldable_ifoldr;25
.o 2 0 
e_Data.Foldable_lfoldr;25
	repl_args 2 2
.d 3 0 
	jmp ea26
.n 3 e_Data.Foldable_dfoldr;25 _
.o 1 0 
e_Data.Foldable_nfoldr;25
	push_node _cycle_in_spine 3
.d 3 0 
	jsr ea26
.o 1 0 
.d 1 0 
	fill_a01_pop_rtn 
.o 3 0 
ea26
	jsr_eval 2
.o 3 0 
e_Data.Foldable_sfoldr;25
.o 3 0 
s26
	buildh e_Data.Monoid_dEndo 0
	push_update_a 0 1
	buildh e_Data.Foldable_d\;15;13;50.48 2
	create 
	updates3_a 0 3 4 2
.d 3 0 
	pop_a_jsr 1 s53
.o 1 0 
	create 
	swap_a1 
.d 2 0 
	jsr e_Data.Monoid_sappEndo
.o 1 0 
	jmp_ap 1
.export e_Data.Foldable_d\;15;13;50.48
.desc e_Data.Foldable_d\;15;13;50.48 _hnf l48 3 0 "\;15;13;50.48"
.a 0 ea48
.o 2 0 
l48
	repl_args 2 2
.o 3 0 
ea48
.o 3 0 
s48
	push2_a 2
	build e_system_dAP 2 e_system_nAP
	dup_a 3
	updatepop_a 1 2
	jmp_ap 1
.o 3 0 
s53
.d 1 0 
	pop_a_jmp 2 e_Data.Monoid_smempty;19
.export e_Data.Foldable_sfoldl1;23
.descexp e_Data.Foldable_dfoldl1;23 e_Data.Foldable_nfoldl1;23 e_Data.Foldable_lfoldl1;23 2 0 "foldl1;23"
.o 3 0 
e_Data.Foldable_ifoldl1;23
.d 2 0 
	pop_a_jmp 1 s24
.ai 0 ea24 e_Data.Foldable_ifoldl1;23
.o 2 0 
e_Data.Foldable_lfoldl1;23
	repl_args 1 1
.d 2 0 
	jmp ea24
.n 2 e_Data.Foldable_dfoldl1;23 _
.o 1 0 
e_Data.Foldable_nfoldl1;23
	push_node _cycle_in_spine 2
.d 2 0 
	jsr ea24
.o 1 0 
.d 1 0 
	fill_a01_pop_rtn 
.o 2 0 
ea24
	jsr_eval 1
	jsr_eval 0
.o 2 0 
e_Data.Foldable_sfoldl1;23
.o 2 0 
s24
	buildh _None 0
	push_a 1
	buildh e_Data.Foldable_dmf;40.41 1
	update2pop_a 0 1
.d 3 0 
	jsr s23
.o 1 0 
	buildAC "foldl1: empty structure\n"
	buildh ARRAY 1
	build e_StdMisc_dabort 1 e_StdMisc_nabort
.d 2 0 
	jmp e_Data.Maybe_sfromMaybe;67
.export e_Data.Foldable_dmf;40.41
.desc e_Data.Foldable_dmf;40.41 _hnf l41 3 0 "mf;40.41"
.a 3 ea41
.o 2 0 
l41
	push_args 0 2 2
	update_a 3 2
	create 
	put_a 4
.o 4 0 
ea41
	jsr_eval 1
.o 4 0 
s41
	jmp_ne_desc _None 0 1 case.4
	push_jsr_eval 2
	fillh _Just 1 4
.d 1 0 
	pop_a_rtn 3
case.4
	push_args 1 1 1
	buildh _Nil 0
	push_a 2
	updates2_a 5 1 4
	jsr_eval 0
	update_a 1 5
	update_a 2 4
	updatepop_a 0 3
	jsr_ap 2
	fillh _Just 1 1
.d 1 0 
	rtn 
.export e_Data.Foldable_sfoldl;22
.descexp e_Data.Foldable_dfoldl;22 e_Data.Foldable_nfoldl;22 e_Data.Foldable_lfoldl;22 3 0 "foldl;22"
.o 4 0 
e_Data.Foldable_ifoldl;22
.d 3 0 
	pop_a_jmp 1 s23
.ai 0 ea23 e_Data.Foldable_ifoldl;22
.o 2 0 
e_Data.Foldable_lfoldl;22
	repl_args 2 2
.d 3 0 
	jmp ea23
.n 3 e_Data.Foldable_dfoldl;22 _
.o 1 0 
e_Data.Foldable_nfoldl;22
	push_node _cycle_in_spine 3
.d 3 0 
	jsr ea23
.o 1 0 
.d 1 0 
	fill_a01_pop_rtn 
.o 3 0 
ea23
	jsr_eval 2
.o 3 0 
e_Data.Foldable_sfoldl;22
.o 3 0 
s23
	buildh e_Data.Monoid_dEndo 0
	buildh e_Data.Monoid_dDual 0
	push_update_a 0 1
	update_a 3 2
	buildh e_Data.Foldable_d\;15;13;102.51 3
	create 
	updates3_a 0 3 4 2
.d 3 0 
	pop_a_jsr 1 s52
.o 1 0 
.d 1 0 
	jsr e_Data.Monoid_sgetDual
.o 1 0 
	create 
	swap_a1 
.d 2 0 
	jsr e_Data.Monoid_sappEndo
.o 1 0 
	jmp_ap 1
.export e_Data.Foldable_d\;15;13;102.51
.desc e_Data.Foldable_d\;15;13;102.51 _hnf l51 4 0 "\;15;13;102.51"
.a 0 ea51
.o 2 0 
l51
	repl_args 3 3
.o 4 0 
ea51
.o 4 0 
s51
	push3_a 3
	build e_Data.Foldable_d\;15;13;101.50 3 e_Data.Foldable_n\;15;13;101.50
	dup_a 4
	updatepop_a 1 3
	jmp_ap 1
.export e_Data.Foldable_d\;15;13;101.50
.export e_Data.Foldable_n\;15;13;101.50
.descn e_Data.Foldable_d\;15;13;101.50 e_Data.Foldable_n\;15;13;101.50 3 0 "\;15;13;101.50"
.n 3 e_Data.Foldable_d\;15;13;101.50 _
.o 1 0 
e_Data.Foldable_n\;15;13;101.50
	push_node _cycle_in_spine 3
.d 3 0 
	jsr ea50
.o 1 0 
.d 1 0 
	fill_a01_pop_rtn 
.o 3 0 
ea50
	jsr_eval 0
.o 3 0 
s50
	buildho2 e_Data.Foldable_dflip;47.47 1 2
	dup_a 3
	updatepop_a 1 2
	jmp_ap 1
.export e_Data.Foldable_dflip;47.47
.desc e_Data.Foldable_dflip;47.47 _hnf l47 3 0 "flip;47.47"
.a 0 ea47
.o 2 0 
l47
	repl_args 2 2
.o 3 0 
ea47
	jsr_eval 0
.o 3 0 
s47
	exchange_a 2 1
	jmp_ap 2
.o 3 0 
s52
	buildh e_Data.Monoid_dmappend;11 0
	build e_Data.Monoid_dmempty;19 0 e_Data.Monoid_nmempty;19
	update2pop_a 0 2
.d 3 0 
	jmp e_Data.Monoid_smempty;18
.export e_Data.Foldable_sfold;20
.descexp e_Data.Foldable_dfold;20 e_Data.Foldable_nfold;20 e_Data.Foldable_lfold;20 2 0 "fold;20"
.o 4 0 
e_Data.Foldable_ifold;20
.d 3 0 
	pop_a_jmp 1 s21
.ai 0 ea21 e_Data.Foldable_ifold;20
.o 2 0 
e_Data.Foldable_lfold;20
	repl_args 1 1
.d 2 0 
	jmp ea21
.n 2 e_Data.Foldable_dfold;20 _
.o 1 0 
e_Data.Foldable_nfold;20
	push_node _cycle_in_spine 2
.d 2 0 
	jsr ea21
.o 1 0 
.d 1 0 
	fill_a01_pop_rtn 
.o 2 0 
ea21
	jsr_eval 1
	jsr_eval 0
	repl_r_args 2 0
.o 3 0 
e_Data.Foldable_sfold;20
.o 3 0 
s21
	buildh e_StdFunctions_did 0
	push_a 1
	updates3pop_a 0 1 3 2
.d 4 0 
	jmp s22
.export e_Data.Foldable_sfoldMap;21
.descexp e_Data.Foldable_dfoldMap;21 e_Data.Foldable_nfoldMap;21 e_Data.Foldable_lfoldMap;21 3 0 "foldMap;21"
.o 5 0 
e_Data.Foldable_ifoldMap;21
.d 4 0 
	pop_a_jmp 1 s22
.ai 0 ea22 e_Data.Foldable_ifoldMap;21
.o 2 0 
e_Data.Foldable_lfoldMap;21
	repl_args 2 2
.d 3 0 
	jmp ea22
.n 3 e_Data.Foldable_dfoldMap;21 _
.o 1 0 
e_Data.Foldable_nfoldMap;21
	push_node _cycle_in_spine 3
.d 3 0 
	jsr ea22
.o 1 0 
.d 1 0 
	fill_a01_pop_rtn 
.o 3 0 
ea22
	jsr_eval 2
	jsr_eval 0
	repl_r_args 2 0
.o 4 0 
e_Data.Foldable_sfoldMap;21
.o 4 0 
s22
	updatepop_a 0 3
	jmp_eval
.export e_Data.Foldable_sfind
.export e_Data.Foldable_eafind
.descexp e_Data.Foldable_dfind e_Data.Foldable_nfind e_Data.Foldable_lfind 3 0 "find"
.a 3 e_Data.Foldable_eafind
.o 2 0 
e_Data.Foldable_lfind
	push_args 0 2 2
	update_a 3 2
	create 
.d 4 0 
	put_a_jmp 4 e_Data.Foldable_eafind
.n 3 e_Data.Foldable_dfind e_Data.Foldable_eafind
.o 1 0 
e_Data.Foldable_nfind
	push_node _cycle_in_spine 3
.o 4 0 
e_Data.Foldable_eafind
	jsr_eval 2
	jsr_eval 0
	repl_r_args 8 0
.o 11 0 
e_Data.Foldable_sfind
.o 11 0 
s20
	push_a 8
	buildh e_Data.Foldable_d\;97;36;36.37 1
	create 
	updates2_a 0 11 10
	push_update_a 2 3
	updates4_a 8 7 6 5 4
	update_a 9 8
	updates3pop_a 0 2 10 9
.d 11 0 
	jsr s7
.o 1 0 
.d 2 0 
	jmp e_StdMaybe_slistToMaybe;20
.export e_Data.Foldable_d\;97;36;36.37
.desc e_Data.Foldable_d\;97;36;36.37 _hnf l37 2 0 "\;97;36;36.37"
.a 2 ea37
.o 2 0 
l37
	push_args 0 1 1
	update_a 2 1
	create 
	put_a 3
.o 3 0 
ea37
	jsr_eval 0
.o 3 0 
s37
	push_update_a 0 1
	jsr_ap 1
	pushB0_pop_a1 
	jmp_false else.5
	buildh _Nil 0
	push_a 1
	fillh _Cons 2 3
.d 1 0 
	pop_a_rtn 1
else.5
	fillh _Nil 0 1
.d 1 0 
	pop_a_rtn 1
.export e_Data.Foldable_snotElem
.descexp e_Data.Foldable_dnotElem e_Data.Foldable_nnotElem e_Data.Foldable_lnotElem 4 0 "notElem"
.a 0 a19
.o 2 0 
e_Data.Foldable_lnotElem
	repl_args 3 3
.o 4 0 
a19
.d 4 0 
	jsr ea19
.o 0 1 b
	buildB_b 0
.d 1 0 
	pop_b_rtn 1
.n 4 e_Data.Foldable_dnotElem
.o 1 0 
e_Data.Foldable_nnotElem
	push_node _cycle_in_spine 4
.d 4 0 
	jsr ea19
.o 0 1 b
	fillB_b 0 0
.d 1 0 
	pop_b_rtn 1
.o 4 0 
ea19
	jsr_eval 3
	jsr_eval 1
	jsr_eval 0
	push_r_args 1 1 0
	push_r_args 1 8 0
	update4_a 5 7
	update2_a 3 5
	update3pop_a 0 2
.o 11 0 
e_Data.Foldable_snotElem
.o 11 0 
s19
.d 11 0 
	jsr s18
.o 0 1 b
	notB
.d 0 1 b
	rtn 
.export e_Data.Foldable_selem
.descexp e_Data.Foldable_delem e_Data.Foldable_nelem e_Data.Foldable_lelem 4 0 "elem"
.a 0 a18
.o 2 0 
e_Data.Foldable_lelem
	repl_args 3 3
.o 4 0 
a18
.d 4 0 
	jsr ea18
.o 0 1 b
	buildB_b 0
.d 1 0 
	pop_b_rtn 1
.n 4 e_Data.Foldable_delem
.o 1 0 
e_Data.Foldable_nelem
	push_node _cycle_in_spine 4
.d 4 0 
	jsr ea18
.o 0 1 b
	fillB_b 0 0
.d 1 0 
	pop_b_rtn 1
.o 4 0 
ea18
	jsr_eval 3
	jsr_eval 1
	jsr_eval 0
	push_r_args 1 1 0
	push_r_args 1 8 0
	update4_a 5 7
	update2_a 3 5
	update3pop_a 0 2
.o 11 0 
e_Data.Foldable_selem
.o 11 0 
s18
.impmod StdOverloaded
.impdesc e_StdOverloaded_r==;
	build_r e_StdOverloaded_r==; 1 0 8 0
	push_update_a 0 10
	buildh e_Data.Foldable_d\;91;17;35.36 2
	dup_a 10
	update4_a 5 6
	update_a 4 5
	update3pop_a 1 2
.d 10 0 
	jmp s10
.export e_Data.Foldable_d\;91;17;35.36
.desc e_Data.Foldable_d\;91;17;35.36 _hnf l36 3 0 "\;91;17;35.36"
.a 0 a36
.o 2 0 
l36
	repl_args 2 2
.o 3 0 
a36
.d 3 0 
	jsr ea36
.o 0 1 b
	buildB_b 0
.d 1 0 
	pop_b_rtn 1
.o 3 0 
ea36
	jsr_eval 2
	jsr_eval 1
	repl_r_args 1 0
.o 3 0 
s36
.d 3 0 
	jmp_i 2
.export e_Data.Foldable_sminimumBy
.descexp e_Data.Foldable_dminimumBy e_Data.Foldable_nminimumBy e_Data.Foldable_lminimumBy 3 0 "minimumBy"
.a 0 ea17
.o 2 0 
e_Data.Foldable_lminimumBy
	repl_args 2 2
.d 3 0 
	jmp ea17
.n 3 e_Data.Foldable_dminimumBy _
.o 1 0 
e_Data.Foldable_nminimumBy
	push_node _cycle_in_spine 3
.d 3 0 
	jsr ea17
.o 1 0 
.d 1 0 
	fill_a01_pop_rtn 
.o 3 0 
ea17
	jsr_eval 2
	jsr_eval 0
	repl_r_args 8 0
.o 10 0 
e_Data.Foldable_sminimumBy
.o 10 0 
s17
	push2_a 9
	buildh e_Data.Foldable_dmin`;34.35 1
	update2_a 0 10
	updatepop_a 8 9
.d 3 0 
	jmp_i 2
.export e_Data.Foldable_dmin`;34.35
.desc e_Data.Foldable_dmin`;34.35 _hnf l35 3 0 "min`;34.35"
.a 0 ea35
.o 2 0 
l35
	repl_args 2 2
.o 3 0 
ea35
	jsr_eval 0
.o 3 0 
s35
	push2_a 1
	update_a 4 2
	jsr_ap 2
	pushB0_pop_a1 
	jmp_false else.6
	put_a 1
	jmp_eval
else.6
	pop_a 1
	jmp_eval
.export e_Data.Foldable_sminimum
.descexp e_Data.Foldable_dminimum e_Data.Foldable_nminimum e_Data.Foldable_lminimum 3 0 "minimum"
.a 0 ea16
.o 2 0 
e_Data.Foldable_lminimum
	repl_args 2 2
.d 3 0 
	jmp ea16
.n 3 e_Data.Foldable_dminimum _
.o 1 0 
e_Data.Foldable_nminimum
	push_node _cycle_in_spine 3
.d 3 0 
	jsr ea16
.o 1 0 
.d 1 0 
	fill_a01_pop_rtn 
.o 3 0 
ea16
	jsr_eval 2
	jsr_eval 1
	jsr_eval 0
	push_r_args 1 1 0
	push_r_args 1 8 0
	update4_a 5 7
	update2_a 3 5
	update3pop_a 0 2
.o 10 0 
e_Data.Foldable_sminimum
.o 10 0 
s16
	push_a 9
.impmod StdClass
.impdesc e_StdClass_rOrd;
	build_r e_StdClass_rOrd; 1 0 9 0
	buildh e_Data.Foldable_dmin;46.46 1
	update2_a 0 10
	updatepop_a 8 9
.d 3 0 
	jmp_i 2
.export e_Data.Foldable_dmin;46.46
.desc e_Data.Foldable_dmin;46.46 _hnf l46 3 0 "min;46.46"
.a 0 ea46
.o 2 0 
l46
	repl_args 2 2
.o 3 0 
ea46
	jsr_eval 2
	jsr_eval 1
	repl_r_args 1 0
.o 3 0 
s46
	push2_a 1
	update_a 4 2
.d 3 0 
	jsr_i 2
.o 0 1 b
	jmp_false else.7
	put_a 1
.d 1 0 
	rtn 
else.7
.d 1 0 
	pop_a_rtn 1
.export e_Data.Foldable_smaximumBy
.descexp e_Data.Foldable_dmaximumBy e_Data.Foldable_nmaximumBy e_Data.Foldable_lmaximumBy 3 0 "maximumBy"
.a 0 ea15
.o 2 0 
e_Data.Foldable_lmaximumBy
	repl_args 2 2
.d 3 0 
	jmp ea15
.n 3 e_Data.Foldable_dmaximumBy _
.o 1 0 
e_Data.Foldable_nmaximumBy
	push_node _cycle_in_spine 3
.d 3 0 
	jsr ea15
.o 1 0 
.d 1 0 
	fill_a01_pop_rtn 
.o 3 0 
ea15
	jsr_eval 2
	jsr_eval 0
	repl_r_args 8 0
.o 10 0 
e_Data.Foldable_smaximumBy
.o 10 0 
s15
	push2_a 9
	buildh e_Data.Foldable_dmax`;33.34 1
	update2_a 0 10
	updatepop_a 8 9
.d 3 0 
	jmp_i 2
.export e_Data.Foldable_dmax`;33.34
.desc e_Data.Foldable_dmax`;33.34 _hnf l34 3 0 "max`;33.34"
.a 0 ea34
.o 2 0 
l34
	repl_args 2 2
.o 3 0 
ea34
	jsr_eval 0
.o 3 0 
s34
	push2_a 1
	update_a 4 2
	jsr_ap 2
	pushB0_pop_a1 
	jmp_false else.8
	pop_a 1
	jmp_eval
else.8
	put_a 1
	jmp_eval
.export e_Data.Foldable_smaximum
.descexp e_Data.Foldable_dmaximum e_Data.Foldable_nmaximum e_Data.Foldable_lmaximum 3 0 "maximum"
.a 0 ea14
.o 2 0 
e_Data.Foldable_lmaximum
	repl_args 2 2
.d 3 0 
	jmp ea14
.n 3 e_Data.Foldable_dmaximum _
.o 1 0 
e_Data.Foldable_nmaximum
	push_node _cycle_in_spine 3
.d 3 0 
	jsr ea14
.o 1 0 
.d 1 0 
	fill_a01_pop_rtn 
.o 3 0 
ea14
	jsr_eval 2
	jsr_eval 1
	jsr_eval 0
	push_r_args 1 1 0
	push_r_args 1 8 0
	update4_a 5 7
	update2_a 3 5
	update3pop_a 0 2
.o 10 0 
e_Data.Foldable_smaximum
.o 10 0 
s14
	push_a 9
	build_r e_StdClass_rOrd; 1 0 9 0
	buildh e_Data.Foldable_dmax;45.45 1
	update2_a 0 10
	updatepop_a 8 9
.d 3 0 
	jmp_i 2
.export e_Data.Foldable_dmax;45.45
.desc e_Data.Foldable_dmax;45.45 _hnf l45 3 0 "max;45.45"
.a 0 ea45
.o 2 0 
l45
	repl_args 2 2
.o 3 0 
ea45
	jsr_eval 2
	jsr_eval 1
	repl_r_args 1 0
.o 3 0 
s45
	push2_a 1
	update_a 4 2
.d 3 0 
	jsr_i 2
.o 0 1 b
	jmp_false else.9
.d 1 0 
	pop_a_rtn 1
else.9
	put_a 1
.d 1 0 
	rtn 
.export e_Data.Foldable_sproduct
.descexp e_Data.Foldable_dproduct e_Data.Foldable_nproduct e_Data.Foldable_lproduct 4 0 "product"
.a 0 ea13
.o 2 0 
e_Data.Foldable_lproduct
	repl_args 3 3
.d 4 0 
	jmp ea13
.n 4 e_Data.Foldable_dproduct _
.o 1 0 
e_Data.Foldable_nproduct
	push_node _cycle_in_spine 4
.d 4 0 
	jsr ea13
.o 1 0 
.d 1 0 
	fill_a01_pop_rtn 
.o 4 0 
ea13
	jsr_eval 3
	jsr_eval 2
	jsr_eval 1
	jsr_eval 0
	push_r_args 2 1 0
	push_r_args 2 1 0
	push_r_args 2 8 0
	update4_a 6 9
	update3_a 3 6
	update3pop_a 0 3
.o 11 0 
e_Data.Foldable_sproduct
.o 11 0 
s13
	push_a 10
	buildh e_Data.Monoid_dProduct 0
.impmod StdOverloaded
.impdesc e_StdOverloaded_rone;
	build_r e_StdOverloaded_rone; 1 0 11 0
.impdesc e_StdOverloaded_r*;
	build_r e_StdOverloaded_r*; 1 0 11 0
	buildh e_Data.Monoid_dmappend;15 2
	build_r e_StdOverloaded_rone; 1 0 12 0
	build_r e_StdOverloaded_r*; 1 0 12 0
	build e_Data.Monoid_dmempty;23 2 e_Data.Monoid_nmempty;23
	update4_a 0 11
	updatepop_a 5 10
.d 5 0 
	jsr_i 3
.o 1 0 
.d 1 0 
	jmp e_Data.Monoid_sgetProduct
.export e_Data.Foldable_ssum
.descexp e_Data.Foldable_dsum e_Data.Foldable_nsum e_Data.Foldable_lsum 4 0 "sum"
.a 0 ea12
.o 2 0 
e_Data.Foldable_lsum
	repl_args 3 3
.d 4 0 
	jmp ea12
.n 4 e_Data.Foldable_dsum _
.o 1 0 
e_Data.Foldable_nsum
	push_node _cycle_in_spine 4
.d 4 0 
	jsr ea12
.o 1 0 
.d 1 0 
	fill_a01_pop_rtn 
.o 4 0 
ea12
	jsr_eval 3
	jsr_eval 2
	jsr_eval 1
	jsr_eval 0
	push_r_args 2 1 0
	push_r_args 2 1 0
	push_r_args 2 8 0
	update4_a 6 9
	update3_a 3 6
	update3pop_a 0 3
.o 11 0 
e_Data.Foldable_ssum
.o 11 0 
s12
	push_a 10
	buildh e_Data.Monoid_dSum 0
.impdesc e_StdOverloaded_rzero;
	build_r e_StdOverloaded_rzero; 1 0 11 0
.impdesc e_StdOverloaded_r+;
	build_r e_StdOverloaded_r+; 1 0 11 0
	buildh e_Data.Monoid_dmappend;14 2
	build_r e_StdOverloaded_rzero; 1 0 12 0
	build_r e_StdOverloaded_r+; 1 0 12 0
	build e_Data.Monoid_dmempty;22 2 e_Data.Monoid_nmempty;22
	update4_a 0 11
	updatepop_a 5 10
.d 5 0 
	jsr_i 3
.o 1 0 
.d 1 0 
	jmp e_Data.Monoid_sgetSum
.export e_Data.Foldable_sall
.descexp e_Data.Foldable_dall e_Data.Foldable_nall e_Data.Foldable_lall 3 0 "all"
.a 0 a11
.o 2 0 
e_Data.Foldable_lall
	repl_args 2 2
.o 3 0 
a11
.d 3 0 
	jsr ea11
.o 0 1 b
	buildB_b 0
.d 1 0 
	pop_b_rtn 1
.n 3 e_Data.Foldable_dall
.o 1 0 
e_Data.Foldable_nall
	push_node _cycle_in_spine 3
.d 3 0 
	jsr ea11
.o 0 1 b
	fillB_b 0 0
.d 1 0 
	pop_b_rtn 1
.o 3 0 
ea11
	jsr_eval 2
	jsr_eval 0
	repl_r_args 8 0
.o 10 0 
e_Data.Foldable_sall
.o 10 0 
s11
	push_a 9
	buildh e_Data.Monoid_dAll 0
	push_update_a 0 10
	buildh e_Data.Foldable_d\;15;13;44.44 2
	buildh e_Data.Monoid_dmappend;12 0
	build e_Data.Monoid_dmempty;20 0 e_Data.Monoid_nmempty;20
	update4_a 0 10
	updatepop_a 5 9
.d 5 0 
	jsr_i 3
.o 1 0 
.d 1 0 
	jmp e_Data.Monoid_sgetAll
.export e_Data.Foldable_d\;15;13;44.44
.desc e_Data.Foldable_d\;15;13;44.44 _hnf l44 3 0 "\;15;13;44.44"
.a 0 ea44
.o 2 0 
l44
	repl_args 2 2
.o 3 0 
ea44
.o 3 0 
s44
	push2_a 2
	build e_system_dAP 2 e_system_nAP
	dup_a 3
	updatepop_a 1 2
	jmp_ap 1
.export e_Data.Foldable_sany
.descexp e_Data.Foldable_dany e_Data.Foldable_nany e_Data.Foldable_lany 3 0 "any"
.a 0 a10
.o 2 0 
e_Data.Foldable_lany
	repl_args 2 2
.o 3 0 
a10
.d 3 0 
	jsr ea10
.o 0 1 b
	buildB_b 0
.d 1 0 
	pop_b_rtn 1
.n 3 e_Data.Foldable_dany
.o 1 0 
e_Data.Foldable_nany
	push_node _cycle_in_spine 3
.d 3 0 
	jsr ea10
.o 0 1 b
	fillB_b 0 0
.d 1 0 
	pop_b_rtn 1
.o 3 0 
ea10
	jsr_eval 2
	jsr_eval 0
	repl_r_args 8 0
.o 10 0 
e_Data.Foldable_sany
.o 10 0 
s10
	push_a 9
	buildh e_Data.Monoid_dAny 0
	push_update_a 0 10
	buildh e_Data.Foldable_d\;15;13;43.43 2
	buildh e_Data.Monoid_dmappend;13 0
	build e_Data.Monoid_dmempty;21 0 e_Data.Monoid_nmempty;21
	update4_a 0 10
	updatepop_a 5 9
.d 5 0 
	jsr_i 3
.o 1 0 
.d 1 0 
	jmp e_Data.Monoid_sgetAny
.export e_Data.Foldable_d\;15;13;43.43
.desc e_Data.Foldable_d\;15;13;43.43 _hnf l43 3 0 "\;15;13;43.43"
.a 0 ea43
.o 2 0 
l43
	repl_args 2 2
.o 3 0 
ea43
.o 3 0 
s43
	push2_a 2
	build e_system_dAP 2 e_system_nAP
	dup_a 3
	updatepop_a 1 2
	jmp_ap 1
.export e_Data.Foldable_sor
.descexp e_Data.Foldable_dor e_Data.Foldable_nor e_Data.Foldable_lor 2 0 "or"
.a 0 a9
.o 2 0 
e_Data.Foldable_lor
	repl_args 1 1
.o 2 0 
a9
.d 2 0 
	jsr ea9
.o 0 1 b
	buildB_b 0
.d 1 0 
	pop_b_rtn 1
.n 2 e_Data.Foldable_dor
.o 1 0 
e_Data.Foldable_nor
	push_node _cycle_in_spine 2
.d 2 0 
	jsr ea9
.o 0 1 b
	fillB_b 0 0
.d 1 0 
	pop_b_rtn 1
.o 2 0 
ea9
	jsr_eval 1
	jsr_eval 0
	repl_r_args 8 0
.o 9 0 
e_Data.Foldable_sor
.o 9 0 
s9
	push_a 8
	buildh e_Data.Monoid_dAny 0
	buildh e_Data.Monoid_dmappend;13 0
	build e_Data.Monoid_dmempty;21 0 e_Data.Monoid_nmempty;21
	update4_a 0 9
	updatepop_a 5 8
.d 5 0 
	jsr_i 3
.o 1 0 
.d 1 0 
	jmp e_Data.Monoid_sgetAny
.export e_Data.Foldable_sand
.descexp e_Data.Foldable_dand e_Data.Foldable_nand e_Data.Foldable_land 2 0 "and"
.a 0 a8
.o 2 0 
e_Data.Foldable_land
	repl_args 1 1
.o 2 0 
a8
.d 2 0 
	jsr ea8
.o 0 1 b
	buildB_b 0
.d 1 0 
	pop_b_rtn 1
.n 2 e_Data.Foldable_dand
.o 1 0 
e_Data.Foldable_nand
	push_node _cycle_in_spine 2
.d 2 0 
	jsr ea8
.o 0 1 b
	fillB_b 0 0
.d 1 0 
	pop_b_rtn 1
.o 2 0 
ea8
	jsr_eval 1
	jsr_eval 0
	repl_r_args 8 0
.o 9 0 
e_Data.Foldable_sand
.o 9 0 
s8
	push_a 8
	buildh e_Data.Monoid_dAll 0
	buildh e_Data.Monoid_dmappend;12 0
	build e_Data.Monoid_dmempty;20 0 e_Data.Monoid_nmempty;20
	update4_a 0 9
	updatepop_a 5 8
.d 5 0 
	jsr_i 3
.o 1 0 
.d 1 0 
	jmp e_Data.Monoid_sgetAll
.export e_Data.Foldable_sconcatMap
.export e_Data.Foldable_eaconcatMap
.descexp e_Data.Foldable_dconcatMap e_Data.Foldable_nconcatMap e_Data.Foldable_lconcatMap 3 0 "concatMap"
.a 3 e_Data.Foldable_eaconcatMap
.o 2 0 
e_Data.Foldable_lconcatMap
	push_args 0 2 2
	update_a 3 2
	create 
.d 4 0 
	put_a_jmp 4 e_Data.Foldable_eaconcatMap
.n 3 e_Data.Foldable_dconcatMap e_Data.Foldable_eaconcatMap
.o 1 0 
e_Data.Foldable_nconcatMap
	push_node _cycle_in_spine 3
.o 4 0 
e_Data.Foldable_eaconcatMap
	jsr_eval 2
	jsr_eval 0
	repl_r_args 8 0
.o 11 0 
e_Data.Foldable_sconcatMap
.o 11 0 
s7
	push2_a 9
	buildh e_Data.List_dmappend;95 0
	build e_Data.List_dmempty;96 0 e_Data.List_nmempty;96
	update4_a 0 10
	updatepop_a 5 9
.d 5 0 
	jsr_i 3
.o 1 0 
.d 1 0 
	fill_a01_pop_rtn 
.export e_Data.Foldable_sconcat
.export e_Data.Foldable_eaconcat
.descexp e_Data.Foldable_dconcat e_Data.Foldable_nconcat e_Data.Foldable_lconcat 2 0 "concat"
.a 2 e_Data.Foldable_eaconcat
.o 2 0 
e_Data.Foldable_lconcat
	push_args 0 1 1
	update_a 2 1
	create 
.d 3 0 
	put_a_jmp 3 e_Data.Foldable_eaconcat
.n 2 e_Data.Foldable_dconcat e_Data.Foldable_eaconcat
.o 1 0 
e_Data.Foldable_nconcat
	push_node _cycle_in_spine 2
.o 3 0 
e_Data.Foldable_eaconcat
	jsr_eval 1
	jsr_eval 0
	repl_r_args 8 0
.o 10 0 
e_Data.Foldable_sconcat
.o 10 0 
s6
	push_a 8
	buildh e_Data.List_dmappend;95 0
	build e_Data.List_dmempty;96 0 e_Data.List_nmempty;96
	update3_a 0 9
	updatepop_a 3 8
.d 4 0 
	jsr_i 2
.o 1 0 
.d 1 0 
	fill_a01_pop_rtn 
.export e_Data.Foldable_ssequenceA_
.descexp e_Data.Foldable_dsequenceA_ e_Data.Foldable_nsequenceA_ e_Data.Foldable_lsequenceA_ 3 0 "sequenceA_"
.a 0 ea5
.o 2 0 
e_Data.Foldable_lsequenceA_
	repl_args 2 2
.d 3 0 
	jmp ea5
.n 3 e_Data.Foldable_dsequenceA_ _
.o 1 0 
e_Data.Foldable_nsequenceA_
	push_node _cycle_in_spine 3
.d 3 0 
	jsr ea5
.o 1 0 
.d 1 0 
	fill_a01_pop_rtn 
.o 3 0 
ea5
	jsr_eval 2
	jsr_eval 1
	jsr_eval 0
	push_r_args 1 2 0
	push_r_args 2 8 0
	update4_a 6 8
	update3_a 3 5
	update3pop_a 0 2
.o 11 0 
e_Data.Foldable_ssequenceA_
.o 11 0 
s5
	push_a 10
	buildh e__predef_d_Unit 0
	push_a 11
	repl_r_args_a 3 0 2 1
	build e_system_dAP 2 e_system_nAP
	update2_a 0 11
	updatepop_a 7 9
.d 4 0 
	jmp_i 3
.export e_Data.Foldable_smapM_
.descexp e_Data.Foldable_dmapM_ e_Data.Foldable_nmapM_ e_Data.Foldable_lmapM_ 4 0 "mapM_"
.a 0 ea4
.o 2 0 
e_Data.Foldable_lmapM_
	repl_args 3 3
.d 4 0 
	jmp ea4
.n 4 e_Data.Foldable_dmapM_ _
.o 1 0 
e_Data.Foldable_nmapM_
	push_node _cycle_in_spine 4
.d 4 0 
	jsr ea4
.o 1 0 
.d 1 0 
	fill_a01_pop_rtn 
.o 4 0 
ea4
	jsr_eval 3
	jsr_eval 1
	jsr_eval 0
	push_r_args 1 2 0
	push_r_args 2 8 0
	update4_a 6 8
	update3_a 3 5
	update3pop_a 0 2
.o 12 0 
e_Data.Foldable_smapM_
.o 12 0 
s4
	push_a 11
	buildh e__predef_d_Unit 0
	push_a 11
	repl_r_args_a 3 0 2 1
	build e_system_dAP 2 e_system_nAP
.impmod Control.Monad
.impdesc e_Control.Monad_rMonad;
	build_r e_Control.Monad_rMonad; 2 0 10 0
	push_update_a 0 13
	buildh e_Data.Foldable_d\;15;13;100.49 2
	update3_a 0 12
	updatepop_a 8 11
.d 4 0 
	jmp_i 3
.export e_Data.Foldable_d\;15;13;100.49
.desc e_Data.Foldable_d\;15;13;100.49 _hnf l49 3 0 "\;15;13;100.49"
.a 3 ea49
.o 2 0 
l49
	push_args 0 2 2
	update_a 3 2
	create 
	put_a 4
.o 4 0 
ea49
	repl_r_args 2 0
.o 5 0 
s49
	push2_a 3
	build e_system_dAP 2 e_system_nAP
	build_r e_Control.Monad_rMonad; 2 0 1 0
	fillh e_Data.Foldable_d\;47;21;32.33 2 6
.d 1 0 
	pop_a_rtn 4
.export e_Data.Foldable_d\;47;21;32.33
.desc e_Data.Foldable_d\;47;21;32.33 _hnf l33 3 0 "\;47;21;32.33"
.a 0 ea33
.o 2 0 
l33
	repl_args 2 2
.o 3 0 
ea33
	jsr_eval 1
	repl_r_args 2 0
.o 4 0 
s33
	push_a 3
	buildh e_Data.Foldable_d\;47;38;31.32 1
	dup_a 4
	updatepop_a 1 2
.d 3 0 
	jmp_i 2
.export e_Data.Foldable_d\;47;38;31.32
.desc e_Data.Foldable_d\;47;38;31.32 _hnf l32 2 0 "\;47;38;31.32"
.a 0 ea32
.o 2 0 
l32
	repl_args 1 1
.o 2 0 
ea32
	jsr_eval 0
.o 2 0 
s32
	put_a 1
.d 1 0 
	rtn 
.export e_Data.Foldable_straverse_
.descexp e_Data.Foldable_dtraverse_ e_Data.Foldable_ntraverse_ e_Data.Foldable_ltraverse_ 4 0 "traverse_"
.a 0 ea3
.o 2 0 
e_Data.Foldable_ltraverse_
	repl_args 3 3
.d 4 0 
	jmp ea3
.n 4 e_Data.Foldable_dtraverse_ _
.o 1 0 
e_Data.Foldable_ntraverse_
	push_node _cycle_in_spine 4
.d 4 0 
	jsr ea3
.o 1 0 
.d 1 0 
	fill_a01_pop_rtn 
.o 4 0 
ea3
	jsr_eval 3
	jsr_eval 1
	jsr_eval 0
	push_r_args 1 2 0
	push_r_args 2 8 0
	update4_a 6 8
	update3_a 3 5
	update3pop_a 0 2
.o 12 0 
e_Data.Foldable_straverse_
.o 12 0 
s3
	push_a 11
	buildh e__predef_d_Unit 0
	push_a 11
	repl_r_args_a 3 0 2 1
	build e_system_dAP 2 e_system_nAP
	buildho2 e_Data.Foldable_d\;15;13;41.42 10 12
	update3_a 0 12
	updatepop_a 8 11
.d 4 0 
	jmp_i 3
.export e_Data.Foldable_d\;15;13;41.42
.desc e_Data.Foldable_d\;15;13;41.42 _hnf l42 3 0 "\;15;13;41.42"
.a 0 ea42
.o 2 0 
l42
	repl_args 2 2
.o 3 0 
ea42
.o 3 0 
s42
	push2_a 2
	build e_system_dAP 2 e_system_nAP
	dup_a 3
	updatepop_a 1 2
	jmp_ap 1
.export e_Data.Foldable_sfoldlM
.descexp e_Data.Foldable_dfoldlM e_Data.Foldable_nfoldlM e_Data.Foldable_lfoldlM 5 0 "foldlM"
.a 0 ea2
.o 2 0 
e_Data.Foldable_lfoldlM
	repl_args 4 4
.d 5 0 
	jmp ea2
.n 5 e_Data.Foldable_dfoldlM _
.o 1 0 
e_Data.Foldable_nfoldlM
	push_node _cycle_in_spine 5
.d 5 0 
	jsr ea2
.o 1 0 
.d 1 0 
	fill_a01_pop_rtn 
.o 5 0 
ea2
	jsr_eval 4
	jsr_eval 1
	jsr_eval 0
	push_r_args 1 2 0
	push_r_args 2 8 0
	update4_a 6 8
	update3_a 3 5
	update3pop_a 0 2
.o 13 0 
e_Data.Foldable_sfoldlM
.o 13 0 
s2
	push_a2 11 12
	push_a 11
	repl_r_args_a 3 0 2 1
	build_r e_Control.Monad_rMonad; 2 0 11 0
	push_update_a 0 14
	buildh e_Data.Foldable_df`;30.31 2
	update4_a 0 13
	updatepop_a 9 12
	jmp_ap 4
.export e_Data.Foldable_df`;30.31
.desc e_Data.Foldable_df`;30.31 _hnf l31 5 0 "f`;30.31"
.a 0 ea31
.o 2 0 
l31
	repl_args 4 4
.o 5 0 
ea31
	jsr_eval 1
	repl_r_args 2 0
.o 6 0 
s31
	push2_a 4
	push_a2 7 4
	buildh0_dup3_a _Nil 8
	put_a 7
	jsr_ap 2
	update2_a 0 6
	updatepop_a 2 5
.d 3 0 
	jmp_i 2
.export e_Data.Foldable_sfoldrM
.descexp e_Data.Foldable_dfoldrM e_Data.Foldable_nfoldrM e_Data.Foldable_lfoldrM 5 0 "foldrM"
.a 0 ea1
.o 2 0 
e_Data.Foldable_lfoldrM
	repl_args 4 4
.d 5 0 
	jmp ea1
.n 5 e_Data.Foldable_dfoldrM _
.o 1 0 
e_Data.Foldable_nfoldrM
	push_node _cycle_in_spine 5
.d 5 0 
	jsr ea1
.o 1 0 
.d 1 0 
	fill_a01_pop_rtn 
.o 5 0 
ea1
	jsr_eval 4
	jsr_eval 1
	jsr_eval 0
	push_r_args 1 2 0
	push_r_args 2 8 0
	update4_a 6 8
	update3_a 3 5
	update3pop_a 0 2
.o 13 0 
e_Data.Foldable_sfoldrM
.o 13 0 
s1
	push_a2 11 12
	push_a 11
	repl_r_args_a 3 0 2 1
	build_r e_Control.Monad_rMonad; 2 0 11 0
	push_update_a 0 14
	buildh e_Data.Foldable_df`;29.30 2
	update4_a 0 13
	updatepop_a 6 12
	jmp_ap 4
.export e_Data.Foldable_df`;29.30
.desc e_Data.Foldable_df`;29.30 _hnf l30 5 0 "f`;29.30"
.a 0 ea30
.o 2 0 
l30
	repl_args 4 4
.o 5 0 
ea30
	jsr_eval 1
	repl_r_args 2 0
.o 6 0 
s30
	push_a 3
	push2_a 6
	push_a 5
	buildh0_dup3_a _Nil 8
	put_a 7
	jsr_ap 2
	update2_a 0 6
	updatepop_a 2 5
.d 3 0 
	jmp_i 2
