.comp 920 000011110011000
.start _nostart_
.depend "Data.Func" "20210613143554"
.depend "StdCharList" "20210613143554"
.depend "_SystemArray" "20210613143554"
.depend "StdArray" "20210613143554"
.depend "StdEnv" "20210613143554"
.depend "_SystemEnum" "20210613143554"
.depend "StdEnum" "20210613143554"
.depend "StdTuple" "20210613143554"
.depend "StdOrdList" "20210613143554"
.depend "Control.Monad.Trans" "20210613143554"
.depend "StdMaybe" "20210613143554"
.depend "Data.Maybe" "20210613143554"
.depend "_SystemStrictMaybes" "20210613143554"
.depend "Control.GenBimap" "20210613143554"
.depend "StdFile" "20210613143554"
.depend "StdString" "20210613143554"
.depend "Control.Monad.Fail" "20210613143554"
.depend "Data.Traversable" "20210613143554"
.depend "StdMisc" "20210613143554"
.depend "StdOverloadedList" "20210613143554"
.depend "Data.List" "20210613143554"
.depend "Data.Foldable" "20210613143554"
.depend "StdFunctions" "20210613143554"
.depend "StdFunc" "20210613143554"
.depend "_SystemEnumStrict" "20210613143554"
.depend "_SystemStrictLists" "20210613143554"
.depend "StdStrictLists" "20210613143554"
.depend "StdGeneric" "20210613143554"
.depend "Data.GenEq" "20210613143554"
.depend "StdReal" "20210613143554"
.depend "StdChar" "20210613143554"
.depend "StdInt" "20210613143554"
.depend "StdBool" "20210613143554"
.depend "StdClass" "20210613143554"
.depend "StdList" "20210613143554"
.depend "Data.Monoid" "20210613143554"
.depend "Control.Applicative" "20210613143554"
.depend "Control.Monad" "20210613143554"
.depend "Data.Functor" "20210613143554"
.depend "StdOverloaded" "20210613143554"
.depend "_SystemDynamic" "20210613143554"
.depend "Data.GenDefault" "20210613143554"
.module m_Data.GenDefault "Data.GenDefault" "20210613143554"
.endinfo
.impmod _system
.implab _cycle_in_spine
.implab _type_error
.implab _hnf
.impdesc e_system_dind
.implab e_system_nind e_system_eaind
.impdesc e_system_dif
.implab e_system_nif e_system_eaif
.implab e_system_sif
.impdesc e_system_dAP
.implab e_system_nAP e_system_eaAP
.implab e_system_sAP
.impdesc ARRAY
.impdesc _Nil
.impdesc _Cons
.impdesc _Conss
.implab n_Conss ea_Conss
.impdesc _Consts
.implab n_Consts ea_Consts
.impdesc _Conssts
.implab n_Conssts ea_Conssts
.impdesc _Tuple
.impdesc d_S.1
.implab n_S.1 ea_S.1
.impdesc d_S.2
.implab n_S.2 ea_S.2
.impdesc d_S.3
.implab n_S.3 ea_S.3
.impdesc d_S.4
.implab n_S.4 ea_S.4
.impdesc d_S.5
.implab n_S.5 ea_S.5
.impdesc d_S.6
.implab n_S.6 ea_S.6
.implab _driver
.impmod _SystemArray
.impdesc e__SystemArray_d_createArray;0
.implab e__SystemArray_n_createArray;0
.impdesc e__SystemArray_d_createArray;104
.implab e__SystemArray_n_createArray;104
.impmod Data.Maybe
.impdesc e_Data.Maybe_dfmap;5
.implab e_Data.Maybe_sfmap;5
.implab e_Data.Maybe_nfmap;5 e_Data.Maybe_eafmap;5
.impdesc e_Data.Maybe_d<*>;9
.implab e_Data.Maybe_n<*>;9 e_Data.Maybe_ea<*>;9
.impdesc e_Data.Maybe_d<|>;15
.implab e_Data.Maybe_n<|>;15 e_Data.Maybe_ea<|>;15
.impmod Control.GenBimap
.implab e_Control.GenBimap_sbimap__List;1
.impmod Data.List
.impdesc e_Data.List_dfmap;86
.implab e_Data.List_sfmap;86
.implab e_Data.List_nfmap;86 e_Data.List_eafmap;86
.impmod StdFunctions
.impdesc e_StdFunctions_dconst
.impmod StdGeneric
.impdesc e_StdGeneric_dUNIT
.impdesc e_StdGeneric_dLEFT
.impdesc e_StdGeneric_dRIGHT
.impdesc e_StdGeneric_dPAIR
.impdesc e_StdGeneric_dCONS
.impdesc e_StdGeneric_dRECORD
.impmod _predef
.impdesc e__predef_d_Unit
.export e_Data.GenDefault_sgFiniteDefault__Tuple8;53
.export e_Data.GenDefault_eagFiniteDefault__Tuple8;53
.descexp e_Data.GenDefault_dgFiniteDefault__Tuple8;53 e_Data.GenDefault_ngFiniteDefault__Tuple8;53 e_Data.GenDefault_lgFiniteDefault__Tuple8;53 8 0 "gFiniteDefault__Tuple8;53"
.o 10 0
e_Data.GenDefault_igFiniteDefault__Tuple8;53
	pop_a 1
.d 9 0
	jmp s54
.ai 8 e_Data.GenDefault_eagFiniteDefault__Tuple8;53 e_Data.GenDefault_igFiniteDefault__Tuple8;53
.o 2 0
e_Data.GenDefault_lgFiniteDefault__Tuple8;53
	push_args 0 7 7
	update_a 8 7
	create
	update_a 0 9
	pop_a 1
.d 9 0
	jmp e_Data.GenDefault_eagFiniteDefault__Tuple8;53
.n 8 e_Data.GenDefault_dgFiniteDefault__Tuple8;53 e_Data.GenDefault_eagFiniteDefault__Tuple8;53
.o 1 0
e_Data.GenDefault_ngFiniteDefault__Tuple8;53
	push_node _cycle_in_spine 8
.o 9 0
e_Data.GenDefault_eagFiniteDefault__Tuple8;53
.o 9 0
e_Data.GenDefault_sgFiniteDefault__Tuple8;53
.o 9 0
s54
	push_a 7
	push_a 7
	build e_Data.GenDefault_dgFiniteDefault_PAIR;34 2 e_Data.GenDefault_ngFiniteDefault_PAIR;34
	push_a 6
	push_a 6
	build e_Data.GenDefault_dgFiniteDefault_PAIR;34 2 e_Data.GenDefault_ngFiniteDefault_PAIR;34
	build e_Data.GenDefault_dgFiniteDefault_PAIR;34 2 e_Data.GenDefault_ngFiniteDefault_PAIR;34
	push_a 4
	push_a 4
	build e_Data.GenDefault_dgFiniteDefault_PAIR;34 2 e_Data.GenDefault_ngFiniteDefault_PAIR;34
	push_a 3
	push_a 3
	build e_Data.GenDefault_dgFiniteDefault_PAIR;34 2 e_Data.GenDefault_ngFiniteDefault_PAIR;34
	build e_Data.GenDefault_dgFiniteDefault_PAIR;34 2 e_Data.GenDefault_ngFiniteDefault_PAIR;34
	build e_Data.GenDefault_dgFiniteDefault_PAIR;34 2 e_Data.GenDefault_ngFiniteDefault_PAIR;34
	build e_Data.GenDefault_dgFiniteDefault_CONS;36 1 e_Data.GenDefault_ngFiniteDefault_CONS;36
	build e_Data.GenDefault_dgFiniteDefault_OBJECT;38 1 e_Data.GenDefault_ngFiniteDefault_OBJECT;38
	buildh e_Data.GenDefault_dbimapToGeneric;122.88 0
	buildh e_Data.GenDefault_dbimapFromGeneric;121.87 0
	update_a 2 10
	update_a 1 9
	updatepop_a 0 8
.d 4 0
	jmp e_Control.GenBimap_sbimap__List;1
.export e_Data.GenDefault_dbimapFromGeneric;121.87
.desc e_Data.GenDefault_dbimapFromGeneric;121.87 _hnf l87 1 0 "bimapFromGeneric;121.87"
.o 2 0
l87
	update_a 1 0
	create
	update_a 0 2
	pop_a 1
.o 2 0
ea87
	jsr_eval 0
.o 2 0
s87
	eq_desc _Just 1 0
	jmp_true case.1
	jmp case.2
case.1
	repl_args 1 1
	push_a 0
	updatepop_a 0 1
.d 1 0
	jsr s71
.o 8 0
	push_a 7
	push_a 7
	push_a 7
	push_a 7
	push_a 7
	push_a 7
	push_a 7
	push_a 7
	buildh _Tuple 8
	updatepop_a 0 8
	fillh _Just 1 1
.d 1 0
	rtn
case.2
	fillh _None 0 1
	pop_a 1
.d 1 0
	rtn
.export e_Data.GenDefault_dbimapToGeneric;122.88
.desc e_Data.GenDefault_dbimapToGeneric;122.88 _hnf l88 1 0 "bimapToGeneric;122.88"
.o 2 0
l88
	update_a 1 0
	create
	update_a 0 2
	pop_a 1
.o 2 0
ea88
	jsr_eval 0
.o 2 0
s88
	eq_desc _Just 1 0
	jmp_true case.3
	jmp case.4
case.3
	repl_args 1 1
	create
	push_args 1 8 8
	update_a 8 9
	update_a 7 8
	update_a 6 7
	update_a 5 6
	update_a 4 5
	update_a 3 4
	update_a 2 3
	update_a 1 2
	updatepop_a 0 1
.d 9 0
	jsr s72
.o 1 0
	fillh _Just 1 1
.d 1 0
	rtn
case.4
	fillh _None 0 1
	pop_a 1
.d 1 0
	rtn
.o 9 0
s72
	push_a 7
	push_a 7
	buildh e_StdGeneric_dPAIR 2
	push_a 6
	push_a 6
	buildh e_StdGeneric_dPAIR 2
	buildh e_StdGeneric_dPAIR 2
	push_a 4
	push_a 4
	buildh e_StdGeneric_dPAIR 2
	push_a 3
	push_a 3
	buildh e_StdGeneric_dPAIR 2
	buildh e_StdGeneric_dPAIR 2
	buildh e_StdGeneric_dPAIR 2
	fillh e_StdGeneric_dCONS 1 9
	pop_a 8
.d 1 0
	rtn
.export e_Data.GenDefault_sgFiniteDefault__Tuple7;52
.export e_Data.GenDefault_eagFiniteDefault__Tuple7;52
.descexp e_Data.GenDefault_dgFiniteDefault__Tuple7;52 e_Data.GenDefault_ngFiniteDefault__Tuple7;52 e_Data.GenDefault_lgFiniteDefault__Tuple7;52 7 0 "gFiniteDefault__Tuple7;52"
.o 9 0
e_Data.GenDefault_igFiniteDefault__Tuple7;52
	pop_a 1
.d 8 0
	jmp s53
.ai 7 e_Data.GenDefault_eagFiniteDefault__Tuple7;52 e_Data.GenDefault_igFiniteDefault__Tuple7;52
.o 2 0
e_Data.GenDefault_lgFiniteDefault__Tuple7;52
	push_args 0 6 6
	update_a 7 6
	create
	update_a 0 8
	pop_a 1
.d 8 0
	jmp e_Data.GenDefault_eagFiniteDefault__Tuple7;52
.n 7 e_Data.GenDefault_dgFiniteDefault__Tuple7;52 e_Data.GenDefault_eagFiniteDefault__Tuple7;52
.o 1 0
e_Data.GenDefault_ngFiniteDefault__Tuple7;52
	push_node _cycle_in_spine 7
.o 8 0
e_Data.GenDefault_eagFiniteDefault__Tuple7;52
.o 8 0
e_Data.GenDefault_sgFiniteDefault__Tuple7;52
.o 8 0
s53
	push_a 6
	push_a 6
	build e_Data.GenDefault_dgFiniteDefault_PAIR;34 2 e_Data.GenDefault_ngFiniteDefault_PAIR;34
	push_a 5
	push_a 5
	build e_Data.GenDefault_dgFiniteDefault_PAIR;34 2 e_Data.GenDefault_ngFiniteDefault_PAIR;34
	build e_Data.GenDefault_dgFiniteDefault_PAIR;34 2 e_Data.GenDefault_ngFiniteDefault_PAIR;34
	push_a 3
	push_a 3
	build e_Data.GenDefault_dgFiniteDefault_PAIR;34 2 e_Data.GenDefault_ngFiniteDefault_PAIR;34
	push_a 2
	build e_Data.GenDefault_dgFiniteDefault_PAIR;34 2 e_Data.GenDefault_ngFiniteDefault_PAIR;34
	build e_Data.GenDefault_dgFiniteDefault_PAIR;34 2 e_Data.GenDefault_ngFiniteDefault_PAIR;34
	build e_Data.GenDefault_dgFiniteDefault_CONS;36 1 e_Data.GenDefault_ngFiniteDefault_CONS;36
	build e_Data.GenDefault_dgFiniteDefault_OBJECT;38 1 e_Data.GenDefault_ngFiniteDefault_OBJECT;38
	buildh e_Data.GenDefault_dbimapToGeneric;120.86 0
	buildh e_Data.GenDefault_dbimapFromGeneric;119.85 0
	update_a 2 9
	update_a 1 8
	updatepop_a 0 7
.d 4 0
	jmp e_Control.GenBimap_sbimap__List;1
.export e_Data.GenDefault_dbimapFromGeneric;119.85
.desc e_Data.GenDefault_dbimapFromGeneric;119.85 _hnf l85 1 0 "bimapFromGeneric;119.85"
.o 2 0
l85
	update_a 1 0
	create
	update_a 0 2
	pop_a 1
.o 2 0
ea85
	jsr_eval 0
.o 2 0
s85
	eq_desc _Just 1 0
	jmp_true case.5
	jmp case.6
case.5
	repl_args 1 1
	push_a 0
	updatepop_a 0 1
.d 1 0
	jsr s69
.o 7 0
	push_a 6
	push_a 6
	push_a 6
	push_a 6
	push_a 6
	push_a 6
	push_a 6
	buildh _Tuple 7
	updatepop_a 0 7
	fillh _Just 1 1
.d 1 0
	rtn
case.6
	fillh _None 0 1
	pop_a 1
.d 1 0
	rtn
.export e_Data.GenDefault_dbimapToGeneric;120.86
.desc e_Data.GenDefault_dbimapToGeneric;120.86 _hnf l86 1 0 "bimapToGeneric;120.86"
.o 2 0
l86
	update_a 1 0
	create
	update_a 0 2
	pop_a 1
.o 2 0
ea86
	jsr_eval 0
.o 2 0
s86
	eq_desc _Just 1 0
	jmp_true case.7
	jmp case.8
case.7
	repl_args 1 1
	create
	push_args 1 7 7
	update_a 7 8
	update_a 6 7
	update_a 5 6
	update_a 4 5
	update_a 3 4
	update_a 2 3
	update_a 1 2
	updatepop_a 0 1
.d 8 0
	jsr s70
.o 1 0
	fillh _Just 1 1
.d 1 0
	rtn
case.8
	fillh _None 0 1
	pop_a 1
.d 1 0
	rtn
.o 8 0
s70
	push_a 6
	push_a 6
	buildh e_StdGeneric_dPAIR 2
	push_a 5
	push_a 5
	buildh e_StdGeneric_dPAIR 2
	buildh e_StdGeneric_dPAIR 2
	push_a 3
	push_a 3
	buildh e_StdGeneric_dPAIR 2
	push_a 2
	buildh e_StdGeneric_dPAIR 2
	buildh e_StdGeneric_dPAIR 2
	fillh e_StdGeneric_dCONS 1 8
	pop_a 7
.d 1 0
	rtn
.export e_Data.GenDefault_sgFiniteDefault__Tuple6;51
.export e_Data.GenDefault_eagFiniteDefault__Tuple6;51
.descexp e_Data.GenDefault_dgFiniteDefault__Tuple6;51 e_Data.GenDefault_ngFiniteDefault__Tuple6;51 e_Data.GenDefault_lgFiniteDefault__Tuple6;51 6 0 "gFiniteDefault__Tuple6;51"
.o 8 0
e_Data.GenDefault_igFiniteDefault__Tuple6;51
	pop_a 1
.d 7 0
	jmp s52
.ai 6 e_Data.GenDefault_eagFiniteDefault__Tuple6;51 e_Data.GenDefault_igFiniteDefault__Tuple6;51
.o 2 0
e_Data.GenDefault_lgFiniteDefault__Tuple6;51
	push_args 0 5 5
	update_a 6 5
	create
	update_a 0 7
	pop_a 1
.d 7 0
	jmp e_Data.GenDefault_eagFiniteDefault__Tuple6;51
.n 6 e_Data.GenDefault_dgFiniteDefault__Tuple6;51 e_Data.GenDefault_eagFiniteDefault__Tuple6;51
.o 1 0
e_Data.GenDefault_ngFiniteDefault__Tuple6;51
	push_node _cycle_in_spine 6
.o 7 0
e_Data.GenDefault_eagFiniteDefault__Tuple6;51
.o 7 0
e_Data.GenDefault_sgFiniteDefault__Tuple6;51
.o 7 0
s52
	push_a 5
	push_a 5
	build e_Data.GenDefault_dgFiniteDefault_PAIR;34 2 e_Data.GenDefault_ngFiniteDefault_PAIR;34
	push_a 4
	build e_Data.GenDefault_dgFiniteDefault_PAIR;34 2 e_Data.GenDefault_ngFiniteDefault_PAIR;34
	push_a 3
	push_a 3
	build e_Data.GenDefault_dgFiniteDefault_PAIR;34 2 e_Data.GenDefault_ngFiniteDefault_PAIR;34
	push_a 2
	build e_Data.GenDefault_dgFiniteDefault_PAIR;34 2 e_Data.GenDefault_ngFiniteDefault_PAIR;34
	build e_Data.GenDefault_dgFiniteDefault_PAIR;34 2 e_Data.GenDefault_ngFiniteDefault_PAIR;34
	build e_Data.GenDefault_dgFiniteDefault_CONS;36 1 e_Data.GenDefault_ngFiniteDefault_CONS;36
	build e_Data.GenDefault_dgFiniteDefault_OBJECT;38 1 e_Data.GenDefault_ngFiniteDefault_OBJECT;38
	buildh e_Data.GenDefault_dbimapToGeneric;118.84 0
	buildh e_Data.GenDefault_dbimapFromGeneric;117.83 0
	update_a 2 8
	update_a 1 7
	updatepop_a 0 6
.d 4 0
	jmp e_Control.GenBimap_sbimap__List;1
.export e_Data.GenDefault_dbimapFromGeneric;117.83
.desc e_Data.GenDefault_dbimapFromGeneric;117.83 _hnf l83 1 0 "bimapFromGeneric;117.83"
.o 2 0
l83
	update_a 1 0
	create
	update_a 0 2
	pop_a 1
.o 2 0
ea83
	jsr_eval 0
.o 2 0
s83
	eq_desc _Just 1 0
	jmp_true case.9
	jmp case.10
case.9
	repl_args 1 1
	push_a 0
	updatepop_a 0 1
.d 1 0
	jsr s67
.o 6 0
	push_a 5
	push_a 5
	push_a 5
	push_a 5
	push_a 5
	push_a 5
	buildh _Tuple 6
	updatepop_a 0 6
	fillh _Just 1 1
.d 1 0
	rtn
case.10
	fillh _None 0 1
	pop_a 1
.d 1 0
	rtn
.export e_Data.GenDefault_dbimapToGeneric;118.84
.desc e_Data.GenDefault_dbimapToGeneric;118.84 _hnf l84 1 0 "bimapToGeneric;118.84"
.o 2 0
l84
	update_a 1 0
	create
	update_a 0 2
	pop_a 1
.o 2 0
ea84
	jsr_eval 0
.o 2 0
s84
	eq_desc _Just 1 0
	jmp_true case.11
	jmp case.12
case.11
	repl_args 1 1
	create
	push_args 1 6 6
	update_a 6 7
	update_a 5 6
	update_a 4 5
	update_a 3 4
	update_a 2 3
	update_a 1 2
	updatepop_a 0 1
.d 7 0
	jsr s68
.o 1 0
	fillh _Just 1 1
.d 1 0
	rtn
case.12
	fillh _None 0 1
	pop_a 1
.d 1 0
	rtn
.o 7 0
s68
	push_a 5
	push_a 5
	buildh e_StdGeneric_dPAIR 2
	push_a 4
	buildh e_StdGeneric_dPAIR 2
	push_a 3
	push_a 3
	buildh e_StdGeneric_dPAIR 2
	push_a 2
	buildh e_StdGeneric_dPAIR 2
	buildh e_StdGeneric_dPAIR 2
	fillh e_StdGeneric_dCONS 1 7
	pop_a 6
.d 1 0
	rtn
.export e_Data.GenDefault_sgFiniteDefault__Tuple5;50
.export e_Data.GenDefault_eagFiniteDefault__Tuple5;50
.descexp e_Data.GenDefault_dgFiniteDefault__Tuple5;50 e_Data.GenDefault_ngFiniteDefault__Tuple5;50 e_Data.GenDefault_lgFiniteDefault__Tuple5;50 5 0 "gFiniteDefault__Tuple5;50"
.o 7 0
e_Data.GenDefault_igFiniteDefault__Tuple5;50
	pop_a 1
.d 6 0
	jmp s51
.ai 5 e_Data.GenDefault_eagFiniteDefault__Tuple5;50 e_Data.GenDefault_igFiniteDefault__Tuple5;50
.o 2 0
e_Data.GenDefault_lgFiniteDefault__Tuple5;50
	push_args 0 4 4
	update_a 5 4
	create
	update_a 0 6
	pop_a 1
.d 6 0
	jmp e_Data.GenDefault_eagFiniteDefault__Tuple5;50
.n 5 e_Data.GenDefault_dgFiniteDefault__Tuple5;50 e_Data.GenDefault_eagFiniteDefault__Tuple5;50
.o 1 0
e_Data.GenDefault_ngFiniteDefault__Tuple5;50
	push_node _cycle_in_spine 5
.o 6 0
e_Data.GenDefault_eagFiniteDefault__Tuple5;50
.o 6 0
e_Data.GenDefault_sgFiniteDefault__Tuple5;50
.o 6 0
s51
	push_a 4
	push_a 4
	build e_Data.GenDefault_dgFiniteDefault_PAIR;34 2 e_Data.GenDefault_ngFiniteDefault_PAIR;34
	push_a 3
	build e_Data.GenDefault_dgFiniteDefault_PAIR;34 2 e_Data.GenDefault_ngFiniteDefault_PAIR;34
	push_a 2
	push_a 2
	build e_Data.GenDefault_dgFiniteDefault_PAIR;34 2 e_Data.GenDefault_ngFiniteDefault_PAIR;34
	build e_Data.GenDefault_dgFiniteDefault_PAIR;34 2 e_Data.GenDefault_ngFiniteDefault_PAIR;34
	build e_Data.GenDefault_dgFiniteDefault_CONS;36 1 e_Data.GenDefault_ngFiniteDefault_CONS;36
	build e_Data.GenDefault_dgFiniteDefault_OBJECT;38 1 e_Data.GenDefault_ngFiniteDefault_OBJECT;38
	buildh e_Data.GenDefault_dbimapToGeneric;116.82 0
	buildh e_Data.GenDefault_dbimapFromGeneric;115.81 0
	update_a 2 7
	update_a 1 6
	updatepop_a 0 5
.d 4 0
	jmp e_Control.GenBimap_sbimap__List;1
.export e_Data.GenDefault_dbimapFromGeneric;115.81
.desc e_Data.GenDefault_dbimapFromGeneric;115.81 _hnf l81 1 0 "bimapFromGeneric;115.81"
.o 2 0
l81
	update_a 1 0
	create
	update_a 0 2
	pop_a 1
.o 2 0
ea81
	jsr_eval 0
.o 2 0
s81
	eq_desc _Just 1 0
	jmp_true case.13
	jmp case.14
case.13
	repl_args 1 1
	push_a 0
	updatepop_a 0 1
.d 1 0
	jsr s65
.o 5 0
	push_a 4
	push_a 4
	push_a 4
	push_a 4
	push_a 4
	buildh _Tuple 5
	updatepop_a 0 5
	fillh _Just 1 1
.d 1 0
	rtn
case.14
	fillh _None 0 1
	pop_a 1
.d 1 0
	rtn
.export e_Data.GenDefault_dbimapToGeneric;116.82
.desc e_Data.GenDefault_dbimapToGeneric;116.82 _hnf l82 1 0 "bimapToGeneric;116.82"
.o 2 0
l82
	update_a 1 0
	create
	update_a 0 2
	pop_a 1
.o 2 0
ea82
	jsr_eval 0
.o 2 0
s82
	eq_desc _Just 1 0
	jmp_true case.15
	jmp case.16
case.15
	repl_args 1 1
	create
	push_args 1 5 5
	update_a 5 6
	update_a 4 5
	update_a 3 4
	update_a 2 3
	update_a 1 2
	updatepop_a 0 1
.d 6 0
	jsr s66
.o 1 0
	fillh _Just 1 1
.d 1 0
	rtn
case.16
	fillh _None 0 1
	pop_a 1
.d 1 0
	rtn
.o 6 0
s66
	push_a 4
	push_a 4
	buildh e_StdGeneric_dPAIR 2
	push_a 3
	buildh e_StdGeneric_dPAIR 2
	push_a 2
	push_a 2
	buildh e_StdGeneric_dPAIR 2
	buildh e_StdGeneric_dPAIR 2
	fillh e_StdGeneric_dCONS 1 6
	pop_a 5
.d 1 0
	rtn
.export e_Data.GenDefault_sgFiniteDefault__Tuple4;49
.export e_Data.GenDefault_eagFiniteDefault__Tuple4;49
.descexp e_Data.GenDefault_dgFiniteDefault__Tuple4;49 e_Data.GenDefault_ngFiniteDefault__Tuple4;49 e_Data.GenDefault_lgFiniteDefault__Tuple4;49 4 0 "gFiniteDefault__Tuple4;49"
.o 6 0
e_Data.GenDefault_igFiniteDefault__Tuple4;49
	pop_a 1
.d 5 0
	jmp s50
.ai 4 e_Data.GenDefault_eagFiniteDefault__Tuple4;49 e_Data.GenDefault_igFiniteDefault__Tuple4;49
.o 2 0
e_Data.GenDefault_lgFiniteDefault__Tuple4;49
	push_args 0 3 3
	update_a 4 3
	create
	update_a 0 5
	pop_a 1
.d 5 0
	jmp e_Data.GenDefault_eagFiniteDefault__Tuple4;49
.n 4 e_Data.GenDefault_dgFiniteDefault__Tuple4;49 e_Data.GenDefault_eagFiniteDefault__Tuple4;49
.o 1 0
e_Data.GenDefault_ngFiniteDefault__Tuple4;49
	push_node _cycle_in_spine 4
.o 5 0
e_Data.GenDefault_eagFiniteDefault__Tuple4;49
.o 5 0
e_Data.GenDefault_sgFiniteDefault__Tuple4;49
.o 5 0
s50
	push_a 3
	push_a 3
	build e_Data.GenDefault_dgFiniteDefault_PAIR;34 2 e_Data.GenDefault_ngFiniteDefault_PAIR;34
	push_a 2
	push_a 2
	build e_Data.GenDefault_dgFiniteDefault_PAIR;34 2 e_Data.GenDefault_ngFiniteDefault_PAIR;34
	build e_Data.GenDefault_dgFiniteDefault_PAIR;34 2 e_Data.GenDefault_ngFiniteDefault_PAIR;34
	build e_Data.GenDefault_dgFiniteDefault_CONS;36 1 e_Data.GenDefault_ngFiniteDefault_CONS;36
	build e_Data.GenDefault_dgFiniteDefault_OBJECT;38 1 e_Data.GenDefault_ngFiniteDefault_OBJECT;38
	buildh e_Data.GenDefault_dbimapToGeneric;114.80 0
	buildh e_Data.GenDefault_dbimapFromGeneric;113.79 0
	update_a 2 6
	update_a 1 5
	updatepop_a 0 4
.d 4 0
	jmp e_Control.GenBimap_sbimap__List;1
.export e_Data.GenDefault_dbimapFromGeneric;113.79
.desc e_Data.GenDefault_dbimapFromGeneric;113.79 _hnf l79 1 0 "bimapFromGeneric;113.79"
.o 2 0
l79
	update_a 1 0
	create
	update_a 0 2
	pop_a 1
.o 2 0
ea79
	jsr_eval 0
.o 2 0
s79
	eq_desc _Just 1 0
	jmp_true case.17
	jmp case.18
case.17
	repl_args 1 1
	push_a 0
	updatepop_a 0 1
.d 1 0
	jsr s63
.o 4 0
	push_a 3
	push_a 3
	push_a 3
	push_a 3
	buildh _Tuple 4
	updatepop_a 0 4
	fillh _Just 1 1
.d 1 0
	rtn
case.18
	fillh _None 0 1
	pop_a 1
.d 1 0
	rtn
.export e_Data.GenDefault_dbimapToGeneric;114.80
.desc e_Data.GenDefault_dbimapToGeneric;114.80 _hnf l80 1 0 "bimapToGeneric;114.80"
.o 2 0
l80
	update_a 1 0
	create
	update_a 0 2
	pop_a 1
.o 2 0
ea80
	jsr_eval 0
.o 2 0
s80
	eq_desc _Just 1 0
	jmp_true case.19
	jmp case.20
case.19
	repl_args 1 1
	create
	push_args 1 4 4
	update_a 4 5
	update_a 3 4
	update_a 2 3
	update_a 1 2
	updatepop_a 0 1
.d 5 0
	jsr s64
.o 1 0
	fillh _Just 1 1
.d 1 0
	rtn
case.20
	fillh _None 0 1
	pop_a 1
.d 1 0
	rtn
.o 5 0
s64
	push_a 3
	push_a 3
	buildh e_StdGeneric_dPAIR 2
	push_a 2
	push_a 2
	buildh e_StdGeneric_dPAIR 2
	buildh e_StdGeneric_dPAIR 2
	fillh e_StdGeneric_dCONS 1 5
	pop_a 4
.d 1 0
	rtn
.export e_Data.GenDefault_sgFiniteDefault__Tuple3;48
.export e_Data.GenDefault_eagFiniteDefault__Tuple3;48
.descexp e_Data.GenDefault_dgFiniteDefault__Tuple3;48 e_Data.GenDefault_ngFiniteDefault__Tuple3;48 e_Data.GenDefault_lgFiniteDefault__Tuple3;48 3 0 "gFiniteDefault__Tuple3;48"
.o 5 0
e_Data.GenDefault_igFiniteDefault__Tuple3;48
	pop_a 1
.d 4 0
	jmp s49
.ai 3 e_Data.GenDefault_eagFiniteDefault__Tuple3;48 e_Data.GenDefault_igFiniteDefault__Tuple3;48
.o 2 0
e_Data.GenDefault_lgFiniteDefault__Tuple3;48
	push_args 0 2 2
	update_a 3 2
	create
	update_a 0 4
	pop_a 1
.d 4 0
	jmp e_Data.GenDefault_eagFiniteDefault__Tuple3;48
.n 3 e_Data.GenDefault_dgFiniteDefault__Tuple3;48 e_Data.GenDefault_eagFiniteDefault__Tuple3;48
.o 1 0
e_Data.GenDefault_ngFiniteDefault__Tuple3;48
	push_node _cycle_in_spine 3
.o 4 0
e_Data.GenDefault_eagFiniteDefault__Tuple3;48
.o 4 0
e_Data.GenDefault_sgFiniteDefault__Tuple3;48
.o 4 0
s49
	push_a 2
	push_a 2
	build e_Data.GenDefault_dgFiniteDefault_PAIR;34 2 e_Data.GenDefault_ngFiniteDefault_PAIR;34
	push_a 1
	build e_Data.GenDefault_dgFiniteDefault_PAIR;34 2 e_Data.GenDefault_ngFiniteDefault_PAIR;34
	build e_Data.GenDefault_dgFiniteDefault_CONS;36 1 e_Data.GenDefault_ngFiniteDefault_CONS;36
	build e_Data.GenDefault_dgFiniteDefault_OBJECT;38 1 e_Data.GenDefault_ngFiniteDefault_OBJECT;38
	buildh e_Data.GenDefault_dbimapToGeneric;112.78 0
	buildh e_Data.GenDefault_dbimapFromGeneric;111.77 0
	update_a 2 5
	update_a 1 4
	updatepop_a 0 3
.d 4 0
	jmp e_Control.GenBimap_sbimap__List;1
.export e_Data.GenDefault_dbimapFromGeneric;111.77
.desc e_Data.GenDefault_dbimapFromGeneric;111.77 _hnf l77 1 0 "bimapFromGeneric;111.77"
.o 2 0
l77
	update_a 1 0
	create
	update_a 0 2
	pop_a 1
.o 2 0
ea77
	jsr_eval 0
.o 2 0
s77
	eq_desc _Just 1 0
	jmp_true case.21
	jmp case.22
case.21
	repl_args 1 1
	push_a 0
	updatepop_a 0 1
.d 1 0
	jsr s61
.o 3 0
	push_a 2
	push_a 2
	push_a 2
	buildh _Tuple 3
	updatepop_a 0 3
	fillh _Just 1 1
.d 1 0
	rtn
case.22
	fillh _None 0 1
	pop_a 1
.d 1 0
	rtn
.export e_Data.GenDefault_dbimapToGeneric;112.78
.desc e_Data.GenDefault_dbimapToGeneric;112.78 _hnf l78 1 0 "bimapToGeneric;112.78"
.o 2 0
l78
	update_a 1 0
	create
	update_a 0 2
	pop_a 1
.o 2 0
ea78
	jsr_eval 0
.o 2 0
s78
	eq_desc _Just 1 0
	jmp_true case.23
	jmp case.24
case.23
	repl_args 1 1
	create
	push_args 1 3 3
	update_a 3 4
	update_a 2 3
	update_a 1 2
	updatepop_a 0 1
.d 4 0
	jsr s62
.o 1 0
	fillh _Just 1 1
.d 1 0
	rtn
case.24
	fillh _None 0 1
	pop_a 1
.d 1 0
	rtn
.o 4 0
s62
	push_a 2
	push_a 2
	buildh e_StdGeneric_dPAIR 2
	push_a 1
	buildh e_StdGeneric_dPAIR 2
	fillh e_StdGeneric_dCONS 1 4
	pop_a 3
.d 1 0
	rtn
.export e_Data.GenDefault_sgFiniteDefault__Tuple2;47
.export e_Data.GenDefault_eagFiniteDefault__Tuple2;47
.descexp e_Data.GenDefault_dgFiniteDefault__Tuple2;47 e_Data.GenDefault_ngFiniteDefault__Tuple2;47 e_Data.GenDefault_lgFiniteDefault__Tuple2;47 2 0 "gFiniteDefault__Tuple2;47"
.o 4 0
e_Data.GenDefault_igFiniteDefault__Tuple2;47
	pop_a 1
.d 3 0
	jmp s48
.ai 2 e_Data.GenDefault_eagFiniteDefault__Tuple2;47 e_Data.GenDefault_igFiniteDefault__Tuple2;47
.o 2 0
e_Data.GenDefault_lgFiniteDefault__Tuple2;47
	push_args 0 1 1
	update_a 2 1
	create
	update_a 0 3
	pop_a 1
.d 3 0
	jmp e_Data.GenDefault_eagFiniteDefault__Tuple2;47
.n 2 e_Data.GenDefault_dgFiniteDefault__Tuple2;47 e_Data.GenDefault_eagFiniteDefault__Tuple2;47
.o 1 0
e_Data.GenDefault_ngFiniteDefault__Tuple2;47
	push_node _cycle_in_spine 2
.o 3 0
e_Data.GenDefault_eagFiniteDefault__Tuple2;47
.o 3 0
e_Data.GenDefault_sgFiniteDefault__Tuple2;47
.o 3 0
s48
	push_a 1
	push_a 1
	build e_Data.GenDefault_dgFiniteDefault_PAIR;34 2 e_Data.GenDefault_ngFiniteDefault_PAIR;34
	build e_Data.GenDefault_dgFiniteDefault_CONS;36 1 e_Data.GenDefault_ngFiniteDefault_CONS;36
	build e_Data.GenDefault_dgFiniteDefault_OBJECT;38 1 e_Data.GenDefault_ngFiniteDefault_OBJECT;38
	buildh e_Data.GenDefault_dbimapToGeneric;110.76 0
	buildh e_Data.GenDefault_dbimapFromGeneric;109.75 0
	update_a 2 4
	update_a 1 3
	updatepop_a 0 2
.d 4 0
	jmp e_Control.GenBimap_sbimap__List;1
.export e_Data.GenDefault_dbimapFromGeneric;109.75
.desc e_Data.GenDefault_dbimapFromGeneric;109.75 _hnf l75 1 0 "bimapFromGeneric;109.75"
.o 2 0
l75
	update_a 1 0
	create
	update_a 0 2
	pop_a 1
.o 2 0
ea75
	jsr_eval 0
.o 2 0
s75
	eq_desc _Just 1 0
	jmp_true case.25
	jmp case.26
case.25
	repl_args 1 1
	push_a 0
	updatepop_a 0 1
.d 1 0
	jsr s59
.o 2 0
	push_a 1
	push_a 1
	buildh _Tuple 2
	updatepop_a 0 2
	fillh _Just 1 1
.d 1 0
	rtn
case.26
	fillh _None 0 1
	pop_a 1
.d 1 0
	rtn
.export e_Data.GenDefault_dbimapToGeneric;110.76
.desc e_Data.GenDefault_dbimapToGeneric;110.76 _hnf l76 1 0 "bimapToGeneric;110.76"
.o 2 0
l76
	update_a 1 0
	create
	update_a 0 2
	pop_a 1
.o 2 0
ea76
	jsr_eval 0
.o 2 0
s76
	eq_desc _Just 1 0
	jmp_true case.27
	jmp case.28
case.27
	repl_args 1 1
	create
	push_args 1 2 2
	update_a 2 3
	update_a 1 2
	updatepop_a 0 1
.d 3 0
	jsr s60
.o 1 0
	fillh _Just 1 1
.d 1 0
	rtn
case.28
	fillh _None 0 1
	pop_a 1
.d 1 0
	rtn
.o 3 0
s60
	push_a 1
	push_a 1
	buildh e_StdGeneric_dPAIR 2
	fillh e_StdGeneric_dCONS 1 3
	pop_a 2
.d 1 0
	rtn
.export e_Data.GenDefault_sgFiniteDefault__Unit;46
.export e_Data.GenDefault_eagFiniteDefault__Unit;46
.descexp e_Data.GenDefault_dgFiniteDefault__Unit;46 e_Data.GenDefault_ngFiniteDefault__Unit;46 e_Data.GenDefault_lgFiniteDefault__Unit;46 0 0 "gFiniteDefault__Unit;46"
.o 2 0
e_Data.GenDefault_igFiniteDefault__Unit;46
	pop_a 1
.d 1 0
	jmp s47
.o 1 0
e_Data.GenDefault_lgFiniteDefault__Unit;46
	halt
.n 0 e_Data.GenDefault_dgFiniteDefault__Unit;46 e_Data.GenDefault_eagFiniteDefault__Unit;46
.o 1 0
e_Data.GenDefault_ngFiniteDefault__Unit;46
	push_node _cycle_in_spine 0
.o 1 0
e_Data.GenDefault_eagFiniteDefault__Unit;46
.o 1 0
e_Data.GenDefault_sgFiniteDefault__Unit;46
.o 1 0
s47
	build e_Data.GenDefault_dgFiniteDefault_UNIT;33 0 e_Data.GenDefault_ngFiniteDefault_UNIT;33
	build e_Data.GenDefault_dgFiniteDefault_CONS;36 1 e_Data.GenDefault_ngFiniteDefault_CONS;36
	build e_Data.GenDefault_dgFiniteDefault_OBJECT;38 1 e_Data.GenDefault_ngFiniteDefault_OBJECT;38
	buildh e_Data.GenDefault_dbimapToGeneric;108.74 0
	buildh e_Data.GenDefault_dbimapFromGeneric;107.73 0
.d 4 0
	jmp e_Control.GenBimap_sbimap__List;1
.export e_Data.GenDefault_dbimapFromGeneric;107.73
.desc e_Data.GenDefault_dbimapFromGeneric;107.73 _hnf l73 1 0 "bimapFromGeneric;107.73"
.o 2 0
l73
	update_a 1 0
	create
	update_a 0 2
	pop_a 1
.o 2 0
ea73
	jsr_eval 0
.o 2 0
s73
	eq_desc _Just 1 0
	jmp_true case.29
	jmp case.30
case.29
	repl_args 1 1
	create
	push_a 1
	update_a 1 2
	updatepop_a 0 1
.d 2 0
	jsr s57
.o 1 0
	fillh _Just 1 1
.d 1 0
	rtn
case.30
	fillh _None 0 1
	pop_a 1
.d 1 0
	rtn
.export e_Data.GenDefault_dbimapToGeneric;108.74
.desc e_Data.GenDefault_dbimapToGeneric;108.74 _hnf l74 1 0 "bimapToGeneric;108.74"
.o 2 0
l74
	update_a 1 0
	create
	update_a 0 2
	pop_a 1
.o 2 0
ea74
	jsr_eval 0
.o 2 0
s74
	eq_desc _Just 1 0
	jmp_true case.31
	jmp case.32
case.31
	repl_args 1 1
	create
	push_a 1
	update_a 1 2
	updatepop_a 0 1
.d 2 0
	jsr s58
.o 1 0
	fillh _Just 1 1
.d 1 0
	rtn
case.32
	fillh _None 0 1
	pop_a 1
.d 1 0
	rtn
.o 2 0
s58
	buildh e_StdGeneric_dUNIT 0
	fillh e_StdGeneric_dCONS 1 2
	pop_a 1
.d 1 0
	rtn
.export e_Data.GenDefault_sgFiniteDefault__!Array;45
.export e_Data.GenDefault_eagFiniteDefault__!Array;45
.descexp e_Data.GenDefault_dgFiniteDefault__!Array;45 e_Data.GenDefault_ngFiniteDefault__!Array;45 e_Data.GenDefault_lgFiniteDefault__!Array;45 1 0 "gFiniteDefault__!Array;45"
.o 3 0
e_Data.GenDefault_igFiniteDefault__!Array;45
	pop_a 1
.d 2 0
	jmp s46
.ai 1 _ e_Data.GenDefault_igFiniteDefault__!Array;45
.o 2 0
e_Data.GenDefault_lgFiniteDefault__!Array;45
	update_a 1 0
	create
	update_a 0 2
	pop_a 1
.d 2 0
	jmp e_Data.GenDefault_eagFiniteDefault__!Array;45
.n 1 e_Data.GenDefault_dgFiniteDefault__!Array;45 e_Data.GenDefault_eagFiniteDefault__!Array;45
.o 1 0
e_Data.GenDefault_ngFiniteDefault__!Array;45
	push_node _cycle_in_spine 1
.o 2 0
e_Data.GenDefault_eagFiniteDefault__!Array;45
.o 2 0
e_Data.GenDefault_sgFiniteDefault__!Array;45
.o 2 0
s46
	buildh _Nil 0
	buildI 0
	build e__SystemArray_d_createArray;0 1 e__SystemArray_n_createArray;0
	build _Justs 1 n_Justs
	fillh _Cons 2 3
	pop_a 1
.d 1 0
	rtn
.export e_Data.GenDefault_sgFiniteDefault__Array;44
.export e_Data.GenDefault_eagFiniteDefault__Array;44
.descexp e_Data.GenDefault_dgFiniteDefault__Array;44 e_Data.GenDefault_ngFiniteDefault__Array;44 e_Data.GenDefault_lgFiniteDefault__Array;44 1 0 "gFiniteDefault__Array;44"
.o 3 0
e_Data.GenDefault_igFiniteDefault__Array;44
	pop_a 1
.d 2 0
	jmp s45
.ai 1 _ e_Data.GenDefault_igFiniteDefault__Array;44
.o 2 0
e_Data.GenDefault_lgFiniteDefault__Array;44
	update_a 1 0
	create
	update_a 0 2
	pop_a 1
.d 2 0
	jmp e_Data.GenDefault_eagFiniteDefault__Array;44
.n 1 e_Data.GenDefault_dgFiniteDefault__Array;44 e_Data.GenDefault_eagFiniteDefault__Array;44
.o 1 0
e_Data.GenDefault_ngFiniteDefault__Array;44
	push_node _cycle_in_spine 1
.o 2 0
e_Data.GenDefault_eagFiniteDefault__Array;44
.o 2 0
e_Data.GenDefault_sgFiniteDefault__Array;44
.o 2 0
s45
	buildh _Nil 0
	buildI 0
	build e__SystemArray_d_createArray;104 1 e__SystemArray_n_createArray;104
	build _Justs 1 n_Justs
	fillh _Cons 2 3
	pop_a 1
.d 1 0
	rtn
.export e_Data.GenDefault_sgFiniteDefault__!List!;43
.export e_Data.GenDefault_eagFiniteDefault__!List!;43
.descexp e_Data.GenDefault_dgFiniteDefault__!List!;43 e_Data.GenDefault_ngFiniteDefault__!List!;43 e_Data.GenDefault_lgFiniteDefault__!List!;43 1 0 "gFiniteDefault__!List!;43"
.o 3 0
e_Data.GenDefault_igFiniteDefault__!List!;43
	pop_a 1
.d 2 0
	jmp s44
.ai 1 _ e_Data.GenDefault_igFiniteDefault__!List!;43
.o 2 0
e_Data.GenDefault_lgFiniteDefault__!List!;43
	update_a 1 0
	create
	update_a 0 2
	pop_a 1
.d 2 0
	jmp e_Data.GenDefault_eagFiniteDefault__!List!;43
.n 1 e_Data.GenDefault_dgFiniteDefault__!List!;43 e_Data.GenDefault_eagFiniteDefault__!List!;43
.o 1 0
e_Data.GenDefault_ngFiniteDefault__!List!;43
	push_node _cycle_in_spine 1
.o 2 0
e_Data.GenDefault_eagFiniteDefault__!List!;43
.o 2 0
e_Data.GenDefault_sgFiniteDefault__!List!;43
.o 2 0
s44
	buildh _Nil 0
	buildh _Nil 0
	buildh _Just 1
	fillh _Cons 2 3
	pop_a 1
.d 1 0
	rtn
.export e_Data.GenDefault_sgFiniteDefault__List!;42
.export e_Data.GenDefault_eagFiniteDefault__List!;42
.descexp e_Data.GenDefault_dgFiniteDefault__List!;42 e_Data.GenDefault_ngFiniteDefault__List!;42 e_Data.GenDefault_lgFiniteDefault__List!;42 1 0 "gFiniteDefault__List!;42"
.o 3 0
e_Data.GenDefault_igFiniteDefault__List!;42
	pop_a 1
.d 2 0
	jmp s43
.ai 1 _ e_Data.GenDefault_igFiniteDefault__List!;42
.o 2 0
e_Data.GenDefault_lgFiniteDefault__List!;42
	update_a 1 0
	create
	update_a 0 2
	pop_a 1
.d 2 0
	jmp e_Data.GenDefault_eagFiniteDefault__List!;42
.n 1 e_Data.GenDefault_dgFiniteDefault__List!;42 e_Data.GenDefault_eagFiniteDefault__List!;42
.o 1 0
e_Data.GenDefault_ngFiniteDefault__List!;42
	push_node _cycle_in_spine 1
.o 2 0
e_Data.GenDefault_eagFiniteDefault__List!;42
.o 2 0
e_Data.GenDefault_sgFiniteDefault__List!;42
.o 2 0
s43
	buildh _Nil 0
	buildh _Nil 0
	buildh _Just 1
	fillh _Cons 2 3
	pop_a 1
.d 1 0
	rtn
.export e_Data.GenDefault_sgFiniteDefault__!List;41
.export e_Data.GenDefault_eagFiniteDefault__!List;41
.descexp e_Data.GenDefault_dgFiniteDefault__!List;41 e_Data.GenDefault_ngFiniteDefault__!List;41 e_Data.GenDefault_lgFiniteDefault__!List;41 1 0 "gFiniteDefault__!List;41"
.o 3 0
e_Data.GenDefault_igFiniteDefault__!List;41
	pop_a 1
.d 2 0
	jmp s42
.ai 1 _ e_Data.GenDefault_igFiniteDefault__!List;41
.o 2 0
e_Data.GenDefault_lgFiniteDefault__!List;41
	update_a 1 0
	create
	update_a 0 2
	pop_a 1
.d 2 0
	jmp e_Data.GenDefault_eagFiniteDefault__!List;41
.n 1 e_Data.GenDefault_dgFiniteDefault__!List;41 e_Data.GenDefault_eagFiniteDefault__!List;41
.o 1 0
e_Data.GenDefault_ngFiniteDefault__!List;41
	push_node _cycle_in_spine 1
.o 2 0
e_Data.GenDefault_eagFiniteDefault__!List;41
.o 2 0
e_Data.GenDefault_sgFiniteDefault__!List;41
.o 2 0
s42
	buildh _Nil 0
	buildh _Nil 0
	buildh _Just 1
	fillh _Cons 2 3
	pop_a 1
.d 1 0
	rtn
.export e_Data.GenDefault_sgFiniteDefault__List;40
.export e_Data.GenDefault_eagFiniteDefault__List;40
.descexp e_Data.GenDefault_dgFiniteDefault__List;40 e_Data.GenDefault_ngFiniteDefault__List;40 e_Data.GenDefault_lgFiniteDefault__List;40 1 0 "gFiniteDefault__List;40"
.o 3 0
e_Data.GenDefault_igFiniteDefault__List;40
	pop_a 1
.d 2 0
	jmp s41
.ai 1 _ e_Data.GenDefault_igFiniteDefault__List;40
.o 2 0
e_Data.GenDefault_lgFiniteDefault__List;40
	update_a 1 0
	create
	update_a 0 2
	pop_a 1
.d 2 0
	jmp e_Data.GenDefault_eagFiniteDefault__List;40
.n 1 e_Data.GenDefault_dgFiniteDefault__List;40 e_Data.GenDefault_eagFiniteDefault__List;40
.o 1 0
e_Data.GenDefault_ngFiniteDefault__List;40
	push_node _cycle_in_spine 1
.o 2 0
e_Data.GenDefault_eagFiniteDefault__List;40
.o 2 0
e_Data.GenDefault_sgFiniteDefault__List;40
.o 2 0
s41
	buildh _Nil 0
	buildh _Nil 0
	buildh _Just 1
	fillh _Cons 2 3
	pop_a 1
.d 1 0
	rtn
.export e_Data.GenDefault_sgFiniteDefault_RECORD;39
.export e_Data.GenDefault_eagFiniteDefault_RECORD;39
.descexp e_Data.GenDefault_dgFiniteDefault_RECORD;39 e_Data.GenDefault_ngFiniteDefault_RECORD;39 e_Data.GenDefault_lgFiniteDefault_RECORD;39 1 0 "gFiniteDefault_RECORD;39"
.o 2 0
e_Data.GenDefault_lgFiniteDefault_RECORD;39
	update_a 1 0
	create
	update_a 0 2
	pop_a 1
.d 2 0
	jmp e_Data.GenDefault_eagFiniteDefault_RECORD;39
.n 1 e_Data.GenDefault_dgFiniteDefault_RECORD;39 e_Data.GenDefault_eagFiniteDefault_RECORD;39
.o 1 0
e_Data.GenDefault_ngFiniteDefault_RECORD;39
	push_node _cycle_in_spine 1
.o 2 0
e_Data.GenDefault_sgFiniteDefault_RECORD;39
.o 2 0
e_Data.GenDefault_eagFiniteDefault_RECORD;39
	jsr_eval 0
.o 2 0
s40
	buildh e_Data.GenDefault_d_f0.176 0
	push_a 1
	push_a 1
	update_a 1 2
	update_a 0 1
	pop_a 1
	update_a 1 2
	updatepop_a 0 1
.d 3 0
	jmp e_Data.List_sfmap;86
.export e_Data.GenDefault_d_f0.176
.desc e_Data.GenDefault_d_f0.176 _hnf l176 1 0 "_f0.176"
.o 2 0
l176
	update_a 1 0
	create
	update_a 0 2
	pop_a 1
.o 2 0
ea176
.o 2 0
s176
	buildh e_StdGeneric_dRECORD 0
	push_a 1
	push_a 1
	update_a 1 2
	update_a 0 1
	pop_a 1
	update_a 1 2
	updatepop_a 0 1
.d 3 0
	jmp e_Data.Maybe_sfmap;5
.export e_Data.GenDefault_sgFiniteDefault_OBJECT;38
.export e_Data.GenDefault_eagFiniteDefault_OBJECT;38
.descexp e_Data.GenDefault_dgFiniteDefault_OBJECT;38 e_Data.GenDefault_ngFiniteDefault_OBJECT;38 e_Data.GenDefault_lgFiniteDefault_OBJECT;38 1 0 "gFiniteDefault_OBJECT;38"
.o 2 0
e_Data.GenDefault_lgFiniteDefault_OBJECT;38
	update_a 1 0
	create
	update_a 0 2
	pop_a 1
.d 2 0
	jmp e_Data.GenDefault_eagFiniteDefault_OBJECT;38
.n 1 e_Data.GenDefault_dgFiniteDefault_OBJECT;38 e_Data.GenDefault_eagFiniteDefault_OBJECT;38
.o 1 0
e_Data.GenDefault_ngFiniteDefault_OBJECT;38
	push_node _cycle_in_spine 1
.o 2 0
e_Data.GenDefault_eagFiniteDefault_OBJECT;38
.o 2 0
e_Data.GenDefault_sgFiniteDefault_OBJECT;38
.o 2 0
s39
	buildh e_Data.GenDefault_d_f1.177 0
	push_a 1
	push_a 1
	update_a 1 2
	update_a 0 1
	pop_a 1
	build e_Data.List_dfmap;86 2 e_Data.List_nfmap;86
	buildh _None 0
	fillh _Cons 2 3
	pop_a 1
.d 1 0
	rtn
.export e_Data.GenDefault_d_f1.177
.desc e_Data.GenDefault_d_f1.177 _hnf l177 1 0 "_f1.177"
.o 2 0
l177
	update_a 1 0
	create
	update_a 0 2
	pop_a 1
.o 2 0
ea177
.o 2 0
s177
	buildh e_Data.GenDefault_d\;49;49;58.56 0
	push_a 1
	push_a 1
	update_a 1 2
	update_a 0 1
	pop_a 1
	update_a 1 2
	updatepop_a 0 1
.d 3 0
	jmp e_Data.Maybe_sfmap;5
.export e_Data.GenDefault_d\;49;49;58.56
.desc e_Data.GenDefault_d\;49;49;58.56 _hnf l56 1 0 "\;49;49;58.56"
.o 2 0
l56
	pop_a 1
.o 1 0
ea56
	jsr_eval 0
.o 1 0
s56
.d 1 0
	rtn
.export e_Data.GenDefault_sgFiniteDefault_FIELD;37
.export e_Data.GenDefault_eagFiniteDefault_FIELD;37
.descexp e_Data.GenDefault_dgFiniteDefault_FIELD;37 e_Data.GenDefault_ngFiniteDefault_FIELD;37 e_Data.GenDefault_lgFiniteDefault_FIELD;37 1 0 "gFiniteDefault_FIELD;37"
.o 2 0
e_Data.GenDefault_lgFiniteDefault_FIELD;37
	update_a 1 0
	create
	update_a 0 2
	pop_a 1
.d 2 0
	jmp e_Data.GenDefault_eagFiniteDefault_FIELD;37
.n 1 e_Data.GenDefault_dgFiniteDefault_FIELD;37 e_Data.GenDefault_eagFiniteDefault_FIELD;37
.o 1 0
e_Data.GenDefault_ngFiniteDefault_FIELD;37
	push_node _cycle_in_spine 1
.o 2 0
e_Data.GenDefault_sgFiniteDefault_FIELD;37
.o 2 0
e_Data.GenDefault_eagFiniteDefault_FIELD;37
	jsr_eval 0
.o 2 0
s38
	buildh e_Data.GenDefault_d_f2.178 0
	push_a 1
	push_a 1
	update_a 1 2
	update_a 0 1
	pop_a 1
	update_a 1 2
	updatepop_a 0 1
.d 3 0
	jmp e_Data.List_sfmap;86
.export e_Data.GenDefault_d_f2.178
.desc e_Data.GenDefault_d_f2.178 _hnf l178 1 0 "_f2.178"
.o 2 0
l178
	update_a 1 0
	create
	update_a 0 2
	pop_a 1
.o 2 0
ea178
.o 2 0
s178
	buildh e_Data.GenDefault_d\;47;42;57.55 0
	push_a 1
	push_a 1
	update_a 1 2
	update_a 0 1
	pop_a 1
	update_a 1 2
	updatepop_a 0 1
.d 3 0
	jmp e_Data.Maybe_sfmap;5
.export e_Data.GenDefault_d\;47;42;57.55
.desc e_Data.GenDefault_d\;47;42;57.55 _hnf l55 1 0 "\;47;42;57.55"
.o 2 0
l55
	pop_a 1
.o 1 0
ea55
	jsr_eval 0
.o 1 0
s55
.d 1 0
	rtn
.export e_Data.GenDefault_sgFiniteDefault_CONS;36
.export e_Data.GenDefault_eagFiniteDefault_CONS;36
.descexp e_Data.GenDefault_dgFiniteDefault_CONS;36 e_Data.GenDefault_ngFiniteDefault_CONS;36 e_Data.GenDefault_lgFiniteDefault_CONS;36 1 0 "gFiniteDefault_CONS;36"
.o 2 0
e_Data.GenDefault_lgFiniteDefault_CONS;36
	update_a 1 0
	create
	update_a 0 2
	pop_a 1
.d 2 0
	jmp e_Data.GenDefault_eagFiniteDefault_CONS;36
.n 1 e_Data.GenDefault_dgFiniteDefault_CONS;36 e_Data.GenDefault_eagFiniteDefault_CONS;36
.o 1 0
e_Data.GenDefault_ngFiniteDefault_CONS;36
	push_node _cycle_in_spine 1
.o 2 0
e_Data.GenDefault_sgFiniteDefault_CONS;36
.o 2 0
e_Data.GenDefault_eagFiniteDefault_CONS;36
	jsr_eval 0
.o 2 0
s37
	buildh e_Data.GenDefault_d_f3.179 0
	push_a 1
	push_a 1
	update_a 1 2
	update_a 0 1
	pop_a 1
	update_a 1 2
	updatepop_a 0 1
.d 3 0
	jmp e_Data.List_sfmap;86
.export e_Data.GenDefault_d_f3.179
.desc e_Data.GenDefault_d_f3.179 _hnf l179 1 0 "_f3.179"
.o 2 0
l179
	update_a 1 0
	create
	update_a 0 2
	pop_a 1
.o 2 0
ea179
.o 2 0
s179
	buildh e_StdGeneric_dCONS 0
	push_a 1
	push_a 1
	update_a 1 2
	update_a 0 1
	pop_a 1
	update_a 1 2
	updatepop_a 0 1
.d 3 0
	jmp e_Data.Maybe_sfmap;5
.export e_Data.GenDefault_sgFiniteDefault_EITHER;35
.export e_Data.GenDefault_eagFiniteDefault_EITHER;35
.descexp e_Data.GenDefault_dgFiniteDefault_EITHER;35 e_Data.GenDefault_ngFiniteDefault_EITHER;35 e_Data.GenDefault_lgFiniteDefault_EITHER;35 2 0 "gFiniteDefault_EITHER;35"
.a 2 e_Data.GenDefault_eagFiniteDefault_EITHER;35
.o 2 0
e_Data.GenDefault_lgFiniteDefault_EITHER;35
	push_args 0 1 1
	update_a 2 1
	create
	update_a 0 3
	pop_a 1
.d 3 0
	jmp e_Data.GenDefault_eagFiniteDefault_EITHER;35
.n 2 e_Data.GenDefault_dgFiniteDefault_EITHER;35 e_Data.GenDefault_eagFiniteDefault_EITHER;35
.o 1 0
e_Data.GenDefault_ngFiniteDefault_EITHER;35
	push_node _cycle_in_spine 2
.o 3 0
e_Data.GenDefault_sgFiniteDefault_EITHER;35
.o 3 0
e_Data.GenDefault_eagFiniteDefault_EITHER;35
	jsr_eval 0
.o 3 0
s36
	push_a 1
	push_a 1
	update_a 1 3
	updatepop_a 0 2
.d 3 0
	jmp s91
.export e_Data.GenDefault_dc;44;83;304.91
.export e_Data.GenDefault_nc;44;83;304.91
.descn e_Data.GenDefault_dc;44;83;304.91 e_Data.GenDefault_nc;44;83;304.91 2 0 "c;44;83;304.91"
.n 2 e_Data.GenDefault_dc;44;83;304.91 ea91
.o 1 0
e_Data.GenDefault_nc;44;83;304.91
	push_node _cycle_in_spine 2
.o 3 0
ea91
	jsr_eval 0
.o 3 0
s91
	push_a 1
	push_a 1
	update_a 1 3
	updatepop_a 0 2
.d 3 0
	jmp s95
.o 3 0
s95
	eq_desc _Cons 2 0
	jmp_true case.33
	jmp case.34
case.33
	repl_args 2 2
	push_a 2
	jsr_eval 0
	push_a 2
	push_a 2
	push_a 2
	update_a 2 3
	update_a 1 2
	update_a 0 1
	pop_a 1
	update_a 2 5
	update_a 1 4
	updatepop_a 0 3
.d 4 0
	jmp s94
case.34
	fillh _Nil 0 2
	pop_a 2
.d 1 0
	rtn
.o 4 0
s94
	eq_desc _Cons 2 0
	jmp_true case.35
	jmp case.36
case.35
	repl_args 2 2
	push_a 1
	push_a 4
	build e_Data.GenDefault_dc;44;83;304.91 2 e_Data.GenDefault_nc;44;83;304.91
	buildh e_StdGeneric_dRIGHT 0
	push_a 2
	push_a 1
	update_a 1 2
	update_a 0 1
	pop_a 1
	build e_Data.Maybe_dfmap;5 2 e_Data.Maybe_nfmap;5
	buildh e_StdGeneric_dLEFT 0
	push_a 5
	push_a 1
	update_a 1 2
	update_a 0 1
	pop_a 1
	build e_Data.Maybe_dfmap;5 2 e_Data.Maybe_nfmap;5
	build e_Data.Maybe_d<|>;15 2 e_Data.Maybe_n<|>;15
	fillh _Cons 2 6
	pop_a 4
.d 1 0
	rtn
case.36
	fillh _Nil 0 3
	pop_a 3
.d 1 0
	rtn
.export e_Data.GenDefault_sgFiniteDefault_PAIR;34
.export e_Data.GenDefault_eagFiniteDefault_PAIR;34
.descexp e_Data.GenDefault_dgFiniteDefault_PAIR;34 e_Data.GenDefault_ngFiniteDefault_PAIR;34 e_Data.GenDefault_lgFiniteDefault_PAIR;34 2 0 "gFiniteDefault_PAIR;34"
.a 2 e_Data.GenDefault_eagFiniteDefault_PAIR;34
.o 2 0
e_Data.GenDefault_lgFiniteDefault_PAIR;34
	push_args 0 1 1
	update_a 2 1
	create
	update_a 0 3
	pop_a 1
.d 3 0
	jmp e_Data.GenDefault_eagFiniteDefault_PAIR;34
.n 2 e_Data.GenDefault_dgFiniteDefault_PAIR;34 e_Data.GenDefault_eagFiniteDefault_PAIR;34
.o 1 0
e_Data.GenDefault_ngFiniteDefault_PAIR;34
	push_node _cycle_in_spine 2
.o 3 0
e_Data.GenDefault_sgFiniteDefault_PAIR;34
.o 3 0
e_Data.GenDefault_eagFiniteDefault_PAIR;34
	jsr_eval 0
.o 3 0
s35
	push_a 0
	push_a 2
	update_a 1 3
	updatepop_a 0 2
.d 3 0
	jmp s89
.export e_Data.GenDefault_dc;45;68;303.90
.export e_Data.GenDefault_nc;45;68;303.90
.descn e_Data.GenDefault_dc;45;68;303.90 e_Data.GenDefault_nc;45;68;303.90 4 0 "c;45;68;303.90"
.n 4 e_Data.GenDefault_dc;45;68;303.90 ea90
.o 1 0
e_Data.GenDefault_nc;45;68;303.90
	push_node _cycle_in_spine 4
.o 5 0
ea90
	jsr_eval 3
.o 5 0
s90
	push_a 1
	push_a 1
	push_a 4
	push_a 6
	update_a 3 7
	update_a 2 6
	update_a 1 5
	updatepop_a 0 4
.d 5 0
	jmp s93
.o 3 0
s89
	push_a 0
	push_a 2
	update_a 1 3
	updatepop_a 0 2
.d 3 0
	jmp s92
.o 5 0
s93
	eq_desc _Cons 2 0
	jmp_true case.37
	jmp case.38
case.37
	repl_args 2 2
	push_a 1
	push_a 3
	push_a 6
	push_a 6
	build e_Data.GenDefault_dc;45;68;303.90 4 e_Data.GenDefault_nc;45;68;303.90
	buildh e_StdGeneric_dPAIR 0
	push_a 4
	push_a 1
	update_a 1 2
	update_a 0 1
	pop_a 1
	build e_Data.Maybe_dfmap;5 2 e_Data.Maybe_nfmap;5
	push_a 2
	push_a 1
	update_a 1 2
	update_a 0 1
	pop_a 1
	build e_Data.Maybe_d<*>;9 2 e_Data.Maybe_n<*>;9
	fillh _Cons 2 7
	pop_a 5
.d 1 0
	rtn
case.38
	push_a 3
	jsr_eval 0
	push_a 3
	update_a 1 5
	updatepop_a 0 4
.d 3 0
	jmp s89
.o 3 0
s92
	eq_desc _Cons 2 0
	jmp_true case.39
	jmp case.40
case.39
	repl_args 2 2
	push_a 2
	jsr_eval 0
	push_a 1
	push_a 3
	push_a 5
	update_a 3 6
	update_a 2 5
	update_a 1 4
	updatepop_a 0 3
.d 5 0
	jmp s90
case.40
	fillh _Nil 0 2
	pop_a 2
.d 1 0
	rtn
.export e_Data.GenDefault_sgFiniteDefault_UNIT;33
.export e_Data.GenDefault_eagFiniteDefault_UNIT;33
.descexp e_Data.GenDefault_dgFiniteDefault_UNIT;33 e_Data.GenDefault_ngFiniteDefault_UNIT;33 e_Data.GenDefault_lgFiniteDefault_UNIT;33 0 0 "gFiniteDefault_UNIT;33"
.o 1 0
e_Data.GenDefault_lgFiniteDefault_UNIT;33
	halt
.n 0 e_Data.GenDefault_dgFiniteDefault_UNIT;33 e_Data.GenDefault_eagFiniteDefault_UNIT;33
.o 1 0
e_Data.GenDefault_ngFiniteDefault_UNIT;33
	push_node _cycle_in_spine 0
.o 1 0
e_Data.GenDefault_eagFiniteDefault_UNIT;33
.o 1 0
e_Data.GenDefault_sgFiniteDefault_UNIT;33
.o 1 0
s34
	buildh _Nil 0
	buildh e_StdGeneric_dUNIT 0
	buildh _Just 1
	fillh _Cons 2 2
.d 1 0
	rtn
.export e_Data.GenDefault_sgFiniteDefault_ARROW;32
.export e_Data.GenDefault_eagFiniteDefault_ARROW;32
.descexp e_Data.GenDefault_dgFiniteDefault_ARROW;32 e_Data.GenDefault_ngFiniteDefault_ARROW;32 e_Data.GenDefault_lgFiniteDefault_ARROW;32 2 0 "gFiniteDefault_ARROW;32"
.o 4 0
e_Data.GenDefault_igFiniteDefault_ARROW;32
	pop_a 1
	jsr_eval 1
.d 3 0
	jmp s33
.ai 2 e_Data.GenDefault_eagFiniteDefault_ARROW;32 e_Data.GenDefault_igFiniteDefault_ARROW;32
.o 2 0
e_Data.GenDefault_lgFiniteDefault_ARROW;32
	push_args 0 1 1
	update_a 2 1
	create
	update_a 0 3
	pop_a 1
.d 3 0
	jmp e_Data.GenDefault_eagFiniteDefault_ARROW;32
.n 2 e_Data.GenDefault_dgFiniteDefault_ARROW;32 e_Data.GenDefault_eagFiniteDefault_ARROW;32
.o 1 0
e_Data.GenDefault_ngFiniteDefault_ARROW;32
	push_node _cycle_in_spine 2
.o 3 0
e_Data.GenDefault_sgFiniteDefault_ARROW;32
.o 3 0
e_Data.GenDefault_eagFiniteDefault_ARROW;32
	jsr_eval 1
.o 3 0
s33
	buildh e_Data.GenDefault_d_f4.180 0
	push_a 2
	push_a 1
	update_a 1 2
	update_a 0 1
	pop_a 1
	update_a 1 3
	updatepop_a 0 2
.d 3 0
	jmp e_Data.List_sfmap;86
.export e_Data.GenDefault_d_f4.180
.desc e_Data.GenDefault_d_f4.180 _hnf l180 1 0 "_f4.180"
.o 2 0
l180
	update_a 1 0
	create
	update_a 0 2
	pop_a 1
.o 2 0
ea180
.o 2 0
s180
	buildh e_StdFunctions_dconst 0
	push_a 1
	push_a 1
	update_a 1 2
	update_a 0 1
	pop_a 1
	update_a 1 2
	updatepop_a 0 1
.d 3 0
	jmp e_Data.Maybe_sfmap;5
.export e_Data.GenDefault_sgFiniteDefault__String;31
.export e_Data.GenDefault_eagFiniteDefault__String;31
.descexp e_Data.GenDefault_dgFiniteDefault__String;31 e_Data.GenDefault_ngFiniteDefault__String;31 e_Data.GenDefault_lgFiniteDefault__String;31 0 0 "gFiniteDefault__String;31"
.o 2 0
e_Data.GenDefault_igFiniteDefault__String;31
	pop_a 1
.d 1 0
	jmp s32
.o 1 0
e_Data.GenDefault_lgFiniteDefault__String;31
	halt
.n 0 e_Data.GenDefault_dgFiniteDefault__String;31 e_Data.GenDefault_eagFiniteDefault__String;31
.o 1 0
e_Data.GenDefault_ngFiniteDefault__String;31
	push_node _cycle_in_spine 0
.o 1 0
e_Data.GenDefault_eagFiniteDefault__String;31
.o 1 0
e_Data.GenDefault_sgFiniteDefault__String;31
.o 1 0
s32
	buildh _Nil 0
	buildAC ""
	buildh ARRAY 1
	buildh _Just 1
	fillh _Cons 2 2
.d 1 0
	rtn
.export e_Data.GenDefault_sgFiniteDefault_Real;30
.export e_Data.GenDefault_eagFiniteDefault_Real;30
.descexp e_Data.GenDefault_dgFiniteDefault_Real;30 e_Data.GenDefault_ngFiniteDefault_Real;30 e_Data.GenDefault_lgFiniteDefault_Real;30 0 0 "gFiniteDefault_Real;30"
.o 2 0
e_Data.GenDefault_igFiniteDefault_Real;30
	pop_a 1
.d 1 0
	jmp s31
.o 1 0
e_Data.GenDefault_lgFiniteDefault_Real;30
	halt
.n 0 e_Data.GenDefault_dgFiniteDefault_Real;30 e_Data.GenDefault_eagFiniteDefault_Real;30
.o 1 0
e_Data.GenDefault_ngFiniteDefault_Real;30
	push_node _cycle_in_spine 0
.o 1 0
e_Data.GenDefault_eagFiniteDefault_Real;30
.o 1 0
e_Data.GenDefault_sgFiniteDefault_Real;30
.o 1 0
s31
	buildh _Nil 0
	buildR 0.0
	buildh _Just 1
	fillh _Cons 2 2
.d 1 0
	rtn
.export e_Data.GenDefault_sgFiniteDefault_Int;29
.export e_Data.GenDefault_eagFiniteDefault_Int;29
.descexp e_Data.GenDefault_dgFiniteDefault_Int;29 e_Data.GenDefault_ngFiniteDefault_Int;29 e_Data.GenDefault_lgFiniteDefault_Int;29 0 0 "gFiniteDefault_Int;29"
.o 2 0
e_Data.GenDefault_igFiniteDefault_Int;29
	pop_a 1
.d 1 0
	jmp s30
.o 1 0
e_Data.GenDefault_lgFiniteDefault_Int;29
	halt
.n 0 e_Data.GenDefault_dgFiniteDefault_Int;29 e_Data.GenDefault_eagFiniteDefault_Int;29
.o 1 0
e_Data.GenDefault_ngFiniteDefault_Int;29
	push_node _cycle_in_spine 0
.o 1 0
e_Data.GenDefault_eagFiniteDefault_Int;29
.o 1 0
e_Data.GenDefault_sgFiniteDefault_Int;29
.o 1 0
s30
	buildh _Nil 0
	buildI 0
	buildh _Just 1
	fillh _Cons 2 2
.d 1 0
	rtn
.export e_Data.GenDefault_sgFiniteDefault_Char;28
.export e_Data.GenDefault_eagFiniteDefault_Char;28
.descexp e_Data.GenDefault_dgFiniteDefault_Char;28 e_Data.GenDefault_ngFiniteDefault_Char;28 e_Data.GenDefault_lgFiniteDefault_Char;28 0 0 "gFiniteDefault_Char;28"
.o 2 0
e_Data.GenDefault_igFiniteDefault_Char;28
	pop_a 1
.d 1 0
	jmp s29
.o 1 0
e_Data.GenDefault_lgFiniteDefault_Char;28
	halt
.n 0 e_Data.GenDefault_dgFiniteDefault_Char;28 e_Data.GenDefault_eagFiniteDefault_Char;28
.o 1 0
e_Data.GenDefault_ngFiniteDefault_Char;28
	push_node _cycle_in_spine 0
.o 1 0
e_Data.GenDefault_eagFiniteDefault_Char;28
.o 1 0
e_Data.GenDefault_sgFiniteDefault_Char;28
.o 1 0
s29
	buildh _Nil 0
	buildC '-'
	buildh _Just 1
	fillh _Cons 2 2
.d 1 0
	rtn
.export e_Data.GenDefault_sgFiniteDefault_Bool;27
.export e_Data.GenDefault_eagFiniteDefault_Bool;27
.descexp e_Data.GenDefault_dgFiniteDefault_Bool;27 e_Data.GenDefault_ngFiniteDefault_Bool;27 e_Data.GenDefault_lgFiniteDefault_Bool;27 0 0 "gFiniteDefault_Bool;27"
.o 2 0
e_Data.GenDefault_igFiniteDefault_Bool;27
	pop_a 1
.d 1 0
	jmp s28
.o 1 0
e_Data.GenDefault_lgFiniteDefault_Bool;27
	halt
.n 0 e_Data.GenDefault_dgFiniteDefault_Bool;27 e_Data.GenDefault_eagFiniteDefault_Bool;27
.o 1 0
e_Data.GenDefault_ngFiniteDefault_Bool;27
	push_node _cycle_in_spine 0
.o 1 0
e_Data.GenDefault_eagFiniteDefault_Bool;27
.o 1 0
e_Data.GenDefault_sgFiniteDefault_Bool;27
.o 1 0
s28
	buildh _Nil 0
	buildB FALSE
	buildh _Just 1
	fillh _Cons 2 2
.d 1 0
	rtn
.export e_Data.GenDefault_sgDefault__Tuple8;26
.descexp e_Data.GenDefault_dgDefault__Tuple8;26 e_Data.GenDefault_ngDefault__Tuple8;26 e_Data.GenDefault_lgDefault__Tuple8;26 8 0 "gDefault__Tuple8;26"
.o 9 0
e_Data.GenDefault_igDefault__Tuple8;26
	pop_a 1
.d 8 0
	jsr s27
.o 8 0
	push_a 7
	push_a 7
	push_a 7
	push_a 7
	push_a 7
	push_a 7
	push_a 7
	push_a 7
	buildh _Tuple 8
	updatepop_a 0 8
.d 1 0
	rtn
.ai 0 a27 e_Data.GenDefault_igDefault__Tuple8;26
.o 2 0
e_Data.GenDefault_lgDefault__Tuple8;26
	repl_args 7 7
.o 8 0
a27
.d 8 0
	jsr ea27
.o 8 0
	push_a 7
	push_a 7
	push_a 7
	push_a 7
	push_a 7
	push_a 7
	push_a 7
	push_a 7
	buildh _Tuple 8
	updatepop_a 0 8
.d 1 0
	rtn
.n 8 e_Data.GenDefault_dgDefault__Tuple8;26
.o 1 0
e_Data.GenDefault_ngDefault__Tuple8;26
	push_node _cycle_in_spine 8
.d 8 0
	jsr ea27
.o 8 0
	push_a 7
	push_a 7
	push_a 7
	push_a 7
	push_a 7
	push_a 7
	push_a 7
	push_a 7
	fillh _Tuple 8 16
	pop_a 8
.d 1 0
	rtn
.o 8 0
ea27
.o 8 0
e_Data.GenDefault_sgDefault__Tuple8;26
.o 8 0
s27
	push_a 7
	push_a 7
	build e_Data.GenDefault_dgDefault_PAIR;7 2 e_Data.GenDefault_ngDefault_PAIR;7
	push_a 6
	push_a 6
	build e_Data.GenDefault_dgDefault_PAIR;7 2 e_Data.GenDefault_ngDefault_PAIR;7
	build e_Data.GenDefault_dgDefault_PAIR;7 2 e_Data.GenDefault_ngDefault_PAIR;7
	push_a 4
	push_a 4
	build e_Data.GenDefault_dgDefault_PAIR;7 2 e_Data.GenDefault_ngDefault_PAIR;7
	push_a 3
	push_a 3
	build e_Data.GenDefault_dgDefault_PAIR;7 2 e_Data.GenDefault_ngDefault_PAIR;7
	build e_Data.GenDefault_dgDefault_PAIR;7 2 e_Data.GenDefault_ngDefault_PAIR;7
	build e_Data.GenDefault_dgDefault_PAIR;7 2 e_Data.GenDefault_ngDefault_PAIR;7
	create
	push_a 1
	update_a 1 2
	update_a 0 1
	pop_a 1
	update_a 1 9
	updatepop_a 0 8
.d 2 0
	jsr s10
.o 1 0
.d 1 0
	jsr s12
.o 1 0
.d 1 0
	jmp s71
.o 1 0
s71
	repl_args 1 1
	jsr_eval 0
	repl_args 2 2
	jsr_eval 0
	repl_args 2 2
	jsr_eval 0
	repl_args 2 2
	jsr_eval 2
	push_args 2 2 2
	buildh _Nil 0
	update_a 0 5
	pop_a 1
	jsr_eval 5
	push_args 5 2 2
	buildh _Nil 0
	update_a 0 8
	pop_a 1
	jsr_eval 0
	repl_args 2 2
	jsr_eval 2
	push_args 2 2 2
	buildh _Nil 0
	update_a 0 5
	pop_a 1
	push_a 1
	push_a 1
	push_a 5
	push_a 5
	push_a 10
	push_a 10
	push_a 14
	push_a 14
	update_a 7 18
	update_a 6 17
	update_a 5 16
	update_a 4 15
	update_a 3 14
	update_a 2 13
	update_a 1 12
	updatepop_a 0 11
.d 8 0
	rtn
.export e_Data.GenDefault_sgDefault__Tuple7;25
.descexp e_Data.GenDefault_dgDefault__Tuple7;25 e_Data.GenDefault_ngDefault__Tuple7;25 e_Data.GenDefault_lgDefault__Tuple7;25 7 0 "gDefault__Tuple7;25"
.o 8 0
e_Data.GenDefault_igDefault__Tuple7;25
	pop_a 1
.d 7 0
	jsr s26
.o 7 0
	push_a 6
	push_a 6
	push_a 6
	push_a 6
	push_a 6
	push_a 6
	push_a 6
	buildh _Tuple 7
	updatepop_a 0 7
.d 1 0
	rtn
.ai 0 a26 e_Data.GenDefault_igDefault__Tuple7;25
.o 2 0
e_Data.GenDefault_lgDefault__Tuple7;25
	repl_args 6 6
.o 7 0
a26
.d 7 0
	jsr ea26
.o 7 0
	push_a 6
	push_a 6
	push_a 6
	push_a 6
	push_a 6
	push_a 6
	push_a 6
	buildh _Tuple 7
	updatepop_a 0 7
.d 1 0
	rtn
.n 7 e_Data.GenDefault_dgDefault__Tuple7;25
.o 1 0
e_Data.GenDefault_ngDefault__Tuple7;25
	push_node _cycle_in_spine 7
.d 7 0
	jsr ea26
.o 7 0
	push_a 6
	push_a 6
	push_a 6
	push_a 6
	push_a 6
	push_a 6
	push_a 6
	fillh _Tuple 7 14
	pop_a 7
.d 1 0
	rtn
.o 7 0
ea26
.o 7 0
e_Data.GenDefault_sgDefault__Tuple7;25
.o 7 0
s26
	push_a 6
	push_a 6
	build e_Data.GenDefault_dgDefault_PAIR;7 2 e_Data.GenDefault_ngDefault_PAIR;7
	push_a 5
	push_a 5
	build e_Data.GenDefault_dgDefault_PAIR;7 2 e_Data.GenDefault_ngDefault_PAIR;7
	build e_Data.GenDefault_dgDefault_PAIR;7 2 e_Data.GenDefault_ngDefault_PAIR;7
	push_a 3
	push_a 3
	build e_Data.GenDefault_dgDefault_PAIR;7 2 e_Data.GenDefault_ngDefault_PAIR;7
	push_a 2
	build e_Data.GenDefault_dgDefault_PAIR;7 2 e_Data.GenDefault_ngDefault_PAIR;7
	build e_Data.GenDefault_dgDefault_PAIR;7 2 e_Data.GenDefault_ngDefault_PAIR;7
	create
	push_a 1
	update_a 1 2
	update_a 0 1
	pop_a 1
	update_a 1 8
	updatepop_a 0 7
.d 2 0
	jsr s10
.o 1 0
.d 1 0
	jsr s12
.o 1 0
.d 1 0
	jmp s69
.o 1 0
s69
	repl_args 1 1
	jsr_eval 0
	repl_args 2 2
	jsr_eval 0
	repl_args 2 2
	jsr_eval 1
	push_args 1 2 2
	buildh _Nil 0
	update_a 0 4
	pop_a 1
	jsr_eval 4
	push_args 4 2 2
	buildh _Nil 0
	update_a 0 7
	pop_a 1
	jsr_eval 0
	repl_args 2 2
	jsr_eval 2
	push_args 2 2 2
	buildh _Nil 0
	update_a 0 5
	pop_a 1
	push_a 1
	push_a 1
	push_a 5
	push_a 5
	push_a 10
	push_a 10
	push_a 13
	update_a 6 16
	update_a 5 15
	update_a 4 14
	update_a 3 13
	update_a 2 12
	update_a 1 11
	updatepop_a 0 10
.d 7 0
	rtn
.export e_Data.GenDefault_sgDefault__Tuple6;24
.descexp e_Data.GenDefault_dgDefault__Tuple6;24 e_Data.GenDefault_ngDefault__Tuple6;24 e_Data.GenDefault_lgDefault__Tuple6;24 6 0 "gDefault__Tuple6;24"
.o 7 0
e_Data.GenDefault_igDefault__Tuple6;24
	pop_a 1
.d 6 0
	jsr s25
.o 6 0
	push_a 5
	push_a 5
	push_a 5
	push_a 5
	push_a 5
	push_a 5
	buildh _Tuple 6
	updatepop_a 0 6
.d 1 0
	rtn
.ai 0 a25 e_Data.GenDefault_igDefault__Tuple6;24
.o 2 0
e_Data.GenDefault_lgDefault__Tuple6;24
	repl_args 5 5
.o 6 0
a25
.d 6 0
	jsr ea25
.o 6 0
	push_a 5
	push_a 5
	push_a 5
	push_a 5
	push_a 5
	push_a 5
	buildh _Tuple 6
	updatepop_a 0 6
.d 1 0
	rtn
.n 6 e_Data.GenDefault_dgDefault__Tuple6;24
.o 1 0
e_Data.GenDefault_ngDefault__Tuple6;24
	push_node _cycle_in_spine 6
.d 6 0
	jsr ea25
.o 6 0
	push_a 5
	push_a 5
	push_a 5
	push_a 5
	push_a 5
	push_a 5
	fillh _Tuple 6 12
	pop_a 6
.d 1 0
	rtn
.o 6 0
ea25
.o 6 0
e_Data.GenDefault_sgDefault__Tuple6;24
.o 6 0
s25
	push_a 5
	push_a 5
	build e_Data.GenDefault_dgDefault_PAIR;7 2 e_Data.GenDefault_ngDefault_PAIR;7
	push_a 4
	build e_Data.GenDefault_dgDefault_PAIR;7 2 e_Data.GenDefault_ngDefault_PAIR;7
	push_a 3
	push_a 3
	build e_Data.GenDefault_dgDefault_PAIR;7 2 e_Data.GenDefault_ngDefault_PAIR;7
	push_a 2
	build e_Data.GenDefault_dgDefault_PAIR;7 2 e_Data.GenDefault_ngDefault_PAIR;7
	build e_Data.GenDefault_dgDefault_PAIR;7 2 e_Data.GenDefault_ngDefault_PAIR;7
	create
	push_a 1
	update_a 1 2
	update_a 0 1
	pop_a 1
	update_a 1 7
	updatepop_a 0 6
.d 2 0
	jsr s10
.o 1 0
.d 1 0
	jsr s12
.o 1 0
.d 1 0
	jmp s67
.o 1 0
s67
	repl_args 1 1
	jsr_eval 0
	repl_args 2 2
	jsr_eval 0
	repl_args 2 2
	jsr_eval 1
	push_args 1 2 2
	buildh _Nil 0
	update_a 0 4
	pop_a 1
	jsr_eval 4
	push_args 4 2 2
	buildh _Nil 0
	update_a 0 7
	pop_a 1
	jsr_eval 1
	push_args 1 2 2
	buildh _Nil 0
	update_a 0 4
	pop_a 1
	push_a 1
	push_a 1
	push_a 4
	push_a 8
	push_a 8
	push_a 11
	update_a 5 14
	update_a 4 13
	update_a 3 12
	update_a 2 11
	update_a 1 10
	updatepop_a 0 9
.d 6 0
	rtn
.export e_Data.GenDefault_sgDefault__Tuple5;23
.descexp e_Data.GenDefault_dgDefault__Tuple5;23 e_Data.GenDefault_ngDefault__Tuple5;23 e_Data.GenDefault_lgDefault__Tuple5;23 5 0 "gDefault__Tuple5;23"
.o 6 0
e_Data.GenDefault_igDefault__Tuple5;23
	pop_a 1
.d 5 0
	jsr s24
.o 5 0
	push_a 4
	push_a 4
	push_a 4
	push_a 4
	push_a 4
	buildh _Tuple 5
	updatepop_a 0 5
.d 1 0
	rtn
.ai 0 a24 e_Data.GenDefault_igDefault__Tuple5;23
.o 2 0
e_Data.GenDefault_lgDefault__Tuple5;23
	repl_args 4 4
.o 5 0
a24
.d 5 0
	jsr ea24
.o 5 0
	push_a 4
	push_a 4
	push_a 4
	push_a 4
	push_a 4
	buildh _Tuple 5
	updatepop_a 0 5
.d 1 0
	rtn
.n 5 e_Data.GenDefault_dgDefault__Tuple5;23
.o 1 0
e_Data.GenDefault_ngDefault__Tuple5;23
	push_node _cycle_in_spine 5
.d 5 0
	jsr ea24
.o 5 0
	push_a 4
	push_a 4
	push_a 4
	push_a 4
	push_a 4
	fillh _Tuple 5 10
	pop_a 5
.d 1 0
	rtn
.o 5 0
ea24
.o 5 0
e_Data.GenDefault_sgDefault__Tuple5;23
.o 5 0
s24
	push_a 4
	push_a 4
	build e_Data.GenDefault_dgDefault_PAIR;7 2 e_Data.GenDefault_ngDefault_PAIR;7
	push_a 3
	build e_Data.GenDefault_dgDefault_PAIR;7 2 e_Data.GenDefault_ngDefault_PAIR;7
	push_a 2
	push_a 2
	build e_Data.GenDefault_dgDefault_PAIR;7 2 e_Data.GenDefault_ngDefault_PAIR;7
	build e_Data.GenDefault_dgDefault_PAIR;7 2 e_Data.GenDefault_ngDefault_PAIR;7
	create
	push_a 1
	update_a 1 2
	update_a 0 1
	pop_a 1
	update_a 1 6
	updatepop_a 0 5
.d 2 0
	jsr s10
.o 1 0
.d 1 0
	jsr s12
.o 1 0
.d 1 0
	jmp s65
.o 1 0
s65
	repl_args 1 1
	jsr_eval 0
	repl_args 2 2
	jsr_eval 0
	repl_args 2 2
	jsr_eval 2
	push_args 2 2 2
	buildh _Nil 0
	update_a 0 5
	pop_a 1
	jsr_eval 1
	push_args 1 2 2
	buildh _Nil 0
	update_a 0 4
	pop_a 1
	push_a 1
	push_a 1
	push_a 4
	push_a 8
	push_a 8
	update_a 4 11
	update_a 3 10
	update_a 2 9
	update_a 1 8
	updatepop_a 0 7
.d 5 0
	rtn
.export e_Data.GenDefault_sgDefault__Tuple4;22
.descexp e_Data.GenDefault_dgDefault__Tuple4;22 e_Data.GenDefault_ngDefault__Tuple4;22 e_Data.GenDefault_lgDefault__Tuple4;22 4 0 "gDefault__Tuple4;22"
.o 5 0
e_Data.GenDefault_igDefault__Tuple4;22
	pop_a 1
.d 4 0
	jsr s23
.o 4 0
	push_a 3
	push_a 3
	push_a 3
	push_a 3
	buildh _Tuple 4
	updatepop_a 0 4
.d 1 0
	rtn
.ai 0 a23 e_Data.GenDefault_igDefault__Tuple4;22
.o 2 0
e_Data.GenDefault_lgDefault__Tuple4;22
	repl_args 3 3
.o 4 0
a23
.d 4 0
	jsr ea23
.o 4 0
	push_a 3
	push_a 3
	push_a 3
	push_a 3
	buildh _Tuple 4
	updatepop_a 0 4
.d 1 0
	rtn
.n 4 e_Data.GenDefault_dgDefault__Tuple4;22
.o 1 0
e_Data.GenDefault_ngDefault__Tuple4;22
	push_node _cycle_in_spine 4
.d 4 0
	jsr ea23
.o 4 0
	push_a 3
	push_a 3
	push_a 3
	push_a 3
	fillh _Tuple 4 8
	pop_a 4
.d 1 0
	rtn
.o 4 0
ea23
.o 4 0
e_Data.GenDefault_sgDefault__Tuple4;22
.o 4 0
s23
	push_a 3
	push_a 3
	build e_Data.GenDefault_dgDefault_PAIR;7 2 e_Data.GenDefault_ngDefault_PAIR;7
	push_a 2
	push_a 2
	build e_Data.GenDefault_dgDefault_PAIR;7 2 e_Data.GenDefault_ngDefault_PAIR;7
	build e_Data.GenDefault_dgDefault_PAIR;7 2 e_Data.GenDefault_ngDefault_PAIR;7
	create
	push_a 1
	update_a 1 2
	update_a 0 1
	pop_a 1
	update_a 1 5
	updatepop_a 0 4
.d 2 0
	jsr s10
.o 1 0
.d 1 0
	jsr s12
.o 1 0
.d 1 0
	jmp s63
.o 1 0
s63
	repl_args 1 1
	jsr_eval 0
	repl_args 2 2
	jsr_eval 0
	repl_args 2 2
	jsr_eval 2
	push_args 2 2 2
	buildh _Nil 0
	update_a 0 5
	pop_a 1
	push_a 1
	push_a 1
	push_a 5
	push_a 5
	update_a 3 8
	update_a 2 7
	update_a 1 6
	updatepop_a 0 5
.d 4 0
	rtn
.export e_Data.GenDefault_sgDefault__Tuple3;21
.descexp e_Data.GenDefault_dgDefault__Tuple3;21 e_Data.GenDefault_ngDefault__Tuple3;21 e_Data.GenDefault_lgDefault__Tuple3;21 3 0 "gDefault__Tuple3;21"
.o 4 0
e_Data.GenDefault_igDefault__Tuple3;21
	pop_a 1
.d 3 0
	jsr s22
.o 3 0
	push_a 2
	push_a 2
	push_a 2
	buildh _Tuple 3
	updatepop_a 0 3
.d 1 0
	rtn
.ai 0 a22 e_Data.GenDefault_igDefault__Tuple3;21
.o 2 0
e_Data.GenDefault_lgDefault__Tuple3;21
	repl_args 2 2
.o 3 0
a22
.d 3 0
	jsr ea22
.o 3 0
	push_a 2
	push_a 2
	push_a 2
	buildh _Tuple 3
	updatepop_a 0 3
.d 1 0
	rtn
.n 3 e_Data.GenDefault_dgDefault__Tuple3;21
.o 1 0
e_Data.GenDefault_ngDefault__Tuple3;21
	push_node _cycle_in_spine 3
.d 3 0
	jsr ea22
.o 3 0
	push_a 2
	push_a 2
	push_a 2
	fillh _Tuple 3 6
	pop_a 3
.d 1 0
	rtn
.o 3 0
ea22
.o 3 0
e_Data.GenDefault_sgDefault__Tuple3;21
.o 3 0
s22
	push_a 2
	push_a 2
	build e_Data.GenDefault_dgDefault_PAIR;7 2 e_Data.GenDefault_ngDefault_PAIR;7
	push_a 1
	build e_Data.GenDefault_dgDefault_PAIR;7 2 e_Data.GenDefault_ngDefault_PAIR;7
	create
	push_a 1
	update_a 1 2
	update_a 0 1
	pop_a 1
	update_a 1 4
	updatepop_a 0 3
.d 2 0
	jsr s10
.o 1 0
.d 1 0
	jsr s12
.o 1 0
.d 1 0
	jmp s61
.o 1 0
s61
	repl_args 1 1
	jsr_eval 0
	repl_args 2 2
	jsr_eval 1
	push_args 1 2 2
	buildh _Nil 0
	update_a 0 4
	pop_a 1
	push_a 1
	push_a 1
	push_a 4
	update_a 2 6
	update_a 1 5
	updatepop_a 0 4
.d 3 0
	rtn
.export e_Data.GenDefault_sgDefault__Tuple2;20
.descexp e_Data.GenDefault_dgDefault__Tuple2;20 e_Data.GenDefault_ngDefault__Tuple2;20 e_Data.GenDefault_lgDefault__Tuple2;20 2 0 "gDefault__Tuple2;20"
.o 3 0
e_Data.GenDefault_igDefault__Tuple2;20
	pop_a 1
.d 2 0
	jsr s21
.o 2 0
	push_a 1
	push_a 1
	buildh _Tuple 2
	updatepop_a 0 2
.d 1 0
	rtn
.ai 0 a21 e_Data.GenDefault_igDefault__Tuple2;20
.o 2 0
e_Data.GenDefault_lgDefault__Tuple2;20
	repl_args 1 1
.o 2 0
a21
.d 2 0
	jsr ea21
.o 2 0
	push_a 1
	push_a 1
	buildh _Tuple 2
	updatepop_a 0 2
.d 1 0
	rtn
.n 2 e_Data.GenDefault_dgDefault__Tuple2;20
.o 1 0
e_Data.GenDefault_ngDefault__Tuple2;20
	push_node _cycle_in_spine 2
.d 2 0
	jsr ea21
.o 2 0
	push_a 1
	push_a 1
	fillh _Tuple 2 4
	pop_a 2
.d 1 0
	rtn
.o 2 0
ea21
.o 2 0
e_Data.GenDefault_sgDefault__Tuple2;20
.o 2 0
s21
	push_a 1
	push_a 1
	build e_Data.GenDefault_dgDefault_PAIR;7 2 e_Data.GenDefault_ngDefault_PAIR;7
	create
	push_a 1
	update_a 1 2
	update_a 0 1
	pop_a 1
	update_a 1 3
	updatepop_a 0 2
.d 2 0
	jsr s10
.o 1 0
.d 1 0
	jsr s12
.o 1 0
.d 1 0
	jmp s59
.o 1 0
s59
	repl_args 1 1
	jsr_eval 0
	repl_args 2 2
	push_a 1
	push_a 1
	update_a 1 3
	updatepop_a 0 2
.d 2 0
	rtn
.export e_Data.GenDefault_sgDefault__Unit;19
.export e_Data.GenDefault_eagDefault__Unit;19
.descexp e_Data.GenDefault_dgDefault__Unit;19 e_Data.GenDefault_ngDefault__Unit;19 e_Data.GenDefault_lgDefault__Unit;19 0 0 "gDefault__Unit;19"
.o 1 0
e_Data.GenDefault_igDefault__Unit;19
	pop_a 1
	create
.d 1 0
	jmp s20
.o 1 0
e_Data.GenDefault_lgDefault__Unit;19
	halt
.n 0 e_Data.GenDefault_dgDefault__Unit;19 e_Data.GenDefault_eagDefault__Unit;19
.o 1 0
e_Data.GenDefault_ngDefault__Unit;19
	push_node _cycle_in_spine 0
.o 1 0
e_Data.GenDefault_eagDefault__Unit;19
.o 1 0
e_Data.GenDefault_sgDefault__Unit;19
.o 1 0
s20
	build e_Data.GenDefault_dgDefault_UNIT;6 0 e_Data.GenDefault_ngDefault_UNIT;6
	create
	push_a 1
	update_a 1 2
	update_a 0 1
	pop_a 1
.d 2 0
	jsr s10
.o 1 0
.d 1 0
	jsr s12
.o 1 0
.d 2 0
	jmp s57
.o 2 0
s57
	repl_args 1 1
	jsr_eval 0
	fillh e__predef_d_Unit 0 1
	pop_a 1
.d 1 0
	rtn
.export e_Data.GenDefault_sgDefault__!Array;18
.descexp e_Data.GenDefault_dgDefault__!Array;18 e_Data.GenDefault_ngDefault__!Array;18 e_Data.GenDefault_lgDefault__!Array;18 1 0 "gDefault__!Array;18"
.o 2 0
e_Data.GenDefault_igDefault__!Array;18
	pop_a 1
.d 1 0
	jsr s19
.o 1 0
	buildh ARRAY 1
.d 1 0
	rtn
.ai 1 _ e_Data.GenDefault_igDefault__!Array;18
.o 2 0
e_Data.GenDefault_lgDefault__!Array;18
	pop_a 1
.d 1 0
	jsr ea19
.o 1 0
	buildh ARRAY 1
.d 1 0
	rtn
.n 1 e_Data.GenDefault_dgDefault__!Array;18
.o 1 0
e_Data.GenDefault_ngDefault__!Array;18
	push_node _cycle_in_spine 1
.d 1 0
	jsr ea19
.o 1 0
	fillh ARRAY 1 1
.d 1 0
	rtn
.o 1 0
ea19
.o 1 0
e_Data.GenDefault_sgDefault__!Array;18
.o 1 0
s19
	pushI 0
	pop_a 1
	create_array_ _ 1 0
.d 1 0
	rtn
.export e_Data.GenDefault_sgDefault__Array;17
.descexp e_Data.GenDefault_dgDefault__Array;17 e_Data.GenDefault_ngDefault__Array;17 e_Data.GenDefault_lgDefault__Array;17 1 0 "gDefault__Array;17"
.o 2 0
e_Data.GenDefault_igDefault__Array;17
	pop_a 1
.d 1 0
	jsr s18
.o 1 0
	buildh ARRAY 1
.d 1 0
	rtn
.ai 1 _ e_Data.GenDefault_igDefault__Array;17
.o 2 0
e_Data.GenDefault_lgDefault__Array;17
	pop_a 1
.d 1 0
	jsr ea18
.o 1 0
	buildh ARRAY 1
.d 1 0
	rtn
.n 1 e_Data.GenDefault_dgDefault__Array;17
.o 1 0
e_Data.GenDefault_ngDefault__Array;17
	push_node _cycle_in_spine 1
.d 1 0
	jsr ea18
.o 1 0
	fillh ARRAY 1 1
.d 1 0
	rtn
.o 1 0
ea18
.o 1 0
e_Data.GenDefault_sgDefault__Array;17
.o 1 0
s18
	pushI 0
	pop_a 1
	create_array_ _ 1 0
.d 1 0
	rtn
.export e_Data.GenDefault_sgDefault__!List!;16
.export e_Data.GenDefault_eagDefault__!List!;16
.descexp e_Data.GenDefault_dgDefault__!List!;16 e_Data.GenDefault_ngDefault__!List!;16 e_Data.GenDefault_lgDefault__!List!;16 1 0 "gDefault__!List!;16"
.o 2 0
e_Data.GenDefault_igDefault__!List!;16
	pop_a 1
	create
	push_a 1
	update_a 1 2
	update_a 0 1
	pop_a 1
.d 2 0
	jmp s17
.ai 1 _ e_Data.GenDefault_igDefault__!List!;16
.o 2 0
e_Data.GenDefault_lgDefault__!List!;16
	update_a 1 0
	create
	update_a 0 2
	pop_a 1
.d 2 0
	jmp e_Data.GenDefault_eagDefault__!List!;16
.n 1 e_Data.GenDefault_dgDefault__!List!;16 e_Data.GenDefault_eagDefault__!List!;16
.o 1 0
e_Data.GenDefault_ngDefault__!List!;16
	push_node _cycle_in_spine 1
.o 2 0
e_Data.GenDefault_eagDefault__!List!;16
.o 2 0
e_Data.GenDefault_sgDefault__!List!;16
.o 2 0
s17
	fillh _Nil 0 1
	pop_a 1
.d 1 0
	rtn
.export e_Data.GenDefault_sgDefault__List!;15
.export e_Data.GenDefault_eagDefault__List!;15
.descexp e_Data.GenDefault_dgDefault__List!;15 e_Data.GenDefault_ngDefault__List!;15 e_Data.GenDefault_lgDefault__List!;15 1 0 "gDefault__List!;15"
.o 2 0
e_Data.GenDefault_igDefault__List!;15
	pop_a 1
	create
	push_a 1
	update_a 1 2
	update_a 0 1
	pop_a 1
.d 2 0
	jmp s16
.ai 1 _ e_Data.GenDefault_igDefault__List!;15
.o 2 0
e_Data.GenDefault_lgDefault__List!;15
	update_a 1 0
	create
	update_a 0 2
	pop_a 1
.d 2 0
	jmp e_Data.GenDefault_eagDefault__List!;15
.n 1 e_Data.GenDefault_dgDefault__List!;15 e_Data.GenDefault_eagDefault__List!;15
.o 1 0
e_Data.GenDefault_ngDefault__List!;15
	push_node _cycle_in_spine 1
.o 2 0
e_Data.GenDefault_eagDefault__List!;15
.o 2 0
e_Data.GenDefault_sgDefault__List!;15
.o 2 0
s16
	fillh _Nil 0 1
	pop_a 1
.d 1 0
	rtn
.export e_Data.GenDefault_sgDefault__!List;14
.export e_Data.GenDefault_eagDefault__!List;14
.descexp e_Data.GenDefault_dgDefault__!List;14 e_Data.GenDefault_ngDefault__!List;14 e_Data.GenDefault_lgDefault__!List;14 1 0 "gDefault__!List;14"
.o 2 0
e_Data.GenDefault_igDefault__!List;14
	pop_a 1
	create
	push_a 1
	update_a 1 2
	update_a 0 1
	pop_a 1
.d 2 0
	jmp s15
.ai 1 _ e_Data.GenDefault_igDefault__!List;14
.o 2 0
e_Data.GenDefault_lgDefault__!List;14
	update_a 1 0
	create
	update_a 0 2
	pop_a 1
.d 2 0
	jmp e_Data.GenDefault_eagDefault__!List;14
.n 1 e_Data.GenDefault_dgDefault__!List;14 e_Data.GenDefault_eagDefault__!List;14
.o 1 0
e_Data.GenDefault_ngDefault__!List;14
	push_node _cycle_in_spine 1
.o 2 0
e_Data.GenDefault_eagDefault__!List;14
.o 2 0
e_Data.GenDefault_sgDefault__!List;14
.o 2 0
s15
	fillh _Nil 0 1
	pop_a 1
.d 1 0
	rtn
.export e_Data.GenDefault_sgDefault__List;13
.export e_Data.GenDefault_eagDefault__List;13
.descexp e_Data.GenDefault_dgDefault__List;13 e_Data.GenDefault_ngDefault__List;13 e_Data.GenDefault_lgDefault__List;13 1 0 "gDefault__List;13"
.o 2 0
e_Data.GenDefault_igDefault__List;13
	pop_a 1
	create
	push_a 1
	update_a 1 2
	update_a 0 1
	pop_a 1
.d 2 0
	jmp s14
.ai 1 _ e_Data.GenDefault_igDefault__List;13
.o 2 0
e_Data.GenDefault_lgDefault__List;13
	update_a 1 0
	create
	update_a 0 2
	pop_a 1
.d 2 0
	jmp e_Data.GenDefault_eagDefault__List;13
.n 1 e_Data.GenDefault_dgDefault__List;13 e_Data.GenDefault_eagDefault__List;13
.o 1 0
e_Data.GenDefault_ngDefault__List;13
	push_node _cycle_in_spine 1
.o 2 0
e_Data.GenDefault_eagDefault__List;13
.o 2 0
e_Data.GenDefault_sgDefault__List;13
.o 2 0
s14
	fillh _Nil 0 1
	pop_a 1
.d 1 0
	rtn
.export e_Data.GenDefault_sgDefault_RECORD;12
.export e_Data.GenDefault_eagDefault_RECORD;12
.descexp e_Data.GenDefault_dgDefault_RECORD;12 e_Data.GenDefault_ngDefault_RECORD;12 e_Data.GenDefault_lgDefault_RECORD;12 1 0 "gDefault_RECORD;12"
.o 2 0
e_Data.GenDefault_lgDefault_RECORD;12
	update_a 1 0
	create
	update_a 0 2
	pop_a 1
.d 2 0
	jmp e_Data.GenDefault_eagDefault_RECORD;12
.n 1 e_Data.GenDefault_dgDefault_RECORD;12 e_Data.GenDefault_eagDefault_RECORD;12
.o 1 0
e_Data.GenDefault_ngDefault_RECORD;12
	push_node _cycle_in_spine 1
.o 2 0
e_Data.GenDefault_eagDefault_RECORD;12
.o 2 0
e_Data.GenDefault_sgDefault_RECORD;12
.o 2 0
s13
	push_a 0
	fillh e_StdGeneric_dRECORD 1 2
	pop_a 1
.d 1 0
	rtn
.export e_Data.GenDefault_sgDefault_OBJECT;11
.descexp e_Data.GenDefault_dgDefault_OBJECT;11 e_Data.GenDefault_ngDefault_OBJECT;11 e_Data.GenDefault_lgDefault_OBJECT;11 1 0 "gDefault_OBJECT;11"
.o 2 0
e_Data.GenDefault_lgDefault_OBJECT;11
	pop_a 1
.d 1 0
	jmp ea12
.n 1 e_Data.GenDefault_dgDefault_OBJECT;11 _
.o 1 0
e_Data.GenDefault_ngDefault_OBJECT;11
	push_node _cycle_in_spine 1
.d 1 0
	jsr ea12
.o 1 0
	fill_a 0 1
	pop_a 1
.d 1 0
	rtn
.o 1 0
e_Data.GenDefault_sgDefault_OBJECT;11
.o 1 0
ea12
	jsr_eval 0
.o 1 0
s12
.d 1 0
	rtn
.export e_Data.GenDefault_sgDefault_FIELD;10
.descexp e_Data.GenDefault_dgDefault_FIELD;10 e_Data.GenDefault_ngDefault_FIELD;10 e_Data.GenDefault_lgDefault_FIELD;10 1 0 "gDefault_FIELD;10"
.o 2 0
e_Data.GenDefault_lgDefault_FIELD;10
	pop_a 1
.d 1 0
	jmp ea11
.n 1 e_Data.GenDefault_dgDefault_FIELD;10 _
.o 1 0
e_Data.GenDefault_ngDefault_FIELD;10
	push_node _cycle_in_spine 1
.d 1 0
	jsr ea11
.o 1 0
	fill_a 0 1
	pop_a 1
.d 1 0
	rtn
.o 1 0
e_Data.GenDefault_sgDefault_FIELD;10
.o 1 0
ea11
	jsr_eval 0
.o 1 0
s11
.d 1 0
	rtn
.export e_Data.GenDefault_sgDefault_CONS;9
.export e_Data.GenDefault_eagDefault_CONS;9
.descexp e_Data.GenDefault_dgDefault_CONS;9 e_Data.GenDefault_ngDefault_CONS;9 e_Data.GenDefault_lgDefault_CONS;9 1 0 "gDefault_CONS;9"
.o 2 0
e_Data.GenDefault_lgDefault_CONS;9
	update_a 1 0
	create
	update_a 0 2
	pop_a 1
.d 2 0
	jmp e_Data.GenDefault_eagDefault_CONS;9
.n 1 e_Data.GenDefault_dgDefault_CONS;9 e_Data.GenDefault_eagDefault_CONS;9
.o 1 0
e_Data.GenDefault_ngDefault_CONS;9
	push_node _cycle_in_spine 1
.o 2 0
e_Data.GenDefault_eagDefault_CONS;9
.o 2 0
e_Data.GenDefault_sgDefault_CONS;9
.o 2 0
s10
	push_a 0
	fillh e_StdGeneric_dCONS 1 2
	pop_a 1
.d 1 0
	rtn
.export e_Data.GenDefault_sgDefault_EITHER;8
.export e_Data.GenDefault_eagDefault_EITHER;8
.descexp e_Data.GenDefault_dgDefault_EITHER;8 e_Data.GenDefault_ngDefault_EITHER;8 e_Data.GenDefault_lgDefault_EITHER;8 2 0 "gDefault_EITHER;8"
.a 2 e_Data.GenDefault_eagDefault_EITHER;8
.o 2 0
e_Data.GenDefault_lgDefault_EITHER;8
	push_args 0 1 1
	update_a 2 1
	create
	update_a 0 3
	pop_a 1
.d 3 0
	jmp e_Data.GenDefault_eagDefault_EITHER;8
.n 2 e_Data.GenDefault_dgDefault_EITHER;8 e_Data.GenDefault_eagDefault_EITHER;8
.o 1 0
e_Data.GenDefault_ngDefault_EITHER;8
	push_node _cycle_in_spine 2
.o 3 0
e_Data.GenDefault_eagDefault_EITHER;8
.o 3 0
e_Data.GenDefault_sgDefault_EITHER;8
.o 3 0
s9
	push_a 0
	fillh e_StdGeneric_dLEFT 1 3
	pop_a 2
.d 1 0
	rtn
.export e_Data.GenDefault_sgDefault_PAIR;7
.export e_Data.GenDefault_eagDefault_PAIR;7
.descexp e_Data.GenDefault_dgDefault_PAIR;7 e_Data.GenDefault_ngDefault_PAIR;7 e_Data.GenDefault_lgDefault_PAIR;7 2 0 "gDefault_PAIR;7"
.a 2 e_Data.GenDefault_eagDefault_PAIR;7
.o 2 0
e_Data.GenDefault_lgDefault_PAIR;7
	push_args 0 1 1
	update_a 2 1
	create
	update_a 0 3
	pop_a 1
.d 3 0
	jmp e_Data.GenDefault_eagDefault_PAIR;7
.n 2 e_Data.GenDefault_dgDefault_PAIR;7 e_Data.GenDefault_eagDefault_PAIR;7
.o 1 0
e_Data.GenDefault_ngDefault_PAIR;7
	push_node _cycle_in_spine 2
.o 3 0
e_Data.GenDefault_eagDefault_PAIR;7
.o 3 0
e_Data.GenDefault_sgDefault_PAIR;7
.o 3 0
s8
	push_a 1
	push_a 1
	fillh e_StdGeneric_dPAIR 2 4
	pop_a 2
.d 1 0
	rtn
.export e_Data.GenDefault_sgDefault_UNIT;6
.export e_Data.GenDefault_eagDefault_UNIT;6
.descexp e_Data.GenDefault_dgDefault_UNIT;6 e_Data.GenDefault_ngDefault_UNIT;6 e_Data.GenDefault_lgDefault_UNIT;6 0 0 "gDefault_UNIT;6"
.o 1 0
e_Data.GenDefault_lgDefault_UNIT;6
	halt
.n 0 e_Data.GenDefault_dgDefault_UNIT;6 e_Data.GenDefault_eagDefault_UNIT;6
.o 1 0
e_Data.GenDefault_ngDefault_UNIT;6
	push_node _cycle_in_spine 0
.o 1 0
e_Data.GenDefault_eagDefault_UNIT;6
.o 1 0
e_Data.GenDefault_sgDefault_UNIT;6
.o 1 0
s7
	fillh e_StdGeneric_dUNIT 0 0
.d 1 0
	rtn
.export e_Data.GenDefault_sgDefault_ARROW;5
.export e_Data.GenDefault_eagDefault_ARROW;5
.descexp e_Data.GenDefault_dgDefault_ARROW;5 e_Data.GenDefault_ngDefault_ARROW;5 e_Data.GenDefault_lgDefault_ARROW;5 2 0 "gDefault_ARROW;5"
.o 3 0
e_Data.GenDefault_igDefault_ARROW;5
	pop_a 1
	create
	jsr_eval 2
	push_a 2
	update_a 1 3
	update_a 2 1
	update_a 0 2
	pop_a 1
.d 3 0
	jmp s6
.ai 2 e_Data.GenDefault_eagDefault_ARROW;5 e_Data.GenDefault_igDefault_ARROW;5
.o 2 0
e_Data.GenDefault_lgDefault_ARROW;5
	push_args 0 1 1
	update_a 2 1
	create
	update_a 0 3
	pop_a 1
.d 3 0
	jmp e_Data.GenDefault_eagDefault_ARROW;5
.n 2 e_Data.GenDefault_dgDefault_ARROW;5 e_Data.GenDefault_eagDefault_ARROW;5
.o 1 0
e_Data.GenDefault_ngDefault_ARROW;5
	push_node _cycle_in_spine 2
.o 3 0
e_Data.GenDefault_sgDefault_ARROW;5
.o 3 0
e_Data.GenDefault_eagDefault_ARROW;5
	jsr_eval 1
.o 3 0
s6
	push_a 1
	fillh e_StdFunctions_dconst 1 3
	pop_a 2
.d 1 0
	rtn
.export e_Data.GenDefault_sgDefault__String;4
.descexp e_Data.GenDefault_dgDefault__String;4 e_Data.GenDefault_ngDefault__String;4 e_Data.GenDefault_lgDefault__String;4 0 0 "gDefault__String;4"
.o 1 0
e_Data.GenDefault_igDefault__String;4
	pop_a 1
.d 0 0
	jsr s5
.o 1 0
	buildh ARRAY 1
.d 1 0
	rtn
.o 1 0
e_Data.GenDefault_lgDefault__String;4
	halt
.n 0 e_Data.GenDefault_dgDefault__String;4
.o 1 0
e_Data.GenDefault_ngDefault__String;4
	push_node _cycle_in_spine 0
.d 0 0
	jsr ea5
.o 1 0
	fillh ARRAY 1 1
.d 1 0
	rtn
.o 0 0
ea5
.o 0 0
e_Data.GenDefault_sgDefault__String;4
.o 0 0
s5
	buildAC ""
.d 1 0
	rtn
.export e_Data.GenDefault_sgDefault_Real;3
.descexp e_Data.GenDefault_dgDefault_Real;3 e_Data.GenDefault_ngDefault_Real;3 e_Data.GenDefault_lgDefault_Real;3 0 0 "gDefault_Real;3"
.o 1 0
e_Data.GenDefault_igDefault_Real;3
	pop_a 1
.d 0 0
	jsr s4
.o 0 1 r
	buildR_b 0
	pop_b 1
.d 1 0
	rtn
.o 1 0
e_Data.GenDefault_lgDefault_Real;3
	halt
.n 0 e_Data.GenDefault_dgDefault_Real;3
.o 1 0
e_Data.GenDefault_ngDefault_Real;3
	push_node _cycle_in_spine 0
.d 0 0
	jsr ea4
.o 0 1 r
	fillR_b 0 0
	pop_b 1
.d 1 0
	rtn
.o 0 0
ea4
.o 0 0
e_Data.GenDefault_sgDefault_Real;3
.o 0 0
s4
	pushR 0.0
.d 0 1 r
	rtn
.export e_Data.GenDefault_sgDefault_Int;2
.descexp e_Data.GenDefault_dgDefault_Int;2 e_Data.GenDefault_ngDefault_Int;2 e_Data.GenDefault_lgDefault_Int;2 0 0 "gDefault_Int;2"
.o 1 0
e_Data.GenDefault_igDefault_Int;2
	pop_a 1
.d 0 0
	jsr s3
.o 0 1 i
	buildI_b 0
	pop_b 1
.d 1 0
	rtn
.o 1 0
e_Data.GenDefault_lgDefault_Int;2
	halt
.n 0 e_Data.GenDefault_dgDefault_Int;2
.o 1 0
e_Data.GenDefault_ngDefault_Int;2
	push_node _cycle_in_spine 0
.d 0 0
	jsr ea3
.o 0 1 i
	fillI_b 0 0
	pop_b 1
.d 1 0
	rtn
.o 0 0
ea3
.o 0 0
e_Data.GenDefault_sgDefault_Int;2
.o 0 0
s3
	pushI 0
.d 0 1 i
	rtn
.export e_Data.GenDefault_sgDefault_Char;1
.descexp e_Data.GenDefault_dgDefault_Char;1 e_Data.GenDefault_ngDefault_Char;1 e_Data.GenDefault_lgDefault_Char;1 0 0 "gDefault_Char;1"
.o 1 0
e_Data.GenDefault_igDefault_Char;1
	pop_a 1
.d 0 0
	jsr s2
.o 0 1 c
	buildC_b 0
	pop_b 1
.d 1 0
	rtn
.o 1 0
e_Data.GenDefault_lgDefault_Char;1
	halt
.n 0 e_Data.GenDefault_dgDefault_Char;1
.o 1 0
e_Data.GenDefault_ngDefault_Char;1
	push_node _cycle_in_spine 0
.d 0 0
	jsr ea2
.o 0 1 c
	fillC_b 0 0
	pop_b 1
.d 1 0
	rtn
.o 0 0
ea2
.o 0 0
e_Data.GenDefault_sgDefault_Char;1
.o 0 0
s2
	pushC '-'
.d 0 1 c
	rtn
.export e_Data.GenDefault_sgDefault_Bool;0
.descexp e_Data.GenDefault_dgDefault_Bool;0 e_Data.GenDefault_ngDefault_Bool;0 e_Data.GenDefault_lgDefault_Bool;0 0 0 "gDefault_Bool;0"
.o 1 0
e_Data.GenDefault_igDefault_Bool;0
	pop_a 1
.d 0 0
	jsr s1
.o 0 1 b
	buildB_b 0
	pop_b 1
.d 1 0
	rtn
.o 1 0
e_Data.GenDefault_lgDefault_Bool;0
	halt
.n 0 e_Data.GenDefault_dgDefault_Bool;0
.o 1 0
e_Data.GenDefault_ngDefault_Bool;0
	push_node _cycle_in_spine 0
.d 0 0
	jsr ea1
.o 0 1 b
	fillB_b 0 0
	pop_b 1
.d 1 0
	rtn
.o 0 0
ea1
.o 0 0
e_Data.GenDefault_sgDefault_Bool;0
.o 0 0
s1
	pushB FALSE
.d 0 1 b
	rtn
