.comp 920 000011110011000
.start _nostart_
.depend "StdCharList" "20210613143554"
.depend "_SystemArray" "20210613143554"
.depend "StdArray" "20210613143554"
.depend "StdEnv" "20210613143554"
.depend "_SystemEnum" "20210613143554"
.depend "StdEnum" "20210613143554"
.depend "StdTuple" "20210613143554"
.depend "StdOrdList" "20210613143554"
.depend "StdFile" "20210613143554"
.depend "StdString" "20210613143554"
.depend "StdMisc" "20210613143554"
.depend "StdFunctions" "20210613143554"
.depend "_SystemEnumStrict" "20210613143554"
.depend "_SystemStrictLists" "20210613143554"
.depend "StdStrictLists" "20210613143554"
.depend "StdGeneric" "20210613143554"
.depend "StdReal" "20210613143554"
.depend "StdChar" "20210613143554"
.depend "StdInt" "20210613143554"
.depend "StdBool" "20210613143554"
.depend "StdClass" "20210613143554"
.depend "StdList" "20210613143554"
.depend "StdOverloaded" "20210613143554"
.depend "_SystemDynamic" "20210613143554"
.depend "Data.GenEq" "20210613143554"
.module m_Data.GenEq "Data.GenEq" "20210613143554"
.endinfo
.impmod _system
.implab _cycle_in_spine
.implab _type_error
.implab _hnf
.impdesc e_system_dind
.implab e_system_nind e_system_eaind
.impdesc e_system_dif
.implab e_system_nif e_system_eaif
.implab e_system_sif
.impdesc e_system_dAP
.implab e_system_nAP e_system_eaAP
.implab e_system_sAP
.impdesc ARRAY
.impdesc _Nil
.impdesc _Cons
.impdesc _Conss
.implab n_Conss ea_Conss
.impdesc _Consts
.implab n_Consts ea_Consts
.impdesc _Conssts
.implab n_Conssts ea_Conssts
.impdesc _Tuple
.impdesc d_S.1
.implab n_S.1 ea_S.1
.impdesc d_S.2
.implab n_S.2 ea_S.2
.impdesc d_S.3
.implab n_S.3 ea_S.3
.impdesc d_S.4
.implab n_S.4 ea_S.4
.impdesc d_S.5
.implab n_S.5 ea_S.5
.impdesc d_S.6
.implab n_S.6 ea_S.6
.implab _driver
.impmod _SystemArray
.impdesc e__SystemArray_dselect;3
.implab e__SystemArray_nselect;3 _
.impdesc e__SystemArray_dselect;107
.implab e__SystemArray_nselect;107 _
.impmod StdString
.implab e_StdString_s==;2
.impmod StdMisc
.implab e_StdMisc_sabort
.impmod StdReal
.implab e_StdReal_s==;11
.impmod StdChar
.implab e_StdChar_s==;18
.impmod StdInt
.implab e_StdInt_s+;6
.implab e_StdInt_sone;11
.implab e_StdInt_s==;16
.implab e_StdInt_s<;17
.impmod StdBool
.implab e_StdBool_s==;3
.impmod StdGeneric
.impdesc e_StdGeneric_dUNIT
.impdesc e_StdGeneric_dLEFT
.impdesc e_StdGeneric_dRIGHT
.impdesc e_StdGeneric_dPAIR
.impdesc e_StdGeneric_dCONS
.impdesc e_StdGeneric_dRECORD
.impmod _predef
.impdesc e__predef_d_Unit
.export e_Data.GenEq_sgEq__Tuple8;27
.descexp e_Data.GenEq_dgEq__Tuple8;27 e_Data.GenEq_ngEq__Tuple8;27 e_Data.GenEq_lgEq__Tuple8;27 10 0 "gEq__Tuple8;27"
.o 11 0 
e_Data.GenEq_igEq__Tuple8;27
	pop_a 1
	push_args 9 8 8
	push_args 16 8 8
	jsr_eval 16
	update2_a 14 24
	update2_a 4 14
	updates4_a 13 23 9 19 5
	update_a 3 13
	updates4_a 12 22 8 18 4
	update_a 2 12
	updates4_a 11 21 7 17 3
	update_a 1 11
	updates4_a 10 20 6 16 2
	dup_a 10
.d 24 0 
	pop_a_jmp 2 s28
.ai 0 a28 e_Data.GenEq_igEq__Tuple8;27
.o 2 0 
e_Data.GenEq_lgEq__Tuple8;27
	repl_args 9 9
.o 10 0 
a28
.d 10 0 
	jsr ea28
.o 0 1 b
	buildB_b 0
.d 1 0 
	pop_b_rtn 1
.n 10 e_Data.GenEq_dgEq__Tuple8;27
.o 1 0 
e_Data.GenEq_ngEq__Tuple8;27
	push_node _cycle_in_spine 10
.d 10 0 
	jsr ea28
.o 0 1 b
	fillB_b 0 0
.d 1 0 
	pop_b_rtn 1
.o 24 0 
e_Data.GenEq_sgEq__Tuple8;27
	jsr_eval 0
.d 24 0 
	jmp s28
.o 10 0 
ea28
	push_jsr_eval 9
	repl_args 8 8
	push_jsr_eval 16
	repl_args 8 8
	jsr_eval 16
	update2_a 14 24
	update2_a 4 14
	updates4_a 13 23 9 19 5
	update_a 3 13
	updates4_a 12 22 8 18 4
	update_a 2 12
	updates4_a 11 21 7 17 3
	update_a 1 11
	updates4_a 10 20 6 16 2
	dup_a 10
	pop_a 2
.o 24 0 
s28
	create 
	push3_a 24
	push3_a 24
	push2_a 24
	buildh0_dup3_a _Nil 31
	dup3_a 28
	dup2_a 26
.d 9 0 
	pop_a_jsr 1 s42
.o 1 0 
	create 
	push3_a 17
	push3_a 17
	push2_a 17
	buildh0_dup3_a _Nil 24
	dup3_a 21
	dup2_a 19
.d 9 0 
	pop_a_jsr 1 s42
.o 1 0 
	buildho2 e_Data.GenEq_dgEq_PAIR;6 8 9
	buildho2 e_Data.GenEq_dgEq_PAIR;6 7 8
	buildh e_Data.GenEq_dgEq_PAIR;6 2
	buildho2 e_Data.GenEq_dgEq_PAIR;6 5 6
	buildho2 e_Data.GenEq_dgEq_PAIR;6 4 5
	buildh e_Data.GenEq_dgEq_PAIR;6 2
	buildh e_Data.GenEq_dgEq_PAIR;6 2
	buildh e_Data.GenEq_dgEq_CONS;1 1
	update3pop_a 0 24
.d 3 0 
	jmp s1
.o 9 0 
s42
	buildho2 e_StdGeneric_dPAIR 6 7
	buildho2 e_StdGeneric_dPAIR 5 6
	buildh e_StdGeneric_dPAIR 2
	buildho2 e_StdGeneric_dPAIR 3 4
	buildho2 e_StdGeneric_dPAIR 2 3
	buildh e_StdGeneric_dPAIR 2
	buildh e_StdGeneric_dPAIR 2
	fillh e_StdGeneric_dCONS 1 9
.d 1 0 
	pop_a_rtn 8
.export e_Data.GenEq_sgEq__Tuple7;26
.descexp e_Data.GenEq_dgEq__Tuple7;26 e_Data.GenEq_ngEq__Tuple7;26 e_Data.GenEq_lgEq__Tuple7;26 9 0 "gEq__Tuple7;26"
.o 10 0 
e_Data.GenEq_igEq__Tuple7;26
	pop_a 1
	push_args 8 7 7
	push_args 14 7 7
	jsr_eval 14
	update2_a 12 21
	update2_a 3 12
	updates4_a 10 19 7 16 4
	update_a 1 10
	updates4_a 9 18 6 15 3
	dup_a 9
	push_update_a 14 5
	updates3_a 21 9 18 6
	updates3pop_a 0 3 12 21
.d 21 0 
	jmp s27
.ai 0 a27 e_Data.GenEq_igEq__Tuple7;26
.o 2 0 
e_Data.GenEq_lgEq__Tuple7;26
	repl_args 8 8
.o 9 0 
a27
.d 9 0 
	jsr ea27
.o 0 1 b
	buildB_b 0
.d 1 0 
	pop_b_rtn 1
.n 9 e_Data.GenEq_dgEq__Tuple7;26
.o 1 0 
e_Data.GenEq_ngEq__Tuple7;26
	push_node _cycle_in_spine 9
.d 9 0 
	jsr ea27
.o 0 1 b
	fillB_b 0 0
.d 1 0 
	pop_b_rtn 1
.o 21 0 
e_Data.GenEq_sgEq__Tuple7;26
	jsr_eval 0
.d 21 0 
	jmp s27
.o 9 0 
ea27
	push_jsr_eval 8
	repl_args 7 7
	push_jsr_eval 14
	repl_args 7 7
	jsr_eval 14
	update2_a 12 21
	update2_a 3 12
	updates4_a 10 19 7 16 4
	update_a 1 10
	updates4_a 9 18 6 15 3
	dup_a 9
	push_update_a 14 5
	updates3_a 21 9 18 6
	updates3pop_a 0 3 12 21
.o 21 0 
s27
	create 
	push3_a 21
	push3_a 21
	push_a 21
	buildh0_dup3_a _Nil 27
	dup3_a 24
	put_a 23
.d 8 0 
	jsr s41
.o 1 0 
	create 
	push3_a 15
	push3_a 15
	push_a 15
	buildh0_dup3_a _Nil 21
	dup3_a 18
	put_a 17
.d 8 0 
	jsr s41
.o 1 0 
	buildho2 e_Data.GenEq_dgEq_PAIR;6 7 8
	buildho2 e_Data.GenEq_dgEq_PAIR;6 6 7
	buildh e_Data.GenEq_dgEq_PAIR;6 2
	buildho2 e_Data.GenEq_dgEq_PAIR;6 4 5
	push_a 4
	buildh e_Data.GenEq_dgEq_PAIR;6 2
	buildh e_Data.GenEq_dgEq_PAIR;6 2
	buildh e_Data.GenEq_dgEq_CONS;1 1
	update3pop_a 0 21
.d 3 0 
	jmp s1
.o 8 0 
s41
	buildho2 e_StdGeneric_dPAIR 5 6
	buildho2 e_StdGeneric_dPAIR 4 5
	buildh e_StdGeneric_dPAIR 2
	buildho2 e_StdGeneric_dPAIR 2 3
	push_a 2
	buildh e_StdGeneric_dPAIR 2
	buildh e_StdGeneric_dPAIR 2
	fillh e_StdGeneric_dCONS 1 8
.d 1 0 
	pop_a_rtn 7
.export e_Data.GenEq_sgEq__Tuple6;25
.descexp e_Data.GenEq_dgEq__Tuple6;25 e_Data.GenEq_ngEq__Tuple6;25 e_Data.GenEq_lgEq__Tuple6;25 8 0 "gEq__Tuple6;25"
.o 9 0 
e_Data.GenEq_igEq__Tuple6;25
	pop_a 1
	push_args 7 6 6
	push_args 12 6 6
	jsr_eval 12
	update2_a 10 18
	update2_a 2 10
	updates4_a 7 15 5 13 3
	updates3_a 1 9 17 7
	updates4_a 6 14 4 12 2
	updates3_a 0 8 16 6
.d 18 0 
	pop_a_jmp 2 s26
.ai 0 a26 e_Data.GenEq_igEq__Tuple6;25
.o 2 0 
e_Data.GenEq_lgEq__Tuple6;25
	repl_args 7 7
.o 8 0 
a26
.d 8 0 
	jsr ea26
.o 0 1 b
	buildB_b 0
.d 1 0 
	pop_b_rtn 1
.n 8 e_Data.GenEq_dgEq__Tuple6;25
.o 1 0 
e_Data.GenEq_ngEq__Tuple6;25
	push_node _cycle_in_spine 8
.d 8 0 
	jsr ea26
.o 0 1 b
	fillB_b 0 0
.d 1 0 
	pop_b_rtn 1
.o 18 0 
e_Data.GenEq_sgEq__Tuple6;25
	jsr_eval 0
.d 18 0 
	jmp s26
.o 8 0 
ea26
	push_jsr_eval 7
	repl_args 6 6
	push_jsr_eval 12
	repl_args 6 6
	jsr_eval 12
	update2_a 10 18
	update2_a 2 10
	updates4_a 7 15 5 13 3
	updates3_a 1 9 17 7
	updates4_a 6 14 4 12 2
	updates3_a 0 8 16 6
	pop_a 2
.o 18 0 
s26
	create 
	push3_a 18
	push3_a 18
	buildh0_dup3_a _Nil 23
	dup3_a 20
.d 7 0 
	pop_a_jsr 1 s40
.o 1 0 
	create 
	push3_a 13
	push3_a 13
	buildh0_dup3_a _Nil 18
	dup3_a 15
.d 7 0 
	pop_a_jsr 1 s40
.o 1 0 
	buildho2 e_Data.GenEq_dgEq_PAIR;6 6 7
	push_a 6
	buildh e_Data.GenEq_dgEq_PAIR;6 2
	buildho2 e_Data.GenEq_dgEq_PAIR;6 4 5
	push_a 4
	buildh e_Data.GenEq_dgEq_PAIR;6 2
	buildh e_Data.GenEq_dgEq_PAIR;6 2
	buildh e_Data.GenEq_dgEq_CONS;1 1
	update3pop_a 0 18
.d 3 0 
	jmp s1
.o 7 0 
s40
	buildho2 e_StdGeneric_dPAIR 4 5
	push_a 4
	buildh e_StdGeneric_dPAIR 2
	buildho2 e_StdGeneric_dPAIR 2 3
	push_a 2
	buildh e_StdGeneric_dPAIR 2
	buildh e_StdGeneric_dPAIR 2
	fillh e_StdGeneric_dCONS 1 7
.d 1 0 
	pop_a_rtn 6
.export e_Data.GenEq_sgEq__Tuple5;24
.descexp e_Data.GenEq_dgEq__Tuple5;24 e_Data.GenEq_ngEq__Tuple5;24 e_Data.GenEq_lgEq__Tuple5;24 7 0 "gEq__Tuple5;24"
.o 8 0 
e_Data.GenEq_igEq__Tuple5;24
	pop_a 1
	push_args 6 5 5
	push_args 10 5 5
	jsr_eval 10
	update2_a 8 15
	update2_a 1 8
	updates4_a 4 11 3 10 2
	updates4_a 6 13 5 12 4
	updates3_a 0 7 14 6
.d 15 0 
	pop_a_jmp 2 s25
.ai 0 a25 e_Data.GenEq_igEq__Tuple5;24
.o 2 0 
e_Data.GenEq_lgEq__Tuple5;24
	repl_args 6 6
.o 7 0 
a25
.d 7 0 
	jsr ea25
.o 0 1 b
	buildB_b 0
.d 1 0 
	pop_b_rtn 1
.n 7 e_Data.GenEq_dgEq__Tuple5;24
.o 1 0 
e_Data.GenEq_ngEq__Tuple5;24
	push_node _cycle_in_spine 7
.d 7 0 
	jsr ea25
.o 0 1 b
	fillB_b 0 0
.d 1 0 
	pop_b_rtn 1
.o 15 0 
e_Data.GenEq_sgEq__Tuple5;24
	jsr_eval 0
.d 15 0 
	jmp s25
.o 7 0 
ea25
	push_jsr_eval 6
	repl_args 5 5
	push_jsr_eval 10
	repl_args 5 5
	jsr_eval 10
	update2_a 8 15
	update2_a 1 8
	updates4_a 4 11 3 10 2
	updates4_a 6 13 5 12 4
	updates3_a 0 7 14 6
	pop_a 2
.o 15 0 
s25
	create 
	push3_a 15
	push2_a 15
	buildh0_dup3_a _Nil 19
	dup2_a 17
.d 6 0 
	pop_a_jsr 1 s39
.o 1 0 
	create 
	push3_a 11
	push2_a 11
	buildh0_dup3_a _Nil 15
	dup2_a 13
.d 6 0 
	pop_a_jsr 1 s39
.o 1 0 
	buildho2 e_Data.GenEq_dgEq_PAIR;6 5 6
	push_a 5
	buildh e_Data.GenEq_dgEq_PAIR;6 2
	buildho2 e_Data.GenEq_dgEq_PAIR;6 3 4
	buildh e_Data.GenEq_dgEq_PAIR;6 2
	buildh e_Data.GenEq_dgEq_CONS;1 1
	update3pop_a 0 15
.d 3 0 
	jmp s1
.o 6 0 
s39
	buildho2 e_StdGeneric_dPAIR 3 4
	push_a 3
	buildh e_StdGeneric_dPAIR 2
	buildho2 e_StdGeneric_dPAIR 1 2
	buildh e_StdGeneric_dPAIR 2
	fillh e_StdGeneric_dCONS 1 6
.d 1 0 
	pop_a_rtn 5
.export e_Data.GenEq_sgEq__Tuple4;23
.descexp e_Data.GenEq_dgEq__Tuple4;23 e_Data.GenEq_ngEq__Tuple4;23 e_Data.GenEq_lgEq__Tuple4;23 6 0 "gEq__Tuple4;23"
.o 7 0 
e_Data.GenEq_igEq__Tuple4;23
	pop_a 1
	push_args 5 4 4
	push_args 8 4 4
	jsr_eval 8
	update2_a 6 12
	update2_a 0 6
	exchange_a 8 2
	exchange_a 9 3
	exchange_a 10 4
	exchange_a 11 5
.d 12 0 
	pop_a_jmp 2 s24
.ai 0 a24 e_Data.GenEq_igEq__Tuple4;23
.o 2 0 
e_Data.GenEq_lgEq__Tuple4;23
	repl_args 5 5
.o 6 0 
a24
.d 6 0 
	jsr ea24
.o 0 1 b
	buildB_b 0
.d 1 0 
	pop_b_rtn 1
.n 6 e_Data.GenEq_dgEq__Tuple4;23
.o 1 0 
e_Data.GenEq_ngEq__Tuple4;23
	push_node _cycle_in_spine 6
.d 6 0 
	jsr ea24
.o 0 1 b
	fillB_b 0 0
.d 1 0 
	pop_b_rtn 1
.o 12 0 
e_Data.GenEq_sgEq__Tuple4;23
	jsr_eval 0
.d 12 0 
	jmp s24
.o 6 0 
ea24
	push_jsr_eval 5
	repl_args 4 4
	push_jsr_eval 8
	repl_args 4 4
	jsr_eval 8
	update2_a 6 12
	update2_a 0 6
	exchange_a 8 2
	exchange_a 9 3
	exchange_a 10 4
	exchange_a 11 5
	pop_a 2
.o 12 0 
s24
	create 
	push3_a 12
	push_a 12
	buildh0_dup3_a _Nil 15
	put_a 14
.d 5 0 
	jsr s38
.o 1 0 
	create 
	push3_a 9
	push_a 9
	buildh0_dup3_a _Nil 12
	put_a 11
.d 5 0 
	jsr s38
.o 1 0 
	buildho2 e_Data.GenEq_dgEq_PAIR;6 4 5
	buildho2 e_Data.GenEq_dgEq_PAIR;6 3 4
	buildh e_Data.GenEq_dgEq_PAIR;6 2
	buildh e_Data.GenEq_dgEq_CONS;1 1
	update3pop_a 0 12
.d 3 0 
	jmp s1
.o 5 0 
s38
	buildho2 e_StdGeneric_dPAIR 2 3
	buildho2 e_StdGeneric_dPAIR 1 2
	buildh e_StdGeneric_dPAIR 2
	fillh e_StdGeneric_dCONS 1 5
.d 1 0 
	pop_a_rtn 4
.export e_Data.GenEq_sgEq__Tuple3;22
.descexp e_Data.GenEq_dgEq__Tuple3;22 e_Data.GenEq_ngEq__Tuple3;22 e_Data.GenEq_lgEq__Tuple3;22 5 0 "gEq__Tuple3;22"
.o 6 0 
e_Data.GenEq_igEq__Tuple3;22
	pop_a 1
	push_args 4 3 3
	push_args 6 3 3
	jsr_eval 6
	update2_a 4 9
	dup_a 5
	updates4_a 2 7 3 8 4
	updates2_a 1 6 2
.d 9 0 
	pop_a_jmp 2 s23
.ai 0 a23 e_Data.GenEq_igEq__Tuple3;22
.o 2 0 
e_Data.GenEq_lgEq__Tuple3;22
	repl_args 4 4
.o 5 0 
a23
.d 5 0 
	jsr ea23
.o 0 1 b
	buildB_b 0
.d 1 0 
	pop_b_rtn 1
.n 5 e_Data.GenEq_dgEq__Tuple3;22
.o 1 0 
e_Data.GenEq_ngEq__Tuple3;22
	push_node _cycle_in_spine 5
.d 5 0 
	jsr ea23
.o 0 1 b
	fillB_b 0 0
.d 1 0 
	pop_b_rtn 1
.o 9 0 
e_Data.GenEq_sgEq__Tuple3;22
	jsr_eval 0
.d 9 0 
	jmp s23
.o 5 0 
ea23
	push_jsr_eval 4
	repl_args 3 3
	push_jsr_eval 6
	repl_args 3 3
	jsr_eval 6
	update2_a 4 9
	dup_a 5
	updates4_a 2 7 3 8 4
	updates2_a_pop_a 1 6 2 2
.o 9 0 
s23
	create 
	push3_a 9
	buildh0_dup3_a _Nil 11
.d 4 0 
	pop_a_jsr 1 s37
.o 1 0 
	create 
	push3_a 7
	buildh0_dup3_a _Nil 9
.d 4 0 
	pop_a_jsr 1 s37
.o 1 0 
	buildho2 e_Data.GenEq_dgEq_PAIR;6 3 4
	push_a 3
	buildh e_Data.GenEq_dgEq_PAIR;6 2
	buildh e_Data.GenEq_dgEq_CONS;1 1
	update3pop_a 0 9
.d 3 0 
	jmp s1
.o 4 0 
s37
	buildho2 e_StdGeneric_dPAIR 1 2
	push_a 1
	buildh e_StdGeneric_dPAIR 2
	fillh e_StdGeneric_dCONS 1 4
.d 1 0 
	pop_a_rtn 3
.export e_Data.GenEq_sgEq__Tuple2;21
.descexp e_Data.GenEq_dgEq__Tuple2;21 e_Data.GenEq_ngEq__Tuple2;21 e_Data.GenEq_lgEq__Tuple2;21 4 0 "gEq__Tuple2;21"
.o 5 0 
e_Data.GenEq_igEq__Tuple2;21
	pop_a 1
	push_args 3 2 2
	push_args 4 2 2
	jsr_eval 4
	update2_a 2 6
	updates2_a 1 5 3
	updates2_a 0 4 2
.d 6 0 
	pop_a_jmp 2 s22
.ai 0 a22 e_Data.GenEq_igEq__Tuple2;21
.o 2 0 
e_Data.GenEq_lgEq__Tuple2;21
	repl_args 3 3
.o 4 0 
a22
.d 4 0 
	jsr ea22
.o 0 1 b
	buildB_b 0
.d 1 0 
	pop_b_rtn 1
.n 4 e_Data.GenEq_dgEq__Tuple2;21
.o 1 0 
e_Data.GenEq_ngEq__Tuple2;21
	push_node _cycle_in_spine 4
.d 4 0 
	jsr ea22
.o 0 1 b
	fillB_b 0 0
.d 1 0 
	pop_b_rtn 1
.o 6 0 
e_Data.GenEq_sgEq__Tuple2;21
	jsr_eval 0
.d 6 0 
	jmp s22
.o 4 0 
ea22
	push_jsr_eval 3
	repl_args 2 2
	push_jsr_eval 4
	repl_args 2 2
	jsr_eval 4
	update2_a 2 6
	updates2_a 1 5 3
	updates2_a_pop_a 0 4 2 2
.o 6 0 
s22
	create 
	push2_a 6
	buildh0_dup2_a _Nil 8
.d 3 0 
	pop_a_jsr 1 s36
.o 1 0 
	create 
	push2_a 5
	buildh0_dup2_a _Nil 7
.d 3 0 
	pop_a_jsr 1 s36
.o 1 0 
	buildho2 e_Data.GenEq_dgEq_PAIR;6 2 3
	buildh e_Data.GenEq_dgEq_CONS;1 1
	update3pop_a 0 6
.d 3 0 
	jmp s1
.o 3 0 
s36
	buildho2 e_StdGeneric_dPAIR 0 1
	fillh e_StdGeneric_dCONS 1 3
.d 1 0 
	pop_a_rtn 2
.export e_Data.GenEq_sgEq__Unit;20
.descexp e_Data.GenEq_dgEq__Unit;20 e_Data.GenEq_ngEq__Unit;20 e_Data.GenEq_lgEq__Unit;20 2 0 "gEq__Unit;20"
.o 3 0 
e_Data.GenEq_igEq__Unit;20
.d 2 0 
	pop_a_jmp 1 s21
.ai 0 a21 e_Data.GenEq_igEq__Unit;20
.o 2 0 
e_Data.GenEq_lgEq__Unit;20
	repl_args 1 1
.o 2 0 
a21
.d 2 0 
	jsr ea21
.o 0 1 b
	buildB_b 0
.d 1 0 
	pop_b_rtn 1
.n 2 e_Data.GenEq_dgEq__Unit;20
.o 1 0 
e_Data.GenEq_ngEq__Unit;20
	push_node _cycle_in_spine 2
.d 2 0 
	jsr ea21
.o 0 1 b
	fillB_b 0 0
.d 1 0 
	pop_b_rtn 1
.o 2 0 
ea21
	jsr_eval 1
	jsr_eval 0
.o 2 0 
e_Data.GenEq_sgEq__Unit;20
.o 2 0 
s21
	create 
	push_a 2
	update3pop_a 0 1
.d 2 0 
	jsr s35
.o 1 0 
	create 
	push_a 2
.d 2 0 
	buildh0_put_a_jsr _Nil 4 s35
.o 1 0 
	update2_a 0 1
	pop_a 1
	buildh e_Data.GenEq_d_f0.79 0
.d 3 0 
	jmp s1
.export e_Data.GenEq_d_f0.79
.desc e_Data.GenEq_d_f0.79 _hnf l79 2 0 "_f0.79"
.a 2 ea79
.o 2 0 
l79
	push_args 0 1 1
	update_a 2 1
	create 
	put_a 3
.o 3 0 
ea79
.o 3 0 
s79
	push_jsr_eval 1
	push_jsr_eval 1
	update2_a 0 2
	pop_a 2
	buildh e_Data.GenEq_dgEq_UNIT;5 0
.d 3 0 
	jsr s2
.o 0 1 b
	fillB_b 0 0
.d 1 0 
	pop_b_rtn 1
.o 2 0 
s35
	buildh e_StdGeneric_dUNIT 0
	fillh e_StdGeneric_dCONS 1 2
.d 1 0 
	pop_a_rtn 1
.export e_Data.GenEq_sgEq__#List!;19
.descexp e_Data.GenEq_dgEq__#List!;19 e_Data.GenEq_ngEq__#List!;19 e_Data.GenEq_lgEq__#List!;19 4 0 "gEq__#List!;19"
.o 4 0 
e_Data.GenEq_igEq__#List!;19
	repl_args 1 1
	jsr_eval 0
	push_r_args 0 2 0
	update2pop_a 0 1
.d 5 0 
	jmp s20
.ai 0 a20 e_Data.GenEq_igEq__#List!;19
.o 2 0 
e_Data.GenEq_lgEq__#List!;19
	repl_args 3 3
.o 4 0 
a20
.d 4 0 
	jsr ea20
.o 0 1 b
	buildB_b 0
.d 1 0 
	pop_b_rtn 1
.n 4 e_Data.GenEq_dgEq__#List!;19
.o 1 0 
e_Data.GenEq_ngEq__#List!;19
	push_node _cycle_in_spine 4
.d 4 0 
	jsr ea20
.o 0 1 b
	fillB_b 0 0
.d 1 0 
	pop_b_rtn 1
.o 4 0 
ea20
	jsr_eval 3
	jsr_eval 2
	jsr_eval 0
	repl_r_args 2 0
.o 5 0 
e_Data.GenEq_sgEq__#List!;19
.o 5 0 
s20
	create 
	push_a 5
	push2_a 3
.d 4 0 
	buildh0_put_a_jsr _Nil 9 s34
.o 1 0 
	create 
	push_a 5
	push2_a 4
.d 4 0 
	buildh0_put_a_jsr _Nil 9 s34
.o 1 0 
	buildh e_Data.GenEq_d_f0.79 0
.impmod _SystemStrictLists
.impdesc e__SystemStrictLists_rUTSList;
	build_r e__SystemStrictLists_rUTSList; 2 0 3 0
	push_update_a 0 6
	buildh e_Data.GenEq_dgEq__#List!;19 2
	push_a 6
	buildh e_Data.GenEq_dgEq_PAIR;6 2
	buildh e_Data.GenEq_dgEq_CONS;1 1
	buildh e_Data.GenEq_dgEq_EITHER;4 2
	update3pop_a 0 5
.d 3 0 
	jmp s1
.o 4 0 
s34
	jmp_ne_desc _Nil 0 2 case.1
	jmp case.2
case.1
	push2_a 2
.d 2 0 
	jsr_i 1
.o 2 0 
	buildh _Nil 0
	push_a 1
	updates2_a 3 1 6
	buildh e_StdGeneric_dPAIR 2
	buildh e_StdGeneric_dCONS 1
	fillh e_StdGeneric_dLEFT 1 6
.d 1 0 
	pop_a_rtn 5
case.2
	buildh e_StdGeneric_dUNIT 0
	buildh e_StdGeneric_dCONS 1
	fillh e_StdGeneric_dRIGHT 1 4
.d 1 0 
	pop_a_rtn 3
.export e_Data.GenEq_sgEq__#List;18
.descexp e_Data.GenEq_dgEq__#List;18 e_Data.GenEq_ngEq__#List;18 e_Data.GenEq_lgEq__#List;18 4 0 "gEq__#List;18"
.o 4 0 
e_Data.GenEq_igEq__#List;18
	repl_args 1 1
	jsr_eval 0
	push_r_args 0 2 0
	update2pop_a 0 1
.d 5 0 
	jmp s19
.ai 0 a19 e_Data.GenEq_igEq__#List;18
.o 2 0 
e_Data.GenEq_lgEq__#List;18
	repl_args 3 3
.o 4 0 
a19
.d 4 0 
	jsr ea19
.o 0 1 b
	buildB_b 0
.d 1 0 
	pop_b_rtn 1
.n 4 e_Data.GenEq_dgEq__#List;18
.o 1 0 
e_Data.GenEq_ngEq__#List;18
	push_node _cycle_in_spine 4
.d 4 0 
	jsr ea19
.o 0 1 b
	fillB_b 0 0
.d 1 0 
	pop_b_rtn 1
.o 4 0 
ea19
	jsr_eval 3
	jsr_eval 2
	jsr_eval 0
	repl_r_args 2 0
.o 5 0 
e_Data.GenEq_sgEq__#List;18
.o 5 0 
s19
	create 
	push_a 5
	push2_a 3
.d 4 0 
	buildh0_put_a_jsr _Nil 9 s33
.o 1 0 
	create 
	push_a 5
	push2_a 4
.d 4 0 
	buildh0_put_a_jsr _Nil 9 s33
.o 1 0 
	buildh e_Data.GenEq_d_f0.79 0
.impdesc e__SystemStrictLists_rUList;
	build_r e__SystemStrictLists_rUList; 2 0 3 0
	push_update_a 0 6
	buildh e_Data.GenEq_dgEq__#List;18 2
	push_a 6
	buildh e_Data.GenEq_dgEq_PAIR;6 2
	buildh e_Data.GenEq_dgEq_CONS;1 1
	buildh e_Data.GenEq_dgEq_EITHER;4 2
	update3pop_a 0 5
.d 3 0 
	jmp s1
.o 4 0 
s33
	jmp_ne_desc _Nil 0 2 case.3
	jmp case.4
case.3
	push2_a 2
.d 2 0 
	jsr_i 1
.o 2 0 
	buildh _Nil 0
	push_a 1
	updates2_a 3 1 6
	buildh e_StdGeneric_dPAIR 2
	buildh e_StdGeneric_dCONS 1
	fillh e_StdGeneric_dLEFT 1 6
.d 1 0 
	pop_a_rtn 5
case.4
	buildh e_StdGeneric_dUNIT 0
	buildh e_StdGeneric_dCONS 1
	fillh e_StdGeneric_dRIGHT 1 4
.d 1 0 
	pop_a_rtn 3
.export e_Data.GenEq_sgEq__!List!;17
.descexp e_Data.GenEq_dgEq__!List!;17 e_Data.GenEq_ngEq__!List!;17 e_Data.GenEq_lgEq__!List!;17 3 0 "gEq__!List!;17"
.o 4 0 
e_Data.GenEq_igEq__!List!;17
.d 3 0 
	pop_a_jmp 1 s18
.ai 0 a18 e_Data.GenEq_igEq__!List!;17
.o 2 0 
e_Data.GenEq_lgEq__!List!;17
	repl_args 2 2
.o 3 0 
a18
.d 3 0 
	jsr ea18
.o 0 1 b
	buildB_b 0
.d 1 0 
	pop_b_rtn 1
.n 3 e_Data.GenEq_dgEq__!List!;17
.o 1 0 
e_Data.GenEq_ngEq__!List!;17
	push_node _cycle_in_spine 3
.d 3 0 
	jsr ea18
.o 0 1 b
	fillB_b 0 0
.d 1 0 
	pop_b_rtn 1
.o 3 0 
ea18
	jsr_eval 2
	jsr_eval 1
.o 3 0 
e_Data.GenEq_sgEq__!List!;17
.o 3 0 
s18
	create 
	push_a 3
.d 2 0 
	buildh0_put_a_jsr _Nil 5 s32
.o 1 0 
	create 
	push_a 3
.d 2 0 
	buildh0_put_a_jsr _Nil 5 s32
.o 1 0 
	buildh e_Data.GenEq_d_f0.79 0
	push_a 3
	buildh e_Data.GenEq_dgEq__!List!;17 1
	push_a 4
	buildh e_Data.GenEq_dgEq_PAIR;6 2
	buildh e_Data.GenEq_dgEq_CONS;1 1
	buildh e_Data.GenEq_dgEq_EITHER;4 2
	update3pop_a 0 3
.d 3 0 
	jmp s1
.o 2 0 
s32
	jmp_ne_desc _Cons 2 0 case.6
	repl_args 2 2
	buildho2 e_StdGeneric_dPAIR 0 1
	buildh e_StdGeneric_dCONS 1
	fillh e_StdGeneric_dLEFT 1 3
.d 1 0 
	pop_a_rtn 2
case.6
	buildh e_StdGeneric_dUNIT 0
	buildh e_StdGeneric_dCONS 1
	fillh e_StdGeneric_dRIGHT 1 2
.d 1 0 
	pop_a_rtn 1
.export e_Data.GenEq_sgEq__List!;16
.descexp e_Data.GenEq_dgEq__List!;16 e_Data.GenEq_ngEq__List!;16 e_Data.GenEq_lgEq__List!;16 3 0 "gEq__List!;16"
.o 4 0 
e_Data.GenEq_igEq__List!;16
.d 3 0 
	pop_a_jmp 1 s17
.ai 0 a17 e_Data.GenEq_igEq__List!;16
.o 2 0 
e_Data.GenEq_lgEq__List!;16
	repl_args 2 2
.o 3 0 
a17
.d 3 0 
	jsr ea17
.o 0 1 b
	buildB_b 0
.d 1 0 
	pop_b_rtn 1
.n 3 e_Data.GenEq_dgEq__List!;16
.o 1 0 
e_Data.GenEq_ngEq__List!;16
	push_node _cycle_in_spine 3
.d 3 0 
	jsr ea17
.o 0 1 b
	fillB_b 0 0
.d 1 0 
	pop_b_rtn 1
.o 3 0 
ea17
	jsr_eval 2
	jsr_eval 1
.o 3 0 
e_Data.GenEq_sgEq__List!;16
.o 3 0 
s17
	create 
	push_a 3
.d 2 0 
	buildh0_put_a_jsr _Nil 5 s31
.o 1 0 
	create 
	push_a 3
.d 2 0 
	buildh0_put_a_jsr _Nil 5 s31
.o 1 0 
	buildh e_Data.GenEq_d_f0.79 0
	push_a 3
	buildh e_Data.GenEq_dgEq__List!;16 1
	push_a 4
	buildh e_Data.GenEq_dgEq_PAIR;6 2
	buildh e_Data.GenEq_dgEq_CONS;1 1
	buildh e_Data.GenEq_dgEq_EITHER;4 2
	update3pop_a 0 3
.d 3 0 
	jmp s1
.o 2 0 
s31
	jmp_ne_desc _Cons 2 0 case.8
	repl_args 2 2
	buildho2 e_StdGeneric_dPAIR 0 1
	buildh e_StdGeneric_dCONS 1
	fillh e_StdGeneric_dLEFT 1 3
.d 1 0 
	pop_a_rtn 2
case.8
	buildh e_StdGeneric_dUNIT 0
	buildh e_StdGeneric_dCONS 1
	fillh e_StdGeneric_dRIGHT 1 2
.d 1 0 
	pop_a_rtn 1
.export e_Data.GenEq_sgEq__!List;15
.descexp e_Data.GenEq_dgEq__!List;15 e_Data.GenEq_ngEq__!List;15 e_Data.GenEq_lgEq__!List;15 3 0 "gEq__!List;15"
.o 4 0 
e_Data.GenEq_igEq__!List;15
.d 3 0 
	pop_a_jmp 1 s16
.ai 0 a16 e_Data.GenEq_igEq__!List;15
.o 2 0 
e_Data.GenEq_lgEq__!List;15
	repl_args 2 2
.o 3 0 
a16
.d 3 0 
	jsr ea16
.o 0 1 b
	buildB_b 0
.d 1 0 
	pop_b_rtn 1
.n 3 e_Data.GenEq_dgEq__!List;15
.o 1 0 
e_Data.GenEq_ngEq__!List;15
	push_node _cycle_in_spine 3
.d 3 0 
	jsr ea16
.o 0 1 b
	fillB_b 0 0
.d 1 0 
	pop_b_rtn 1
.o 3 0 
ea16
	jsr_eval 2
	jsr_eval 1
.o 3 0 
e_Data.GenEq_sgEq__!List;15
.o 3 0 
s16
	create 
	push_a 3
.d 2 0 
	buildh0_put_a_jsr _Nil 5 s30
.o 1 0 
	create 
	push_a 3
.d 2 0 
	buildh0_put_a_jsr _Nil 5 s30
.o 1 0 
	buildh e_Data.GenEq_d_f0.79 0
	push_a 3
	buildh e_Data.GenEq_dgEq__!List;15 1
	push_a 4
	buildh e_Data.GenEq_dgEq_PAIR;6 2
	buildh e_Data.GenEq_dgEq_CONS;1 1
	buildh e_Data.GenEq_dgEq_EITHER;4 2
	update3pop_a 0 3
.d 3 0 
	jmp s1
.o 2 0 
s30
	jmp_ne_desc _Cons 2 0 case.10
	repl_args 2 2
	buildho2 e_StdGeneric_dPAIR 0 1
	buildh e_StdGeneric_dCONS 1
	fillh e_StdGeneric_dLEFT 1 3
.d 1 0 
	pop_a_rtn 2
case.10
	buildh e_StdGeneric_dUNIT 0
	buildh e_StdGeneric_dCONS 1
	fillh e_StdGeneric_dRIGHT 1 2
.d 1 0 
	pop_a_rtn 1
.export e_Data.GenEq_sgEq__List;14
.descexp e_Data.GenEq_dgEq__List;14 e_Data.GenEq_ngEq__List;14 e_Data.GenEq_lgEq__List;14 3 0 "gEq__List;14"
.o 4 0 
e_Data.GenEq_igEq__List;14
.d 3 0 
	pop_a_jmp 1 s15
.ai 0 a15 e_Data.GenEq_igEq__List;14
.o 2 0 
e_Data.GenEq_lgEq__List;14
	repl_args 2 2
.o 3 0 
a15
.d 3 0 
	jsr ea15
.o 0 1 b
	buildB_b 0
.d 1 0 
	pop_b_rtn 1
.n 3 e_Data.GenEq_dgEq__List;14
.o 1 0 
e_Data.GenEq_ngEq__List;14
	push_node _cycle_in_spine 3
.d 3 0 
	jsr ea15
.o 0 1 b
	fillB_b 0 0
.d 1 0 
	pop_b_rtn 1
.o 3 0 
ea15
	jsr_eval 2
	jsr_eval 1
.o 3 0 
e_Data.GenEq_sgEq__List;14
.o 3 0 
s15
	create 
	push_a 3
.d 2 0 
	buildh0_put_a_jsr _Nil 5 s29
.o 1 0 
	create 
	push_a 3
.d 2 0 
	buildh0_put_a_jsr _Nil 5 s29
.o 1 0 
	buildh e_Data.GenEq_d_f0.79 0
	push_a 3
	buildh e_Data.GenEq_dgEq__List;14 1
	push_a 4
	buildh e_Data.GenEq_dgEq_PAIR;6 2
	buildh e_Data.GenEq_dgEq_CONS;1 1
	buildh e_Data.GenEq_dgEq_EITHER;4 2
	update3pop_a 0 3
.d 3 0 
	jmp s1
.o 2 0 
s29
	jmp_ne_desc _Cons 2 0 case.12
	repl_args 2 2
	buildho2 e_StdGeneric_dPAIR 0 1
	buildh e_StdGeneric_dCONS 1
	fillh e_StdGeneric_dLEFT 1 3
.d 1 0 
	pop_a_rtn 2
case.12
	buildh e_StdGeneric_dUNIT 0
	buildh e_StdGeneric_dCONS 1
	fillh e_StdGeneric_dRIGHT 1 2
.d 1 0 
	pop_a_rtn 1
.export e_Data.GenEq_sgEq__!Array;13
.descexp e_Data.GenEq_dgEq__!Array;13 e_Data.GenEq_ngEq__!Array;13 e_Data.GenEq_lgEq__!Array;13 3 0 "gEq__!Array;13"
.o 4 0 
e_Data.GenEq_igEq__!Array;13
	pop_a 1
	push_array 2
	push_array 2
	update2_a 0 3
.d 3 0 
	pop_a_jmp 2 s14
.ai 0 a14 e_Data.GenEq_igEq__!Array;13
.o 2 0 
e_Data.GenEq_lgEq__!Array;13
	repl_args 2 2
.o 3 0 
a14
.d 3 0 
	jsr ea14
.o 0 1 b
	buildB_b 0
.d 1 0 
	pop_b_rtn 1
.n 3 e_Data.GenEq_dgEq__!Array;13
.o 1 0 
e_Data.GenEq_ngEq__!Array;13
	push_node _cycle_in_spine 3
.d 3 0 
	jsr ea14
.o 0 1 b
	fillB_b 0 0
.d 1 0 
	pop_b_rtn 1
.o 3 0 
ea14
	jsr_eval 2
	jsr_eval 1
	push_array 2
	push_array 2
	update2_a 0 3
	pop_a 2
.o 3 0 
e_Data.GenEq_sgEq__!Array;13
.o 3 0 
s14
s45
	push_arraysize_a _ 1 0 2
	push_arraysize_a _ 1 0 1
	jmp_neI else.13
	push_arraysize_a _ 1 0 1
	pushI 0
.d 3 2 ii
	jmp s46
else.13
	pushB FALSE
.d 0 1 b
	pop_a_rtn 3
.o 3 2 ii
s46
	push2_b 1
	jmp_neI else.14
	pop_b_pushB 2 TRUE
.d 0 1 b
	pop_a_rtn 3
else.14
	push2_b 1
	jmp_geI else.15
	buildI_b 0
	push_a 3
	buildh ARRAY 1
	build e__SystemArray_dselect;3 2 e__SystemArray_nselect;3
	buildI_b 0
	push_a 3
	buildh ARRAY 1
	build e__SystemArray_dselect;3 2 e__SystemArray_nselect;3
	push_jsr_eval 2
	jsr_ap 2
	pushB0_pop_a1 
	jmp_false else.16
	incI
.d 3 2 ii
	jmp s46
else.16
	pop_b_pushB 2 FALSE
.d 0 1 b
	pop_a_rtn 3
else.15
	buildAC "error in eqArray\n"
	updatepop_a 0 3
.d 1 0 
	pop_b_jsr 2 print_string_
.o 0 0 
	halt
	pushB0_pop_a1 
.d 0 1 b
	rtn 
.export e_Data.GenEq_sgEq__Array;12
.descexp e_Data.GenEq_dgEq__Array;12 e_Data.GenEq_ngEq__Array;12 e_Data.GenEq_lgEq__Array;12 3 0 "gEq__Array;12"
.o 4 0 
e_Data.GenEq_igEq__Array;12
	pop_a 1
	push_array 2
	push_array 2
	update2_a 0 3
.d 3 0 
	pop_a_jmp 2 s13
.ai 0 a13 e_Data.GenEq_igEq__Array;12
.o 2 0 
e_Data.GenEq_lgEq__Array;12
	repl_args 2 2
.o 3 0 
a13
.d 3 0 
	jsr ea13
.o 0 1 b
	buildB_b 0
.d 1 0 
	pop_b_rtn 1
.n 3 e_Data.GenEq_dgEq__Array;12
.o 1 0 
e_Data.GenEq_ngEq__Array;12
	push_node _cycle_in_spine 3
.d 3 0 
	jsr ea13
.o 0 1 b
	fillB_b 0 0
.d 1 0 
	pop_b_rtn 1
.o 3 0 
ea13
	jsr_eval 2
	jsr_eval 1
	push_array 2
	push_array 2
	update2_a 0 3
	pop_a 2
.o 3 0 
e_Data.GenEq_sgEq__Array;12
.o 3 0 
s13
s43
	push_arraysize_a _ 1 0 2
	push_arraysize_a _ 1 0 1
	jmp_neI else.17
	push_arraysize_a _ 1 0 1
	pushI 0
.d 3 2 ii
	jmp s44
else.17
	pushB FALSE
.d 0 1 b
	pop_a_rtn 3
.o 3 2 ii
s44
	push2_b 1
	jmp_neI else.18
	pop_b_pushB 2 TRUE
.d 0 1 b
	pop_a_rtn 3
else.18
	push2_b 1
	jmp_geI else.19
	buildI_b 0
	push_a 3
	buildh ARRAY 1
	build e__SystemArray_dselect;107 2 e__SystemArray_nselect;107
	buildI_b 0
	push_a 3
	buildh ARRAY 1
	build e__SystemArray_dselect;107 2 e__SystemArray_nselect;107
	push_jsr_eval 2
	jsr_ap 2
	pushB0_pop_a1 
	jmp_false else.20
	incI
.d 3 2 ii
	jmp s44
else.20
	pop_b_pushB 2 FALSE
.d 0 1 b
	pop_a_rtn 3
else.19
	buildAC "error in eqArray\n"
	updatepop_a 0 3
.d 1 0 
	pop_b_jsr 2 print_string_
.o 0 0 
	halt
	pushB0_pop_a1 
.d 0 1 b
	rtn 
.export e_Data.GenEq_sgEq__String;11
.descexp e_Data.GenEq_dgEq__String;11 e_Data.GenEq_ngEq__String;11 e_Data.GenEq_lgEq__String;11 2 0 "gEq__String;11"
.o 3 0 
e_Data.GenEq_igEq__String;11
	pop_a 1
	push_array 1
	push_array 1
	update2pop_a 0 2
.d 2 0 
	jmp s12
.ai 0 a12 e_Data.GenEq_igEq__String;11
.o 2 0 
e_Data.GenEq_lgEq__String;11
	repl_args 1 1
.o 2 0 
a12
.d 2 0 
	jsr ea12
.o 0 1 b
	buildB_b 0
.d 1 0 
	pop_b_rtn 1
.n 2 e_Data.GenEq_dgEq__String;11
.o 1 0 
e_Data.GenEq_ngEq__String;11
	push_node _cycle_in_spine 2
.d 2 0 
	jsr ea12
.o 0 1 b
	fillB_b 0 0
.d 1 0 
	pop_b_rtn 1
.o 2 0 
ea12
	jsr_eval 1
	jsr_eval 0
	push_array 1
	push_array 1
	update2pop_a 0 2
.o 2 0 
e_Data.GenEq_sgEq__String;11
.o 2 0 
s12
.d 2 0 
	jsr eqAC
.o 0 1 b
.d 0 1 b
	rtn 
.export e_Data.GenEq_sgEq_Real;10
.descexp e_Data.GenEq_dgEq_Real;10 e_Data.GenEq_ngEq_Real;10 e_Data.GenEq_lgEq_Real;10 2 0 "gEq_Real;10"
.o 3 0 
e_Data.GenEq_igEq_Real;10
	pop_a 1
	pushR_a 1
	pushR_a 0
.d 0 2 rr
	pop_a_jmp 2 s11
.ai 0 a11 e_Data.GenEq_igEq_Real;10
.o 2 0 
e_Data.GenEq_lgEq_Real;10
	repl_args 1 1
.o 2 0 
a11
.d 2 0 
	jsr ea11
.o 0 1 b
	buildB_b 0
.d 1 0 
	pop_b_rtn 1
.n 2 e_Data.GenEq_dgEq_Real;10
.o 1 0 
e_Data.GenEq_ngEq_Real;10
	push_node _cycle_in_spine 2
.d 2 0 
	jsr ea11
.o 0 1 b
	fillB_b 0 0
.d 1 0 
	pop_b_rtn 1
.o 2 0 
ea11
	jsr_eval 1
	jsr_eval 0
	pushR_a 1
	pushR_a 0
	pop_a 2
.o 0 2 rr
e_Data.GenEq_sgEq_Real;10
.o 0 2 rr
s11
	eqR
.d 0 1 b
	rtn 
.export e_Data.GenEq_sgEq_Bool;9
.descexp e_Data.GenEq_dgEq_Bool;9 e_Data.GenEq_ngEq_Bool;9 e_Data.GenEq_lgEq_Bool;9 2 0 "gEq_Bool;9"
.o 3 0 
e_Data.GenEq_igEq_Bool;9
	pop_a 1
	pushB_a 1
	pushB_a 0
.d 0 2 bb
	pop_a_jmp 2 s10
.ai 0 a10 e_Data.GenEq_igEq_Bool;9
.o 2 0 
e_Data.GenEq_lgEq_Bool;9
	repl_args 1 1
.o 2 0 
a10
.d 2 0 
	jsr ea10
.o 0 1 b
	buildB_b 0
.d 1 0 
	pop_b_rtn 1
.n 2 e_Data.GenEq_dgEq_Bool;9
.o 1 0 
e_Data.GenEq_ngEq_Bool;9
	push_node _cycle_in_spine 2
.d 2 0 
	jsr ea10
.o 0 1 b
	fillB_b 0 0
.d 1 0 
	pop_b_rtn 1
.o 2 0 
ea10
	jsr_eval 1
	jsr_eval 0
	pushB_a 1
	pushB_a 0
	pop_a 2
.o 0 2 bb
e_Data.GenEq_sgEq_Bool;9
.o 0 2 bb
s10
	eqB
.d 0 1 b
	rtn 
.export e_Data.GenEq_sgEq_Char;8
.descexp e_Data.GenEq_dgEq_Char;8 e_Data.GenEq_ngEq_Char;8 e_Data.GenEq_lgEq_Char;8 2 0 "gEq_Char;8"
.o 3 0 
e_Data.GenEq_igEq_Char;8
	pop_a 1
	pushC_a 1
	pushC_a 0
.d 0 2 cc
	pop_a_jmp 2 s9
.ai 0 a9 e_Data.GenEq_igEq_Char;8
.o 2 0 
e_Data.GenEq_lgEq_Char;8
	repl_args 1 1
.o 2 0 
a9
.d 2 0 
	jsr ea9
.o 0 1 b
	buildB_b 0
.d 1 0 
	pop_b_rtn 1
.n 2 e_Data.GenEq_dgEq_Char;8
.o 1 0 
e_Data.GenEq_ngEq_Char;8
	push_node _cycle_in_spine 2
.d 2 0 
	jsr ea9
.o 0 1 b
	fillB_b 0 0
.d 1 0 
	pop_b_rtn 1
.o 2 0 
ea9
	jsr_eval 1
	jsr_eval 0
	pushC_a 1
	pushC_a 0
	pop_a 2
.o 0 2 cc
e_Data.GenEq_sgEq_Char;8
.o 0 2 cc
s9
	eqC
.d 0 1 b
	rtn 
.export e_Data.GenEq_sgEq_Int;7
.descexp e_Data.GenEq_dgEq_Int;7 e_Data.GenEq_ngEq_Int;7 e_Data.GenEq_lgEq_Int;7 2 0 "gEq_Int;7"
.o 3 0 
e_Data.GenEq_igEq_Int;7
	pop_a 1
	pushI_a 1
	pushI_a 0
.d 0 2 ii
	pop_a_jmp 2 s8
.ai 0 a8 e_Data.GenEq_igEq_Int;7
.o 2 0 
e_Data.GenEq_lgEq_Int;7
	repl_args 1 1
.o 2 0 
a8
.d 2 0 
	jsr ea8
.o 0 1 b
	buildB_b 0
.d 1 0 
	pop_b_rtn 1
.n 2 e_Data.GenEq_dgEq_Int;7
.o 1 0 
e_Data.GenEq_ngEq_Int;7
	push_node _cycle_in_spine 2
.d 2 0 
	jsr ea8
.o 0 1 b
	fillB_b 0 0
.d 1 0 
	pop_b_rtn 1
.o 2 0 
ea8
	jsr_eval 1
	jsr_eval 0
	pushI_a 1
	pushI_a 0
	pop_a 2
.o 0 2 ii
e_Data.GenEq_sgEq_Int;7
.o 0 2 ii
s8
	eqI
.d 0 1 b
	rtn 
.export e_Data.GenEq_sgEq_PAIR;6
.descexp e_Data.GenEq_dgEq_PAIR;6 e_Data.GenEq_ngEq_PAIR;6 e_Data.GenEq_lgEq_PAIR;6 4 0 "gEq_PAIR;6"
.a 0 a7
.o 2 0 
e_Data.GenEq_lgEq_PAIR;6
	repl_args 3 3
.o 4 0 
a7
.d 4 0 
	jsr ea7
.o 0 1 b
	buildB_b 0
.d 1 0 
	pop_b_rtn 1
.n 4 e_Data.GenEq_dgEq_PAIR;6
.o 1 0 
e_Data.GenEq_ngEq_PAIR;6
	push_node _cycle_in_spine 4
.d 4 0 
	jsr ea7
.o 0 1 b
	fillB_b 0 0
.d 1 0 
	pop_b_rtn 1
.o 4 0 
e_Data.GenEq_sgEq_PAIR;6
	jsr_eval 0
.d 4 0 
	jmp s7
.o 4 0 
ea7
	jsr_eval 3
	jsr_eval 2
	jsr_eval 0
.o 4 0 
s7
	push_args 2 2 2
	buildh0_put_a _Nil 5
	push_args 5 2 2
	update_a 5 7
	update_a 3 6
	update_a 1 5
	updates3_a 0 4 2 3
	pop_a 2
	jsr_ap 2
	pushB0_pop_a1 
	jmp_false else.21
	push_a2 0 2
	jsr_eval 0
	update_a 1 4
	updatepop_a 0 2
	jsr_ap 2
	pushB0_pop_a1 
.d 0 1 b
	rtn 
else.21
	pushB FALSE
.d 0 1 b
	pop_a_rtn 3
.export e_Data.GenEq_sgEq_UNIT;5
.descexp e_Data.GenEq_dgEq_UNIT;5 e_Data.GenEq_ngEq_UNIT;5 e_Data.GenEq_lgEq_UNIT;5 2 0 "gEq_UNIT;5"
.a 0 a6
.o 2 0 
e_Data.GenEq_lgEq_UNIT;5
	repl_args 1 1
.o 2 0 
a6
.d 2 0 
	jsr ea6
.o 0 1 b
	buildB_b 0
.d 1 0 
	pop_b_rtn 1
.n 2 e_Data.GenEq_dgEq_UNIT;5
.o 1 0 
e_Data.GenEq_ngEq_UNIT;5
	push_node _cycle_in_spine 2
.d 2 0 
	jsr ea6
.o 0 1 b
	fillB_b 0 0
.d 1 0 
	pop_b_rtn 1
.o 2 0 
ea6
	jsr_eval 1
	jsr_eval 0
.o 2 0 
e_Data.GenEq_sgEq_UNIT;5
.o 2 0 
s6
	pushB TRUE
.d 0 1 b
	pop_a_rtn 2
.export e_Data.GenEq_sgEq_EITHER;4
.descexp e_Data.GenEq_dgEq_EITHER;4 e_Data.GenEq_ngEq_EITHER;4 e_Data.GenEq_lgEq_EITHER;4 4 0 "gEq_EITHER;4"
.a 0 a5
.o 2 0 
e_Data.GenEq_lgEq_EITHER;4
	repl_args 3 3
.o 4 0 
a5
.d 4 0 
	jsr ea5
.o 0 1 b
	buildB_b 0
.d 1 0 
	pop_b_rtn 1
.n 4 e_Data.GenEq_dgEq_EITHER;4
.o 1 0 
e_Data.GenEq_ngEq_EITHER;4
	push_node _cycle_in_spine 4
.d 4 0 
	jsr ea5
.o 0 1 b
	fillB_b 0 0
.d 1 0 
	pop_b_rtn 1
.o 4 0 
ea5
	jsr_eval 3
	jsr_eval 2
.o 4 0 
e_Data.GenEq_sgEq_EITHER;4
.o 4 0 
s5
	jmp_ne_desc e_StdGeneric_dLEFT 1 2 case.23
	push_args 2 1 1
	buildh0_put_a _Nil 4
	jmp_ne_desc e_StdGeneric_dLEFT 1 4 case.25
	push_args 4 1 1
	buildh _Nil 0
	push_a 3
	updates2_a 2 1 7
	jsr_eval 0
	update_a 1 7
	update_a 3 6
	updatepop_a 0 5
	jsr_ap 2
	pushB0_pop_a1 
.d 0 1 b
	rtn 
case.25
	push_args 4 1 1
	pushB FALSE
.d 0 1 b
	pop_a_rtn 6
case.23
	push_args 2 1 1
	buildh0_put_a _Nil 4
	jmp_ne_desc e_StdGeneric_dRIGHT 1 4 case.27
	push_args 4 1 1
	buildh _Nil 0
	push_a 4
	updates2_a 2 1 7
	jsr_eval 0
	update_a 1 7
	update_a 3 6
	updatepop_a 0 5
	jsr_ap 2
	pushB0_pop_a1 
.d 0 1 b
	rtn 
case.27
	push_args 4 1 1
	pushB FALSE
.d 0 1 b
	pop_a_rtn 6
.export e_Data.GenEq_sgEq_FIELD;3
.descexp e_Data.GenEq_dgEq_FIELD;3 e_Data.GenEq_ngEq_FIELD;3 e_Data.GenEq_lgEq_FIELD;3 3 0 "gEq_FIELD;3"
.a 0 a4
.o 2 0 
e_Data.GenEq_lgEq_FIELD;3
	repl_args 2 2
.o 3 0 
a4
.d 3 0 
	jsr ea4
.o 0 1 b
	buildB_b 0
.d 1 0 
	pop_b_rtn 1
.n 3 e_Data.GenEq_dgEq_FIELD;3
.o 1 0 
e_Data.GenEq_ngEq_FIELD;3
	push_node _cycle_in_spine 3
.d 3 0 
	jsr ea4
.o 0 1 b
	fillB_b 0 0
.d 1 0 
	pop_b_rtn 1
.o 3 0 
e_Data.GenEq_sgEq_FIELD;3
	jsr_eval 0
.d 3 0 
	jmp s4
.o 3 0 
ea4
	jsr_eval 2
	jsr_eval 1
	jsr_eval 0
.o 3 0 
s4
	jsr_ap 2
	pushB0_pop_a1 
.d 0 1 b
	rtn 
.export e_Data.GenEq_sgEq_RECORD;2
.descexp e_Data.GenEq_dgEq_RECORD;2 e_Data.GenEq_ngEq_RECORD;2 e_Data.GenEq_lgEq_RECORD;2 3 0 "gEq_RECORD;2"
.a 0 a3
.o 2 0 
e_Data.GenEq_lgEq_RECORD;2
	repl_args 2 2
.o 3 0 
a3
.d 3 0 
	jsr ea3
.o 0 1 b
	buildB_b 0
.d 1 0 
	pop_b_rtn 1
.n 3 e_Data.GenEq_dgEq_RECORD;2
.o 1 0 
e_Data.GenEq_ngEq_RECORD;2
	push_node _cycle_in_spine 3
.d 3 0 
	jsr ea3
.o 0 1 b
	fillB_b 0 0
.d 1 0 
	pop_b_rtn 1
.o 3 0 
e_Data.GenEq_sgEq_RECORD;2
	jsr_eval 0
.d 3 0 
	jmp s3
.o 3 0 
ea3
	jsr_eval 2
	jsr_eval 1
	jsr_eval 0
.o 3 0 
s3
	push_args 1 1 1
	buildh0_put_a _Nil 3
	push_args 3 1 1
	dup_a 4
	update_a 1 3
	pop_a 2
	jsr_ap 2
	pushB0_pop_a1 
.d 0 1 b
	rtn 
.export e_Data.GenEq_sgEq_CONS;1
.descexp e_Data.GenEq_dgEq_CONS;1 e_Data.GenEq_ngEq_CONS;1 e_Data.GenEq_lgEq_CONS;1 3 0 "gEq_CONS;1"
.a 0 a2
.o 2 0 
e_Data.GenEq_lgEq_CONS;1
	repl_args 2 2
.o 3 0 
a2
.d 3 0 
	jsr ea2
.o 0 1 b
	buildB_b 0
.d 1 0 
	pop_b_rtn 1
.n 3 e_Data.GenEq_dgEq_CONS;1
.o 1 0 
e_Data.GenEq_ngEq_CONS;1
	push_node _cycle_in_spine 3
.d 3 0 
	jsr ea2
.o 0 1 b
	fillB_b 0 0
.d 1 0 
	pop_b_rtn 1
.o 3 0 
e_Data.GenEq_sgEq_CONS;1
	jsr_eval 0
.d 3 0 
	jmp s2
.o 3 0 
ea2
	jsr_eval 2
	jsr_eval 1
	jsr_eval 0
.o 3 0 
s2
	push_args 1 1 1
	buildh0_put_a _Nil 3
	push_args 3 1 1
	dup_a 4
	update_a 1 3
	pop_a 2
	jsr_ap 2
	pushB0_pop_a1 
.d 0 1 b
	rtn 
.export e_Data.GenEq_sgEq_OBJECT;0
.descexp e_Data.GenEq_dgEq_OBJECT;0 e_Data.GenEq_ngEq_OBJECT;0 e_Data.GenEq_lgEq_OBJECT;0 3 0 "gEq_OBJECT;0"
.a 0 a1
.o 2 0 
e_Data.GenEq_lgEq_OBJECT;0
	repl_args 2 2
.o 3 0 
a1
.d 3 0 
	jsr ea1
.o 0 1 b
	buildB_b 0
.d 1 0 
	pop_b_rtn 1
.n 3 e_Data.GenEq_dgEq_OBJECT;0
.o 1 0 
e_Data.GenEq_ngEq_OBJECT;0
	push_node _cycle_in_spine 3
.d 3 0 
	jsr ea1
.o 0 1 b
	fillB_b 0 0
.d 1 0 
	pop_b_rtn 1
.o 3 0 
e_Data.GenEq_sgEq_OBJECT;0
	jsr_eval 0
.d 3 0 
	jmp s1
.o 3 0 
ea1
	jsr_eval 2
	jsr_eval 1
	jsr_eval 0
.o 3 0 
s1
	jsr_ap 2
	pushB0_pop_a1 
.d 0 1 b
	rtn 
