.comp 920 000011110011000
.start _nostart_
.depend "StdFunctions" "20210613143554"
.depend "StdFunc" "20210613143554"
.depend "StdReal" "20210613143554"
.depend "StdChar" "20210613143554"
.depend "StdInt" "20210613143554"
.depend "StdBool" "20210613143554"
.depend "StdClass" "20210613143554"
.depend "StdList" "20210613143554"
.depend "StdOverloaded" "20210613143554"
.depend "_SystemDynamic" "20210613143554"
.depend "Data.Monoid" "20210613143554"
.module m_Data.Monoid "Data.Monoid" "20210613143554"
.endinfo
.impmod _system
.implab _cycle_in_spine
.implab _type_error
.implab _hnf
.impdesc e_system_dind
.implab e_system_nind e_system_eaind
.impdesc e_system_dif
.implab e_system_nif e_system_eaif
.implab e_system_sif
.impdesc e_system_dAP
.implab e_system_nAP e_system_eaAP
.implab e_system_sAP
.impdesc ARRAY
.impdesc _Nil
.impdesc _Cons
.impdesc _Conss
.implab n_Conss ea_Conss
.impdesc _Consts
.implab n_Consts ea_Consts
.impdesc _Conssts
.implab n_Conssts ea_Conssts
.impdesc _Tuple
.impdesc d_S.1
.implab n_S.1 ea_S.1
.impdesc d_S.2
.implab n_S.2 ea_S.2
.impdesc d_S.3
.implab n_S.3 ea_S.3
.impdesc d_S.4
.implab n_S.4 ea_S.4
.impdesc d_S.5
.implab n_S.5 ea_S.5
.impdesc d_S.6
.implab n_S.6 ea_S.6
.implab _driver
.impmod StdFunctions
.impdesc e_StdFunctions_did
.impmod StdOverloaded
.impdesc e_StdOverloaded_d+;.+
.implab e_StdOverloaded_n+;.+ e_StdOverloaded_ea+;.+
.impdesc e_StdOverloaded_dzero;.zero
.implab e_StdOverloaded_nzero;.zero e_StdOverloaded_eazero;.zero
.impdesc e_StdOverloaded_d*;.*
.implab e_StdOverloaded_n*;.* e_StdOverloaded_ea*;.*
.impdesc e_StdOverloaded_done;.one
.implab e_StdOverloaded_none;.one e_StdOverloaded_eaone;.one
.export e_Data.Monoid_dDual
.desc e_Data.Monoid_dDual _hnf _add_arg 1 0 "Dual"
.export e_Data.Monoid_dEndo
.desc e_Data.Monoid_dEndo _hnf _add_arg 1 0 "Endo"
.export e_Data.Monoid_dAll
.desc e_Data.Monoid_dAll _hnf _add_arg 1 0 "All"
.export e_Data.Monoid_dAny
.desc e_Data.Monoid_dAny _hnf _add_arg 1 0 "Any"
.export e_Data.Monoid_dSum
.desc e_Data.Monoid_dSum _hnf _add_arg 1 0 "Sum"
.export e_Data.Monoid_dProduct
.desc e_Data.Monoid_dProduct _hnf _add_arg 1 0 "Product"
.export e_Data.Monoid_dFirst
.desc e_Data.Monoid_dFirst _hnf _add_arg 1 0 "First"
.export e_Data.Monoid_dLast
.desc e_Data.Monoid_dLast _hnf _add_arg 1 0 "Last"
.export e_Data.Monoid_rSemigroup;
.record e_Data.Monoid_rSemigroup; a 1 0 "Semigroup;"
.descexp e_Data.Monoid_tSemigroup; e_Data.Monoid_cSemigroup; _hnf 1 1 "Semigroup;"
.n 1 e_Data.Monoid_tSemigroup;
.o 1 0
e_Data.Monoid_cSemigroup;
	push_node _cycle_in_spine 1
	jsr_eval 0
.impmod Data.Monoid
.impdesc e_Data.Monoid_rSemigroup;
	fill_r e_Data.Monoid_rSemigroup; 1 0 1 0 0
	pop_a 1
.d 1 0
	rtn
.export e_Data.Monoid_dSemigroup;.mappend
.export e_Data.Monoid_nSemigroup;.mappend
.export e_Data.Monoid_eaSemigroup;.mappend
.descs e_Data.Monoid_dSemigroup;.mappend e_Data.Monoid_nSemigroup;.mappend _ 1 0 "Semigroup;.mappend"
.n -4 e_Data.Monoid_dSemigroup;.mappend e_Data.Monoid_eaSemigroup;.mappend
.o 1 0
e_Data.Monoid_nSemigroup;.mappend
	push_node _cycle_in_spine 1
.o 2 0
e_Data.Monoid_eaSemigroup;.mappend
	jsr_eval 0
	repl_r_args_a 1 0 1 1
	fill_a 0 1
	pop_a 1
.d 1 0
	rtn
.export e_Data.Monoid_rMonoid;
.record e_Data.Monoid_rMonoid; a{a} 2 0 e_Data.Monoid_rSemigroup; "Monoid;"
.descexp e_Data.Monoid_tMonoid; e_Data.Monoid_cMonoid; _hnf 2 1 "Monoid;"
.n 2 e_Data.Monoid_tMonoid;
.o 1 0
e_Data.Monoid_cMonoid;
	push_node _cycle_in_spine 2
	jsr_eval 1
	push_r_args 1 1 0
	update_a 0 2
	pop_a 1
.impdesc e_Data.Monoid_rMonoid;
	fill_r e_Data.Monoid_rMonoid; 2 0 2 0 0
	pop_a 2
.d 1 0
	rtn
.export e_Data.Monoid_dMonoid;.mempty
.export e_Data.Monoid_nMonoid;.mempty
.export e_Data.Monoid_eaMonoid;.mempty
.descs e_Data.Monoid_dMonoid;.mempty e_Data.Monoid_nMonoid;.mempty _ 1 0 "Monoid;.mempty"
.n -4 e_Data.Monoid_dMonoid;.mempty e_Data.Monoid_eaMonoid;.mempty
.o 1 0
e_Data.Monoid_nMonoid;.mempty
	push_node _cycle_in_spine 1
.o 2 0
e_Data.Monoid_eaMonoid;.mempty
	jsr_eval 0
	repl_r_args_a 2 0 1 1
	jsr_eval 0
	fill_a 0 1
	pop_a 1
.d 1 0
	rtn
.export e_Data.Monoid_dMonoid;.Semigroup
.export e_Data.Monoid_nMonoid;.Semigroup
.desc e_Data.Monoid_dMonoid;.Semigroup e_Data.Monoid_nMonoid;.Semigroup _hnf 1 0 "Monoid;.Semigroup"
.n 1 e_Data.Monoid_dMonoid;.Semigroup
.o 1 0
e_Data.Monoid_nMonoid;.Semigroup
	push_node _cycle_in_spine 1
	jsr_eval 0
	repl_r_args_a 2 0 2 1
	fill_r e_Data.Monoid_rSemigroup; 1 0 1 0 0
	pop_a 1
.d 1 0
	rtn
.export e_Data.Monoid_sTD;Monoid;
.export e_Data.Monoid_eaTD;Monoid;
.descexp e_Data.Monoid_dTD;Monoid; e_Data.Monoid_nTD;Monoid; e_Data.Monoid_lTD;Monoid; 1 0 "TD;Monoid;"
.o 2 0
e_Data.Monoid_lTD;Monoid;
	update_a 1 0
	create
	update_a 0 2
	pop_a 1
.d 2 0
	jmp e_Data.Monoid_eaTD;Monoid;
.n 1 e_Data.Monoid_dTD;Monoid; e_Data.Monoid_eaTD;Monoid;
.o 1 0
e_Data.Monoid_nTD;Monoid;
	push_node _cycle_in_spine 1
.o 2 0
e_Data.Monoid_eaTD;Monoid;
.o 2 0
e_Data.Monoid_sTD;Monoid;
.o 2 0
s36
	fillh _Nil 0 1
	pop_a 1
.d 1 0
	rtn
.export e_Data.Monoid_sTD;Semigroup;
.export e_Data.Monoid_eaTD;Semigroup;
.descexp e_Data.Monoid_dTD;Semigroup; e_Data.Monoid_nTD;Semigroup; e_Data.Monoid_lTD;Semigroup; 1 0 "TD;Semigroup;"
.o 2 0
e_Data.Monoid_lTD;Semigroup;
	update_a 1 0
	create
	update_a 0 2
	pop_a 1
.d 2 0
	jmp e_Data.Monoid_eaTD;Semigroup;
.n 1 e_Data.Monoid_dTD;Semigroup; e_Data.Monoid_eaTD;Semigroup;
.o 1 0
e_Data.Monoid_nTD;Semigroup;
	push_node _cycle_in_spine 1
.o 2 0
e_Data.Monoid_eaTD;Semigroup;
.o 2 0
e_Data.Monoid_sTD;Semigroup;
.o 2 0
s35
	fillh _Nil 0 1
	pop_a 1
.d 1 0
	rtn
.export e_Data.Monoid_sTD;Last
.export e_Data.Monoid_eaTD;Last
.descexp e_Data.Monoid_dTD;Last e_Data.Monoid_nTD;Last e_Data.Monoid_lTD;Last 1 0 "TD;Last"
.o 2 0
e_Data.Monoid_lTD;Last
	update_a 1 0
	create
	update_a 0 2
	pop_a 1
.d 2 0
	jmp e_Data.Monoid_eaTD;Last
.n 1 e_Data.Monoid_dTD;Last e_Data.Monoid_eaTD;Last
.o 1 0
e_Data.Monoid_nTD;Last
	push_node _cycle_in_spine 1
.o 2 0
e_Data.Monoid_eaTD;Last
.o 2 0
e_Data.Monoid_sTD;Last
.o 2 0
s34
	fillh _Nil 0 1
	pop_a 1
.d 1 0
	rtn
.export e_Data.Monoid_sTD;First
.export e_Data.Monoid_eaTD;First
.descexp e_Data.Monoid_dTD;First e_Data.Monoid_nTD;First e_Data.Monoid_lTD;First 1 0 "TD;First"
.o 2 0
e_Data.Monoid_lTD;First
	update_a 1 0
	create
	update_a 0 2
	pop_a 1
.d 2 0
	jmp e_Data.Monoid_eaTD;First
.n 1 e_Data.Monoid_dTD;First e_Data.Monoid_eaTD;First
.o 1 0
e_Data.Monoid_nTD;First
	push_node _cycle_in_spine 1
.o 2 0
e_Data.Monoid_eaTD;First
.o 2 0
e_Data.Monoid_sTD;First
.o 2 0
s33
	fillh _Nil 0 1
	pop_a 1
.d 1 0
	rtn
.export e_Data.Monoid_sTD;Product
.export e_Data.Monoid_eaTD;Product
.descexp e_Data.Monoid_dTD;Product e_Data.Monoid_nTD;Product e_Data.Monoid_lTD;Product 1 0 "TD;Product"
.o 2 0
e_Data.Monoid_lTD;Product
	update_a 1 0
	create
	update_a 0 2
	pop_a 1
.d 2 0
	jmp e_Data.Monoid_eaTD;Product
.n 1 e_Data.Monoid_dTD;Product e_Data.Monoid_eaTD;Product
.o 1 0
e_Data.Monoid_nTD;Product
	push_node _cycle_in_spine 1
.o 2 0
e_Data.Monoid_eaTD;Product
.o 2 0
e_Data.Monoid_sTD;Product
.o 2 0
s32
	fillh _Nil 0 1
	pop_a 1
.d 1 0
	rtn
.export e_Data.Monoid_sTD;Sum
.export e_Data.Monoid_eaTD;Sum
.descexp e_Data.Monoid_dTD;Sum e_Data.Monoid_nTD;Sum e_Data.Monoid_lTD;Sum 1 0 "TD;Sum"
.o 2 0
e_Data.Monoid_lTD;Sum
	update_a 1 0
	create
	update_a 0 2
	pop_a 1
.d 2 0
	jmp e_Data.Monoid_eaTD;Sum
.n 1 e_Data.Monoid_dTD;Sum e_Data.Monoid_eaTD;Sum
.o 1 0
e_Data.Monoid_nTD;Sum
	push_node _cycle_in_spine 1
.o 2 0
e_Data.Monoid_eaTD;Sum
.o 2 0
e_Data.Monoid_sTD;Sum
.o 2 0
s31
	fillh _Nil 0 1
	pop_a 1
.d 1 0
	rtn
.export e_Data.Monoid_sTD;Any
.export e_Data.Monoid_eaTD;Any
.descexp e_Data.Monoid_dTD;Any e_Data.Monoid_nTD;Any e_Data.Monoid_lTD;Any 1 0 "TD;Any"
.o 2 0
e_Data.Monoid_lTD;Any
	update_a 1 0
	create
	update_a 0 2
	pop_a 1
.d 2 0
	jmp e_Data.Monoid_eaTD;Any
.n 1 e_Data.Monoid_dTD;Any e_Data.Monoid_eaTD;Any
.o 1 0
e_Data.Monoid_nTD;Any
	push_node _cycle_in_spine 1
.o 2 0
e_Data.Monoid_eaTD;Any
.o 2 0
e_Data.Monoid_sTD;Any
.o 2 0
s30
	fillh _Nil 0 1
	pop_a 1
.d 1 0
	rtn
.export e_Data.Monoid_sTD;All
.export e_Data.Monoid_eaTD;All
.descexp e_Data.Monoid_dTD;All e_Data.Monoid_nTD;All e_Data.Monoid_lTD;All 1 0 "TD;All"
.o 2 0
e_Data.Monoid_lTD;All
	update_a 1 0
	create
	update_a 0 2
	pop_a 1
.d 2 0
	jmp e_Data.Monoid_eaTD;All
.n 1 e_Data.Monoid_dTD;All e_Data.Monoid_eaTD;All
.o 1 0
e_Data.Monoid_nTD;All
	push_node _cycle_in_spine 1
.o 2 0
e_Data.Monoid_eaTD;All
.o 2 0
e_Data.Monoid_sTD;All
.o 2 0
s29
	fillh _Nil 0 1
	pop_a 1
.d 1 0
	rtn
.export e_Data.Monoid_sTD;Endo
.export e_Data.Monoid_eaTD;Endo
.descexp e_Data.Monoid_dTD;Endo e_Data.Monoid_nTD;Endo e_Data.Monoid_lTD;Endo 1 0 "TD;Endo"
.o 2 0
e_Data.Monoid_lTD;Endo
	update_a 1 0
	create
	update_a 0 2
	pop_a 1
.d 2 0
	jmp e_Data.Monoid_eaTD;Endo
.n 1 e_Data.Monoid_dTD;Endo e_Data.Monoid_eaTD;Endo
.o 1 0
e_Data.Monoid_nTD;Endo
	push_node _cycle_in_spine 1
.o 2 0
e_Data.Monoid_eaTD;Endo
.o 2 0
e_Data.Monoid_sTD;Endo
.o 2 0
s28
	fillh _Nil 0 1
	pop_a 1
.d 1 0
	rtn
.export e_Data.Monoid_sTD;Dual
.export e_Data.Monoid_eaTD;Dual
.descexp e_Data.Monoid_dTD;Dual e_Data.Monoid_nTD;Dual e_Data.Monoid_lTD;Dual 1 0 "TD;Dual"
.o 2 0
e_Data.Monoid_lTD;Dual
	update_a 1 0
	create
	update_a 0 2
	pop_a 1
.d 2 0
	jmp e_Data.Monoid_eaTD;Dual
.n 1 e_Data.Monoid_dTD;Dual e_Data.Monoid_eaTD;Dual
.o 1 0
e_Data.Monoid_nTD;Dual
	push_node _cycle_in_spine 1
.o 2 0
e_Data.Monoid_eaTD;Dual
.o 2 0
e_Data.Monoid_sTD;Dual
.o 2 0
s27
	fillh _Nil 0 1
	pop_a 1
.d 1 0
	rtn
.export e_Data.Monoid_smempty;25
.export e_Data.Monoid_eamempty;25
.descexp e_Data.Monoid_dmempty;25 e_Data.Monoid_nmempty;25 e_Data.Monoid_lmempty;25 0 0 "mempty;25"
.o 1 0
e_Data.Monoid_imempty;25
	pop_a 1
	create
.d 1 0
	jmp s26
.o 1 0
e_Data.Monoid_lmempty;25
	halt
.n 0 e_Data.Monoid_dmempty;25 e_Data.Monoid_eamempty;25
.o 1 0
e_Data.Monoid_nmempty;25
	push_node _cycle_in_spine 0
.o 1 0
e_Data.Monoid_eamempty;25
.o 1 0
e_Data.Monoid_smempty;25
.o 1 0
s26
	buildh _None 0
	fillh e_Data.Monoid_dLast 1 1
.d 1 0
	rtn
.export e_Data.Monoid_smempty;24
.export e_Data.Monoid_eamempty;24
.descexp e_Data.Monoid_dmempty;24 e_Data.Monoid_nmempty;24 e_Data.Monoid_lmempty;24 0 0 "mempty;24"
.o 1 0
e_Data.Monoid_imempty;24
	pop_a 1
	create
.d 1 0
	jmp s25
.o 1 0
e_Data.Monoid_lmempty;24
	halt
.n 0 e_Data.Monoid_dmempty;24 e_Data.Monoid_eamempty;24
.o 1 0
e_Data.Monoid_nmempty;24
	push_node _cycle_in_spine 0
.o 1 0
e_Data.Monoid_eamempty;24
.o 1 0
e_Data.Monoid_smempty;24
.o 1 0
s25
	buildh _None 0
	fillh e_Data.Monoid_dFirst 1 1
.d 1 0
	rtn
.export e_Data.Monoid_smempty;23
.export e_Data.Monoid_eamempty;23
.descexp e_Data.Monoid_dmempty;23 e_Data.Monoid_nmempty;23 e_Data.Monoid_lmempty;23 2 0 "mempty;23"
.o 1 0
e_Data.Monoid_imempty;23
	repl_args 2 2
	create
	jsr_eval 2
	push_r_args 2 1 0
	jsr_eval 2
	push_r_args 2 1 0
	update_a 2 4
	update_a 0 2
	update_a 1 3
	pop_a 2
.d 3 0
	jmp s24
.ai 2 e_Data.Monoid_eamempty;23 e_Data.Monoid_imempty;23
.o 2 0
e_Data.Monoid_lmempty;23
	push_args 0 1 1
	update_a 2 1
	create
	update_a 0 3
	pop_a 1
.d 3 0
	jmp e_Data.Monoid_eamempty;23
.n 2 e_Data.Monoid_dmempty;23 e_Data.Monoid_eamempty;23
.o 1 0
e_Data.Monoid_nmempty;23
	push_node _cycle_in_spine 2
.o 3 0
e_Data.Monoid_eamempty;23
	jsr_eval 1
	jsr_eval 0
	push_r_args 1 1 0
	push_r_args 1 1 0
	update_a 1 3
	update_a 0 2
	pop_a 2
.o 3 0
e_Data.Monoid_smempty;23
.o 3 0
s24
	push_a 1
	fillh e_Data.Monoid_dProduct 1 3
	pop_a 2
.d 1 0
	rtn
.export e_Data.Monoid_smempty;22
.export e_Data.Monoid_eamempty;22
.descexp e_Data.Monoid_dmempty;22 e_Data.Monoid_nmempty;22 e_Data.Monoid_lmempty;22 2 0 "mempty;22"
.o 1 0
e_Data.Monoid_imempty;22
	repl_args 2 2
	create
	jsr_eval 2
	push_r_args 2 1 0
	jsr_eval 2
	push_r_args 2 1 0
	update_a 2 4
	update_a 0 2
	update_a 1 3
	pop_a 2
.d 3 0
	jmp s23
.ai 2 e_Data.Monoid_eamempty;22 e_Data.Monoid_imempty;22
.o 2 0
e_Data.Monoid_lmempty;22
	push_args 0 1 1
	update_a 2 1
	create
	update_a 0 3
	pop_a 1
.d 3 0
	jmp e_Data.Monoid_eamempty;22
.n 2 e_Data.Monoid_dmempty;22 e_Data.Monoid_eamempty;22
.o 1 0
e_Data.Monoid_nmempty;22
	push_node _cycle_in_spine 2
.o 3 0
e_Data.Monoid_eamempty;22
	jsr_eval 1
	jsr_eval 0
	push_r_args 1 1 0
	push_r_args 1 1 0
	update_a 1 3
	update_a 0 2
	pop_a 2
.o 3 0
e_Data.Monoid_smempty;22
.o 3 0
s23
	push_a 1
	fillh e_Data.Monoid_dSum 1 3
	pop_a 2
.d 1 0
	rtn
.export e_Data.Monoid_smempty;21
.export e_Data.Monoid_eamempty;21
.descexp e_Data.Monoid_dmempty;21 e_Data.Monoid_nmempty;21 e_Data.Monoid_lmempty;21 0 0 "mempty;21"
.o 1 0
e_Data.Monoid_imempty;21
	pop_a 1
	create
.d 1 0
	jmp s22
.o 1 0
e_Data.Monoid_lmempty;21
	halt
.n 0 e_Data.Monoid_dmempty;21 e_Data.Monoid_eamempty;21
.o 1 0
e_Data.Monoid_nmempty;21
	push_node _cycle_in_spine 0
.o 1 0
e_Data.Monoid_eamempty;21
.o 1 0
e_Data.Monoid_smempty;21
.o 1 0
s22
	buildB FALSE
	fillh e_Data.Monoid_dAny 1 1
.d 1 0
	rtn
.export e_Data.Monoid_smempty;20
.export e_Data.Monoid_eamempty;20
.descexp e_Data.Monoid_dmempty;20 e_Data.Monoid_nmempty;20 e_Data.Monoid_lmempty;20 0 0 "mempty;20"
.o 1 0
e_Data.Monoid_imempty;20
	pop_a 1
	create
.d 1 0
	jmp s21
.o 1 0
e_Data.Monoid_lmempty;20
	halt
.n 0 e_Data.Monoid_dmempty;20 e_Data.Monoid_eamempty;20
.o 1 0
e_Data.Monoid_nmempty;20
	push_node _cycle_in_spine 0
.o 1 0
e_Data.Monoid_eamempty;20
.o 1 0
e_Data.Monoid_smempty;20
.o 1 0
s21
	buildB TRUE
	fillh e_Data.Monoid_dAll 1 1
.d 1 0
	rtn
.export e_Data.Monoid_smempty;19
.export e_Data.Monoid_eamempty;19
.descexp e_Data.Monoid_dmempty;19 e_Data.Monoid_nmempty;19 e_Data.Monoid_lmempty;19 0 0 "mempty;19"
.o 1 0
e_Data.Monoid_imempty;19
	pop_a 1
	create
.d 1 0
	jmp s20
.o 1 0
e_Data.Monoid_lmempty;19
	halt
.n 0 e_Data.Monoid_dmempty;19 e_Data.Monoid_eamempty;19
.o 1 0
e_Data.Monoid_nmempty;19
	push_node _cycle_in_spine 0
.o 1 0
e_Data.Monoid_eamempty;19
.o 1 0
e_Data.Monoid_smempty;19
.o 1 0
s20
	buildh e_StdFunctions_did 0
	fillh e_Data.Monoid_dEndo 1 1
.d 1 0
	rtn
.export e_Data.Monoid_smempty;18
.export e_Data.Monoid_eamempty;18
.descexp e_Data.Monoid_dmempty;18 e_Data.Monoid_nmempty;18 e_Data.Monoid_lmempty;18 1 0 "mempty;18"
.o 1 0
e_Data.Monoid_imempty;18
	repl_args 1 1
	create
	jsr_eval 1
	push_r_args 1 2 0
	update_a 2 3
	update_a 1 2
	update_a 0 1
	pop_a 1
.d 3 0
	jmp s19
.ai 1 _ e_Data.Monoid_imempty;18
.o 2 0
e_Data.Monoid_lmempty;18
	update_a 1 0
	create
	update_a 0 2
	pop_a 1
.d 2 0
	jmp e_Data.Monoid_eamempty;18
.n 1 e_Data.Monoid_dmempty;18 e_Data.Monoid_eamempty;18
.o 1 0
e_Data.Monoid_nmempty;18
	push_node _cycle_in_spine 1
.o 2 0
e_Data.Monoid_eamempty;18
	jsr_eval 0
	repl_r_args 2 0
.o 3 0
e_Data.Monoid_smempty;18
.o 3 0
s19
	push_a 0
	fillh e_Data.Monoid_dDual 1 3
	pop_a 2
.d 1 0
	rtn
.export e_Data.Monoid_smappend;17
.export e_Data.Monoid_eamappend;17
.descexp e_Data.Monoid_dmappend;17 e_Data.Monoid_nmappend;17 e_Data.Monoid_lmappend;17 2 0 "mappend;17"
.o 3 0
e_Data.Monoid_imappend;17
	pop_a 1
	create
	jsr_eval 2
	push_a 2
	update_a 1 3
	update_a 2 1
	update_a 0 2
	pop_a 1
.d 3 0
	jmp s18
.ai 2 e_Data.Monoid_eamappend;17 e_Data.Monoid_imappend;17
.o 2 0
e_Data.Monoid_lmappend;17
	push_args 0 1 1
	update_a 2 1
	create
	update_a 0 3
	pop_a 1
.d 3 0
	jmp e_Data.Monoid_eamappend;17
.n 2 e_Data.Monoid_dmappend;17 e_Data.Monoid_eamappend;17
.o 1 0
e_Data.Monoid_nmappend;17
	push_node _cycle_in_spine 2
.o 3 0
e_Data.Monoid_eamappend;17
	jsr_eval 1
	jsr_eval 0
.o 3 0
e_Data.Monoid_smappend;17
.o 3 0
s18
	push_args 1 1 1
	jsr_eval 0
	eq_desc _Just 1 0
	jmp_true case.1
	jmp case.2
case.1
	repl_args 1 1
	pop_a 1
	fill_a 1 2
	pop_a 2
.d 1 0
	rtn
case.2
	fill_a 1 3
	pop_a 3
.d 1 0
	rtn
.export e_Data.Monoid_smappend;16
.export e_Data.Monoid_eamappend;16
.descexp e_Data.Monoid_dmappend;16 e_Data.Monoid_nmappend;16 e_Data.Monoid_lmappend;16 2 0 "mappend;16"
.o 3 0
e_Data.Monoid_imappend;16
	pop_a 1
	create
	push_a 2
	update_a 1 3
	update_a 2 1
	update_a 0 2
	pop_a 1
.d 3 0
	jmp s17
.ai 2 e_Data.Monoid_eamappend;16 e_Data.Monoid_imappend;16
.o 2 0
e_Data.Monoid_lmappend;16
	push_args 0 1 1
	update_a 2 1
	create
	update_a 0 3
	pop_a 1
.d 3 0
	jmp e_Data.Monoid_eamappend;16
.n 2 e_Data.Monoid_dmappend;16 e_Data.Monoid_eamappend;16
.o 1 0
e_Data.Monoid_nmappend;16
	push_node _cycle_in_spine 2
.o 3 0
e_Data.Monoid_eamappend;16
	jsr_eval 0
.o 3 0
e_Data.Monoid_smappend;16
.o 3 0
s17
	push_args 0 1 1
	jsr_eval 0
	eq_desc _Just 1 0
	jmp_true case.3
	jmp case.4
case.3
	repl_args 1 1
	pop_a 1
	fill_a 0 2
	pop_a 2
.d 1 0
	rtn
case.4
	pop_a 2
	jmp_eval_upd
.export e_Data.Monoid_smappend;15
.export e_Data.Monoid_eamappend;15
.descexp e_Data.Monoid_dmappend;15 e_Data.Monoid_nmappend;15 e_Data.Monoid_lmappend;15 4 0 "mappend;15"
.o 3 0
e_Data.Monoid_imappend;15
	repl_args 2 2
	create
	jsr_eval 4
	jsr_eval 2
	push_r_args 2 1 0
	jsr_eval 2
	push_r_args 2 1 0
	update_a 5 4
	update_a 6 5
	update_a 2 6
	update_a 0 2
	update_a 1 3
	pop_a 2
.d 5 0
	jmp s16
.ai 4 e_Data.Monoid_eamappend;15 e_Data.Monoid_imappend;15
.o 2 0
e_Data.Monoid_lmappend;15
	push_args 0 3 3
	update_a 4 3
	create
	update_a 0 5
	pop_a 1
.d 5 0
	jmp e_Data.Monoid_eamappend;15
.n 4 e_Data.Monoid_dmappend;15 e_Data.Monoid_eamappend;15
.o 1 0
e_Data.Monoid_nmappend;15
	push_node _cycle_in_spine 4
.o 5 0
e_Data.Monoid_eamappend;15
	jsr_eval 3
	jsr_eval 2
	jsr_eval 1
	jsr_eval 0
	push_r_args 1 1 0
	push_r_args 1 1 0
	update_a 1 3
	update_a 0 2
	pop_a 2
.o 5 0
e_Data.Monoid_smappend;15
.o 5 0
s16
	push_args 2 1 1
	buildh _Nil 0
	update_a 0 4
	pop_a 1
	push_args 4 1 1
	buildh _Nil 0
	update_a 0 6
	pop_a 1
	push_a 2
	push_a 1
	push_a 3
	push_a 2
	update_a 2 3
	update_a 1 2
	update_a 0 1
	pop_a 1
	build e_Data.Monoid_d_f0.63 3 e_Data.Monoid_n_f0.63
	fillh e_Data.Monoid_dProduct 1 7
	pop_a 6
.d 1 0
	rtn
.export e_Data.Monoid_d_f0.63
.export e_Data.Monoid_n_f0.63
.descn e_Data.Monoid_d_f0.63 e_Data.Monoid_n_f0.63 3 0 "_f0.63"
.n 3 e_Data.Monoid_d_f0.63 ea63
.o 1 0
e_Data.Monoid_n_f0.63
	push_node _cycle_in_spine 3
.o 4 0
ea63
.o 4 0
s63
	push_a 2
	jsr_eval 0
	push_a 2
	jsr_eval 0
	push_a 2
	jsr_eval 0
	update_a 2 5
	update_a 1 4
	updatepop_a 0 3
.d 3 0
	jsr_i 2
.o 1 0
	fill_a 0 1
	pop_a 1
.d 1 0
	rtn
.export e_Data.Monoid_smappend;14
.export e_Data.Monoid_eamappend;14
.descexp e_Data.Monoid_dmappend;14 e_Data.Monoid_nmappend;14 e_Data.Monoid_lmappend;14 4 0 "mappend;14"
.o 3 0
e_Data.Monoid_imappend;14
	repl_args 2 2
	create
	jsr_eval 4
	jsr_eval 2
	push_r_args 2 1 0
	jsr_eval 2
	push_r_args 2 1 0
	update_a 5 4
	update_a 6 5
	update_a 2 6
	update_a 0 2
	update_a 1 3
	pop_a 2
.d 5 0
	jmp s15
.ai 4 e_Data.Monoid_eamappend;14 e_Data.Monoid_imappend;14
.o 2 0
e_Data.Monoid_lmappend;14
	push_args 0 3 3
	update_a 4 3
	create
	update_a 0 5
	pop_a 1
.d 5 0
	jmp e_Data.Monoid_eamappend;14
.n 4 e_Data.Monoid_dmappend;14 e_Data.Monoid_eamappend;14
.o 1 0
e_Data.Monoid_nmappend;14
	push_node _cycle_in_spine 4
.o 5 0
e_Data.Monoid_eamappend;14
	jsr_eval 3
	jsr_eval 2
	jsr_eval 1
	jsr_eval 0
	push_r_args 1 1 0
	push_r_args 1 1 0
	update_a 1 3
	update_a 0 2
	pop_a 2
.o 5 0
e_Data.Monoid_smappend;14
.o 5 0
s15
	push_args 2 1 1
	buildh _Nil 0
	update_a 0 4
	pop_a 1
	push_args 4 1 1
	buildh _Nil 0
	update_a 0 6
	pop_a 1
	push_a 2
	push_a 1
	push_a 3
	push_a 2
	update_a 2 3
	update_a 1 2
	update_a 0 1
	pop_a 1
	build e_Data.Monoid_d_f1.64 3 e_Data.Monoid_n_f1.64
	fillh e_Data.Monoid_dSum 1 7
	pop_a 6
.d 1 0
	rtn
.export e_Data.Monoid_d_f1.64
.export e_Data.Monoid_n_f1.64
.descn e_Data.Monoid_d_f1.64 e_Data.Monoid_n_f1.64 3 0 "_f1.64"
.n 3 e_Data.Monoid_d_f1.64 ea64
.o 1 0
e_Data.Monoid_n_f1.64
	push_node _cycle_in_spine 3
.o 4 0
ea64
.o 4 0
s64
	push_a 2
	jsr_eval 0
	push_a 2
	jsr_eval 0
	push_a 2
	jsr_eval 0
	update_a 2 5
	update_a 1 4
	updatepop_a 0 3
.d 3 0
	jsr_i 2
.o 1 0
	fill_a 0 1
	pop_a 1
.d 1 0
	rtn
.export e_Data.Monoid_smappend;13
.export e_Data.Monoid_eamappend;13
.descexp e_Data.Monoid_dmappend;13 e_Data.Monoid_nmappend;13 e_Data.Monoid_lmappend;13 2 0 "mappend;13"
.o 3 0
e_Data.Monoid_imappend;13
	pop_a 1
	create
	jsr_eval 2
	push_a 2
	update_a 1 3
	update_a 2 1
	update_a 0 2
	pop_a 1
.d 3 0
	jmp s14
.ai 2 e_Data.Monoid_eamappend;13 e_Data.Monoid_imappend;13
.o 2 0
e_Data.Monoid_lmappend;13
	push_args 0 1 1
	update_a 2 1
	create
	update_a 0 3
	pop_a 1
.d 3 0
	jmp e_Data.Monoid_eamappend;13
.n 2 e_Data.Monoid_dmappend;13 e_Data.Monoid_eamappend;13
.o 1 0
e_Data.Monoid_nmappend;13
	push_node _cycle_in_spine 2
.o 3 0
e_Data.Monoid_eamappend;13
	jsr_eval 1
	jsr_eval 0
.o 3 0
e_Data.Monoid_smappend;13
.o 3 0
s14
	repl_args 1 1
	push_args 1 1 1
	buildh _Nil 0
	update_a 0 3
	pop_a 1
	push_a 0
	push_a 2
	build e_Data.Monoid_d_f38;38.39 2 e_Data.Monoid_n_f38;38.39
	fillh e_Data.Monoid_dAny 1 4
	pop_a 3
.d 1 0
	rtn
.export e_Data.Monoid_d_f38;38.39
.export e_Data.Monoid_n_f38;38.39
.descn e_Data.Monoid_d_f38;38.39 e_Data.Monoid_n_f38;38.39 2 0 "_f38;38.39"
.n 2 e_Data.Monoid_d_f38;38.39
.o 1 0
e_Data.Monoid_n_f38;38.39
	push_node _cycle_in_spine 2
.d 2 0
	jsr ea39
.o 0 1 b
	fillB_b 0 0
	pop_b 1
.d 1 0
	rtn
.o 2 0
ea39
	jsr_eval 0
	pushB_a 0
	pop_a 1
.o 1 1 b
s39
	eqB_b TRUE 0
	jmp_true case.5
	jmp case.6
case.5
	pop_a 1
	pop_b 1
	pushB TRUE
.d 0 1 b
	rtn
case.6
	pop_b 1
	jsr_eval 0
	pushB_a 0
	pop_a 1
.d 0 1 b
	rtn
.export e_Data.Monoid_smappend;12
.export e_Data.Monoid_eamappend;12
.descexp e_Data.Monoid_dmappend;12 e_Data.Monoid_nmappend;12 e_Data.Monoid_lmappend;12 2 0 "mappend;12"
.o 3 0
e_Data.Monoid_imappend;12
	pop_a 1
	create
	jsr_eval 2
	push_a 2
	update_a 1 3
	update_a 2 1
	update_a 0 2
	pop_a 1
.d 3 0
	jmp s13
.ai 2 e_Data.Monoid_eamappend;12 e_Data.Monoid_imappend;12
.o 2 0
e_Data.Monoid_lmappend;12
	push_args 0 1 1
	update_a 2 1
	create
	update_a 0 3
	pop_a 1
.d 3 0
	jmp e_Data.Monoid_eamappend;12
.n 2 e_Data.Monoid_dmappend;12 e_Data.Monoid_eamappend;12
.o 1 0
e_Data.Monoid_nmappend;12
	push_node _cycle_in_spine 2
.o 3 0
e_Data.Monoid_eamappend;12
	jsr_eval 1
	jsr_eval 0
.o 3 0
e_Data.Monoid_smappend;12
.o 3 0
s13
	repl_args 1 1
	push_args 1 1 1
	buildh _Nil 0
	update_a 0 3
	pop_a 1
	push_a 0
	push_a 2
	build e_Data.Monoid_d_f37;37.38 2 e_Data.Monoid_n_f37;37.38
	fillh e_Data.Monoid_dAll 1 4
	pop_a 3
.d 1 0
	rtn
.export e_Data.Monoid_d_f37;37.38
.export e_Data.Monoid_n_f37;37.38
.descn e_Data.Monoid_d_f37;37.38 e_Data.Monoid_n_f37;37.38 2 0 "_f37;37.38"
.n 2 e_Data.Monoid_d_f37;37.38
.o 1 0
e_Data.Monoid_n_f37;37.38
	push_node _cycle_in_spine 2
.d 2 0
	jsr ea38
.o 0 1 b
	fillB_b 0 0
	pop_b 1
.d 1 0
	rtn
.o 2 0
ea38
	jsr_eval 0
	pushB_a 0
	pop_a 1
.o 1 1 b
s38
	eqB_b TRUE 0
	jmp_true case.7
	jmp case.8
case.7
	pop_b 1
	jsr_eval 0
	pushB_a 0
	pop_a 1
.d 0 1 b
	rtn
case.8
	pop_a 1
	pop_b 1
	pushB FALSE
.d 0 1 b
	rtn
.export e_Data.Monoid_smappend;11
.export e_Data.Monoid_eamappend;11
.descexp e_Data.Monoid_dmappend;11 e_Data.Monoid_nmappend;11 e_Data.Monoid_lmappend;11 2 0 "mappend;11"
.o 3 0
e_Data.Monoid_imappend;11
	pop_a 1
	create
	jsr_eval 2
	push_a 2
	update_a 1 3
	update_a 2 1
	update_a 0 2
	pop_a 1
.d 3 0
	jmp s12
.ai 2 e_Data.Monoid_eamappend;11 e_Data.Monoid_imappend;11
.o 2 0
e_Data.Monoid_lmappend;11
	push_args 0 1 1
	update_a 2 1
	create
	update_a 0 3
	pop_a 1
.d 3 0
	jmp e_Data.Monoid_eamappend;11
.n 2 e_Data.Monoid_dmappend;11 e_Data.Monoid_eamappend;11
.o 1 0
e_Data.Monoid_nmappend;11
	push_node _cycle_in_spine 2
.o 3 0
e_Data.Monoid_eamappend;11
	jsr_eval 1
	jsr_eval 0
.o 3 0
e_Data.Monoid_smappend;11
.o 3 0
s12
	repl_args 1 1
	push_args 1 1 1
	buildh _Nil 0
	update_a 0 3
	pop_a 1
	push_a 0
	push_a 2
	buildh e_Data.Monoid_d\;15;13;36.37 2
	fillh e_Data.Monoid_dEndo 1 4
	pop_a 3
.d 1 0
	rtn
.export e_Data.Monoid_d\;15;13;36.37
.desc e_Data.Monoid_d\;15;13;36.37 _hnf l37 3 0 "\;15;13;36.37"
.a 0 ea37
.o 2 0
l37
	repl_args 2 2
.o 3 0
ea37
	jsr_eval 0
.o 3 0
s37
	push_a 2
	push_a 2
	build e_system_dAP 2 e_system_nAP
	push_a 1
	update_a 1 4
	updatepop_a 0 3
	jmp_ap 1
.export e_Data.Monoid_smappend;10
.export e_Data.Monoid_eamappend;10
.descexp e_Data.Monoid_dmappend;10 e_Data.Monoid_nmappend;10 e_Data.Monoid_lmappend;10 3 0 "mappend;10"
.o 3 0
e_Data.Monoid_imappend;10
	repl_args 1 1
	create
	jsr_eval 3
	jsr_eval 1
	push_r_args 1 1 0
	update_a 3 2
	update_a 4 3
	update_a 1 4
	update_a 0 1
	pop_a 1
.d 4 0
	jmp s11
.ai 3 e_Data.Monoid_eamappend;10 e_Data.Monoid_imappend;10
.o 2 0
e_Data.Monoid_lmappend;10
	push_args 0 2 2
	update_a 3 2
	create
	update_a 0 4
	pop_a 1
.d 4 0
	jmp e_Data.Monoid_eamappend;10
.n 3 e_Data.Monoid_dmappend;10 e_Data.Monoid_eamappend;10
.o 1 0
e_Data.Monoid_nmappend;10
	push_node _cycle_in_spine 3
.o 4 0
e_Data.Monoid_eamappend;10
	jsr_eval 2
	jsr_eval 1
	jsr_eval 0
	repl_r_args 1 0
.o 4 0
e_Data.Monoid_smappend;10
.o 4 0
s11
	push_args 1 1 1
	buildh _Nil 0
	update_a 0 3
	pop_a 1
	push_args 3 1 1
	buildh _Nil 0
	update_a 0 5
	pop_a 1
	push_a 2
	push_a 2
	push_a 2
	push_a 2
	update_a 2 3
	update_a 1 2
	update_a 0 1
	pop_a 1
	build e_Data.Monoid_d_f2.65 3 e_Data.Monoid_n_f2.65
	fillh e_Data.Monoid_dDual 1 6
	pop_a 5
.d 1 0
	rtn
.export e_Data.Monoid_d_f2.65
.export e_Data.Monoid_n_f2.65
.descn e_Data.Monoid_d_f2.65 e_Data.Monoid_n_f2.65 3 0 "_f2.65"
.n 3 e_Data.Monoid_d_f2.65 ea65
.o 1 0
e_Data.Monoid_n_f2.65
	push_node _cycle_in_spine 3
.o 4 0
ea65
.o 4 0
s65
	push_a 2
	push_a 2
	jsr_eval 0
	push_a 2
	jsr_eval 0
	update_a 2 5
	update_a 1 4
	updatepop_a 0 3
.d 3 0
	jsr_i 2
.o 1 0
	fill_a 0 1
	pop_a 1
.d 1 0
	rtn
.export e_Data.Monoid_smempty;9
.export e_Data.Monoid_eamempty;9
.descexp e_Data.Monoid_dmempty;9 e_Data.Monoid_nmempty;9 e_Data.Monoid_lmempty;9 0 0 "mempty;9"
.o 1 0
e_Data.Monoid_imempty;9
	pop_a 1
	create
.d 1 0
	jmp s10
.o 1 0
e_Data.Monoid_lmempty;9
	halt
.n 0 e_Data.Monoid_dmempty;9 e_Data.Monoid_eamempty;9
.o 1 0
e_Data.Monoid_nmempty;9
	push_node _cycle_in_spine 0
.o 1 0
e_Data.Monoid_eamempty;9
.o 1 0
e_Data.Monoid_smempty;9
.o 1 0
s10
	fillh e__predef_d_Unit 0 0
.d 1 0
	rtn
.export e_Data.Monoid_smappend;8
.export e_Data.Monoid_eamappend;8
.descexp e_Data.Monoid_dmappend;8 e_Data.Monoid_nmappend;8 e_Data.Monoid_lmappend;8 2 0 "mappend;8"
.o 3 0
e_Data.Monoid_imappend;8
	pop_a 1
	create
	push_a 2
	update_a 1 3
	update_a 2 1
	update_a 0 2
	pop_a 1
.d 3 0
	jmp s9
.ai 2 e_Data.Monoid_eamappend;8 e_Data.Monoid_imappend;8
.o 2 0
e_Data.Monoid_lmappend;8
	push_args 0 1 1
	update_a 2 1
	create
	update_a 0 3
	pop_a 1
.d 3 0
	jmp e_Data.Monoid_eamappend;8
.n 2 e_Data.Monoid_dmappend;8 e_Data.Monoid_eamappend;8
.o 1 0
e_Data.Monoid_nmappend;8
	push_node _cycle_in_spine 2
.o 3 0
e_Data.Monoid_eamappend;8
	jsr_eval 0
.o 3 0
e_Data.Monoid_smappend;8
.o 3 0
s9
	fillh e__predef_d_Unit 0 2
	pop_a 2
.d 1 0
	rtn
.export e_Data.Monoid_sgetLast
.export e_Data.Monoid_eagetLast
.descexp e_Data.Monoid_dgetLast e_Data.Monoid_ngetLast e_Data.Monoid_lgetLast 1 0 "getLast"
.o 2 0
e_Data.Monoid_lgetLast
	update_a 1 0
	create
	update_a 0 2
	pop_a 1
.d 2 0
	jmp e_Data.Monoid_eagetLast
.n 1 e_Data.Monoid_dgetLast e_Data.Monoid_eagetLast
.o 1 0
e_Data.Monoid_ngetLast
	push_node _cycle_in_spine 1
.o 2 0
e_Data.Monoid_eagetLast
	jsr_eval 0
.o 2 0
e_Data.Monoid_sgetLast
.o 2 0
s8
	repl_args 1 1
	jmp_eval_upd
.export e_Data.Monoid_sgetFirst
.export e_Data.Monoid_eagetFirst
.descexp e_Data.Monoid_dgetFirst e_Data.Monoid_ngetFirst e_Data.Monoid_lgetFirst 1 0 "getFirst"
.o 2 0
e_Data.Monoid_lgetFirst
	update_a 1 0
	create
	update_a 0 2
	pop_a 1
.d 2 0
	jmp e_Data.Monoid_eagetFirst
.n 1 e_Data.Monoid_dgetFirst e_Data.Monoid_eagetFirst
.o 1 0
e_Data.Monoid_ngetFirst
	push_node _cycle_in_spine 1
.o 2 0
e_Data.Monoid_eagetFirst
	jsr_eval 0
.o 2 0
e_Data.Monoid_sgetFirst
.o 2 0
s7
	repl_args 1 1
	jmp_eval_upd
.export e_Data.Monoid_sgetProduct
.descexp e_Data.Monoid_dgetProduct e_Data.Monoid_ngetProduct e_Data.Monoid_lgetProduct 1 0 "getProduct"
.o 2 0
e_Data.Monoid_lgetProduct
	pop_a 1
.d 1 0
	jmp ea6
.n 1 e_Data.Monoid_dgetProduct _
.o 1 0
e_Data.Monoid_ngetProduct
	push_node _cycle_in_spine 1
.d 1 0
	jsr ea6
.o 1 0
	fill_a 0 1
	pop_a 1
.d 1 0
	rtn
.o 1 0
ea6
	jsr_eval 0
.o 1 0
e_Data.Monoid_sgetProduct
.o 1 0
s6
	repl_args 1 1
	jmp_eval
.export e_Data.Monoid_sgetSum
.descexp e_Data.Monoid_dgetSum e_Data.Monoid_ngetSum e_Data.Monoid_lgetSum 1 0 "getSum"
.o 2 0
e_Data.Monoid_lgetSum
	pop_a 1
.d 1 0
	jmp ea5
.n 1 e_Data.Monoid_dgetSum _
.o 1 0
e_Data.Monoid_ngetSum
	push_node _cycle_in_spine 1
.d 1 0
	jsr ea5
.o 1 0
	fill_a 0 1
	pop_a 1
.d 1 0
	rtn
.o 1 0
ea5
	jsr_eval 0
.o 1 0
e_Data.Monoid_sgetSum
.o 1 0
s5
	repl_args 1 1
	jmp_eval
.export e_Data.Monoid_sgetAny
.descexp e_Data.Monoid_dgetAny e_Data.Monoid_ngetAny e_Data.Monoid_lgetAny 1 0 "getAny"
.o 2 0
e_Data.Monoid_lgetAny
	pop_a 1
.d 1 0
	jsr ea4
.o 0 1 b
	buildB_b 0
	pop_b 1
.d 1 0
	rtn
.n 1 e_Data.Monoid_dgetAny
.o 1 0
e_Data.Monoid_ngetAny
	push_node _cycle_in_spine 1
.d 1 0
	jsr ea4
.o 0 1 b
	fillB_b 0 0
	pop_b 1
.d 1 0
	rtn
.o 1 0
ea4
	jsr_eval 0
.o 1 0
e_Data.Monoid_sgetAny
.o 1 0
s4
	repl_args 1 1
	jsr_eval 0
	pushB_a 0
	pop_a 1
.d 0 1 b
	rtn
.export e_Data.Monoid_sgetAll
.descexp e_Data.Monoid_dgetAll e_Data.Monoid_ngetAll e_Data.Monoid_lgetAll 1 0 "getAll"
.o 2 0
e_Data.Monoid_lgetAll
	pop_a 1
.d 1 0
	jsr ea3
.o 0 1 b
	buildB_b 0
	pop_b 1
.d 1 0
	rtn
.n 1 e_Data.Monoid_dgetAll
.o 1 0
e_Data.Monoid_ngetAll
	push_node _cycle_in_spine 1
.d 1 0
	jsr ea3
.o 0 1 b
	fillB_b 0 0
	pop_b 1
.d 1 0
	rtn
.o 1 0
ea3
	jsr_eval 0
.o 1 0
e_Data.Monoid_sgetAll
.o 1 0
s3
	repl_args 1 1
	jsr_eval 0
	pushB_a 0
	pop_a 1
.d 0 1 b
	rtn
.export e_Data.Monoid_sappEndo
.export e_Data.Monoid_eaappEndo
.descexp e_Data.Monoid_dappEndo e_Data.Monoid_nappEndo e_Data.Monoid_lappEndo 1 0 "appEndo"
.o 2 0
e_Data.Monoid_lappEndo
	update_a 1 0
	create
	update_a 0 2
	pop_a 1
.d 2 0
	jmp e_Data.Monoid_eaappEndo
.n 1 e_Data.Monoid_dappEndo e_Data.Monoid_eaappEndo
.o 1 0
e_Data.Monoid_nappEndo
	push_node _cycle_in_spine 1
.o 2 0
e_Data.Monoid_eaappEndo
	jsr_eval 0
.o 2 0
e_Data.Monoid_sappEndo
.o 2 0
s2
	repl_args 1 1
	jmp_eval_upd
.export e_Data.Monoid_sgetDual
.descexp e_Data.Monoid_dgetDual e_Data.Monoid_ngetDual e_Data.Monoid_lgetDual 1 0 "getDual"
.o 2 0
e_Data.Monoid_lgetDual
	pop_a 1
.d 1 0
	jmp ea1
.n 1 e_Data.Monoid_dgetDual _
.o 1 0
e_Data.Monoid_ngetDual
	push_node _cycle_in_spine 1
.d 1 0
	jsr ea1
.o 1 0
	fill_a 0 1
	pop_a 1
.d 1 0
	rtn
.o 1 0
ea1
	jsr_eval 0
.o 1 0
e_Data.Monoid_sgetDual
.o 1 0
s1
	repl_args 1 1
	jmp_eval
