.comp 920 000011110011000
.start _nostart_
.depend "Text" "20210430140248"
.depend "Data.Func" "20210430140248"
.depend "iTasks.Internal.TaskIO" "20210430140248"
.depend "iTasks.Internal.WebService" "20210430140248"
.depend "iTasks.Internal.SDSService" "20210430140248"
.depend "iTasks.Internal.Serialization" "20210430140248"
.depend "_SystemEnum" "20210430140248"
.depend "StdEnum" "20210430140248"
.depend "StdTuple" "20210430140248"
.depend "StdOrdList" "20210430140248"
.depend "Control.Monad.Trans" "20210430140248"
.depend "StdMaybe" "20210430140248"
.depend "Data.Maybe" "20210430140248"
.depend "iTasks.Extensions.Admin.WorkflowAdmin" "20210430140248"
.depend "iTasks.Extensions.User" "20210430140248"
.depend "iTasks.Extensions.Admin.UserAdmin" "20210430140248"
.depend "iTasks.UI.Layout.Common" "20210430140248"
.depend "iTasks.UI.Editor.Modifiers" "20210430140248"
.depend "iTasks.UI.Editor.Containers" "20210430140248"
.depend "iTasks.UI.Tune" "20210430140248"
.depend "iTasks.Internal.Distributed.Domain" "20210430140248"
.depend "iTasks.WF.Combinators.Common" "20210430140248"
.depend "iTasks.WF.Combinators.SDS" "20210430140248"
.depend "iTasks.UI.Editor.Controls" "20210430140248"
.depend "iTasks.WF.Tasks.Interaction" "20210430140248"
.depend "iTasks.WF.Tasks.System" "20210430140248"
.depend "iTasks.WF.Tasks.SDS" "20210430140248"
.depend "iTasks.WF.Tasks.Core" "20210430140248"
.depend "System.Time.GenJSON" "20210430140248"
.depend "Text.HTML.GenJSON" "20210430140248"
.depend "Data.Map.GenJSON" "20210430140248"
.depend "Data.Error.GenJSON" "20210430140248"
.depend "Data.Either.GenJSON" "20210430140248"
.depend "iTasks.WF.Derives" "20210430140248"
.depend "iTasks.SDS.Combinators.Common" "20210430140248"
.depend "iTasks.SDS.Combinators.Core" "20210430140248"
.depend "iTasks.SDS.Sources.System" "20210430140248"
.depend "iTasks.SDS.Sources.Store" "20210430140248"
.depend "iTasks.SDS.Sources.Core" "20210430140248"
.depend "System._Signal" "20210430140248"
.depend "System.Signal" "20210430140248"
.depend "_SystemStrictMaybes" "20210430140248"
.depend "Text.GenPrint" "20210430140248"
.depend "iTasks.Extensions.DateTime" "20210430140248"
.depend "iTasks.Internal.TaskServer" "20210430140248"
.depend "iTasks.Extensions.Document" "20210430140248"
.depend "System.File" "20210430140248"
.depend "iTasks.Util.DeferredJSON" "20210430140248"
.depend "iTasks.Internal.SDS" "20210430140248"
.depend "iTasks.Internal.TaskEval" "20210430140248"
.depend "iTasks.UI.Layout" "20210430140248"
.depend "iTasks.Internal.TaskState" "20210430140248"
.depend "iTasks.WF.Combinators.Core" "20210430140248"
.depend "Data.IntMap.Base" "20210430140248"
.depend "Data.IntMap.Strict" "20210430140248"
.depend "Data.CircularStack" "20210430140248"
.depend "System._Process" "20210430140248"
.depend "System.Process" "20210430140248"
.depend "System.OS" "20210430140248"
.depend "Data.GenHash" "20210430140248"
.depend "Data.Maybe.Ord" "20210430140248"
.depend "Control.GenBimap" "20210430140248"
.depend "ABC.Interpreter.JavaScript" "20210430140248"
.depend "ABC.Interpreter" "20210430140248"
.depend "iTasks.UI.Editor" "20210430140248"
.depend "iTasks.UI.Editor.Generic" "20210430140248"
.depend "iTasks.Internal.Generic.Defaults" "20210430140248"
.depend "Data.GenDefault" "20210430140248"
.depend "Data.Integer" "20210430140248"
.depend "Text.HTML" "20210430140248"
.depend "iTasks.Internal.Generic.Visualization" "20210430140248"
.depend "iTasks.SDS.Definition" "20210430140248"
.depend "TCPStringChannelsInternal" "20210430140248"
.depend "TCPStringChannels" "20210430140248"
.depend "TCPEvent" "20210430140248"
.depend "tcp_bytestreams" "20210430140248"
.depend "TCPDef" "20210430140248"
.depend "TCPChannels" "20210430140248"
.depend "TCPIP" "20210430140248"
.depend "iTasks.WF.Tasks.IO" "20210430140248"
.depend "iTasks.Internal.Task" "20210430140248"
.depend "iTasks.UI.Definition" "20210430140248"
.depend "Text.GenJSON" "20210430140248"
.depend "Data.Bifunctor" "20210430140248"
.depend "Data.Either" "20210430140248"
.depend "Data.Queue" "20210430140248"
.depend "StdFile" "20210430140248"
.depend "symbols_in_program" "20210430140248"
.depend "iTasks.Internal.IWorld" "20210430140248"
.depend "iTasks.WF.Definition" "20210430140248"
.depend "tcp" "20210430140248"
.depend "TCPChannelClass" "20210430140248"
.depend "System._Time" "20210430140248"
.depend "System.Time" "20210430140248"
.depend "System.GetOpt" "20210430140248"
.depend "System.OSError" "20210430140248"
.depend "System.FilePath" "20210430140248"
.depend "StdString" "20210430140248"
.depend "Internet.HTTP" "20210430140248"
.depend "Control.Monad.Fail" "20210430140248"
.depend "Data.Traversable" "20210430140248"
.depend "StdMisc" "20210430140248"
.depend "StdOverloadedList" "20210430140248"
.depend "Data.List" "20210430140248"
.depend "Data.Foldable" "20210430140248"
.depend "Data.Set" "20210430140248"
.depend "Data.GenLexOrd" "20210430140248"
.depend "StdFunctions" "20210430140248"
.depend "StdFunc" "20210430140248"
.depend "Data.Map" "20210430140248"
.depend "_SystemEnumStrict" "20210430140248"
.depend "_SystemStrictLists" "20210430140248"
.depend "StdStrictLists" "20210430140248"
.depend "StdGeneric" "20210430140248"
.depend "Data.GenEq" "20210430140248"
.depend "StdReal" "20210430140248"
.depend "StdChar" "20210430140248"
.depend "StdInt" "20210430140248"
.depend "StdBool" "20210430140248"
.depend "StdClass" "20210430140248"
.depend "StdList" "20210430140248"
.depend "Data.Monoid" "20210430140248"
.depend "Control.Applicative" "20210430140248"
.depend "Control.Monad" "20210430140248"
.depend "Data.Functor" "20210430140248"
.depend "Data.Error" "20210430140248"
.depend "iTasks.Engine" "20210430140248"
.depend "iTasks" "20210430140248"
.depend "StdOverloaded" "20210430140248"
.depend "_SystemDynamic" "20210430140248"
.depend "BasicAPIExamples.InteractionUsingShares.SharedNoteAsList" "20210430140249"
.module m_BasicAPIExamples.InteractionUsingShares.SharedNoteAsList "BasicAPIExamples.InteractionUsingShares.SharedNoteAsList" "20210430140249"
.endinfo
.impmod _system
.implab _cycle_in_spine
.implab _type_error
.implab _hnf
.impdesc e_system_dind
.implab e_system_nind e_system_eaind
.impdesc e_system_dif
.implab e_system_nif e_system_eaif
.implab e_system_sif
.impdesc e_system_dAP
.implab e_system_nAP e_system_eaAP
.implab e_system_sAP
.impdesc ARRAY
.impdesc _Nil
.impdesc _Cons
.impdesc _Conss
.implab n_Conss ea_Conss
.impdesc _Consts
.implab n_Consts ea_Consts
.impdesc _Conssts
.implab n_Conssts ea_Conssts
.impdesc _Tuple
.impdesc d_S.1
.implab n_S.1 ea_S.1
.impdesc d_S.2
.implab n_S.2 ea_S.2
.impdesc d_S.3
.implab n_S.3 ea_S.3
.impdesc d_S.4
.implab n_S.4 ea_S.4
.impdesc d_S.5
.implab n_S.5 ea_S.5
.impdesc d_S.6
.implab n_S.6 ea_S.6
.implab _driver
.impmod Text
.implab e_Text_sjoin;9
.implab e_Text_ssplit;16
.impmod iTasks.Extensions.Admin.WorkflowAdmin
.implab e_iTasks.Extensions.Admin.WorkflowAdmin_sworkflow
.impdesc e_iTasks.Extensions.Admin.WorkflowAdmin_dtoWorkflow;13
.impmod iTasks.UI.Layout.Common
.impdesc e_iTasks.UI.Layout.Common_dtune;28
.impmod iTasks.UI.Tune
.implab e_iTasks.UI.Tune_s<<@
.implab e_iTasks.UI.Tune_s@>>
.impdesc e_iTasks.UI.Tune_dtune;6
.impdesc e_iTasks.UI.Tune_dtune;7
.impmod iTasks.WF.Combinators.Common
.implab e_iTasks.WF.Combinators.Common_s>>!
.implab e_iTasks.WF.Combinators.Common_s@!
.implab e_iTasks.WF.Combinators.Common_s-||-
.impmod iTasks.WF.Combinators.SDS
.implab e_iTasks.WF.Combinators.SDS_swithShared
.impmod iTasks.UI.Editor.Controls
.impdesc e_iTasks.UI.Editor.Controls_dtextArea
.implab e_iTasks.UI.Editor.Controls_ntextArea
.impmod iTasks.WF.Tasks.Interaction
.implab e_iTasks.WF.Tasks.Interaction_sviewInformation
.implab e_iTasks.WF.Tasks.Interaction_supdateSharedInformation
.impmod iTasks.WF.Tasks.Core
.impdesc e_iTasks.WF.Tasks.Core_dreturn
.impmod iTasks.Internal.SDS
.impdesc e_iTasks.Internal.SDS_dsdsIdentity;17
.impdesc e_iTasks.Internal.SDS_dreadSDS;18
.impdesc e_iTasks.Internal.SDS_dwriteSDS;19
.impdesc e_iTasks.Internal.SDS_dmodifySDS;20
.impdesc e_iTasks.Internal.SDS_dreadRegisterSDS;21
.impmod iTasks.UI.Editor.Generic
.impdesc e_iTasks.UI.Editor.Generic_dgEditor__String;11
.implab e_iTasks.UI.Editor.Generic_sgEditor__List;12
.impmod iTasks.Internal.Generic.Visualization
.impdesc e_iTasks.Internal.Generic.Visualization_dgText__String;16
.implab e_iTasks.Internal.Generic.Visualization_sgText__List;17
.impmod Text.GenJSON
.impdesc e_Text.GenJSON_dJSONEncode__String;16
.implab e_Text.GenJSON_sJSONEncode__List;17
.impdesc e_Text.GenJSON_dJSONDecode__String;46
.implab e_Text.GenJSON_sJSONDecode__List;47
.impmod StdFunctions
.impdesc e_StdFunctions_did
.implab e_StdFunctions_sconst
.impmod Data.GenEq
.impdesc e_Data.GenEq_dgEq__String;11
.implab e_Data.GenEq_sgEq__List;14
.impmod iTasks.Extensions.Admin.WorkflowAdmin
.impdesc e_iTasks.Extensions.Admin.WorkflowAdmin_rtoWorkflow;
.impmod iTasks.UI.Layout.Common
.impdesc e_iTasks.UI.Layout.Common_dArrangeHorizontal
.impmod iTasks.UI.Tune
.impdesc e_iTasks.UI.Tune_rtune;
.impmod iTasks.WF.Tasks.Interaction
.impdesc e_iTasks.WF.Tasks.Interaction_kUpdateSharedAs
.impdesc e_iTasks.WF.Tasks.Interaction_dUpdateSharedUsing
.impmod iTasks.SDS.Definition
.impdesc e_iTasks.SDS.Definition_rIdentifiable;
.impdesc e_iTasks.SDS.Definition_rReadable;
.impdesc e_iTasks.SDS.Definition_rRegistrable;
.impdesc e_iTasks.SDS.Definition_rWriteable;
.impdesc e_iTasks.SDS.Definition_rModifiable;
.impdesc e_iTasks.SDS.Definition_rRWShared;
.impmod iTasks.UI.Definition
.impdesc e_iTasks.UI.Definition_kTitle
.impdesc e_iTasks.UI.Definition_kHint
.impmod iTasks.WF.Definition
.impdesc e_iTasks.WF.Definition_riTask;
.impmod _SystemDynamic
.impdesc e__SystemDynamic_kTypeCons
.impdesc e__SystemDynamic_kTypeApp
.impdesc e__SystemDynamic_rTypeCodeConstructor
.impdesc e__SystemDynamic_dTC_Char
.impdesc e__SystemDynamic_dTC__List
.impdesc e__SystemDynamic_dTC__UnboxedArray
.export e_BasicAPIExamples.InteractionUsingShares.SharedNoteAsList_rgEditor_s;
.record e_BasicAPIExamples.InteractionUsingShares.SharedNoteAsList_rgEditor_s; a 1 0 "gEditor_s;"
.export e_BasicAPIExamples.InteractionUsingShares.SharedNoteAsList_tgEditor_s;
.export e_BasicAPIExamples.InteractionUsingShares.SharedNoteAsList_cgEditor_s;
.descn e_BasicAPIExamples.InteractionUsingShares.SharedNoteAsList_tgEditor_s; e_BasicAPIExamples.InteractionUsingShares.SharedNoteAsList_cgEditor_s; 1 1 "gEditor_s;"
.n 1 e_BasicAPIExamples.InteractionUsingShares.SharedNoteAsList_tgEditor_s;
.o 1 0
e_BasicAPIExamples.InteractionUsingShares.SharedNoteAsList_cgEditor_s;
	push_node _cycle_in_spine 1
	jsr_eval 0
.impmod BasicAPIExamples.InteractionUsingShares.SharedNoteAsList
.impdesc e_BasicAPIExamples.InteractionUsingShares.SharedNoteAsList_rgEditor_s;
	fill_r e_BasicAPIExamples.InteractionUsingShares.SharedNoteAsList_rgEditor_s; 1 0 1 0 0
	pop_a 1
.d 1 0
	rtn
.export e_BasicAPIExamples.InteractionUsingShares.SharedNoteAsList_rgText_s;
.record e_BasicAPIExamples.InteractionUsingShares.SharedNoteAsList_rgText_s; a 1 0 "gText_s;"
.export e_BasicAPIExamples.InteractionUsingShares.SharedNoteAsList_tgText_s;
.export e_BasicAPIExamples.InteractionUsingShares.SharedNoteAsList_cgText_s;
.descn e_BasicAPIExamples.InteractionUsingShares.SharedNoteAsList_tgText_s; e_BasicAPIExamples.InteractionUsingShares.SharedNoteAsList_cgText_s; 1 1 "gText_s;"
.n 1 e_BasicAPIExamples.InteractionUsingShares.SharedNoteAsList_tgText_s;
.o 1 0
e_BasicAPIExamples.InteractionUsingShares.SharedNoteAsList_cgText_s;
	push_node _cycle_in_spine 1
	jsr_eval 0
.impdesc e_BasicAPIExamples.InteractionUsingShares.SharedNoteAsList_rgText_s;
	fill_r e_BasicAPIExamples.InteractionUsingShares.SharedNoteAsList_rgText_s; 1 0 1 0 0
	pop_a 1
.d 1 0
	rtn
.export e_BasicAPIExamples.InteractionUsingShares.SharedNoteAsList_rJSONEncode_s;
.record e_BasicAPIExamples.InteractionUsingShares.SharedNoteAsList_rJSONEncode_s; a 1 0 "JSONEncode_s;"
.export e_BasicAPIExamples.InteractionUsingShares.SharedNoteAsList_tJSONEncode_s;
.export e_BasicAPIExamples.InteractionUsingShares.SharedNoteAsList_cJSONEncode_s;
.descn e_BasicAPIExamples.InteractionUsingShares.SharedNoteAsList_tJSONEncode_s; e_BasicAPIExamples.InteractionUsingShares.SharedNoteAsList_cJSONEncode_s; 1 1 "JSONEncode_s;"
.n 1 e_BasicAPIExamples.InteractionUsingShares.SharedNoteAsList_tJSONEncode_s;
.o 1 0
e_BasicAPIExamples.InteractionUsingShares.SharedNoteAsList_cJSONEncode_s;
	push_node _cycle_in_spine 1
	jsr_eval 0
.impdesc e_BasicAPIExamples.InteractionUsingShares.SharedNoteAsList_rJSONEncode_s;
	fill_r e_BasicAPIExamples.InteractionUsingShares.SharedNoteAsList_rJSONEncode_s; 1 0 1 0 0
	pop_a 1
.d 1 0
	rtn
.export e_BasicAPIExamples.InteractionUsingShares.SharedNoteAsList_rJSONDecode_s;
.record e_BasicAPIExamples.InteractionUsingShares.SharedNoteAsList_rJSONDecode_s; a 1 0 "JSONDecode_s;"
.export e_BasicAPIExamples.InteractionUsingShares.SharedNoteAsList_tJSONDecode_s;
.export e_BasicAPIExamples.InteractionUsingShares.SharedNoteAsList_cJSONDecode_s;
.descn e_BasicAPIExamples.InteractionUsingShares.SharedNoteAsList_tJSONDecode_s; e_BasicAPIExamples.InteractionUsingShares.SharedNoteAsList_cJSONDecode_s; 1 1 "JSONDecode_s;"
.n 1 e_BasicAPIExamples.InteractionUsingShares.SharedNoteAsList_tJSONDecode_s;
.o 1 0
e_BasicAPIExamples.InteractionUsingShares.SharedNoteAsList_cJSONDecode_s;
	push_node _cycle_in_spine 1
	jsr_eval 0
.impdesc e_BasicAPIExamples.InteractionUsingShares.SharedNoteAsList_rJSONDecode_s;
	fill_r e_BasicAPIExamples.InteractionUsingShares.SharedNoteAsList_rJSONDecode_s; 1 0 1 0 0
	pop_a 1
.d 1 0
	rtn
.export e_BasicAPIExamples.InteractionUsingShares.SharedNoteAsList_rgEq_s;
.record e_BasicAPIExamples.InteractionUsingShares.SharedNoteAsList_rgEq_s; a 1 0 "gEq_s;"
.export e_BasicAPIExamples.InteractionUsingShares.SharedNoteAsList_tgEq_s;
.export e_BasicAPIExamples.InteractionUsingShares.SharedNoteAsList_cgEq_s;
.descn e_BasicAPIExamples.InteractionUsingShares.SharedNoteAsList_tgEq_s; e_BasicAPIExamples.InteractionUsingShares.SharedNoteAsList_cgEq_s; 1 1 "gEq_s;"
.n 1 e_BasicAPIExamples.InteractionUsingShares.SharedNoteAsList_tgEq_s;
.o 1 0
e_BasicAPIExamples.InteractionUsingShares.SharedNoteAsList_cgEq_s;
	push_node _cycle_in_spine 1
	jsr_eval 0
.impdesc e_BasicAPIExamples.InteractionUsingShares.SharedNoteAsList_rgEq_s;
	fill_r e_BasicAPIExamples.InteractionUsingShares.SharedNoteAsList_rgEq_s; 1 0 1 0 0
	pop_a 1
.d 1 0
	rtn
.export e_BasicAPIExamples.InteractionUsingShares.SharedNoteAsList_smain
.export e_BasicAPIExamples.InteractionUsingShares.SharedNoteAsList_eamain
.descexp e_BasicAPIExamples.InteractionUsingShares.SharedNoteAsList_dmain e_BasicAPIExamples.InteractionUsingShares.SharedNoteAsList_nmain e_BasicAPIExamples.InteractionUsingShares.SharedNoteAsList_lmain 0 0 "main"
.o 1 0
e_BasicAPIExamples.InteractionUsingShares.SharedNoteAsList_lmain
	halt
.n 0 e_BasicAPIExamples.InteractionUsingShares.SharedNoteAsList_dmain e_BasicAPIExamples.InteractionUsingShares.SharedNoteAsList_eamain
.o 1 0
e_BasicAPIExamples.InteractionUsingShares.SharedNoteAsList_nmain
	push_node _cycle_in_spine 0
.o 1 0
e_BasicAPIExamples.InteractionUsingShares.SharedNoteAsList_eamain
.o 1 0
e_BasicAPIExamples.InteractionUsingShares.SharedNoteAsList_smain
.o 1 0
s2
	buildh e__predef_d_Unit 0
	create
.d 1 0
	jsr s3
.o 1 0
.d 3 0
	jmp e_iTasks.WF.Combinators.Common_s@!
.export e_BasicAPIExamples.InteractionUsingShares.SharedNoteAsList_swf
.descexp e_BasicAPIExamples.InteractionUsingShares.SharedNoteAsList_dwf e_BasicAPIExamples.InteractionUsingShares.SharedNoteAsList_nwf e_BasicAPIExamples.InteractionUsingShares.SharedNoteAsList_lwf 1 0 "wf"
.o 2 0
e_BasicAPIExamples.InteractionUsingShares.SharedNoteAsList_lwf
	pop_a 1
.d 1 0
	jsr ea1
.o 6 0
.impmod iTasks.Extensions.Admin.WorkflowAdmin
.impdesc e_iTasks.Extensions.Admin.WorkflowAdmin_rWorkflow
	buildhr e_iTasks.Extensions.Admin.WorkflowAdmin_rWorkflow 6 0
.d 1 0
	rtn
.n 1 e_BasicAPIExamples.InteractionUsingShares.SharedNoteAsList_dwf
.o 1 0
e_BasicAPIExamples.InteractionUsingShares.SharedNoteAsList_nwf
	push_node _cycle_in_spine 1
.d 1 0
	jsr ea1
.o 6 0
	fill_r e_iTasks.Extensions.Admin.WorkflowAdmin_rWorkflow 6 0 6 0 0
	pop_a 6
.d 1 0
	rtn
.o 1 0
ea1
.o 1 0
e_BasicAPIExamples.InteractionUsingShares.SharedNoteAsList_swf
.o 1 0
s1
	build e_BasicAPIExamples.InteractionUsingShares.SharedNoteAsList_dsharedNoteAsList.3 0 e_BasicAPIExamples.InteractionUsingShares.SharedNoteAsList_nsharedNoteAsList.3
	buildh e__SystemDynamic_dTC_Char 0
	buildhr e__SystemDynamic_kTypeCons 1 0
	buildh e__SystemDynamic_dTC__UnboxedArray 0
	buildhr e__SystemDynamic_kTypeCons 1 0
	buildhr e__SystemDynamic_kTypeApp 2 0
	buildh e_Data.GenEq_dgEq__String;11 0
	buildh e_Text.GenJSON_dJSONDecode__String;46 0
	buildh e_Text.GenJSON_dJSONEncode__String;16 0
	buildh e_iTasks.Internal.Generic.Visualization_dgText__String;16 0
	buildh e_iTasks.UI.Editor.Generic_dgEditor__String;11 0
	buildhr e_iTasks.WF.Definition_riTask; 6 0
	buildh e_iTasks.Extensions.Admin.WorkflowAdmin_dtoWorkflow;13 1
	buildAC "Edit a shared note as a list"
	buildh ARRAY 1
	push_a 3
	push_a 2
	update_a 2 3
	update_a 1 2
	update_a 0 1
	pop_a 1
	update_a 3 4
	update_a 2 3
	update_a 1 2
	updatepop_a 0 1
.d 4 0
	jmp e_iTasks.Extensions.Admin.WorkflowAdmin_sworkflow
.export e_BasicAPIExamples.InteractionUsingShares.SharedNoteAsList_dsharedNoteAsList.3
.export e_BasicAPIExamples.InteractionUsingShares.SharedNoteAsList_nsharedNoteAsList.3
.descn e_BasicAPIExamples.InteractionUsingShares.SharedNoteAsList_dsharedNoteAsList.3 e_BasicAPIExamples.InteractionUsingShares.SharedNoteAsList_nsharedNoteAsList.3 0 0 "sharedNoteAsList.3"
.n 0 e_BasicAPIExamples.InteractionUsingShares.SharedNoteAsList_dsharedNoteAsList.3 ea3
.o 1 0
e_BasicAPIExamples.InteractionUsingShares.SharedNoteAsList_nsharedNoteAsList.3
	push_node _cycle_in_spine 0
.o 1 0
ea3
.o 1 0
s3
	buildh e_BasicAPIExamples.InteractionUsingShares.SharedNoteAsList_d\;27;47;3.4 0
	buildh e_BasicAPIExamples.InteractionUsingShares.SharedNoteAsList_d_f0.231 0
	buildh e__SystemDynamic_dTC_Char 0
	buildhr e__SystemDynamic_kTypeCons 1 0
	buildh e__SystemDynamic_dTC__UnboxedArray 0
	buildhr e__SystemDynamic_kTypeCons 1 0
	buildhr e__SystemDynamic_kTypeApp 2 0
	buildh e__SystemDynamic_dTC__List 0
	buildhr e__SystemDynamic_kTypeCons 1 0
	buildhr e__SystemDynamic_kTypeApp 2 0
	buildh e_BasicAPIExamples.InteractionUsingShares.SharedNoteAsList_dgEq_s;545.18 0
	buildh e_BasicAPIExamples.InteractionUsingShares.SharedNoteAsList_dJSONDecode_s;544.17 0
	buildh e_BasicAPIExamples.InteractionUsingShares.SharedNoteAsList_dJSONEncode_s;543.16 0
	buildh e_BasicAPIExamples.InteractionUsingShares.SharedNoteAsList_dgText_s;542.15 0
	buildh e_BasicAPIExamples.InteractionUsingShares.SharedNoteAsList_dgEditor_s;550.23 0
	buildhr e_iTasks.WF.Definition_riTask; 6 0
	buildhr e_iTasks.WF.Tasks.Interaction_kUpdateSharedAs 3 0
	build e_iTasks.UI.Editor.Controls_dtextArea 0 e_iTasks.UI.Editor.Controls_ntextArea
	buildh e_BasicAPIExamples.InteractionUsingShares.SharedNoteAsList_dflip;540.13 0
	buildh e_StdFunctions_did 0
	buildh e_iTasks.WF.Tasks.Interaction_dUpdateSharedUsing 3
	buildh e_BasicAPIExamples.InteractionUsingShares.SharedNoteAsList_ddoEditor;551.24 2
	buildh e__SystemDynamic_dTC_Char 0
	buildhr e__SystemDynamic_kTypeCons 1 0
	buildh e__SystemDynamic_dTC__UnboxedArray 0
	buildhr e__SystemDynamic_kTypeCons 1 0
	buildhr e__SystemDynamic_kTypeApp 2 0
	buildh e_Data.GenEq_dgEq__String;11 0
	buildh e_Text.GenJSON_dJSONDecode__String;46 0
	buildh e_Text.GenJSON_dJSONEncode__String;16 0
	buildh e_iTasks.Internal.Generic.Visualization_dgText__String;16 0
	buildh e_iTasks.UI.Editor.Generic_dgEditor__String;11 0
	buildh e__SystemDynamic_dTC_Char 0
	buildhr e__SystemDynamic_kTypeCons 1 0
	buildh e__SystemDynamic_dTC__UnboxedArray 0
	buildhr e__SystemDynamic_kTypeCons 1 0
	buildhr e__SystemDynamic_kTypeApp 2 0
	buildh e_Data.GenEq_dgEq__String;11 0
	buildh e_Text.GenJSON_dJSONDecode__String;46 0
	buildh e_Text.GenJSON_dJSONEncode__String;16 0
	buildh e_iTasks.Internal.Generic.Visualization_dgText__String;16 0
	buildh e_iTasks.UI.Editor.Generic_dgEditor__String;11 0
	buildAC ""
	buildh ARRAY 1
	push_a 12
	update_a 1 13
	update_a 2 1
	update_a 3 2
	update_a 4 3
	update_a 5 4
	update_a 6 5
	update_a 7 6
	update_a 8 7
	update_a 9 8
	update_a 10 9
	update_a 11 10
	update_a 12 11
	update_a 0 12
	pop_a 1
.d 15 0
	jmp e_iTasks.WF.Combinators.SDS_swithShared
.export e_BasicAPIExamples.InteractionUsingShares.SharedNoteAsList_d_f0.231
.desc e_BasicAPIExamples.InteractionUsingShares.SharedNoteAsList_d_f0.231 _hnf l231 1 0 "_f0.231"
.o 2 0
l231
	update_a 1 0
	create
	update_a 0 2
	pop_a 1
.o 2 0
ea231
.o 2 0
s231
	push_a 0
	jsr_eval 0
	push_array 0
	updatepop_a 0 1
	buildAC "\n"
	update_a 1 2
	updatepop_a 0 1
.d 3 0
	jmp e_Text_ssplit;16
.export e_BasicAPIExamples.InteractionUsingShares.SharedNoteAsList_ddoEditor;551.24
.desc e_BasicAPIExamples.InteractionUsingShares.SharedNoteAsList_ddoEditor;551.24 _hnf l24 3 0 "doEditor;551.24"
.a 3 ea24
.o 2 0
l24
	push_args 0 2 2
	update_a 3 2
	create
	update_a 0 4
	pop_a 1
.o 4 0
ea24
	jsr_eval 2
.o 4 0
s24
	buildh e_BasicAPIExamples.InteractionUsingShares.SharedNoteAsList_d\;23;17;547.20 0
	buildh e_iTasks.UI.Layout.Common_dArrangeHorizontal 0
	buildh _Nil 0
	push_a 4
	buildh _Cons 2
	buildh e_iTasks.Internal.SDS_dsdsIdentity;17 0
	buildh e_iTasks.Internal.SDS_dreadSDS;18 0
	buildhr e_iTasks.SDS.Definition_rReadable; 2 0
	buildh e_iTasks.Internal.SDS_dreadRegisterSDS;21 0
	buildhr e_iTasks.SDS.Definition_rRegistrable; 2 0
	buildh e_iTasks.Internal.SDS_dsdsIdentity;17 0
	buildh e_iTasks.Internal.SDS_dwriteSDS;19 0
	buildhr e_iTasks.SDS.Definition_rWriteable; 2 0
	buildh e_iTasks.Internal.SDS_dsdsIdentity;17 0
	buildh e_iTasks.Internal.SDS_dreadSDS;18 0
	buildhr e_iTasks.SDS.Definition_rReadable; 2 0
	buildh e_iTasks.Internal.SDS_dmodifySDS;20 0
	buildhr e_iTasks.SDS.Definition_rModifiable; 3 0
	buildh e__SystemDynamic_dTC_Char 0
	buildhr e__SystemDynamic_kTypeCons 1 0
	buildh e__SystemDynamic_dTC__UnboxedArray 0
	buildhr e__SystemDynamic_kTypeCons 1 0
	buildhr e__SystemDynamic_kTypeApp 2 0
	buildh e_Data.GenEq_dgEq__String;11 0
	buildh e_Text.GenJSON_dJSONDecode__String;46 0
	buildh e_Text.GenJSON_dJSONEncode__String;16 0
	buildh e_iTasks.Internal.Generic.Visualization_dgText__String;16 0
	buildh e_iTasks.UI.Editor.Generic_dgEditor__String;11 0
	buildh e__SystemDynamic_dTC_Char 0
	buildhr e__SystemDynamic_kTypeCons 1 0
	buildh e__SystemDynamic_dTC__UnboxedArray 0
	buildhr e__SystemDynamic_kTypeCons 1 0
	buildhr e__SystemDynamic_kTypeApp 2 0
	buildh e_Data.GenEq_dgEq__String;11 0
	buildh e_Text.GenJSON_dJSONDecode__String;46 0
	buildh e_Text.GenJSON_dJSONEncode__String;16 0
	buildh e_iTasks.Internal.Generic.Visualization_dgText__String;16 0
	buildh e_iTasks.UI.Editor.Generic_dgEditor__String;11 0
	create
	push_a 20
	push_a 16
	update_a 2 17
	update_a 4 2
	update_a 6 4
	update_a 8 6
	update_a 10 8
	update_a 12 10
	update_a 14 12
	update_a 16 14
	update_a 1 16
	update_a 3 1
	update_a 5 3
	update_a 7 5
	update_a 9 7
	update_a 11 9
	update_a 13 11
	update_a 15 13
	update_a 0 15
	pop_a 1
	buildh _Nil 0
	update_a 0 21
	pop_a 1
.d 17 0
	jsr e_iTasks.WF.Tasks.Interaction_supdateSharedInformation
.o 1 0
	buildAC "Edit lines"
	buildhr e_iTasks.UI.Definition_kHint 1 0
	buildh e_iTasks.UI.Tune_dtune;7 0
.d 3 0
	jsr e_iTasks.UI.Tune_s@>>
.o 1 0
	buildAC "Lines"
	buildhr e_iTasks.UI.Definition_kTitle 1 0
	buildh e_iTasks.UI.Tune_dtune;6 0
.d 3 0
	jsr e_iTasks.UI.Tune_s@>>
.o 1 0
	buildh _Nil 0
	push_a 4
	buildh _Cons 2
	buildh e_iTasks.Internal.SDS_dsdsIdentity;17 0
	buildh e_iTasks.Internal.SDS_dreadSDS;18 0
	buildhr e_iTasks.SDS.Definition_rReadable; 2 0
	buildh e_iTasks.Internal.SDS_dreadRegisterSDS;21 0
	buildhr e_iTasks.SDS.Definition_rRegistrable; 2 0
	buildh e_iTasks.Internal.SDS_dsdsIdentity;17 0
	buildh e_iTasks.Internal.SDS_dwriteSDS;19 0
	buildhr e_iTasks.SDS.Definition_rWriteable; 2 0
	buildh e_iTasks.Internal.SDS_dsdsIdentity;17 0
	buildh e_iTasks.Internal.SDS_dreadSDS;18 0
	buildhr e_iTasks.SDS.Definition_rReadable; 2 0
	buildh e_iTasks.Internal.SDS_dmodifySDS;20 0
	buildhr e_iTasks.SDS.Definition_rModifiable; 3 0
	buildh e__SystemDynamic_dTC_Char 0
	buildhr e__SystemDynamic_kTypeCons 1 0
	buildh e__SystemDynamic_dTC__UnboxedArray 0
	buildhr e__SystemDynamic_kTypeCons 1 0
	buildhr e__SystemDynamic_kTypeApp 2 0
	buildh e_Data.GenEq_dgEq__String;11 0
	buildh e_Text.GenJSON_dJSONDecode__String;46 0
	buildh e_Text.GenJSON_dJSONEncode__String;16 0
	buildh e_iTasks.Internal.Generic.Visualization_dgText__String;16 0
	buildh e_iTasks.UI.Editor.Generic_dgEditor__String;11 0
	buildh e__SystemDynamic_dTC_Char 0
	buildhr e__SystemDynamic_kTypeCons 1 0
	buildh e__SystemDynamic_dTC__UnboxedArray 0
	buildhr e__SystemDynamic_kTypeCons 1 0
	buildhr e__SystemDynamic_kTypeApp 2 0
	buildh e_Data.GenEq_dgEq__String;11 0
	buildh e_Text.GenJSON_dJSONDecode__String;46 0
	buildh e_Text.GenJSON_dJSONEncode__String;16 0
	buildh e_iTasks.Internal.Generic.Visualization_dgText__String;16 0
	buildh e_iTasks.UI.Editor.Generic_dgEditor__String;11 0
	create
	push_a 21
	push_a 16
	update_a 2 17
	update_a 4 2
	update_a 6 4
	update_a 8 6
	update_a 10 8
	update_a 12 10
	update_a 14 12
	update_a 16 14
	update_a 1 16
	update_a 3 1
	update_a 5 3
	update_a 7 5
	update_a 9 7
	update_a 11 9
	update_a 13 11
	update_a 15 13
	update_a 0 15
	pop_a 1
	buildh _Nil 0
	update_a 0 23
	update_a 0 21
	pop_a 1
.d 17 0
	jsr e_iTasks.WF.Tasks.Interaction_supdateSharedInformation
.o 1 0
	buildAC "Edit text"
	buildhr e_iTasks.UI.Definition_kHint 1 0
	buildh e_iTasks.UI.Tune_dtune;7 0
.d 3 0
	jsr e_iTasks.UI.Tune_s@>>
.o 1 0
	buildAC "Text"
	buildhr e_iTasks.UI.Definition_kTitle 1 0
	buildh e_iTasks.UI.Tune_dtune;6 0
.d 3 0
	jsr e_iTasks.UI.Tune_s@>>
.o 1 0
	buildh e__SystemDynamic_dTC_Char 0
	buildhr e__SystemDynamic_kTypeCons 1 0
	buildh e__SystemDynamic_dTC__UnboxedArray 0
	buildhr e__SystemDynamic_kTypeCons 1 0
	buildhr e__SystemDynamic_kTypeApp 2 0
	buildh e_Data.GenEq_dgEq__String;11 0
	buildh e_Text.GenJSON_dJSONDecode__String;46 0
	buildh e_Text.GenJSON_dJSONEncode__String;16 0
	buildh e_iTasks.Internal.Generic.Visualization_dgText__String;16 0
	buildh e_iTasks.UI.Editor.Generic_dgEditor__String;11 0
	create
	push_a 8
	update_a 1 9
	update_a 2 1
	update_a 3 2
	update_a 4 3
	update_a 5 4
	update_a 6 5
	update_a 7 6
	update_a 8 7
	update_a 0 8
	pop_a 1
.d 9 0
	jsr e_iTasks.WF.Combinators.Common_s-||-
.o 1 0
	buildh e_iTasks.UI.Layout.Common_dtune;28 0
.d 3 0
	jsr e_iTasks.UI.Tune_s<<@
.o 1 0
	buildh e_Text.GenJSON_dJSONEncode__String;16 0
	buildh e__SystemDynamic_dTC_Char 0
	buildhr e__SystemDynamic_kTypeCons 1 0
	buildh e__SystemDynamic_dTC__UnboxedArray 0
	buildhr e__SystemDynamic_kTypeCons 1 0
	buildhr e__SystemDynamic_kTypeApp 2 0
	update_a 3 6
	update_a 2 5
	update_a 1 4
	updatepop_a 0 3
.d 5 0
	jmp e_iTasks.WF.Combinators.Common_s>>!
.export e_BasicAPIExamples.InteractionUsingShares.SharedNoteAsList_dgEditor_s;550.23
.desc e_BasicAPIExamples.InteractionUsingShares.SharedNoteAsList_dgEditor_s;550.23 _hnf l23 1 0 "gEditor_s;550.23"
.o 2 0
i23
	pop_a 1
.d 1 0
	jmp s23
.ai 1 _ i23
.o 2 0
l23
	pop_a 1
.d 1 0
	jsr ea23
.o 4 0
.impmod iTasks.UI.Editor
.impdesc e_iTasks.UI.Editor_rEditor
	buildhr e_iTasks.UI.Editor_rEditor 4 0
.d 1 0
	rtn
.o 1 0
ea23
	jsr_eval 0
.o 1 0
s23
	buildh e_Data.GenEq_dgEq__String;11 0
	buildh e_iTasks.Internal.Generic.Visualization_dgText__String;16 0
	buildh e_iTasks.UI.Editor.Generic_dgEditor__String;11 0
	push_a 3
	push_a 3
	update_a 1 4
	update_a 2 1
	update_a 3 2
	update_a 0 3
	pop_a 1
	update_a 3 4
	update_a 2 3
	update_a 1 2
	updatepop_a 0 1
.d 4 0
	jmp e_iTasks.UI.Editor.Generic_sgEditor__List;12
.export e_BasicAPIExamples.InteractionUsingShares.SharedNoteAsList_d\;23;17;547.20
.desc e_BasicAPIExamples.InteractionUsingShares.SharedNoteAsList_d\;23;17;547.20 _hnf l20 1 0 "\;23;17;547.20"
.o 2 0
l20
	update_a 1 0
	create
	update_a 0 2
	pop_a 1
.o 2 0
ea20
	jsr_eval 0
	push_array 0
	update_a 0 1
	pop_a 1
.o 2 0
s20
	buildh e_iTasks.WF.Tasks.Core_dreturn 0
	buildh _Nil 0
	buildh e__SystemDynamic_dTC_Char 0
	buildhr e__SystemDynamic_kTypeCons 1 0
	buildh e__SystemDynamic_dTC__UnboxedArray 0
	buildhr e__SystemDynamic_kTypeCons 1 0
	buildhr e__SystemDynamic_kTypeApp 2 0
	buildh e_Data.GenEq_dgEq__String;11 0
	buildh e_Text.GenJSON_dJSONDecode__String;46 0
	buildh e_Text.GenJSON_dJSONEncode__String;16 0
	buildh e_iTasks.Internal.Generic.Visualization_dgText__String;16 0
	buildh e_iTasks.UI.Editor.Generic_dgEditor__String;11 0
	create
	push_a 9
	buildh ARRAY 1
	push_a 8
	update_a 2 9
	update_a 4 2
	update_a 6 4
	update_a 8 6
	update_a 1 8
	update_a 3 1
	update_a 5 3
	update_a 7 5
	update_a 0 7
	pop_a 1
	buildh _Nil 0
	update_a 0 11
	pop_a 1
.d 9 0
	jsr e_iTasks.WF.Tasks.Interaction_sviewInformation
.o 1 0
	buildAC "Result:"
	buildhr e_iTasks.UI.Definition_kHint 1 0
	buildh e_iTasks.UI.Tune_dtune;7 0
.d 3 0
	jsr e_iTasks.UI.Tune_s@>>
.o 1 0
	buildh e_Text.GenJSON_dJSONEncode__String;16 0
	buildh e__SystemDynamic_dTC_Char 0
	buildhr e__SystemDynamic_kTypeCons 1 0
	buildh e__SystemDynamic_dTC__UnboxedArray 0
	buildhr e__SystemDynamic_kTypeCons 1 0
	buildhr e__SystemDynamic_kTypeApp 2 0
	update_a 3 4
	update_a 2 3
	update_a 1 2
	updatepop_a 0 1
.d 5 0
	jmp e_iTasks.WF.Combinators.Common_s>>!
.export e_BasicAPIExamples.InteractionUsingShares.SharedNoteAsList_dflip;540.13
.desc e_BasicAPIExamples.InteractionUsingShares.SharedNoteAsList_dflip;540.13 _hnf l13 2 0 "flip;540.13"
.a 0 ea13
.o 2 0
l13
	repl_args 1 1
.o 2 0
ea13
	jsr_eval 1
.o 2 0
s13
	push_a 0
	push_a 2
	update_a 1 3
	updatepop_a 0 2
.d 2 0
	jmp e_StdFunctions_sconst
.export e_BasicAPIExamples.InteractionUsingShares.SharedNoteAsList_dgText_s;542.15
.desc e_BasicAPIExamples.InteractionUsingShares.SharedNoteAsList_dgText_s;542.15 _hnf l15 2 0 "gText_s;542.15"
.o 4 0
i15
	pop_a 1
.d 3 0
	jmp s15
.ai 2 ea15 i15
.o 2 0
l15
	push_args 0 1 1
	update_a 2 1
	create
	update_a 0 3
	pop_a 1
.o 3 0
ea15
	jsr_eval 0
.o 3 0
s15
	buildh e_iTasks.Internal.Generic.Visualization_dgText__String;16 0
	push_a 2
	push_a 2
	push_a 2
	update_a 2 3
	update_a 1 2
	update_a 0 1
	pop_a 1
	update_a 2 4
	update_a 1 3
	updatepop_a 0 2
.d 4 0
	jmp e_iTasks.Internal.Generic.Visualization_sgText__List;17
.export e_BasicAPIExamples.InteractionUsingShares.SharedNoteAsList_dJSONEncode_s;543.16
.desc e_BasicAPIExamples.InteractionUsingShares.SharedNoteAsList_dJSONEncode_s;543.16 _hnf l16 2 0 "JSONEncode_s;543.16"
.o 3 1 b
i16
	pop_a 1
.d 2 1 b
	jmp s16
.ai 2 ea16 i16
.o 2 0
l16
	push_args 0 1 1
	update_a 2 1
	create
	update_a 0 3
	pop_a 1
.o 3 0
ea16
	jsr_eval 1
	jsr_eval 0
	pushB_a 0
	pop_a 1
.o 2 1 b
s16
	buildh e_Text.GenJSON_dJSONEncode__String;16 0
	push_a 1
	push_b 0
	push_a 1
	update_a 1 2
	update_a 0 1
	pop_a 1
	update_a 1 2
	updatepop_a 0 1
	updatepop_b 0 1
.d 3 1 b
	jmp e_Text.GenJSON_sJSONEncode__List;17
.export e_BasicAPIExamples.InteractionUsingShares.SharedNoteAsList_dJSONDecode_s;544.17
.desc e_BasicAPIExamples.InteractionUsingShares.SharedNoteAsList_dJSONDecode_s;544.17 _hnf l17 2 0 "JSONDecode_s;544.17"
.o 2 1 b
i17
	pop_a 1
.d 1 1 b
	jmp s17
.ai 0 a17 i17
.o 2 0
l17
	repl_args 1 1
.o 2 0
a17
.d 2 0
	jsr ea17
.o 2 0
	push_a 1
	push_a 1
	buildh _Tuple 2
	updatepop_a 0 2
.d 1 0
	rtn
.o 2 0
ea17
	jsr_eval 1
	jsr_eval 0
	pushB_a 0
	pop_a 1
.o 1 1 b
s17
	buildh e_Text.GenJSON_dJSONDecode__String;46 0
	push_a 1
	push_b 0
	push_a 1
	update_a 1 2
	update_a 0 1
	pop_a 1
	update_a 1 2
	updatepop_a 0 1
	updatepop_b 0 1
.d 2 1 b
	jmp e_Text.GenJSON_sJSONDecode__List;47
.export e_BasicAPIExamples.InteractionUsingShares.SharedNoteAsList_dgEq_s;545.18
.desc e_BasicAPIExamples.InteractionUsingShares.SharedNoteAsList_dgEq_s;545.18 _hnf l18 2 0 "gEq_s;545.18"
.o 3 0
i18
	pop_a 1
.d 2 0
	jmp s18
.ai 0 a18 i18
.o 2 0
l18
	repl_args 1 1
.o 2 0
a18
.d 2 0
	jsr ea18
.o 0 1 b
	buildB_b 0
	pop_b 1
.d 1 0
	rtn
.o 2 0
ea18
	jsr_eval 1
	jsr_eval 0
.o 2 0
s18
	buildh e_Data.GenEq_dgEq__String;11 0
	push_a 2
	push_a 2
	push_a 2
	update_a 2 3
	update_a 1 2
	update_a 0 1
	pop_a 1
	update_a 2 4
	update_a 1 3
	updatepop_a 0 2
.d 3 0
	jmp e_Data.GenEq_sgEq__List;14
.export e_BasicAPIExamples.InteractionUsingShares.SharedNoteAsList_d\;27;47;3.4
.desc e_BasicAPIExamples.InteractionUsingShares.SharedNoteAsList_d\;27;47;3.4 _hnf l4 2 0 "\;27;47;3.4"
.a 0 a4
.o 2 0
l4
	repl_args 1 1
.o 2 0
a4
.d 2 0
	jsr ea4
.o 1 0
	buildh ARRAY 1
.d 1 0
	rtn
.o 2 0
ea4
	jsr_eval 1
.o 2 0
s4
	push_a 1
	buildAC "\n"
	update_a 1 3
	updatepop_a 0 2
.d 2 0
	jmp e_Text_sjoin;9
