.comp 920 000011110011000
.start _nostart_
.depend "iTasks.Internal.Distributed.Formatter" "20210613154824"
.depend "iTasks.Internal.AsyncSDS" "20210613154824"
.depend "iTasks.Internal.Util" "20210613154824"
.depend "Text" "20210613154827"
.depend "Data.Func" "20210613154827"
.depend "_SystemArray" "20210613154827"
.depend "StdArray" "20210613154827"
.depend "iTasks.Internal.TaskIO" "20210613154824"
.depend "iTasks.Internal.WebService" "20210613154824"
.depend "iTasks.Internal.Serialization" "20210613154824"
.depend "_SystemEnum" "20210613154827"
.depend "StdEnum" "20210613154827"
.depend "StdTuple" "20210613154827"
.depend "StdOrdList" "20210613154827"
.depend "Control.Monad.Trans" "20210613154827"
.depend "StdMaybe" "20210613154827"
.depend "Data.Maybe" "20210613154827"
.depend "iTasks.Extensions.Admin.WorkflowAdmin" "20210613154824"
.depend "iTasks.Extensions.User" "20210613154824"
.depend "iTasks.Extensions.Admin.UserAdmin" "20210613154824"
.depend "iTasks.UI.Layout.Common" "20210613154824"
.depend "iTasks.UI.Editor.Modifiers" "20210613154824"
.depend "iTasks.UI.Editor.Containers" "20210613154824"
.depend "iTasks.UI.Tune" "20210613154824"
.depend "iTasks.Internal.Distributed.Domain" "20210613154824"
.depend "iTasks.WF.Combinators.Common" "20210613154824"
.depend "iTasks.WF.Combinators.SDS" "20210613154824"
.depend "iTasks.UI.Editor.Controls" "20210613154824"
.depend "iTasks.WF.Tasks.Interaction" "20210613154824"
.depend "iTasks.WF.Tasks.System" "20210613154824"
.depend "iTasks.WF.Tasks.SDS" "20210613154824"
.depend "iTasks.WF.Tasks.Core" "20210613154824"
.depend "System.Time.GenJSON" "20210613154827"
.depend "Text.HTML.GenJSON" "20210613154827"
.depend "Data.Map.GenJSON" "20210613154827"
.depend "Data.Error.GenJSON" "20210613154827"
.depend "Data.Either.GenJSON" "20210613154827"
.depend "iTasks.WF.Derives" "20210613154824"
.depend "iTasks.SDS.Combinators.Common" "20210613154824"
.depend "iTasks.SDS.Combinators.Core" "20210613154824"
.depend "iTasks.SDS.Sources.System" "20210613154824"
.depend "iTasks.SDS.Sources.Store" "20210613154824"
.depend "iTasks.SDS.Sources.Core" "20210613154824"
.depend "System._Signal" "20210613154827"
.depend "System.Signal" "20210613154827"
.depend "_SystemStrictMaybes" "20210613154827"
.depend "Text.GenPrint" "20210613154827"
.depend "iTasks.Extensions.DateTime" "20210613154824"
.depend "iTasks.Internal.TaskServer" "20210613154824"
.depend "iTasks.Extensions.Document" "20210613154824"
.depend "System.File" "20210613154827"
.depend "iTasks.Util.DeferredJSON" "20210613154824"
.depend "iTasks.Internal.SDS" "20210613154824"
.depend "iTasks.Internal.TaskEval" "20210613154824"
.depend "iTasks.UI.Layout" "20210613154824"
.depend "iTasks.Internal.TaskState" "20210613154824"
.depend "iTasks.WF.Combinators.Core" "20210613154824"
.depend "Data.IntMap.Base" "20210613154827"
.depend "Data.IntMap.Strict" "20210613154827"
.depend "Data.CircularStack" "20210613154827"
.depend "System._Process" "20210613154827"
.depend "System.Process" "20210613154827"
.depend "System.OS" "20210613154827"
.depend "Data.GenHash" "20210613154827"
.depend "Data.Maybe.Ord" "20210613154827"
.depend "Control.GenBimap" "20210613154827"
.depend "ABC.Interpreter.JavaScript" "20210613154824"
.depend "ABC.Interpreter" "20210613154824"
.depend "iTasks.UI.Editor" "20210613154824"
.depend "iTasks.UI.Editor.Generic" "20210613154824"
.depend "iTasks.Internal.Generic.Defaults" "20210613154824"
.depend "Data.GenDefault" "20210613154827"
.depend "Data.Integer" "20210613154827"
.depend "Text.HTML" "20210613154827"
.depend "iTasks.Internal.Generic.Visualization" "20210613154824"
.depend "iTasks.SDS.Definition" "20210613154824"
.depend "TCPStringChannelsInternal" "20210613154827"
.depend "TCPStringChannels" "20210613154827"
.depend "TCPEvent" "20210613154827"
.depend "tcp_bytestreams" "20210613154827"
.depend "TCPDef" "20210613154827"
.depend "TCPChannels" "20210613154827"
.depend "TCPIP" "20210613154827"
.depend "iTasks.WF.Tasks.IO" "20210613154824"
.depend "iTasks.Internal.Task" "20210613154824"
.depend "iTasks.UI.Definition" "20210613154824"
.depend "Text.GenJSON" "20210613154827"
.depend "Data.Bifunctor" "20210613154827"
.depend "Data.Either" "20210613154827"
.depend "Data.Queue" "20210613154827"
.depend "StdFile" "20210613154827"
.depend "symbols_in_program" "20210613154824"
.depend "iTasks.Internal.IWorld" "20210613154824"
.depend "iTasks.WF.Definition" "20210613154824"
.depend "tcp" "20210613154827"
.depend "TCPChannelClass" "20210613154827"
.depend "System._Time" "20210613154827"
.depend "System.Time" "20210613154827"
.depend "System.GetOpt" "20210613154827"
.depend "System.OSError" "20210613154827"
.depend "System.FilePath" "20210613154827"
.depend "StdString" "20210613154827"
.depend "Internet.HTTP" "20210613154827"
.depend "Control.Monad.Fail" "20210613154827"
.depend "Data.Traversable" "20210613154827"
.depend "StdMisc" "20210613154827"
.depend "StdOverloadedList" "20210613154827"
.depend "Data.List" "20210613154827"
.depend "Data.Foldable" "20210613154827"
.depend "Data.Set" "20210613154827"
.depend "Data.GenLexOrd" "20210613154827"
.depend "StdFunctions" "20210613154827"
.depend "StdFunc" "20210613154827"
.depend "Data.Map" "20210613154827"
.depend "_SystemEnumStrict" "20210613154827"
.depend "_SystemStrictLists" "20210613154827"
.depend "StdStrictLists" "20210613154827"
.depend "StdGeneric" "20210613154827"
.depend "Data.GenEq" "20210613154827"
.depend "StdReal" "20210613154827"
.depend "StdChar" "20210613154827"
.depend "StdInt" "20210613154827"
.depend "StdBool" "20210613154827"
.depend "StdClass" "20210613154827"
.depend "StdList" "20210613154827"
.depend "Data.Monoid" "20210613154827"
.depend "Control.Applicative" "20210613154827"
.depend "Control.Monad" "20210613154827"
.depend "Data.Functor" "20210613154827"
.depend "Data.Error" "20210613154827"
.depend "iTasks.Engine" "20210613154824"
.depend "iTasks" "20210613154824"
.depend "StdOverloaded" "20210613154827"
.depend "_SystemDynamic" "20210613154827"
.depend "iTasks.Internal.SDSService" "20210613154824"
.module m_iTasks.Internal.SDSService "iTasks.Internal.SDSService" "20210613154824"
.endinfo
.impmod _system
.implab _cycle_in_spine
.implab _type_error
.implab _hnf
.impdesc e_system_dind
.implab e_system_nind e_system_eaind
.impdesc e_system_dif
.implab e_system_nif e_system_eaif
.implab e_system_sif
.impdesc e_system_dAP
.implab e_system_nAP e_system_eaAP
.implab e_system_sAP
.impdesc ARRAY
.impdesc _Nil
.impdesc _Cons
.impdesc _Conss
.implab n_Conss ea_Conss
.impdesc _Consts
.implab n_Consts ea_Consts
.impdesc _Conssts
.implab n_Conssts ea_Conssts
.impdesc _Tuple
.impdesc d_S.1
.implab n_S.1 ea_S.1
.impdesc d_S.2
.implab n_S.2 ea_S.2
.impdesc d_S.3
.implab n_S.3 ea_S.3
.impdesc d_S.4
.implab n_S.4 ea_S.4
.impdesc d_S.5
.implab n_S.5 ea_S.5
.impdesc d_S.6
.implab n_S.6 ea_S.6
.implab _driver
.impmod iTasks.Internal.Distributed.Formatter
.implab e_iTasks.Internal.Distributed.Formatter_sdeserializeFromBase64
.impdesc e_iTasks.Internal.Distributed.Formatter_dserializeToBase64
.implab e_iTasks.Internal.Distributed.Formatter_nserializeToBase64
.impmod iTasks.Internal.Util
.impdesc e_iTasks.Internal.Util_diShowErr
.implab e_iTasks.Internal.Util_niShowErr e_iTasks.Internal.Util_eaiShowErr
.impdesc e_iTasks.Internal.Util_dshowWhenVerbose
.implab e_iTasks.Internal.Util_nshowWhenVerbose e_iTasks.Internal.Util_eashowWhenVerbose
.implab e_iTasks.Internal.Util_sisDestroyOrInterrupt
.impdesc e_iTasks.Internal.Util_dmkTaskEvalInfo
.implab e_iTasks.Internal.Util_nmkTaskEvalInfo
.impdesc e_iTasks.Internal.Util_dmkEmptyUI
.implab e_iTasks.Internal.Util_nmkEmptyUI e_iTasks.Internal.Util_eamkEmptyUI
.impmod Text
.implab e_Text_sconcat;4
.implab e_Text_sendsWith;6
.impmod _SystemArray
.impmod iTasks.Internal.TaskIO
.implab e_iTasks.Internal.TaskIO_squeueRefresh
.impmod iTasks.WF.Combinators.SDS
.implab e_iTasks.WF.Combinators.SDS_swithShared
.impmod Data.Map.GenJSON
.implab e_Data.Map.GenJSON_sJSONEncode_Map;0
.implab e_Data.Map.GenJSON_sJSONDecode_Map;1
.impmod iTasks.Internal.TaskServer
.implab e_iTasks.Internal.TaskServer_saddListener
.impmod iTasks.Internal.SDS
.implab e_iTasks.Internal.SDS_sdirectResult
.implab e_iTasks.Internal.SDS_sread
.implab e_iTasks.Internal.SDS_swrite
.implab e_iTasks.Internal.SDS_squeueNotifyEvents
.impdesc e_iTasks.Internal.SDS_dsdsIdentity;17
.impdesc e_iTasks.Internal.SDS_dreadSDS;18
.impdesc e_iTasks.Internal.SDS_dwriteSDS;19
.impdesc e_iTasks.Internal.SDS_dmodifySDS;20
.impdesc e_iTasks.Internal.SDS_dreadRegisterSDS;21
.impmod iTasks.UI.Editor.Generic
.impdesc e_iTasks.UI.Editor.Generic_dgEditor_Int;7
.impdesc e_iTasks.UI.Editor.Generic_dgEditor_Bool;10
.impdesc e_iTasks.UI.Editor.Generic_dgEditor__String;11
.impdesc e_iTasks.UI.Editor.Generic_dgEditor__Unit;13
.implab e_iTasks.UI.Editor.Generic_sgEditor__Tuple3;15
.implab e_iTasks.UI.Editor.Generic_sgEditor_Map;26
.impmod iTasks.Internal.Generic.Visualization
.impdesc e_iTasks.Internal.Generic.Visualization_dgText_Int;12
.impdesc e_iTasks.Internal.Generic.Visualization_dgText_Bool;15
.impdesc e_iTasks.Internal.Generic.Visualization_dgText__String;16
.impdesc e_iTasks.Internal.Generic.Visualization_dgText__Unit;18
.implab e_iTasks.Internal.Generic.Visualization_sgText__Tuple3;20
.implab e_iTasks.Internal.Generic.Visualization_sgText_Map;33
.impmod iTasks.SDS.Definition
.impdesc e_iTasks.SDS.Definition_d<;5
.impmod iTasks.Internal.Task
.implab e_iTasks.Internal.Task_swrapIWorldConnectionTask
.impmod Text.GenJSON
.impdesc e_Text.GenJSON_dJSONEncode_Int;12
.impdesc e_Text.GenJSON_dJSONEncode_Bool;15
.impdesc e_Text.GenJSON_dJSONEncode__String;16
.impdesc e_Text.GenJSON_dJSONEncode__Unit;23
.implab e_Text.GenJSON_sJSONEncode__Tuple3;25
.impdesc e_Text.GenJSON_dJSONDecode_Int;42
.impdesc e_Text.GenJSON_dJSONDecode_Bool;45
.impdesc e_Text.GenJSON_dJSONDecode__String;46
.impdesc e_Text.GenJSON_dJSONDecode__Unit;53
.implab e_Text.GenJSON_sJSONDecode__Tuple3;55
.impmod iTasks.WF.Definition
.impdesc e_iTasks.WF.Definition_dTask
.implab e_iTasks.WF.Definition_sTask
.implab e_iTasks.WF.Definition_nTask e_iTasks.WF.Definition_eaTask
.implab e_iTasks.WF.Definition_sexception
.implab e_iTasks.WF.Definition_s==;8
.impdesc e_iTasks.WF.Definition_d<;9
.implab e_iTasks.WF.Definition_s<;9
.impdesc e_iTasks.WF.Definition_dTD;Event
.impmod StdString
.implab e_StdString_stoString;5
.impdesc e_StdString_dtoString;9
.impdesc e_StdString_d+++;11
.implab e_StdString_s+++;11
.implab e_StdString_n+++;11
.impmod Data.List
.implab e_Data.List_sfmap;86
.impmod Data.Set
.implab e_Data.Set_smember
.implab e_Data.Set_sfromList
.impmod Data.Map
.implab e_Data.Map_snewMap
.implab e_Data.Map_sput
.implab e_Data.Map_sfoldrWithKey
.impdesc e_Data.Map_dput;47
.implab e_Data.Map_nput;47 e_Data.Map_eaput;47
.impdesc e_Data.Map_ddel;51
.implab e_Data.Map_ndel;51 e_Data.Map_eadel;51
.implab e_Data.Map_sfromList;55
.implab e_Data.Map_sgEq_Map;91
.impdesc e_Data.Map_dTD;Map
.impmod Data.GenEq
.impdesc e_Data.GenEq_dgEq_Int;7
.impdesc e_Data.GenEq_dgEq_Bool;9
.impdesc e_Data.GenEq_dgEq__String;11
.impdesc e_Data.GenEq_dgEq__Unit;20
.implab e_Data.GenEq_sgEq__Tuple3;22
.impmod StdInt
.implab e_StdInt_s+;6
.implab e_StdInt_sone;11
.implab e_StdInt_s==;16
.implab e_StdInt_s<;17
.impmod StdBool
.implab e_StdBool_snot
.impmod StdList
.impdesc e_StdList_d++
.implab e_StdList_s++
.implab e_StdList_n++ e_StdList_ea++
.implab e_StdList_sfromString;78
.impmod Data.Error
.impdesc e_Data.Error_dfromOk
.implab e_Data.Error_sfromOk
.implab e_Data.Error_nfromOk _
.implab e_Data.Error_sfromError
.impmod iTasks.Internal.AsyncSDS
.impdesc e_iTasks.Internal.AsyncSDS_kSDSReadRequest
.impdesc e_iTasks.Internal.AsyncSDS_dSDSReadRequest
.implab e_iTasks.Internal.AsyncSDS_nSDSReadRequest e_iTasks.Internal.AsyncSDS_eaSDSReadRequest
.impdesc e_iTasks.Internal.AsyncSDS_kSDSRegisterRequest
.impdesc e_iTasks.Internal.AsyncSDS_dSDSRegisterRequest
.implab e_iTasks.Internal.AsyncSDS_nSDSRegisterRequest e_iTasks.Internal.AsyncSDS_eaSDSRegisterRequest
.impdesc e_iTasks.Internal.AsyncSDS_kSDSWriteRequest
.impdesc e_iTasks.Internal.AsyncSDS_dSDSWriteRequest
.implab e_iTasks.Internal.AsyncSDS_nSDSWriteRequest e_iTasks.Internal.AsyncSDS_eaSDSWriteRequest
.impdesc e_iTasks.Internal.AsyncSDS_kSDSModifyRequest
.impdesc e_iTasks.Internal.AsyncSDS_dSDSModifyRequest
.implab e_iTasks.Internal.AsyncSDS_nSDSModifyRequest e_iTasks.Internal.AsyncSDS_eaSDSModifyRequest
.impdesc e_iTasks.Internal.AsyncSDS_dSDSRefreshRequest
.impmod iTasks.SDS.Definition
.impdesc e_iTasks.SDS.Definition_dSDSIdentity.id_hash
.implab e_iTasks.SDS.Definition_nSDSIdentity.id_hash
.impdesc e_iTasks.SDS.Definition_dEmptyContext
.impdesc e_iTasks.SDS.Definition_kTaskContext
.impdesc e_iTasks.SDS.Definition_kRemoteTaskContext
.impdesc e_iTasks.SDS.Definition_rTaskIdAndRemoteNotifyOptions
.impdesc e_iTasks.SDS.Definition_kReadResult
.impdesc e_iTasks.SDS.Definition_kAsyncRead
.impdesc e_iTasks.SDS.Definition_kReadException
.impdesc e_iTasks.SDS.Definition_kWriteResult
.impdesc e_iTasks.SDS.Definition_kAsyncWrite
.impdesc e_iTasks.SDS.Definition_kWriteException
.impdesc e_iTasks.SDS.Definition_kModifyResult
.impdesc e_iTasks.SDS.Definition_kAsyncModify
.impdesc e_iTasks.SDS.Definition_kModifyException
.impdesc e_iTasks.SDS.Definition_rIdentifiable;
.impdesc e_iTasks.SDS.Definition_rReadable;
.impdesc e_iTasks.SDS.Definition_rRegistrable;
.impdesc e_iTasks.SDS.Definition_rWriteable;
.impdesc e_iTasks.SDS.Definition_rModifiable;
.impdesc e_iTasks.SDS.Definition_dModifiable;.Readable
.implab e_iTasks.SDS.Definition_nModifiable;.Readable
.impdesc e_iTasks.SDS.Definition_dModifiable;.Writeable
.implab e_iTasks.SDS.Definition_nModifiable;.Writeable
.impdesc e_iTasks.SDS.Definition_rRWShared;
.impdesc e_iTasks.SDS.Definition_dRWShared;.Modifiable
.implab e_iTasks.SDS.Definition_nRWShared;.Modifiable
.impdesc e_iTasks.SDS.Definition_dRWShared;.Registrable
.implab e_iTasks.SDS.Definition_nRWShared;.Registrable
.impmod iTasks.Internal.Task
.impdesc e_iTasks.Internal.Task_rConnectionHandlersIWorld
.impmod iTasks.UI.Definition
.impdesc e_iTasks.UI.Definition_dNoChange
.impmod Data.Either
.impdesc e_Data.Either_dLeft
.impdesc e_Data.Either_dRight
.impmod iTasks.Internal.IWorld
.impdesc e_iTasks.Internal.IWorld_rIWorld
.impdesc e_iTasks.Internal.IWorld_tIWorld
.implab e_iTasks.Internal.IWorld_cIWorld
.impdesc e_iTasks.Internal.IWorld_kIOActive
.impdesc e_iTasks.Internal.IWorld_kIODestroyed
.impmod iTasks.WF.Definition
.impdesc e_iTasks.WF.Definition_kRefreshEvent
.impdesc e_iTasks.WF.Definition_dResetEvent
.impdesc e_iTasks.WF.Definition_kValueResult
.impdesc e_iTasks.WF.Definition_dValueResult
.implab e_iTasks.WF.Definition_nValueResult e_iTasks.WF.Definition_eaValueResult
.impdesc e_iTasks.WF.Definition_kExceptionResult
.impdesc e_iTasks.WF.Definition_dExceptionResult
.implab e_iTasks.WF.Definition_nExceptionResult e_iTasks.WF.Definition_eaExceptionResult
.impdesc e_iTasks.WF.Definition_dDestroyedResult
.impdesc e_iTasks.WF.Definition_kValue
.impdesc e_iTasks.WF.Definition_riTask;
.impmod Data.Map
.impdesc e_Data.Map_kBin
.impdesc e_Data.Map_dTip
.impmod Data.Error
.impdesc e_Data.Error_dError
.impdesc e_Data.Error_dOk
.impmod StdOverloaded
.impdesc e_StdOverloaded_r<;
.impdesc e_StdOverloaded_rtoString;
.impmod _SystemDynamic
.impdesc e__SystemDynamic_rDynamicTemp
.impdesc e__SystemDynamic_kTypeCons
.impdesc e__SystemDynamic_kTypeApp
.impdesc e__SystemDynamic_rTypeCodeConstructor
.impdesc e__SystemDynamic_dTC_Int
.impdesc e__SystemDynamic_dTC_Char
.impdesc e__SystemDynamic_dTC_Bool
.impdesc e__SystemDynamic_dTC__Tuple3
.impdesc e__SystemDynamic_dTC__UnboxedArray
.impdesc e__SystemDynamic_dTC__Unit
.export e_iTasks.Internal.SDSService_dSDSProcessing
.desc e_iTasks.Internal.SDSService_dSDSProcessing _hnf _add_arg 3 0 "SDSProcessing"
.export e_iTasks.Internal.SDSService_rgEditor_s;
.record e_iTasks.Internal.SDSService_rgEditor_s; a 1 0 "gEditor_s;"
.export e_iTasks.Internal.SDSService_tgEditor_s;
.export e_iTasks.Internal.SDSService_cgEditor_s;
.descn e_iTasks.Internal.SDSService_tgEditor_s; e_iTasks.Internal.SDSService_cgEditor_s; 1 1 "gEditor_s;"
.n 1 e_iTasks.Internal.SDSService_tgEditor_s;
.o 1 0 
e_iTasks.Internal.SDSService_cgEditor_s;
	push_node _cycle_in_spine 1
	jsr_eval 0
.impmod iTasks.Internal.SDSService
.impdesc e_iTasks.Internal.SDSService_rgEditor_s;
	fill_r e_iTasks.Internal.SDSService_rgEditor_s; 1 0 1 0 0
.d 1 0 
	pop_a_rtn 1
.export e_iTasks.Internal.SDSService_rgText_s;
.record e_iTasks.Internal.SDSService_rgText_s; a 1 0 "gText_s;"
.export e_iTasks.Internal.SDSService_tgText_s;
.export e_iTasks.Internal.SDSService_cgText_s;
.descn e_iTasks.Internal.SDSService_tgText_s; e_iTasks.Internal.SDSService_cgText_s; 1 1 "gText_s;"
.n 1 e_iTasks.Internal.SDSService_tgText_s;
.o 1 0 
e_iTasks.Internal.SDSService_cgText_s;
	push_node _cycle_in_spine 1
	jsr_eval 0
.impdesc e_iTasks.Internal.SDSService_rgText_s;
	fill_r e_iTasks.Internal.SDSService_rgText_s; 1 0 1 0 0
.d 1 0 
	pop_a_rtn 1
.export e_iTasks.Internal.SDSService_rJSONEncode_s;
.record e_iTasks.Internal.SDSService_rJSONEncode_s; a 1 0 "JSONEncode_s;"
.export e_iTasks.Internal.SDSService_tJSONEncode_s;
.export e_iTasks.Internal.SDSService_cJSONEncode_s;
.descn e_iTasks.Internal.SDSService_tJSONEncode_s; e_iTasks.Internal.SDSService_cJSONEncode_s; 1 1 "JSONEncode_s;"
.n 1 e_iTasks.Internal.SDSService_tJSONEncode_s;
.o 1 0 
e_iTasks.Internal.SDSService_cJSONEncode_s;
	push_node _cycle_in_spine 1
	jsr_eval 0
.impdesc e_iTasks.Internal.SDSService_rJSONEncode_s;
	fill_r e_iTasks.Internal.SDSService_rJSONEncode_s; 1 0 1 0 0
.d 1 0 
	pop_a_rtn 1
.export e_iTasks.Internal.SDSService_rJSONDecode_s;
.record e_iTasks.Internal.SDSService_rJSONDecode_s; a 1 0 "JSONDecode_s;"
.export e_iTasks.Internal.SDSService_tJSONDecode_s;
.export e_iTasks.Internal.SDSService_cJSONDecode_s;
.descn e_iTasks.Internal.SDSService_tJSONDecode_s; e_iTasks.Internal.SDSService_cJSONDecode_s; 1 1 "JSONDecode_s;"
.n 1 e_iTasks.Internal.SDSService_tJSONDecode_s;
.o 1 0 
e_iTasks.Internal.SDSService_cJSONDecode_s;
	push_node _cycle_in_spine 1
	jsr_eval 0
.impdesc e_iTasks.Internal.SDSService_rJSONDecode_s;
	fill_r e_iTasks.Internal.SDSService_rJSONDecode_s; 1 0 1 0 0
.d 1 0 
	pop_a_rtn 1
.export e_iTasks.Internal.SDSService_rgEq_s;
.record e_iTasks.Internal.SDSService_rgEq_s; a 1 0 "gEq_s;"
.export e_iTasks.Internal.SDSService_tgEq_s;
.export e_iTasks.Internal.SDSService_cgEq_s;
.descn e_iTasks.Internal.SDSService_tgEq_s; e_iTasks.Internal.SDSService_cgEq_s; 1 1 "gEq_s;"
.n 1 e_iTasks.Internal.SDSService_tgEq_s;
.o 1 0 
e_iTasks.Internal.SDSService_cgEq_s;
	push_node _cycle_in_spine 1
	jsr_eval 0
.impdesc e_iTasks.Internal.SDSService_rgEq_s;
	fill_r e_iTasks.Internal.SDSService_rgEq_s; 1 0 1 0 0
.d 1 0 
	pop_a_rtn 1
.export e_iTasks.Internal.SDSService_sTD;SDSEvaluations
.export e_iTasks.Internal.SDSService_eaTD;SDSEvaluations
.descexp e_iTasks.Internal.SDSService_dTD;SDSEvaluations e_iTasks.Internal.SDSService_nTD;SDSEvaluations e_iTasks.Internal.SDSService_lTD;SDSEvaluations 1 0 "TD;SDSEvaluations"
.o 2 0 
e_iTasks.Internal.SDSService_lTD;SDSEvaluations
	update_a 1 0
	create 
.d 2 0 
	put_a_jmp 2 e_iTasks.Internal.SDSService_eaTD;SDSEvaluations
.n 1 e_iTasks.Internal.SDSService_dTD;SDSEvaluations e_iTasks.Internal.SDSService_eaTD;SDSEvaluations
.o 1 0 
e_iTasks.Internal.SDSService_nTD;SDSEvaluations
	push_node _cycle_in_spine 1
.o 2 0 
e_iTasks.Internal.SDSService_eaTD;SDSEvaluations
.o 2 0 
e_iTasks.Internal.SDSService_sTD;SDSEvaluations
.o 2 0 
s16
	fillh _Nil 0 1
.d 1 0 
	pop_a_rtn 1
.export e_iTasks.Internal.SDSService_ssdsServiceTask
.export e_iTasks.Internal.SDSService_easdsServiceTask
.descexp e_iTasks.Internal.SDSService_dsdsServiceTask e_iTasks.Internal.SDSService_nsdsServiceTask e_iTasks.Internal.SDSService_lsdsServiceTask 1 0 "sdsServiceTask"
.o 2 0 
e_iTasks.Internal.SDSService_lsdsServiceTask
	update_a 1 0
	create 
.d 2 0 
	put_a_jmp 2 e_iTasks.Internal.SDSService_easdsServiceTask
.n 1 e_iTasks.Internal.SDSService_dsdsServiceTask e_iTasks.Internal.SDSService_easdsServiceTask
.o 1 0 
e_iTasks.Internal.SDSService_nsdsServiceTask
	push_node _cycle_in_spine 1
.o 2 0 
e_iTasks.Internal.SDSService_easdsServiceTask
.o 2 0 
e_iTasks.Internal.SDSService_ssdsServiceTask
.o 2 0 
s1
	push_a 0
	buildh e_iTasks.Internal.SDSService_d\;34;47;571.22 1
	create 
.d 1 0 
	buildh0_put_a_jsr _Nil 3 e_Data.Map_snewMap
.o 1 0 
	buildh e__SystemDynamic_dTC_Char 0
	buildhr e__SystemDynamic_kTypeCons 1 0
	buildh e__SystemDynamic_dTC__UnboxedArray 0
	buildhr e__SystemDynamic_kTypeCons 1 0
	buildhr e__SystemDynamic_kTypeApp 2 0
	buildh e__SystemDynamic_dTC_Char 0
	buildhr e__SystemDynamic_kTypeCons 1 0
	buildh e__SystemDynamic_dTC__UnboxedArray 0
	buildhr e__SystemDynamic_kTypeCons 1 0
	buildhr e__SystemDynamic_kTypeApp 2 0
	buildh e__SystemDynamic_dTC_Bool 0
	buildhr e__SystemDynamic_kTypeCons 1 0
	buildh e__SystemDynamic_dTC__Tuple3 0
	buildhr e__SystemDynamic_kTypeCons 1 0
	buildhr e__SystemDynamic_kTypeApp 2 0
	buildhr e__SystemDynamic_kTypeApp 2 0
	buildhr e__SystemDynamic_kTypeApp 2 0
	buildh e__SystemDynamic_dTC_Int 0
	buildhr e__SystemDynamic_kTypeCons 1 0
	buildh e_Data.Map_dTD;Map 0
	buildhr e__SystemDynamic_kTypeCons 1 0
	buildhr e__SystemDynamic_kTypeApp 2 0
	buildhr e__SystemDynamic_kTypeApp 2 0
	buildh e_iTasks.Internal.SDSService_dgEq_s;584.28 0
	buildh e_iTasks.Internal.SDSService_dJSONDecode_s;583.27 0
	buildh e_iTasks.Internal.SDSService_dJSONEncode_s;581.26 0
	buildh e_iTasks.Internal.SDSService_dgText_s;579.25 0
	buildh e_iTasks.Internal.SDSService_dgEditor_s;599.34 0
	buildh e__SystemDynamic_dTC__Unit 0
	buildhr e__SystemDynamic_kTypeCons 1 0
	buildh e_Data.GenEq_dgEq__Unit;20 0
	buildh e_Text.GenJSON_dJSONDecode__Unit;53 0
	update4_a 7 8
	update4_a 3 4
	update3_a 0 1
	buildh0_dup_a e_Text.GenJSON_dJSONEncode__Unit;23 1
	buildh0_put_a e_iTasks.Internal.Generic.Visualization_dgText__Unit;18 1
	buildh e_iTasks.UI.Editor.Generic_dgEditor__Unit;13 0
.d 15 0 
	jmp e_iTasks.WF.Combinators.SDS_swithShared
.export e_iTasks.Internal.SDSService_dgEditor_s;599.34
.desc e_iTasks.Internal.SDSService_dgEditor_s;599.34 _hnf l34 1 0 "gEditor_s;599.34"
.o 2 0 
i34
.d 1 0 
	pop_a_jmp 1 s34
.ai 1 _ i34
.o 2 0 
l34
.d 1 0 
	pop_a_jsr 1 ea34
.o 4 0 
.impmod iTasks.UI.Editor
.impdesc e_iTasks.UI.Editor_rEditor
	buildhr e_iTasks.UI.Editor_rEditor 4 0
.d 1 0 
	rtn 
.o 1 0 
ea34
	jsr_eval 0
.o 1 0 
s34
	buildh e_iTasks.Internal.SDSService_dgEq_s;585.29 0
	buildh e_iTasks.Internal.SDSService_dgText_s;588.32 0
	buildh e_iTasks.Internal.SDSService_dgEditor_s;597.33 0
	buildh e_Data.GenEq_dgEq_Int;7 0
	buildh e_iTasks.Internal.Generic.Visualization_dgText_Int;12 0
	buildh e_iTasks.UI.Editor.Generic_dgEditor_Int;7 0
.d 7 0 
	jmp e_iTasks.UI.Editor.Generic_sgEditor_Map;26
.export e_iTasks.Internal.SDSService_dgEditor_s;597.33
.desc e_iTasks.Internal.SDSService_dgEditor_s;597.33 _hnf l33 1 0 "gEditor_s;597.33"
.o 2 0 
i33
.d 1 0 
	pop_a_jmp 1 s33
.ai 1 _ i33
.o 2 0 
l33
.d 1 0 
	pop_a_jsr 1 ea33
.o 4 0 
	buildhr e_iTasks.UI.Editor_rEditor 4 0
.d 1 0 
	rtn 
.o 1 0 
ea33
	jsr_eval 0
.o 1 0 
s33
	buildh e_Data.GenEq_dgEq__String;11 0
	buildh e_iTasks.Internal.Generic.Visualization_dgText__String;16 0
	buildh e_iTasks.UI.Editor.Generic_dgEditor__String;11 0
	buildh e_Data.GenEq_dgEq__String;11 0
	buildh e_iTasks.Internal.Generic.Visualization_dgText__String;16 0
	buildh e_iTasks.UI.Editor.Generic_dgEditor__String;11 0
	buildh e_Data.GenEq_dgEq_Bool;9 0
	buildh e_iTasks.Internal.Generic.Visualization_dgText_Bool;15 0
	buildh e_iTasks.UI.Editor.Generic_dgEditor_Bool;10 0
.d 10 0 
	jmp e_iTasks.UI.Editor.Generic_sgEditor__Tuple3;15
.export e_iTasks.Internal.SDSService_dgText_s;579.25
.desc e_iTasks.Internal.SDSService_dgText_s;579.25 _hnf l25 2 0 "gText_s;579.25"
.o 4 0 
i25
.d 3 0 
	pop_a_jmp 1 s25
.ai 2 ea25 i25
.o 2 0 
l25
	push_args 0 1 1
	update_a 2 1
	create 
	put_a 3
.o 3 0 
ea25
	jsr_eval 0
.o 3 0 
s25
	buildh e_iTasks.Internal.SDSService_dgText_s;588.32 0
	buildh e_iTasks.Internal.Generic.Visualization_dgText_Int;12 0
.d 5 0 
	jmp e_iTasks.Internal.Generic.Visualization_sgText_Map;33
.export e_iTasks.Internal.SDSService_dgText_s;588.32
.desc e_iTasks.Internal.SDSService_dgText_s;588.32 _hnf l32 2 0 "gText_s;588.32"
.o 4 0 
i32
.d 3 0 
	pop_a_jmp 1 s32
.ai 2 ea32 i32
.o 2 0 
l32
	push_args 0 1 1
	update_a 2 1
	create 
	put_a 3
.o 3 0 
ea32
	jsr_eval 0
.o 3 0 
s32
	buildh e_iTasks.Internal.Generic.Visualization_dgText__String;16 0
	buildh e_iTasks.Internal.Generic.Visualization_dgText__String;16 0
	buildh e_iTasks.Internal.Generic.Visualization_dgText_Bool;15 0
.d 6 0 
	jmp e_iTasks.Internal.Generic.Visualization_sgText__Tuple3;20
.export e_iTasks.Internal.SDSService_dJSONEncode_s;581.26
.desc e_iTasks.Internal.SDSService_dJSONEncode_s;581.26 _hnf l26 2 0 "JSONEncode_s;581.26"
.o 3 1 b
i26
.d 2 1 b
	pop_a_jmp 1 s26
.ai 2 ea26 i26
.o 2 0 
l26
	push_args 0 1 1
	update_a 2 1
	create 
	put_a 3
.o 3 0 
ea26
	jsr_eval 1
	jsr_eval 0
	pushB0_pop_a1 
.o 2 1 b
s26
	buildh e_iTasks.Internal.SDSService_dJSONEncode_s;587.31 0
	buildh e_Text.GenJSON_dJSONEncode_Int;12 0
.d 4 1 b
	jmp e_Data.Map.GenJSON_sJSONEncode_Map;0
.export e_iTasks.Internal.SDSService_dJSONEncode_s;587.31
.desc e_iTasks.Internal.SDSService_dJSONEncode_s;587.31 _hnf l31 2 0 "JSONEncode_s;587.31"
.o 3 1 b
i31
	pop_a 1
	push_args 0 3 3
	update3pop_a 0 1
.d 4 1 b
	jmp s31
.ai 2 ea31 i31
.o 2 0 
l31
	push_args 0 1 1
	update_a 2 1
	create 
	put_a 3
.o 3 0 
ea31
	push_jsr_eval 1
	repl_args 3 3
	jsr_eval 3
	pushB_a 3
	update3pop_a 0 2
.o 4 1 b
s31
	buildh e_Text.GenJSON_dJSONEncode__String;16 0
	buildh e_Text.GenJSON_dJSONEncode__String;16 0
	buildh e_Text.GenJSON_dJSONEncode_Bool;15 0
.d 7 1 b
	jmp e_Text.GenJSON_sJSONEncode__Tuple3;25
.export e_iTasks.Internal.SDSService_dJSONDecode_s;583.27
.desc e_iTasks.Internal.SDSService_dJSONDecode_s;583.27 _hnf l27 2 0 "JSONDecode_s;583.27"
.o 2 1 b
i27
.d 1 1 b
	pop_a_jmp 1 s27
.ai 0 a27 i27
.o 2 0 
l27
	repl_args 1 1
.o 2 0 
a27
.d 2 0 
	jsr ea27
.o 2 0 
	buildh _Tuple 2
.d 1 0 
	rtn 
.o 2 0 
ea27
	jsr_eval 1
	jsr_eval 0
	pushB0_pop_a1 
.o 1 1 b
s27
	buildh e_iTasks.Internal.SDSService_dJSONDecode_s;586.30 0
	buildh e_Text.GenJSON_dJSONDecode_Int;42 0
.d 3 1 b
	jmp e_Data.Map.GenJSON_sJSONDecode_Map;1
.export e_iTasks.Internal.SDSService_dJSONDecode_s;586.30
.desc e_iTasks.Internal.SDSService_dJSONDecode_s;586.30 _hnf l30 2 0 "JSONDecode_s;586.30"
.o 2 1 b
i30
.d 1 1 b
	pop_a_jmp 1 s30
.ai 0 a30 i30
.o 2 0 
l30
	repl_args 1 1
.o 2 0 
a30
.d 2 0 
	jsr ea30
.o 2 0 
	buildh _Tuple 2
.d 1 0 
	rtn 
.o 2 0 
ea30
	jsr_eval 1
	jsr_eval 0
	pushB0_pop_a1 
.o 1 1 b
s30
	buildh e_Text.GenJSON_dJSONDecode__String;46 0
	buildh e_Text.GenJSON_dJSONDecode__String;46 0
	buildh e_Text.GenJSON_dJSONDecode_Bool;45 0
.d 4 1 b
	jmp e_Text.GenJSON_sJSONDecode__Tuple3;55
.export e_iTasks.Internal.SDSService_dgEq_s;584.28
.desc e_iTasks.Internal.SDSService_dgEq_s;584.28 _hnf l28 2 0 "gEq_s;584.28"
.o 3 0 
i28
.d 2 0 
	pop_a_jmp 1 s28
.ai 0 a28 i28
.o 2 0 
l28
	repl_args 1 1
.o 2 0 
a28
.d 2 0 
	jsr ea28
.o 0 1 b
	buildB_b 0
.d 1 0 
	pop_b_rtn 1
.o 2 0 
ea28
	jsr_eval 1
	jsr_eval 0
.o 2 0 
s28
	buildh e_iTasks.Internal.SDSService_dgEq_s;585.29 0
	buildh e_Data.GenEq_dgEq_Int;7 0
.d 4 0 
	jmp e_Data.Map_sgEq_Map;91
.export e_iTasks.Internal.SDSService_dgEq_s;585.29
.desc e_iTasks.Internal.SDSService_dgEq_s;585.29 _hnf l29 2 0 "gEq_s;585.29"
.o 3 0 
i29
	pop_a 1
	push_args 1 3 3
	push_args 3 3 3
	update3_a 3 5
	update3pop_a 0 2
.d 6 0 
	jmp s29
.ai 0 a29 i29
.o 2 0 
l29
	repl_args 1 1
.o 2 0 
a29
.d 2 0 
	jsr ea29
.o 0 1 b
	buildB_b 0
.d 1 0 
	pop_b_rtn 1
.o 2 0 
ea29
	push_jsr_eval 1
	repl_args 3 3
	push_jsr_eval 3
	repl_args 3 3
	update3_a 3 5
	update3pop_a 0 2
.o 6 0 
s29
	buildh e_Data.GenEq_dgEq__String;11 0
	buildh e_Data.GenEq_dgEq__String;11 0
	buildh e_Data.GenEq_dgEq_Bool;9 0
.d 9 0 
	jmp e_Data.GenEq_sgEq__Tuple3;22
.export e_iTasks.Internal.SDSService_d\;34;47;571.22
.desc e_iTasks.Internal.SDSService_d\;34;47;571.22 _hnf l22 2 0 "\;34;47;571.22"
.a 2 ea22
.o 2 0 
l22
	push_args 0 1 1
	update_a 2 1
	create 
	put_a 3
.o 3 0 
ea22
.o 3 0 
s22
	buildh e_iTasks.Internal.SDSService_devalinit;572.23 2
.d 2 0 
	jmp e_iTasks.WF.Definition_sTask
.export e_iTasks.Internal.SDSService_devalinit;572.23
.desc e_iTasks.Internal.SDSService_devalinit;572.23 _hnf l23 5 0 "evalinit;572.23"
.a 0 a23
.o 2 0 
l23
	repl_args 4 4
.o 5 0 
a23
.d 5 0 
	jsr ea23
.o 2 0 
	buildh _Tuple 2
.d 1 0 
	rtn 
.o 5 0 
ea23
	jsr_eval 3
	jsr_eval 2
	push_r_args 3 1 2
	put_a 4
.o 5 2 bi
s23
	push_a 2
.d 1 0 
	pop_b_jsr 1 e_iTasks.Internal.Util_sisDestroyOrInterrupt
.o 0 1 b
	jmp_false else.1
	pop_a 4
	buildh e_iTasks.WF.Definition_dDestroyedResult 0
.d 2 0 
	pop_b_rtn 1
else.1
	push_jsr_eval 4
	buildh e_iTasks.Internal.SDSService_d\;96;27;2.2 0
	buildh e_iTasks.Internal.SDSService_donDisconnect;13.12 0
	buildh e_iTasks.Internal.SDSService_donTick;12.11 0
	buildh e_iTasks.Internal.SDSService_donShareChange;11.10 0
	push_a 8
	buildh e_iTasks.Internal.SDSService_donData;10.9 1
	buildh e_iTasks.Internal.SDSService_donConnect;9.8 0
	buildhr e_iTasks.Internal.Task_rConnectionHandlersIWorld 6 0
	buildh e_iTasks.Internal.SDS_dsdsIdentity;17 0
	buildh e_iTasks.Internal.SDS_dreadSDS;18 0
	buildhr e_iTasks.SDS.Definition_rReadable; 2 0
	buildh e_iTasks.Internal.SDS_dreadRegisterSDS;21 0
	buildhr e_iTasks.SDS.Definition_rRegistrable; 2 0
	buildh e_iTasks.Internal.SDS_dsdsIdentity;17 0
	buildh e_iTasks.Internal.SDS_dwriteSDS;19 0
	buildhr e_iTasks.SDS.Definition_rWriteable; 2 0
	buildh e_iTasks.Internal.SDS_dsdsIdentity;17 0
	buildh e_iTasks.Internal.SDS_dreadSDS;18 0
	buildhr e_iTasks.SDS.Definition_rReadable; 2 0
	buildh e_iTasks.Internal.SDS_dmodifySDS;20 0
	buildhr e_iTasks.SDS.Definition_rModifiable; 3 0
	buildh e__SystemDynamic_dTC_Char 0
	buildhr e__SystemDynamic_kTypeCons 1 0
	buildh e__SystemDynamic_dTC__UnboxedArray 0
	buildhr e__SystemDynamic_kTypeCons 1 0
	buildhr e__SystemDynamic_kTypeApp 2 0
	buildh e__SystemDynamic_dTC_Char 0
	buildhr e__SystemDynamic_kTypeCons 1 0
	buildh e__SystemDynamic_dTC__UnboxedArray 0
	buildhr e__SystemDynamic_kTypeCons 1 0
	buildhr e__SystemDynamic_kTypeApp 2 0
	buildh e__SystemDynamic_dTC_Bool 0
	buildhr e__SystemDynamic_kTypeCons 1 0
	buildh e__SystemDynamic_dTC__Tuple3 0
	buildhr e__SystemDynamic_kTypeCons 1 0
	buildhr e__SystemDynamic_kTypeApp 2 0
	buildhr e__SystemDynamic_kTypeApp 2 0
	buildhr e__SystemDynamic_kTypeApp 2 0
	buildh e__SystemDynamic_dTC_Int 0
	buildhr e__SystemDynamic_kTypeCons 1 0
	buildh e_Data.Map_dTD;Map 0
	buildhr e__SystemDynamic_kTypeCons 1 0
	buildhr e__SystemDynamic_kTypeApp 2 0
	buildhr e__SystemDynamic_kTypeApp 2 0
	buildh e__SystemDynamic_dTC_Char 0
	buildhr e__SystemDynamic_kTypeCons 1 0
	buildh e__SystemDynamic_dTC__UnboxedArray 0
	buildhr e__SystemDynamic_kTypeCons 1 0
	buildhr e__SystemDynamic_kTypeApp 2 0
	buildh e__SystemDynamic_dTC_Char 0
	buildhr e__SystemDynamic_kTypeCons 1 0
	buildh e__SystemDynamic_dTC__UnboxedArray 0
	buildhr e__SystemDynamic_kTypeCons 1 0
	buildhr e__SystemDynamic_kTypeApp 2 0
	buildh e__SystemDynamic_dTC_Bool 0
	buildhr e__SystemDynamic_kTypeCons 1 0
	buildh e__SystemDynamic_dTC__Tuple3 0
	buildhr e__SystemDynamic_kTypeCons 1 0
	buildhr e__SystemDynamic_kTypeApp 2 0
	buildhr e__SystemDynamic_kTypeApp 2 0
	buildhr e__SystemDynamic_kTypeApp 2 0
	buildh e__SystemDynamic_dTC_Int 0
	buildhr e__SystemDynamic_kTypeCons 1 0
	buildh e_Data.Map_dTD;Map 0
	buildhr e__SystemDynamic_kTypeCons 1 0
	buildhr e__SystemDynamic_kTypeApp 2 0
	buildhr e__SystemDynamic_kTypeApp 2 0
	buildh e_iTasks.Internal.SDSService_dTD;SDSServiceState 0
	buildhr e__SystemDynamic_kTypeCons 1 0
	create 
	push_update_a 1 3
	updates2_a 10 6 4
	push_update_a 3 5
	updates3_a 0 2 8 6
	pop_a 1
.d 8 0 
	buildh0_put_a_jsr _Nil 14 e_iTasks.Internal.Task_swrapIWorldConnectionTask
.o 1 0 
	push_jsr_eval 2
	pushI_a 3
	update_a 6 0
	pushB TRUE
	swap_b1 
.d 3 2 ib
	jsr e_iTasks.Internal.TaskServer_saddListener
.o 2 0 
	jmp_ne_desc e_Data.Error_dError 1 0 else.2
	update2pop_a 0 5
.d 1 0 
	pop_b_jsr 1 e_Data.Error_sfromError
.o 1 0 
	repl_args 2 2
	jsr_eval 1
	jsr_eval 0
	push_array 1
	push_r_args 1 2 0
	update3_a 0 2
	updatepop_a 5 1
	buildAC "initialization"
	buildh ARRAY 1
	updates2pop_a 0 1 5
.d 5 0 
	jmp s7
else.2
	buildh _Nil 0
	buildo1 e_iTasks.Internal.SDSService_n_f0.277 3
	buildh _Cons 2
	push_update_a 0 2
	build e_iTasks.Internal.Util_dshowWhenVerbose 2 e_iTasks.Internal.Util_nshowWhenVerbose
	buildho2 e_iTasks.Internal.SDSService_deval;574.24 4 6
	build e_iTasks.WF.Definition_dTask 1 e_iTasks.WF.Definition_nTask
	buildo1 e_iTasks.Internal.Util_nmkEmptyUI 6
	buildI_b 0
	build e_iTasks.Internal.Util_dmkTaskEvalInfo 1 e_iTasks.Internal.Util_nmkTaskEvalInfo
	buildh e__predef_d_Unit 0
	pushB FALSE
	buildhr e_iTasks.WF.Definition_kValue 1 1
	build e_iTasks.WF.Definition_dValueResult 4 e_iTasks.WF.Definition_nValueResult
	update2pop_a 0 7
.d 2 0 
	pop_b_rtn 1
.export e_iTasks.Internal.SDSService_d_f0.277
.export e_iTasks.Internal.SDSService_n_f0.277
.descn e_iTasks.Internal.SDSService_d_f0.277 e_iTasks.Internal.SDSService_n_f0.277 1 0 "_f0.277"
.n 1 e_iTasks.Internal.SDSService_d_f0.277 ea277
.o 1 0 
e_iTasks.Internal.SDSService_n_f0.277
	push_node _cycle_in_spine 1
.o 2 0 
ea277
.o 2 0 
s277
	jsr_eval 0
	pushI0_pop_a1 
.d 0 1 i
	jsr ItoAC
.o 1 0 
	buildAC "SDS server listening on "
.d 2 0 
	jsr catAC
.o 1 0 
	fillh ARRAY 1 1
.d 1 0 
	rtn 
.export e_iTasks.Internal.SDSService_deval;574.24
.desc e_iTasks.Internal.SDSService_deval;574.24 _hnf l24 5 0 "eval;574.24"
.a 0 a24
.o 2 0 
l24
	repl_args 4 4
.o 5 0 
a24
.d 5 0 
	jsr ea24
.o 2 0 
	buildh _Tuple 2
.d 1 0 
	rtn 
.o 5 0 
ea24
	jsr_eval 4
	jsr_eval 2
.o 5 0 
s24
	jmp case.3
case.3
	push_r_args_u 4 18 1
	update_a 13 17
	updatepop_a 20 16
.d 1 0 
	pop_b_jsr 1 e_iTasks.Internal.Util_sisDestroyOrInterrupt
.o 0 1 b
	jmp_false else.5
	push_a2 0 2
	build e_iTasks.Internal.SDSService_dget`;559.20 2 e_iTasks.Internal.SDSService_nget`;559.20
	push_a2 3 0
	update_a 3 2
	build e_iTasks.Internal.SDSService_d_c;54;30;609.44 3 e_iTasks.Internal.SDSService_n_c;54;30;609.44
	push_a 6
	build e_iTasks.Internal.SDSService_d_upd0.282 2 e_iTasks.Internal.SDSService_n_upd0.282
	dup_a 6
	pop_a 6
	buildh e_iTasks.WF.Definition_dDestroyedResult 0
.d 2 0 
	rtn 
else.5
	pop_a_jmp 1 case.4
case.4
	pushD_a_jmp_eqD_b2 2 e_iTasks.WF.Definition_kRefreshEvent 0 case.6 e_iTasks.WF.Definition_dResetEvent 0 case.7
	pop_b_jmp 1 case.8
case.6
	pop_b 1
	push_args 2 1 1
	buildh0_put_a _Nil 4
	jsr_eval 4
	push_r_args 4 1 2
	buildh0_dup_a _Nil 6
	updatepop_a 4 1
	pop_b 1
	jsr_eval 0
	buildh e_iTasks.WF.Definition_d<;9 0
.d 3 0 
	jsr e_Data.Set_smember
.o 0 1 b
	jmp_true else.9
	buildho2 e_iTasks.Internal.SDSService_deval;574.24 0 1
	build e_iTasks.WF.Definition_dTask 1 e_iTasks.WF.Definition_nTask
	buildh e_iTasks.UI.Definition_dNoChange 0
	buildI_b 0
	build e_iTasks.Internal.Util_dmkTaskEvalInfo 1 e_iTasks.Internal.Util_nmkTaskEvalInfo
	buildh e__predef_d_Unit 0
	pushB FALSE
	buildhr e_iTasks.WF.Definition_kValue 1 1
	build e_iTasks.WF.Definition_dValueResult 4 e_iTasks.WF.Definition_nValueResult
	updatepop_a 0 4
.d 2 0 
	pop_b_rtn 1
else.9
	buildh e_iTasks.SDS.Definition_dEmptyContext 0
	push_jsr_eval 1
	buildh e_iTasks.Internal.SDS_dsdsIdentity;17 0
	buildh e_iTasks.Internal.SDS_dreadSDS;18 0
	buildh e__SystemDynamic_dTC_Char 0
	buildhr e__SystemDynamic_kTypeCons 1 0
	buildh e__SystemDynamic_dTC__UnboxedArray 0
	buildhr e__SystemDynamic_kTypeCons 1 0
	buildhr e__SystemDynamic_kTypeApp 2 0
	buildh e__SystemDynamic_dTC_Char 0
	buildhr e__SystemDynamic_kTypeCons 1 0
	buildh e__SystemDynamic_dTC__UnboxedArray 0
	buildhr e__SystemDynamic_kTypeCons 1 0
	buildhr e__SystemDynamic_kTypeApp 2 0
	buildh e__SystemDynamic_dTC_Bool 0
	buildhr e__SystemDynamic_kTypeCons 1 0
	buildh e__SystemDynamic_dTC__Tuple3 0
	buildhr e__SystemDynamic_kTypeCons 1 0
	buildhr e__SystemDynamic_kTypeApp 2 0
	buildhr e__SystemDynamic_kTypeApp 2 0
	buildhr e__SystemDynamic_kTypeApp 2 0
	buildh e__SystemDynamic_dTC_Int 0
	buildhr e__SystemDynamic_kTypeCons 1 0
	buildh e_Data.Map_dTD;Map 0
	buildhr e__SystemDynamic_kTypeCons 1 0
	buildhr e__SystemDynamic_kTypeApp 2 0
	buildhr e__SystemDynamic_kTypeApp 2 0
	buildh e__SystemDynamic_dTC_Char 0
	buildhr e__SystemDynamic_kTypeCons 1 0
	buildh e__SystemDynamic_dTC__UnboxedArray 0
	buildhr e__SystemDynamic_kTypeCons 1 0
	buildhr e__SystemDynamic_kTypeApp 2 0
	buildh e__SystemDynamic_dTC_Char 0
	buildhr e__SystemDynamic_kTypeCons 1 0
	buildh e__SystemDynamic_dTC__UnboxedArray 0
	buildhr e__SystemDynamic_kTypeCons 1 0
	buildhr e__SystemDynamic_kTypeApp 2 0
	buildh e__SystemDynamic_dTC_Bool 0
	buildhr e__SystemDynamic_kTypeCons 1 0
	buildh e__SystemDynamic_dTC__Tuple3 0
	buildhr e__SystemDynamic_kTypeCons 1 0
	buildhr e__SystemDynamic_kTypeApp 2 0
	buildhr e__SystemDynamic_kTypeApp 2 0
	buildhr e__SystemDynamic_kTypeApp 2 0
	buildh e__SystemDynamic_dTC_Int 0
	buildhr e__SystemDynamic_kTypeCons 1 0
	buildh e_Data.Map_dTD;Map 0
	buildhr e__SystemDynamic_kTypeCons 1 0
	buildhr e__SystemDynamic_kTypeApp 2 0
	buildhr e__SystemDynamic_kTypeApp 2 0
	update_a 6 9
	updates3_a 5 7 10 8
	update2_a 3 5
	update3pop_a 0 2
.d 7 0 
	jsr e_iTasks.Internal.SDS_sread
.o 2 0 
	jmp_ne_desc e_Data.Error_dError 1 0 else.10
	update2pop_a 0 2
.d 1 0 
	jsr e_Data.Error_sfromError
.o 1 0 
	repl_args 2 2
	jsr_eval 1
	jsr_eval 0
	push_array 1
	push_r_args 1 2 0
	update3_a 0 2
	updatepop_a 5 1
	buildAC "read from share value"
	buildh ARRAY 1
	updates2pop_a 0 1 5
.d 5 0 
	pop_b_jmp 1 s7
else.10
	buildo1 e_Data.Error_nfromOk 0
	put_a 1
.d 1 0 
	jsr e_iTasks.Internal.SDS_sdirectResult
.o 1 0 
	buildh _Nil 0
	buildh e_iTasks.Internal.SDSService_d\;303;31;24.18 0
.d 3 0 
	jsr e_Data.Map_sfoldrWithKey
.o 1 0 
.d 3 0 
	push_a_jsr 3 s261
.o 2 0 
	jmp_ne_desc e_Data.Error_dError 1 0 else.11
	update2pop_a 0 2
.d 1 0 
	jsr e_Data.Error_sfromError
.o 1 0 
	buildh e_StdString_dtoString;9 0
	buildh e__SystemDynamic_dTC_Char 0
	buildhr e__SystemDynamic_kTypeCons 1 0
	buildh e__SystemDynamic_dTC__UnboxedArray 0
	buildhr e__SystemDynamic_kTypeCons 1 0
	buildhr e__SystemDynamic_kTypeApp 2 0
.d 3 0 
	jsr e_iTasks.WF.Definition_sexception
.o 3 0 
	push_a 3
	buildAC "re-evaluating share values"
	buildh ARRAY 1
	updates2pop_a 0 1 5
.d 5 0 
	pop_b_jmp 1 s7
else.11
	push_jsr_eval 1
	buildh e_iTasks.SDS.Definition_dEmptyContext 0
	push_a 2
	buildh0_dup2_a _Nil 4
.d 1 0 
	pop_a_jsr 1 e_Data.Error_sfromOk
.o 1 0 
	create 
	swap_a1 
.d 2 0 
	jsr e_Data.Map_sfromList;55
.o 1 0 
	buildh e_iTasks.Internal.SDS_dsdsIdentity;17 0
	buildh e_iTasks.Internal.SDS_dwriteSDS;19 0
	buildh e__SystemDynamic_dTC_Char 0
	buildhr e__SystemDynamic_kTypeCons 1 0
	buildh e__SystemDynamic_dTC__UnboxedArray 0
	buildhr e__SystemDynamic_kTypeCons 1 0
	buildhr e__SystemDynamic_kTypeApp 2 0
	buildh e__SystemDynamic_dTC_Char 0
	buildhr e__SystemDynamic_kTypeCons 1 0
	buildh e__SystemDynamic_dTC__UnboxedArray 0
	buildhr e__SystemDynamic_kTypeCons 1 0
	buildhr e__SystemDynamic_kTypeApp 2 0
	buildh e__SystemDynamic_dTC_Bool 0
	buildhr e__SystemDynamic_kTypeCons 1 0
	buildh e__SystemDynamic_dTC__Tuple3 0
	buildhr e__SystemDynamic_kTypeCons 1 0
	buildhr e__SystemDynamic_kTypeApp 2 0
	buildhr e__SystemDynamic_kTypeApp 2 0
	buildhr e__SystemDynamic_kTypeApp 2 0
	buildh e__SystemDynamic_dTC_Int 0
	buildhr e__SystemDynamic_kTypeCons 1 0
	buildh e_Data.Map_dTD;Map 0
	buildhr e__SystemDynamic_kTypeCons 1 0
	buildhr e__SystemDynamic_kTypeApp 2 0
	buildhr e__SystemDynamic_kTypeApp 2 0
	buildh e__SystemDynamic_dTC_Char 0
	buildhr e__SystemDynamic_kTypeCons 1 0
	buildh e__SystemDynamic_dTC__UnboxedArray 0
	buildhr e__SystemDynamic_kTypeCons 1 0
	buildhr e__SystemDynamic_kTypeApp 2 0
	buildh e__SystemDynamic_dTC_Char 0
	buildhr e__SystemDynamic_kTypeCons 1 0
	buildh e__SystemDynamic_dTC__UnboxedArray 0
	buildhr e__SystemDynamic_kTypeCons 1 0
	buildhr e__SystemDynamic_kTypeApp 2 0
	buildh e__SystemDynamic_dTC_Bool 0
	buildhr e__SystemDynamic_kTypeCons 1 0
	buildh e__SystemDynamic_dTC__Tuple3 0
	buildhr e__SystemDynamic_kTypeCons 1 0
	buildhr e__SystemDynamic_kTypeApp 2 0
	buildhr e__SystemDynamic_kTypeApp 2 0
	buildhr e__SystemDynamic_kTypeApp 2 0
	buildh e__SystemDynamic_dTC_Int 0
	buildhr e__SystemDynamic_kTypeCons 1 0
	buildh e_Data.Map_dTD;Map 0
	buildhr e__SystemDynamic_kTypeCons 1 0
	buildhr e__SystemDynamic_kTypeApp 2 0
	buildhr e__SystemDynamic_kTypeApp 2 0
	update2_a 5 7
	update_a 9 6
	update2_a 3 4
	update3pop_a 0 1
.d 8 0 
	jsr e_iTasks.Internal.SDS_swrite
.o 2 0 
	jmp_ne_desc e_Data.Error_dError 1 0 else.12
	update2pop_a 0 2
.d 1 0 
	jsr e_Data.Error_sfromError
.o 1 0 
	repl_args 2 2
	jsr_eval 1
	jsr_eval 0
	push_array 1
	push_r_args 1 2 0
	update3_a 0 2
	updatepop_a 5 1
	buildAC "writing result share values"
	buildh ARRAY 1
	updates2pop_a 0 1 5
.d 5 0 
	pop_b_jmp 1 s7
else.12
	buildho2 e_iTasks.Internal.SDSService_deval;574.24 2 3
	build e_iTasks.WF.Definition_dTask 1 e_iTasks.WF.Definition_nTask
	buildh e_iTasks.UI.Definition_dNoChange 0
	buildI_b 0
	build e_iTasks.Internal.Util_dmkTaskEvalInfo 1 e_iTasks.Internal.Util_nmkTaskEvalInfo
	buildh e__predef_d_Unit 0
	pushB FALSE
	buildhr e_iTasks.WF.Definition_kValue 1 1
	build e_iTasks.WF.Definition_dValueResult 4 e_iTasks.WF.Definition_nValueResult
	update_a 2 4
	updatepop_a 0 3
.d 2 0 
	pop_b_rtn 1
case.7
	pop_b 1
	jsr_eval 3
	push_r_args 3 1 2
	buildh0_dup_a _Nil 5
	update2_a 2 0
	pop_b 1
	buildh e_iTasks.Internal.SDSService_deval;574.24 2
	build e_iTasks.WF.Definition_dTask 1 e_iTasks.WF.Definition_nTask
	buildh e_iTasks.UI.Definition_dNoChange 0
	buildI_b 0
	build e_iTasks.Internal.Util_dmkTaskEvalInfo 1 e_iTasks.Internal.Util_nmkTaskEvalInfo
	buildh e__predef_d_Unit 0
	pushB FALSE
	buildhr e_iTasks.WF.Definition_kValue 1 1
	build e_iTasks.WF.Definition_dValueResult 4 e_iTasks.WF.Definition_nValueResult
	updatepop_a 0 4
.d 2 0 
	pop_b_rtn 1
case.8
	buildh e_iTasks.WF.Definition_dTD;Event 0
	buildhr e__SystemDynamic_kTypeCons 1 0
	push_a 3
	buildhr e__SystemDynamic_rDynamicTemp 2 0
	build e_iTasks.Internal.SDSService_d_f1.278 1 e_iTasks.Internal.SDSService_n_f1.278
	updatepop_a 0 4
.d 2 0 
	rtn 
.export e_iTasks.Internal.SDSService_d_upd0.282
.export e_iTasks.Internal.SDSService_n_upd0.282
.descn e_iTasks.Internal.SDSService_d_upd0.282 e_iTasks.Internal.SDSService_n_upd0.282 2 0 "_upd0.282"
.n 2 e_iTasks.Internal.SDSService_d_upd0.282 ea282
.o 1 0 
e_iTasks.Internal.SDSService_n_upd0.282
	push_node _cycle_in_spine 2
.o 3 0 
ea282
.o 3 0 
s282
	push_jsr_eval 1
	push_r_args 1 18 1
	update_a 18 13
	fill_r e_iTasks.Internal.IWorld_rIWorld 18 1 21 0 0
.d 1 0 
	pop_ab_rtn 21 1
.export e_iTasks.Internal.SDSService_d_f1.278
.export e_iTasks.Internal.SDSService_n_f1.278
.descn e_iTasks.Internal.SDSService_d_f1.278 e_iTasks.Internal.SDSService_n_f1.278 1 0 "_f1.278"
.n 1 e_iTasks.Internal.SDSService_d_f1.278 ea278
.o 1 0 
e_iTasks.Internal.SDSService_n_f1.278
	push_node _cycle_in_spine 1
.o 2 0 
ea278
.o 2 0 
s278
	jsr_eval 0
	push_r_args 0 2 0
	buildAC "Unknown event in sdsServiceTask"
	push_a 1
	updates3pop_a 0 1 3 2
	fill_r e_iTasks.WF.Definition_kExceptionResult 3 0 4 0 0
.d 1 0 
	pop_a_rtn 4
.export e_iTasks.Internal.SDSService_d_c;54;30;609.44
.export e_iTasks.Internal.SDSService_n_c;54;30;609.44
.descn e_iTasks.Internal.SDSService_d_c;54;30;609.44 e_iTasks.Internal.SDSService_n_c;54;30;609.44 3 0 "_c;54;30;609.44"
.n 3 e_iTasks.Internal.SDSService_d_c;54;30;609.44 ea44
.o 1 0 
e_iTasks.Internal.SDSService_n_c;54;30;609.44
	push_node _cycle_in_spine 3
.o 4 0 
ea44
	jsr_eval 0
.o 4 0 
s44
	jmp_ne_desc _Just 1 0 case.14
	repl_args 1 1
	jmp_ne_desc e_iTasks.Internal.IWorld_kIOActive 0 0 case.14
	repl_args 1 1
	push_a 0
	buildhr e_iTasks.Internal.IWorld_kIODestroyed 1 0
	push_jsr_eval 2
	update2_a 0 2
	pop_a 2
	buildh e_iTasks.WF.Definition_d<;9 0
.d 5 0 
	jmp e_Data.Map_sput
case.14
	fill_a 2 3
.d 1 0 
	pop_a_rtn 3
.export e_iTasks.Internal.SDSService_dget`;559.20
.export e_iTasks.Internal.SDSService_nget`;559.20
.descn e_iTasks.Internal.SDSService_dget`;559.20 e_iTasks.Internal.SDSService_nget`;559.20 2 0 "get`;559.20"
.n 2 e_iTasks.Internal.SDSService_dget`;559.20 ea20
.o 1 0 
e_iTasks.Internal.SDSService_nget`;559.20
	push_node _cycle_in_spine 2
.o 3 0 
ea20
.o 3 0 
s20
	jmp_ne_desc e_Data.Map_kBin 0 1 case.17
	push_r_args 1 4 1
	buildh _Nil 0
	updates2_a 5 0 6
	pop_b 1
	jsr_eval 0
	push_update_a 0 1
.d 2 0 
	jsr e_iTasks.WF.Definition_s<;9
.o 0 1 b
	jmp_false else.18
	update_a 2 5
.d 3 0 
	pop_a_jmp 4 s20
else.18
	updates2_a 4 1 2
.d 2 0 
	jsr e_iTasks.WF.Definition_s<;9
.o 0 1 b
	jmp_false else.19
	update_a 1 3
.d 3 0 
	pop_a_jmp 2 s20
else.19
	push_a 0
	fillh _Just 1 5
.d 1 0 
	pop_a_rtn 4
case.17
	fillh _None 0 2
.d 1 0 
	pop_a_rtn 2
.o 5 0 
s7
	buildh _Nil 0
	push_a2 4 1
	build e_iTasks.Internal.SDSService_d_f3.280 2 e_iTasks.Internal.SDSService_n_f3.280
	buildh _Cons 2
	push_update_a 0 5
	build e_iTasks.Internal.Util_diShowErr 2 e_iTasks.Internal.Util_niShowErr
	push_a 4
	buildh ARRAY 1
	build_r e__SystemDynamic_rDynamicTemp 2 0 3 0
	buildh _Tuple 2
	build e_iTasks.WF.Definition_dExceptionResult 1 e_iTasks.WF.Definition_nExceptionResult
	update2pop_a 0 5
.d 2 0 
	rtn 
.export e_iTasks.Internal.SDSService_d_f3.280
.export e_iTasks.Internal.SDSService_n_f3.280
.descn e_iTasks.Internal.SDSService_d_f3.280 e_iTasks.Internal.SDSService_n_f3.280 2 0 "_f3.280"
.n 2 e_iTasks.Internal.SDSService_d_f3.280 ea280
.o 1 0 
e_iTasks.Internal.SDSService_n_f3.280
	push_node _cycle_in_spine 2
.o 3 0 
ea280
.o 3 0 
s280
	push_a 1
	buildAC ": "
	update3pop_a 0 1
.d 2 0 
	jsr catAC
.o 1 0 
	push_jsr_eval 1
	push_array 0
	updates2pop_a 0 2 3
.d 2 0 
	jsr catAC
.o 1 0 
	buildAC "SDSService exception during "
.d 2 0 
	jsr catAC
.o 1 0 
	fillh ARRAY 1 1
.d 1 0 
	rtn 
.export e_iTasks.Internal.SDSService_d\;303;31;24.18
.desc e_iTasks.Internal.SDSService_d\;303;31;24.18 _hnf l18 3 0 "\;303;31;24.18"
.a 3 ea18
.o 2 0 
l18
	push_args 0 2 2
	update_a 3 2
	create 
	put_a 4
.o 4 0 
ea18
.o 4 0 
s18
	buildho2 _Tuple 0 1
	push_update_a 0 3
	fillh _Cons 2 5
.d 1 0 
	pop_a_rtn 3
.export e_iTasks.Internal.SDSService_sTD;SDSServiceState
.export e_iTasks.Internal.SDSService_eaTD;SDSServiceState
.descexp e_iTasks.Internal.SDSService_dTD;SDSServiceState e_iTasks.Internal.SDSService_nTD;SDSServiceState e_iTasks.Internal.SDSService_lTD;SDSServiceState 1 0 "TD;SDSServiceState"
.o 2 0 
e_iTasks.Internal.SDSService_lTD;SDSServiceState
	update_a 1 0
	create 
.d 2 0 
	put_a_jmp 2 e_iTasks.Internal.SDSService_eaTD;SDSServiceState
.n 1 e_iTasks.Internal.SDSService_dTD;SDSServiceState e_iTasks.Internal.SDSService_eaTD;SDSServiceState
.o 1 0 
e_iTasks.Internal.SDSService_nTD;SDSServiceState
	push_node _cycle_in_spine 1
.o 2 0 
e_iTasks.Internal.SDSService_eaTD;SDSServiceState
.o 2 0 
e_iTasks.Internal.SDSService_sTD;SDSServiceState
.o 2 0 
s15
	fillh _Nil 0 1
.d 1 0 
	pop_a_rtn 1
.export e_iTasks.Internal.SDSService_donConnect;9.8
.desc e_iTasks.Internal.SDSService_donConnect;9.8 _hnf l8 4 0 "onConnect;9.8"
.a 0 a8
.o 2 0 
l8
	repl_args 3 3
.o 4 0 
a8
.o 4 0 
ea8
	jsr_eval 3
	jsr_eval 2
	jsr_eval 1
	jsr_eval 0
	push_array 1
	pushI_a 1
	updatepop_a 0 2
	buildh _Nil 0
	buildh _None 0
	buildh _Nil 0
	buildI_b 0
	push_a 4
	buildh ARRAY 1
	buildh e_iTasks.Internal.SDSService_dSDSProcessing 3
	buildh e_Data.Error_dOk 1
	update3_a 0 2
	updatepop_a 5 1
	pop_b_pushB 1 FALSE
	buildB_b 0
	push3_a 4
	buildh _Tuple 5
	updatepop_a 0 4
.d 1 0 
	pop_b_rtn 1
.export e_iTasks.Internal.SDSService_donData;10.9
.desc e_iTasks.Internal.SDSService_donData;10.9 _hnf l9 5 0 "onData;10.9"
.a 0 a9
.o 2 0 
l9
	repl_args 4 4
.o 5 0 
a9
.d 5 0 
	jsr ea9
.o 4 1 b
	push_a 3
	buildB_b 0
	push3_a 4
	buildh _Tuple 5
	updatepop_a 0 4
.d 1 0 
	pop_b_rtn 1
.o 5 0 
ea9
	jsr_eval 4
	jsr_eval 3
	jsr_eval 2
	jsr_eval 1
	push_array 1
	put_a 2
.o 5 0 
s9
	push_args 2 3 3
	push_a 4
	buildAC "\n"
.d 2 0 
	jsr e_Text_sendsWith;6
.o 0 1 b
	jmp_true else.20
	buildh _Nil 0
	buildh _None 0
	buildh _Nil 0
	push_a 7
	buildh ARRAY 1
	buildh _Cons 2
	push_a 5
	build e_StdList_d++ 2 e_StdList_n++
	push2_a 4
	buildh e_iTasks.Internal.SDSService_dSDSProcessing 3
	buildh e_Data.Error_dOk 1
	update3pop_a 0 7
	pushB FALSE
.d 4 1 b
	rtn 
else.20
	buildh _Nil 0
	push_a 5
	buildh ARRAY 1
	buildh _Cons 2
	push_jsr_eval 3
	create 
	push_a 1
	updates3pop_a 0 1 3 2
	buildh0_dup_a _Nil 8
	put_a 6
.d 3 0 
	jsr e_StdList_s++
.o 1 0 
.d 1 0 
	jsr e_Text_sconcat;4
.o 1 0 
	push_jsr_eval 1
	push_array 0
	update_a 4 7
	update_a 10 5
	updates4_a 0 3 6 2 4
	pop_a 2
.d 4 0 
	buildh0_put_a_jsr _Nil 9 s260
.o 2 0 
	updates4_a 0 1 2 5 6
	exchange_a 4 3
.d 6 0 
	pop_a_jmp 1 s259
.o 1 0 
s5
	jmp_ne_desc _Nil 0 0 case.22
	pushI 0
.d 0 1 i
	pop_a_rtn 1
case.22
	repl_args 2 2
	jsr_eval 0
	eqC_a '\n' 0
	jmp_false case.24
	pushI 1
	pop_a 1
	jsr_eval 0
.d 1 0 
	jsr s5
.o 0 1 i
	addI
.d 0 1 i
	rtn 
case.24
	pop_a 1
	jsr_eval 0
.d 1 0 
	jmp s5
.o 3 0 
s19
	jmp_ne_desc e_Data.Map_kBin 0 1 case.26
	push_r_args 1 4 1
	buildh _Nil 0
	updates2_a 5 0 6
	pop_b 1
	jsr_eval 0
	pushI_a 5
	pop_a 1
	pushI_a 0
	swap_b1 
	jmp_geI else.27
	update_a 2 5
.d 3 0 
	pop_a_jmp 4 s19
else.27
	pushI_a 4
	pushI_a 0
	jmp_geI else.28
	update_a 3 5
.d 3 0 
	pop_a_jmp 4 s19
else.28
	push_a 1
	fillh _Just 1 7
.d 1 0 
	pop_a_rtn 6
case.26
	fillh _None 0 2
.d 1 0 
	pop_a_rtn 2
.export e_iTasks.Internal.SDSService_d\;181;48;4.4
.desc e_iTasks.Internal.SDSService_d\;181;48;4.4 _hnf l4 1 0 "\;181;48;4.4"
.o 2 0 
l4
	update_a 1 0
	create 
	put_a 2
.o 2 0 
ea4
	jsr_eval 0
	repl_r_args 4 1
.o 5 1 i
s4
	push_a2 3 0
	fill_r e_iTasks.SDS.Definition_rTaskIdAndRemoteNotifyOptions 2 0 6 0 0
.d 1 0 
	pop_ab_rtn 6 1
.export e_iTasks.Internal.SDSService_d\;278;26;21.17
.desc e_iTasks.Internal.SDSService_d\;278;26;21.17 _hnf l17 3 0 "\;278;26;21.17"
.a 3 ea17
.o 2 0 
l17
	push_args 0 2 2
	update_a 3 2
	create 
	put_a 4
.o 4 0 
ea17
.o 4 0 
s17
	push_a2 2 0
	fillh _Cons 2 5
.d 1 0 
	pop_a_rtn 3
.export e_iTasks.Internal.SDSService_donShareChange;11.10
.desc e_iTasks.Internal.SDSService_donShareChange;11.10 _hnf l10 3 0 "onShareChange;11.10"
.a 0 a10
.o 2 0 
l10
	repl_args 2 2
.o 3 0 
a10
.d 3 0 
	jsr ea10
.o 4 1 b
	push_a 3
	buildB_b 0
	push3_a 4
	buildh _Tuple 5
	updatepop_a 0 4
.d 1 0 
	pop_b_rtn 1
.o 3 0 
ea10
	jsr_eval 2
	jsr_eval 1
	jsr_eval 0
.o 3 0 
s10
	push_args 0 3 3
	updatepop_a 1 2
	create 
	push_a2 3 1
.d 3 0 
	jsr s21
.o 1 0 
	push_update_a 2 4
	updates3_a 0 2 4 5
.d 5 0 
	pop_a_jmp 1 s257
.o 3 0 
s21
	jmp_ne_desc e_Data.Map_kBin 0 1 case.30
	push_r_args 1 4 1
	buildh _Nil 0
	updates2_a 5 0 6
	pop_b 1
	jsr_eval 0
	pushI_a 5
	pop_a 1
	pushI_a 0
	swap_b1 
	jmp_geI else.31
	update_a 2 5
.d 3 0 
	pop_a_jmp 4 s21
else.31
	pushI_a 4
	pushI_a 0
	jmp_geI else.32
	update_a 3 5
.d 3 0 
	pop_a_jmp 4 s21
else.32
	push_a 1
	fillh _Just 1 7
.d 1 0 
	pop_a_rtn 6
case.30
	fillh _None 0 2
.d 1 0 
	pop_a_rtn 2
.export e_iTasks.Internal.SDSService_donTick;12.11
.desc e_iTasks.Internal.SDSService_donTick;12.11 _hnf l11 3 0 "onTick;12.11"
.a 0 a11
.o 2 0 
l11
	repl_args 2 2
.o 3 0 
a11
.o 3 0 
ea11
	jsr_eval 2
	jsr_eval 1
	jsr_eval 0
	buildh _Nil 0
	buildh _None 0
	push_a 2
	buildh e_Data.Error_dOk 1
	update3_a 0 2
	updatepop_a 5 1
	pushB FALSE
	buildB_b 0
	push3_a 4
	buildh _Tuple 5
	updatepop_a 0 4
.d 1 0 
	pop_b_rtn 1
.export e_iTasks.Internal.SDSService_donDisconnect;13.12
.desc e_iTasks.Internal.SDSService_donDisconnect;13.12 _hnf l12 3 0 "onDisconnect;13.12"
.a 0 a12
.o 2 0 
l12
	repl_args 2 2
.o 3 0 
a12
.o 3 0 
ea12
	jsr_eval 2
	jsr_eval 1
	jsr_eval 0
	push_args 0 3 3
	update_a 1 2
	updates2_a 4 1 0
	build e_Data.Map_ddel;51 2 e_Data.Map_ndel;51
	build _Justs 1 n_Justs
	push_a 2
	buildh e_Data.Error_dOk 1
	update2_a 0 3
	update_a 5 2
	buildh _Tuple 3
	updatepop_a 0 3
.d 1 0 
	rtn 
.export e_iTasks.Internal.SDSService_d\;96;27;2.2
.desc e_iTasks.Internal.SDSService_d\;96;27;2.2 _hnf l2 2 0 "\;96;27;2.2"
.a 0 a2
.o 2 0 
l2
	repl_args 1 1
.o 2 0 
a2
.o 2 0 
ea2
	buildh _Nil 0
	push_a 1
	buildh e_Data.Error_dOk 1
	push2_a 1
	updates3_a 5 2 3 4
	buildh _Tuple 3
	updatepop_a 0 3
.d 1 0 
	rtn 
.o 5 0 
s257
	jmp_ne_desc _None 0 0 case.34
	buildh _Nil 0
	buildh _None 0
	push_a 3
	buildh e_Data.Error_dOk 1
	update_a 5 7
	update3pop_a 0 4
	pushB FALSE
.d 4 1 b
	rtn 
case.34
	repl_args 1 1
	repl_args 3 3
	put_a 1
	jsr_eval 0
	pushB_a 0
	jmp_false else.35
	buildh _Nil 0
	buildAC "\n"
	buildh ARRAY 1
	push_a 3
	build e_StdString_d+++;11 2 e_StdString_n+++;11
	buildh _Cons 2
	push2_a 6
	build e_Data.Map_ddel;51 2 e_Data.Map_ndel;51
	build _Justs 1 n_Justs
	push_a 4
	buildh e_Data.Error_dOk 1
	update_a 6 8
	update3pop_a 0 5
	pushB TRUE
.d 4 1 b
	rtn 
else.35
	buildh _Nil 0
	buildh _None 0
	push_a 4
	buildh e_Data.Error_dOk 1
	update_a 6 8
	update3pop_a 0 5
	pushB FALSE
.d 4 1 b
	rtn 
.o 6 0 
s259
	jmp_ne_desc e_Data.Error_dError 1 0 case.37
	repl_args 1 1
	buildh _Nil 0
	push_a 1
	buildAC "Exception onData:"
	buildh ARRAY 1
	build e_StdString_d+++;11 2 e_StdString_n+++;11
	buildh e__SystemDynamic_dTC_Char 0
	buildhr e__SystemDynamic_kTypeCons 1 0
	buildh e__SystemDynamic_dTC__UnboxedArray 0
	buildhr e__SystemDynamic_kTypeCons 1 0
	buildhr e__SystemDynamic_kTypeApp 2 0
	build e_iTasks.Internal.SDSService_d_f4.281 2 e_iTasks.Internal.SDSService_n_f4.281
	buildh e_Data.Error_dError 1
	build e_iTasks.Internal.Distributed.Formatter_dserializeToBase64 1 e_iTasks.Internal.Distributed.Formatter_nserializeToBase64
	buildh _Cons 2
	buildh _None 0
	push_a 4
	buildh e_Data.Error_dOk 1
	update_a 4 8
	update3pop_a 0 5
	pushB TRUE
.d 4 1 b
	rtn 
case.37
	repl_args 1 1
	jsr_eval 0
	jmp_ne_desc e_Data.Either_dLeft 1 0 case.39
	repl_args 1 1
	buildh _Nil 0
	buildAC "\n"
	buildh ARRAY 1
	push_a 2
	build e_StdString_d+++;11 2 e_StdString_n+++;11
	buildh _Cons 2
	buildh _None 0
	push_a 4
	buildh e_Data.Error_dOk 1
	update_a 4 8
	update3pop_a 0 5
	pushB TRUE
.d 4 1 b
	rtn 
case.39
	repl_args 1 1
	push_r_args_u 1 18 1
	update_a 13 17
	updatepop_a 13 16
	pop_b 1
	fill2_r e_iTasks.Internal.IWorld_rIWorld 18 1 3 00000000000000100000
	push_a 2
	buildh _Nil 0
	push_a2 3 7
	buildB FALSE
	buildh _Tuple 3
	push_a2 0 7
	update_a 11 2
	build e_Data.Map_dput;47 3 e_Data.Map_nput;47
	build _Justs 1 n_Justs
	push_a 6
	buildh e_Data.Error_dOk 1
	pushB FALSE
	update_a 3 10
	update3pop_a 0 7
.d 4 1 b
	rtn 
.export e_iTasks.Internal.SDSService_d_f4.281
.export e_iTasks.Internal.SDSService_n_f4.281
.descn e_iTasks.Internal.SDSService_d_f4.281 e_iTasks.Internal.SDSService_n_f4.281 2 0 "_f4.281"
.n 2 e_iTasks.Internal.SDSService_d_f4.281 ea281
.o 1 0 
e_iTasks.Internal.SDSService_n_f4.281
	push_node _cycle_in_spine 2
.o 3 0 
ea281
.o 3 0 
s281
	push_jsr_eval 1
	buildh e_StdString_dtoString;9 0
	push_jsr_eval 2
	update3pop_a 0 2
.d 3 0 
	jsr e_iTasks.WF.Definition_sexception
.o 3 0 
	push_a 2
	buildh ARRAY 1
	build_r e__SystemDynamic_rDynamicTemp 2 0 1 0
	fillh _Tuple 2 5
.d 1 0 
	pop_a_rtn 3
.o 4 0 
s260
	push_r_args 3 18 1
	update_a 5 17
	updatepop_a 20 16
	pop_b 1
	push_arraysize CHAR 0 1
	jmp_neIi 0 else.40
	buildAC "Received empty request"
	buildh ARRAY 1
	buildh e_Data.Error_dError 1
	updatepop_a 0 4
.d 2 0 
	rtn 
else.40
	create 
.d 2 0 
	push_a_jsr 4 e_StdList_sfromString;78
.o 1 0 
.d 1 0 
	jsr s5
.o 0 1 i
	pushI 1
	jmp_geI else.41
	push_a 3
	buildh ARRAY 1
	buildAC "Received multiple requests (only one is allowed): "
	buildh ARRAY 1
	build e_StdString_d+++;11 2 e_StdString_n+++;11
	buildh e_Data.Error_dError 1
	updatepop_a 0 4
.d 2 0 
	rtn 
else.41
	push_jsr_eval 1
	push_a2 1 4
	buildh ARRAY 1
	buildh0_dup_a _Nil 7
	dup2_a 4
.d 2 0 
	pop_a_jsr 1 e_iTasks.Internal.Distributed.Formatter_sdeserializeFromBase64
.o 1 0 
	updates2_a 4 6 5
	update2pop_a 0 3
.d 4 0 
	jmp s263
.o 3 0 
s261
	buildh _Nil 0
	push_a 1
	updates3pop_a 0 1 3 2
s262
	jmp_ne_desc _Nil 0 1 case.43
	push_a 2
	buildh e_Data.Error_dOk 1
	updatepop_a 0 3
.d 2 0 
	rtn 
case.43
	push_args 1 2 2
	buildh0_put_a _Nil 4
	jsr_eval 0
	repl_args 2 2
	jsr_eval 1
	push_args 1 3 3
	buildh0_dup_a _Nil 5
	updatepop_a 10 1
	jsr_eval 0
	push_jsr_eval 2
	push_array 0
	updates2_a 3 0 1
	jsr_eval 0
	push_array 0
	updates2_a 4 6 7
	update2_a 2 4
	dup_a 3
	updatepop_a 9 2
.d 4 0 
	buildh0_put_a_jsr _Nil 11 s260
.o 2 0 
	push_jsr_eval 4
	update_a 2 9
	update_a 3 7
	dup_a 5
	update_a 1 3
	exchange_a 6 4
.d 7 0 
	pop_a_jmp 3 s275
.o 4 0 
s263
	pushD_a 0
	jmpD be e_iTasks.Internal.AsyncSDS_kSDSRegisterRequest 0 case.44 case.45
	jmpD be e_iTasks.Internal.AsyncSDS_kSDSModifyRequest 0 case.46 case.47
	jmp case.48
case.44
	pop_b 1
	repl_args 6 6
	push2_a 7
	buildhr e_iTasks.SDS.Definition_kTaskContext 1 0
	push_jsr_eval 7
	push_a 7
	push2_a 6
	push_r_args_a 9 2 0 1 1
	update_a 12 15
	update4_a 4 11
	update3_a 1 8
	updatepop_a 0 6
.d 8 0 
	jsr_i 7
.o 2 0 
.d 4 0 
	jmp s274
case.45
	pop_b 1
	repl_r_args 10 1
	update4_a 0 1
	update_a 11 0
	push_r_args 7 3 1
	push_a2 13 15
	push_a 13
	push2_a 16
	push_b 1
	buildhr e_iTasks.SDS.Definition_kRemoteTaskContext 4 1
	push2_a 11
	push2_a 10
	push_r_args_a 13 2 0 1 1
	update_a 20 22
	update3_a 16 19
	update4_a 8 15
	update3_a 5 12
	update3_a 1 8
	updates2_a 4 11 7
	updatepop_a 0 6
.d 12 1 i
	jsr_i 9
.o 2 0 
.d 7 1 i
	jmp s273
case.46
	pop_b 1
	repl_args 7 7
	push_a2 8 6
	push_a 9
	buildhr e_iTasks.SDS.Definition_kTaskContext 1 0
	push2_a 8
	push2_a 7
	push_r_args_a 10 2 0 1 1
	update4_a 11 14
	update4_a 5 10
	update_a 4 9
	update2_a 1 6
	updates2_a 3 8 5
	updatepop_a 0 4
.d 9 0 
	jsr_i 8
.o 2 0 
	push_update_a 3 4
	updates2_a 0 3 5
.d 7 0 
	pop_a_jmp 1 s272
case.47
	pop_b 1
	repl_args 7 7
	push2_a 8
	buildhr e_iTasks.SDS.Definition_kTaskContext 1 0
	push2_a 7
	push_jsr_eval 10
	push2_a 7
	push_r_args_a 10 3 0 1 1
	push_update_a 0 8
	buildh0_dup3_a _Nil 17
	put_a 16
.d 9 0 
	jsr_i 8
.o 2 0 
	update_a 7 11
	update3_a 2 8
	update2_a 5 6
	update2pop_a 0 4
.d 8 0 
	jmp s271
case.48
	pop_b 1
	repl_args 2 2
	jsr_eval 0
	push_a2 0 2
	buildh0_dup_a _Nil 7
	put_a 5
.d 2 0 
	jsr e_iTasks.WF.Definition_s==;8
.o 0 1 b
	jmp_false else.49
	updates2pop_a 1 3 4
.d 2 0 
	jmp s270
else.49
	create 
	dup_a 5
	updatepop_a 1 3
.d 3 0 
	jsr e_iTasks.Internal.TaskIO_squeueRefresh
.o 1 0 
	buildAC "Refresh queued"
	buildh ARRAY 1
	buildh e_Data.Either_dLeft 1
	buildh e_Data.Error_dOk 1
.d 2 0 
	rtn 
.o 2 0 
s270
	push_r_args 1 18 1
	update_a 6 17
	updatepop_a 18 16
	pop_b 1
	build e_iTasks.SDS.Definition_dSDSIdentity.id_hash -3 e_iTasks.SDS.Definition_nSDSIdentity.id_hash
	create 
	push_a 1
	updates3pop_a 0 1 3 2
.d 3 0 
	jsr s19
.o 1 0 
	exchange_a 2 1
.d 3 0 
	jmp s276
.o 8 0 
s271
	pushD_a 0
	jmpD ea e_iTasks.SDS.Definition_kAsyncModify 0 case.51 case.52
case.50
	pop_b 1
	repl_args 5 5
	update3pop_a 1 2
	push_r_args_a 4 3 0 2 1
	repl_r_args_a 2 0 2 1
	update4_a 1 7
	updatepop_a 0 5
.d 2 0 
	jsr_i 1
.o 3 1 i
	create 
	push_update_a 1 3
	update_a 8 4
	push_update_a 3 5
	updates2_a_pop_a 0 2 6 1
.d 6 1 i
	buildh0_put_a_jsr _Nil 9 e_iTasks.Internal.SDS_squeueNotifyEvents
.o 1 0 
	buildho2 _Tuple 1 2
	buildh e_Data.Error_dOk 1
	build e_iTasks.Internal.Distributed.Formatter_dserializeToBase64 1 e_iTasks.Internal.Distributed.Formatter_nserializeToBase64
	buildh e_Data.Either_dLeft 1
	buildh e_Data.Error_dOk 1
	update2pop_a 0 3
.d 2 0 
	rtn 
case.51
	pop_b 1
	repl_args 3 3
	push_r_args_a 0 2 0 1 1
	push_a2 10 2
	push_a 2
	push3_a 12
	update_a 9 6
	build e_iTasks.Internal.AsyncSDS_dSDSModifyRequest 7 e_iTasks.Internal.AsyncSDS_nSDSModifyRequest
	build e_iTasks.Internal.Distributed.Formatter_dserializeToBase64 1 e_iTasks.Internal.Distributed.Formatter_nserializeToBase64
	buildh e_Data.Either_dRight 1
	buildh e_Data.Error_dOk 1
	update_a 4 10
	updatepop_a 0 9
.d 2 0 
	rtn 
case.52
	pop_b 1
	repl_args 3 3
	updatepop_a 2 1
	buildh ARRAY 1
	buildh e_Data.Error_dError 1
	update_a 2 8
	updatepop_a 0 7
.d 2 0 
	rtn 
.o 7 0 
s272
	pushD_a 0
	jmpD ea e_iTasks.SDS.Definition_kAsyncWrite 0 case.54 case.55
case.53
	pop_b 1
	repl_args 3 3
	updatepop_a 1 2
	push_r_args_a 2 2 0 2 1
	update2_a 1 6
	updates2pop_a 0 4 5
.d 2 0 
	jsr_i 1
.o 3 1 i
	create 
	push_update_a 1 2
	updates2_a 5 4 3
	updates3pop_a 0 1 6 5
.d 6 1 i
	jsr e_iTasks.Internal.SDS_squeueNotifyEvents
.o 1 0 
	buildh e__predef_d_Unit 0
	buildh e_Data.Error_dOk 1
	build e_iTasks.Internal.Distributed.Formatter_dserializeToBase64 1 e_iTasks.Internal.Distributed.Formatter_nserializeToBase64
	buildh e_Data.Either_dLeft 1
	buildh e_Data.Error_dOk 1
.d 2 0 
	rtn 
case.54
	pop_b 1
	repl_args 4 4
	push_r_args_a 0 2 0 1 1
	repl_r_args_a 3 0 3 1
	push_a2 9 4
	push_a 2
	push2_a 6
	push_a 13
	update_a 16 6
	build e_iTasks.Internal.AsyncSDS_dSDSWriteRequest 7 e_iTasks.Internal.AsyncSDS_nSDSWriteRequest
	build e_iTasks.Internal.Distributed.Formatter_dserializeToBase64 1 e_iTasks.Internal.Distributed.Formatter_nserializeToBase64
	buildh e_Data.Either_dRight 1
	buildh e_Data.Error_dOk 1
	update_a 5 10
	updatepop_a 0 9
.d 2 0 
	rtn 
case.55
	pop_b 1
	repl_args 3 3
	updatepop_a 2 1
	buildh ARRAY 1
	buildh e_Data.Error_dError 1
	update_a 2 7
	updatepop_a 0 6
.d 2 0 
	rtn 
.o 7 1 i
s273
	pushD_a 0
	jmpD ea e_iTasks.SDS.Definition_kAsyncRead 0 case.57 case.58
case.56
	pop_b 1
	repl_args 3 3
	update_a 1 2
	pop_a 1
	buildh e_Data.Error_dOk 1
	build e_iTasks.Internal.Distributed.Formatter_dserializeToBase64 1 e_iTasks.Internal.Distributed.Formatter_nserializeToBase64
	buildh e_Data.Either_dLeft 1
	buildh e_Data.Error_dOk 1
	update_a 2 7
	updatepop_a 0 6
.d 2 0 
	pop_b_rtn 1
case.57
	pop_b 1
	repl_args 4 4
	push_r_args_a 0 2 0 1 1
	repl_r_args_a 3 0 2 1
	push_r_args_a 1 2 0 2 1
	buildI_b 0
	push2_a 10
	push_a 8
	push2_a 5
	push2_a 10
	push_a 15
	update_a 8 10
	update2_a 19 8
	build e_iTasks.Internal.AsyncSDS_dSDSRegisterRequest 11 e_iTasks.Internal.AsyncSDS_nSDSRegisterRequest
	build e_iTasks.Internal.Distributed.Formatter_dserializeToBase64 1 e_iTasks.Internal.Distributed.Formatter_nserializeToBase64
	buildh e_Data.Either_dRight 1
	buildh e_Data.Error_dOk 1
	update_a 5 10
	updatepop_a 0 9
.d 2 0 
	pop_b_rtn 1
case.58
	pop_b 1
	repl_args 3 3
	updatepop_a 2 1
	buildh ARRAY 1
	buildh e_Data.Error_dError 1
	update_a 2 7
	updatepop_a 0 6
.d 2 0 
	pop_b_rtn 1
.o 4 0 
s274
	pushD_a 0
	jmpD ea e_iTasks.SDS.Definition_kAsyncRead 0 case.60 case.61
case.59
	pop_b 1
	repl_args 3 3
	update_a 1 2
	pop_a 1
	buildh e_Data.Error_dOk 1
	build e_iTasks.Internal.Distributed.Formatter_dserializeToBase64 1 e_iTasks.Internal.Distributed.Formatter_nserializeToBase64
	buildh e_Data.Either_dLeft 1
	buildh e_Data.Error_dOk 1
	update_a 2 4
	updatepop_a 0 3
.d 2 0 
	rtn 
case.60
	pop_b 1
	repl_args 4 4
	push_r_args_a 0 2 0 1 1
	repl_r_args_a 3 0 2 1
	push_a2 4 0
	push2_a 5
	push_a 10
	update_a 12 5
	build e_iTasks.Internal.AsyncSDS_dSDSReadRequest 6 e_iTasks.Internal.AsyncSDS_nSDSReadRequest
	build e_iTasks.Internal.Distributed.Formatter_dserializeToBase64 1 e_iTasks.Internal.Distributed.Formatter_nserializeToBase64
	buildh e_Data.Either_dRight 1
	buildh e_Data.Error_dOk 1
	update_a 5 7
	updatepop_a 0 6
.d 2 0 
	rtn 
case.61
	pop_b 1
	repl_args 3 3
	updatepop_a 2 1
	buildh ARRAY 1
	buildh e_Data.Error_dError 1
	update_a 2 4
	updatepop_a 0 3
.d 2 0 
	rtn 
.o 7 0 
s275
	jmp_ne_desc e_Data.Error_dError 1 0 case.63
	repl_args 1 1
	push_a2 5 0
	buildAC "Exception reevaluateShares: "
	buildh ARRAY 1
	build e_StdString_d+++;11 2 e_StdString_n+++;11
	buildh e__SystemDynamic_dTC_Char 0
	buildhr e__SystemDynamic_kTypeCons 1 0
	buildh e__SystemDynamic_dTC__UnboxedArray 0
	buildhr e__SystemDynamic_kTypeCons 1 0
	buildhr e__SystemDynamic_kTypeApp 2 0
	build e_iTasks.Internal.SDSService_d_f2.279 2 e_iTasks.Internal.SDSService_n_f2.279
	buildh e_Data.Error_dError 1
	build e_iTasks.Internal.Distributed.Formatter_dserializeToBase64 1 e_iTasks.Internal.Distributed.Formatter_nserializeToBase64
	push_a 6
	buildB TRUE
	buildh _Tuple 3
	push_a 5
	buildh _Tuple 2
	buildh _Cons 2
	dup_a 6
	update2pop_a 2 4
.d 4 0 
	jmp s262
case.63
	repl_args 1 1
	jsr_eval 0
	jmp_ne_desc e_Data.Either_dLeft 1 0 case.65
	repl_args 1 1
	push_a2 5 0
	push_a 6
	buildB TRUE
	buildh _Tuple 3
	push_a 5
	buildh _Tuple 2
	buildh _Cons 2
	dup_a 6
	update2pop_a 2 4
.d 4 0 
	jmp s262
case.65
	repl_args 1 1
	push_a2 5 0
	push_a 6
	buildB FALSE
	buildh _Tuple 3
	push_a 5
	buildh _Tuple 2
	buildh _Cons 2
	dup_a 6
	update2pop_a 2 4
.d 4 0 
	jmp s262
.export e_iTasks.Internal.SDSService_d_f2.279
.export e_iTasks.Internal.SDSService_n_f2.279
.descn e_iTasks.Internal.SDSService_d_f2.279 e_iTasks.Internal.SDSService_n_f2.279 2 0 "_f2.279"
.n 2 e_iTasks.Internal.SDSService_d_f2.279 ea279
.o 1 0 
e_iTasks.Internal.SDSService_n_f2.279
	push_node _cycle_in_spine 2
.o 3 0 
ea279
.o 3 0 
s279
	push_jsr_eval 1
	buildh e_StdString_dtoString;9 0
	push_jsr_eval 2
	update3pop_a 0 2
.d 3 0 
	jsr e_iTasks.WF.Definition_sexception
.o 3 0 
	push_a 2
	buildh ARRAY 1
	build_r e__SystemDynamic_rDynamicTemp 2 0 1 0
	fillh _Tuple 2 5
.d 1 0 
	pop_a_rtn 3
.o 3 0 
s276
	jmp_ne_desc _None 0 0 case.67
	buildAC "No requests available"
	buildh ARRAY 1
	buildh e_Data.Either_dLeft 1
	buildh e_Data.Error_dOk 1
	updates2pop_a 0 2 3
.d 2 0 
	rtn 
case.67
	repl_args 1 1
	buildh _Nil 0
	buildh e_iTasks.Internal.SDSService_d\;278;26;21.17 0
.d 3 0 
	jsr e_Data.Map_sfoldrWithKey
.o 1 0 
	buildh e_iTasks.Internal.SDSService_d\;181;48;4.4 0
	create 
	push_a 1
	updates3pop_a 0 1 3 2
.d 3 0 
	jsr e_Data.List_sfmap;86
.o 1 0 
	buildh e_iTasks.SDS.Definition_d<;5 0
	create 
	push_a 1
	updates3pop_a 0 1 3 2
.d 3 0 
	jsr e_Data.Set_sfromList
.o 1 0 
	push_jsr_eval 2
	repl_r_args 3 1
	create 
	put_a 6
.d 6 1 i
	jsr e_iTasks.Internal.SDS_squeueNotifyEvents
.o 1 0 
	buildAC "Requests re-queued"
	buildh ARRAY 1
	buildh e_Data.Either_dLeft 1
	buildh e_Data.Error_dOk 1
.d 2 0 
	rtn 
