.comp 920 000011110011000
.start _nostart_
.depend "Text" "20210430140248"
.depend "_SystemArray" "20210430140248"
.depend "StdArray" "20210430140248"
.depend "StdString" "20210430140248"
.depend "StdFunctions" "20210430140248"
.depend "StdFunc" "20210430140248"
.depend "StdReal" "20210430140248"
.depend "StdChar" "20210430140248"
.depend "StdInt" "20210430140248"
.depend "StdBool" "20210430140248"
.depend "StdClass" "20210430140248"
.depend "StdList" "20210430140248"
.depend "StdOverloaded" "20210430140248"
.depend "_SystemDynamic" "20210430140248"
.depend "Text.Language" "20210430140248"
.module m_Text.Language "Text.Language" "20210430140248"
.endinfo
.impmod _system
.implab _cycle_in_spine
.implab _type_error
.implab _hnf
.impdesc e_system_dind
.implab e_system_nind e_system_eaind
.impdesc e_system_dif
.implab e_system_nif e_system_eaif
.implab e_system_sif
.impdesc e_system_dAP
.implab e_system_nAP e_system_eaAP
.implab e_system_sAP
.impdesc ARRAY
.impdesc _Nil
.impdesc _Cons
.impdesc _Conss
.implab n_Conss ea_Conss
.impdesc _Consts
.implab n_Consts ea_Consts
.impdesc _Conssts
.implab n_Conssts ea_Conssts
.impdesc _Tuple
.impdesc d_S.1
.implab n_S.1 ea_S.1
.impdesc d_S.2
.implab n_S.2 ea_S.2
.impdesc d_S.3
.implab n_S.3 ea_S.3
.impdesc d_S.4
.implab n_S.4 ea_S.4
.impdesc d_S.5
.implab n_S.5 ea_S.5
.impdesc d_S.6
.implab n_S.6 ea_S.6
.implab _driver
.impmod Text
.implab e_Text_s<+
.impmod _SystemArray
.impmod StdString
.impdesc e_StdString_dtoString;5
.impdesc e_StdString_dtoString;9
.implab e_StdString_s%;10
.implab e_StdString_s+++;11
.impmod StdFunctions
.implab e_StdFunctions_sid
.impmod StdChar
.implab e_StdChar_sisAlpha
.implab e_StdChar_s==;18
.impmod StdInt
.implab e_StdInt_s-;7
.implab e_StdInt_s==;16
.impmod StdBool
.implab e_StdBool_snot
.impmod StdList
.implab e_StdList_sisMember;52
.impmod StdOverloaded
.impdesc e_StdOverloaded_rtoString;
.export e_Text.Language_dEnglish
.desc0 e_Text.Language_dEnglish 0 "English"
.export e_Text.Language_sTD;Language
.export e_Text.Language_eaTD;Language
.descexp e_Text.Language_dTD;Language e_Text.Language_nTD;Language e_Text.Language_lTD;Language 1 0 "TD;Language"
.o 2 0 
e_Text.Language_lTD;Language
	update_a 1 0
	create 
.d 2 0 
	put_a_jmp 2 e_Text.Language_eaTD;Language
.n 1 e_Text.Language_dTD;Language e_Text.Language_eaTD;Language
.o 1 0 
e_Text.Language_nTD;Language
	push_node _cycle_in_spine 1
.o 2 0 
e_Text.Language_eaTD;Language
.o 2 0 
e_Text.Language_sTD;Language
.o 2 0 
s5
	fillh _Nil 0 1
.d 1 0 
	pop_a_rtn 1
.export e_Text.Language_spluralisen
.descexp e_Text.Language_dpluralisen e_Text.Language_npluralisen e_Text.Language_lpluralisen 3 0 "pluralisen"
.a 0 a4
.o 2 0 
e_Text.Language_lpluralisen
	repl_args 2 2
.o 3 0 
a4
.d 3 0 
	jsr ea4
.o 1 0 
	buildh ARRAY 1
.d 1 0 
	rtn 
.n 3 e_Text.Language_dpluralisen
.o 1 0 
e_Text.Language_npluralisen
	push_node _cycle_in_spine 3
.d 3 0 
	jsr ea4
.o 1 0 
	fillh ARRAY 1 1
.d 1 0 
	rtn 
.o 3 0 
ea4
	jsr_eval 2
	jsr_eval 1
	jsr_eval 0
	push_array 2
	pushI_a 2
	dup_a 3
	updatepop_a 1 2
.o 2 1 i
e_Text.Language_spluralisen
.o 2 1 i
s4
	eqI_b 1 0
.d 1 1 b
	pop_a_jsr 1 s9
.o 1 0 
	buildh ARRAY 1
	buildh e_StdString_dtoString;9 0
	buildh e_StdString_dtoString;9 0
	buildAC " "
	buildh ARRAY 1
	push_a 1
	updates3pop_a 0 1 3 2
.d 4 0 
	jsr e_Text_s<+
.o 1 0 
	buildh ARRAY 1
	buildh e_StdString_dtoString;9 0
	buildh e_StdString_dtoString;5 0
	buildI_b 0
	push_a 1
	updates3pop_a 0 1 3 2
.d 4 0 
	pop_b_jmp 1 e_Text_s<+
.export e_Text.Language_spluralise
.descexp e_Text.Language_dpluralise e_Text.Language_npluralise e_Text.Language_lpluralise 2 0 "pluralise"
.a 0 a3
.o 2 0 
e_Text.Language_lpluralise
	repl_args 1 1
.o 2 0 
a3
.d 2 0 
	jsr ea3
.o 1 0 
	buildh ARRAY 1
.d 1 0 
	rtn 
.n 2 e_Text.Language_dpluralise
.o 1 0 
e_Text.Language_npluralise
	push_node _cycle_in_spine 2
.d 2 0 
	jsr ea3
.o 1 0 
	fillh ARRAY 1 1
.d 1 0 
	rtn 
.o 2 0 
ea3
	jsr_eval 1
	jsr_eval 0
	push_array 1
	put_a 2
.o 2 0 
e_Text.Language_spluralise
.o 2 0 
s3
	buildo1 e_Text.Language_n_f0.12 1
	push_arraysize_a CHAR 0 1 2
	decI
	push_a 2
	select CHAR 0 1
	jmp_neC_b 'y' 0 else.1
	jsr_eval 0
	pushC_a 0
	buildh e_Text.Language_dEnglish 0
	push_b 0
	updatepop_a 0 2
.d 1 1 c
	jsr s2
.o 0 1 b
	jmp_false else.3
	buildh _Nil 0
	push_a 0
	pop_b_jmp 1 then.1
else.3
	eqC_b 'u' 0
	buildh _Nil 0
	push_a 0
	put_b 1
	jmp_false else.1
then.1
	updatepop_a 2 1
	pop_b 1
	push_arraysize CHAR 0 1
	pushI 2
	push_b 1
	subI
	put_b 1
	pushI 0
.d 1 2 ii
	push_a_jsr 0 sliceAC
.o 1 0 
	buildAC "ies"
	put_a 2
.d 2 0 
	jsr catAC
.o 1 0 
.d 1 0 
	rtn 
else.1
	buildAC "s"
	updates2_a 0 3 2
	pop_b 1
.d 2 0 
	pop_a_jsr 2 catAC
.o 1 0 
.d 1 0 
	rtn 
.export e_Text.Language_d_f0.12
.export e_Text.Language_n_f0.12
.descn e_Text.Language_d_f0.12 e_Text.Language_n_f0.12 1 0 "_f0.12"
.n 1 e_Text.Language_d_f0.12 ea12
.o 1 0 
e_Text.Language_n_f0.12
	push_node _cycle_in_spine 1
.o 2 0 
ea12
.o 2 0 
s12
	push_arraysize_a CHAR 0 1 0
	pushI 2
	push_b 1
	subI
	put_b 1
	select CHAR 0 1
	fillC_b 0 0
.d 1 0 
	pop_b_rtn 1
.export e_Text.Language_sisConsonant
.descexp e_Text.Language_disConsonant e_Text.Language_nisConsonant e_Text.Language_lisConsonant 2 0 "isConsonant"
.a 0 a2
.o 2 0 
e_Text.Language_lisConsonant
	repl_args 1 1
.o 2 0 
a2
.d 2 0 
	jsr ea2
.o 0 1 b
	buildB_b 0
.d 1 0 
	pop_b_rtn 1
.n 2 e_Text.Language_disConsonant
.o 1 0 
e_Text.Language_nisConsonant
	push_node _cycle_in_spine 2
.d 2 0 
	jsr ea2
.o 0 1 b
	fillB_b 0 0
.d 1 0 
	pop_b_rtn 1
.o 2 0 
ea2
	jsr_eval 1
	jsr_eval 0
	pushC_a 1
	put_a 1
.o 1 1 c
e_Text.Language_sisConsonant
.o 1 1 c
s2
.d 0 1 c
	push_b_jsr 0 e_StdChar_sisAlpha
.o 0 1 b
	jmp_false else.4
.d 1 1 c
	jsr s1
.o 0 1 b
	notB
.d 0 1 b
	rtn 
else.4
	pop_b_pushB 1 FALSE
.d 0 1 b
	pop_a_rtn 1
.export e_Text.Language_sisVowel
.descexp e_Text.Language_disVowel e_Text.Language_nisVowel e_Text.Language_lisVowel 2 0 "isVowel"
.a 0 a1
.o 2 0 
e_Text.Language_lisVowel
	repl_args 1 1
.o 2 0 
a1
.d 2 0 
	jsr ea1
.o 0 1 b
	buildB_b 0
.d 1 0 
	pop_b_rtn 1
.n 2 e_Text.Language_disVowel
.o 1 0 
e_Text.Language_nisVowel
	push_node _cycle_in_spine 2
.d 2 0 
	jsr ea1
.o 0 1 b
	fillB_b 0 0
.d 1 0 
	pop_b_rtn 1
.o 2 0 
ea1
	jsr_eval 1
	jsr_eval 0
	pushC_a 1
	put_a 1
.o 1 1 c
e_Text.Language_sisVowel
.o 1 1 c
s1
	buildh _Nil 0
	buildC 'u'
	buildh _Cons 2
	buildC 'o'
	buildh _Cons 2
	buildC 'i'
	buildh _Cons 2
	buildC 'e'
	buildh _Cons 2
	buildC 'a'
	buildh _Cons 2
	buildC_b 0
	update2pop_a 0 1
.d 2 0 
	pop_b_jmp 1 e_StdList_sisMember;52
.o 1 1 b
s9
	eqB_b TRUE 0
	jmp_false case.6
	push_a 0
	buildh ARRAY 1
	put_a 1
.d 1 0 
	pop_b_jsr 1 e_StdFunctions_sid
.o 1 0 
	push_array 0
	put_a 1
.d 1 0 
	rtn 
case.6
	buildh e_Text.Language_dEnglish 0
.d 2 0 
	pop_b_jmp 1 s3
