.comp 920 000011110011000
.start _nostart_
.depend "System._Pointer" "20210613122637"
.depend "System._WinBase" "20210613122637"
.depend "System._WinDef" "20210613122637"
.depend "Text" "20210613122637"
.depend "Data.Func" "20210613122637"
.depend "StdCharList" "20210613122638"
.depend "_SystemArray" "20210613122638"
.depend "StdArray" "20210613122638"
.depend "StdEnv" "20210613122638"
.depend "_SystemEnum" "20210613122638"
.depend "StdEnum" "20210613122638"
.depend "StdTuple" "20210613122638"
.depend "StdOrdList" "20210613122638"
.depend "Control.Monad.Trans" "20210613122637"
.depend "StdMaybe" "20210613122638"
.depend "Data.Maybe" "20210613122637"
.depend "iTasks.Internal.TaskIO" "20210613122637"
.depend "System._Signal" "20210613122637"
.depend "System.Signal" "20210613122637"
.depend "_SystemStrictMaybes" "20210613122638"
.depend "Text.GenPrint" "20210613122637"
.depend "iTasks.Extensions.DateTime" "20210613122637"
.depend "iTasks.Internal.TaskServer" "20210613122637"
.depend "AsyncIO" "20210613122637"
.depend "System.Process" "20210613122637"
.depend "System.OS" "20210613122637"
.depend "TCPStringChannelsInternal" "20210613122630"
.depend "TCPStringChannels" "20210613122630"
.depend "TCPEvent" "20210613122630"
.depend "tcp_bytestreams" "20210613122630"
.depend "TCPDef" "20210613122630"
.depend "TCPChannels" "20210613122630"
.depend "TCPIP" "20210613122630"
.depend "iTasks.WF.Tasks.IO" "20210613122637"
.depend "Data.IntMap.Base" "20210613122637"
.depend "Data.IntMap.Strict" "20210613122637"
.depend "Data.CircularStack" "20210613122637"
.depend "iTasks.Extensions.Document" "20210613122637"
.depend "System.File" "20210613122637"
.depend "iTasks.Util.DeferredJSON" "20210613122637"
.depend "iTasks.UI.Layout" "20210613122637"
.depend "iTasks.Internal.TaskState" "20210613122637"
.depend "iTasks.Internal.SDS" "20210613122637"
.depend "Data.GenHash" "20210613122637"
.depend "Data.Maybe.Ord" "20210613122637"
.depend "Control.GenBimap" "20210613122637"
.depend "ABC.Interpreter.JavaScript" "20210613122638"
.depend "ABC.Interpreter" "20210613122638"
.depend "iTasks.UI.Editor" "20210613122637"
.depend "iTasks.UI.Editor.Generic" "20210613122637"
.depend "iTasks.Internal.Generic.Defaults" "20210613122637"
.depend "Data.GenDefault" "20210613122637"
.depend "Data.Integer" "20210613122637"
.depend "Text.HTML" "20210613122638"
.depend "iTasks.Internal.Generic.Visualization" "20210613122637"
.depend "iTasks.SDS.Definition" "20210613122637"
.depend "iTasks.WF.Combinators.Core" "20210613122637"
.depend "iTasks.Internal.TaskEval" "20210613122637"
.depend "iTasks.WF.Definition" "20210613122637"
.depend "iTasks.Internal.Task" "20210613122637"
.depend "iTasks.UI.Definition" "20210613122637"
.depend "Text.GenJSON" "20210613122637"
.depend "Data.Bifunctor" "20210613122637"
.depend "Data.Either" "20210613122637"
.depend "Data.Queue" "20210613122637"
.depend "StdFile" "20210613122638"
.depend "symbols_in_program" "20210613122637"
.depend "iTasks.Internal.IWorld" "20210613122637"
.depend "iTasks.Internal.WebService" "20210613122637"
.depend "tcp" "20210613122630"
.depend "TCPChannelClass" "20210613122630"
.depend "System._Time" "20210613122637"
.depend "System.Time" "20210613122637"
.depend "System.GetOpt" "20210613122637"
.depend "System.OSError" "20210613122637"
.depend "System.FilePath" "20210613122637"
.depend "StdString" "20210613122638"
.depend "Internet.HTTP" "20210613122637"
.depend "Control.Monad.Fail" "20210613122637"
.depend "Data.Traversable" "20210613122637"
.depend "StdMisc" "20210613122638"
.depend "StdOverloadedList" "20210613122638"
.depend "Data.List" "20210613122637"
.depend "Data.Foldable" "20210613122637"
.depend "Data.Set" "20210613122637"
.depend "Data.GenLexOrd" "20210613122637"
.depend "StdFunctions" "20210613122638"
.depend "StdFunc" "20210613122638"
.depend "Data.Map" "20210613122637"
.depend "_SystemEnumStrict" "20210613122638"
.depend "_SystemStrictLists" "20210613122638"
.depend "StdStrictLists" "20210613122638"
.depend "StdGeneric" "20210613122638"
.depend "Data.GenEq" "20210613122637"
.depend "StdReal" "20210613122638"
.depend "StdChar" "20210613122638"
.depend "StdInt" "20210613122638"
.depend "StdBool" "20210613122638"
.depend "StdClass" "20210613122638"
.depend "StdList" "20210613122638"
.depend "Data.Monoid" "20210613122637"
.depend "Control.Applicative" "20210613122637"
.depend "Control.Monad" "20210613122637"
.depend "Data.Functor" "20210613122637"
.depend "Data.Error" "20210613122637"
.depend "iTasks.Engine" "20210613122637"
.depend "StdOverloaded" "20210613122638"
.depend "_SystemDynamic" "20210613122638"
.depend "System._Process" "20210613122637"
.impobj "systemprocess.o"
.module m_System._Process "System._Process" "20210613122637"
.endinfo
.impmod _system
.implab _cycle_in_spine
.implab _type_error
.implab _hnf
.impdesc e_system_dind
.implab e_system_nind e_system_eaind
.impdesc e_system_dif
.implab e_system_nif e_system_eaif
.implab e_system_sif
.impdesc e_system_dAP
.implab e_system_nAP e_system_eaAP
.implab e_system_sAP
.impdesc ARRAY
.impdesc _Nil
.impdesc _Cons
.impdesc _Conss
.implab n_Conss ea_Conss
.impdesc _Consts
.implab n_Consts ea_Consts
.impdesc _Conssts
.implab n_Conssts ea_Conssts
.impdesc _Tuple
.impdesc d_S.1
.implab n_S.1 ea_S.1
.impdesc d_S.2
.implab n_S.2 ea_S.2
.impdesc d_S.3
.implab n_S.3 ea_S.3
.impdesc d_S.4
.implab n_S.4 ea_S.4
.impdesc d_S.5
.implab n_S.5 ea_S.5
.impdesc d_S.6
.implab n_S.6 ea_S.6
.implab _driver
.impmod System._Pointer
.implab e_System._Pointer_sreadIntP
.implab e_System._Pointer_sderefCharArray
.implab e_System._Pointer_spackString
.implab e_System._Pointer_sreadP
.impmod System._WinBase
.implab e_System._WinBase_scloseHandle
.implab e_System._WinBase_ssetHandleInformation
.implab e_System._WinBase_sreadFile
.implab e_System._WinBase_swriteFile
.implab e_System._WinBase_screateProcessA
.implab e_System._WinBase_screateProcessA_dir
.implab e_System._WinBase_sterminateProcess
.implab e_System._WinBase_sgetExitCodeProcess
.implab e_System._WinBase_sgetLastError
.implab e_System._WinBase_swaitForSingleObject
.implab e_System._WinBase_swaitForMultipleObjects
.implab e_System._WinBase_sgetProcessHeap
.implab e_System._WinBase_sheapAlloc
.implab e_System._WinBase_sheapFree
.implab e_System._WinBase_sCreateThread
.implab e_System._WinBase_sTerminateThread
.implab e_System._WinBase_screatePipe
.implab e_System._WinBase_speekNamedPipe
.impmod Text
.implab e_Text_sconcat3
.implab e_Text_sindexOf;7
.impmod Data.Func
.implab e_Data.Func_sseqSt
.implab e_Data.Func_smapSt
.impmod _SystemArray
.impdesc e__SystemArray_dselect;11
.implab e__SystemArray_nselect;11
.impmod Text.GenJSON
.implab e_Text.GenJSON_sJSONEncode_Int;12
.implab e_Text.GenJSON_sJSONDecode_Int;42
.impmod System.OSError
.implab e_System.OSError_sgetLastOSError
.impmod StdString
.implab e_StdString_stoString;5
.implab e_StdString_s+++;11
.impmod StdMisc
.implab e_StdMisc_sabort
.impmod StdChar
.implab e_StdChar_s==;18
.impmod StdInt
.implab e_StdInt_sbitor
.impdesc e_StdInt_dbitand
.implab e_StdInt_sbitand
.implab e_StdInt_nbitand
.implab e_StdInt_s<<
.impdesc e_StdInt_d+;6
.implab e_StdInt_s+;6
.implab e_StdInt_n+;6
.implab e_StdInt_s-;7
.implab e_StdInt_s*;9
.implab e_StdInt_sone;11
.implab e_StdInt_s==;16
.implab e_StdInt_s<;17
.impmod StdBool
.implab e_StdBool_snot
.impmod StdList
.implab e_StdList_smap
.impmod System.Process
.impdesc e_System.Process_rProcessIO
.impdesc e_System.Process_tProcessIO
.implab e_System.Process_cProcessIO
.impmod Data.Error
.impdesc e_Data.Error_dOk
.export e_System._Process_rProcessHandle
.record e_System._Process_rProcessHandle ii 0 2 "ProcessHandle"
.descexp e_System._Process_tProcessHandle e_System._Process_cProcessHandle _hnf 2 1 "ProcessHandle"
.n 2 e_System._Process_tProcessHandle
.o 1 0
e_System._Process_cProcessHandle
	push_node _cycle_in_spine 2
	jsr_eval 1
	jsr_eval 0
	pushI_a 1
	pushI_a 0
	pop_a 2
.impmod System._Process
.impdesc e_System._Process_rProcessHandle
	fill_r e_System._Process_rProcessHandle 0 2 0 0 0
	pop_b 2
.d 1 0
	rtn
.export e_System._Process_dProcessHandle.processHandle
.export e_System._Process_nProcessHandle.processHandle
.descs e_System._Process_dProcessHandle.processHandle e_System._Process_nProcessHandle.processHandle INT 1 0 "ProcessHandle.processHandle"
.n -3 e_System._Process_dProcessHandle.processHandle
.o 1 0
e_System._Process_nProcessHandle.processHandle
	push_node _cycle_in_spine 1
	jsr_eval 0
	push_r_args_b 0 0 2 1 1
	pop_a 1
	fillI_b 0 0
	pop_b 1
.d 1 0
	rtn
.export e_System._Process_dProcessHandle.threadHandle
.export e_System._Process_nProcessHandle.threadHandle
.descs e_System._Process_dProcessHandle.threadHandle e_System._Process_nProcessHandle.threadHandle INT 2 0 "ProcessHandle.threadHandle"
.n -3 e_System._Process_dProcessHandle.threadHandle
.o 1 0
e_System._Process_nProcessHandle.threadHandle
	push_node _cycle_in_spine 1
	jsr_eval 0
	push_r_args_b 0 0 2 2 1
	pop_a 1
	fillI_b 0 0
	pop_b 1
.d 1 0
	rtn
.export e_System._Process_sTD;ReadPipe
.export e_System._Process_eaTD;ReadPipe
.descexp e_System._Process_dTD;ReadPipe e_System._Process_nTD;ReadPipe e_System._Process_lTD;ReadPipe 1 0 "TD;ReadPipe"
.o 2 0
e_System._Process_lTD;ReadPipe
	update_a 1 0
	create
	update_a 0 2
	pop_a 1
.d 2 0
	jmp e_System._Process_eaTD;ReadPipe
.n 1 e_System._Process_dTD;ReadPipe e_System._Process_eaTD;ReadPipe
.o 1 0
e_System._Process_nTD;ReadPipe
	push_node _cycle_in_spine 1
.o 2 0
e_System._Process_eaTD;ReadPipe
.o 2 0
e_System._Process_sTD;ReadPipe
.o 2 0
s25
	fillh _Nil 0 1
	pop_a 1
.d 1 0
	rtn
.export e_System._Process_sTD;WritePipe
.export e_System._Process_eaTD;WritePipe
.descexp e_System._Process_dTD;WritePipe e_System._Process_nTD;WritePipe e_System._Process_lTD;WritePipe 1 0 "TD;WritePipe"
.o 2 0
e_System._Process_lTD;WritePipe
	update_a 1 0
	create
	update_a 0 2
	pop_a 1
.d 2 0
	jmp e_System._Process_eaTD;WritePipe
.n 1 e_System._Process_dTD;WritePipe e_System._Process_eaTD;WritePipe
.o 1 0
e_System._Process_nTD;WritePipe
	push_node _cycle_in_spine 1
.o 2 0
e_System._Process_eaTD;WritePipe
.o 2 0
e_System._Process_sTD;WritePipe
.o 2 0
s24
	fillh _Nil 0 1
	pop_a 1
.d 1 0
	rtn
.export e_System._Process_sTD;ProcessHandle
.export e_System._Process_eaTD;ProcessHandle
.descexp e_System._Process_dTD;ProcessHandle e_System._Process_nTD;ProcessHandle e_System._Process_lTD;ProcessHandle 1 0 "TD;ProcessHandle"
.o 2 0
e_System._Process_lTD;ProcessHandle
	update_a 1 0
	create
	update_a 0 2
	pop_a 1
.d 2 0
	jmp e_System._Process_eaTD;ProcessHandle
.n 1 e_System._Process_dTD;ProcessHandle e_System._Process_eaTD;ProcessHandle
.o 1 0
e_System._Process_nTD;ProcessHandle
	push_node _cycle_in_spine 1
.o 2 0
e_System._Process_eaTD;ProcessHandle
.o 2 0
e_System._Process_sTD;ProcessHandle
.o 2 0
s23
	fillh _Nil 0 1
	pop_a 1
.d 1 0
	rtn
.export e_System._Process_sJSONDecode_ReadPipe;21
.descexp e_System._Process_dJSONDecode_ReadPipe;21 e_System._Process_nJSONDecode_ReadPipe;21 e_System._Process_lJSONDecode_ReadPipe;21 2 0 "JSONDecode_ReadPipe;21"
.o 2 1 b
e_System._Process_iJSONDecode_ReadPipe;21
	pop_a 1
.d 1 1 b
	jmp s22
.ai 0 a22 e_System._Process_iJSONDecode_ReadPipe;21
.o 2 0
e_System._Process_lJSONDecode_ReadPipe;21
	repl_args 1 1
.o 2 0
a22
.d 2 0
	jsr ea22
.o 2 0
	push_a 1
	push_a 1
	buildh _Tuple 2
	updatepop_a 0 2
.d 1 0
	rtn
.n 2 e_System._Process_dJSONDecode_ReadPipe;21
.o 1 0
e_System._Process_nJSONDecode_ReadPipe;21
	push_node _cycle_in_spine 2
.d 2 0
	jsr ea22
.o 2 0
	push_a 1
	push_a 1
	fillh _Tuple 2 4
	pop_a 2
.d 1 0
	rtn
.o 2 0
ea22
	jsr_eval 1
	jsr_eval 0
	pushB_a 0
	pop_a 1
.o 1 1 b
e_System._Process_sJSONDecode_ReadPipe;21
.o 1 1 b
s22
	push_a 0
	push_b 0
	updatepop_b 0 1
	updatepop_a 0 1
.d 1 1 b
	jsr s62
.o 2 0
.d 2 0
	jmp s299
.o 2 0
s50
	eq_desc _Just 1 0
	jmp_true case.1
	jmp case.2
case.1
	repl_args 1 1
	pushI_a 0
	pop_a 1
.d 0 1 i
	jsr s44
.o 0 1 i
	buildI_b 0
	pop_b 1
	fillh _Just 1 1
.d 1 0
	rtn
case.2
	fillh _Nothing 0 1
	pop_a 1
.d 1 0
	rtn
.o 0 1 i
s44
.d 0 1 i
	rtn
.export e_System._Process_sJSONDecode_WritePipe;20
.descexp e_System._Process_dJSONDecode_WritePipe;20 e_System._Process_nJSONDecode_WritePipe;20 e_System._Process_lJSONDecode_WritePipe;20 2 0 "JSONDecode_WritePipe;20"
.o 2 1 b
e_System._Process_iJSONDecode_WritePipe;20
	pop_a 1
.d 1 1 b
	jmp s21
.ai 0 a21 e_System._Process_iJSONDecode_WritePipe;20
.o 2 0
e_System._Process_lJSONDecode_WritePipe;20
	repl_args 1 1
.o 2 0
a21
.d 2 0
	jsr ea21
.o 2 0
	push_a 1
	push_a 1
	buildh _Tuple 2
	updatepop_a 0 2
.d 1 0
	rtn
.n 2 e_System._Process_dJSONDecode_WritePipe;20
.o 1 0
e_System._Process_nJSONDecode_WritePipe;20
	push_node _cycle_in_spine 2
.d 2 0
	jsr ea21
.o 2 0
	push_a 1
	push_a 1
	fillh _Tuple 2 4
	pop_a 2
.d 1 0
	rtn
.o 2 0
ea21
	jsr_eval 1
	jsr_eval 0
	pushB_a 0
	pop_a 1
.o 1 1 b
e_System._Process_sJSONDecode_WritePipe;20
.o 1 1 b
s21
	push_a 0
	push_b 0
	updatepop_b 0 1
	updatepop_a 0 1
.d 1 1 b
	jsr s62
.o 2 0
.d 2 0
	jmp s298
.o 1 1 b
s62
	push_a 0
	pushB FALSE
	updatepop_b 0 1
.d 1 1 b
	jsr e_Text.GenJSON_sJSONDecode_Int;42
.o 2 0
	push_a 2
	push_a 2
	update_a 1 3
	update_a 2 1
	update_a 0 2
	pop_a 1
	update_a 2 3
	update_a 1 2
	updatepop_a 0 1
.d 3 0
	jmp s297
.o 2 0
s48
	eq_desc _Just 1 0
	jmp_true case.3
	jmp case.4
case.3
	repl_args 1 1
	pushI_a 0
	pop_a 1
.d 0 1 i
	jsr s42
.o 0 1 i
	buildI_b 0
	pop_b 1
	fillh _Just 1 1
.d 1 0
	rtn
case.4
	fillh _Nothing 0 1
	pop_a 1
.d 1 0
	rtn
.o 0 1 i
s42
.d 0 1 i
	rtn
.export e_System._Process_sJSONEncode_ReadPipe;19
.export e_System._Process_eaJSONEncode_ReadPipe;19
.descexp e_System._Process_dJSONEncode_ReadPipe;19 e_System._Process_nJSONEncode_ReadPipe;19 e_System._Process_lJSONEncode_ReadPipe;19 2 0 "JSONEncode_ReadPipe;19"
.o 3 1 b
e_System._Process_iJSONEncode_ReadPipe;19
	pop_a 1
	pushI_a 0
	pop_a 1
	push_b 1
	update_b 1 2
	update_b 0 1
	pop_b 1
.d 1 2 bi
	jmp s20
.ai 2 e_System._Process_eaJSONEncode_ReadPipe;19 e_System._Process_iJSONEncode_ReadPipe;19
.o 2 0
e_System._Process_lJSONEncode_ReadPipe;19
	push_args 0 1 1
	update_a 2 1
	create
	update_a 0 3
	pop_a 1
.d 3 0
	jmp e_System._Process_eaJSONEncode_ReadPipe;19
.n 2 e_System._Process_dJSONEncode_ReadPipe;19 e_System._Process_eaJSONEncode_ReadPipe;19
.o 1 0
e_System._Process_nJSONEncode_ReadPipe;19
	push_node _cycle_in_spine 2
.o 3 0
e_System._Process_eaJSONEncode_ReadPipe;19
	jsr_eval 1
	jsr_eval 0
	pushI_a 1
	pushB_a 0
	pop_a 2
.o 1 2 bi
e_System._Process_sJSONEncode_ReadPipe;19
.o 1 2 bi
s20
	push_b 1
.d 0 1 i
	jsr s45
.o 0 1 i
	push_b 1
	update_b 1 3
	updatepop_b 0 2
.d 1 2 bi
	jmp s61
.o 0 1 i
s45
.d 0 1 i
	rtn
.export e_System._Process_sJSONEncode_WritePipe;18
.export e_System._Process_eaJSONEncode_WritePipe;18
.descexp e_System._Process_dJSONEncode_WritePipe;18 e_System._Process_nJSONEncode_WritePipe;18 e_System._Process_lJSONEncode_WritePipe;18 2 0 "JSONEncode_WritePipe;18"
.o 3 1 b
e_System._Process_iJSONEncode_WritePipe;18
	pop_a 1
	pushI_a 0
	pop_a 1
	push_b 1
	update_b 1 2
	update_b 0 1
	pop_b 1
.d 1 2 bi
	jmp s19
.ai 2 e_System._Process_eaJSONEncode_WritePipe;18 e_System._Process_iJSONEncode_WritePipe;18
.o 2 0
e_System._Process_lJSONEncode_WritePipe;18
	push_args 0 1 1
	update_a 2 1
	create
	update_a 0 3
	pop_a 1
.d 3 0
	jmp e_System._Process_eaJSONEncode_WritePipe;18
.n 2 e_System._Process_dJSONEncode_WritePipe;18 e_System._Process_eaJSONEncode_WritePipe;18
.o 1 0
e_System._Process_nJSONEncode_WritePipe;18
	push_node _cycle_in_spine 2
.o 3 0
e_System._Process_eaJSONEncode_WritePipe;18
	jsr_eval 1
	jsr_eval 0
	pushI_a 1
	pushB_a 0
	pop_a 2
.o 1 2 bi
e_System._Process_sJSONEncode_WritePipe;18
.o 1 2 bi
s19
	push_b 1
.d 0 1 i
	jsr s43
.o 0 1 i
	push_b 1
	update_b 1 3
	updatepop_b 0 2
.d 1 2 bi
	jmp s61
.o 1 2 bi
s61
	push_b 1
	pushB FALSE
	update_b 1 3
	updatepop_b 0 2
.d 1 2 bi
	jmp e_Text.GenJSON_sJSONEncode_Int;12
.o 0 1 i
s43
.d 0 1 i
	rtn
.export e_System._Process_sclosePipe;17
.descexp e_System._Process_dclosePipe;17 e_System._Process_nclosePipe;17 e_System._Process_lclosePipe;17 2 0 "closePipe;17"
.o 3 0
e_System._Process_iclosePipe;17
	pop_a 1
	pushI_a 0
	pop_a 1
.d 1 1 i
	jmp s18
.ai 0 a18 e_System._Process_iclosePipe;17
.o 2 0
e_System._Process_lclosePipe;17
	repl_args 1 1
.o 2 0
a18
.d 2 0
	jsr ea18
.o 2 0
	push_a 1
	push_a 1
	buildh _Tuple 2
	updatepop_a 0 2
.d 1 0
	rtn
.n 2 e_System._Process_dclosePipe;17
.o 1 0
e_System._Process_nclosePipe;17
	push_node _cycle_in_spine 2
.d 2 0
	jsr ea18
.o 2 0
	push_a 1
	push_a 1
	fillh _Tuple 2 4
	pop_a 2
.d 1 0
	rtn
.o 2 0
ea18
	jsr_eval 1
	jsr_eval 0
	pushI_a 0
	pop_a 1
.o 1 1 i
e_System._Process_sclosePipe;17
.o 1 1 i
s18
	push_a 0
	push_b 0
	updatepop_a 0 1
	updatepop_b 0 1
.d 1 1 i
	jmp s26
.export e_System._Process_sclosePipe;16
.descexp e_System._Process_dclosePipe;16 e_System._Process_nclosePipe;16 e_System._Process_lclosePipe;16 2 0 "closePipe;16"
.o 3 0
e_System._Process_iclosePipe;16
	pop_a 1
	pushI_a 0
	pop_a 1
.d 1 1 i
	jmp s17
.ai 0 a17 e_System._Process_iclosePipe;16
.o 2 0
e_System._Process_lclosePipe;16
	repl_args 1 1
.o 2 0
a17
.d 2 0
	jsr ea17
.o 2 0
	push_a 1
	push_a 1
	buildh _Tuple 2
	updatepop_a 0 2
.d 1 0
	rtn
.n 2 e_System._Process_dclosePipe;16
.o 1 0
e_System._Process_nclosePipe;16
	push_node _cycle_in_spine 2
.d 2 0
	jsr ea17
.o 2 0
	push_a 1
	push_a 1
	fillh _Tuple 2 4
	pop_a 2
.d 1 0
	rtn
.o 2 0
ea17
	jsr_eval 1
	jsr_eval 0
	pushI_a 0
	pop_a 1
.o 1 1 i
e_System._Process_sclosePipe;16
.o 1 1 i
s17
	push_a 0
	push_b 0
	updatepop_a 0 1
	updatepop_b 0 1
.d 1 1 i
	jmp s26
.o 1 1 i
s26
	push_a 0
	push_b 0
	updatepop_b 0 1
	updatepop_a 0 1
.d 1 1 i
	jsr e_System._WinBase_scloseHandle
.o 1 1 b
	push_b 0
	notB
	jmp_false else.5
	push_a 0
	updatepop_a 0 1
	pop_b 1
.d 1 0
	jmp e_System.OSError_sgetLastOSError
else.5
	buildh e__predef_d_Unit 0
	buildh e_Data.Error_dOk 1
	push_a 1
	push_a 1
	update_a 1 2
	update_a 0 1
	pop_a 1
	update_a 1 2
	updatepop_a 0 1
	pop_b 1
.d 2 0
	rtn
.export e_System._Process_stoPid
.descexp e_System._Process_dtoPid e_System._Process_ntoPid e_System._Process_ltoPid 1 0 "toPid"
.o 2 0
e_System._Process_ltoPid
	pop_a 1
.d 1 0
	jsr ea16
.o 0 1 i
	buildI_b 0
	pop_b 1
.d 1 0
	rtn
.n 1 e_System._Process_dtoPid
.o 1 0
e_System._Process_ntoPid
	push_node _cycle_in_spine 1
.d 1 0
	jsr ea16
.o 0 1 i
	fillI_b 0 0
	pop_b 1
.d 1 0
	rtn
.o 1 0
e_System._Process_stoPid
.o 1 0
ea16
	jsr_eval 0
	repl_r_args 0 2
.o 0 2 ii
s16
	update_b 0 1
	pop_b 1
.d 0 1 i
	rtn
.export e_System._Process_s_fromWritePipe
.descexp e_System._Process_d_fromWritePipe e_System._Process_n_fromWritePipe e_System._Process_l_fromWritePipe 1 0 "_fromWritePipe"
.o 2 0
e_System._Process_l_fromWritePipe
	pop_a 1
.d 1 0
	jsr ea15
.o 0 1 i
	buildI_b 0
	pop_b 1
.d 1 0
	rtn
.n 1 e_System._Process_d_fromWritePipe
.o 1 0
e_System._Process_n_fromWritePipe
	push_node _cycle_in_spine 1
.d 1 0
	jsr ea15
.o 0 1 i
	fillI_b 0 0
	pop_b 1
.d 1 0
	rtn
.o 1 0
e_System._Process_s_fromWritePipe
.o 1 0
ea15
	jsr_eval 0
	pushI_a 0
	pop_a 1
.o 0 1 i
s15
.d 0 1 i
	rtn
.export e_System._Process_s_fromReadPipe
.descexp e_System._Process_d_fromReadPipe e_System._Process_n_fromReadPipe e_System._Process_l_fromReadPipe 1 0 "_fromReadPipe"
.o 2 0
e_System._Process_l_fromReadPipe
	pop_a 1
.d 1 0
	jsr ea14
.o 0 1 i
	buildI_b 0
	pop_b 1
.d 1 0
	rtn
.n 1 e_System._Process_d_fromReadPipe
.o 1 0
e_System._Process_n_fromReadPipe
	push_node _cycle_in_spine 1
.d 1 0
	jsr ea14
.o 0 1 i
	fillI_b 0 0
	pop_b 1
.d 1 0
	rtn
.o 1 0
e_System._Process_s_fromReadPipe
.o 1 0
ea14
	jsr_eval 0
	pushI_a 0
	pop_a 1
.o 0 1 i
s14
.d 0 1 i
	rtn
.export e_System._Process_s_terminateProcess
.descexp e_System._Process_d_terminateProcess e_System._Process_n_terminateProcess e_System._Process_l_terminateProcess 3 0 "_terminateProcess"
.a 0 a13
.o 2 0
e_System._Process_l_terminateProcess
	repl_args 2 2
.o 3 0
a13
.d 3 0
	jsr ea13
.o 2 0
	push_a 1
	push_a 1
	buildh _Tuple 2
	updatepop_a 0 2
.d 1 0
	rtn
.n 3 e_System._Process_d_terminateProcess
.o 1 0
e_System._Process_n_terminateProcess
	push_node _cycle_in_spine 3
.d 3 0
	jsr ea13
.o 2 0
	push_a 1
	push_a 1
	fillh _Tuple 2 4
	pop_a 2
.d 1 0
	rtn
.o 3 0
ea13
	jsr_eval 2
	jsr_eval 1
	jsr_eval 0
	pushI_a 1
	repl_r_args 0 2
	pop_a 1
.o 1 3 iii
e_System._Process_s_terminateProcess
.o 1 3 iii
s13
	push_a 0
	push_b 2
	push_b 1
	updatepop_a 0 1
.d 1 2 ii
	jsr e_System._WinBase_sterminateProcess
.o 1 1 b
	pop_b 1
	push_b 1
	push_b 1
	update_b 1 4
	updatepop_b 0 3
.d 1 2 ii
	jmp s295
.export e_System._Process_s_waitForProcess
.descexp e_System._Process_d_waitForProcess e_System._Process_n_waitForProcess e_System._Process_l_waitForProcess 2 0 "_waitForProcess"
.a 0 a12
.o 2 0
e_System._Process_l_waitForProcess
	repl_args 1 1
.o 2 0
a12
.d 2 0
	jsr ea12
.o 2 0
	push_a 1
	push_a 1
	buildh _Tuple 2
	updatepop_a 0 2
.d 1 0
	rtn
.n 2 e_System._Process_d_waitForProcess
.o 1 0
e_System._Process_n_waitForProcess
	push_node _cycle_in_spine 2
.d 2 0
	jsr ea12
.o 2 0
	push_a 1
	push_a 1
	fillh _Tuple 2 4
	pop_a 2
.d 1 0
	rtn
.o 2 0
ea12
	jsr_eval 1
	jsr_eval 0
	repl_r_args 0 2
.o 1 2 ii
e_System._Process_s_waitForProcess
.o 1 2 ii
s12
	push_a 0
	pushI 4294967295
	push_b 1
	updatepop_a 0 1
.d 1 2 ii
	jsr e_System._WinBase_swaitForSingleObject
.o 1 1 i
	pop_b 1
	push_b 0
.d 1 1 i
	jsr e_System._WinBase_sgetExitCodeProcess
.o 1 2 bi
	push_b 0
	notB
	jmp_false else.6
	push_a 0
	updatepop_a 0 1
	pop_b 4
.d 1 0
	jmp e_System.OSError_sgetLastOSError
else.6
	push_a 0
	push_b 3
	push_b 3
	update_b 1 2
	updatepop_b 0 1
	updatepop_a 0 1
.d 1 2 ii
	jsr s294
.o 2 0
	pop_a 1
	buildI_b 0
	buildh e_Data.Error_dOk 1
	pop_b 3
.d 2 0
	rtn
.export e_System._Process_s_checkProcess
.descexp e_System._Process_d_checkProcess e_System._Process_n_checkProcess e_System._Process_l_checkProcess 2 0 "_checkProcess"
.a 0 a11
.o 2 0
e_System._Process_l_checkProcess
	repl_args 1 1
.o 2 0
a11
.d 2 0
	jsr ea11
.o 2 0
	push_a 1
	push_a 1
	buildh _Tuple 2
	updatepop_a 0 2
.d 1 0
	rtn
.n 2 e_System._Process_d_checkProcess
.o 1 0
e_System._Process_n_checkProcess
	push_node _cycle_in_spine 2
.d 2 0
	jsr ea11
.o 2 0
	push_a 1
	push_a 1
	fillh _Tuple 2 4
	pop_a 2
.d 1 0
	rtn
.o 2 0
ea11
	jsr_eval 1
	jsr_eval 0
	repl_r_args 0 2
.o 1 2 ii
e_System._Process_s_checkProcess
.o 1 2 ii
s11
	push_a 0
	push_b 0
	updatepop_a 0 1
.d 1 1 i
	jsr e_System._WinBase_sgetExitCodeProcess
.o 1 2 bi
	push_b 0
	notB
	jmp_false else.7
	push_a 0
	updatepop_a 0 1
	pop_b 4
.d 1 0
	jmp e_System.OSError_sgetLastOSError
else.7
	pushI 259
	push_b 2
	eqI
	jmp_false else.8
	buildh _Nothing 0
	buildh e_Data.Error_dOk 1
	push_a 1
	push_a 1
	update_a 1 2
	update_a 0 1
	pop_a 1
	update_a 1 2
	updatepop_a 0 1
	pop_b 4
.d 2 0
	rtn
else.8
	push_a 0
	push_b 3
	push_b 3
	update_b 1 2
	updatepop_b 0 1
	updatepop_a 0 1
.d 1 2 ii
	jsr s294
.o 2 0
	pop_a 1
	buildI_b 0
	buildh _Just 1
	buildh e_Data.Error_dOk 1
	pop_b 3
.d 2 0
	rtn
.export e_System._Process_s_startProcessPty`
.descexp e_System._Process_d_startProcessPty` e_System._Process_n_startProcessPty` e_System._Process_l_startProcessPty` 5 0 "_startProcessPty`"
.a 0 a10
.o 2 0
e_System._Process_l_startProcessPty`
	repl_args 4 4
.o 5 0
a10
.d 5 0
	jsr ea10
.o 2 0
	push_a 1
	push_a 1
	buildh _Tuple 2
	updatepop_a 0 2
.d 1 0
	rtn
.n 5 e_System._Process_d_startProcessPty`
.o 1 0
e_System._Process_n_startProcessPty`
	push_node _cycle_in_spine 5
.d 5 0
	jsr ea10
.o 2 0
	push_a 1
	push_a 1
	fillh _Tuple 2 4
	pop_a 2
.d 1 0
	rtn
.o 5 0
ea10
	jsr_eval 4
	jsr_eval 3
	jsr_eval 2
	jsr_eval 1
	jsr_eval 0
	push_r_args 3 0 3
	push_array 0
	update_a 3 4
	update_a 2 3
	update_a 0 2
	pop_a 2
.o 4 3 bbb
e_System._Process_s_startProcessPty`
.o 4 3 bbb
s10
	buildAC "_startProcessPty"
	updatepop_a 0 4
	pop_b 3
.d 1 0
	jsr print_string_
.o 0 0
	halt
	repl_args 2 2
	jsr_eval 1
	jsr_eval 0
.d 2 0
	rtn
.export e_System._Process_s_startProcessPty
.descexp e_System._Process_d_startProcessPty e_System._Process_n_startProcessPty e_System._Process_l_startProcessPty 5 0 "_startProcessPty"
.a 0 a9
.o 2 0
e_System._Process_l_startProcessPty
	repl_args 4 4
.o 5 0
a9
.d 5 0
	jsr ea9
.o 2 0
	push_a 1
	push_a 1
	buildh _Tuple 2
	updatepop_a 0 2
.d 1 0
	rtn
.n 5 e_System._Process_d_startProcessPty
.o 1 0
e_System._Process_n_startProcessPty
	push_node _cycle_in_spine 5
.d 5 0
	jsr ea9
.o 2 0
	push_a 1
	push_a 1
	fillh _Tuple 2 4
	pop_a 2
.d 1 0
	rtn
.o 5 0
ea9
	jsr_eval 4
	jsr_eval 3
	jsr_eval 2
	jsr_eval 1
	jsr_eval 0
	push_r_args 3 0 3
	push_array 0
	update_a 3 4
	update_a 2 3
	update_a 0 2
	pop_a 2
.o 4 3 bbb
e_System._Process_s_startProcessPty
.o 4 3 bbb
s9
	buildAC "_startProcessPty"
	updatepop_a 0 4
	pop_b 3
.d 1 0
	jsr print_string_
.o 0 0
	halt
	repl_args 2 2
	jsr_eval 1
	jsr_eval 0
.d 2 0
	rtn
.export e_System._Process_s_startProcess
.descexp e_System._Process_d_startProcess e_System._Process_n_startProcess e_System._Process_l_startProcess 5 0 "_startProcess"
.a 0 a8
.o 2 0
e_System._Process_l_startProcess
	repl_args 4 4
.o 5 0
a8
.d 5 0
	jsr ea8
.o 2 0
	push_a 1
	push_a 1
	buildh _Tuple 2
	updatepop_a 0 2
.d 1 0
	rtn
.n 5 e_System._Process_d_startProcess
.o 1 0
e_System._Process_n_startProcess
	push_node _cycle_in_spine 5
.d 5 0
	jsr ea8
.o 2 0
	push_a 1
	push_a 1
	fillh _Tuple 2 4
	pop_a 2
.d 1 0
	rtn
.o 5 0
ea8
	jsr_eval 4
	jsr_eval 3
	jsr_eval 2
	jsr_eval 1
	jsr_eval 0
	push_array 0
	update_a 0 1
	pop_a 1
.o 5 0
e_System._Process_s_startProcess
.o 5 0
s8
	push_a 3
	build e_System._Process_d_c;28;16;580.80 1 e_System._Process_n_c;28;16;580.80
	push_a 0
	build d_S.3 -1 n_S.3
	push_a 0
	build d_S.2 -1 n_S.2
	push_a 2
	build d_S.2 -1 n_S.2
	push_a 0
	build d_S.2 -1 n_S.2
	push_a 4
	build d_S.1 -1 n_S.1
	push_a 0
	build d_S.1 -1 n_S.1
	pushI 0
	pushI 13
	buildh _Nil 0
	update_a 0 7
	pop_a 1
	create_array INT 0 1
	pushI 104
	pushI 0
	update INT 0 1
	pushI 7
	push_a 0
	select INT 0 1
	pushI 0
	pushI 3
	create_array INT 0 1
	pushI 32
	pushI 256
	shiftl%
	pushI 4294967295
	push_b 2
	and%
	or%
	pushI 7
	push_a 1
	update_b 1 2
	updatepop_b 0 1
	update_a 1 2
	updatepop_a 0 1
	update INT 0 1
	push_a 2
	push_a 5
	push_a 8
	push_a 15
.d 5 0
	jsr s60
.o 1 0
	push_a 10
	push_a 10
	buildh ARRAY 1
	buildh _Cons 2
	buildh e_System._Process_descape;39.40 0
	create
	push_a 2
	update_a 1 3
	update_a 2 1
	update_a 0 2
	pop_a 1
	buildh _Nil 0
	update_a 0 14
	pop_a 1
.d 3 0
	jsr e_StdList_smap
.o 1 0
	buildAC ""
.d 2 0
	jsr s59
.o 1 0
.d 1 0
	jsr e_System._Pointer_spackString
.o 1 0
	push_a 14
	push_a 3
	push_a 12
	push_a 15
	push_a 5
	update_a 4 6
	update_a 0 4
	update_a 5 0
	update_a 3 5
	update_a 0 3
	pop_a 1
	buildh _Nil 0
	update_a 0 17
	update_a 0 15
	update_a 0 19
	pop_a 1
.d 6 0
	jsr s81
.o 1 1 b
	push_b 0
	notB
	jmp_false else.9
	push_a 0
	updatepop_a 0 14
	pop_b 1
.d 1 0
	jmp e_System.OSError_sgetLastOSError
else.9
	push_a 12
	pop_b 1
	buildh _Nil 0
	update_a 0 14
	pop_a 1
	eq_desc _Nothing 0 0
	pop_a 1
	jmp_false else.10
	buildh _Nothing 0
	buildI 1
	push_a 3
	buildh ARRAY 1
	build e__SystemArray_dselect;11 2 e__SystemArray_nselect;11
	buildI 0
	push_a 4
	buildh ARRAY 1
	build e__SystemArray_dselect;11 2 e__SystemArray_nselect;11
	build e_System._Process_tProcessHandle 2 e_System._Process_cProcessHandle
	buildh _Tuple 2
	buildh e_Data.Error_dOk 1
	push_a 1
	push_a 1
	update_a 1 2
	update_a 0 1
	pop_a 1
	update_a 1 15
	updatepop_a 0 14
.d 2 0
	rtn
else.10
	push_a 2
	jsr_eval 0
	pushI_a 3
	pop_a 1
	push_a 0
	update_a 2 3
	updatepop_a 0 2
.d 1 1 i
	jsr e_System._WinBase_scloseHandle
.o 1 1 b
	pop_b 1
	push_a 3
	jsr_eval 0
	pushI_a 4
	pop_a 1
	buildh _Nil 0
	update_a 0 4
	pop_a 1
.d 1 1 i
	jsr e_System._WinBase_scloseHandle
.o 1 1 b
	pop_b 1
	push_a 5
	jsr_eval 0
	pushI_a 6
	pop_a 1
	buildh _Nil 0
	update_a 0 6
	pop_a 1
.d 1 1 i
	jsr e_System._WinBase_scloseHandle
.o 1 1 b
	pop_b 1
	push_a 6
	build d_S.1 -1 n_S.1
	push_a 5
	build d_S.1 -1 n_S.1
	push_a 4
	build d_S.2 -1 n_S.2
	build e_System.Process_tProcessIO 3 e_System.Process_cProcessIO
	build _Justs 1 n_Justs
	buildI 1
	push_a 3
	buildh ARRAY 1
	build e__SystemArray_dselect;11 2 e__SystemArray_nselect;11
	buildI 0
	push_a 4
	buildh ARRAY 1
	build e__SystemArray_dselect;11 2 e__SystemArray_nselect;11
	build e_System._Process_tProcessHandle 2 e_System._Process_cProcessHandle
	buildh _Tuple 2
	buildh e_Data.Error_dOk 1
	update_a 1 13
	updatepop_a 0 12
.d 2 0
	rtn
.o 6 0
s81
	eq_desc _Just 1 0
	jmp_true case.11
	jmp case.12
case.11
	repl_args 1 1
	push_array 0
	updatepop_a 0 1
.d 1 0
	jsr e_System._Pointer_spackString
.o 1 0
	push_a 1
	buildh _Nil 0
	update_a 0 3
	pop_a 1
.d 1 0
	jsr e_System._Pointer_spackString
.o 1 0
	push_a 6
	push_a 6
	push_a 6
	pushI 0
	pushI 8
	pushB TRUE
	pushI 0
	pushI 0
	push_a 6
	push_a 5
	update_a 4 6
	update_a 2 4
	update_a 1 2
	update_a 5 1
	update_a 3 5
	update_a 0 3
	pop_a 1
	update_a 5 10
	update_a 4 9
	update_a 3 8
	update_a 2 7
	update_a 1 6
	updatepop_a 0 5
.d 6 5 iibii
	jmp e_System._WinBase_screateProcessA_dir
case.12
	push_a 1
	updatepop_a 0 2
.d 1 0
	jsr e_System._Pointer_spackString
.o 1 0
	push_a 4
	push_a 4
	push_a 4
	pushI 0
	pushI 0
	pushI 8
	pushB TRUE
	pushI 0
	pushI 0
	push_a 4
	push_a 4
	update_a 4 5
	update_a 3 4
	update_a 2 3
	update_a 1 2
	update_a 0 1
	pop_a 1
	update_a 4 8
	update_a 3 7
	update_a 2 6
	update_a 1 5
	updatepop_a 0 4
.d 5 6 iibiii
	jmp e_System._WinBase_screateProcessA
.export e_System._Process_d_c;28;16;580.80
.export e_System._Process_n_c;28;16;580.80
.descn e_System._Process_d_c;28;16;580.80 e_System._Process_n_c;28;16;580.80 1 0 "_c;28;16;580.80"
.n 1 e_System._Process_d_c;28;16;580.80
.o 1 0
e_System._Process_n_c;28;16;580.80
	push_node _cycle_in_spine 1
.d 1 0
	jsr ea80
.o 3 0
	push_a 2
	push_a 2
	push_a 2
	fillh _Tuple 3 6
	pop_a 3
.d 1 0
	rtn
.o 1 0
ea80
.o 1 0
s80
	eq_desc _Just 1 0
	jmp_true case.13
	jmp case.14
case.13
	repl_args 1 1
	repl_args 3 3
.d 3 0
	rtn
case.14
	buildAC "fromJust: Nothing\n"
	updatepop_a 0 1
.d 1 0
	jsr print_string_
.o 0 0
	halt
	repl_args 3 3
.d 3 0
	rtn
.o 5 0
s60
	push_a 0
	updatepop_a 0 1
	eq_desc _Nothing 0 0
	pop_a 1
	push_a 0
	push_a 2
	push_a 4
	push_a 6
	update_a 3 7
	update_a 2 6
	update_a 1 5
	updatepop_a 0 4
.d 4 1 b
	jmp s79
.o 4 1 b
s79
	eqB_b TRUE 0
	jmp_true case.15
	jmp case.16
case.15
	updatepop_a 0 3
	pop_b 1
.d 1 0
	rtn
case.16
	push_a 3
	jsr_eval 0
	pushI_a 4
	pop_a 1
	push_a 2
	jsr_eval 0
	pushI_a 3
	pop_a 1
	push_a 1
	jsr_eval 0
	pushI_a 2
	pop_a 1
	pushI 10
	push_a 0
	updatepop_a 0 4
	update INT 0 1
	pushI 11
	update INT 0 1
	pushI 12
	update_b 1 2
	updatepop_b 0 1
	update INT 0 1
.d 1 0
	rtn
.o 2 0
s59
	eq_desc _Nil 0 1
	jmp_true case.17
	jmp case.18
case.17
	updatepop_a 0 1
.d 1 0
	rtn
case.18
	push_args 1 2 2
	buildh _Nil 0
	update_a 0 4
	pop_a 1
	push_a 1
	jsr_eval 0
	push_a 3
	update_a 2 5
	update_a 1 4
	updatepop_a 0 3
.d 2 0
	jsr s59
.o 1 0
	push_a 1
	jsr_eval 0
	push_array 0
	updatepop_a 0 1
	update_a 1 2
	updatepop_a 0 1
.d 2 0
	jmp s38
.o 2 0
s38
	push_a 1
	buildAC " "
	update_a 2 3
	update_a 1 2
	updatepop_a 0 1
.d 2 0
	jsr catAC
.o 1 0
	push_a 1
	update_a 1 2
	updatepop_a 0 1
.d 2 0
	jsr catAC
.o 1 0
.d 1 0
	rtn
.export e_System._Process_descape;39.40
.desc e_System._Process_descape;39.40 _hnf l40 1 0 "escape;39.40"
.o 2 0
l40
	pop_a 1
.d 1 0
	jsr ea40
.o 1 0
	buildh ARRAY 1
.d 1 0
	rtn
.o 1 0
ea40
	jsr_eval 0
	push_array 0
	update_a 0 1
	pop_a 1
.o 1 0
s40
	push_a 0
	buildAC " "
.d 2 0
	jsr e_Text_sindexOf;7
.o 0 1 i
	pushI -1
	push_b 1
	update_b 1 2
	update_b 0 1
	pop_b 1
	eqI
	jmp_false else.19
.d 1 0
	rtn
else.19
	push_a 0
	push_arraysize CHAR 0 1
	pushI 2
	push_b 1
	update_b 1 2
	update_b 0 1
	pop_b 1
	ltI
	notB
	jmp_false else.20
	pushI 0
	push_a 0
	select CHAR 0 1
	pushC '"'
	push_b 1
	update_b 1 2
	update_b 0 1
	pop_b 1
	eqC
	jmp_false else.20
	push_a 0
	push_arraysize CHAR 0 1
	pushI 1
	push_b 1
	update_b 1 2
	update_b 0 1
	pop_b 1
	subI
	push_a 0
	select CHAR 0 1
	pushC '"'
	push_b 1
	update_b 1 2
	update_b 0 1
	pop_b 1
	eqC
	jmp_false else.20
.d 1 0
	rtn
else.20
	buildAC "\""
	push_a 1
	buildAC "\""
	update_a 2 3
	update_a 1 2
	updatepop_a 0 1
.d 3 0
	jmp e_Text_sconcat3
.export e_System._Process_s_equalPipe
.descexp e_System._Process_d_equalPipe e_System._Process_n_equalPipe e_System._Process_l_equalPipe 2 0 "_equalPipe"
.a 0 a7
.o 2 0
e_System._Process_l_equalPipe
	repl_args 1 1
.o 2 0
a7
.d 2 0
	jsr ea7
.o 0 1 b
	buildB_b 0
	pop_b 1
.d 1 0
	rtn
.n 2 e_System._Process_d_equalPipe
.o 1 0
e_System._Process_n_equalPipe
	push_node _cycle_in_spine 2
.d 2 0
	jsr ea7
.o 0 1 b
	fillB_b 0 0
	pop_b 1
.d 1 0
	rtn
.o 2 0
ea7
	jsr_eval 1
	jsr_eval 0
	pushI_a 1
	pushI_a 0
	pop_a 2
.o 0 2 ii
e_System._Process_s_equalPipe
.o 0 2 ii
s7
	push_b 1
	push_b 1
	update_b 1 3
	updatepop_b 0 2
	eqI
.d 0 1 b
	rtn
.export e_System._Process_s_writePipe
.descexp e_System._Process_d_writePipe e_System._Process_n_writePipe e_System._Process_l_writePipe 3 0 "_writePipe"
.a 0 a6
.o 2 0
e_System._Process_l_writePipe
	repl_args 2 2
.o 3 0
a6
.d 3 0
	jsr ea6
.o 2 0
	push_a 1
	push_a 1
	buildh _Tuple 2
	updatepop_a 0 2
.d 1 0
	rtn
.n 3 e_System._Process_d_writePipe
.o 1 0
e_System._Process_n_writePipe
	push_node _cycle_in_spine 3
.d 3 0
	jsr ea6
.o 2 0
	push_a 1
	push_a 1
	fillh _Tuple 2 4
	pop_a 2
.d 1 0
	rtn
.o 3 0
ea6
	jsr_eval 2
	jsr_eval 1
	jsr_eval 0
	pushI_a 1
	push_array 0
	update_a 0 2
	pop_a 2
.o 2 1 i
e_System._Process_s_writePipe
.o 2 1 i
s6
	push_a 0
	push_arraysize CHAR 0 1
	push_a 1
	pushI 0
	pushI 0
	push_a 1
	push_b 3
	push_b 3
	update_b 3 4
	update_b 2 3
	update_b 0 2
	pop_b 1
	update_b 3 4
	update_b 2 3
	update_b 1 2
	updatepop_b 0 1
	update_a 1 3
	updatepop_a 0 2
.d 2 4 iiii
	jsr e_System._WinBase_swriteFile
.o 1 1 b
	push_b 0
	jmp_false else.23
	buildh e__predef_d_Unit 0
	buildh e_Data.Error_dOk 1
	push_a 1
	push_a 1
	update_a 1 2
	update_a 0 1
	pop_a 1
	update_a 1 2
	updatepop_a 0 1
	pop_b 1
.d 2 0
	rtn
else.23
	push_a 0
	updatepop_a 0 1
	pop_b 1
.d 1 0
	jmp e_System.OSError_sgetLastOSError
.export e_System._Process_s_readPipeNonBlocking
.descexp e_System._Process_d_readPipeNonBlocking e_System._Process_n_readPipeNonBlocking e_System._Process_l_readPipeNonBlocking 3 0 "_readPipeNonBlocking"
.a 0 a5
.o 2 0
e_System._Process_l_readPipeNonBlocking
	repl_args 2 2
.o 3 0
a5
.d 3 0
	jsr ea5
.o 2 0
	push_a 1
	push_a 1
	buildh _Tuple 2
	updatepop_a 0 2
.d 1 0
	rtn
.n 3 e_System._Process_d_readPipeNonBlocking
.o 1 0
e_System._Process_n_readPipeNonBlocking
	push_node _cycle_in_spine 3
.d 3 0
	jsr ea5
.o 2 0
	push_a 1
	push_a 1
	fillh _Tuple 2 4
	pop_a 2
.d 1 0
	rtn
.o 3 0
ea5
	jsr_eval 2
	jsr_eval 1
	jsr_eval 0
	pushI_a 1
	pushI_a 0
	pop_a 2
.o 1 2 ii
e_System._Process_s_readPipeNonBlocking
.o 1 2 ii
s5
	push_a 0
	updatepop_a 0 1
.d 1 0
	jsr e_System._WinBase_sgetProcessHeap
.o 1 1 i
	push_a 0
	push_b 2
	pushI 0
	push_b 2
	updatepop_a 0 1
.d 1 3 iii
	jsr e_System._WinBase_sheapAlloc
.o 1 1 i
	pushI 0
	push_b 1
	eqI
	jmp_false else.24
	buildAC "heapAlloc failed"
	updatepop_a 0 1
	pop_b 4
.d 1 0
	jsr print_string_
.o 0 0
	halt
	repl_args 2 2
	jsr_eval 1
	jsr_eval 0
.d 2 0
	rtn
else.24
	push_a 0
	pushI 0
	pushI 0
	push_b 5
	push_b 3
	push_b 6
	updatepop_a 0 1
.d 1 5 iiiii
	jsr e_System._WinBase_sreadFile
.o 1 1 b
	push_b 0
	notB
	jmp_false else.25
	push_a 0
	push_b 1
	pushI 0
	push_b 4
	update_b 2 3
	update_b 1 2
	updatepop_b 0 1
	updatepop_a 0 1
.d 1 3 iii
	jsr e_System._WinBase_sheapFree
.o 1 1 b
	pop_b 1
.d 1 0
	jsr e_System._WinBase_sgetLastError
.o 1 1 i
	pushI 109
	push_b 1
	eqI
	jmp_false else.26
	buildAC ""
	buildh ARRAY 1
	buildh e_Data.Error_dOk 1
	push_a 1
	push_a 1
	update_a 1 2
	update_a 0 1
	pop_a 1
	update_a 1 2
	updatepop_a 0 1
	pop_b 5
.d 2 0
	rtn
else.26
	push_a 0
	updatepop_a 0 1
	pop_b 5
.d 1 0
	jmp e_System.OSError_sgetLastOSError
else.25
	buildI_b 4
	buildh e_System._Process_d\;183;27;36.37 1
	push_b 1
	updatepop_b 0 1
.d 1 1 i
	jsr e_System._Pointer_sreadP
.o 1 1 i
	push_a 1
	push_b 0
	pushI 0
	push_b 4
	update_b 2 3
	update_b 1 2
	updatepop_b 0 1
	update_a 1 2
	updatepop_a 0 1
.d 1 3 iii
	jsr e_System._WinBase_sheapFree
.o 1 1 b
	pop_b 1
	push_a 1
	buildh e_Data.Error_dOk 1
	update_a 1 2
	updatepop_a 0 1
	pop_b 4
.d 2 0
	rtn
.export e_System._Process_d\;183;27;36.37
.desc e_System._Process_d\;183;27;36.37 _hnf l37 2 0 "\;183;27;36.37"
.a 0 a37
.o 2 0
l37
	repl_args 1 1
.o 2 0
a37
.d 2 0
	jsr ea37
.o 1 0
	buildh ARRAY 1
.d 1 0
	rtn
.o 2 0
ea37
	jsr_eval 1
	pushI_a 1
	pushI_a 0
	pop_a 2
.o 0 2 ii
s37
	push_b 0
	push_b 2
	update_b 1 3
	updatepop_b 0 2
.d 0 2 ii
	jmp e_System._Pointer_sderefCharArray
.export e_System._Process_s_peekPipe
.descexp e_System._Process_d_peekPipe e_System._Process_n_peekPipe e_System._Process_l_peekPipe 2 0 "_peekPipe"
.a 0 a4
.o 2 0
e_System._Process_l_peekPipe
	repl_args 1 1
.o 2 0
a4
.d 2 0
	jsr ea4
.o 2 0
	push_a 1
	push_a 1
	buildh _Tuple 2
	updatepop_a 0 2
.d 1 0
	rtn
.n 2 e_System._Process_d_peekPipe
.o 1 0
e_System._Process_n_peekPipe
	push_node _cycle_in_spine 2
.d 2 0
	jsr ea4
.o 2 0
	push_a 1
	push_a 1
	fillh _Tuple 2 4
	pop_a 2
.d 1 0
	rtn
.o 2 0
ea4
	jsr_eval 1
	jsr_eval 0
	pushI_a 0
	pop_a 1
.o 1 1 i
e_System._Process_s_peekPipe
.o 1 1 i
s4
	push_a 0
	updatepop_a 0 1
.d 1 0
	jsr e_System._WinBase_sgetProcessHeap
.o 1 1 i
	push_a 0
	pushI 4
	pushI 0
	push_b 2
	updatepop_a 0 1
.d 1 3 iii
	jsr e_System._WinBase_sheapAlloc
.o 1 1 i
	pushI 0
	push_b 1
	eqI
	jmp_false else.27
	buildAC "heapAlloc failed"
	updatepop_a 0 1
	pop_b 3
.d 1 0
	jsr print_string_
.o 0 0
	halt
	repl_args 2 2
	jsr_eval 1
	jsr_eval 0
.d 2 0
	rtn
else.27
	push_a 0
	pushI 0
	push_b 1
	pushI 0
	pushI 0
	pushI 0
	push_b 7
	updatepop_a 0 1
.d 1 6 iiiiii
	jsr e_System._WinBase_speekNamedPipe
.o 1 1 b
	push_b 0
	notB
	jmp_false else.28
	pushI 0
	push_b 2
	update_b 1 2
	updatepop_b 0 1
.d 0 2 ii
	jsr e_System._Pointer_sreadIntP
.o 0 2 ii
	pop_b 1
	push_a 0
	pushI 0
	push_b 3
	updatepop_a 0 1
.d 1 3 iii
	jsr e_System._WinBase_sheapFree
.o 1 1 b
	pop_b 1
.d 1 0
	jsr e_System._WinBase_sgetLastError
.o 1 1 i
	pushI 109
	push_b 1
	eqI
	jmp_false else.29
	buildI 0
	buildh e_Data.Error_dOk 1
	push_a 1
	push_a 1
	update_a 1 2
	update_a 0 1
	pop_a 1
	update_a 1 2
	updatepop_a 0 1
	pop_b 4
.d 2 0
	rtn
else.29
	push_a 0
	updatepop_a 0 1
	pop_b 4
.d 1 0
	jmp e_System.OSError_sgetLastOSError
else.28
	pushI 0
	push_b 2
	update_b 1 2
	updatepop_b 0 1
.d 0 2 ii
	jsr e_System._Pointer_sreadIntP
.o 0 2 ii
	push_a 0
	push_b 1
	pushI 0
	push_b 5
	updatepop_a 0 1
.d 1 3 iii
	jsr e_System._WinBase_sheapFree
.o 1 1 b
	pop_b 1
	buildI 4294967295
	buildI_b 0
	build e_StdInt_dbitand 2 e_StdInt_nbitand
	buildh e_Data.Error_dOk 1
	pop_b 5
.d 2 0
	rtn
.export e_System._Process_s_blockAnyPipe
.descexp e_System._Process_d_blockAnyPipe e_System._Process_n_blockAnyPipe e_System._Process_l_blockAnyPipe 2 0 "_blockAnyPipe"
.a 0 a3
.o 2 0
e_System._Process_l_blockAnyPipe
	repl_args 1 1
.o 2 0
a3
.d 2 0
	jsr ea3
.o 2 0
	push_a 1
	push_a 1
	buildh _Tuple 2
	updatepop_a 0 2
.d 1 0
	rtn
.n 2 e_System._Process_d_blockAnyPipe
.o 1 0
e_System._Process_n_blockAnyPipe
	push_node _cycle_in_spine 2
.d 2 0
	jsr ea3
.o 2 0
	push_a 1
	push_a 1
	fillh _Tuple 2 4
	pop_a 2
.d 1 0
	rtn
.o 2 0
ea3
	jsr_eval 1
	jsr_eval 0
.o 2 0
e_System._Process_s_blockAnyPipe
.o 2 0
s3
	push_a 0
	pushI 0
.d 1 1 i
	jsr s56
.o 0 1 i
	create_array_ INT 0 1
	push_a 1
	buildI 0
	push_a 2
	update_a 2 3
	update_a 1 2
	update_a 0 1
	pop_a 1
.d 3 0
	jsr s53
.o 1 0
	push_a 0
	push_arraysize INT 0 1
	push_a 2
	buildI 0
	buildh _Tuple 2
	push_a 1
	build e_System._Process_d_f0.300 1 e_System._Process_n_f0.300
	build e_System._Process_daddr64;33.34 0 e_System._Process_naddr64;33.34
	buildh e_System._Process_d\;109;10;29.30 2
	push_a 3
	push_a 1
	update_a 1 2
	update_a 0 1
	pop_a 1
	update_a 3 5
	update_a 2 4
	update_a 1 3
	updatepop_a 0 2
.d 3 0
	jsr e_Data.Func_smapSt
.o 2 0
	jsr_eval 1
	push_arg 1 2 2
	jsr_eval 0
	push_a 1
	pushI 0
	buildh _Nil 0
	update_a 0 4
	pop_a 1
.d 1 1 i
	jsr s57
.o 0 1 i
	create_array_ INT 0 1
	push_a 2
	buildI 0
	push_a 2
	update_a 2 3
	update_a 1 2
	update_a 0 1
	pop_a 1
.d 3 0
	jsr s55
.o 1 0
	pushI 4294967295
	pushB FALSE
	push_b 2
	update_a 2 3
	update_a 1 2
	updatepop_a 0 1
.d 2 3 ibi
	jsr e_System._WinBase_swaitForMultipleObjects
.o 1 1 i
	buildh e_System._Process_d\;120;19;32.33 0
	push_a 1
	push_a 3
	push_a 2
	update_a 2 3
	update_a 1 2
	update_a 0 1
	pop_a 1
	update_a 2 4
	update_a 1 3
	updatepop_a 0 2
.d 3 0
	jsr e_Data.Func_sseqSt
.o 1 0
	pushI 0
	push_b 1
	ltI
	notB
	jmp_false else.30
	push_b 1
	push_b 1
	ltI
	jmp_false else.30
	buildh e__predef_d_Unit 0
	buildh e_Data.Error_dOk 1
	push_a 1
	push_a 1
	update_a 1 2
	update_a 0 1
	pop_a 1
	update_a 1 3
	updatepop_a 0 2
	pop_b 2
.d 2 0
	rtn
else.30
	pushI 128
	push_b 1
	ltI
	notB
	jmp_false else.32
	push_b 1
	pushI 128
	addI
	push_b 1
	ltI
	jmp_false else.32
	buildAC "_blockAnyPipe: waitForMultipleObjects returned WAIT_ABANDONED"
	updatepop_a 0 2
	pop_b 2
.d 1 0
	jsr print_string_
.o 0 0
	halt
	repl_args 2 2
	jsr_eval 1
	jsr_eval 0
.d 2 0
	rtn
else.32
	pushI 258
	push_b 1
	eqI
	jmp_false else.34
	buildAC "_blockAnyPipe: waitForMultipleObjects returned WAIT_TIMEOUT"
	updatepop_a 0 2
	pop_b 2
.d 1 0
	jsr print_string_
.o 0 0
	halt
	repl_args 2 2
	jsr_eval 1
	jsr_eval 0
.d 2 0
	rtn
else.34
	pushI 4294967295
	push_b 1
	eqI
	jmp_false else.35
	push_a 0
	updatepop_a 0 2
	pop_b 2
.d 1 0
	jmp e_System.OSError_sgetLastOSError
else.35
	push_a 1
	updatepop_a 0 2
	push_arraysize INT 0 1
	pushI 0
	push_b 1
	update_b 1 2
	update_b 0 1
	pop_b 1
	ltI
	jmp_false else.36
	buildAC "cannot happen"
	pop_b 2
.d 1 0
	jsr print_string_
.o 0 0
	halt
	repl_args 2 2
	jsr_eval 1
	jsr_eval 0
.d 2 0
	rtn
else.36
	push_b 0
.d 0 1 i
	jsr ItoAC
.o 1 0
	buildAC "_blockAnyPipe: waitForMultipleObjects returned unknown response value "
.d 2 0
	jsr catAC
.o 1 0
	pop_b 2
.d 1 0
	jsr print_string_
.o 0 0
	halt
	repl_args 2 2
	jsr_eval 1
	jsr_eval 0
.d 2 0
	rtn
.export e_System._Process_d_f0.300
.export e_System._Process_n_f0.300
.descn e_System._Process_d_f0.300 e_System._Process_n_f0.300 1 0 "_f0.300"
.n 1 e_System._Process_d_f0.300 ea300
.o 1 0
e_System._Process_n_f0.300
	push_node _cycle_in_spine 1
.o 2 0
ea300
.o 2 0
s300
	push_a 0
	updatepop_a 0 1
.d 1 0
	jsr s36
.o 0 1 i
	pushI 24
	push_b 1
	update_b 1 2
	update_b 0 1
	pop_b 1
	addI
	fillI_b 0 0
	pop_b 1
.d 1 0
	rtn
.o 1 1 i
s57
	push_b 0
	push_a 0
	updatepop_a 0 1
	updatepop_b 0 1
.d 1 1 i
	jmp s73
.o 1 1 i
s73
	eq_desc _Cons 2 0
	jmp_true case.37
	jmp case.38
case.37
	repl_args 2 2
	pop_a 1
	push_a 0
	jsr_eval 0
	pushI 1
	push_b 1
	addI
	updatepop_a 0 1
	updatepop_b 0 1
.d 1 1 i
	jmp s57
case.38
	pop_a 1
.d 0 1 i
	rtn
.o 1 1 i
s56
	push_b 0
	push_a 0
	updatepop_a 0 1
	updatepop_b 0 1
.d 1 1 i
	jmp s72
.o 1 1 i
s72
	eq_desc _Cons 2 0
	jmp_true case.39
	jmp case.40
case.39
	repl_args 2 2
	pop_a 1
	push_a 0
	jsr_eval 0
	pushI 1
	push_b 1
	addI
	updatepop_a 0 1
	updatepop_b 0 1
.d 1 1 i
	jmp s56
case.40
	pop_a 1
.d 0 1 i
	rtn
.o 3 0
s55
	push_a 1
	push_a 1
	push_a 4
	update_a 2 5
	update_a 1 4
	updatepop_a 0 3
.d 3 0
	jmp s71
.o 3 0
s71
	eq_desc _Cons 2 0
	jmp_true case.41
	jmp case.42
case.41
	repl_args 2 2
	push_a 1
	jsr_eval 0
	push_a 4
	build e_System._Process_d_f1.301 1 e_System._Process_n_f1.301
	push_a 2
	jsr_eval 0
	pushI_a 3
	pop_a 1
	push_a 5
	jsr_eval 0
	pushI_a 6
	pop_a 1
	push_a 4
	buildh _Nil 0
	update_a 0 6
	update_a 0 7
	update_a 0 4
	update_a 0 5
	pop_a 1
	update INT 0 1
	update_a 2 6
	update_a 1 5
	updatepop_a 0 4
.d 3 0
	jmp s55
case.42
	updatepop_a 1 2
.d 1 0
	rtn
.export e_System._Process_d_f1.301
.export e_System._Process_n_f1.301
.descn e_System._Process_d_f1.301 e_System._Process_n_f1.301 1 0 "_f1.301"
.n 1 e_System._Process_d_f1.301 ea301
.o 1 0
e_System._Process_n_f1.301
	push_node _cycle_in_spine 1
.o 2 0
ea301
.o 2 0
s301
	pushI 1
	push_a 0
	jsr_eval 0
	pushI_a 1
	pop_a 1
	pop_a 1
	addI
	fillI_b 0 0
	pop_b 1
.d 1 0
	rtn
.o 3 0
s53
	push_a 1
	push_a 1
	push_a 4
	update_a 2 5
	update_a 1 4
	updatepop_a 0 3
.d 3 0
	jmp s69
.o 3 0
s69
	eq_desc _Cons 2 0
	jmp_true case.43
	jmp case.44
case.43
	repl_args 2 2
	push_a 1
	jsr_eval 0
	push_a 4
	build e_System._Process_d_f2.302 1 e_System._Process_n_f2.302
	push_a 2
	jsr_eval 0
	pushI_a 3
	pop_a 1
	push_a 5
	jsr_eval 0
	pushI_a 6
	pop_a 1
	push_a 4
	buildh _Nil 0
	update_a 0 6
	update_a 0 7
	update_a 0 4
	update_a 0 5
	pop_a 1
	update INT 0 1
	update_a 2 6
	update_a 1 5
	updatepop_a 0 4
.d 3 0
	jmp s53
case.44
	updatepop_a 1 2
.d 1 0
	rtn
.export e_System._Process_d_f2.302
.export e_System._Process_n_f2.302
.descn e_System._Process_d_f2.302 e_System._Process_n_f2.302 1 0 "_f2.302"
.n 1 e_System._Process_d_f2.302 ea302
.o 1 0
e_System._Process_n_f2.302
	push_node _cycle_in_spine 1
.o 2 0
ea302
.o 2 0
s302
	pushI 1
	push_a 0
	jsr_eval 0
	pushI_a 1
	pop_a 1
	pop_a 1
	addI
	fillI_b 0 0
	pop_b 1
.d 1 0
	rtn
.export e_System._Process_daddr64;33.34
.export e_System._Process_naddr64;33.34
.descn e_System._Process_daddr64;33.34 e_System._Process_naddr64;33.34 0 0 "addr64;33.34"
.n 0 e_System._Process_daddr64;33.34
.o 1 0
e_System._Process_naddr64;33.34
	push_node _cycle_in_spine 0
.d 0 0
	jsr ea34
.o 0 1 i
	fillI_b 0 0
	pop_b 1
.d 1 0
	rtn
.o 0 0
ea34
.o 0 0
s34
	pushLc readFileInSeparateThread
.d 0 1 i
	rtn
.export e_System._Process_d\;120;19;32.33
.desc e_System._Process_d\;120;19;32.33 _hnf l33 2 0 "\;120;19;32.33"
.a 0 ea33
.o 2 0
l33
	repl_args 1 1
.o 2 0
ea33
	jsr_eval 1
	jsr_eval 0
	pushI_a 0
	pop_a 1
.o 1 1 i
s33
	push_a 0
	pushI 0
	push_b 1
	update_b 1 2
	updatepop_b 0 1
	updatepop_a 0 1
.d 1 2 ii
	jsr e_System._WinBase_sTerminateThread
.o 1 1 b
	pop_b 1
	jmp_eval
.export e_System._Process_d\;109;10;29.30
.desc e_System._Process_d\;109;10;29.30 _hnf l30 4 0 "\;109;10;29.30"
.a 0 a30
.o 2 0
l30
	repl_args 3 3
.o 4 0
a30
.o 4 0
ea30
	push_a 3
	jsr_eval 0
	repl_args 2 2
	jsr_eval 1
	jsr_eval 0
	jsr_eval 3
	jsr_eval 2
	pushI_a 0
	pushI_a 3
	pushI_a 2
	update_a 1 5
	pop_a 4
	pushI 3
	push_b 3
	shiftl%
	push_b 2
	addI
	push_a 1
	pushI 0
	push_b 2
	pushI 0
	pushI 0
	push_b 4
	update_b 4 5
	update_b 0 4
	pop_b 1
	update_b 4 6
	update_b 3 5
	update_b 2 4
	update_b 1 3
	updatepop_b 0 2
	updatepop_a 0 2
.d 1 5 iiiii
	jsr e_System._WinBase_sCreateThread
.o 1 2 ii
	buildI 1
	buildI_b 2
	build e_StdInt_d+;6 2 e_StdInt_n+;6
	push_a 1
	push_a 1
	update_a 1 2
	update_a 0 1
	pop_a 1
	buildh _Tuple 2
	buildI_b 0
	update_a 1 2
	updatepop_a 0 1
	pop_b 3
	push_a 1
	push_a 1
	buildh _Tuple 2
	updatepop_a 0 2
.d 1 0
	rtn
.o 1 0
s36
	push_a_b 0
	pop_a 1
.d 0 1 i
	rtn
.export e_System._Process_s_blockPipe
.descexp e_System._Process_d_blockPipe e_System._Process_n_blockPipe e_System._Process_l_blockPipe 2 0 "_blockPipe"
.a 0 a2
.o 2 0
e_System._Process_l_blockPipe
	repl_args 1 1
.o 2 0
a2
.d 2 0
	jsr ea2
.o 2 0
	push_a 1
	push_a 1
	buildh _Tuple 2
	updatepop_a 0 2
.d 1 0
	rtn
.n 2 e_System._Process_d_blockPipe
.o 1 0
e_System._Process_n_blockPipe
	push_node _cycle_in_spine 2
.d 2 0
	jsr ea2
.o 2 0
	push_a 1
	push_a 1
	fillh _Tuple 2 4
	pop_a 2
.d 1 0
	rtn
.o 2 0
ea2
	jsr_eval 1
	jsr_eval 0
	pushI_a 0
	pop_a 1
.o 1 1 i
e_System._Process_s_blockPipe
.o 1 1 i
s2
	push_a 0
	pushI 0
	pushI 0
	pushI 0
	pushI 0
	push_b 4
	update_b 4 5
	update_b 3 4
	update_b 2 3
	update_b 1 2
	updatepop_b 0 1
	updatepop_a 0 1
.d 1 5 iiiii
	jsr e_System._WinBase_sreadFile
.o 1 1 b
	push_b 0
	notB
	jmp_false else.45
	push_a 0
	pop_b 1
	updatepop_a 0 1
.d 1 0
	jsr e_System._WinBase_sgetLastError
.o 1 1 i
	pushI 109
	push_b 1
	eqI
	jmp_false else.46
	buildh e__predef_d_Unit 0
	buildh e_Data.Error_dOk 1
	push_a 1
	push_a 1
	update_a 1 2
	update_a 0 1
	pop_a 1
	update_a 1 2
	updatepop_a 0 1
	pop_b 1
.d 2 0
	rtn
else.46
	push_a 0
	updatepop_a 0 1
	pop_b 1
.d 1 0
	jmp e_System.OSError_sgetLastOSError
else.45
	buildh e__predef_d_Unit 0
	buildh e_Data.Error_dOk 1
	push_a 1
	push_a 1
	update_a 1 2
	update_a 0 1
	pop_a 1
	update_a 1 2
	updatepop_a 0 1
	pop_b 1
.d 2 0
	rtn
.export e_System._Process_s_openPipePair
.descexp e_System._Process_d_openPipePair e_System._Process_n_openPipePair e_System._Process_l_openPipePair 2 0 "_openPipePair"
.a 0 a1
.o 2 0
e_System._Process_l_openPipePair
	repl_args 1 1
.o 2 0
a1
.d 2 0
	jsr ea1
.o 2 0
	push_a 1
	push_a 1
	buildh _Tuple 2
	updatepop_a 0 2
.d 1 0
	rtn
.n 2 e_System._Process_d_openPipePair
.o 1 0
e_System._Process_n_openPipePair
	push_node _cycle_in_spine 2
.d 2 0
	jsr ea1
.o 2 0
	push_a 1
	push_a 1
	fillh _Tuple 2 4
	pop_a 2
.d 1 0
	rtn
.o 2 0
ea1
	jsr_eval 1
	jsr_eval 0
	pushB_a 0
	pop_a 1
.o 1 1 b
e_System._Process_s_openPipePair
.o 1 1 b
s1
	push_a 0
	updatepop_a 0 1
.d 1 0
	jsr e_System._WinBase_sgetProcessHeap
.o 1 1 i
	push_a 0
	pushI 16
	pushI 0
	push_b 2
	updatepop_a 0 1
.d 1 3 iii
	jsr e_System._WinBase_sheapAlloc
.o 1 1 i
	pushI 0
	push_b 1
	eqI
	jmp_false else.47
	buildAC "heapAlloc failed"
	updatepop_a 0 1
	pop_b 3
.d 1 0
	jsr print_string_
.o 0 0
	halt
	repl_args 2 2
	jsr_eval 1
	jsr_eval 0
.d 2 0
	rtn
else.47
	pushI 3
	pushI 8
	mulI
	pushI 0
	pushI 3
	create_array INT 0 1
	pushI 0
	update INT 0 1
	pushI 1
	pushI 2
	update INT 0 1
	pushI 8
	push_b 1
	addI
	push_a 1
	pushI 0
	push_b 2
	push_a 1
	update_a 1 2
	update_a 0 1
	pop_a 1
	push_b 2
	update_b 2 3
	update_b 0 2
	pop_b 1
	update_a 1 2
	updatepop_a 0 1
.d 2 3 iii
	jsr e_System._WinBase_screatePipe
.o 1 1 b
	push_b 0
	notB
	jmp_false else.48
	push_a 0
	push_b 1
	pushI 0
	push_b 4
	update_b 2 3
	update_b 1 2
	updatepop_b 0 1
	updatepop_a 0 1
.d 1 3 iii
	jsr e_System._WinBase_sheapFree
.o 1 1 b
	pop_b 1
	pop_b 3
.d 1 0
	jmp e_System.OSError_sgetLastOSError
else.48
	pushI 0
	push_b 2
	update_b 1 2
	updatepop_b 0 1
.d 0 2 ii
	jsr e_System._Pointer_sreadIntP
.o 0 2 ii
	pushI 8
	push_b 2
.d 0 2 ii
	jsr e_System._Pointer_sreadIntP
.o 0 2 ii
	buildI_b 0
	buildI_b 2
	push_a 2
	push_b 1
	pushI 0
	push_b 7
	update_b 2 6
	update_b 1 5
	updatepop_b 0 4
	buildh _Nil 0
	update_a 0 4
	pop_a 1
.d 1 3 iii
	jsr e_System._WinBase_sheapFree
.o 1 1 b
	pop_b 1
	pushI_a 1
	pushI_a 2
	push_b 4
.d 0 3 bii
	jsr s63
.o 0 1 i
	pushI 0
	pushI 1
	push_b 2
	update_b 2 3
	update_b 1 2
	update_b 0 1
	pop_b 1
.d 1 3 iii
	jsr e_System._WinBase_ssetHandleInformation
.o 1 1 b
	push_b 0
	notB
	jmp_false else.49
	push_a 0
	updatepop_a 0 4
	pop_b 4
.d 1 0
	jmp e_System.OSError_sgetLastOSError
else.49
	push_a 2
	push_a 2
	buildh _Tuple 2
	buildh e_Data.Error_dOk 1
	push_a 1
	push_a 1
	update_a 1 2
	update_a 0 1
	pop_a 1
	update_a 1 5
	updatepop_a 0 4
	pop_b 4
.d 2 0
	rtn
.o 0 3 bii
s63
	eqB_b TRUE 0
	jmp_true case.50
	jmp case.51
case.50
	update_b 1 2
	pop_b 2
.d 0 1 i
	rtn
case.51
	pop_b 2
.d 0 1 i
	rtn
.o 1 2 ii
s294
	push_b 0
	push_a 0
	updatepop_a 0 1
.d 1 1 i
	jsr e_System._WinBase_scloseHandle
.o 1 1 b
	push_b 0
	notB
	jmp_false else.52
	push_a 0
	updatepop_a 0 1
	pop_b 3
.d 1 0
	jmp e_System.OSError_sgetLastOSError
else.52
	push_b 2
	push_a 0
	updatepop_b 0 3
	updatepop_a 0 1
.d 1 1 i
	jsr e_System._WinBase_scloseHandle
.o 1 1 b
	push_b 0
	notB
	jmp_false else.53
	push_a 0
	updatepop_a 0 1
	pop_b 1
.d 1 0
	jmp e_System.OSError_sgetLastOSError
else.53
	buildh e__predef_d_Unit 0
	buildh e_Data.Error_dOk 1
	push_a 1
	push_a 1
	update_a 1 2
	update_a 0 1
	pop_a 1
	update_a 1 2
	updatepop_a 0 1
	pop_b 1
.d 2 0
	rtn
.o 1 2 ii
s295
	push_b 0
	push_a 0
	updatepop_a 0 1
.d 1 1 i
	jsr e_System._WinBase_scloseHandle
.o 1 1 b
	push_b 0
	notB
	jmp_false else.54
	push_a 0
	updatepop_a 0 1
	pop_b 3
.d 1 0
	jmp e_System.OSError_sgetLastOSError
else.54
	push_b 2
	push_a 0
	updatepop_b 0 3
	updatepop_a 0 1
.d 1 1 i
	jsr e_System._WinBase_scloseHandle
.o 1 1 b
	push_b 0
	notB
	jmp_false else.55
	push_a 0
	updatepop_a 0 1
	pop_b 1
.d 1 0
	jmp e_System.OSError_sgetLastOSError
else.55
	buildh e__predef_d_Unit 0
	buildh e_Data.Error_dOk 1
	push_a 1
	push_a 1
	update_a 1 2
	update_a 0 1
	pop_a 1
	update_a 1 2
	updatepop_a 0 1
	pop_b 1
.d 2 0
	rtn
.o 3 0
s297
case.56
	eq_desc _Just 1 0
	jmp_true case.58
	jmp case.57
case.58
	repl_args 1 1
	push_a 0
	buildh _Just 1
	push_a 2
	push_a 1
	update_a 1 2
	update_a 0 1
	pop_a 1
	update_a 1 4
	updatepop_a 0 3
.d 2 0
	rtn
case.57
	buildh _Nothing 0
	push_a 3
	push_a 1
	update_a 1 2
	update_a 0 1
	pop_a 1
	update_a 1 4
	updatepop_a 0 3
.d 2 0
	rtn
.o 2 0
s298
	create
	push_a 1
	update_a 1 2
	updatepop_a 0 1
.d 2 0
	jsr s48
.o 1 0
	push_a 1
	push_a 1
	update_a 1 2
	update_a 0 1
	pop_a 1
	update_a 1 2
	updatepop_a 0 1
.d 2 0
	rtn
.o 2 0
s299
	create
	push_a 1
	update_a 1 2
	updatepop_a 0 1
.d 2 0
	jsr s50
.o 1 0
	push_a 1
	push_a 1
	update_a 1 2
	update_a 0 1
	pop_a 1
	update_a 1 2
	updatepop_a 0 1
.d 2 0
	rtn
