.comp 920 000011110011000
.start _nostart_
.depend "System._Pointer" "20210613122637"
.depend "Text" "20210613122637"
.depend "StdCharList" "20210613122638"
.depend "_SystemArray" "20210613122638"
.depend "StdArray" "20210613122638"
.depend "StdEnv" "20210613122638"
.depend "_SystemEnum" "20210613122638"
.depend "StdEnum" "20210613122638"
.depend "StdTuple" "20210613122638"
.depend "StdOrdList" "20210613122638"
.depend "System.OS" "20210613122637"
.depend "StdFile" "20210613122638"
.depend "System._Time" "20210613122637"
.depend "System.OSError" "20210613122637"
.depend "StdString" "20210613122638"
.depend "StdMisc" "20210613122638"
.depend "StdFunctions" "20210613122638"
.depend "_SystemEnumStrict" "20210613122638"
.depend "_SystemStrictLists" "20210613122638"
.depend "StdStrictLists" "20210613122638"
.depend "StdGeneric" "20210613122638"
.depend "Data.GenEq" "20210613122637"
.depend "StdReal" "20210613122638"
.depend "StdChar" "20210613122638"
.depend "StdInt" "20210613122638"
.depend "StdBool" "20210613122638"
.depend "StdClass" "20210613122638"
.depend "StdList" "20210613122638"
.depend "Data.Monoid" "20210613122637"
.depend "Control.Applicative" "20210613122637"
.depend "Control.Monad" "20210613122637"
.depend "Data.Functor" "20210613122637"
.depend "Data.Error" "20210613122637"
.depend "StdOverloaded" "20210613122638"
.depend "_SystemDynamic" "20210613122638"
.depend "System.Time" "20210613122637"
.module m_System.Time "System.Time" "20210613122637"
.endinfo
.impmod _system
.implab _cycle_in_spine
.implab _type_error
.implab _hnf
.impdesc e_system_dind
.implab e_system_nind e_system_eaind
.impdesc e_system_dif
.implab e_system_nif e_system_eaif
.implab e_system_sif
.impdesc e_system_dAP
.implab e_system_nAP e_system_eaAP
.implab e_system_sAP
.impdesc ARRAY
.impdesc _Nil
.impdesc _Cons
.impdesc _Conss
.implab n_Conss ea_Conss
.impdesc _Consts
.implab n_Consts ea_Consts
.impdesc _Conssts
.implab n_Conssts ea_Conssts
.impdesc _Tuple
.impdesc d_S.1
.implab n_S.1 ea_S.1
.impdesc d_S.2
.implab n_S.2 ea_S.2
.impdesc d_S.3
.implab n_S.3 ea_S.3
.impdesc d_S.4
.implab n_S.4 ea_S.4
.impdesc d_S.5
.implab n_S.5 ea_S.5
.impdesc d_S.6
.implab n_S.6 ea_S.6
.implab _driver
.impmod System._Pointer
.impdesc e_System._Pointer_dreadInt4S
.implab e_System._Pointer_nreadInt4S
.implab e_System._Pointer_sderefString
.implab e_System._Pointer_spackInt
.implab e_System._Pointer_spackString
.impmod Text
.implab e_Text_strim;22
.impmod _SystemArray
.impmod System._Time
.implab e_System._Time_s_timegm
.implab e_System._Time_s_nsTime
.implab e_System._Time_s_tsSleep
.impmod StdString
.implab e_StdString_stoString;5
.implab e_StdString_s%;10
.impmod StdMisc
.implab e_StdMisc_sabort
.impmod Data.GenEq
.implab e_Data.GenEq_sgEq_Int;7
.impmod StdInt
.implab e_StdInt_s<<
.implab e_StdInt_s+;6
.implab e_StdInt_s-;7
.implab e_StdInt_s/;10
.implab e_StdInt_s==;16
.implab e_StdInt_s<;17
.implab e_StdInt_srem;28
.export e_System.Time_rTm
.record e_System.Time_rTm aaaaaaaaa 9 0 "Tm"
.export e_System.Time_dTm.sec
.export e_System.Time_nTm.sec
.descs e_System.Time_dTm.sec e_System.Time_nTm.sec _ 1 0 "Tm.sec"
.n -4 e_System.Time_dTm.sec
.o 1 0 
e_System.Time_nTm.sec
	push_node _cycle_in_spine 1
	jsr_eval 0
	repl_r_args_a 9 0 1 1
	jsr_eval 0
.d 1 0 
	fill_a01_pop_rtn 
.export e_System.Time_dTm.min
.export e_System.Time_nTm.min
.descs e_System.Time_dTm.min e_System.Time_nTm.min _ 3 0 "Tm.min"
.n -4 e_System.Time_dTm.min
.o 1 0 
e_System.Time_nTm.min
	push_node _cycle_in_spine 1
	jsr_eval 0
	repl_r_args_a 9 0 2 1
	jsr_eval 0
.d 1 0 
	fill_a01_pop_rtn 
.export e_System.Time_dTm.hour
.export e_System.Time_nTm.hour
.descs e_System.Time_dTm.hour e_System.Time_nTm.hour _ 4 0 "Tm.hour"
.n -4 e_System.Time_dTm.hour
.o 1 0 
e_System.Time_nTm.hour
	push_node _cycle_in_spine 1
	jsr_eval 0
	repl_r_args_a 9 0 3 1
	jsr_eval 0
.d 1 0 
	fill_a01_pop_rtn 
.export e_System.Time_dTm.mday
.export e_System.Time_nTm.mday
.descs e_System.Time_dTm.mday e_System.Time_nTm.mday _ 5 0 "Tm.mday"
.n -4 e_System.Time_dTm.mday
.o 1 0 
e_System.Time_nTm.mday
	push_node _cycle_in_spine 1
	jsr_eval 0
	repl_r_args_a 9 0 4 1
	jsr_eval 0
.d 1 0 
	fill_a01_pop_rtn 
.export e_System.Time_dTm.mon
.export e_System.Time_nTm.mon
.descs e_System.Time_dTm.mon e_System.Time_nTm.mon _ 6 0 "Tm.mon"
.n -4 e_System.Time_dTm.mon
.o 1 0 
e_System.Time_nTm.mon
	push_node _cycle_in_spine 1
	jsr_eval 0
	repl_r_args_a 9 0 5 1
	jsr_eval 0
.d 1 0 
	fill_a01_pop_rtn 
.export e_System.Time_dTm.year
.export e_System.Time_nTm.year
.descs e_System.Time_dTm.year e_System.Time_nTm.year _ 7 0 "Tm.year"
.n -4 e_System.Time_dTm.year
.o 1 0 
e_System.Time_nTm.year
	push_node _cycle_in_spine 1
	jsr_eval 0
	repl_r_args_a 9 0 6 1
	jsr_eval 0
.d 1 0 
	fill_a01_pop_rtn 
.export e_System.Time_dTm.wday
.export e_System.Time_nTm.wday
.descs e_System.Time_dTm.wday e_System.Time_nTm.wday _ 8 0 "Tm.wday"
.n -4 e_System.Time_dTm.wday
.o 1 0 
e_System.Time_nTm.wday
	push_node _cycle_in_spine 1
	jsr_eval 0
	repl_r_args_a 9 0 7 1
	jsr_eval 0
.d 1 0 
	fill_a01_pop_rtn 
.export e_System.Time_dTm.yday
.export e_System.Time_nTm.yday
.descs e_System.Time_dTm.yday e_System.Time_nTm.yday _ 9 0 "Tm.yday"
.n -4 e_System.Time_dTm.yday
.o 1 0 
e_System.Time_nTm.yday
	push_node _cycle_in_spine 1
	jsr_eval 0
	repl_r_args_a 9 0 8 1
	jsr_eval 0
.d 1 0 
	fill_a01_pop_rtn 
.export e_System.Time_dTm.isdst
.export e_System.Time_nTm.isdst
.descs e_System.Time_dTm.isdst e_System.Time_nTm.isdst _ 10 0 "Tm.isdst"
.n -4 e_System.Time_dTm.isdst
.o 1 0 
e_System.Time_nTm.isdst
	push_node _cycle_in_spine 1
	jsr_eval 0
	repl_r_args_a 9 0 9 1
	jsr_eval 0
.d 1 0 
	fill_a01_pop_rtn 
.export e_System.Time_eaClock
.descexp e_System.Time_dClock e_System.Time_nClock e_System.Time_lClock 1 0 "Clock"
.o 2 0 
e_System.Time_lClock
	update_a 1 0
	create 
.d 2 0 
	put_a_jmp 2 e_System.Time_eaClock
.n 1 e_System.Time_dClock e_System.Time_eaClock
.o 1 0 
e_System.Time_nClock
	push_node _cycle_in_spine 1
.o 2 0 
e_System.Time_eaClock
	jsr_eval 0
	pushI0_pop_a1 
	fill_r e_System.Time_kClock 0 1 0 0 0
.d 1 0 
	pop_b_rtn 1
.export e_System.Time_kClock
.record e_System.Time_kClock di 0 1 "Clock"
.export e_System.Time_rTimespec
.record e_System.Time_rTimespec ii 0 2 "Timespec"
.descexp e_System.Time_tTimespec e_System.Time_cTimespec _hnf 2 1 "Timespec"
.n 2 e_System.Time_tTimespec
.o 1 0 
e_System.Time_cTimespec
	push_node _cycle_in_spine 2
	jsr_eval 1
	jsr_eval 0
	pushI_a 1
	pushI_a 0
	pop_a 2
.impmod System.Time
.impdesc e_System.Time_rTimespec
	fill_r e_System.Time_rTimespec 0 2 0 0 0
.d 1 0 
	pop_b_rtn 2
.export e_System.Time_dTimespec.tv_sec
.export e_System.Time_nTimespec.tv_sec
.descs e_System.Time_dTimespec.tv_sec e_System.Time_nTimespec.tv_sec INT 1 0 "Timespec.tv_sec"
.n -3 e_System.Time_dTimespec.tv_sec
.o 1 0 
e_System.Time_nTimespec.tv_sec
	push_node _cycle_in_spine 1
	jsr_eval 0
	push_r_args_b 0 0 2 1 1
	pop_a 1
	fillI_b 0 0
.d 1 0 
	pop_b_rtn 1
.export e_System.Time_dTimespec.tv_nsec
.export e_System.Time_nTimespec.tv_nsec
.descs e_System.Time_dTimespec.tv_nsec e_System.Time_nTimespec.tv_nsec INT 2 0 "Timespec.tv_nsec"
.n -3 e_System.Time_dTimespec.tv_nsec
.o 1 0 
e_System.Time_nTimespec.tv_nsec
	push_node _cycle_in_spine 1
	jsr_eval 0
	push_r_args_b 0 0 2 2 1
	pop_a 1
	fillI_b 0 0
.d 1 0 
	pop_b_rtn 1
.export e_System.Time_sTD;Timespec
.export e_System.Time_eaTD;Timespec
.descexp e_System.Time_dTD;Timespec e_System.Time_nTD;Timespec e_System.Time_lTD;Timespec 1 0 "TD;Timespec"
.o 2 0 
e_System.Time_lTD;Timespec
	update_a 1 0
	create 
.d 2 0 
	put_a_jmp 2 e_System.Time_eaTD;Timespec
.n 1 e_System.Time_dTD;Timespec e_System.Time_eaTD;Timespec
.o 1 0 
e_System.Time_nTD;Timespec
	push_node _cycle_in_spine 1
.o 2 0 
e_System.Time_eaTD;Timespec
.o 2 0 
e_System.Time_sTD;Timespec
.o 2 0 
s30
	fillh _Nil 0 1
.d 1 0 
	pop_a_rtn 1
.export e_System.Time_sTD;Clock
.export e_System.Time_eaTD;Clock
.descexp e_System.Time_dTD;Clock e_System.Time_nTD;Clock e_System.Time_lTD;Clock 1 0 "TD;Clock"
.o 2 0 
e_System.Time_lTD;Clock
	update_a 1 0
	create 
.d 2 0 
	put_a_jmp 2 e_System.Time_eaTD;Clock
.n 1 e_System.Time_dTD;Clock e_System.Time_eaTD;Clock
.o 1 0 
e_System.Time_nTD;Clock
	push_node _cycle_in_spine 1
.o 2 0 
e_System.Time_eaTD;Clock
.o 2 0 
e_System.Time_sTD;Clock
.o 2 0 
s29
	fillh _Nil 0 1
.d 1 0 
	pop_a_rtn 1
.export e_System.Time_sTD;Timestamp
.export e_System.Time_eaTD;Timestamp
.descexp e_System.Time_dTD;Timestamp e_System.Time_nTD;Timestamp e_System.Time_lTD;Timestamp 1 0 "TD;Timestamp"
.o 2 0 
e_System.Time_lTD;Timestamp
	update_a 1 0
	create 
.d 2 0 
	put_a_jmp 2 e_System.Time_eaTD;Timestamp
.n 1 e_System.Time_dTD;Timestamp e_System.Time_eaTD;Timestamp
.o 1 0 
e_System.Time_nTD;Timestamp
	push_node _cycle_in_spine 1
.o 2 0 
e_System.Time_eaTD;Timestamp
.o 2 0 
e_System.Time_sTD;Timestamp
.o 2 0 
s28
	fillh _Nil 0 1
.d 1 0 
	pop_a_rtn 1
.export e_System.Time_sTD;Tm
.export e_System.Time_eaTD;Tm
.descexp e_System.Time_dTD;Tm e_System.Time_nTD;Tm e_System.Time_lTD;Tm 1 0 "TD;Tm"
.o 2 0 
e_System.Time_lTD;Tm
	update_a 1 0
	create 
.d 2 0 
	put_a_jmp 2 e_System.Time_eaTD;Tm
.n 1 e_System.Time_dTD;Tm e_System.Time_eaTD;Tm
.o 1 0 
e_System.Time_nTD;Tm
	push_node _cycle_in_spine 1
.o 2 0 
e_System.Time_eaTD;Tm
.o 2 0 
e_System.Time_sTD;Tm
.o 2 0 
s27
	fillh _Nil 0 1
.d 1 0 
	pop_a_rtn 1
.export e_System.Time_sgEq_Timestamp;25
.descexp e_System.Time_dgEq_Timestamp;25 e_System.Time_ngEq_Timestamp;25 e_System.Time_lgEq_Timestamp;25 2 0 "gEq_Timestamp;25"
.o 3 0 
e_System.Time_igEq_Timestamp;25
	pop_a 1
	pushI_a 1
	pushI_a 0
.d 0 2 ii
	pop_a_jmp 2 s26
.ai 0 a26 e_System.Time_igEq_Timestamp;25
.o 2 0 
e_System.Time_lgEq_Timestamp;25
	repl_args 1 1
.o 2 0 
a26
.d 2 0 
	jsr ea26
.o 0 1 b
	buildB_b 0
.d 1 0 
	pop_b_rtn 1
.n 2 e_System.Time_dgEq_Timestamp;25
.o 1 0 
e_System.Time_ngEq_Timestamp;25
	push_node _cycle_in_spine 2
.d 2 0 
	jsr ea26
.o 0 1 b
	fillB_b 0 0
.d 1 0 
	pop_b_rtn 1
.o 2 0 
ea26
	jsr_eval 1
	jsr_eval 0
	pushI_a 1
	pushI_a 0
	pop_a 2
.o 0 2 ii
e_System.Time_sgEq_Timestamp;25
.o 0 2 ii
s26
.d 0 1 i
	push_b_jsr 1 s48
.o 0 1 i
.d 0 1 i
	push_b_jsr 1 s48
.o 0 1 i
	update2pop_b 0 2
s50
.d 0 2 ii
	jmp e_Data.GenEq_sgEq_Int;7
.o 0 1 i
s48
.d 0 1 i
	rtn 
.export e_System.Time_s==;24
.descexp e_System.Time_d==;24 e_System.Time_n==;24 e_System.Time_l==;24 2 0 "==;24"
.o 3 0 
e_System.Time_i==;24
	pop_a 1
	push_r_args 1 0 2
	push_r_args 0 0 2
.d 0 4 iiii
	pop_a_jmp 2 s25
.ai 0 a25 e_System.Time_i==;24
.o 2 0 
e_System.Time_l==;24
	repl_args 1 1
.o 2 0 
a25
.d 2 0 
	jsr ea25
.o 0 1 b
	buildB_b 0
.d 1 0 
	pop_b_rtn 1
.n 2 e_System.Time_d==;24
.o 1 0 
e_System.Time_n==;24
	push_node _cycle_in_spine 2
.d 2 0 
	jsr ea25
.o 0 1 b
	fillB_b 0 0
.d 1 0 
	pop_b_rtn 1
.o 2 0 
ea25
	jsr_eval 1
	jsr_eval 0
	push_r_args 1 0 2
	repl_r_args 0 2
	pop_a 1
.o 0 4 iiii
e_System.Time_s==;24
.o 0 4 iiii
s25
	push_b2 2 0
	jmp_neI else.1
	updatepop_b 1 2
	eqI
.d 0 1 b
	rtn 
else.1
	pop_b_pushB 4 FALSE
.d 0 1 b
	rtn 
.export e_System.Time_szero;23
.descexp e_System.Time_dzero;23 e_System.Time_nzero;23 e_System.Time_lzero;23 0 0 "zero;23"
.o 1 0 
e_System.Time_izero;23
.d 0 0 
	pop_a_jsr 1 s24
.o 0 2 ii
	buildhr e_System.Time_rTimespec 0 2
.d 1 0 
	rtn 
.o 1 0 
e_System.Time_lzero;23
	halt
.n 0 e_System.Time_dzero;23
.o 1 0 
e_System.Time_nzero;23
	push_node _cycle_in_spine 0
.d 0 0 
	jsr ea24
.o 0 2 ii
	fill_r e_System.Time_rTimespec 0 2 0 0 0
.d 1 0 
	pop_b_rtn 2
.o 0 0 
ea24
.o 0 0 
e_System.Time_szero;23
.o 0 0 
s24
	pushI 0
	pushI 0
.d 0 2 ii
	rtn 
.export e_System.Time_s-;22
.descexp e_System.Time_d-;22 e_System.Time_n-;22 e_System.Time_l-;22 2 0 "-;22"
.o 3 0 
e_System.Time_i-;22
	pop_a 1
	push_r_args 1 0 2
	push_r_args 0 0 2
.d 0 4 iiii
	pop_a_jsr 2 s23
.o 0 2 ii
	buildhr e_System.Time_rTimespec 0 2
.d 1 0 
	rtn 
.ai 0 a23 e_System.Time_i-;22
.o 2 0 
e_System.Time_l-;22
	repl_args 1 1
.o 2 0 
a23
.d 2 0 
	jsr ea23
.o 0 2 ii
	buildhr e_System.Time_rTimespec 0 2
.d 1 0 
	rtn 
.n 2 e_System.Time_d-;22
.o 1 0 
e_System.Time_n-;22
	push_node _cycle_in_spine 2
.d 2 0 
	jsr ea23
.o 0 2 ii
	fill_r e_System.Time_rTimespec 0 2 0 0 0
.d 1 0 
	pop_b_rtn 2
.o 2 0 
ea23
	jsr_eval 1
	jsr_eval 0
	push_r_args 1 0 2
	repl_r_args 0 2
	pop_a 1
.o 0 4 iiii
e_System.Time_s-;22
.o 0 4 iiii
s23
	push_b2 3 1
	subI
	pushI 0
	jmp_o_geI 1 else.2
	push_b 0
	pushI 1000000000
	addI
	push_b2 4 2
	subI
	decI
	update2pop_b 0 5
.d 0 2 ii
	rtn 
else.2
	push_b2 3 1
	subI
	update2pop_b 0 4
.d 0 2 ii
	rtn 
.export e_System.Time_s+;21
.descexp e_System.Time_d+;21 e_System.Time_n+;21 e_System.Time_l+;21 2 0 "+;21"
.o 3 0 
e_System.Time_i+;21
	pop_a 1
	push_r_args 1 0 2
	push_r_args 0 0 2
.d 0 4 iiii
	pop_a_jsr 2 s22
.o 0 2 ii
	buildhr e_System.Time_rTimespec 0 2
.d 1 0 
	rtn 
.ai 0 a22 e_System.Time_i+;21
.o 2 0 
e_System.Time_l+;21
	repl_args 1 1
.o 2 0 
a22
.d 2 0 
	jsr ea22
.o 0 2 ii
	buildhr e_System.Time_rTimespec 0 2
.d 1 0 
	rtn 
.n 2 e_System.Time_d+;21
.o 1 0 
e_System.Time_n+;21
	push_node _cycle_in_spine 2
.d 2 0 
	jsr ea22
.o 0 2 ii
	fill_r e_System.Time_rTimespec 0 2 0 0 0
.d 1 0 
	pop_b_rtn 2
.o 2 0 
ea22
	jsr_eval 1
	jsr_eval 0
	push_r_args 1 0 2
	repl_r_args 0 2
	pop_a 1
.o 0 4 iiii
e_System.Time_s+;21
.o 0 4 iiii
s22
	push_b2 3 1
	addI
	pushI 1000000000
	push_b 1
	remI
	pushI 1000000000
	push_b 2
	divI
	push_b2 5 3
	addI
	addI
	update2pop_b 0 5
.d 0 2 ii
	rtn 
.export e_System.Time_s<;20
.descexp e_System.Time_d<;20 e_System.Time_n<;20 e_System.Time_l<;20 2 0 "<;20"
.o 3 0 
e_System.Time_i<;20
	pop_a 1
	push_r_args 1 0 2
	push_r_args 0 0 2
.d 0 4 iiii
	pop_a_jmp 2 s21
.ai 0 a21 e_System.Time_i<;20
.o 2 0 
e_System.Time_l<;20
	repl_args 1 1
.o 2 0 
a21
.d 2 0 
	jsr ea21
.o 0 1 b
	buildB_b 0
.d 1 0 
	pop_b_rtn 1
.n 2 e_System.Time_d<;20
.o 1 0 
e_System.Time_n<;20
	push_node _cycle_in_spine 2
.d 2 0 
	jsr ea21
.o 0 1 b
	fillB_b 0 0
.d 1 0 
	pop_b_rtn 1
.o 2 0 
ea21
	jsr_eval 1
	jsr_eval 0
	push_r_args 1 0 2
	repl_r_args 0 2
	pop_a 1
.o 0 4 iiii
e_System.Time_s<;20
.o 0 4 iiii
s21
	push_b2 2 0
	jmp_neI else.3
	updatepop_b 1 2
	ltI
.d 0 1 b
	rtn 
else.3
	updates2pop_b 0 2 3
	ltI
.d 0 1 b
	rtn 
.export e_System.Time_stoInt;19
.descexp e_System.Time_dtoInt;19 e_System.Time_ntoInt;19 e_System.Time_ltoInt;19 1 0 "toInt;19"
.o 2 0 
e_System.Time_itoInt;19
	pop_a 1
	pushI0_pop_a1 
.d 0 1 i
	jmp s20
.ai 1 _ e_System.Time_itoInt;19
.o 2 0 
e_System.Time_ltoInt;19
.d 1 0 
	pop_a_jsr 1 ea20
.o 0 1 i
	buildI_b 0
.d 1 0 
	pop_b_rtn 1
.n 1 e_System.Time_dtoInt;19
.o 1 0 
e_System.Time_ntoInt;19
	push_node _cycle_in_spine 1
.d 1 0 
	jsr ea20
.o 0 1 i
	fillI_b 0 0
.d 1 0 
	pop_b_rtn 1
.o 1 0 
ea20
	jsr_eval 0
	pushI0_pop_a1 
.o 0 1 i
e_System.Time_stoInt;19
.o 0 1 i
s20
.d 0 1 i
	rtn 
.export e_System.Time_s<;18
.descexp e_System.Time_d<;18 e_System.Time_n<;18 e_System.Time_l<;18 2 0 "<;18"
.o 3 0 
e_System.Time_i<;18
	pop_a 1
	pushI_a 1
	pushI_a 0
.d 0 2 ii
	pop_a_jmp 2 s19
.ai 0 a19 e_System.Time_i<;18
.o 2 0 
e_System.Time_l<;18
	repl_args 1 1
.o 2 0 
a19
.d 2 0 
	jsr ea19
.o 0 1 b
	buildB_b 0
.d 1 0 
	pop_b_rtn 1
.n 2 e_System.Time_d<;18
.o 1 0 
e_System.Time_n<;18
	push_node _cycle_in_spine 2
.d 2 0 
	jsr ea19
.o 0 1 b
	fillB_b 0 0
.d 1 0 
	pop_b_rtn 1
.o 2 0 
ea19
	jsr_eval 1
	jsr_eval 0
	pushI_a 1
	pushI_a 0
	pop_a 2
.o 0 2 ii
e_System.Time_s<;18
.o 0 2 ii
s19
	ltI
.d 0 1 b
	rtn 
.export e_System.Time_s==;17
.descexp e_System.Time_d==;17 e_System.Time_n==;17 e_System.Time_l==;17 2 0 "==;17"
.o 3 0 
e_System.Time_i==;17
	pop_a 1
	pushI_a 1
	pushI_a 0
.d 0 2 ii
	pop_a_jmp 2 s18
.ai 0 a18 e_System.Time_i==;17
.o 2 0 
e_System.Time_l==;17
	repl_args 1 1
.o 2 0 
a18
.d 2 0 
	jsr ea18
.o 0 1 b
	buildB_b 0
.d 1 0 
	pop_b_rtn 1
.n 2 e_System.Time_d==;17
.o 1 0 
e_System.Time_n==;17
	push_node _cycle_in_spine 2
.d 2 0 
	jsr ea18
.o 0 1 b
	fillB_b 0 0
.d 1 0 
	pop_b_rtn 1
.o 2 0 
ea18
	jsr_eval 1
	jsr_eval 0
	pushI_a 1
	pushI_a 0
	pop_a 2
.o 0 2 ii
e_System.Time_s==;17
.o 0 2 ii
s18
	eqI
.d 0 1 b
	rtn 
.export e_System.Time_stoString;16
.descexp e_System.Time_dtoString;16 e_System.Time_ntoString;16 e_System.Time_ltoString;16 1 0 "toString;16"
.o 2 0 
e_System.Time_itoString;16
	pop_a 1
	pushI0_pop_a1 
.d 0 1 i
	jmp s17
.ai 1 _ e_System.Time_itoString;16
.o 2 0 
e_System.Time_ltoString;16
.d 1 0 
	pop_a_jsr 1 ea17
.o 1 0 
	buildh ARRAY 1
.d 1 0 
	rtn 
.n 1 e_System.Time_dtoString;16
.o 1 0 
e_System.Time_ntoString;16
	push_node _cycle_in_spine 1
.d 1 0 
	jsr ea17
.o 1 0 
	fillh ARRAY 1 1
.d 1 0 
	rtn 
.o 1 0 
ea17
	jsr_eval 0
	pushI0_pop_a1 
.o 0 1 i
e_System.Time_stoString;16
.o 0 1 i
s17
	pushI 0
	jmp_o_geI 1 else.4
	buildAC "System.Time: Timestamp cannot be negative\n"
.d 1 0 
	pop_b_jsr 1 print_string_
.o 0 0 
	halt
	push_array 0
	put_a 1
.d 1 0 
	rtn 
else.4
.d 0 1 i
	jsr e_System._Pointer_spackInt
.o 1 0 
.d 1 0 
	jsr s45
.o 0 1 i
.d 0 1 i
	jsr e_System._Pointer_sderefString
.o 1 0 
.d 1 0 
	jmp e_Text_strim;22
.o 1 0 
s45
	ccall ctime "A:p"
.d 0 1 i
	rtn 
.export e_System.Time_stoString;15
.descexp e_System.Time_dtoString;15 e_System.Time_ntoString;15 e_System.Time_ltoString;15 1 0 "toString;15"
.o 2 0 
e_System.Time_itoString;15
.d 1 0 
	pop_a_jmp 1 s16
.ai 1 _ e_System.Time_itoString;15
.o 2 0 
e_System.Time_ltoString;15
.d 1 0 
	pop_a_jsr 1 ea16
.o 1 0 
	buildh ARRAY 1
.d 1 0 
	rtn 
.n 1 e_System.Time_dtoString;15
.o 1 0 
e_System.Time_ntoString;15
	push_node _cycle_in_spine 1
.d 1 0 
	jsr ea16
.o 1 0 
	fillh ARRAY 1 1
.d 1 0 
	rtn 
.o 1 0 
ea16
	jsr_eval 0
.o 1 0 
e_System.Time_stoString;15
.o 1 0 
s16
	repl_r_args 0 1
.d 0 1 i
	jsr ItoAC
.o 1 0 
.d 1 0 
	rtn 
.export e_System.Time_stoString;14
.descexp e_System.Time_dtoString;14 e_System.Time_ntoString;14 e_System.Time_ltoString;14 1 0 "toString;14"
.o 2 0 
e_System.Time_itoString;14
	pop_a 1
	push_r_args 0 9 0
	update4_a 5 6
	update2_a 3 4
	update3pop_a 0 1
.d 9 0 
	jmp s15
.ai 1 _ e_System.Time_itoString;14
.o 2 0 
e_System.Time_ltoString;14
.d 1 0 
	pop_a_jsr 1 ea15
.o 1 0 
	buildh ARRAY 1
.d 1 0 
	rtn 
.n 1 e_System.Time_dtoString;14
.o 1 0 
e_System.Time_ntoString;14
	push_node _cycle_in_spine 1
.d 1 0 
	jsr ea15
.o 1 0 
	fillh ARRAY 1 1
.d 1 0 
	rtn 
.o 1 0 
ea15
	jsr_eval 0
	repl_r_args 9 0
.o 9 0 
e_System.Time_stoString;14
.o 9 0 
s15
.d 9 0 
	jsr s33
.o 1 0 
.d 1 0 
	jsr s44
.o 0 1 i
.d 0 1 i
	jsr e_System._Pointer_sderefString
.o 1 0 
.d 1 0 
	jmp e_Text_strim;22
.o 1 0 
s44
	ccall asctime "A:p"
.d 0 1 i
	rtn 
.export e_System.Time_stimestampToSpec
.descexp e_System.Time_dtimestampToSpec e_System.Time_ntimestampToSpec e_System.Time_ltimestampToSpec 1 0 "timestampToSpec"
.o 2 0 
e_System.Time_ltimestampToSpec
.d 1 0 
	pop_a_jsr 1 ea14
.o 0 2 ii
	buildhr e_System.Time_rTimespec 0 2
.d 1 0 
	rtn 
.n 1 e_System.Time_dtimestampToSpec
.o 1 0 
e_System.Time_ntimestampToSpec
	push_node _cycle_in_spine 1
.d 1 0 
	jsr ea14
.o 0 2 ii
	fill_r e_System.Time_rTimespec 0 2 0 0 0
.d 1 0 
	pop_b_rtn 2
.o 1 0 
ea14
	jsr_eval 0
	pushI0_pop_a1 
.o 0 1 i
e_System.Time_stimestampToSpec
.o 0 1 i
s14
	pushI 0
	swap_b1 
.d 0 2 ii
	rtn 
.export e_System.Time_stimespecToStamp
.descexp e_System.Time_dtimespecToStamp e_System.Time_ntimespecToStamp e_System.Time_ltimespecToStamp 1 0 "timespecToStamp"
.o 2 0 
e_System.Time_ltimespecToStamp
.d 1 0 
	pop_a_jsr 1 ea13
.o 0 1 i
	buildI_b 0
.d 1 0 
	pop_b_rtn 1
.n 1 e_System.Time_dtimespecToStamp
.o 1 0 
e_System.Time_ntimespecToStamp
	push_node _cycle_in_spine 1
.d 1 0 
	jsr ea13
.o 0 1 i
	fillI_b 0 0
.d 1 0 
	pop_b_rtn 1
.o 1 0 
ea13
	jsr_eval 0
	repl_r_args 0 2
.o 0 2 ii
e_System.Time_stimespecToStamp
.o 0 2 ii
s13
	put_b 1
.d 0 1 i
	rtn 
.export e_System.Time_stimespecSleep
.descexp e_System.Time_dtimespecSleep e_System.Time_ntimespecSleep e_System.Time_ltimespecSleep 2 0 "timespecSleep"
.a 0 a12
.o 2 0 
e_System.Time_ltimespecSleep
	repl_args 1 1
.o 2 0 
a12
.d 2 0 
	jsr ea12
.o 2 0 
	buildh _Tuple 2
.d 1 0 
	rtn 
.n 2 e_System.Time_dtimespecSleep
.o 1 0 
e_System.Time_ntimespecSleep
	push_node _cycle_in_spine 2
.d 2 0 
	jsr ea12
.o 2 0 
	fillh _Tuple 2 2
.d 1 0 
	rtn 
.o 2 0 
ea12
	jsr_eval 1
	jsr_eval 0
	repl_r_args 0 2
.o 1 2 ii
e_System.Time_stimespecSleep
.o 1 2 ii
s12
.d 1 2 ii
	jmp e_System._Time_s_tsSleep
.export e_System.Time_snsTime
.descexp e_System.Time_dnsTime e_System.Time_nnsTime e_System.Time_lnsTime 1 0 "nsTime"
.o 2 0 
e_System.Time_lnsTime
.d 1 0 
	pop_a_jsr 1 ea11
.o 1 2 ii
	push_a 0
	build_r e_System.Time_rTimespec 0 2 0 0
	buildh _Tuple 2
	put_a 1
.d 1 0 
	pop_b_rtn 2
.n 1 e_System.Time_dnsTime
.o 1 0 
e_System.Time_nnsTime
	push_node _cycle_in_spine 1
.d 1 0 
	jsr ea11
.o 1 2 ii
	push_a 0
	build_r e_System.Time_rTimespec 0 2 0 0
	fillh _Tuple 2 3
.d 1 0 
	pop_ab_rtn 1 2
.o 1 0 
ea11
	jsr_eval 0
.o 1 0 
e_System.Time_snsTime
.o 1 0 
s11
.d 1 0 
	jmp e_System._Time_s_nsTime
.export e_System.Time_stoGmTime
.descexp e_System.Time_dtoGmTime e_System.Time_ntoGmTime e_System.Time_ltoGmTime 1 0 "toGmTime"
.o 2 0 
e_System.Time_ltoGmTime
.d 1 0 
	pop_a_jsr 1 ea10
.o 9 0 
.impdesc e_System.Time_rTm
	buildhr e_System.Time_rTm 9 0
.d 1 0 
	rtn 
.n 1 e_System.Time_dtoGmTime
.o 1 0 
e_System.Time_ntoGmTime
	push_node _cycle_in_spine 1
.d 1 0 
	jsr ea10
.o 9 0 
	fill_r e_System.Time_rTm 9 0 9 0 0
.d 1 0 
	pop_a_rtn 9
.o 1 0 
ea10
	jsr_eval 0
	pushI0_pop_a1 
.o 0 1 i
e_System.Time_stoGmTime
.o 0 1 i
s10
.d 0 1 i
	jsr e_System._Pointer_spackInt
.o 1 0 
.d 1 0 
	jsr s31
.o 0 1 i
.d 0 1 i
	jmp s32
.export e_System.Time_stoLocalTime
.descexp e_System.Time_dtoLocalTime e_System.Time_ntoLocalTime e_System.Time_ltoLocalTime 2 0 "toLocalTime"
.a 0 a9
.o 2 0 
e_System.Time_ltoLocalTime
	repl_args 1 1
.o 2 0 
a9
.d 2 0 
	jsr ea9
.o 10 0 
	push_a 9
	build_r e_System.Time_rTm 9 0 1 0
	buildh _Tuple 2
	updatepop_a 0 10
.d 1 0 
	rtn 
.n 2 e_System.Time_dtoLocalTime
.o 1 0 
e_System.Time_ntoLocalTime
	push_node _cycle_in_spine 2
.d 2 0 
	jsr ea9
.o 10 0 
	push_a 9
	build_r e_System.Time_rTm 9 0 1 0
	fillh _Tuple 2 12
.d 1 0 
	pop_a_rtn 10
.o 2 0 
ea9
	jsr_eval 1
	jsr_eval 0
	pushI0_pop_a1 
.o 1 1 i
e_System.Time_stoLocalTime
.o 1 1 i
s9
.d 0 1 i
	jsr e_System._Pointer_spackInt
.o 1 0 
.d 2 0 
	jsr s47
.o 1 1 i
.d 0 1 i
	jsr s32
.o 9 0 
.d 10 0 
	rtn 
.o 2 0 
s47
	ccall localtime "A:p:I"
.d 1 1 i
	rtn 
.export e_System.Time_sstrfTime
.descexp e_System.Time_dstrfTime e_System.Time_nstrfTime e_System.Time_lstrfTime 2 0 "strfTime"
.a 0 a8
.o 2 0 
e_System.Time_lstrfTime
	repl_args 1 1
.o 2 0 
a8
.d 2 0 
	jsr ea8
.o 1 0 
	buildh ARRAY 1
.d 1 0 
	rtn 
.n 2 e_System.Time_dstrfTime
.o 1 0 
e_System.Time_nstrfTime
	push_node _cycle_in_spine 2
.d 2 0 
	jsr ea8
.o 1 0 
	fillh ARRAY 1 1
.d 1 0 
	rtn 
.o 2 0 
ea8
	jsr_eval 1
	jsr_eval 0
	push_r_args 1 9 0
	push_array 9
	update4_a 6 8
	update3_a 3 5
	update3pop_a 0 2
.o 10 0 
e_System.Time_sstrfTime
.o 10 0 
s8
	pushC 'X'
	pushI 256
	create_array CHAR 0 1
	push_update_a 2 4
	updates4_a 2 11 9 7 5
	updates3_a 8 6 4 2
	updates3pop_a 0 1 10 8
.d 9 0 
	jsr s33
.o 1 0 
	push_a 2
.d 1 0 
	buildh0_put_a_jsr _Nil 4 e_System._Pointer_spackString
.o 1 0 
	update_a 2 3
	push_a 2
	update3pop_a 0 1
	pushI 256
.d 4 1 i
	jsr s42
.o 1 1 i
	decI
	pushI 0
.d 1 2 ii
	jsr sliceAC
.o 1 0 
.d 1 0 
	rtn 
.o 4 1 i
s42
	ccall strftime "sIsA:I:A"
.d 1 1 i
	rtn 
.export e_System.Time_sdiffTime
.descexp e_System.Time_ddiffTime e_System.Time_ndiffTime e_System.Time_ldiffTime 2 0 "diffTime"
.a 0 a7
.o 2 0 
e_System.Time_ldiffTime
	repl_args 1 1
.o 2 0 
a7
.d 2 0 
	jsr ea7
.o 0 1 i
	buildI_b 0
.d 1 0 
	pop_b_rtn 1
.n 2 e_System.Time_ddiffTime
.o 1 0 
e_System.Time_ndiffTime
	push_node _cycle_in_spine 2
.d 2 0 
	jsr ea7
.o 0 1 i
	fillI_b 0 0
.d 1 0 
	pop_b_rtn 1
.o 2 0 
ea7
	jsr_eval 1
	jsr_eval 0
	pushI_a 1
	pushI_a 0
	pop_a 2
.o 0 2 ii
e_System.Time_sdiffTime
.o 0 2 ii
s7
	subI
.d 0 1 i
	rtn 
.export e_System.Time_stimeGm
.descexp e_System.Time_dtimeGm e_System.Time_ntimeGm e_System.Time_ltimeGm 1 0 "timeGm"
.o 2 0 
e_System.Time_ltimeGm
.d 1 0 
	pop_a_jsr 1 ea6
.o 0 1 i
	buildI_b 0
.d 1 0 
	pop_b_rtn 1
.n 1 e_System.Time_dtimeGm
.o 1 0 
e_System.Time_ntimeGm
	push_node _cycle_in_spine 1
.d 1 0 
	jsr ea6
.o 0 1 i
	fillI_b 0 0
.d 1 0 
	pop_b_rtn 1
.o 1 0 
ea6
	jsr_eval 0
	repl_r_args 9 0
.o 9 0 
e_System.Time_stimeGm
.o 9 0 
s6
.d 9 0 
	jsr s33
.o 1 0 
.d 1 0 
	jmp e_System._Time_s_timegm
.export e_System.Time_smkTime
.descexp e_System.Time_dmkTime e_System.Time_nmkTime e_System.Time_lmkTime 2 0 "mkTime"
.a 0 a5
.o 2 0 
e_System.Time_lmkTime
	repl_args 1 1
.o 2 0 
a5
.d 2 0 
	jsr ea5
.o 1 1 i
	push_a 0
	buildI_b 0
	buildh _Tuple 2
	put_a 1
.d 1 0 
	pop_b_rtn 1
.n 2 e_System.Time_dmkTime
.o 1 0 
e_System.Time_nmkTime
	push_node _cycle_in_spine 2
.d 2 0 
	jsr ea5
.o 1 1 i
	push_a 0
	buildI_b 0
	fillh _Tuple 2 3
.d 1 0 
	pop_ab_rtn 1 1
.o 2 0 
ea5
	jsr_eval 1
	jsr_eval 0
	repl_r_args 9 0
.o 10 0 
e_System.Time_smkTime
.o 10 0 
s5
.d 9 0 
	jsr s33
.o 1 0 
.d 2 0 
	jsr s41
.o 1 1 i
.d 1 1 i
	rtn 
.o 2 0 
s41
	ccall mktime "A:I:I"
.d 1 1 i
	rtn 
.o 9 0 
s33
s34
	push_jsr_eval 1
	pushI_a 2
	pop_a 1
	pushI 32
	swap_b1 
	shiftl%
	jsr_eval 0
	pushI_a 0
	addI
	push_jsr_eval 3
	pushI_a 4
	pop_a 1
	pushI 32
	swap_b1 
	shiftl%
	push_jsr_eval 2
	pushI_a 3
	pop_a 1
	addI
	push_jsr_eval 5
	pushI_a 6
	pop_a 1
	pushI 32
	swap_b1 
	shiftl%
	push_jsr_eval 4
	pushI_a 5
	pop_a 1
	addI
	push_jsr_eval 7
	pushI_a 8
	pop_a 1
	pushI 32
	swap_b1 
	shiftl%
	push_jsr_eval 6
	pushI_a 7
	pop_a 1
	addI
	push_jsr_eval 8
	pushI_a 9
	pop_a 10
	pushI 7
	create_array_ INT 0 1
	pushI 0
	pushI 6
	update INT 0 1
	pushI 0
	pushI 5
	update INT 0 1
	pushI 4
	update INT 0 1
	pushI 3
	update INT 0 1
	pushI 2
	update INT 0 1
	pushI 1
	update INT 0 1
	pushI 0
	update INT 0 1
.d 1 0 
	rtn 
.export e_System.Time_slocalTime
.descexp e_System.Time_dlocalTime e_System.Time_nlocalTime e_System.Time_llocalTime 1 0 "localTime"
.o 2 0 
e_System.Time_llocalTime
.d 1 0 
	pop_a_jsr 1 ea4
.o 10 0 
	push_a 9
	build_r e_System.Time_rTm 9 0 1 0
	buildh _Tuple 2
	updatepop_a 0 10
.d 1 0 
	rtn 
.n 1 e_System.Time_dlocalTime
.o 1 0 
e_System.Time_nlocalTime
	push_node _cycle_in_spine 1
.d 1 0 
	jsr ea4
.o 10 0 
	push_a 9
	build_r e_System.Time_rTm 9 0 1 0
	fillh _Tuple 2 12
.d 1 0 
	pop_a_rtn 10
.o 1 0 
ea4
	jsr_eval 0
.o 1 0 
e_System.Time_slocalTime
.o 1 0 
s4
.d 1 0 
	jsr s2
.o 1 1 i
.d 0 1 i
	jsr e_System._Pointer_spackInt
.o 1 0 
.d 2 0 
	jsr s46
.o 1 1 i
.d 0 1 i
	jsr s32
.o 9 0 
.d 10 0 
	rtn 
.o 2 0 
s46
	ccall localtime "A:p:I"
.d 1 1 i
	rtn 
.export e_System.Time_sgmTime
.descexp e_System.Time_dgmTime e_System.Time_ngmTime e_System.Time_lgmTime 1 0 "gmTime"
.o 2 0 
e_System.Time_lgmTime
.d 1 0 
	pop_a_jsr 1 ea3
.o 10 0 
	push_a 9
	build_r e_System.Time_rTm 9 0 1 0
	buildh _Tuple 2
	updatepop_a 0 10
.d 1 0 
	rtn 
.n 1 e_System.Time_dgmTime
.o 1 0 
e_System.Time_ngmTime
	push_node _cycle_in_spine 1
.d 1 0 
	jsr ea3
.o 10 0 
	push_a 9
	build_r e_System.Time_rTm 9 0 1 0
	fillh _Tuple 2 12
.d 1 0 
	pop_a_rtn 10
.o 1 0 
ea3
	jsr_eval 0
.o 1 0 
e_System.Time_sgmTime
.o 1 0 
s3
.d 1 0 
	jsr s2
.o 1 1 i
.d 0 1 i
	jsr e_System._Pointer_spackInt
.o 1 0 
.d 1 0 
	jsr s31
.o 0 1 i
.d 0 1 i
	jsr s32
.o 9 0 
.d 10 0 
	rtn 
.o 0 1 i
s32
	buildI 32
	buildI_b 0
	build e_System._Pointer_dreadInt4S 2 e_System._Pointer_nreadInt4S
	buildI 28
	buildI_b 0
	build e_System._Pointer_dreadInt4S 2 e_System._Pointer_nreadInt4S
	buildI 24
	buildI_b 0
	build e_System._Pointer_dreadInt4S 2 e_System._Pointer_nreadInt4S
	buildI 20
	buildI_b 0
	build e_System._Pointer_dreadInt4S 2 e_System._Pointer_nreadInt4S
	buildI 16
	buildI_b 0
	build e_System._Pointer_dreadInt4S 2 e_System._Pointer_nreadInt4S
	buildI 12
	buildI_b 0
	build e_System._Pointer_dreadInt4S 2 e_System._Pointer_nreadInt4S
	buildI 8
	buildI_b 0
	build e_System._Pointer_dreadInt4S 2 e_System._Pointer_nreadInt4S
	buildI 4
	buildI_b 0
	build e_System._Pointer_dreadInt4S 2 e_System._Pointer_nreadInt4S
	buildI 0
	buildI_b 0
	build e_System._Pointer_dreadInt4S 2 e_System._Pointer_nreadInt4S
.d 9 0 
	pop_b_rtn 1
.o 1 0 
s31
	ccall gmtime "A:p"
.d 0 1 i
	rtn 
.export e_System.Time_stime
.descexp e_System.Time_dtime e_System.Time_ntime e_System.Time_ltime 1 0 "time"
.o 2 0 
e_System.Time_ltime
.d 1 0 
	pop_a_jsr 1 ea2
.o 1 1 i
	push_a 0
	buildI_b 0
	buildh _Tuple 2
	put_a 1
.d 1 0 
	pop_b_rtn 1
.n 1 e_System.Time_dtime
.o 1 0 
e_System.Time_ntime
	push_node _cycle_in_spine 1
.d 1 0 
	jsr ea2
.o 1 1 i
	push_a 0
	buildI_b 0
	fillh _Tuple 2 3
.d 1 0 
	pop_ab_rtn 1 1
.o 1 0 
ea2
	jsr_eval 0
.o 1 0 
e_System.Time_stime
.o 1 0 
s2
	pushI 0
.d 1 1 i
	jsr s39
.o 1 1 i
.d 1 1 i
	rtn 
.o 1 1 i
s39
	ccall time "I:I:I"
.d 1 1 i
	rtn 
.export e_System.Time_sclock
.descexp e_System.Time_dclock e_System.Time_nclock e_System.Time_lclock 1 0 "clock"
.o 2 0 
e_System.Time_lclock
.d 1 0 
	pop_a_jsr 1 ea1
.o 2 0 
	buildh _Tuple 2
.d 1 0 
	rtn 
.n 1 e_System.Time_dclock
.o 1 0 
e_System.Time_nclock
	push_node _cycle_in_spine 1
.d 1 0 
	jsr ea1
.o 2 0 
	fillh _Tuple 2 2
.d 1 0 
	rtn 
.o 1 0 
ea1
	jsr_eval 0
.o 1 0 
e_System.Time_sclock
.o 1 0 
s1
.d 1 0 
	jsr s37
.o 1 1 i
	push_b 0
	buildhr e_System.Time_kClock 0 1
.d 2 0 
	pop_b_rtn 1
.o 1 0 
s37
	ccall clock ":I:I"
.d 1 1 i
	rtn 
