.comp 920 000011110011000
.start _nostart_
.depend "iTasks.Internal.SDSService" "20210613144730"
.depend "iTasks.Internal.Serialization" "20210613144730"
.depend "_SystemEnum" "20210613144732"
.depend "StdEnum" "20210613144732"
.depend "StdTuple" "20210613144732"
.depend "StdOrdList" "20210613144732"
.depend "Control.Monad.Trans" "20210613144732"
.depend "StdMaybe" "20210613144732"
.depend "Data.Maybe" "20210613144732"
.depend "iTasks.Extensions.Admin.WorkflowAdmin" "20210613144730"
.depend "iTasks.Extensions.User" "20210613144730"
.depend "iTasks.Extensions.Admin.UserAdmin" "20210613144730"
.depend "iTasks.UI.Layout.Common" "20210613144730"
.depend "iTasks.UI.Editor.Modifiers" "20210613144730"
.depend "iTasks.UI.Editor.Containers" "20210613144730"
.depend "iTasks.UI.Tune" "20210613144730"
.depend "iTasks.Internal.Distributed.Domain" "20210613144730"
.depend "iTasks.WF.Combinators.Common" "20210613144730"
.depend "iTasks.WF.Combinators.SDS" "20210613144730"
.depend "iTasks.UI.Editor.Controls" "20210613144730"
.depend "iTasks.WF.Tasks.Interaction" "20210613144730"
.depend "iTasks.WF.Tasks.System" "20210613144730"
.depend "iTasks.WF.Tasks.SDS" "20210613144730"
.depend "iTasks.WF.Tasks.Core" "20210613144730"
.depend "System.Time.GenJSON" "20210613144732"
.depend "Text.HTML.GenJSON" "20210613144732"
.depend "Data.Map.GenJSON" "20210613144732"
.depend "Data.Error.GenJSON" "20210613144732"
.depend "Data.Either.GenJSON" "20210613144732"
.depend "iTasks.WF.Derives" "20210613144730"
.depend "iTasks.SDS.Combinators.Common" "20210613144730"
.depend "iTasks.SDS.Combinators.Core" "20210613144730"
.depend "iTasks.SDS.Sources.System" "20210613144730"
.depend "iTasks.SDS.Sources.Store" "20210613144730"
.depend "iTasks.SDS.Sources.Core" "20210613144730"
.depend "iTasks.Internal.TaskIO" "20210613144730"
.depend "System._Signal" "20210613144732"
.depend "System.Signal" "20210613144732"
.depend "_SystemStrictMaybes" "20210613144732"
.depend "Text.GenPrint" "20210613144732"
.depend "iTasks.Extensions.DateTime" "20210613144730"
.depend "iTasks.Internal.TaskServer" "20210613144730"
.depend "AsyncIO" "20210613144730"
.depend "System._Process" "20210613144732"
.depend "System.Process" "20210613144732"
.depend "System.OS" "20210613144732"
.depend "TCPStringChannelsInternal" "20210613144732"
.depend "TCPStringChannels" "20210613144732"
.depend "TCPEvent" "20210613144732"
.depend "tcp_bytestreams" "20210613144732"
.depend "TCPDef" "20210613144732"
.depend "TCPChannels" "20210613144732"
.depend "TCPIP" "20210613144732"
.depend "iTasks.WF.Tasks.IO" "20210613144730"
.depend "Data.IntMap.Base" "20210613144732"
.depend "Data.IntMap.Strict" "20210613144732"
.depend "Data.CircularStack" "20210613144732"
.depend "iTasks.Extensions.Document" "20210613144730"
.depend "System.File" "20210613144732"
.depend "iTasks.Util.DeferredJSON" "20210613144730"
.depend "iTasks.UI.Layout" "20210613144730"
.depend "iTasks.Internal.TaskState" "20210613144730"
.depend "iTasks.Internal.SDS" "20210613144730"
.depend "Data.GenHash" "20210613144732"
.depend "Data.Maybe.Ord" "20210613144732"
.depend "Control.GenBimap" "20210613144732"
.depend "ABC.Interpreter.JavaScript" "20210613144730"
.depend "ABC.Interpreter" "20210613144730"
.depend "iTasks.UI.Editor" "20210613144730"
.depend "iTasks.UI.Editor.Generic" "20210613144730"
.depend "iTasks.Internal.Generic.Defaults" "20210613144730"
.depend "Data.GenDefault" "20210613144732"
.depend "Data.Integer" "20210613144732"
.depend "Text.HTML" "20210613144732"
.depend "iTasks.Internal.Generic.Visualization" "20210613144730"
.depend "iTasks.SDS.Definition" "20210613144730"
.depend "iTasks.WF.Combinators.Core" "20210613144730"
.depend "iTasks.Internal.TaskEval" "20210613144730"
.depend "iTasks.WF.Definition" "20210613144730"
.depend "iTasks.Internal.Task" "20210613144730"
.depend "iTasks.UI.Definition" "20210613144730"
.depend "Text.GenJSON" "20210613144732"
.depend "Data.Bifunctor" "20210613144732"
.depend "Data.Either" "20210613144732"
.depend "Data.Queue" "20210613144732"
.depend "StdFile" "20210613144732"
.depend "symbols_in_program" "20210613144730"
.depend "iTasks.Internal.IWorld" "20210613144730"
.depend "iTasks.Internal.WebService" "20210613144730"
.depend "tcp" "20210613144732"
.depend "TCPChannelClass" "20210613144732"
.depend "System._Time" "20210613144732"
.depend "System.Time" "20210613144732"
.depend "System.GetOpt" "20210613144732"
.depend "System.OSError" "20210613144732"
.depend "System.FilePath" "20210613144732"
.depend "StdString" "20210613144732"
.depend "Internet.HTTP" "20210613144732"
.depend "Control.Monad.Fail" "20210613144732"
.depend "Data.Traversable" "20210613144732"
.depend "StdMisc" "20210613144732"
.depend "StdOverloadedList" "20210613144732"
.depend "Data.List" "20210613144732"
.depend "Data.Foldable" "20210613144732"
.depend "Data.Set" "20210613144732"
.depend "Data.GenLexOrd" "20210613144732"
.depend "StdFunctions" "20210613144732"
.depend "StdFunc" "20210613144732"
.depend "Data.Map" "20210613144732"
.depend "_SystemEnumStrict" "20210613144732"
.depend "_SystemStrictLists" "20210613144732"
.depend "StdStrictLists" "20210613144732"
.depend "StdGeneric" "20210613144732"
.depend "Data.GenEq" "20210613144732"
.depend "StdReal" "20210613144732"
.depend "StdChar" "20210613144732"
.depend "StdInt" "20210613144732"
.depend "StdBool" "20210613144732"
.depend "StdClass" "20210613144732"
.depend "StdList" "20210613144732"
.depend "Data.Monoid" "20210613144732"
.depend "Control.Applicative" "20210613144732"
.depend "Control.Monad" "20210613144732"
.depend "Data.Functor" "20210613144732"
.depend "Data.Error" "20210613144732"
.depend "iTasks.Engine" "20210613144730"
.depend "iTasks" "20210613144730"
.depend "StdOverloaded" "20210613144732"
.depend "_SystemDynamic" "20210613144732"
.depend "BasicAPIExamples.EditorsOnCustomTypes.EnterPerson" "20210613144730"
.module m_BasicAPIExamples.EditorsOnCustomTypes.EnterPerson "BasicAPIExamples.EditorsOnCustomTypes.EnterPerson" "20210613144730"
.endinfo
.impmod _system
.implab _cycle_in_spine
.implab _type_error
.implab _hnf
.impdesc e_system_dind
.implab e_system_nind e_system_eaind
.impdesc e_system_dif
.implab e_system_nif e_system_eaif
.implab e_system_sif
.impdesc e_system_dAP
.implab e_system_nAP e_system_eaAP
.implab e_system_sAP
.impdesc ARRAY
.impdesc _Nil
.impdesc _Cons
.impdesc _Conss
.implab n_Conss ea_Conss
.impdesc _Consts
.implab n_Consts ea_Consts
.impdesc _Conssts
.implab n_Conssts ea_Conssts
.impdesc _Tuple
.impdesc d_S.1
.implab n_S.1 ea_S.1
.impdesc d_S.2
.implab n_S.2 ea_S.2
.impdesc d_S.3
.implab n_S.3 ea_S.3
.impdesc d_S.4
.implab n_S.4 ea_S.4
.impdesc d_S.5
.implab n_S.5 ea_S.5
.impdesc d_S.6
.implab n_S.6 ea_S.6
.implab _driver
.impmod iTasks.Extensions.Admin.WorkflowAdmin
.implab e_iTasks.Extensions.Admin.WorkflowAdmin_sworkflow
.impdesc e_iTasks.Extensions.Admin.WorkflowAdmin_dtoWorkflow;13
.impmod iTasks.UI.Tune
.implab e_iTasks.UI.Tune_s@>>
.impdesc e_iTasks.UI.Tune_dtune;7
.impmod iTasks.WF.Combinators.Common
.implab e_iTasks.WF.Combinators.Common_s>>!
.implab e_iTasks.WF.Combinators.Common_s@!
.impmod iTasks.WF.Tasks.Interaction
.implab e_iTasks.WF.Tasks.Interaction_senterInformation
.implab e_iTasks.WF.Tasks.Interaction_sviewInformation
.impmod iTasks.Extensions.DateTime
.implab e_iTasks.Extensions.DateTime_sJSONEncode_Date;30
.implab e_iTasks.Extensions.DateTime_sJSONDecode_Date;33
.implab e_iTasks.Extensions.DateTime_sgEq_Date;36
.impdesc e_iTasks.Extensions.DateTime_dgText_Date;39
.impdesc e_iTasks.Extensions.DateTime_dgEditor_Date;42
.impmod iTasks.UI.Editor
.implab e_iTasks.UI.Editor_sbinumap_Editor;15
.impmod iTasks.UI.Editor.Generic
.impdesc e_iTasks.UI.Editor.Generic_dgEditor_UNIT;0
.impdesc e_iTasks.UI.Editor.Generic_dgEditor_EITHER;1
.impdesc e_iTasks.UI.Editor.Generic_dgEditor_PAIR;2
.impdesc e_iTasks.UI.Editor.Generic_dgEditor_OBJECT;3
.implab e_iTasks.UI.Editor.Generic_ngEditor_OBJECT;3
.impdesc e_iTasks.UI.Editor.Generic_dgEditor_CONS;4
.impdesc e_iTasks.UI.Editor.Generic_dgEditor_RECORD;5
.implab e_iTasks.UI.Editor.Generic_ngEditor_RECORD;5
.impdesc e_iTasks.UI.Editor.Generic_dgEditor_FIELD;6
.impdesc e_iTasks.UI.Editor.Generic_dgEditor__String;11
.impmod iTasks.Internal.Generic.Visualization
.impdesc e_iTasks.Internal.Generic.Visualization_dgText_UNIT;5
.impdesc e_iTasks.Internal.Generic.Visualization_dgText_PAIR;6
.impdesc e_iTasks.Internal.Generic.Visualization_dgText_EITHER;7
.impdesc e_iTasks.Internal.Generic.Visualization_dgText_CONS;8
.implab e_iTasks.Internal.Generic.Visualization_sgText_OBJECT;9
.implab e_iTasks.Internal.Generic.Visualization_sgText_RECORD;10
.impdesc e_iTasks.Internal.Generic.Visualization_dgText_FIELD;11
.impdesc e_iTasks.Internal.Generic.Visualization_dgText__String;16
.impmod Text.GenJSON
.impdesc e_Text.GenJSON_dJSONEncode__String;16
.implab e_Text.GenJSON_sJSONEncode__String;16
.implab e_Text.GenJSON_nJSONEncode__String;16 e_Text.GenJSON_eaJSONEncode__String;16
.implab e_Text.GenJSON_sJSONDecode__String;46
.impmod StdString
.implab e_StdString_s==;2
.impmod Data.List
.implab e_Data.List_s!?
.impmod Data.GenEq
.implab e_Data.GenEq_sgEq__String;11
.impmod iTasks.Extensions.Admin.WorkflowAdmin
.impdesc e_iTasks.Extensions.Admin.WorkflowAdmin_rtoWorkflow;
.impmod iTasks.UI.Tune
.impdesc e_iTasks.UI.Tune_rtune;
.impmod iTasks.WF.Definition
.impdesc e_iTasks.WF.Definition_riTask;
.impmod iTasks.UI.Definition
.impdesc e_iTasks.UI.Definition_kHint
.impmod Text.GenJSON
.impdesc e_Text.GenJSON_dJSONNull
.impdesc e_Text.GenJSON_kJSONString
.impdesc e_Text.GenJSON_dJSONString
.implab e_Text.GenJSON_nJSONString e_Text.GenJSON_eaJSONString
.impdesc e_Text.GenJSON_kJSONArray
.impdesc e_Text.GenJSON_kJSONObject
.impdesc e_Text.GenJSON_dJSONObject
.implab e_Text.GenJSON_nJSONObject e_Text.GenJSON_eaJSONObject
.impmod StdGeneric
.impdesc e_StdGeneric_dUNIT
.impdesc e_StdGeneric_dLEFT
.impdesc e_StdGeneric_dRIGHT
.impdesc e_StdGeneric_dPAIR
.impdesc e_StdGeneric_dCONS
.impdesc e_StdGeneric_dRECORD
.impdesc e_StdGeneric_rGenericTypeDefDescriptor
.impdesc e_StdGeneric_rGenericConsDescriptor
.impdesc e_StdGeneric_dGenConsNoPrio
.impdesc e_StdGeneric_dGenTypeCons
.impdesc e_StdGeneric_dGenTypeApp
.impdesc e_StdGeneric_dGenTypeArrow
.impmod _SystemDynamic
.impdesc e__SystemDynamic_kTypeCons
.impdesc e__SystemDynamic_rTypeCodeConstructor
.export e_BasicAPIExamples.EditorsOnCustomTypes.EnterPerson_rPerson
.record e_BasicAPIExamples.EditorsOnCustomTypes.EnterPerson_rPerson aaa 3 0 "Person"
.export e_BasicAPIExamples.EditorsOnCustomTypes.EnterPerson_dMale
.desc e_BasicAPIExamples.EditorsOnCustomTypes.EnterPerson_dMale _hnf _hnf 0 0 "Male"
.export e_BasicAPIExamples.EditorsOnCustomTypes.EnterPerson_dFemale
.desc e_BasicAPIExamples.EditorsOnCustomTypes.EnterPerson_dFemale _hnf _hnf 0 0 "Female"
.export e_BasicAPIExamples.EditorsOnCustomTypes.EnterPerson_dOther
.desc e_BasicAPIExamples.EditorsOnCustomTypes.EnterPerson_dOther _hnf _add_arg 1 0 "Other"
.export e_BasicAPIExamples.EditorsOnCustomTypes.EnterPerson_rgEditor_s;
.record e_BasicAPIExamples.EditorsOnCustomTypes.EnterPerson_rgEditor_s; a 1 0 "gEditor_s;"
.export e_BasicAPIExamples.EditorsOnCustomTypes.EnterPerson_tgEditor_s;
.export e_BasicAPIExamples.EditorsOnCustomTypes.EnterPerson_cgEditor_s;
.descn e_BasicAPIExamples.EditorsOnCustomTypes.EnterPerson_tgEditor_s; e_BasicAPIExamples.EditorsOnCustomTypes.EnterPerson_cgEditor_s; 1 1 "gEditor_s;"
.n 1 e_BasicAPIExamples.EditorsOnCustomTypes.EnterPerson_tgEditor_s;
.o 1 0
e_BasicAPIExamples.EditorsOnCustomTypes.EnterPerson_cgEditor_s;
	push_node _cycle_in_spine 1
	jsr_eval 0
.impmod BasicAPIExamples.EditorsOnCustomTypes.EnterPerson
.impdesc e_BasicAPIExamples.EditorsOnCustomTypes.EnterPerson_rgEditor_s;
	fill_r e_BasicAPIExamples.EditorsOnCustomTypes.EnterPerson_rgEditor_s; 1 0 1 0 0
	pop_a 1
.d 1 0
	rtn
.export e_BasicAPIExamples.EditorsOnCustomTypes.EnterPerson_rgText_s;
.record e_BasicAPIExamples.EditorsOnCustomTypes.EnterPerson_rgText_s; a 1 0 "gText_s;"
.export e_BasicAPIExamples.EditorsOnCustomTypes.EnterPerson_tgText_s;
.export e_BasicAPIExamples.EditorsOnCustomTypes.EnterPerson_cgText_s;
.descn e_BasicAPIExamples.EditorsOnCustomTypes.EnterPerson_tgText_s; e_BasicAPIExamples.EditorsOnCustomTypes.EnterPerson_cgText_s; 1 1 "gText_s;"
.n 1 e_BasicAPIExamples.EditorsOnCustomTypes.EnterPerson_tgText_s;
.o 1 0
e_BasicAPIExamples.EditorsOnCustomTypes.EnterPerson_cgText_s;
	push_node _cycle_in_spine 1
	jsr_eval 0
.impdesc e_BasicAPIExamples.EditorsOnCustomTypes.EnterPerson_rgText_s;
	fill_r e_BasicAPIExamples.EditorsOnCustomTypes.EnterPerson_rgText_s; 1 0 1 0 0
	pop_a 1
.d 1 0
	rtn
.export e_BasicAPIExamples.EditorsOnCustomTypes.EnterPerson_rJSONEncode_s;
.record e_BasicAPIExamples.EditorsOnCustomTypes.EnterPerson_rJSONEncode_s; a 1 0 "JSONEncode_s;"
.export e_BasicAPIExamples.EditorsOnCustomTypes.EnterPerson_tJSONEncode_s;
.export e_BasicAPIExamples.EditorsOnCustomTypes.EnterPerson_cJSONEncode_s;
.descn e_BasicAPIExamples.EditorsOnCustomTypes.EnterPerson_tJSONEncode_s; e_BasicAPIExamples.EditorsOnCustomTypes.EnterPerson_cJSONEncode_s; 1 1 "JSONEncode_s;"
.n 1 e_BasicAPIExamples.EditorsOnCustomTypes.EnterPerson_tJSONEncode_s;
.o 1 0
e_BasicAPIExamples.EditorsOnCustomTypes.EnterPerson_cJSONEncode_s;
	push_node _cycle_in_spine 1
	jsr_eval 0
.impdesc e_BasicAPIExamples.EditorsOnCustomTypes.EnterPerson_rJSONEncode_s;
	fill_r e_BasicAPIExamples.EditorsOnCustomTypes.EnterPerson_rJSONEncode_s; 1 0 1 0 0
	pop_a 1
.d 1 0
	rtn
.export e_BasicAPIExamples.EditorsOnCustomTypes.EnterPerson_rJSONDecode_s;
.record e_BasicAPIExamples.EditorsOnCustomTypes.EnterPerson_rJSONDecode_s; a 1 0 "JSONDecode_s;"
.export e_BasicAPIExamples.EditorsOnCustomTypes.EnterPerson_tJSONDecode_s;
.export e_BasicAPIExamples.EditorsOnCustomTypes.EnterPerson_cJSONDecode_s;
.descn e_BasicAPIExamples.EditorsOnCustomTypes.EnterPerson_tJSONDecode_s; e_BasicAPIExamples.EditorsOnCustomTypes.EnterPerson_cJSONDecode_s; 1 1 "JSONDecode_s;"
.n 1 e_BasicAPIExamples.EditorsOnCustomTypes.EnterPerson_tJSONDecode_s;
.o 1 0
e_BasicAPIExamples.EditorsOnCustomTypes.EnterPerson_cJSONDecode_s;
	push_node _cycle_in_spine 1
	jsr_eval 0
.impdesc e_BasicAPIExamples.EditorsOnCustomTypes.EnterPerson_rJSONDecode_s;
	fill_r e_BasicAPIExamples.EditorsOnCustomTypes.EnterPerson_rJSONDecode_s; 1 0 1 0 0
	pop_a 1
.d 1 0
	rtn
.export e_BasicAPIExamples.EditorsOnCustomTypes.EnterPerson_rgEq_s;
.record e_BasicAPIExamples.EditorsOnCustomTypes.EnterPerson_rgEq_s; a 1 0 "gEq_s;"
.export e_BasicAPIExamples.EditorsOnCustomTypes.EnterPerson_tgEq_s;
.export e_BasicAPIExamples.EditorsOnCustomTypes.EnterPerson_cgEq_s;
.descn e_BasicAPIExamples.EditorsOnCustomTypes.EnterPerson_tgEq_s; e_BasicAPIExamples.EditorsOnCustomTypes.EnterPerson_cgEq_s; 1 1 "gEq_s;"
.n 1 e_BasicAPIExamples.EditorsOnCustomTypes.EnterPerson_tgEq_s;
.o 1 0
e_BasicAPIExamples.EditorsOnCustomTypes.EnterPerson_cgEq_s;
	push_node _cycle_in_spine 1
	jsr_eval 0
.impdesc e_BasicAPIExamples.EditorsOnCustomTypes.EnterPerson_rgEq_s;
	fill_r e_BasicAPIExamples.EditorsOnCustomTypes.EnterPerson_rgEq_s; 1 0 1 0 0
	pop_a 1
.d 1 0
	rtn
.export e_BasicAPIExamples.EditorsOnCustomTypes.EnterPerson_sTD;Gender
.export e_BasicAPIExamples.EditorsOnCustomTypes.EnterPerson_eaTD;Gender
.descexp e_BasicAPIExamples.EditorsOnCustomTypes.EnterPerson_dTD;Gender e_BasicAPIExamples.EditorsOnCustomTypes.EnterPerson_nTD;Gender e_BasicAPIExamples.EditorsOnCustomTypes.EnterPerson_lTD;Gender 1 0 "TD;Gender"
.o 2 0
e_BasicAPIExamples.EditorsOnCustomTypes.EnterPerson_lTD;Gender
	update_a 1 0
	create
	update_a 0 2
	pop_a 1
.d 2 0
	jmp e_BasicAPIExamples.EditorsOnCustomTypes.EnterPerson_eaTD;Gender
.n 1 e_BasicAPIExamples.EditorsOnCustomTypes.EnterPerson_dTD;Gender e_BasicAPIExamples.EditorsOnCustomTypes.EnterPerson_eaTD;Gender
.o 1 0
e_BasicAPIExamples.EditorsOnCustomTypes.EnterPerson_nTD;Gender
	push_node _cycle_in_spine 1
.o 2 0
e_BasicAPIExamples.EditorsOnCustomTypes.EnterPerson_eaTD;Gender
.o 2 0
e_BasicAPIExamples.EditorsOnCustomTypes.EnterPerson_sTD;Gender
.o 2 0
s15
	fillh _Nil 0 1
	pop_a 1
.d 1 0
	rtn
.export e_BasicAPIExamples.EditorsOnCustomTypes.EnterPerson_smain
.export e_BasicAPIExamples.EditorsOnCustomTypes.EnterPerson_eamain
.descexp e_BasicAPIExamples.EditorsOnCustomTypes.EnterPerson_dmain e_BasicAPIExamples.EditorsOnCustomTypes.EnterPerson_nmain e_BasicAPIExamples.EditorsOnCustomTypes.EnterPerson_lmain 0 0 "main"
.o 1 0
e_BasicAPIExamples.EditorsOnCustomTypes.EnterPerson_lmain
	halt
.n 0 e_BasicAPIExamples.EditorsOnCustomTypes.EnterPerson_dmain e_BasicAPIExamples.EditorsOnCustomTypes.EnterPerson_eamain
.o 1 0
e_BasicAPIExamples.EditorsOnCustomTypes.EnterPerson_nmain
	push_node _cycle_in_spine 0
.o 1 0
e_BasicAPIExamples.EditorsOnCustomTypes.EnterPerson_eamain
.o 1 0
e_BasicAPIExamples.EditorsOnCustomTypes.EnterPerson_smain
.o 1 0
s2
	buildh e__predef_d_Unit 0
	create
.d 1 0
	jsr s3
.o 1 0
.d 3 0
	jmp e_iTasks.WF.Combinators.Common_s@!
.export e_BasicAPIExamples.EditorsOnCustomTypes.EnterPerson_swf
.descexp e_BasicAPIExamples.EditorsOnCustomTypes.EnterPerson_dwf e_BasicAPIExamples.EditorsOnCustomTypes.EnterPerson_nwf e_BasicAPIExamples.EditorsOnCustomTypes.EnterPerson_lwf 1 0 "wf"
.o 2 0
e_BasicAPIExamples.EditorsOnCustomTypes.EnterPerson_lwf
	pop_a 1
.d 1 0
	jsr ea1
.o 6 0
.impmod iTasks.Extensions.Admin.WorkflowAdmin
.impdesc e_iTasks.Extensions.Admin.WorkflowAdmin_rWorkflow
	buildhr e_iTasks.Extensions.Admin.WorkflowAdmin_rWorkflow 6 0
.d 1 0
	rtn
.n 1 e_BasicAPIExamples.EditorsOnCustomTypes.EnterPerson_dwf
.o 1 0
e_BasicAPIExamples.EditorsOnCustomTypes.EnterPerson_nwf
	push_node _cycle_in_spine 1
.d 1 0
	jsr ea1
.o 6 0
	fill_r e_iTasks.Extensions.Admin.WorkflowAdmin_rWorkflow 6 0 6 0 0
	pop_a 6
.d 1 0
	rtn
.o 1 0
ea1
.o 1 0
e_BasicAPIExamples.EditorsOnCustomTypes.EnterPerson_swf
.o 1 0
s1
	build e_BasicAPIExamples.EditorsOnCustomTypes.EnterPerson_denterPerson.3 0 e_BasicAPIExamples.EditorsOnCustomTypes.EnterPerson_nenterPerson.3
	buildh e_BasicAPIExamples.EditorsOnCustomTypes.EnterPerson_dTD;Person 0
	buildhr e__SystemDynamic_kTypeCons 1 0
	buildh e_BasicAPIExamples.EditorsOnCustomTypes.EnterPerson_dgEq_Person;8.8 0
	buildh e_BasicAPIExamples.EditorsOnCustomTypes.EnterPerson_dJSONDecode_Person;7.7 0
	buildh e_BasicAPIExamples.EditorsOnCustomTypes.EnterPerson_dJSONEncode_Person;6.6 0
	buildh e_BasicAPIExamples.EditorsOnCustomTypes.EnterPerson_dgText_Person;5.5 0
	buildh e_BasicAPIExamples.EditorsOnCustomTypes.EnterPerson_dgEditor_Person;4.4 0
	buildhr e_iTasks.WF.Definition_riTask; 6 0
	buildh e_iTasks.Extensions.Admin.WorkflowAdmin_dtoWorkflow;13 1
	buildAC "Enter a person"
	buildh ARRAY 1
	push_a 3
	push_a 2
	update_a 2 3
	update_a 1 2
	update_a 0 1
	pop_a 1
	update_a 3 4
	update_a 2 3
	update_a 1 2
	updatepop_a 0 1
.d 4 0
	jmp e_iTasks.Extensions.Admin.WorkflowAdmin_sworkflow
.export e_BasicAPIExamples.EditorsOnCustomTypes.EnterPerson_denterPerson.3
.export e_BasicAPIExamples.EditorsOnCustomTypes.EnterPerson_nenterPerson.3
.descn e_BasicAPIExamples.EditorsOnCustomTypes.EnterPerson_denterPerson.3 e_BasicAPIExamples.EditorsOnCustomTypes.EnterPerson_nenterPerson.3 0 0 "enterPerson.3"
.n 0 e_BasicAPIExamples.EditorsOnCustomTypes.EnterPerson_denterPerson.3 ea3
.o 1 0
e_BasicAPIExamples.EditorsOnCustomTypes.EnterPerson_nenterPerson.3
	push_node _cycle_in_spine 0
.o 1 0
ea3
.o 1 0
s3
	buildh e_BasicAPIExamples.EditorsOnCustomTypes.EnterPerson_d\;27;9;656.84 0
	buildh _Nil 0
	buildh e_BasicAPIExamples.EditorsOnCustomTypes.EnterPerson_dTD;Person 0
	buildhr e__SystemDynamic_kTypeCons 1 0
	buildh e_BasicAPIExamples.EditorsOnCustomTypes.EnterPerson_dgEq_Person;8.8 0
	buildh e_BasicAPIExamples.EditorsOnCustomTypes.EnterPerson_dJSONDecode_Person;7.7 0
	buildh e_BasicAPIExamples.EditorsOnCustomTypes.EnterPerson_dJSONEncode_Person;6.6 0
	buildh e_BasicAPIExamples.EditorsOnCustomTypes.EnterPerson_dgText_Person;5.5 0
	buildh e_BasicAPIExamples.EditorsOnCustomTypes.EnterPerson_dgEditor_Person;4.4 0
	create
	push_a 7
	update_a 1 8
	update_a 2 1
	update_a 3 2
	update_a 4 3
	update_a 5 4
	update_a 6 5
	update_a 7 6
	update_a 0 7
	pop_a 1
.d 8 0
	jsr e_iTasks.WF.Tasks.Interaction_senterInformation
.o 1 0
	buildAC "Enter a person:"
	buildhr e_iTasks.UI.Definition_kHint 1 0
	buildh e_iTasks.UI.Tune_dtune;7 0
.d 3 0
	jsr e_iTasks.UI.Tune_s@>>
.o 1 0
	buildh e_BasicAPIExamples.EditorsOnCustomTypes.EnterPerson_dJSONEncode_Person;6.6 0
	buildh e_BasicAPIExamples.EditorsOnCustomTypes.EnterPerson_dTD;Person 0
	buildhr e__SystemDynamic_kTypeCons 1 0
.d 5 0
	jmp e_iTasks.WF.Combinators.Common_s>>!
.export e_BasicAPIExamples.EditorsOnCustomTypes.EnterPerson_d\;27;9;656.84
.desc e_BasicAPIExamples.EditorsOnCustomTypes.EnterPerson_d\;27;9;656.84 _hnf l84 1 0 "\;27;9;656.84"
.o 2 0
l84
	update_a 1 0
	create
	update_a 0 2
	pop_a 1
.o 2 0
ea84
	jsr_eval 0
	repl_r_args 3 0
.o 4 0
s84
.impmod BasicAPIExamples.EditorsOnCustomTypes.EnterPerson
.impdesc e_BasicAPIExamples.EditorsOnCustomTypes.EnterPerson_rPerson
	build_r e_BasicAPIExamples.EditorsOnCustomTypes.EnterPerson_rPerson 3 0 0 0
	buildh _Nil 0
	buildh e_BasicAPIExamples.EditorsOnCustomTypes.EnterPerson_dTD;Person 0
	buildhr e__SystemDynamic_kTypeCons 1 0
	buildh e_BasicAPIExamples.EditorsOnCustomTypes.EnterPerson_dgEq_Person;8.8 0
	buildh e_BasicAPIExamples.EditorsOnCustomTypes.EnterPerson_dJSONDecode_Person;7.7 0
	buildh e_BasicAPIExamples.EditorsOnCustomTypes.EnterPerson_dJSONEncode_Person;6.6 0
	buildh e_BasicAPIExamples.EditorsOnCustomTypes.EnterPerson_dgText_Person;5.5 0
	buildh e_BasicAPIExamples.EditorsOnCustomTypes.EnterPerson_dgEditor_Person;4.4 0
	create
	push_a 8
	update_a 1 9
	update_a 2 1
	update_a 3 2
	update_a 4 3
	update_a 5 4
	update_a 6 5
	update_a 7 6
	update_a 8 7
	update_a 0 8
	pop_a 1
	update_a 8 11
	update_a 7 10
	update_a 6 9
	update_a 5 8
	update_a 4 7
	update_a 3 6
	update_a 2 5
	update_a 1 4
	updatepop_a 0 3
.d 9 0
	jsr e_iTasks.WF.Tasks.Interaction_sviewInformation
.o 1 0
	buildAC "You Entered:"
	buildhr e_iTasks.UI.Definition_kHint 1 0
	buildh e_iTasks.UI.Tune_dtune;7 0
.d 3 0
	jsr e_iTasks.UI.Tune_s@>>
.o 1 0
	fill_a 0 1
	pop_a 1
.d 1 0
	rtn
.export e_BasicAPIExamples.EditorsOnCustomTypes.EnterPerson_dgEditor_Person;4.4
.desc e_BasicAPIExamples.EditorsOnCustomTypes.EnterPerson_dgEditor_Person;4.4 _hnf l4 1 0 "gEditor_Person;4.4"
.o 2 0
i4
	pop_a 1
.d 1 0
	jmp s4
.ai 1 _ i4
.o 2 0
l4
	pop_a 1
.d 1 0
	jsr ea4
.o 4 0
.impmod iTasks.UI.Editor
.impdesc e_iTasks.UI.Editor_rEditor
	buildhr e_iTasks.UI.Editor_rEditor 4 0
.d 1 0
	rtn
.o 1 0
ea4
	jsr_eval 0
.o 1 0
s4
	buildh e_iTasks.Extensions.DateTime_dgEditor_Date;42 0
	buildAC "dateOfBirth"
	buildh ARRAY 1
	buildh e_iTasks.UI.Editor.Generic_dgEditor_FIELD;6 2
	buildh e_BasicAPIExamples.EditorsOnCustomTypes.EnterPerson_dgEditor_Gender;9.9 0
	buildAC "gender"
	buildh ARRAY 1
	buildh e_iTasks.UI.Editor.Generic_dgEditor_FIELD;6 2
	buildh e_iTasks.UI.Editor.Generic_dgEditor_PAIR;2 2
	buildh e_iTasks.UI.Editor.Generic_dgEditor__String;11 0
	buildAC "name"
	buildh ARRAY 1
	buildh e_iTasks.UI.Editor.Generic_dgEditor_FIELD;6 2
	buildh e_iTasks.UI.Editor.Generic_dgEditor_PAIR;2 2
	push_a 1
	buildI 3
	push_a 2
	update_a 2 3
	update_a 0 2
	pop_a 1
	build e_iTasks.UI.Editor.Generic_dgEditor_RECORD;5 3 e_iTasks.UI.Editor.Generic_ngEditor_RECORD;5
	buildh e_BasicAPIExamples.EditorsOnCustomTypes.EnterPerson_dbimapToGeneric;35.30 0
	buildh e_BasicAPIExamples.EditorsOnCustomTypes.EnterPerson_dbimapFromGeneric;34.29 0
	buildh e_BasicAPIExamples.EditorsOnCustomTypes.EnterPerson_dtoGenericPerson;23.18 0
	buildh e_BasicAPIExamples.EditorsOnCustomTypes.EnterPerson_dfromGenericPerson;22.17 0
	update_a 4 5
	update_a 3 4
	update_a 2 3
	update_a 1 2
	updatepop_a 0 1
.d 5 0
	jmp e_iTasks.UI.Editor_sbinumap_Editor;15
.export e_BasicAPIExamples.EditorsOnCustomTypes.EnterPerson_dbimapFromGeneric;34.29
.desc e_BasicAPIExamples.EditorsOnCustomTypes.EnterPerson_dbimapFromGeneric;34.29 _hnf l29 1 0 "bimapFromGeneric;34.29"
.o 2 0
l29
	update_a 1 0
	create
	update_a 0 2
	pop_a 1
.o 2 0
ea29
	jsr_eval 0
.o 2 0
s29
	eq_desc _Just 1 0
	jmp_true case.1
	jmp case.2
case.1
	repl_args 1 1
	push_a 0
	updatepop_a 0 1
.d 1 0
	jsr s17
.o 3 0
	buildhr e_BasicAPIExamples.EditorsOnCustomTypes.EnterPerson_rPerson 3 0
	fillh _Just 1 1
.d 1 0
	rtn
case.2
	fillh _None 0 1
	pop_a 1
.d 1 0
	rtn
.export e_BasicAPIExamples.EditorsOnCustomTypes.EnterPerson_dbimapToGeneric;35.30
.desc e_BasicAPIExamples.EditorsOnCustomTypes.EnterPerson_dbimapToGeneric;35.30 _hnf l30 1 0 "bimapToGeneric;35.30"
.o 2 0
l30
	update_a 1 0
	create
	update_a 0 2
	pop_a 1
.o 2 0
ea30
	jsr_eval 0
.o 2 0
s30
	eq_desc _Just 1 0
	jmp_true case.3
	jmp case.4
case.3
	repl_args 1 1
	create
	push_r_args 1 3 0
	update_a 3 4
	update_a 2 3
	update_a 1 2
	updatepop_a 0 1
.d 4 0
	jsr s18
.o 1 0
	fillh _Just 1 1
.d 1 0
	rtn
case.4
	fillh _None 0 1
	pop_a 1
.d 1 0
	rtn
.export e_BasicAPIExamples.EditorsOnCustomTypes.EnterPerson_dgEditor_Gender;9.9
.desc e_BasicAPIExamples.EditorsOnCustomTypes.EnterPerson_dgEditor_Gender;9.9 _hnf l9 1 0 "gEditor_Gender;9.9"
.o 2 0
i9
	pop_a 1
.d 1 0
	jmp s9
.ai 1 _ i9
.o 2 0
l9
	pop_a 1
.d 1 0
	jsr ea9
.o 4 0
	buildhr e_iTasks.UI.Editor_rEditor 4 0
.d 1 0
	rtn
.o 1 0
ea9
	jsr_eval 0
.o 1 0
s9
	buildh e_iTasks.UI.Editor.Generic_dgEditor__String;11 0
	buildI 2
	buildI 1
	buildh e_iTasks.UI.Editor.Generic_dgEditor_CONS;4 3
	buildh e_iTasks.UI.Editor.Generic_dgEditor_UNIT;0 0
	buildI 1
	buildI 0
	buildh e_iTasks.UI.Editor.Generic_dgEditor_CONS;4 3
	buildh e_iTasks.UI.Editor.Generic_dgEditor_EITHER;1 2
	buildh e_iTasks.UI.Editor.Generic_dgEditor_UNIT;0 0
	buildI 0
	buildI 0
	buildh e_iTasks.UI.Editor.Generic_dgEditor_CONS;4 3
	buildh e_iTasks.UI.Editor.Generic_dgEditor_EITHER;1 2
	build e_BasicAPIExamples.EditorsOnCustomTypes.EnterPerson_dcli_Gender;24.19 0 e_BasicAPIExamples.EditorsOnCustomTypes.EnterPerson_ncli_Gender;24.19
	push_a 2
	buildI 3
	push_a 3
	update_a 2 4
	update_a 3 2
	update_a 0 3
	pop_a 1
	build e_iTasks.UI.Editor.Generic_dgEditor_OBJECT;3 4 e_iTasks.UI.Editor.Generic_ngEditor_OBJECT;3
	buildh e_BasicAPIExamples.EditorsOnCustomTypes.EnterPerson_dbimapToGeneric;57.42 0
	buildh e_BasicAPIExamples.EditorsOnCustomTypes.EnterPerson_dbimapFromGeneric;56.41 0
	buildh e_BasicAPIExamples.EditorsOnCustomTypes.EnterPerson_dtoGenericGender;33.28 0
	buildh e_BasicAPIExamples.EditorsOnCustomTypes.EnterPerson_dfromGenericGender;32.27 0
	update_a 4 5
	update_a 3 4
	update_a 2 3
	update_a 1 2
	updatepop_a 0 1
.d 5 0
	jmp e_iTasks.UI.Editor_sbinumap_Editor;15
.export e_BasicAPIExamples.EditorsOnCustomTypes.EnterPerson_dbimapFromGeneric;56.41
.desc e_BasicAPIExamples.EditorsOnCustomTypes.EnterPerson_dbimapFromGeneric;56.41 _hnf l41 1 0 "bimapFromGeneric;56.41"
.o 2 0
l41
	update_a 1 0
	create
	update_a 0 2
	pop_a 1
.o 2 0
ea41
	jsr_eval 0
.o 2 0
s41
	eq_desc _Just 1 0
	jmp_true case.5
	jmp case.6
case.5
	repl_args 1 1
	create
	push_a 1
	update_a 1 2
	updatepop_a 0 1
.d 2 0
	jsr s27
.o 1 0
	fillh _Just 1 1
.d 1 0
	rtn
case.6
	fillh _None 0 1
	pop_a 1
.d 1 0
	rtn
.export e_BasicAPIExamples.EditorsOnCustomTypes.EnterPerson_dbimapToGeneric;57.42
.desc e_BasicAPIExamples.EditorsOnCustomTypes.EnterPerson_dbimapToGeneric;57.42 _hnf l42 1 0 "bimapToGeneric;57.42"
.o 2 0
l42
	update_a 1 0
	create
	update_a 0 2
	pop_a 1
.o 2 0
ea42
	jsr_eval 0
.o 2 0
s42
	eq_desc _Just 1 0
	jmp_true case.7
	jmp case.8
case.7
	repl_args 1 1
	create
	push_a 1
	update_a 1 2
	updatepop_a 0 1
.d 2 0
	jsr s28
.o 1 0
	fillh _Just 1 1
.d 1 0
	rtn
case.8
	fillh _None 0 1
	pop_a 1
.d 1 0
	rtn
.export e_BasicAPIExamples.EditorsOnCustomTypes.EnterPerson_dgText_Person;5.5
.desc e_BasicAPIExamples.EditorsOnCustomTypes.EnterPerson_dgText_Person;5.5 _hnf l5 2 0 "gText_Person;5.5"
.o 4 0
i5
	pop_a 1
.d 3 0
	jmp s5
.ai 2 ea5 i5
.o 2 0
l5
	push_args 0 1 1
	update_a 2 1
	create
	update_a 0 3
	pop_a 1
.o 3 0
ea5
	jsr_eval 0
.o 3 0
s5
	push_a 1
	build e_BasicAPIExamples.EditorsOnCustomTypes.EnterPerson_dbimapToGeneric;36.31 1 e_BasicAPIExamples.EditorsOnCustomTypes.EnterPerson_nbimapToGeneric;36.31
	buildh e_iTasks.Extensions.DateTime_dgText_Date;39 0
	buildAC "dateOfBirth"
	buildh ARRAY 1
	buildh e_iTasks.Internal.Generic.Visualization_dgText_FIELD;11 2
	buildh e_BasicAPIExamples.EditorsOnCustomTypes.EnterPerson_dgText_Gender;10.10 0
	buildAC "gender"
	buildh ARRAY 1
	buildh e_iTasks.Internal.Generic.Visualization_dgText_FIELD;11 2
	buildh e_iTasks.Internal.Generic.Visualization_dgText_PAIR;6 2
	buildh e_iTasks.Internal.Generic.Visualization_dgText__String;16 0
	buildAC "name"
	buildh ARRAY 1
	buildh e_iTasks.Internal.Generic.Visualization_dgText_FIELD;11 2
	buildh e_iTasks.Internal.Generic.Visualization_dgText_PAIR;6 2
	push_a 2
	push_a 1
	update_a 1 2
	update_a 0 1
	pop_a 1
	update_a 2 4
	update_a 1 3
	updatepop_a 0 2
.d 4 0
	jmp e_iTasks.Internal.Generic.Visualization_sgText_RECORD;10
.export e_BasicAPIExamples.EditorsOnCustomTypes.EnterPerson_dgText_Gender;10.10
.desc e_BasicAPIExamples.EditorsOnCustomTypes.EnterPerson_dgText_Gender;10.10 _hnf l10 2 0 "gText_Gender;10.10"
.o 4 0
i10
	pop_a 1
.d 3 0
	jmp s10
.ai 2 ea10 i10
.o 2 0
l10
	push_args 0 1 1
	update_a 2 1
	create
	update_a 0 3
	pop_a 1
.o 3 0
ea10
	jsr_eval 0
.o 3 0
s10
	push_a 1
	build e_BasicAPIExamples.EditorsOnCustomTypes.EnterPerson_dbimapToGeneric;58.43 1 e_BasicAPIExamples.EditorsOnCustomTypes.EnterPerson_nbimapToGeneric;58.43
	buildh e_iTasks.Internal.Generic.Visualization_dgText__String;16 0
	build e_BasicAPIExamples.EditorsOnCustomTypes.EnterPerson_dtdi_Gender;25.20 0 e_BasicAPIExamples.EditorsOnCustomTypes.EnterPerson_ntdi_Gender;25.20
	buildAC "Other"
	buildh ARRAY 1
	buildh e_iTasks.Internal.Generic.Visualization_dgText_CONS;8 3
	buildh e_iTasks.Internal.Generic.Visualization_dgText_UNIT;5 0
	build e_BasicAPIExamples.EditorsOnCustomTypes.EnterPerson_dtdi_Gender;25.20 0 e_BasicAPIExamples.EditorsOnCustomTypes.EnterPerson_ntdi_Gender;25.20
	buildAC "Female"
	buildh ARRAY 1
	buildh e_iTasks.Internal.Generic.Visualization_dgText_CONS;8 3
	buildh e_iTasks.Internal.Generic.Visualization_dgText_EITHER;7 2
	buildh e_iTasks.Internal.Generic.Visualization_dgText_UNIT;5 0
	build e_BasicAPIExamples.EditorsOnCustomTypes.EnterPerson_dtdi_Gender;25.20 0 e_BasicAPIExamples.EditorsOnCustomTypes.EnterPerson_ntdi_Gender;25.20
	buildAC "Male"
	buildh ARRAY 1
	buildh e_iTasks.Internal.Generic.Visualization_dgText_CONS;8 3
	buildh e_iTasks.Internal.Generic.Visualization_dgText_EITHER;7 2
	push_a 2
	push_a 1
	update_a 1 2
	update_a 0 1
	pop_a 1
	update_a 2 4
	update_a 1 3
	updatepop_a 0 2
.d 4 0
	jmp e_iTasks.Internal.Generic.Visualization_sgText_OBJECT;9
.export e_BasicAPIExamples.EditorsOnCustomTypes.EnterPerson_dcdi_Male;29.24
.export e_BasicAPIExamples.EditorsOnCustomTypes.EnterPerson_ncdi_Male;29.24
.descn e_BasicAPIExamples.EditorsOnCustomTypes.EnterPerson_dcdi_Male;29.24 e_BasicAPIExamples.EditorsOnCustomTypes.EnterPerson_ncdi_Male;29.24 0 0 "cdi_Male;29.24"
.n 0 e_BasicAPIExamples.EditorsOnCustomTypes.EnterPerson_dcdi_Male;29.24
.o 1 0
e_BasicAPIExamples.EditorsOnCustomTypes.EnterPerson_ncdi_Male;29.24
	push_node _cycle_in_spine 0
.o 0 0
ea24
	build e_BasicAPIExamples.EditorsOnCustomTypes.EnterPerson_dgti_Male;26.21 0 e_BasicAPIExamples.EditorsOnCustomTypes.EnterPerson_ngti_Male;26.21
	build e_BasicAPIExamples.EditorsOnCustomTypes.EnterPerson_dtdi_Gender;25.20 0 e_BasicAPIExamples.EditorsOnCustomTypes.EnterPerson_ntdi_Gender;25.20
	buildh e_StdGeneric_dGenConsNoPrio 0
	buildI 0
	buildI 0
	buildAC "Male"
	buildh ARRAY 1
	push_a 5
	update_a 3 6
	update_a 4 3
	update_a 5 4
	update_a 0 5
	pop_a 1
	fill_r e_StdGeneric_rGenericConsDescriptor 6 0 6 0 0
	pop_a 6
.d 1 0
	rtn
.export e_BasicAPIExamples.EditorsOnCustomTypes.EnterPerson_dcdi_Female;30.25
.export e_BasicAPIExamples.EditorsOnCustomTypes.EnterPerson_ncdi_Female;30.25
.descn e_BasicAPIExamples.EditorsOnCustomTypes.EnterPerson_dcdi_Female;30.25 e_BasicAPIExamples.EditorsOnCustomTypes.EnterPerson_ncdi_Female;30.25 0 0 "cdi_Female;30.25"
.n 0 e_BasicAPIExamples.EditorsOnCustomTypes.EnterPerson_dcdi_Female;30.25
.o 1 0
e_BasicAPIExamples.EditorsOnCustomTypes.EnterPerson_ncdi_Female;30.25
	push_node _cycle_in_spine 0
.o 0 0
ea25
	build e_BasicAPIExamples.EditorsOnCustomTypes.EnterPerson_dgti_Female;27.22 0 e_BasicAPIExamples.EditorsOnCustomTypes.EnterPerson_ngti_Female;27.22
	build e_BasicAPIExamples.EditorsOnCustomTypes.EnterPerson_dtdi_Gender;25.20 0 e_BasicAPIExamples.EditorsOnCustomTypes.EnterPerson_ntdi_Gender;25.20
	buildh e_StdGeneric_dGenConsNoPrio 0
	buildI 1
	buildI 0
	buildAC "Female"
	buildh ARRAY 1
	push_a 5
	update_a 3 6
	update_a 4 3
	update_a 5 4
	update_a 0 5
	pop_a 1
	fill_r e_StdGeneric_rGenericConsDescriptor 6 0 6 0 0
	pop_a 6
.d 1 0
	rtn
.export e_BasicAPIExamples.EditorsOnCustomTypes.EnterPerson_dcdi_Other;31.26
.export e_BasicAPIExamples.EditorsOnCustomTypes.EnterPerson_ncdi_Other;31.26
.descn e_BasicAPIExamples.EditorsOnCustomTypes.EnterPerson_dcdi_Other;31.26 e_BasicAPIExamples.EditorsOnCustomTypes.EnterPerson_ncdi_Other;31.26 0 0 "cdi_Other;31.26"
.n 0 e_BasicAPIExamples.EditorsOnCustomTypes.EnterPerson_dcdi_Other;31.26
.o 1 0
e_BasicAPIExamples.EditorsOnCustomTypes.EnterPerson_ncdi_Other;31.26
	push_node _cycle_in_spine 0
.o 0 0
ea26
	build e_BasicAPIExamples.EditorsOnCustomTypes.EnterPerson_dgti_Other;28.23 0 e_BasicAPIExamples.EditorsOnCustomTypes.EnterPerson_ngti_Other;28.23
	build e_BasicAPIExamples.EditorsOnCustomTypes.EnterPerson_dtdi_Gender;25.20 0 e_BasicAPIExamples.EditorsOnCustomTypes.EnterPerson_ntdi_Gender;25.20
	buildh e_StdGeneric_dGenConsNoPrio 0
	buildI 2
	buildI 1
	buildAC "Other"
	buildh ARRAY 1
	push_a 5
	update_a 3 6
	update_a 4 3
	update_a 5 4
	update_a 0 5
	pop_a 1
	fill_r e_StdGeneric_rGenericConsDescriptor 6 0 6 0 0
	pop_a 6
.d 1 0
	rtn
.export e_BasicAPIExamples.EditorsOnCustomTypes.EnterPerson_dcli_Gender;24.19
.export e_BasicAPIExamples.EditorsOnCustomTypes.EnterPerson_ncli_Gender;24.19
.descn e_BasicAPIExamples.EditorsOnCustomTypes.EnterPerson_dcli_Gender;24.19 e_BasicAPIExamples.EditorsOnCustomTypes.EnterPerson_ncli_Gender;24.19 0 0 "cli_Gender;24.19"
.n 0 e_BasicAPIExamples.EditorsOnCustomTypes.EnterPerson_dcli_Gender;24.19 ea19
.o 1 0
e_BasicAPIExamples.EditorsOnCustomTypes.EnterPerson_ncli_Gender;24.19
	push_node _cycle_in_spine 0
.o 1 0
ea19
.o 1 0
s19
	buildh _Nil 0
	build e_BasicAPIExamples.EditorsOnCustomTypes.EnterPerson_dcdi_Other;31.26 0 e_BasicAPIExamples.EditorsOnCustomTypes.EnterPerson_ncdi_Other;31.26
	buildh _Cons 2
	build e_BasicAPIExamples.EditorsOnCustomTypes.EnterPerson_dcdi_Female;30.25 0 e_BasicAPIExamples.EditorsOnCustomTypes.EnterPerson_ncdi_Female;30.25
	buildh _Cons 2
	build e_BasicAPIExamples.EditorsOnCustomTypes.EnterPerson_dcdi_Male;29.24 0 e_BasicAPIExamples.EditorsOnCustomTypes.EnterPerson_ncdi_Male;29.24
	fillh _Cons 2 2
.d 1 0
	rtn
.export e_BasicAPIExamples.EditorsOnCustomTypes.EnterPerson_dtdi_Gender;25.20
.export e_BasicAPIExamples.EditorsOnCustomTypes.EnterPerson_ntdi_Gender;25.20
.descn e_BasicAPIExamples.EditorsOnCustomTypes.EnterPerson_dtdi_Gender;25.20 e_BasicAPIExamples.EditorsOnCustomTypes.EnterPerson_ntdi_Gender;25.20 0 0 "tdi_Gender;25.20"
.n 0 e_BasicAPIExamples.EditorsOnCustomTypes.EnterPerson_dtdi_Gender;25.20
.o 1 0
e_BasicAPIExamples.EditorsOnCustomTypes.EnterPerson_ntdi_Gender;25.20
	push_node _cycle_in_spine 0
.o 0 0
ea20
	build e_BasicAPIExamples.EditorsOnCustomTypes.EnterPerson_dcli_Gender;24.19 0 e_BasicAPIExamples.EditorsOnCustomTypes.EnterPerson_ncli_Gender;24.19
	buildI 3
	buildI 0
	buildAC "Gender"
	buildh ARRAY 1
	fill_r e_StdGeneric_rGenericTypeDefDescriptor 4 0 4 0 0
	pop_a 4
.d 1 0
	rtn
.export e_BasicAPIExamples.EditorsOnCustomTypes.EnterPerson_dgti_Male;26.21
.export e_BasicAPIExamples.EditorsOnCustomTypes.EnterPerson_ngti_Male;26.21
.descn e_BasicAPIExamples.EditorsOnCustomTypes.EnterPerson_dgti_Male;26.21 e_BasicAPIExamples.EditorsOnCustomTypes.EnterPerson_ngti_Male;26.21 0 0 "gti_Male;26.21"
.n 0 e_BasicAPIExamples.EditorsOnCustomTypes.EnterPerson_dgti_Male;26.21 ea21
.o 1 0
e_BasicAPIExamples.EditorsOnCustomTypes.EnterPerson_ngti_Male;26.21
	push_node _cycle_in_spine 0
.o 1 0
ea21
.o 1 0
s21
	buildAC "Gender"
	buildh ARRAY 1
	fillh e_StdGeneric_dGenTypeCons 1 1
.d 1 0
	rtn
.export e_BasicAPIExamples.EditorsOnCustomTypes.EnterPerson_dgti_Female;27.22
.export e_BasicAPIExamples.EditorsOnCustomTypes.EnterPerson_ngti_Female;27.22
.descn e_BasicAPIExamples.EditorsOnCustomTypes.EnterPerson_dgti_Female;27.22 e_BasicAPIExamples.EditorsOnCustomTypes.EnterPerson_ngti_Female;27.22 0 0 "gti_Female;27.22"
.n 0 e_BasicAPIExamples.EditorsOnCustomTypes.EnterPerson_dgti_Female;27.22 ea22
.o 1 0
e_BasicAPIExamples.EditorsOnCustomTypes.EnterPerson_ngti_Female;27.22
	push_node _cycle_in_spine 0
.o 1 0
ea22
.o 1 0
s22
	buildAC "Gender"
	buildh ARRAY 1
	fillh e_StdGeneric_dGenTypeCons 1 1
.d 1 0
	rtn
.export e_BasicAPIExamples.EditorsOnCustomTypes.EnterPerson_dgti_Other;28.23
.export e_BasicAPIExamples.EditorsOnCustomTypes.EnterPerson_ngti_Other;28.23
.descn e_BasicAPIExamples.EditorsOnCustomTypes.EnterPerson_dgti_Other;28.23 e_BasicAPIExamples.EditorsOnCustomTypes.EnterPerson_ngti_Other;28.23 0 0 "gti_Other;28.23"
.n 0 e_BasicAPIExamples.EditorsOnCustomTypes.EnterPerson_dgti_Other;28.23 ea23
.o 1 0
e_BasicAPIExamples.EditorsOnCustomTypes.EnterPerson_ngti_Other;28.23
	push_node _cycle_in_spine 0
.o 1 0
ea23
.o 1 0
s23
	buildAC "Gender"
	buildh ARRAY 1
	buildh e_StdGeneric_dGenTypeCons 1
	buildAC "Char"
	buildh ARRAY 1
	buildh e_StdGeneric_dGenTypeCons 1
	buildAC "_#Array"
	buildh ARRAY 1
	buildh e_StdGeneric_dGenTypeCons 1
	buildh e_StdGeneric_dGenTypeApp 2
	fillh e_StdGeneric_dGenTypeArrow 2 2
.d 1 0
	rtn
.export e_BasicAPIExamples.EditorsOnCustomTypes.EnterPerson_dbimapToGeneric;58.43
.export e_BasicAPIExamples.EditorsOnCustomTypes.EnterPerson_nbimapToGeneric;58.43
.descn e_BasicAPIExamples.EditorsOnCustomTypes.EnterPerson_dbimapToGeneric;58.43 e_BasicAPIExamples.EditorsOnCustomTypes.EnterPerson_nbimapToGeneric;58.43 1 0 "bimapToGeneric;58.43"
.n 1 e_BasicAPIExamples.EditorsOnCustomTypes.EnterPerson_dbimapToGeneric;58.43 ea43
.o 1 0
e_BasicAPIExamples.EditorsOnCustomTypes.EnterPerson_nbimapToGeneric;58.43
	push_node _cycle_in_spine 1
.o 2 0
ea43
	jsr_eval 0
.o 2 0
s43
	eq_desc _Just 1 0
	jmp_true case.9
	jmp case.10
case.9
	repl_args 1 1
	create
	push_a 1
	update_a 1 2
	updatepop_a 0 1
.d 2 0
	jsr s28
.o 1 0
	fillh _Just 1 1
.d 1 0
	rtn
case.10
	fillh _None 0 1
	pop_a 1
.d 1 0
	rtn
.export e_BasicAPIExamples.EditorsOnCustomTypes.EnterPerson_dbimapToGeneric;36.31
.export e_BasicAPIExamples.EditorsOnCustomTypes.EnterPerson_nbimapToGeneric;36.31
.descn e_BasicAPIExamples.EditorsOnCustomTypes.EnterPerson_dbimapToGeneric;36.31 e_BasicAPIExamples.EditorsOnCustomTypes.EnterPerson_nbimapToGeneric;36.31 1 0 "bimapToGeneric;36.31"
.n 1 e_BasicAPIExamples.EditorsOnCustomTypes.EnterPerson_dbimapToGeneric;36.31 ea31
.o 1 0
e_BasicAPIExamples.EditorsOnCustomTypes.EnterPerson_nbimapToGeneric;36.31
	push_node _cycle_in_spine 1
.o 2 0
ea31
	jsr_eval 0
.o 2 0
s31
	eq_desc _Just 1 0
	jmp_true case.11
	jmp case.12
case.11
	repl_args 1 1
	create
	push_r_args 1 3 0
	update_a 3 4
	update_a 2 3
	update_a 1 2
	updatepop_a 0 1
.d 4 0
	jsr s18
.o 1 0
	fillh _Just 1 1
.d 1 0
	rtn
case.12
	fillh _None 0 1
	pop_a 1
.d 1 0
	rtn
.export e_BasicAPIExamples.EditorsOnCustomTypes.EnterPerson_dJSONEncode_Person;6.6
.desc e_BasicAPIExamples.EditorsOnCustomTypes.EnterPerson_dJSONEncode_Person;6.6 _hnf l6 2 0 "JSONEncode_Person;6.6"
.o 3 1 b
i6
	pop_a 1
	push_r_args 0 3 0
	update_a 2 3
	update_a 1 2
	update_a 0 1
	pop_a 1
.d 4 1 b
	jmp s6
.ai 2 ea6 i6
.o 2 0
l6
	push_args 0 1 1
	update_a 2 1
	create
	update_a 0 3
	pop_a 1
.o 3 0
ea6
	jsr_eval 1
	jsr_eval 0
	push_r_args 1 3 0
	pushB_a 3
	update_a 2 4
	update_a 0 2
	update_a 1 3
	pop_a 2
.o 4 1 b
s6
	create
	push_a 3
	push_a 3
	push_a 3
	update_a 3 6
	update_a 2 5
	update_a 1 4
	updatepop_a 0 3
.d 4 0
	jsr s18
.o 1 0
	build e_BasicAPIExamples.EditorsOnCustomTypes.EnterPerson_dfli__Person;17.16 0 e_BasicAPIExamples.EditorsOnCustomTypes.EnterPerson_nfli__Person;17.16
	push_b 0
	updatepop_b 0 1
.d 3 1 b
	jmp s58
.export e_BasicAPIExamples.EditorsOnCustomTypes.EnterPerson_dfli__Person;17.16
.export e_BasicAPIExamples.EditorsOnCustomTypes.EnterPerson_nfli__Person;17.16
.descn e_BasicAPIExamples.EditorsOnCustomTypes.EnterPerson_dfli__Person;17.16 e_BasicAPIExamples.EditorsOnCustomTypes.EnterPerson_nfli__Person;17.16 0 0 "fli__Person;17.16"
.n 0 e_BasicAPIExamples.EditorsOnCustomTypes.EnterPerson_dfli__Person;17.16 ea16
.o 1 0
e_BasicAPIExamples.EditorsOnCustomTypes.EnterPerson_nfli__Person;17.16
	push_node _cycle_in_spine 0
.o 1 0
ea16
.o 1 0
s16
	buildh _Nil 0
	buildAC "dateOfBirth"
	buildh ARRAY 1
	buildh _Cons 2
	buildAC "gender"
	buildh ARRAY 1
	buildh _Cons 2
	buildAC "name"
	buildh ARRAY 1
	fillh _Cons 2 2
.d 1 0
	rtn
.o 3 1 b
s58
	push_args 1 1 1
	buildh _Nil 0
	update_a 0 3
	pop_a 1
	buildh _Nil 0
	push_a 1
	buildB FALSE
	build e_BasicAPIExamples.EditorsOnCustomTypes.EnterPerson_dJSONEncode_PAIR;621.59 2 e_BasicAPIExamples.EditorsOnCustomTypes.EnterPerson_nJSONEncode_PAIR;621.59
	push_a 3
	push_a 1
	update_a 1 2
	update_a 0 1
	pop_a 1
	build e_BasicAPIExamples.EditorsOnCustomTypes.EnterPerson_dc;172;49;38.32 2 e_BasicAPIExamples.EditorsOnCustomTypes.EnterPerson_nc;172;49;38.32
	build e_Text.GenJSON_dJSONObject 1 e_Text.GenJSON_nJSONObject
	fillh _Cons 2 5
	pop_a 3
	pop_b 1
.d 1 0
	rtn
.export e_BasicAPIExamples.EditorsOnCustomTypes.EnterPerson_dJSONEncode_PAIR;621.59
.export e_BasicAPIExamples.EditorsOnCustomTypes.EnterPerson_nJSONEncode_PAIR;621.59
.descn e_BasicAPIExamples.EditorsOnCustomTypes.EnterPerson_dJSONEncode_PAIR;621.59 e_BasicAPIExamples.EditorsOnCustomTypes.EnterPerson_nJSONEncode_PAIR;621.59 2 0 "JSONEncode_PAIR;621.59"
.n 2 e_BasicAPIExamples.EditorsOnCustomTypes.EnterPerson_dJSONEncode_PAIR;621.59 ea59
.o 1 0
e_BasicAPIExamples.EditorsOnCustomTypes.EnterPerson_nJSONEncode_PAIR;621.59
	push_node _cycle_in_spine 2
.o 3 0
ea59
	jsr_eval 1
	pushB_a 0
	pop_a 1
.o 2 1 b
s59
	repl_args 2 2
	push_a 1
	jsr_eval 0
	create
	pushB FALSE
	push_a 1
	update_a 1 2
	update_a 0 1
	pop_a 1
	updatepop_b 0 1
	update_a 2 3
	update_a 1 2
	updatepop_a 0 1
.d 2 1 b
	jsr s57
.o 1 0
	push_a 1
	jsr_eval 0
	push_array 0
	updatepop_a 0 1
	create
	pushB FALSE
	push_a 1
	update_a 1 2
	update_a 0 1
	pop_a 1
	buildh _Nil 0
	update_a 0 4
	pop_a 1
.d 2 1 b
	jsr s54
.o 1 0
	update_a 1 2
	updatepop_a 0 1
.d 3 0
	jmp s34
.o 2 1 b
s54
	push_a 0
	pushB TRUE
	updatepop_a 0 1
	updatepop_b 0 1
.d 2 1 b
	jmp e_Text.GenJSON_sJSONEncode__String;16
.o 2 1 b
s57
	repl_args 2 2
	push_a 1
	jsr_eval 0
	repl_r_args 0 3
	create
	pushB FALSE
	update_b 3 4
	update_b 2 3
	update_b 1 2
	updatepop_b 0 1
	update_a 1 2
	updatepop_a 0 1
.d 1 4 biii
	jsr s56
.o 1 0
	push_a 1
	jsr_eval 0
	create
	pushB FALSE
	push_a 1
	update_a 1 2
	update_a 0 1
	pop_a 1
	buildh _Nil 0
	update_a 0 4
	pop_a 1
.d 2 1 b
	jsr s55
.o 1 0
	update_a 1 2
	updatepop_a 0 1
.d 3 0
	jmp s34
.o 2 1 b
s55
	push_a 0
	pushB TRUE
	updatepop_a 0 1
	updatepop_b 0 1
.d 2 1 b
	jmp s11
.o 2 1 b
s11
	create
	push_a 1
	update_a 1 2
	updatepop_a 0 1
.d 2 0
	jsr s28
.o 1 0
	push_b 0
	buildAC "Other"
	buildh ARRAY 1
	buildAC "Female"
	buildh ARRAY 1
	buildAC "Male"
	buildh ARRAY 1
	updatepop_b 0 1
.d 5 1 b
	jmp s52
.o 5 1 b
s52
	push_a 3
	pushB FALSE
	push_a 3
	push_a 3
	push_a 3
	update_a 3 7
	update_a 2 6
	update_a 1 5
	updatepop_a 0 4
	updatepop_b 0 1
.d 5 1 b
	jmp s53
.o 5 1 b
s53
	eq_desc e_StdGeneric_dLEFT 1 3
	jmp_true case.13
	jmp case.14
case.13
	push_args 3 1 1
	buildh _Nil 0
	update_a 0 5
	pop_a 1
	push_a 0
	jsr_eval 0
	pushB FALSE
	push_a 2
	update_a 1 6
	updatepop_a 0 5
	updatepop_b 0 1
.d 3 1 b
	jmp s49
case.14
	push_args 3 1 1
	buildh _Nil 0
	update_a 0 5
	pop_a 1
	push_a 0
	jsr_eval 0
	pushB FALSE
	push_a 4
	push_a 4
	update_a 2 7
	update_a 1 6
	updatepop_a 0 5
	updatepop_b 0 1
.d 4 1 b
	jmp s51
.o 4 1 b
s51
	eq_desc e_StdGeneric_dLEFT 1 2
	jmp_true case.15
	jmp case.16
case.15
	push_args 2 1 1
	buildh _Nil 0
	update_a 0 4
	pop_a 1
	push_a 0
	jsr_eval 0
	pushB FALSE
	push_a 2
	update_a 1 5
	updatepop_a 0 4
	updatepop_b 0 1
.d 3 1 b
	jmp s49
case.16
	push_args 2 1 1
	buildh _Nil 0
	update_a 0 4
	pop_a 1
	push_a 0
	jsr_eval 0
	pushB FALSE
	push_a 3
	update_a 1 5
	updatepop_a 0 4
	updatepop_b 0 1
.d 3 1 b
	jmp s50
.o 3 1 b
s49
	push_args 1 1 1
	buildh _Nil 0
	update_a 0 3
	pop_a 1
	buildh _Nil 0
	push_a 1
	buildB FALSE
	build e_BasicAPIExamples.EditorsOnCustomTypes.EnterPerson_dJSONEncode_UNIT;62.44 2 e_BasicAPIExamples.EditorsOnCustomTypes.EnterPerson_nJSONEncode_UNIT;62.44
	push_a 3
	build e_Text.GenJSON_dJSONString 1 e_Text.GenJSON_nJSONString
	buildh _Cons 2
	buildhr e_Text.GenJSON_kJSONArray 1 0
	fillh _Cons 2 5
	pop_a 3
	pop_b 1
.d 1 0
	rtn
.export e_BasicAPIExamples.EditorsOnCustomTypes.EnterPerson_dJSONEncode_UNIT;62.44
.export e_BasicAPIExamples.EditorsOnCustomTypes.EnterPerson_nJSONEncode_UNIT;62.44
.descn e_BasicAPIExamples.EditorsOnCustomTypes.EnterPerson_dJSONEncode_UNIT;62.44 e_BasicAPIExamples.EditorsOnCustomTypes.EnterPerson_nJSONEncode_UNIT;62.44 2 0 "JSONEncode_UNIT;62.44"
.n 2 e_BasicAPIExamples.EditorsOnCustomTypes.EnterPerson_dJSONEncode_UNIT;62.44 ea44
.o 1 0
e_BasicAPIExamples.EditorsOnCustomTypes.EnterPerson_nJSONEncode_UNIT;62.44
	push_node _cycle_in_spine 2
.o 3 0
ea44
	jsr_eval 1
	pushB_a 0
	pop_a 1
.o 2 1 b
s44
	fillh _Nil 0 1
	pop_a 1
	pop_b 1
.d 1 0
	rtn
.o 3 1 b
s50
	push_args 1 1 1
	buildh _Nil 0
	update_a 0 3
	pop_a 1
	buildh _Nil 0
	push_a 1
	buildB FALSE
	build e_Text.GenJSON_dJSONEncode__String;16 2 e_Text.GenJSON_nJSONEncode__String;16
	push_a 3
	build e_Text.GenJSON_dJSONString 1 e_Text.GenJSON_nJSONString
	buildh _Cons 2
	buildhr e_Text.GenJSON_kJSONArray 1 0
	fillh _Cons 2 5
	pop_a 3
	pop_b 1
.d 1 0
	rtn
.o 1 4 biii
s56
	push_b 3
	push_b 3
	push_b 3
	pushB TRUE
	update_b 3 7
	update_b 2 6
	update_b 1 5
	updatepop_b 0 4
.d 1 4 biii
	jmp e_iTasks.Extensions.DateTime_sJSONEncode_Date;30
.export e_BasicAPIExamples.EditorsOnCustomTypes.EnterPerson_d++;41.34
.export e_BasicAPIExamples.EditorsOnCustomTypes.EnterPerson_n++;41.34
.descn e_BasicAPIExamples.EditorsOnCustomTypes.EnterPerson_d++;41.34 e_BasicAPIExamples.EditorsOnCustomTypes.EnterPerson_n++;41.34 2 0 "++;41.34"
.n 2 e_BasicAPIExamples.EditorsOnCustomTypes.EnterPerson_d++;41.34 ea34
.o 1 0
e_BasicAPIExamples.EditorsOnCustomTypes.EnterPerson_n++;41.34
	push_node _cycle_in_spine 2
.o 3 0
ea34
	jsr_eval 0
.o 3 0
s34
	eq_desc _Cons 2 0
	jmp_true case.17
	jmp case.18
case.17
	repl_args 2 2
	push_a 2
	push_a 2
	build e_BasicAPIExamples.EditorsOnCustomTypes.EnterPerson_d++;41.34 2 e_BasicAPIExamples.EditorsOnCustomTypes.EnterPerson_n++;41.34
	push_a 1
	fillh _Cons 2 5
	pop_a 3
.d 1 0
	rtn
case.18
	fill_a 1 2
	pop_a 2
.d 1 0
	rtn
.export e_BasicAPIExamples.EditorsOnCustomTypes.EnterPerson_dc;172;49;38.32
.export e_BasicAPIExamples.EditorsOnCustomTypes.EnterPerson_nc;172;49;38.32
.descn e_BasicAPIExamples.EditorsOnCustomTypes.EnterPerson_dc;172;49;38.32 e_BasicAPIExamples.EditorsOnCustomTypes.EnterPerson_nc;172;49;38.32 2 0 "c;172;49;38.32"
.n 2 e_BasicAPIExamples.EditorsOnCustomTypes.EnterPerson_dc;172;49;38.32 ea32
.o 1 0
e_BasicAPIExamples.EditorsOnCustomTypes.EnterPerson_nc;172;49;38.32
	push_node _cycle_in_spine 2
.o 3 0
ea32
	jsr_eval 0
.o 3 0
s32
	push_a 1
	push_a 1
	update_a 1 3
	updatepop_a 0 2
.d 3 0
	jmp s102
.o 3 0
s102
	eq_desc _Cons 2 0
	jmp_true case.19
	jmp case.20
case.19
	repl_args 2 2
	push_a 2
	jsr_eval 0
	push_a 2
	push_a 2
	push_a 2
	update_a 2 3
	update_a 1 2
	update_a 0 1
	pop_a 1
	update_a 2 5
	update_a 1 4
	updatepop_a 0 3
.d 4 0
	jmp s101
case.20
	fillh _Nil 0 2
	pop_a 2
.d 1 0
	rtn
.o 4 0
s101
	eq_desc _Cons 2 0
	jmp_true case.21
	jmp case.22
case.21
	repl_args 2 2
	push_a 2
	jsr_eval 0
.d 1 0
	jsr s33
.o 0 1 b
	jmp_false else.23
	push_a 1
	push_a 4
	build e_BasicAPIExamples.EditorsOnCustomTypes.EnterPerson_dc;172;49;38.32 2 e_BasicAPIExamples.EditorsOnCustomTypes.EnterPerson_nc;172;49;38.32
	push_a 3
	push_a 2
	buildh _Tuple 2
	fillh _Cons 2 6
	pop_a 4
.d 1 0
	rtn
else.23
	push_a 3
	jsr_eval 0
	push_a 2
	push_a 1
	update_a 1 2
	update_a 0 1
	pop_a 1
	update_a 1 5
	updatepop_a 0 4
.d 3 0
	jmp s32
case.22
	fillh _Nil 0 3
	pop_a 3
.d 1 0
	rtn
.o 1 0
s33
	eq_desc e_Text.GenJSON_dJSONNull 0 0
	jmp_true case.24
	jmp case.25
case.24
	pop_a 1
	pushB FALSE
.d 0 1 b
	rtn
case.25
	pop_a 1
	pushB TRUE
.d 0 1 b
	rtn
.export e_BasicAPIExamples.EditorsOnCustomTypes.EnterPerson_dJSONDecode_Person;7.7
.desc e_BasicAPIExamples.EditorsOnCustomTypes.EnterPerson_dJSONDecode_Person;7.7 _hnf l7 2 0 "JSONDecode_Person;7.7"
.o 2 1 b
i7
	pop_a 1
.d 1 1 b
	jmp s7
.ai 0 a7 i7
.o 2 0
l7
	repl_args 1 1
.o 2 0
a7
.d 2 0
	jsr ea7
.o 2 0
	push_a 1
	push_a 1
	buildh _Tuple 2
	updatepop_a 0 2
.d 1 0
	rtn
.o 2 0
ea7
	jsr_eval 1
	jsr_eval 0
	pushB_a 0
	pop_a 1
.o 1 1 b
s7
	push_a 0
	push_b 0
	buildI 2
	buildAC "dateOfBirth"
	buildh ARRAY 1
	buildI 1
	buildAC "gender"
	buildh ARRAY 1
	buildI 0
	buildAC "name"
	buildh ARRAY 1
	updatepop_b 0 1
	update_a 6 7
	update_a 5 6
	update_a 4 5
	update_a 3 4
	update_a 2 3
	update_a 1 2
	updatepop_a 0 1
.d 7 1 b
	jsr s70
.o 2 0
.d 2 0
	jmp s329
.o 7 1 b
s70
	eq_desc _Cons 2 6
	jmp_true case.26
	jmp case.27
case.26
	push_args 6 2 2
	jsr_eval 0
	pushD_a 0
	eqD_b e_Text.GenJSON_kJSONObject 0
	jmp_true case.28
	eqD_b e_Text.GenJSON_kJSONArray 0
	jmp_true case.29
	pop_a 2
	pop_b 1
	jmp case.27
case.28
	pop_b 1
	push_args 0 1 1
	pop_a 1
	push_a 1
	jsr_eval 0
	buildh _Nil 0
	push_a 2
	buildh _Cons 2
	pushB FALSE
	push_a 9
	push_a 9
	push_a 9
	push_a 9
	push_a 9
	push_a 9
	updatepop_b 0 1
	buildh _Nil 0
	update_a 0 11
	update_a 0 12
	update_a 0 13
	update_a 0 14
	update_a 0 15
	update_a 0 16
	update_a 0 9
	update_a 0 10
	pop_a 1
.d 7 1 b
	jsr s71
.o 2 0
	push_a 11
	push_a 3
	update_a 1 4
	update_a 2 1
	update_a 3 2
	update_a 0 3
	pop_a 1
	update_a 3 12
	update_a 2 11
	update_a 1 10
	updatepop_a 0 9
.d 4 0
	jmp s35
case.29
	pop_b 1
	push_args 0 1 1
	pop_a 1
	push_a 1
	jsr_eval 0
	buildh _Nil 0
	push_a 2
	buildh _Cons 2
	pushB FALSE
	push_a 9
	push_a 9
	push_a 9
	push_a 9
	push_a 9
	push_a 9
	updatepop_b 0 1
	buildh _Nil 0
	update_a 0 11
	update_a 0 12
	update_a 0 13
	update_a 0 14
	update_a 0 15
	update_a 0 16
	update_a 0 9
	update_a 0 10
	pop_a 1
.d 7 1 b
	jsr s71
.o 2 0
	push_a 11
	push_a 3
	update_a 1 4
	update_a 2 1
	update_a 3 2
	update_a 0 3
	pop_a 1
	update_a 3 12
	update_a 2 11
	update_a 1 10
	updatepop_a 0 9
.d 4 0
	jmp s36
case.27
	buildh _None 0
	push_a 7
	push_a 1
	update_a 1 2
	update_a 0 1
	pop_a 1
	update_a 1 8
	updatepop_a 0 7
	pop_b 1
.d 2 0
	rtn
.o 4 0
s35
	eq_desc _Just 1 0
	jmp_true case.30
	jmp case.31
case.30
	repl_args 1 1
	push_a 0
	buildh e_StdGeneric_dRECORD 1
	buildh _Just 1
	push_a 3
	push_a 1
	update_a 1 2
	update_a 0 1
	pop_a 1
	update_a 1 5
	updatepop_a 0 4
.d 2 0
	rtn
case.31
	buildh _None 0
	push_a 4
	push_a 1
	update_a 1 2
	update_a 0 1
	pop_a 1
	update_a 1 5
	updatepop_a 0 4
.d 2 0
	rtn
.o 7 1 b
s71
	push_a 6
	pushB FALSE
	push_a 2
	push_a 2
	updatepop_b 0 1
	update_a 2 4
	update_a 1 3
	updatepop_a 0 2
.d 3 1 b
	jsr s65
.o 2 0
	push_a 6
	push_a 6
	push_a 6
	push_a 6
	push_a 6
	push_a 6
	update_a 5 7
	update_a 6 5
	update_a 0 6
	pop_a 1
	update_a 6 11
	update_a 5 10
	update_a 4 9
	update_a 3 8
	update_a 2 7
	update_a 1 6
	updatepop_a 0 5
.d 7 0
	jmp s72
.o 3 1 b
s65
	eq_desc _Cons 2 2
	jmp_true case.32
	jmp case.33
case.32
	push_args 2 2 2
	jsr_eval 0
	pushD_a 0
	eqD_b e_Text.GenJSON_kJSONObject 0
	jmp_true case.34
	eqD_b e_Text.GenJSON_kJSONArray 0
	jmp_true case.35
	pop_a 2
	pop_b 1
	jmp case.33
case.34
	pop_b 1
	repl_args 1 1
	jsr_eval 1
	eq_desc _Nil 0 1
	jmp_true case.36
	pop_a 2
	jmp case.33
case.36
	create
	push_a 1
	push_array 4
	pop_b 1
	update_a 2 6
	update_a 1 5
	updatepop_a 0 4
.d 3 0
	jsr s38
.o 1 0
	push_a 0
	pushB TRUE
	updatepop_a 0 1
.d 1 1 b
	jsr e_Text.GenJSON_sJSONDecode__String;46
.o 2 0
	push_a 2
	push_a 2
	update_a 1 3
	update_a 2 1
	update_a 0 2
	pop_a 1
	update_a 2 3
	update_a 1 2
	updatepop_a 0 1
.d 3 0
	jmp s328
case.35
	pop_b 1
	repl_args 1 1
	jsr_eval 1
	eq_desc _Nil 0 1
	jmp_true case.37
	pop_a 2
	jmp case.33
case.37
	create
	pushI_a 4
	push_a 1
	updatepop_b 0 1
	update_a 1 5
	updatepop_a 0 4
.d 2 1 i
	jsr e_Data.List_s!?
.o 1 0
	push_a 1
	push_a 1
	update_a 1 2
	update_a 0 1
	pop_a 1
	update_a 1 2
	updatepop_a 0 1
.d 2 0
	jmp s327
case.33
	buildh _None 0
	push_a 3
	push_a 1
	update_a 1 2
	update_a 0 1
	pop_a 1
	update_a 1 4
	updatepop_a 0 3
	pop_b 1
.d 2 0
	rtn
.o 7 0
s72
	eq_desc _Just 1 4
	jmp_true case.38
	jmp case.39
case.38
	push_args 4 1 1
	buildh _Nil 0
	update_a 0 6
	pop_a 1
	push_a 6
	pushB FALSE
	push_a 5
	push_a 5
	push_a 5
	push_a 5
	update_a 5 11
	update_a 4 10
	update_a 3 9
	update_a 2 8
	update_a 1 7
	updatepop_a 0 6
.d 5 1 b
	jsr s68
.o 2 0
	push_a 3
	push_a 3
	push_a 3
	update_a 2 4
	update_a 3 2
	update_a 0 3
	pop_a 1
	update_a 3 5
	update_a 2 4
	update_a 1 3
	updatepop_a 0 2
.d 4 0
	jmp s37
case.39
	buildh _None 0
	push_a 7
	push_a 1
	update_a 1 2
	update_a 0 1
	pop_a 1
	update_a 1 8
	updatepop_a 0 7
.d 2 0
	rtn
.o 5 1 b
s68
	push_a 4
	pushB FALSE
	push_a 2
	push_a 2
	updatepop_b 0 1
	update_a 2 4
	update_a 1 3
	updatepop_a 0 2
.d 3 1 b
	jsr s66
.o 2 0
	push_a 4
	push_a 4
	push_a 4
	push_a 4
	update_a 3 5
	update_a 4 3
	update_a 0 4
	pop_a 1
	update_a 4 7
	update_a 3 6
	update_a 2 5
	update_a 1 4
	updatepop_a 0 3
.d 5 0
	jmp s69
.o 3 1 b
s66
	eq_desc _Cons 2 2
	jmp_true case.40
	jmp case.41
case.40
	push_args 2 2 2
	jsr_eval 0
	pushD_a 0
	eqD_b e_Text.GenJSON_kJSONObject 0
	jmp_true case.42
	eqD_b e_Text.GenJSON_kJSONArray 0
	jmp_true case.43
	pop_a 2
	pop_b 1
	jmp case.41
case.42
	pop_b 1
	repl_args 1 1
	jsr_eval 1
	eq_desc _Nil 0 1
	jmp_true case.44
	pop_a 2
	jmp case.41
case.44
	create
	push_a 1
	push_array 4
	pop_b 1
	update_a 2 6
	update_a 1 5
	updatepop_a 0 4
.d 3 0
	jsr s38
.o 1 0
	push_a 0
	pushB TRUE
	updatepop_a 0 1
.d 1 1 b
	jsr s12
.o 2 0
	push_a 2
	push_a 2
	update_a 1 3
	update_a 2 1
	update_a 0 2
	pop_a 1
	update_a 2 3
	update_a 1 2
	updatepop_a 0 1
.d 3 0
	jmp s326
case.43
	pop_b 1
	repl_args 1 1
	jsr_eval 1
	eq_desc _Nil 0 1
	jmp_true case.45
	pop_a 2
	jmp case.41
case.45
	create
	pushI_a 4
	push_a 1
	updatepop_b 0 1
	update_a 1 5
	updatepop_a 0 4
.d 2 1 i
	jsr e_Data.List_s!?
.o 1 0
	push_a 1
	push_a 1
	update_a 1 2
	update_a 0 1
	pop_a 1
	update_a 1 2
	updatepop_a 0 1
.d 2 0
	jmp s325
case.41
	buildh _None 0
	push_a 3
	push_a 1
	update_a 1 2
	update_a 0 1
	pop_a 1
	update_a 1 4
	updatepop_a 0 3
	pop_b 1
.d 2 0
	rtn
.o 1 1 b
s12
	push_a 0
	push_b 0
	buildAC "Other"
	buildh ARRAY 1
	buildAC "Female"
	buildh ARRAY 1
	buildAC "Male"
	buildh ARRAY 1
	updatepop_b 0 1
	update_a 3 4
	update_a 2 3
	update_a 1 2
	updatepop_a 0 1
.d 4 1 b
	jsr s63
.o 2 0
.d 2 0
	jmp s324
.o 4 1 b
s63
	push_a 3
	pushB FALSE
	push_a 3
	push_a 3
	push_a 3
	updatepop_b 0 1
	update_a 3 6
	update_a 2 5
	update_a 1 4
	updatepop_a 0 3
.d 4 1 b
	jsr s64
.o 2 0
	push_a 2
	push_a 2
	update_a 1 3
	update_a 2 1
	update_a 0 2
	pop_a 1
	update_a 2 3
	update_a 1 2
	updatepop_a 0 1
.d 3 0
	jmp s323
.o 4 1 b
s64
	push_a 3
	pushB FALSE
	push_a 1
	updatepop_b 0 1
	update_a 1 2
	updatepop_a 0 1
.d 2 1 b
	jsr s60
.o 2 0
	push_a 4
	push_a 4
	push_a 4
	push_a 4
	update_a 3 5
	update_a 1 3
	update_a 4 1
	update_a 2 4
	update_a 0 2
	pop_a 1
	update_a 4 7
	update_a 3 6
	update_a 2 5
	update_a 1 4
	updatepop_a 0 3
.d 5 0
	jmp s322
.o 3 1 b
s62
	push_a 2
	pushB FALSE
	push_a 1
	updatepop_b 0 1
	update_a 1 2
	updatepop_a 0 1
.d 2 1 b
	jsr s60
.o 2 0
	push_a 3
	push_a 3
	push_a 3
	update_a 2 4
	update_a 0 2
	update_a 3 0
	update_a 1 3
	update_a 0 1
	pop_a 1
	update_a 3 5
	update_a 2 4
	update_a 1 3
	updatepop_a 0 2
.d 4 0
	jmp s321
.o 2 1 b
s60
	eq_desc _Cons 2 1
	jmp_true case.46
	jmp case.47
case.46
	push_args 1 2 2
	jsr_eval 0
	eq_desc e_Text.GenJSON_kJSONArray 0 0
	jmp_true case.48
	pop_a 2
	jmp case.47
case.48
	repl_args 1 1
	eq_desc _Cons 2 0
	jmp_true case.49
	pop_a 2
	jmp case.47
case.49
	repl_args 2 2
	jsr_eval 0
	eq_desc e_Text.GenJSON_kJSONString 0 0
	jmp_true case.50
	pop_a 3
	jmp case.47
case.50
	repl_args 1 1
	push_a 3
	jsr_eval 0
	push_array 0
	updatepop_a 0 1
	push_a 1
	pop_b 1
	update_a 1 2
	updatepop_a 0 1
	buildh _Nil 0
	update_a 0 5
	pop_a 1
.d 2 0
	jsr eqAC
.o 0 1 b
	jmp_false else.51
	push_a 0
	jsr_eval 0
	pushB FALSE
	update_a 2 3
	updatepop_a 0 2
.d 1 1 b
	jsr s45
.o 2 0
	push_a 3
	push_a 3
	push_a 3
	update_a 2 4
	update_a 0 2
	update_a 3 0
	update_a 1 3
	update_a 0 1
	pop_a 1
	update_a 3 5
	update_a 2 4
	update_a 1 3
	updatepop_a 0 2
.d 4 0
	jmp s320
else.51
	buildh _None 0
	push_a 4
	push_a 1
	update_a 1 2
	update_a 0 1
	pop_a 1
	update_a 1 5
	updatepop_a 0 4
.d 2 0
	rtn
case.47
	buildh _None 0
	push_a 2
	push_a 1
	update_a 1 2
	update_a 0 1
	pop_a 1
	update_a 1 3
	updatepop_a 0 2
	pop_b 1
.d 2 0
	rtn
.o 1 1 b
s45
	buildh e_StdGeneric_dUNIT 0
	buildh _Just 1
	push_a 1
	push_a 1
	update_a 1 2
	update_a 0 1
	pop_a 1
	update_a 1 2
	updatepop_a 0 1
	pop_b 1
.d 2 0
	rtn
.o 2 1 b
s61
	eq_desc _Cons 2 1
	jmp_true case.52
	jmp case.53
case.52
	push_args 1 2 2
	jsr_eval 0
	eq_desc e_Text.GenJSON_kJSONArray 0 0
	jmp_true case.54
	pop_a 2
	jmp case.53
case.54
	repl_args 1 1
	eq_desc _Cons 2 0
	jmp_true case.55
	pop_a 2
	jmp case.53
case.55
	repl_args 2 2
	jsr_eval 0
	eq_desc e_Text.GenJSON_kJSONString 0 0
	jmp_true case.56
	pop_a 3
	jmp case.53
case.56
	repl_args 1 1
	push_a 3
	jsr_eval 0
	push_array 0
	updatepop_a 0 1
	push_a 1
	pop_b 1
	update_a 1 2
	updatepop_a 0 1
	buildh _Nil 0
	update_a 0 5
	pop_a 1
.d 2 0
	jsr eqAC
.o 0 1 b
	jmp_false else.57
	push_a 0
	jsr_eval 0
	pushB FALSE
	update_a 2 3
	updatepop_a 0 2
.d 1 1 b
	jsr e_Text.GenJSON_sJSONDecode__String;46
.o 2 0
	push_a 3
	push_a 3
	push_a 3
	update_a 2 4
	update_a 0 2
	update_a 3 0
	update_a 1 3
	update_a 0 1
	pop_a 1
	update_a 3 5
	update_a 2 4
	update_a 1 3
	updatepop_a 0 2
.d 4 0
	jmp s319
else.57
	buildh _None 0
	push_a 4
	push_a 1
	update_a 1 2
	update_a 0 1
	pop_a 1
	update_a 1 5
	updatepop_a 0 4
.d 2 0
	rtn
case.53
	buildh _None 0
	push_a 2
	push_a 1
	update_a 1 2
	update_a 0 1
	pop_a 1
	update_a 1 3
	updatepop_a 0 2
	pop_b 1
.d 2 0
	rtn
.o 2 0
s46
	eq_desc _Just 1 0
	jmp_true case.58
	jmp case.59
case.58
	repl_args 1 1
	create
	push_a 1
	update_a 1 2
	updatepop_a 0 1
.d 2 0
	jsr s27
.o 1 0
	fillh _Just 1 1
.d 1 0
	rtn
case.59
	fillh _None 0 1
	pop_a 1
.d 1 0
	rtn
.export e_BasicAPIExamples.EditorsOnCustomTypes.EnterPerson_dfromGenericGender;32.27
.desc e_BasicAPIExamples.EditorsOnCustomTypes.EnterPerson_dfromGenericGender;32.27 _hnf l27 1 0 "fromGenericGender;32.27"
.o 2 0
l27
	update_a 1 0
	create
	update_a 0 2
	pop_a 1
.o 2 0
ea27
	jsr_eval 0
.o 2 0
s27
	eq_desc e_StdGeneric_dLEFT 1 0
	jmp_true case.60
	jmp case.61
case.60
	repl_args 1 1
	jsr_eval 0
	repl_args 1 1
	jsr_eval 0
	fillh e_BasicAPIExamples.EditorsOnCustomTypes.EnterPerson_dMale 0 1
	pop_a 1
.d 1 0
	rtn
case.61
	repl_args 1 1
	jsr_eval 0
	eq_desc e_StdGeneric_dLEFT 1 0
	jmp_true case.62
	jmp case.63
case.62
	repl_args 1 1
	jsr_eval 0
	repl_args 1 1
	jsr_eval 0
	fillh e_BasicAPIExamples.EditorsOnCustomTypes.EnterPerson_dFemale 0 1
	pop_a 1
.d 1 0
	rtn
case.63
	repl_args 1 1
	jsr_eval 0
	repl_args 1 1
	push_a 0
	fillh e_BasicAPIExamples.EditorsOnCustomTypes.EnterPerson_dOther 1 2
	pop_a 1
.d 1 0
	rtn
.o 5 0
s69
	eq_desc _Just 1 2
	jmp_true case.64
	jmp case.65
case.64
	push_args 2 1 1
	buildh _Nil 0
	update_a 0 4
	pop_a 1
	push_a 4
	pushB FALSE
	push_a 3
	push_a 3
	update_a 3 7
	update_a 2 6
	update_a 1 5
	updatepop_a 0 4
.d 3 1 b
	jsr s67
.o 2 0
	push_a 3
	push_a 3
	push_a 3
	update_a 2 4
	update_a 3 2
	update_a 0 3
	pop_a 1
	update_a 3 5
	update_a 2 4
	update_a 1 3
	updatepop_a 0 2
.d 4 0
	jmp s37
case.65
	buildh _None 0
	push_a 5
	push_a 1
	update_a 1 2
	update_a 0 1
	pop_a 1
	update_a 1 6
	updatepop_a 0 5
.d 2 0
	rtn
.o 3 1 b
s67
	eq_desc _Cons 2 2
	jmp_true case.66
	jmp case.67
case.66
	push_args 2 2 2
	jsr_eval 0
	pushD_a 0
	eqD_b e_Text.GenJSON_kJSONObject 0
	jmp_true case.68
	eqD_b e_Text.GenJSON_kJSONArray 0
	jmp_true case.69
	pop_a 2
	pop_b 1
	jmp case.67
case.68
	pop_b 1
	repl_args 1 1
	jsr_eval 1
	eq_desc _Nil 0 1
	jmp_true case.70
	pop_a 2
	jmp case.67
case.70
	create
	push_a 1
	push_array 4
	pop_b 1
	update_a 2 6
	update_a 1 5
	updatepop_a 0 4
.d 3 0
	jsr s38
.o 1 0
	push_a 0
	pushB TRUE
	updatepop_a 0 1
.d 1 1 b
	jsr e_iTasks.Extensions.DateTime_sJSONDecode_Date;33
.o 2 0
	push_a 2
	push_a 2
	update_a 1 3
	update_a 2 1
	update_a 0 2
	pop_a 1
	update_a 2 3
	update_a 1 2
	updatepop_a 0 1
.d 3 0
	jmp s318
case.69
	pop_b 1
	repl_args 1 1
	jsr_eval 1
	eq_desc _Nil 0 1
	jmp_true case.71
	pop_a 2
	jmp case.67
case.71
	create
	pushI_a 4
	push_a 1
	updatepop_b 0 1
	update_a 1 5
	updatepop_a 0 4
.d 2 1 i
	jsr e_Data.List_s!?
.o 1 0
	push_a 1
	push_a 1
	update_a 1 2
	update_a 0 1
	pop_a 1
	update_a 1 2
	updatepop_a 0 1
.d 2 0
	jmp s317
case.67
	buildh _None 0
	push_a 3
	push_a 1
	update_a 1 2
	update_a 0 1
	pop_a 1
	update_a 1 4
	updatepop_a 0 3
	pop_b 1
.d 2 0
	rtn
.o 3 0
s38
	eq_desc _Cons 2 1
	jmp_true case.72
	jmp case.73
case.72
	push_args 1 2 2
	buildh _Nil 0
	update_a 0 4
	pop_a 1
	jsr_eval 0
	repl_args 2 2
	push_a 0
	jsr_eval 0
	push_array 0
	updatepop_a 0 1
	push_a 4
	push_a 1
	update_a 1 2
	update_a 0 1
	pop_a 1
	update_a 1 2
	updatepop_a 0 1
.d 2 0
	jsr eqAC
.o 0 1 b
	jmp_false else.74
	buildh _Nil 0
	push_a 1
	fillh _Cons 2 6
	pop_a 4
.d 1 0
	rtn
else.74
	push_a 1
	jsr_eval 0
	push_a 3
	update_a 1 5
	updatepop_a 0 4
.d 3 0
	jmp s38
case.73
	fillh _Nil 0 2
	pop_a 2
.d 1 0
	rtn
.o 4 0
s37
	eq_desc _Just 1 1
	jmp_true case.75
	jmp case.76
case.75
	push_args 1 1 1
	buildh _Nil 0
	update_a 0 3
	pop_a 1
	push_a 0
	push_a 2
	buildh e_StdGeneric_dPAIR 2
	buildh _Just 1
	push_a 4
	push_a 1
	update_a 1 2
	update_a 0 1
	pop_a 1
	update_a 1 6
	updatepop_a 0 5
.d 2 0
	rtn
case.76
	buildh _None 0
	push_a 4
	push_a 1
	update_a 1 2
	update_a 0 1
	pop_a 1
	update_a 1 5
	updatepop_a 0 4
.d 2 0
	rtn
.o 4 0
s36
	eq_desc _Just 1 0
	jmp_true case.77
	jmp case.78
case.77
	repl_args 1 1
	push_a 0
	buildh e_StdGeneric_dRECORD 1
	buildh _Just 1
	push_a 3
	push_a 1
	update_a 1 2
	update_a 0 1
	pop_a 1
	update_a 1 5
	updatepop_a 0 4
.d 2 0
	rtn
case.78
	buildh _None 0
	push_a 4
	push_a 1
	update_a 1 2
	update_a 0 1
	pop_a 1
	update_a 1 5
	updatepop_a 0 4
.d 2 0
	rtn
.o 2 0
s39
	eq_desc _Just 1 0
	jmp_true case.79
	jmp case.80
case.79
	repl_args 1 1
	push_a 0
	updatepop_a 0 1
.d 1 0
	jsr s17
.o 3 0
	buildhr e_BasicAPIExamples.EditorsOnCustomTypes.EnterPerson_rPerson 3 0
	fillh _Just 1 1
.d 1 0
	rtn
case.80
	fillh _None 0 1
	pop_a 1
.d 1 0
	rtn
.export e_BasicAPIExamples.EditorsOnCustomTypes.EnterPerson_dfromGenericPerson;22.17
.desc e_BasicAPIExamples.EditorsOnCustomTypes.EnterPerson_dfromGenericPerson;22.17 _hnf l17 1 0 "fromGenericPerson;22.17"
.o 2 0
l17
	pop_a 1
.d 1 0
	jsr ea17
.o 3 0
	buildhr e_BasicAPIExamples.EditorsOnCustomTypes.EnterPerson_rPerson 3 0
.d 1 0
	rtn
.o 1 0
ea17
	jsr_eval 0
.o 1 0
s17
	repl_args 1 1
	jsr_eval 0
	repl_args 2 2
	jsr_eval 1
	push_args 1 2 2
	buildh _Nil 0
	update_a 0 4
	pop_a 1
	push_a 1
	push_a 1
	push_a 4
	update_a 2 6
	update_a 1 5
	updatepop_a 0 4
.d 3 0
	rtn
.export e_BasicAPIExamples.EditorsOnCustomTypes.EnterPerson_dgEq_Person;8.8
.desc e_BasicAPIExamples.EditorsOnCustomTypes.EnterPerson_dgEq_Person;8.8 _hnf l8 2 0 "gEq_Person;8.8"
.o 3 0
i8
	pop_a 1
	push_r_args 1 3 0
	push_r_args 3 3 0
	update_a 5 7
	update_a 3 5
	update_a 1 3
	update_a 4 6
	update_a 2 4
	update_a 0 2
	pop_a 2
.d 6 0
	jmp s8
.ai 0 a8 i8
.o 2 0
l8
	repl_args 1 1
.o 2 0
a8
.d 2 0
	jsr ea8
.o 0 1 b
	buildB_b 0
	pop_b 1
.d 1 0
	rtn
.o 2 0
ea8
	jsr_eval 1
	jsr_eval 0
	push_r_args 1 3 0
	push_r_args 3 3 0
	update_a 5 7
	update_a 3 5
	update_a 1 3
	update_a 4 6
	update_a 2 4
	update_a 0 2
	pop_a 2
.o 6 0
s8
	create
	push_a 6
	push_a 6
	push_a 6
	update_a 6 9
	update_a 5 8
	update_a 4 7
	update_a 3 6
	update_a 2 5
	update_a 1 4
	updatepop_a 0 3
.d 4 0
	jsr s18
.o 1 0
	create
	push_a 4
	push_a 4
	push_a 4
	buildh _Nil 0
	update_a 0 6
	update_a 0 7
	update_a 0 8
	pop_a 1
.d 4 0
	jsr s18
.o 1 0
	update_a 1 4
	updatepop_a 0 3
.d 2 0
	jmp s82
.export e_BasicAPIExamples.EditorsOnCustomTypes.EnterPerson_dtoGenericPerson;23.18
.desc e_BasicAPIExamples.EditorsOnCustomTypes.EnterPerson_dtoGenericPerson;23.18 _hnf l18 1 0 "toGenericPerson;23.18"
.o 2 0
l18
	update_a 1 0
	create
	update_a 0 2
	pop_a 1
.o 2 0
ea18
	jsr_eval 0
	repl_r_args 3 0
.o 4 0
s18
	push_a 2
	push_a 2
	buildh e_StdGeneric_dPAIR 2
	push_a 1
	buildh e_StdGeneric_dPAIR 2
	fillh e_StdGeneric_dRECORD 1 4
	pop_a 3
.d 1 0
	rtn
.o 2 0
s82
	repl_args 1 1
	push_args 1 1 1
	buildh _Nil 0
	update_a 0 3
	pop_a 1
	push_a 0
	jsr_eval 0
	push_a 2
	jsr_eval 0
	update_a 1 4
	updatepop_a 0 3
.d 2 0
	jmp s83
.o 2 0
s83
	repl_args 2 2
	push_args 2 2 2
	buildh _Nil 0
	update_a 0 5
	pop_a 1
	push_a 0
	jsr_eval 0
	push_array 0
	updatepop_a 0 1
	push_a 3
	jsr_eval 0
	push_array 0
	updatepop_a 0 1
	update_a 5 6
	update_a 3 5
	update_a 1 4
	updatepop_a 0 3
.d 2 0
	jsr s78
.o 0 1 b
	jmp_false else.81
	push_a 0
	jsr_eval 0
	push_a 2
	jsr_eval 0
	update_a 1 3
	updatepop_a 0 2
.d 2 0
	jmp s81
else.81
	pop_a 2
	pushB FALSE
.d 0 1 b
	rtn
.o 2 0
s78
	push_a 1
	push_a 1
	update_a 1 3
	updatepop_a 0 2
.d 2 0
	jmp e_Data.GenEq_sgEq__String;11
.o 2 0
s81
	repl_args 2 2
	push_args 2 2 2
	buildh _Nil 0
	update_a 0 5
	pop_a 1
	push_a 0
	jsr_eval 0
	push_a 3
	jsr_eval 0
	update_a 5 6
	update_a 3 5
	update_a 1 4
	updatepop_a 0 3
.d 2 0
	jsr s79
.o 0 1 b
	jmp_false else.82
	push_a 0
	jsr_eval 0
	repl_r_args 0 3
	push_a 1
	jsr_eval 0
	repl_r_args 0 3
	pop_a 2
.d 0 6 iiiiii
	jmp s80
else.82
	pop_a 2
	pushB FALSE
.d 0 1 b
	rtn
.o 2 0
s79
	push_a 1
	push_a 1
	update_a 1 3
	updatepop_a 0 2
.d 2 0
	jmp s13
.o 2 0
s13
	create
	push_a 2
	update_a 2 3
	update_a 1 2
	updatepop_a 0 1
.d 2 0
	jsr s28
.o 1 0
	create
	push_a 2
	buildh _Nil 0
	update_a 0 4
	pop_a 1
.d 2 0
	jsr s28
.o 1 0
	update_a 1 2
	updatepop_a 0 1
.d 2 0
	jmp s76
.export e_BasicAPIExamples.EditorsOnCustomTypes.EnterPerson_dtoGenericGender;33.28
.desc e_BasicAPIExamples.EditorsOnCustomTypes.EnterPerson_dtoGenericGender;33.28 _hnf l28 1 0 "toGenericGender;33.28"
.o 2 0
l28
	update_a 1 0
	create
	update_a 0 2
	pop_a 1
.o 2 0
ea28
	jsr_eval 0
.o 2 0
s28
	pushD_a 0
	jmpD ea e_BasicAPIExamples.EditorsOnCustomTypes.EnterPerson_dFemale 0 case.84 case.85
case.83
	pop_b 1
	buildh e_StdGeneric_dUNIT 0
	buildh e_StdGeneric_dCONS 1
	fillh e_StdGeneric_dLEFT 1 2
	pop_a 1
.d 1 0
	rtn
case.84
	pop_b 1
	buildh e_StdGeneric_dUNIT 0
	buildh e_StdGeneric_dCONS 1
	buildh e_StdGeneric_dLEFT 1
	fillh e_StdGeneric_dRIGHT 1 2
	pop_a 1
.d 1 0
	rtn
case.85
	pop_b 1
	repl_args 1 1
	push_a 0
	buildh e_StdGeneric_dCONS 1
	buildh e_StdGeneric_dRIGHT 1
	fillh e_StdGeneric_dRIGHT 1 2
	pop_a 1
.d 1 0
	rtn
.o 2 0
s76
	push_a 1
	push_a 1
	update_a 1 3
	updatepop_a 0 2
.d 2 0
	jmp s77
.o 2 0
s77
	eq_desc e_StdGeneric_dLEFT 1 0
	jmp_true case.86
	jmp case.87
case.86
	repl_args 1 1
	eq_desc e_StdGeneric_dLEFT 1 1
	jmp_true case.88
	jmp case.89
case.88
	push_args 1 1 1
	buildh _Nil 0
	update_a 0 3
	pop_a 1
	push_a 0
	jsr_eval 0
	push_a 2
	jsr_eval 0
	update_a 1 4
	updatepop_a 0 3
.d 2 0
	jmp s73
case.89
	push_args 1 1 1
	buildh _Nil 0
	update_a 0 3
	pop_a 1
	pop_a 1
	pop_a 2
	pushB FALSE
.d 0 1 b
	rtn
case.87
	repl_args 1 1
	eq_desc e_StdGeneric_dRIGHT 1 1
	jmp_true case.90
	jmp case.91
case.90
	push_args 1 1 1
	buildh _Nil 0
	update_a 0 3
	pop_a 1
	push_a 0
	jsr_eval 0
	push_a 2
	jsr_eval 0
	update_a 1 4
	updatepop_a 0 3
.d 2 0
	jmp s75
case.91
	push_args 1 1 1
	buildh _Nil 0
	update_a 0 3
	pop_a 1
	pop_a 1
	pop_a 2
	pushB FALSE
.d 0 1 b
	rtn
.o 2 0
s75
	eq_desc e_StdGeneric_dLEFT 1 0
	jmp_true case.92
	jmp case.93
case.92
	repl_args 1 1
	eq_desc e_StdGeneric_dLEFT 1 1
	jmp_true case.94
	jmp case.95
case.94
	push_args 1 1 1
	buildh _Nil 0
	update_a 0 3
	pop_a 1
	push_a 0
	jsr_eval 0
	push_a 2
	jsr_eval 0
	update_a 1 4
	updatepop_a 0 3
.d 2 0
	jmp s73
case.95
	push_args 1 1 1
	buildh _Nil 0
	update_a 0 3
	pop_a 1
	pop_a 1
	pop_a 2
	pushB FALSE
.d 0 1 b
	rtn
case.93
	repl_args 1 1
	eq_desc e_StdGeneric_dRIGHT 1 1
	jmp_true case.96
	jmp case.97
case.96
	push_args 1 1 1
	buildh _Nil 0
	update_a 0 3
	pop_a 1
	push_a 0
	jsr_eval 0
	push_a 2
	jsr_eval 0
	update_a 1 4
	updatepop_a 0 3
.d 2 0
	jmp s74
case.97
	push_args 1 1 1
	buildh _Nil 0
	update_a 0 3
	pop_a 1
	pop_a 1
	pop_a 2
	pushB FALSE
.d 0 1 b
	rtn
.o 2 0
s73
	repl_args 1 1
	push_args 1 1 1
	buildh _Nil 0
	update_a 0 3
	pop_a 1
	push_a 0
	jsr_eval 0
	push_a 2
	jsr_eval 0
	update_a 1 4
	updatepop_a 0 3
.d 2 0
	jmp s48
.o 2 0
s48
	pop_a 2
	pushB TRUE
.d 0 1 b
	rtn
.o 2 0
s74
	repl_args 1 1
	push_args 1 1 1
	buildh _Nil 0
	update_a 0 3
	pop_a 1
	push_a 0
	jsr_eval 0
	push_array 0
	updatepop_a 0 1
	push_a 2
	jsr_eval 0
	push_array 0
	updatepop_a 0 1
	update_a 1 4
	updatepop_a 0 3
.d 2 0
	jmp e_Data.GenEq_sgEq__String;11
.o 0 6 iiiiii
s80
	push_b 5
	push_b 5
	push_b 5
	push_b 5
	push_b 5
	push_b 5
	update_b 5 11
	update_b 4 10
	update_b 3 9
	update_b 2 8
	update_b 1 7
	updatepop_b 0 6
.d 0 6 iiiiii
	jmp e_iTasks.Extensions.DateTime_sgEq_Date;36
.export e_BasicAPIExamples.EditorsOnCustomTypes.EnterPerson_sTD;Person
.export e_BasicAPIExamples.EditorsOnCustomTypes.EnterPerson_eaTD;Person
.descexp e_BasicAPIExamples.EditorsOnCustomTypes.EnterPerson_dTD;Person e_BasicAPIExamples.EditorsOnCustomTypes.EnterPerson_nTD;Person e_BasicAPIExamples.EditorsOnCustomTypes.EnterPerson_lTD;Person 1 0 "TD;Person"
.o 2 0
e_BasicAPIExamples.EditorsOnCustomTypes.EnterPerson_lTD;Person
	update_a 1 0
	create
	update_a 0 2
	pop_a 1
.d 2 0
	jmp e_BasicAPIExamples.EditorsOnCustomTypes.EnterPerson_eaTD;Person
.n 1 e_BasicAPIExamples.EditorsOnCustomTypes.EnterPerson_dTD;Person e_BasicAPIExamples.EditorsOnCustomTypes.EnterPerson_eaTD;Person
.o 1 0
e_BasicAPIExamples.EditorsOnCustomTypes.EnterPerson_nTD;Person
	push_node _cycle_in_spine 1
.o 2 0
e_BasicAPIExamples.EditorsOnCustomTypes.EnterPerson_eaTD;Person
.o 2 0
e_BasicAPIExamples.EditorsOnCustomTypes.EnterPerson_sTD;Person
.o 2 0
s14
	fillh _Nil 0 1
	pop_a 1
.d 1 0
	rtn
.o 2 0
s317
	eq_desc _None 0 0
	jmp_true case.98
	jmp case.99
case.98
	buildh _None 0
	push_a 2
	push_a 1
	update_a 1 2
	update_a 0 1
	pop_a 1
	update_a 1 3
	updatepop_a 0 2
.d 2 0
	rtn
case.99
	repl_args 1 1
	buildh _Nil 0
	push_a 1
	buildh _Cons 2
	pushB TRUE
	updatepop_a 0 1
.d 1 1 b
	jsr e_iTasks.Extensions.DateTime_sJSONDecode_Date;33
.o 2 0
	push_a 2
	push_a 2
	update_a 1 3
	update_a 2 1
	update_a 0 2
	pop_a 1
	update_a 2 3
	update_a 1 2
	updatepop_a 0 1
.d 3 0
	jmp s334
.o 3 0
s318
	eq_desc _Just 1 0
	jmp_true case.100
	jmp case.101
case.100
	repl_args 1 1
	push_a 0
	buildh _Just 1
	push_a 3
	push_a 1
	update_a 1 2
	update_a 0 1
	pop_a 1
	update_a 1 4
	updatepop_a 0 3
.d 2 0
	rtn
case.101
	buildh _None 0
	push_a 3
	push_a 1
	update_a 1 2
	update_a 0 1
	pop_a 1
	update_a 1 4
	updatepop_a 0 3
.d 2 0
	rtn
.o 4 0
s319
case.102
	eq_desc _Just 1 0
	jmp_true case.104
	jmp case.103
case.104
	repl_args 1 1
	push_a 2
	jsr_eval 0
	push_a 1
	buildh e_StdGeneric_dCONS 1
	buildh _Just 1
	update_a 1 5
	updatepop_a 0 4
.d 2 0
	rtn
case.103
	buildh _None 0
	push_a 4
	push_a 1
	update_a 1 2
	update_a 0 1
	pop_a 1
	update_a 1 5
	updatepop_a 0 4
.d 2 0
	rtn
.o 4 0
s320
case.105
	eq_desc _Just 1 0
	jmp_true case.107
	jmp case.106
case.107
	repl_args 1 1
	push_a 2
	jsr_eval 0
	push_a 1
	buildh e_StdGeneric_dCONS 1
	buildh _Just 1
	update_a 1 5
	updatepop_a 0 4
.d 2 0
	rtn
case.106
	buildh _None 0
	push_a 4
	push_a 1
	update_a 1 2
	update_a 0 1
	pop_a 1
	update_a 1 5
	updatepop_a 0 4
.d 2 0
	rtn
.o 4 0
s321
	eq_desc _Just 1 0
	jmp_true case.108
	jmp case.109
case.108
	repl_args 1 1
	push_a 0
	buildh e_StdGeneric_dLEFT 1
	buildh _Just 1
	push_a 2
	push_a 1
	update_a 1 2
	update_a 0 1
	pop_a 1
	update_a 1 5
	updatepop_a 0 4
.d 2 0
	rtn
case.109
	push_a 3
	pushB FALSE
	push_a 3
	update_a 1 4
	updatepop_a 0 3
.d 2 1 b
	jsr s61
.o 2 0
	push_a 2
	push_a 2
	update_a 1 3
	update_a 2 1
	update_a 0 2
	pop_a 1
	update_a 2 3
	update_a 1 2
	updatepop_a 0 1
.d 3 0
	jmp s333
.o 5 0
s322
	eq_desc _Just 1 0
	jmp_true case.110
	jmp case.111
case.110
	repl_args 1 1
	push_a 0
	buildh e_StdGeneric_dLEFT 1
	buildh _Just 1
	push_a 2
	push_a 1
	update_a 1 2
	update_a 0 1
	pop_a 1
	update_a 1 6
	updatepop_a 0 5
.d 2 0
	rtn
case.111
	push_a 4
	pushB FALSE
	push_a 4
	push_a 4
	update_a 2 6
	update_a 1 5
	updatepop_a 0 4
.d 3 1 b
	jsr s62
.o 2 0
	push_a 2
	push_a 2
	update_a 1 3
	update_a 2 1
	update_a 0 2
	pop_a 1
	update_a 2 3
	update_a 1 2
	updatepop_a 0 1
.d 3 0
	jmp s332
.o 3 0
s323
case.112
	eq_desc _Just 1 0
	jmp_true case.114
	jmp case.113
case.114
	repl_args 1 1
	push_a 0
	buildh _Just 1
	push_a 2
	push_a 1
	update_a 1 2
	update_a 0 1
	pop_a 1
	update_a 1 4
	updatepop_a 0 3
.d 2 0
	rtn
case.113
	buildh _None 0
	push_a 3
	push_a 1
	update_a 1 2
	update_a 0 1
	pop_a 1
	update_a 1 4
	updatepop_a 0 3
.d 2 0
	rtn
.o 2 0
s324
	create
	push_a 1
	update_a 1 2
	updatepop_a 0 1
.d 2 0
	jsr s46
.o 1 0
	push_a 1
	push_a 1
	update_a 1 2
	update_a 0 1
	pop_a 1
	update_a 1 2
	updatepop_a 0 1
.d 2 0
	rtn
.o 2 0
s325
	eq_desc _None 0 0
	jmp_true case.115
	jmp case.116
case.115
	buildh _None 0
	push_a 2
	push_a 1
	update_a 1 2
	update_a 0 1
	pop_a 1
	update_a 1 3
	updatepop_a 0 2
.d 2 0
	rtn
case.116
	repl_args 1 1
	buildh _Nil 0
	push_a 1
	buildh _Cons 2
	pushB TRUE
	updatepop_a 0 1
.d 1 1 b
	jsr s12
.o 2 0
	push_a 2
	push_a 2
	update_a 1 3
	update_a 2 1
	update_a 0 2
	pop_a 1
	update_a 2 3
	update_a 1 2
	updatepop_a 0 1
.d 3 0
	jmp s331
.o 3 0
s326
	eq_desc _Just 1 0
	jmp_true case.117
	jmp case.118
case.117
	repl_args 1 1
	push_a 0
	buildh _Just 1
	push_a 3
	push_a 1
	update_a 1 2
	update_a 0 1
	pop_a 1
	update_a 1 4
	updatepop_a 0 3
.d 2 0
	rtn
case.118
	buildh _None 0
	push_a 3
	push_a 1
	update_a 1 2
	update_a 0 1
	pop_a 1
	update_a 1 4
	updatepop_a 0 3
.d 2 0
	rtn
.o 2 0
s327
	eq_desc _None 0 0
	jmp_true case.119
	jmp case.120
case.119
	buildh _None 0
	push_a 2
	push_a 1
	update_a 1 2
	update_a 0 1
	pop_a 1
	update_a 1 3
	updatepop_a 0 2
.d 2 0
	rtn
case.120
	repl_args 1 1
	buildh _Nil 0
	push_a 1
	buildh _Cons 2
	pushB TRUE
	updatepop_a 0 1
.d 1 1 b
	jsr e_Text.GenJSON_sJSONDecode__String;46
.o 2 0
	push_a 2
	push_a 2
	update_a 1 3
	update_a 2 1
	update_a 0 2
	pop_a 1
	update_a 2 3
	update_a 1 2
	updatepop_a 0 1
.d 3 0
	jmp s330
.o 3 0
s328
	eq_desc _Just 1 0
	jmp_true case.121
	jmp case.122
case.121
	repl_args 1 1
	push_a 0
	buildh _Just 1
	push_a 3
	push_a 1
	update_a 1 2
	update_a 0 1
	pop_a 1
	update_a 1 4
	updatepop_a 0 3
.d 2 0
	rtn
case.122
	buildh _None 0
	push_a 3
	push_a 1
	update_a 1 2
	update_a 0 1
	pop_a 1
	update_a 1 4
	updatepop_a 0 3
.d 2 0
	rtn
.o 2 0
s329
	create
	push_a 1
	update_a 1 2
	updatepop_a 0 1
.d 2 0
	jsr s39
.o 1 0
	push_a 1
	push_a 1
	update_a 1 2
	update_a 0 1
	pop_a 1
	update_a 1 2
	updatepop_a 0 1
.d 2 0
	rtn
.o 3 0
s330
	eq_desc _Just 1 0
	jmp_true case.123
	jmp case.124
case.123
	repl_args 1 1
	push_a 0
	buildh _Just 1
	push_a 3
	push_a 1
	update_a 1 2
	update_a 0 1
	pop_a 1
	update_a 1 4
	updatepop_a 0 3
.d 2 0
	rtn
case.124
	buildh _None 0
	push_a 3
	push_a 1
	update_a 1 2
	update_a 0 1
	pop_a 1
	update_a 1 4
	updatepop_a 0 3
.d 2 0
	rtn
.o 3 0
s331
	eq_desc _Just 1 0
	jmp_true case.125
	jmp case.126
case.125
	repl_args 1 1
	push_a 0
	buildh _Just 1
	push_a 3
	push_a 1
	update_a 1 2
	update_a 0 1
	pop_a 1
	update_a 1 4
	updatepop_a 0 3
.d 2 0
	rtn
case.126
	buildh _None 0
	push_a 3
	push_a 1
	update_a 1 2
	update_a 0 1
	pop_a 1
	update_a 1 4
	updatepop_a 0 3
.d 2 0
	rtn
.o 3 0
s332
	eq_desc _Just 1 0
	jmp_true case.127
	jmp case.128
case.127
	repl_args 1 1
	push_a 0
	buildh e_StdGeneric_dRIGHT 1
	buildh _Just 1
	push_a 2
	push_a 1
	update_a 1 2
	update_a 0 1
	pop_a 1
	update_a 1 4
	updatepop_a 0 3
.d 2 0
	rtn
case.128
	buildh _None 0
	push_a 3
	push_a 1
	update_a 1 2
	update_a 0 1
	pop_a 1
	update_a 1 4
	updatepop_a 0 3
.d 2 0
	rtn
.o 3 0
s333
	eq_desc _Just 1 0
	jmp_true case.129
	jmp case.130
case.129
	repl_args 1 1
	push_a 0
	buildh e_StdGeneric_dRIGHT 1
	buildh _Just 1
	push_a 2
	push_a 1
	update_a 1 2
	update_a 0 1
	pop_a 1
	update_a 1 4
	updatepop_a 0 3
.d 2 0
	rtn
case.130
	buildh _None 0
	push_a 3
	push_a 1
	update_a 1 2
	update_a 0 1
	pop_a 1
	update_a 1 4
	updatepop_a 0 3
.d 2 0
	rtn
.o 3 0
s334
	eq_desc _Just 1 0
	jmp_true case.131
	jmp case.132
case.131
	repl_args 1 1
	push_a 0
	buildh _Just 1
	push_a 3
	push_a 1
	update_a 1 2
	update_a 0 1
	pop_a 1
	update_a 1 4
	updatepop_a 0 3
.d 2 0
	rtn
case.132
	buildh _None 0
	push_a 3
	push_a 1
	update_a 1 2
	update_a 0 1
	pop_a 1
	update_a 1 4
	updatepop_a 0 3
.d 2 0
	rtn
