.comp 920 000111010010000
.start _nostart_
.depend "System._Pointer" "20210522120433"
.depend "StdInt" "20210522120433"
.depend "StdOverloaded" "20210522120433"
.depend "System._Environment" "20210522120433"
.module m_System._Environment "System._Environment" "20210522120433"
.endinfo
.impmod _system
.implab _cycle_in_spine
.implab _type_error
.implab _hnf
.impdesc e_system_dind
.implab e_system_nind e_system_eaind
.impdesc e_system_dif
.implab e_system_nif e_system_eaif
.implab e_system_sif
.impdesc e_system_dAP
.implab e_system_nAP e_system_eaAP
.implab e_system_sAP
.impdesc ARRAY
.impdesc _Nil
.impdesc _Cons
.impdesc _Conss
.implab n_Conss ea_Conss
.impdesc _Consts
.implab n_Consts ea_Consts
.impdesc _Conssts
.implab n_Conssts ea_Conssts
.impdesc _Tuple
.impdesc d_S.1
.implab n_S.1 ea_S.1
.impdesc d_S.2
.implab n_S.2 ea_S.2
.impdesc d_S.3
.implab n_S.3 ea_S.3
.impdesc d_S.4
.implab n_S.4 ea_S.4
.impdesc d_S.5
.implab n_S.5 ea_S.5
.impdesc d_S.6
.implab n_S.6 ea_S.6
.implab _driver
.impmod System._Pointer
.impdesc e_System._Pointer_dderefString
.implab e_System._Pointer_nderefString
.implab e_System._Pointer_spackString
.impmod StdInt
.implab e_StdInt_s==;16
.export e_System._Environment_s_unsetEnvironmentVariable
.export e_System._Environment_ea_unsetEnvironmentVariable
.descexp e_System._Environment_d_unsetEnvironmentVariable e_System._Environment_n_unsetEnvironmentVariable e_System._Environment_l_unsetEnvironmentVariable 2 0 "_unsetEnvironmentVariable"
.a 2 e_System._Environment_ea_unsetEnvironmentVariable
.o 2 0
e_System._Environment_l_unsetEnvironmentVariable
	push_args 0 1 1
	update_a 2 1
	create
	update_a 0 3
	pop_a 1
.d 3 0
	jmp e_System._Environment_ea_unsetEnvironmentVariable
.n 2 e_System._Environment_d_unsetEnvironmentVariable e_System._Environment_ea_unsetEnvironmentVariable
.o 1 0
e_System._Environment_n_unsetEnvironmentVariable
	push_node _cycle_in_spine 2
.o 3 0
e_System._Environment_ea_unsetEnvironmentVariable
	jsr_eval 1
	jsr_eval 0
	push_array 0
	update_a 0 1
	pop_a 1
.o 3 0
e_System._Environment_s_unsetEnvironmentVariable
.o 3 0
s3
	push_a 0
	updatepop_a 0 1
.d 1 0
	jsr e_System._Pointer_spackString
.o 1 0
	push_a 1
	push_a 1
	update_a 1 2
	update_a 0 1
	pop_a 1
	update_a 1 2
	updatepop_a 0 1
.d 2 0
	jsr s6
.o 1 1 i
	pop_b 1
	fill_a 0 1
	pop_a 1
.d 1 0
	rtn
.o 2 0
s6
	ccall unsetenv "s:I:A"
.d 1 1 i
	rtn
.export e_System._Environment_s_setEnvironmentVariable
.export e_System._Environment_ea_setEnvironmentVariable
.descexp e_System._Environment_d_setEnvironmentVariable e_System._Environment_n_setEnvironmentVariable e_System._Environment_l_setEnvironmentVariable 3 0 "_setEnvironmentVariable"
.a 3 e_System._Environment_ea_setEnvironmentVariable
.o 2 0
e_System._Environment_l_setEnvironmentVariable
	push_args 0 2 2
	update_a 3 2
	create
	update_a 0 4
	pop_a 1
.d 4 0
	jmp e_System._Environment_ea_setEnvironmentVariable
.n 3 e_System._Environment_d_setEnvironmentVariable e_System._Environment_ea_setEnvironmentVariable
.o 1 0
e_System._Environment_n_setEnvironmentVariable
	push_node _cycle_in_spine 3
.o 4 0
e_System._Environment_ea_setEnvironmentVariable
	jsr_eval 2
	jsr_eval 1
	jsr_eval 0
	push_array 1
	push_array 1
	update_a 1 3
	update_a 0 2
	pop_a 2
.o 4 0
e_System._Environment_s_setEnvironmentVariable
.o 4 0
s2
	push_a 1
	update_a 1 2
	updatepop_a 0 1
.d 1 0
	jsr e_System._Pointer_spackString
.o 1 0
	push_a 1
	buildh _Nil 0
	update_a 0 3
	pop_a 1
.d 1 0
	jsr e_System._Pointer_spackString
.o 1 0
	push_a 3
	pushI 1
	push_a 2
	update_a 1 3
	update_a 2 1
	update_a 0 2
	pop_a 1
	update_a 2 4
	update_a 1 3
	updatepop_a 0 2
.d 3 1 i
	jsr s5
.o 1 1 i
	pop_b 1
	fill_a 0 1
	pop_a 1
.d 1 0
	rtn
.o 3 1 i
s5
	ccall setenv "ssI:I:A"
.d 1 1 i
	rtn
.export e_System._Environment_s_getEnvironmentVariable
.descexp e_System._Environment_d_getEnvironmentVariable e_System._Environment_n_getEnvironmentVariable e_System._Environment_l_getEnvironmentVariable 2 0 "_getEnvironmentVariable"
.a 0 a1
.o 2 0
e_System._Environment_l_getEnvironmentVariable
	repl_args 1 1
.o 2 0
a1
.d 2 0
	jsr ea1
.o 2 0
	push_a 1
	push_a 1
	buildh _Tuple 2
	updatepop_a 0 2
.d 1 0
	rtn
.n 2 e_System._Environment_d_getEnvironmentVariable
.o 1 0
e_System._Environment_n_getEnvironmentVariable
	push_node _cycle_in_spine 2
.d 2 0
	jsr ea1
.o 2 0
	push_a 1
	push_a 1
	fillh _Tuple 2 4
	pop_a 2
.d 1 0
	rtn
.o 2 0
ea1
	jsr_eval 1
	jsr_eval 0
	push_array 0
	update_a 0 1
	pop_a 1
.o 2 0
e_System._Environment_s_getEnvironmentVariable
.o 2 0
s1
	push_a 0
	updatepop_a 0 1
.d 1 0
	jsr e_System._Pointer_spackString
.o 1 0
.d 1 0
	jsr s4
.o 0 1 i
	pushI 0
	push_b 1
	eqI
	jmp_false else.1
	buildh _None 0
	push_a 1
	push_a 1
	update_a 1 2
	update_a 0 1
	pop_a 1
	update_a 1 2
	updatepop_a 0 1
	pop_b 1
.d 2 0
	rtn
else.1
	buildI_b 0
	build e_System._Pointer_dderefString 1 e_System._Pointer_nderefString
	build _Justs 1 n_Justs
	push_a 1
	push_a 1
	update_a 1 2
	update_a 0 1
	pop_a 1
	update_a 1 2
	updatepop_a 0 1
	pop_b 1
.d 2 0
	rtn
.o 1 0
s4
	ccall getenv "s:p"
.d 0 1 i
	rtn
