.comp 920 000011110011000
.start _nostart_
.depend "System._Posix" "20210613154827"
.depend "System._Pointer" "20210613154827"
.depend "System.OS" "20210613154827"
.depend "System._Time" "20210613154827"
.depend "System.Time" "20210613154827"
.depend "System.OSError" "20210613154827"
.depend "_SystemEnumStrict" "20210613154827"
.depend "_SystemStrictLists" "20210613154827"
.depend "StdStrictLists" "20210613154827"
.depend "StdGeneric" "20210613154827"
.depend "Data.GenEq" "20210613154827"
.depend "StdReal" "20210613154827"
.depend "StdChar" "20210613154827"
.depend "StdInt" "20210613154827"
.depend "StdBool" "20210613154827"
.depend "StdClass" "20210613154827"
.depend "StdList" "20210613154827"
.depend "Data.Monoid" "20210613154827"
.depend "Control.Applicative" "20210613154827"
.depend "Control.Monad" "20210613154827"
.depend "Data.Functor" "20210613154827"
.depend "Data.Error" "20210613154827"
.depend "StdOverloaded" "20210613154827"
.depend "_SystemDynamic" "20210613154827"
.depend "System._OSError" "20210613154827"
.module m_System._OSError "System._OSError" "20210613154827"
.endinfo
.impmod _system
.implab _cycle_in_spine
.implab _type_error
.implab _hnf
.impdesc e_system_dind
.implab e_system_nind e_system_eaind
.impdesc e_system_dif
.implab e_system_nif e_system_eaif
.implab e_system_sif
.impdesc e_system_dAP
.implab e_system_nAP e_system_eaAP
.implab e_system_sAP
.impdesc ARRAY
.impdesc _Nil
.impdesc _Cons
.impdesc _Conss
.implab n_Conss ea_Conss
.impdesc _Consts
.implab n_Consts ea_Consts
.impdesc _Conssts
.implab n_Conssts ea_Conssts
.impdesc _Tuple
.impdesc d_S.1
.implab n_S.1 ea_S.1
.impdesc d_S.2
.implab n_S.2 ea_S.2
.impdesc d_S.3
.implab n_S.3 ea_S.3
.impdesc d_S.4
.implab n_S.4 ea_S.4
.impdesc d_S.5
.implab n_S.5 ea_S.5
.impdesc d_S.6
.implab n_S.6 ea_S.6
.implab _driver
.impmod System._Posix
.implab e_System._Posix_serrno
.implab e_System._Posix_sstrerr
.impmod System._Pointer
.implab e_System._Pointer_sderefString
.export e_System._OSError_s_osErrorCodeToMessage
.descexp e_System._OSError_d_osErrorCodeToMessage e_System._OSError_n_osErrorCodeToMessage e_System._OSError_l_osErrorCodeToMessage 1 0 "_osErrorCodeToMessage"
.o 2 0 
e_System._OSError_l_osErrorCodeToMessage
.d 1 0 
	pop_a_jsr 1 ea2
.o 1 0 
	buildh ARRAY 1
.d 1 0 
	rtn 
.n 1 e_System._OSError_d_osErrorCodeToMessage
.o 1 0 
e_System._OSError_n_osErrorCodeToMessage
	push_node _cycle_in_spine 1
.d 1 0 
	jsr ea2
.o 1 0 
	fillh ARRAY 1 1
.d 1 0 
	rtn 
.o 1 0 
ea2
	jsr_eval 0
	pushI0_pop_a1 
.o 0 1 i
e_System._OSError_s_osErrorCodeToMessage
.o 0 1 i
s2
.d 0 1 i
	jsr e_System._Posix_sstrerr
.o 0 1 i
.d 0 1 i
	jmp e_System._Pointer_sderefString
.export e_System._OSError_s_getLastOSErrorCode
.descexp e_System._OSError_d_getLastOSErrorCode e_System._OSError_n_getLastOSErrorCode e_System._OSError_l_getLastOSErrorCode 1 0 "_getLastOSErrorCode"
.o 2 0 
e_System._OSError_l_getLastOSErrorCode
.d 1 0 
	pop_a_jsr 1 ea1
.o 1 1 i
	push_a 0
	buildI_b 0
	buildh _Tuple 2
	put_a 1
.d 1 0 
	pop_b_rtn 1
.n 1 e_System._OSError_d_getLastOSErrorCode
.o 1 0 
e_System._OSError_n_getLastOSErrorCode
	push_node _cycle_in_spine 1
.d 1 0 
	jsr ea1
.o 1 1 i
	push_a 0
	buildI_b 0
	fillh _Tuple 2 3
.d 1 0 
	pop_ab_rtn 1 1
.o 1 0 
ea1
	jsr_eval 0
.o 1 0 
e_System._OSError_s_getLastOSErrorCode
.o 1 0 
s1
.d 1 0 
	jmp e_System._Posix_serrno
