.comp 920 000011110011000
.start _nostart_
.depend "System._Pointer" "20210613154827"
.depend "_SystemEnum" "20210613154827"
.depend "StdEnum" "20210613154827"
.depend "System.OS" "20210613154827"
.depend "StdReal" "20210613154827"
.depend "StdChar" "20210613154827"
.depend "StdInt" "20210613154827"
.depend "StdBool" "20210613154827"
.depend "StdClass" "20210613154827"
.depend "StdList" "20210613154827"
.depend "StdOverloaded" "20210613154827"
.depend "_SystemDynamic" "20210613154827"
.depend "System.CommandLine" "20210613154827"
.module m_System.CommandLine "System.CommandLine" "20210613154827"
.endinfo
.impmod _system
.implab _cycle_in_spine
.implab _type_error
.implab _hnf
.impdesc e_system_dind
.implab e_system_nind e_system_eaind
.impdesc e_system_dif
.implab e_system_nif e_system_eaif
.implab e_system_sif
.impdesc e_system_dAP
.implab e_system_nAP e_system_eaAP
.implab e_system_sAP
.impdesc ARRAY
.impdesc _Nil
.impdesc _Cons
.impdesc _Conss
.implab n_Conss ea_Conss
.impdesc _Consts
.implab n_Consts ea_Consts
.impdesc _Conssts
.implab n_Conssts ea_Conssts
.impdesc _Tuple
.impdesc d_S.1
.implab n_S.1 ea_S.1
.impdesc d_S.2
.implab n_S.2 ea_S.2
.impdesc d_S.3
.implab n_S.3 ea_S.3
.impdesc d_S.4
.implab n_S.4 ea_S.4
.impdesc d_S.5
.implab n_S.5 ea_S.5
.impdesc d_S.6
.implab n_S.6 ea_S.6
.implab _driver
.impmod System._Pointer
.implab e_System._Pointer_sreadInt
.implab e_System._Pointer_sreadInt4Z
.implab e_System._Pointer_sderefInt
.implab e_System._Pointer_sderefString
.impmod StdInt
.implab e_StdInt_s<<
.implab e_StdInt_s+;6
.implab e_StdInt_s-;7
.implab e_StdInt_sone;11
.implab e_StdInt_s<;17
.impmod StdBool
.implab e_StdBool_snot
.export e_System.CommandLine_ssetReturnCode
.export e_System.CommandLine_easetReturnCode
.descexp e_System.CommandLine_dsetReturnCode e_System.CommandLine_nsetReturnCode e_System.CommandLine_lsetReturnCode 2 0 "setReturnCode"
.a 2 e_System.CommandLine_easetReturnCode
.o 2 0 
e_System.CommandLine_lsetReturnCode
	push_args 0 1 1
	update_a 2 1
	create 
.d 3 0 
	put_a_jmp 3 e_System.CommandLine_easetReturnCode
.n 2 e_System.CommandLine_dsetReturnCode e_System.CommandLine_easetReturnCode
.o 1 0 
e_System.CommandLine_nsetReturnCode
	push_node _cycle_in_spine 2
.o 3 0 
e_System.CommandLine_easetReturnCode
	jsr_eval 1
	jsr_eval 0
	pushI0_pop_a1 
.o 2 1 i
e_System.CommandLine_ssetReturnCode
.o 2 1 i
s2
s8
	andIi 0
	pushLc return_code
xxx
	pushI 3
	andIio 4 1
	shiftl%
	push_b 2
	shiftl%
	put_b 2
	andIi -5
	pushI -8
	addI
	push_b_a 0
	pop_b 1
	pushI_a 0
	or%
	fill1_r _ 0 1 0 01
.keep 0 2
	fill_a 1 2
.d 1 0 
	pop_a_rtn 2
.export e_System.CommandLine_sgetCommandLine
.descexp e_System.CommandLine_dgetCommandLine e_System.CommandLine_ngetCommandLine e_System.CommandLine_lgetCommandLine 1 0 "getCommandLine"
.o 2 0 
e_System.CommandLine_lgetCommandLine
.d 1 0 
	pop_a_jsr 1 ea1
.o 2 0 
	buildh _Tuple 2
.d 1 0 
	rtn 
.n 1 e_System.CommandLine_dgetCommandLine
.o 1 0 
e_System.CommandLine_ngetCommandLine
	push_node _cycle_in_spine 1
.d 1 0 
	jsr ea1
.o 2 0 
	fillh _Tuple 2 2
.d 1 0 
	rtn 
.o 1 0 
ea1
	jsr_eval 0
.o 1 0 
e_System.CommandLine_sgetCommandLine
.o 1 0 
s1
.d 0 0 
	jsr s4
.o 0 1 i
	pushI 0
	swap_b1 
.d 0 2 ii
	jsr e_System._Pointer_sreadInt4Z
.o 0 1 i
	decI
	build e_System.CommandLine_d_f0.11 0 e_System.CommandLine_n_f0.11
	create 
	pushI 0
	swap_a1 
.d 2 2 ii
	jsr s3
.o 1 0 
.d 2 0 
	rtn 
.export e_System.CommandLine_d_f0.11
.export e_System.CommandLine_n_f0.11
.descn e_System.CommandLine_d_f0.11 e_System.CommandLine_n_f0.11 0 0 "_f0.11"
.n 0 e_System.CommandLine_d_f0.11 ea11
.o 1 0 
e_System.CommandLine_n_f0.11
	push_node _cycle_in_spine 0
.o 1 0 
ea11
.o 1 0 
s11
.d 0 0 
	jsr s6
.o 0 1 i
.d 0 1 i
	jsr e_System._Pointer_sderefInt
.o 0 1 i
	fillI_b 0 0
.d 1 0 
	pop_b_rtn 1
.o 2 2 ii
s3
	push_b2 0 1
	jmp_ltI else.1
	push2_b 1
	push_a 0
	build_u e_System.CommandLine_d_f2.13 1 2 e_System.CommandLine_n_f2.13
	push_ab 1 0
	build_u e_System.CommandLine_d_f1.12 1 1 e_System.CommandLine_n_f1.12
	fillh _Cons 2 3
.d 1 0 
	pop_ab_rtn 1 2
else.1
	fillh _Nil 0 1
.d 1 0 
	pop_ab_rtn 1 2
.export e_System.CommandLine_d_f2.13
.export e_System.CommandLine_n_f2.13
.descn e_System.CommandLine_d_f2.13 e_System.CommandLine_n_f2.13 3 0 "_f2.13"
.nu 1 2 e_System.CommandLine_d_f2.13 _
.o 1 0 
e_System.CommandLine_n_f2.13
	push_node_u _cycle_in_spine 1 2
.o 2 2 ii
ea13
.o 2 2 ii
s13
	incI
.d 2 2 ii
	jmp s3
.export e_System.CommandLine_d_f1.12
.export e_System.CommandLine_n_f1.12
.descn e_System.CommandLine_d_f1.12 e_System.CommandLine_n_f1.12 2 0 "_f1.12"
.nu 1 1 e_System.CommandLine_d_f1.12 _
.o 1 0 
e_System.CommandLine_n_f1.12
	push_node_u _cycle_in_spine 1 1
.o 2 1 i
ea12
.o 2 1 i
s12
	pushI 3
	push_b 1
	shiftl%
	jsr_eval 0
	pushI0_pop_a1 
	update2pop_b 0 1
.d 0 2 ii
	jsr e_System._Pointer_sreadInt
.o 0 1 i
.d 0 1 i
	jsr e_System._Pointer_sderefString
.o 1 0 
	fillh ARRAY 1 1
.d 1 0 
	rtn 
.o 0 0 
s6
s7
	pushLc global_argv
.d 0 1 i
	rtn 
.o 0 0 
s4
s5
	pushLc global_argc
.d 0 1 i
	rtn 
