.comp 920 000011110011000
.start _nostart_
.depend "System._FilePath" "20210613154827"
.depend "Text" "20210613154827"
.depend "Data.Func" "20210613154827"
.depend "_SystemArray" "20210613154827"
.depend "StdArray" "20210613154827"
.depend "StdTuple" "20210613154827"
.depend "System.OS" "20210613154827"
.depend "System.OSError" "20210613154827"
.depend "StdString" "20210613154827"
.depend "_SystemEnumStrict" "20210613154827"
.depend "_SystemStrictLists" "20210613154827"
.depend "StdStrictLists" "20210613154827"
.depend "StdGeneric" "20210613154827"
.depend "Data.GenEq" "20210613154827"
.depend "StdReal" "20210613154827"
.depend "StdChar" "20210613154827"
.depend "StdInt" "20210613154827"
.depend "StdBool" "20210613154827"
.depend "StdClass" "20210613154827"
.depend "StdList" "20210613154827"
.depend "Data.Monoid" "20210613154827"
.depend "Control.Applicative" "20210613154827"
.depend "Control.Monad" "20210613154827"
.depend "Data.Functor" "20210613154827"
.depend "Data.Error" "20210613154827"
.depend "StdOverloaded" "20210613154827"
.depend "_SystemDynamic" "20210613154827"
.depend "System.FilePath" "20210613154827"
.module m_System.FilePath "System.FilePath" "20210613154827"
.endinfo
.impmod _system
.implab _cycle_in_spine
.implab _type_error
.implab _hnf
.impdesc e_system_dind
.implab e_system_nind e_system_eaind
.impdesc e_system_dif
.implab e_system_nif e_system_eaif
.implab e_system_sif
.impdesc e_system_dAP
.implab e_system_nAP e_system_eaAP
.implab e_system_sAP
.impdesc ARRAY
.impdesc _Nil
.impdesc _Cons
.impdesc _Conss
.implab n_Conss ea_Conss
.impdesc _Consts
.implab n_Consts ea_Consts
.impdesc _Conssts
.implab n_Conssts ea_Conssts
.impdesc _Tuple
.impdesc d_S.1
.implab n_S.1 ea_S.1
.impdesc d_S.2
.implab n_S.2 ea_S.2
.impdesc d_S.3
.implab n_S.3 ea_S.3
.impdesc d_S.4
.implab n_S.4 ea_S.4
.impdesc d_S.5
.implab n_S.5 ea_S.5
.impdesc d_S.6
.implab n_S.6 ea_S.6
.implab _driver
.impmod System._FilePath
.implab e_System._FilePath_sgetFullPathName
.impmod Text
.implab e_Text_sconcat;4
.implab e_Text_slastIndexOf;10
.impdesc e_Text_dsubString;18
.implab e_Text_ssubString;18
.implab e_Text_nsubString;18
.impmod _SystemArray
.impmod StdString
.implab e_StdString_s%;10
.implab e_StdString_s+++;11
.impmod StdChar
.implab e_StdChar_s==;18
.impmod StdInt
.implab e_StdInt_s+;6
.implab e_StdInt_s-;7
.implab e_StdInt_s==;16
.implab e_StdInt_s<;17
.impmod StdBool
.implab e_StdBool_snot
.export e_System.FilePath_sTD;FilePath
.export e_System.FilePath_eaTD;FilePath
.descexp e_System.FilePath_dTD;FilePath e_System.FilePath_nTD;FilePath e_System.FilePath_lTD;FilePath 1 0 "TD;FilePath"
.o 2 0 
e_System.FilePath_lTD;FilePath
	update_a 1 0
	create 
.d 2 0 
	put_a_jmp 2 e_System.FilePath_eaTD;FilePath
.n 1 e_System.FilePath_dTD;FilePath e_System.FilePath_eaTD;FilePath
.o 1 0 
e_System.FilePath_nTD;FilePath
	push_node _cycle_in_spine 1
.o 2 0 
e_System.FilePath_eaTD;FilePath
.o 2 0 
e_System.FilePath_sTD;FilePath
.o 2 0 
s20
	fillh _Nil 0 1
.d 1 0 
	pop_a_rtn 1
.export e_System.FilePath_sgetFullPathName
.descexp e_System.FilePath_dgetFullPathName e_System.FilePath_ngetFullPathName e_System.FilePath_lgetFullPathName 2 0 "getFullPathName"
.a 0 a19
.o 2 0 
e_System.FilePath_lgetFullPathName
	repl_args 1 1
.o 2 0 
a19
.d 2 0 
	jsr ea19
.o 2 0 
	buildh _Tuple 2
.d 1 0 
	rtn 
.n 2 e_System.FilePath_dgetFullPathName
.o 1 0 
e_System.FilePath_ngetFullPathName
	push_node _cycle_in_spine 2
.d 2 0 
	jsr ea19
.o 2 0 
	fillh _Tuple 2 2
.d 1 0 
	rtn 
.o 2 0 
ea19
	jsr_eval 1
	jsr_eval 0
	push_array 0
	put_a 1
.o 2 0 
e_System.FilePath_sgetFullPathName
.o 2 0 
s19
.d 2 0 
	jmp e_System._FilePath_sgetFullPathName
.export e_System.FilePath_sdropFileName
.descexp e_System.FilePath_ddropFileName e_System.FilePath_ndropFileName e_System.FilePath_ldropFileName 1 0 "dropFileName"
.o 2 0 
e_System.FilePath_ldropFileName
.d 1 0 
	pop_a_jsr 1 ea18
.o 1 0 
	buildh ARRAY 1
.d 1 0 
	rtn 
.n 1 e_System.FilePath_ddropFileName
.o 1 0 
e_System.FilePath_ndropFileName
	push_node _cycle_in_spine 1
.d 1 0 
	jsr ea18
.o 1 0 
	fillh ARRAY 1 1
.d 1 0 
	rtn 
.o 1 0 
ea18
	jsr_eval 0
	push_array 0
	put_a 1
.o 1 0 
e_System.FilePath_sdropFileName
.o 1 0 
s18
.d 1 0 
	jmp s13
.export e_System.FilePath_sreplaceFileName
.descexp e_System.FilePath_dreplaceFileName e_System.FilePath_nreplaceFileName e_System.FilePath_lreplaceFileName 2 0 "replaceFileName"
.a 0 a17
.o 2 0 
e_System.FilePath_lreplaceFileName
	repl_args 1 1
.o 2 0 
a17
.d 2 0 
	jsr ea17
.o 1 0 
	buildh ARRAY 1
.d 1 0 
	rtn 
.n 2 e_System.FilePath_dreplaceFileName
.o 1 0 
e_System.FilePath_nreplaceFileName
	push_node _cycle_in_spine 2
.d 2 0 
	jsr ea17
.o 1 0 
	fillh ARRAY 1 1
.d 1 0 
	rtn 
.o 2 0 
ea17
	jsr_eval 1
	jsr_eval 0
	push_array 1
	push_array 1
	update2pop_a 0 2
.o 2 0 
e_System.FilePath_sreplaceFileName
.o 2 0 
s17
.d 1 0 
	jsr s13
.o 1 0 
.d 2 0 
	jmp s6
.export e_System.FilePath_stakeFileName
.descexp e_System.FilePath_dtakeFileName e_System.FilePath_ntakeFileName e_System.FilePath_ltakeFileName 1 0 "takeFileName"
.o 2 0 
e_System.FilePath_ltakeFileName
.d 1 0 
	pop_a_jsr 1 ea16
.o 1 0 
	buildh ARRAY 1
.d 1 0 
	rtn 
.n 1 e_System.FilePath_dtakeFileName
.o 1 0 
e_System.FilePath_ntakeFileName
	push_node _cycle_in_spine 1
.d 1 0 
	jsr ea16
.o 1 0 
	fillh ARRAY 1 1
.d 1 0 
	rtn 
.o 1 0 
ea16
	jsr_eval 0
	push_array 0
	put_a 1
.o 1 0 
e_System.FilePath_stakeFileName
.o 1 0 
s16
.d 1 0 
	jsr s61
.o 2 0 
.d 1 0 
	pop_a_rtn 1
.export e_System.FilePath_sdropDirectory
.descexp e_System.FilePath_ddropDirectory e_System.FilePath_ndropDirectory e_System.FilePath_ldropDirectory 1 0 "dropDirectory"
.o 2 0 
e_System.FilePath_ldropDirectory
.d 1 0 
	pop_a_jsr 1 ea14
.o 1 0 
	buildh ARRAY 1
.d 1 0 
	rtn 
.n 1 e_System.FilePath_ddropDirectory
.o 1 0 
e_System.FilePath_ndropDirectory
	push_node _cycle_in_spine 1
.d 1 0 
	jsr ea14
.o 1 0 
	fillh ARRAY 1 1
.d 1 0 
	rtn 
.o 1 0 
ea14
	jsr_eval 0
	push_array 0
	put_a 1
.o 1 0 
e_System.FilePath_sdropDirectory
.o 1 0 
s14
.d 0 0 
	jsr s2
.o 1 0 
	push_update_a 0 1
.d 2 0 
	jsr e_Text_slastIndexOf;10
.o 0 1 i
s25
	jmp_neI_b -1 0 case.2
.d 1 0 
	pop_b_rtn 1
case.2
	push_arraysize_a CHAR 0 1 0
	push_b_decI 0
	push_b 2
	jmp_neI else.3
	push_b_decI 0
	updatepop_b 0 2
	pushI 0
.d 1 2 ii
	jsr e_Text_ssubString;18
.o 1 0 
.d 1 0 
	jmp s14
else.3
	push2_b 1
	subI
	decI
	push_b_incI 2
	update2pop_b 0 2
.d 1 2 ii
	jmp e_Text_ssubString;18
.export e_System.FilePath_stakeDirectory
.descexp e_System.FilePath_dtakeDirectory e_System.FilePath_ntakeDirectory e_System.FilePath_ltakeDirectory 1 0 "takeDirectory"
.o 2 0 
e_System.FilePath_ltakeDirectory
.d 1 0 
	pop_a_jsr 1 ea13
.o 1 0 
	buildh ARRAY 1
.d 1 0 
	rtn 
.n 1 e_System.FilePath_dtakeDirectory
.o 1 0 
e_System.FilePath_ntakeDirectory
	push_node _cycle_in_spine 1
.d 1 0 
	jsr ea13
.o 1 0 
	fillh ARRAY 1 1
.d 1 0 
	rtn 
.o 1 0 
ea13
	jsr_eval 0
	push_array 0
	put_a 1
.o 1 0 
e_System.FilePath_stakeDirectory
.o 1 0 
s13
.d 1 0 
	jsr s60
.o 2 0 
	put_a 1
.d 1 0 
	rtn 
.export e_System.FilePath_ssplitFileName
.descexp e_System.FilePath_dsplitFileName e_System.FilePath_nsplitFileName e_System.FilePath_lsplitFileName 1 0 "splitFileName"
.o 2 0 
e_System.FilePath_lsplitFileName
.d 1 0 
	pop_a_jsr 1 ea15
.o 2 0 
	buildh _Tuple 2
.d 1 0 
	rtn 
.n 1 e_System.FilePath_dsplitFileName
.o 1 0 
e_System.FilePath_nsplitFileName
	push_node _cycle_in_spine 1
.d 1 0 
	jsr ea15
.o 2 0 
	fillh _Tuple 2 2
.d 1 0 
	rtn 
.o 1 0 
ea15
	jsr_eval 0
	push_array 0
	put_a 1
.o 1 0 
e_System.FilePath_ssplitFileName
.o 1 0 
s15
.d 0 0 
	jsr s2
.o 1 0 
	push_update_a 0 1
.d 2 0 
	jsr e_Text_slastIndexOf;10
.o 0 1 i
s24
	jmp_neI_b -1 0 case.5
	push_a 0
	buildh ARRAY 1
	buildAC ""
	buildh ARRAY 1
	update2pop_a 0 1
.d 2 0 
	pop_b_rtn 1
case.5
	push_a 0
	buildh ARRAY 1
	push_b 0
	build_u e_System.FilePath_d_f4.70 1 1 e_System.FilePath_n_f4.70
	push_a 1
	buildh ARRAY 1
	buildI_b 0
	buildI 0
	build e_Text_dsubString;18 3 e_Text_nsubString;18
	update2pop_a 0 1
.d 2 0 
	pop_b_rtn 1
.export e_System.FilePath_d_f4.70
.export e_System.FilePath_n_f4.70
.descn e_System.FilePath_d_f4.70 e_System.FilePath_n_f4.70 2 0 "_f4.70"
.nu 1 1 e_System.FilePath_d_f4.70 _
.o 1 0 
e_System.FilePath_n_f4.70
	push_node_u _cycle_in_spine 1 1
.o 2 1 i
ea70
.o 2 1 i
s70
	jsr_eval 0
	push_a 0
	push_array 0
	put_a 1
	push_array 1
	buildh0_put_a _Nil 3
	push_arraysize CHAR 0 1
	push_b 0
	update_b 2 1
	subI
	decI
	push_b_incI 1
	put_a 1
	update2pop_b 0 1
.d 1 2 ii
	jsr e_Text_ssubString;18
.o 1 0 
	fillh ARRAY 1 1
.d 1 0 
	rtn 
.export e_System.FilePath_sreplaceExtension
.descexp e_System.FilePath_dreplaceExtension e_System.FilePath_nreplaceExtension e_System.FilePath_lreplaceExtension 2 0 "replaceExtension"
.a 0 a12
.o 2 0 
e_System.FilePath_lreplaceExtension
	repl_args 1 1
.o 2 0 
a12
.d 2 0 
	jsr ea12
.o 1 0 
	buildh ARRAY 1
.d 1 0 
	rtn 
.n 2 e_System.FilePath_dreplaceExtension
.o 1 0 
e_System.FilePath_nreplaceExtension
	push_node _cycle_in_spine 2
.d 2 0 
	jsr ea12
.o 1 0 
	fillh ARRAY 1 1
.d 1 0 
	rtn 
.o 2 0 
ea12
	jsr_eval 1
	jsr_eval 0
	push_array 1
	push_array 1
	update2pop_a 0 2
.o 2 0 
e_System.FilePath_sreplaceExtension
.o 2 0 
s12
.d 1 0 
	jsr s10
.o 1 0 
.d 2 0 
	jmp s11
.export e_System.FilePath_saddExtension
.descexp e_System.FilePath_daddExtension e_System.FilePath_naddExtension e_System.FilePath_laddExtension 2 0 "addExtension"
.a 0 a11
.o 2 0 
e_System.FilePath_laddExtension
	repl_args 1 1
.o 2 0 
a11
.d 2 0 
	jsr ea11
.o 1 0 
	buildh ARRAY 1
.d 1 0 
	rtn 
.n 2 e_System.FilePath_daddExtension
.o 1 0 
e_System.FilePath_naddExtension
	push_node _cycle_in_spine 2
.d 2 0 
	jsr ea11
.o 1 0 
	fillh ARRAY 1 1
.d 1 0 
	rtn 
.o 2 0 
ea11
	jsr_eval 1
	jsr_eval 0
	push_array 1
	push_array 1
	update2pop_a 0 2
.o 2 0 
e_System.FilePath_saddExtension
.o 2 0 
s11
	push_arraysize_a CHAR 0 1 1
	jmp_neIi 0 else.6
	put_a 1
.d 1 0 
	rtn 
else.6
	push_arraysize_a CHAR 0 1 0
	jmp_neI_b 0 0 else.7
.d 1 0 
	pop_ab_rtn 1 1
else.7
.d 0 0 
	jsr s4
.o 0 1 c
	push_b_decI 1
	push_a 0
	select CHAR 0 1
	eqC
	jmp_false else.8
.d 2 0 
	pop_b_jsr 1 catAC
.o 1 0 
.d 1 0 
	rtn 
else.8
	buildh _Nil 0
	push_a 2
	buildh ARRAY 1
	buildh _Cons 2
	build e_System.FilePath_dextSeparatorString 0 e_System.FilePath_nextSeparatorString
	buildh _Cons 2
	push_a 1
	buildh ARRAY 1
	buildh _Cons 2
	updatepop_a 0 2
.d 1 0 
	pop_b_jmp 1 e_Text_sconcat;4
.export e_System.FilePath_sdropExtension
.descexp e_System.FilePath_ddropExtension e_System.FilePath_ndropExtension e_System.FilePath_ldropExtension 1 0 "dropExtension"
.o 2 0 
e_System.FilePath_ldropExtension
.d 1 0 
	pop_a_jsr 1 ea10
.o 1 0 
	buildh ARRAY 1
.d 1 0 
	rtn 
.n 1 e_System.FilePath_ddropExtension
.o 1 0 
e_System.FilePath_ndropExtension
	push_node _cycle_in_spine 1
.d 1 0 
	jsr ea10
.o 1 0 
	fillh ARRAY 1 1
.d 1 0 
	rtn 
.o 1 0 
ea10
	jsr_eval 0
	push_array 0
	put_a 1
.o 1 0 
e_System.FilePath_sdropExtension
.o 1 0 
s10
.d 1 0 
	jsr s59
.o 2 0 
	put_a 1
.d 1 0 
	rtn 
.export e_System.FilePath_stakeExtension
.descexp e_System.FilePath_dtakeExtension e_System.FilePath_ntakeExtension e_System.FilePath_ltakeExtension 1 0 "takeExtension"
.o 2 0 
e_System.FilePath_ltakeExtension
.d 1 0 
	pop_a_jsr 1 ea9
.o 1 0 
	buildh ARRAY 1
.d 1 0 
	rtn 
.n 1 e_System.FilePath_dtakeExtension
.o 1 0 
e_System.FilePath_ntakeExtension
	push_node _cycle_in_spine 1
.d 1 0 
	jsr ea9
.o 1 0 
	fillh ARRAY 1 1
.d 1 0 
	rtn 
.o 1 0 
ea9
	jsr_eval 0
	push_array 0
	put_a 1
.o 1 0 
e_System.FilePath_stakeExtension
.o 1 0 
s9
.d 1 0 
	jsr s58
.o 2 0 
.d 1 0 
	pop_a_rtn 1
.export e_System.FilePath_ssplitExtension
.descexp e_System.FilePath_dsplitExtension e_System.FilePath_nsplitExtension e_System.FilePath_lsplitExtension 1 0 "splitExtension"
.o 2 0 
e_System.FilePath_lsplitExtension
.d 1 0 
	pop_a_jsr 1 ea8
.o 2 0 
	buildh _Tuple 2
.d 1 0 
	rtn 
.n 1 e_System.FilePath_dsplitExtension
.o 1 0 
e_System.FilePath_nsplitExtension
	push_node _cycle_in_spine 1
.d 1 0 
	jsr ea8
.o 2 0 
	fillh _Tuple 2 2
.d 1 0 
	rtn 
.o 1 0 
ea8
	jsr_eval 0
	push_array 0
	put_a 1
.o 1 0 
e_System.FilePath_ssplitExtension
.o 1 0 
s8
	push_arraysize_a CHAR 0 1 0
	decI
	push_b 0
s23
	push_b 1
	pushI 0
	jmp_ltI else.9
	buildAC ""
	buildh ARRAY 1
	push_a 1
	buildh ARRAY 1
	update2pop_a 0 1
.d 2 0 
	pop_b_rtn 2
else.9
	selectoo CHAR 0 1 0 1
.d 0 0 
	jsr s1
.o 0 1 c
	push_b 1
	eqC
	jmp_false else.10
	buildAC ""
	buildh ARRAY 1
	push_a 1
	buildh ARRAY 1
	update2pop_a 0 1
.d 2 0 
	pop_b_rtn 3
else.10
.d 0 0 
	jsr s4
.o 0 1 c
	push_b 1
	eqC
	jmp_false else.11
	push_b2 1 2
	jmp_neI else.12
	buildAC ""
	buildh ARRAY 1
	push_a 1
	buildh ARRAY 1
	update2pop_a 0 1
.d 2 0 
	pop_b_rtn 3
else.12
	buildI_b 1
	push_ab 1 2
	buildh ARRAY 1
	build_u e_System.FilePath_d_f1.67 2 1 e_System.FilePath_n_f1.67
	push_ab 1 2
	buildh ARRAY 1
	build_u e_System.FilePath_d_f0.66 1 1 e_System.FilePath_n_f0.66
	update2pop_a 0 1
.d 2 0 
	pop_b_rtn 3
else.11
	push_b_decI 2
	update_b 0 3
.d 1 2 ii
	pop_b_jmp 2 s23
.export e_System.FilePath_d_f1.67
.export e_System.FilePath_n_f1.67
.descn e_System.FilePath_d_f1.67 e_System.FilePath_n_f1.67 3 0 "_f1.67"
.nu 2 1 e_System.FilePath_d_f1.67 _
.o 1 0 
e_System.FilePath_n_f1.67
	push_node_u _cycle_in_spine 2 1
.o 3 1 i
ea67
.o 3 1 i
s67
	push_jsr_eval 1
	pushI_a 2
	pop_a 1
	push_b_incI 1
	jsr_eval 0
	push_a 0
	push_array 0
	updatepop_a 0 3
	update2pop_b 0 1
.d 1 2 ii
	jsr sliceAC
.o 1 0 
	fillh ARRAY 1 1
.d 1 0 
	rtn 
.export e_System.FilePath_d_f0.66
.export e_System.FilePath_n_f0.66
.descn e_System.FilePath_d_f0.66 e_System.FilePath_n_f0.66 2 0 "_f0.66"
.nu 1 1 e_System.FilePath_d_f0.66 _
.o 1 0 
e_System.FilePath_n_f0.66
	push_node_u _cycle_in_spine 1 1
.o 2 1 i
ea66
.o 2 1 i
s66
	push_b_decI 0
	jsr_eval 0
	pushI 0
	push_a 0
	push_array 0
	updatepop_a 0 2
	update2pop_b 0 1
.d 1 2 ii
	jsr sliceAC
.o 1 0 
	fillh ARRAY 1 1
.d 1 0 
	rtn 
.export e_System.FilePath_sconcatPaths
.descexp e_System.FilePath_dconcatPaths e_System.FilePath_nconcatPaths e_System.FilePath_lconcatPaths 1 0 "concatPaths"
.o 2 0 
e_System.FilePath_lconcatPaths
.d 1 0 
	pop_a_jsr 1 ea7
.o 1 0 
	buildh ARRAY 1
.d 1 0 
	rtn 
.n 1 e_System.FilePath_dconcatPaths
.o 1 0 
e_System.FilePath_nconcatPaths
	push_node _cycle_in_spine 1
.d 1 0 
	jsr ea7
.o 1 0 
	fillh ARRAY 1 1
.d 1 0 
	rtn 
.o 1 0 
ea7
	jsr_eval 0
.o 1 0 
e_System.FilePath_sconcatPaths
.o 1 0 
s7
	create 
	swap_a1 
.d 2 0 
	jsr s22
.o 1 0 
.d 1 0 
	jmp e_Text_sconcat;4
.export e_System.FilePath_daddSeparators;21.22
.export e_System.FilePath_naddSeparators;21.22
.descn e_System.FilePath_daddSeparators;21.22 e_System.FilePath_naddSeparators;21.22 1 0 "addSeparators;21.22"
.n 1 e_System.FilePath_daddSeparators;21.22 ea22
.o 1 0 
e_System.FilePath_naddSeparators;21.22
	push_node _cycle_in_spine 1
.o 2 0 
ea22
	jsr_eval 0
.o 2 0 
s22
	jmp_ne_desc _Nil 0 0 case.14
	fillh _Nil 0 1
.d 1 0 
	pop_a_rtn 1
case.14
	repl_args 2 2
	jsr_eval 1
	jmp_ne_desc _Nil 0 1 case.16
	buildh _Nil 0
	push_a 1
	fillh _Cons 2 4
.d 1 0 
	pop_a_rtn 2
case.16
	jsr_eval 0
	push_a 0
	push_array 0
	put_a 1
.d 1 0 
	jsr s21
.o 0 1 b
	jmp_false else.17
	buildo1 e_System.FilePath_naddSeparators;21.22 1
	push_a 1
	fillh _Cons 2 4
.d 1 0 
	pop_a_rtn 2
else.17
	buildo1 e_System.FilePath_naddSeparators;21.22 1
	build e_System.FilePath_dpathSeparatorString 0 e_System.FilePath_npathSeparatorString
	buildh _Cons 2
	push_a 1
	fillh _Cons 2 4
.d 1 0 
	pop_a_rtn 2
.export e_System.FilePath_s</>
.descexp e_System.FilePath_d</> e_System.FilePath_n</> e_System.FilePath_l</> 2 0 "</>"
.a 0 a6
.o 2 0 
e_System.FilePath_l</>
	repl_args 1 1
.o 2 0 
a6
.d 2 0 
	jsr ea6
.o 1 0 
	buildh ARRAY 1
.d 1 0 
	rtn 
.n 2 e_System.FilePath_d</>
.o 1 0 
e_System.FilePath_n</>
	push_node _cycle_in_spine 2
.d 2 0 
	jsr ea6
.o 1 0 
	fillh ARRAY 1 1
.d 1 0 
	rtn 
.o 2 0 
ea6
	jsr_eval 1
	jsr_eval 0
	push_array 1
	push_array 1
	update2pop_a 0 2
.o 2 0 
e_System.FilePath_s</>
.o 2 0 
s6
.d 1 0 
	push_a_jsr 0 s21
.o 0 1 b
	jmp_false else.18
.d 2 0 
	jsr catAC
.o 1 0 
.d 1 0 
	rtn 
else.18
	buildh _Nil 0
	push_a 2
	buildh ARRAY 1
	buildh _Cons 2
	build e_System.FilePath_dpathSeparatorString 0 e_System.FilePath_npathSeparatorString
	buildh _Cons 2
	push_a 1
	buildh ARRAY 1
	buildh _Cons 2
	updatepop_a 0 2
.d 1 0 
	jmp e_Text_sconcat;4
.o 1 0 
s21
	push_arraysize_a CHAR 0 1 0
	jmp_neI_b 0 0 else.19
	pop_b_pushB 1 FALSE
.d 0 1 b
	pop_a_rtn 1
else.19
.d 0 0 
	jsr s1
.o 0 1 c
	push_b_decI 1
	select CHAR 0 1
	update2pop_b 0 1
	eqC
.d 0 1 b
	rtn 
.export e_System.FilePath_sextSeparatorString
.descexp e_System.FilePath_dextSeparatorString e_System.FilePath_nextSeparatorString e_System.FilePath_lextSeparatorString 0 0 "extSeparatorString"
.o 1 0 
e_System.FilePath_lextSeparatorString
	halt
.n 0 e_System.FilePath_dextSeparatorString
.o 1 0 
e_System.FilePath_nextSeparatorString
	push_node _cycle_in_spine 0
.d 0 0 
	jsr ea5
.o 1 0 
	fillh ARRAY 1 1
.d 1 0 
	rtn 
.o 0 0 
ea5
.o 0 0 
e_System.FilePath_sextSeparatorString
.o 0 0 
s5
	testcaf vextSeparatorString
	jmp_false m.20
	pushcaf vextSeparatorString 1 0
.d 1 0 
	rtn 
.caf vextSeparatorString 1 0
m.20
.d 0 0 
	jsr s5.1
.o 1 0 
	fillcaf vextSeparatorString 1 0
.d 1 0 
	rtn 
.o 0 0 
s5.1
.d 0 0 
	jsr s4
.o 0 1 c
	pushI 1
	create_array_ CHAR 0 1
	pushI 0
	update CHAR 0 1
.d 1 0 
	rtn 
.export e_System.FilePath_sextSeparator
.descexp e_System.FilePath_dextSeparator e_System.FilePath_nextSeparator e_System.FilePath_lextSeparator 0 0 "extSeparator"
.o 1 0 
e_System.FilePath_lextSeparator
	halt
.n 0 e_System.FilePath_dextSeparator
.o 1 0 
e_System.FilePath_nextSeparator
	push_node _cycle_in_spine 0
.d 0 0 
	jsr ea4
.o 0 1 c
	fillC_b 0 0
.d 1 0 
	pop_b_rtn 1
.o 0 0 
ea4
.o 0 0 
e_System.FilePath_sextSeparator
.o 0 0 
s4
	pushC '.'
.d 0 1 c
	rtn 
.export e_System.FilePath_spathSeparators
.export e_System.FilePath_eapathSeparators
.descexp e_System.FilePath_dpathSeparators e_System.FilePath_npathSeparators e_System.FilePath_lpathSeparators 0 0 "pathSeparators"
.o 1 0 
e_System.FilePath_lpathSeparators
	halt
.n 0 e_System.FilePath_dpathSeparators e_System.FilePath_eapathSeparators
.o 1 0 
e_System.FilePath_npathSeparators
	push_node _cycle_in_spine 0
.o 1 0 
e_System.FilePath_eapathSeparators
.o 1 0 
e_System.FilePath_spathSeparators
.o 1 0 
s3
	buildh _Nil 0
	buildC '/'
	buildh _Cons 2
	buildC '\\'
	fillh _Cons 2 2
.d 1 0 
	rtn 
.export e_System.FilePath_spathSeparatorString
.descexp e_System.FilePath_dpathSeparatorString e_System.FilePath_npathSeparatorString e_System.FilePath_lpathSeparatorString 0 0 "pathSeparatorString"
.o 1 0 
e_System.FilePath_lpathSeparatorString
	halt
.n 0 e_System.FilePath_dpathSeparatorString
.o 1 0 
e_System.FilePath_npathSeparatorString
	push_node _cycle_in_spine 0
.d 0 0 
	jsr ea2
.o 1 0 
	fillh ARRAY 1 1
.d 1 0 
	rtn 
.o 0 0 
ea2
.o 0 0 
e_System.FilePath_spathSeparatorString
.o 0 0 
s2
	testcaf vpathSeparatorString
	jmp_false m.21
	pushcaf vpathSeparatorString 1 0
.d 1 0 
	rtn 
.caf vpathSeparatorString 1 0
m.21
.d 0 0 
	jsr s2.1
.o 1 0 
	fillcaf vpathSeparatorString 1 0
.d 1 0 
	rtn 
.o 0 0 
s2.1
.d 0 0 
	jsr s1
.o 0 1 c
	pushI 1
	create_array_ CHAR 0 1
	pushI 0
	update CHAR 0 1
.d 1 0 
	rtn 
.export e_System.FilePath_spathSeparator
.descexp e_System.FilePath_dpathSeparator e_System.FilePath_npathSeparator e_System.FilePath_lpathSeparator 0 0 "pathSeparator"
.o 1 0 
e_System.FilePath_lpathSeparator
	halt
.n 0 e_System.FilePath_dpathSeparator
.o 1 0 
e_System.FilePath_npathSeparator
	push_node _cycle_in_spine 0
.d 0 0 
	jsr ea1
.o 0 1 c
	fillC_b 0 0
.d 1 0 
	pop_b_rtn 1
.o 0 0 
ea1
.o 0 0 
e_System.FilePath_spathSeparator
.o 0 0 
s1
	pushC '/'
.d 0 1 c
	rtn 
.o 1 0 
s58
	push_arraysize_a CHAR 0 1 0
	decI
	push_b 0
.d 1 2 ii
	jmp s65
.o 1 0 
s59
	push_arraysize_a CHAR 0 1 0
	decI
	push_b 0
.d 1 2 ii
	jmp s64
.o 1 0 
s60
.d 0 0 
	jsr s2
.o 1 0 
	push_update_a 0 1
.d 2 0 
	jsr e_Text_slastIndexOf;10
.o 0 1 i
.d 1 1 i
	jmp s63
.o 1 0 
s61
.d 0 0 
	jsr s2
.o 1 0 
	push_update_a 0 1
.d 2 0 
	jsr e_Text_slastIndexOf;10
.o 0 1 i
s62
	jmp_neI_b -1 0 case.23
	push_a 0
	buildAC ""
	buildh ARRAY 1
	update2pop_a 0 1
.d 2 0 
	pop_b_rtn 1
case.23
	push_arraysize_a CHAR 0 1 0
	push_b 0
	update_b 2 1
	subI
	decI
	push_b_incI 1
.d 1 2 ii
	push_a_jsr 0 e_Text_ssubString;18
.o 1 0 
	push_a 1
	buildh ARRAY 1
	buildI_b 0
	buildI 0
	build e_Text_dsubString;18 3 e_Text_nsubString;18
	update2pop_a 0 1
.d 2 0 
	pop_b_rtn 1
.o 1 1 i
s63
	jmp_neI_b -1 0 case.25
	push_a 0
	buildh ARRAY 1
	buildAC ""
	update2pop_a 0 1
.d 2 0 
	pop_b_rtn 1
case.25
	push_a 0
	buildh ARRAY 1
	push_b 0
	build_u e_System.FilePath_d_f5.71 1 1 e_System.FilePath_n_f5.71
	push_ab 1 0
	pushI 0
.d 1 2 ii
	jsr e_Text_ssubString;18
.o 1 0 
	update2pop_a 0 1
.d 2 0 
	pop_b_rtn 1
.export e_System.FilePath_d_f5.71
.export e_System.FilePath_n_f5.71
.descn e_System.FilePath_d_f5.71 e_System.FilePath_n_f5.71 2 0 "_f5.71"
.nu 1 1 e_System.FilePath_d_f5.71 _
.o 1 0 
e_System.FilePath_n_f5.71
	push_node_u _cycle_in_spine 1 1
.o 2 1 i
ea71
.o 2 1 i
s71
	jsr_eval 0
	push_a 0
	push_array 0
	put_a 1
	push_array 1
	buildh0_put_a _Nil 3
	push_arraysize CHAR 0 1
	push_b 0
	update_b 2 1
	subI
	decI
	push_b_incI 1
	put_a 1
	update2pop_b 0 1
.d 1 2 ii
	jsr e_Text_ssubString;18
.o 1 0 
	fillh ARRAY 1 1
.d 1 0 
	rtn 
.o 1 2 ii
s64
	push_b 1
	pushI 0
	jmp_ltI else.26
	buildAC ""
	buildh ARRAY 1
	swap_a1 
.d 2 0 
	pop_b_rtn 2
else.26
	selectoo CHAR 0 1 0 1
.d 0 0 
	jsr s1
.o 0 1 c
	push_b 1
	eqC
	jmp_false else.27
	buildAC ""
	buildh ARRAY 1
	swap_a1 
.d 2 0 
	pop_b_rtn 3
else.27
.d 0 0 
	jsr s4
.o 0 1 c
	push_b 1
	eqC
	jmp_false else.28
	push_b2 1 2
	jmp_neI else.29
	buildAC ""
	buildh ARRAY 1
	swap_a1 
.d 2 0 
	pop_b_rtn 3
else.29
	buildI_b 1
	push_ab 1 2
	build_u e_System.FilePath_d_f3.69 2 1 e_System.FilePath_n_f3.69
	push_b_decI 2
	pushI 0
	push_a 1
	update2pop_b 0 3
.d 1 2 ii
	buildh0_put_a_jsr _Nil 3 sliceAC
.o 1 0 
	update2pop_a 0 1
.d 2 0 
	rtn 
else.28
	push_b_decI 2
	update_b 0 3
.d 1 2 ii
	pop_b_jmp 2 s64
.export e_System.FilePath_d_f3.69
.export e_System.FilePath_n_f3.69
.descn e_System.FilePath_d_f3.69 e_System.FilePath_n_f3.69 3 0 "_f3.69"
.nu 2 1 e_System.FilePath_d_f3.69 _
.o 1 0 
e_System.FilePath_n_f3.69
	push_node_u _cycle_in_spine 2 1
.o 3 1 i
ea69
.o 3 1 i
s69
	push_jsr_eval 1
	pushI_a 2
	pop_a 1
	push_b_incI 1
	put_a 1
	update2pop_b 0 1
.d 1 2 ii
	jsr sliceAC
.o 1 0 
	fillh ARRAY 1 1
.d 1 0 
	rtn 
.o 1 2 ii
s65
	push_b 1
	pushI 0
	jmp_ltI else.30
	buildAC ""
	push_a 1
	buildh ARRAY 1
	update2pop_a 0 1
.d 2 0 
	pop_b_rtn 2
else.30
	selectoo CHAR 0 1 0 1
.d 0 0 
	jsr s1
.o 0 1 c
	push_b 1
	eqC
	jmp_false else.31
	buildAC ""
	push_a 1
	buildh ARRAY 1
	update2pop_a 0 1
.d 2 0 
	pop_b_rtn 3
else.31
.d 0 0 
	jsr s4
.o 0 1 c
	push_b 1
	eqC
	jmp_false else.32
	push_b2 1 2
	jmp_neI else.33
	buildAC ""
	push_a 1
	buildh ARRAY 1
	update2pop_a 0 1
.d 2 0 
	pop_b_rtn 3
else.33
	push_b_incI 2
	put_b 1
.d 1 2 ii
	push_a_jsr 0 sliceAC
.o 1 0 
	push_ab 1 0
	buildh ARRAY 1
	build_u e_System.FilePath_d_f2.68 1 1 e_System.FilePath_n_f2.68
	update2pop_a 0 1
.d 2 0 
	pop_b_rtn 1
else.32
	push_b_decI 2
	update_b 0 3
.d 1 2 ii
	pop_b_jmp 2 s65
.export e_System.FilePath_d_f2.68
.export e_System.FilePath_n_f2.68
.descn e_System.FilePath_d_f2.68 e_System.FilePath_n_f2.68 2 0 "_f2.68"
.nu 1 1 e_System.FilePath_d_f2.68 _
.o 1 0 
e_System.FilePath_n_f2.68
	push_node_u _cycle_in_spine 1 1
.o 2 1 i
ea68
.o 2 1 i
s68
	push_b_decI 0
	jsr_eval 0
	pushI 0
	push_a 0
	push_array 0
	updatepop_a 0 2
	update2pop_b 0 1
.d 1 2 ii
	jsr sliceAC
.o 1 0 
	fillh ARRAY 1 1
.d 1 0 
	rtn 
