.comp 920 000011110011000
.start _nostart_
.depend "Text" "20210613154827"
.depend "StdCharList" "20210613154827"
.depend "_SystemArray" "20210613154827"
.depend "StdArray" "20210613154827"
.depend "StdEnv" "20210613154827"
.depend "_SystemEnum" "20210613154827"
.depend "StdEnum" "20210613154827"
.depend "StdTuple" "20210613154827"
.depend "StdOrdList" "20210613154827"
.depend "Control.Monad.Trans" "20210613154827"
.depend "StdMaybe" "20210613154827"
.depend "Data.Maybe" "20210613154827"
.depend "_SystemStrictMaybes" "20210613154827"
.depend "Data.Bifunctor" "20210613154827"
.depend "Data.Either" "20210613154827"
.depend "StdFile" "20210613154827"
.depend "StdString" "20210613154827"
.depend "Control.Monad.Fail" "20210613154827"
.depend "Data.Traversable" "20210613154827"
.depend "StdMisc" "20210613154827"
.depend "StdOverloadedList" "20210613154827"
.depend "Data.List" "20210613154827"
.depend "Data.Foldable" "20210613154827"
.depend "StdFunctions" "20210613154827"
.depend "StdFunc" "20210613154827"
.depend "_SystemEnumStrict" "20210613154827"
.depend "_SystemStrictLists" "20210613154827"
.depend "StdStrictLists" "20210613154827"
.depend "StdGeneric" "20210613154827"
.depend "Data.GenEq" "20210613154827"
.depend "StdReal" "20210613154827"
.depend "StdChar" "20210613154827"
.depend "StdInt" "20210613154827"
.depend "StdBool" "20210613154827"
.depend "StdClass" "20210613154827"
.depend "StdList" "20210613154827"
.depend "Data.Monoid" "20210613154827"
.depend "Control.Applicative" "20210613154827"
.depend "Control.Monad" "20210613154827"
.depend "Data.Functor" "20210613154827"
.depend "StdOverloaded" "20210613154827"
.depend "_SystemDynamic" "20210613154827"
.depend "System.GetOpt" "20210613154827"
.module m_System.GetOpt "System.GetOpt" "20210613154827"
.endinfo
.impmod _system
.implab _cycle_in_spine
.implab _type_error
.implab _hnf
.impdesc e_system_dind
.implab e_system_nind e_system_eaind
.impdesc e_system_dif
.implab e_system_nif e_system_eaif
.implab e_system_sif
.impdesc e_system_dAP
.implab e_system_nAP e_system_eaAP
.implab e_system_sAP
.impdesc ARRAY
.impdesc _Nil
.impdesc _Cons
.impdesc _Conss
.implab n_Conss ea_Conss
.impdesc _Consts
.implab n_Consts ea_Consts
.impdesc _Conssts
.implab n_Conssts ea_Conssts
.impdesc _Tuple
.impdesc d_S.1
.implab n_S.1 ea_S.1
.impdesc d_S.2
.implab n_S.2 ea_S.2
.impdesc d_S.3
.implab n_S.3 ea_S.3
.impdesc d_S.4
.implab n_S.4 ea_S.4
.impdesc d_S.5
.implab n_S.5 ea_S.5
.impdesc d_S.6
.implab n_S.6 ea_S.6
.implab _driver
.impmod Text
.impdesc e_Text_ddropChars;5
.implab e_Text_ndropChars;5
.implab e_Text_sindexOf;7
.impdesc e_Text_djoin;9
.implab e_Text_sjoin;9
.implab e_Text_njoin;9
.implab e_Text_srpad;14
.implab e_Text_ssplit;16
.impdesc e_Text_dstartsWith;17
.implab e_Text_sstartsWith;17
.impdesc e_Text_dtextSize;19
.impmod _SystemArray
.impdesc e__SystemArray_dselect;19
.implab e__SystemArray_nselect;19
.impmod StdString
.impdesc e_StdString_d==;2
.implab e_StdString_stoString;6
.implab e_StdString_s%;10
.impdesc e_StdString_d+++;11
.implab e_StdString_s+++;11
.implab e_StdString_n+++;11
.impmod Data.List
.implab e_Data.List_sisnull
.implab e_Data.List_sunzip3
.implab e_Data.List_sconcatMap
.implab e_Data.List_sfind
.impdesc e_Data.List_dzipWith3
.implab e_Data.List_nzipWith3 e_Data.List_eazipWith3
.impdesc e_Data.List_dfold;97
.impdesc e_Data.List_dfoldMap;98
.impdesc e_Data.List_dfoldl;99
.impdesc e_Data.List_dfoldl1;100
.impdesc e_Data.List_dfoldl`;101
.impdesc e_Data.List_dfoldr;102
.impdesc e_Data.List_dfoldr1;103
.impdesc e_Data.List_dfoldr`;104
.impmod Data.Foldable
.implab e_Data.Foldable_smaximum
.impmod StdChar
.implab e_StdChar_s==;18
.impmod StdInt
.implab e_StdInt_s-;7
.impdesc e_StdInt_d<;17
.impmod StdList
.impdesc e_StdList_d++
.implab e_StdList_n++ e_StdList_ea++
.impdesc e_StdList_dmap
.implab e_StdList_smap
.implab e_StdList_nmap e_StdList_eamap
.impdesc e_StdList_dtoString;79
.implab e_StdList_ntoString;79
.impmod Data.Foldable
.impdesc e_Data.Foldable_rFoldable;
.impmod StdClass
.impdesc e_StdClass_rOrd;
.impmod StdOverloaded
.impdesc e_StdOverloaded_r<;
.export e_System.GetOpt_dRequireOrder
.desc e_System.GetOpt_dRequireOrder _hnf _hnf 0 0 "RequireOrder"
.export e_System.GetOpt_dPermute
.desc e_System.GetOpt_dPermute _hnf _hnf 0 0 "Permute"
.export e_System.GetOpt_dReturnInOrder
.desc e_System.GetOpt_dReturnInOrder _hnf _add_arg 1 0 "ReturnInOrder"
.export e_System.GetOpt_dOption
.desc e_System.GetOpt_dOption _hnf _add_arg 4 0 "Option"
.export e_System.GetOpt_dNoArg
.desc e_System.GetOpt_dNoArg _hnf _add_arg 1 0 "NoArg"
.export e_System.GetOpt_dReqArg
.desc e_System.GetOpt_dReqArg _hnf _add_arg 2 0 "ReqArg"
.export e_System.GetOpt_dOptArg
.desc e_System.GetOpt_dOptArg _hnf _add_arg 2 0 "OptArg"
.export e_System.GetOpt_dOpt
.desc e_System.GetOpt_dOpt _hnf _add_arg 1 0 "Opt"
.export e_System.GetOpt_dUnreqOpt
.desc e_System.GetOpt_dUnreqOpt _hnf _add_arg 1 0 "UnreqOpt"
.export e_System.GetOpt_dNonOpt
.desc e_System.GetOpt_dNonOpt _hnf _add_arg 1 0 "NonOpt"
.export e_System.GetOpt_dEndOfOpts
.desc e_System.GetOpt_dEndOfOpts _hnf _hnf 0 0 "EndOfOpts"
.export e_System.GetOpt_dOptErr
.desc e_System.GetOpt_dOptErr _hnf _add_arg 1 0 "OptErr"
.export e_System.GetOpt_dVerbose
.desc e_System.GetOpt_dVerbose _hnf _hnf 0 0 "Verbose"
.export e_System.GetOpt_dVersion
.desc e_System.GetOpt_dVersion _hnf _hnf 0 0 "Version"
.export e_System.GetOpt_dName
.desc e_System.GetOpt_dName _hnf _add_arg 1 0 "Name"
.export e_System.GetOpt_dOutput
.desc e_System.GetOpt_dOutput _hnf _add_arg 1 0 "Output"
.export e_System.GetOpt_dArg
.desc e_System.GetOpt_dArg _hnf _add_arg 1 0 "Arg"
.export e_System.GetOpt_sTD;Flag
.export e_System.GetOpt_eaTD;Flag
.descexp e_System.GetOpt_dTD;Flag e_System.GetOpt_nTD;Flag e_System.GetOpt_lTD;Flag 1 0 "TD;Flag"
.o 2 0 
e_System.GetOpt_lTD;Flag
	update_a 1 0
	create 
.d 2 0 
	put_a_jmp 2 e_System.GetOpt_eaTD;Flag
.n 1 e_System.GetOpt_dTD;Flag e_System.GetOpt_eaTD;Flag
.o 1 0 
e_System.GetOpt_nTD;Flag
	push_node _cycle_in_spine 1
.o 2 0 
e_System.GetOpt_eaTD;Flag
.o 2 0 
e_System.GetOpt_sTD;Flag
.o 2 0 
s30
	fillh _Nil 0 1
.d 1 0 
	pop_a_rtn 1
.export e_System.GetOpt_sTD;OptKind
.export e_System.GetOpt_eaTD;OptKind
.descexp e_System.GetOpt_dTD;OptKind e_System.GetOpt_nTD;OptKind e_System.GetOpt_lTD;OptKind 1 0 "TD;OptKind"
.o 2 0 
e_System.GetOpt_lTD;OptKind
	update_a 1 0
	create 
.d 2 0 
	put_a_jmp 2 e_System.GetOpt_eaTD;OptKind
.n 1 e_System.GetOpt_dTD;OptKind e_System.GetOpt_eaTD;OptKind
.o 1 0 
e_System.GetOpt_nTD;OptKind
	push_node _cycle_in_spine 1
.o 2 0 
e_System.GetOpt_eaTD;OptKind
.o 2 0 
e_System.GetOpt_sTD;OptKind
.o 2 0 
s29
	fillh _Nil 0 1
.d 1 0 
	pop_a_rtn 1
.export e_System.GetOpt_sTD;ArgDescr
.export e_System.GetOpt_eaTD;ArgDescr
.descexp e_System.GetOpt_dTD;ArgDescr e_System.GetOpt_nTD;ArgDescr e_System.GetOpt_lTD;ArgDescr 1 0 "TD;ArgDescr"
.o 2 0 
e_System.GetOpt_lTD;ArgDescr
	update_a 1 0
	create 
.d 2 0 
	put_a_jmp 2 e_System.GetOpt_eaTD;ArgDescr
.n 1 e_System.GetOpt_dTD;ArgDescr e_System.GetOpt_eaTD;ArgDescr
.o 1 0 
e_System.GetOpt_nTD;ArgDescr
	push_node _cycle_in_spine 1
.o 2 0 
e_System.GetOpt_eaTD;ArgDescr
.o 2 0 
e_System.GetOpt_sTD;ArgDescr
.o 2 0 
s6
	fillh _Nil 0 1
.d 1 0 
	pop_a_rtn 1
.export e_System.GetOpt_sTD;OptDescr
.export e_System.GetOpt_eaTD;OptDescr
.descexp e_System.GetOpt_dTD;OptDescr e_System.GetOpt_nTD;OptDescr e_System.GetOpt_lTD;OptDescr 1 0 "TD;OptDescr"
.o 2 0 
e_System.GetOpt_lTD;OptDescr
	update_a 1 0
	create 
.d 2 0 
	put_a_jmp 2 e_System.GetOpt_eaTD;OptDescr
.n 1 e_System.GetOpt_dTD;OptDescr e_System.GetOpt_eaTD;OptDescr
.o 1 0 
e_System.GetOpt_nTD;OptDescr
	push_node _cycle_in_spine 1
.o 2 0 
e_System.GetOpt_eaTD;OptDescr
.o 2 0 
e_System.GetOpt_sTD;OptDescr
.o 2 0 
s5
	fillh _Nil 0 1
.d 1 0 
	pop_a_rtn 1
.export e_System.GetOpt_sTD;ArgOrder
.export e_System.GetOpt_eaTD;ArgOrder
.descexp e_System.GetOpt_dTD;ArgOrder e_System.GetOpt_nTD;ArgOrder e_System.GetOpt_lTD;ArgOrder 1 0 "TD;ArgOrder"
.o 2 0 
e_System.GetOpt_lTD;ArgOrder
	update_a 1 0
	create 
.d 2 0 
	put_a_jmp 2 e_System.GetOpt_eaTD;ArgOrder
.n 1 e_System.GetOpt_dTD;ArgOrder e_System.GetOpt_eaTD;ArgOrder
.o 1 0 
e_System.GetOpt_nTD;ArgOrder
	push_node _cycle_in_spine 1
.o 2 0 
e_System.GetOpt_eaTD;ArgOrder
.o 2 0 
e_System.GetOpt_sTD;ArgOrder
.o 2 0 
s4
	fillh _Nil 0 1
.d 1 0 
	pop_a_rtn 1
.export e_System.GetOpt_sgetOpt
.descexp e_System.GetOpt_dgetOpt e_System.GetOpt_ngetOpt e_System.GetOpt_lgetOpt 3 0 "getOpt"
.a 0 a2
.o 2 0 
e_System.GetOpt_lgetOpt
	repl_args 2 2
.o 3 0 
a2
.d 3 0 
	jsr ea2
.o 3 0 
	push3_a 2
	buildh _Tuple 3
	updatepop_a 0 3
.d 1 0 
	rtn 
.n 3 e_System.GetOpt_dgetOpt
.o 1 0 
e_System.GetOpt_ngetOpt
	push_node _cycle_in_spine 3
.d 3 0 
	jsr ea2
.o 3 0 
	fillh _Tuple 3 3
.d 1 0 
	rtn 
.o 3 0 
ea2
.o 3 0 
e_System.GetOpt_sgetOpt
.o 3 0 
s2
	push3_a 2
	build e_System.GetOpt_dgetOpt` 3 e_System.GetOpt_ngetOpt`
	buildo1 n_S.3 0
	buildh e_System.GetOpt_derrUnrec.16 0
	build e_StdList_dmap 2 e_StdList_nmap
	buildo1 n_S.4 1
	build e_StdList_d++ 2 e_StdList_n++
	buildo1 n_S.2 1
	buildo1 n_S.1 2
	update3pop_a 0 4
.d 3 0 
	rtn 
.export e_System.GetOpt_derrUnrec.16
.desc e_System.GetOpt_derrUnrec.16 _hnf l16 1 0 "errUnrec.16"
.o 2 0 
l16
.d 1 0 
	pop_a_jsr 1 ea16
.o 1 0 
	buildh ARRAY 1
.d 1 0 
	rtn 
.o 1 0 
ea16
	jsr_eval 0
	push_array 0
	put_a 1
.o 1 0 
s16
	buildAC "'\n"
	swap_a1 
.d 2 0 
	jsr catAC
.o 1 0 
	buildAC "unrecognized option `"
.d 2 0 
	jsr catAC
.o 1 0 
.d 1 0 
	rtn 
.export e_System.GetOpt_sgetOpt`
.descexp e_System.GetOpt_dgetOpt` e_System.GetOpt_ngetOpt` e_System.GetOpt_lgetOpt` 3 0 "getOpt`"
.a 0 a3
.o 2 0 
e_System.GetOpt_lgetOpt`
	repl_args 2 2
.o 3 0 
a3
.d 3 0 
	jsr ea3
.o 4 0 
	push3_a 3
	push_a 3
	buildh _Tuple 4
	updatepop_a 0 4
.d 1 0 
	rtn 
.n 3 e_System.GetOpt_dgetOpt`
.o 1 0 
e_System.GetOpt_ngetOpt`
	push_node _cycle_in_spine 3
.d 3 0 
	jsr ea3
.o 4 0 
	fillh _Tuple 4 4
.d 1 0 
	rtn 
.o 3 0 
ea3
	jsr_eval 2
.o 3 0 
e_System.GetOpt_sgetOpt`
.o 3 0 
s3
	jmp_ne_desc _Nil 0 2 case.2
	buildh0_dup_a _Nil 3
	buildh0_dup_a _Nil 3
	buildh0_dup_a _Nil 3
	pop_a 3
	buildh _Nil 0
.d 4 0 
	rtn 
case.2
	push_args 2 2 2
	buildh0_put_a _Nil 5
	jsr_eval 0
	push_a 0
	push_array 0
	updates2_a 5 3 2
	put_a 1
.d 3 0 
	jsr s103
.o 2 0 
	push_a 1
	push2_a 4
	build e_System.GetOpt_dgetOpt` 3 e_System.GetOpt_ngetOpt`
	buildo1 n_S.1 0
	buildo1 n_S.2 1
	buildo1 n_S.3 2
	buildo1 n_S.4 3
	update_a 7 9
	update_a 5 8
	update_a 3 7
	update2_a 0 4
	updates2_a 2 6 3
.d 7 0 
	pop_a_jmp 3 s20
.o 7 0 
s20
	pushD_a 5
	jmpD be e_System.GetOpt_dUnreqOpt 1 case.3 case.4
	jmpD be e_System.GetOpt_dEndOfOpts 0 case.5 case.6
	jmp case.7
case.3
	pop_b 1
	push_args 5 1 1
	buildh _Nil 0
	push_a 1
	updates2_a 7 1 8
	buildh _Cons 2
	update_a 3 8
	update_a 4 7
	updates2pop_a 0 5 6
.d 4 0 
	rtn 
case.4
	pop_b 1
	push_args 5 1 1
	buildh _Nil 0
	push_a 1
	updates2_a 5 1 8
	buildh _Cons 2
	update_a 3 8
	dup_a 7
	exchange_a 6 5
.d 4 0 
	pop_a_rtn 5
case.5
	pop_b 1
	push_args 5 1 1
	buildh0_put_a _Nil 7
	jsr_eval 7
	pushD_a 7
	jmpD ea e_System.GetOpt_dPermute 0 case.9 case.10
case.8
	pop_b 1
	buildh _Nil 0
	buildh _Nil 0
	buildho2 _Cons 2 3
	update3_a 0 8
	pop_a 8
	buildh _Nil 0
.d 4 0 
	rtn 
case.9
	pop_b 1
	buildho2 _Cons 0 4
	update_a 3 8
	update_a 4 7
	updates2_a 0 6 5
.d 4 0 
	pop_a_rtn 5
case.10
	pop_b 1
	push_args 7 1 1
	buildh _Nil 0
	push2_a 2
	updates2_a 9 2 11
	build e_system_dAP 2 e_system_nAP
	buildh _Cons 2
	update_a 4 9
	update_a 5 8
	updates2pop_a 0 6 7
.d 4 0 
	rtn 
case.6
	pop_b 1
	jsr_eval 6
	pushD_a 6
	jmpD ea e_System.GetOpt_dPermute 0 case.12 case.13
case.11
	pop_b 1
	buildh0_dup_a _Nil 7
	buildh0_dup_a _Nil 7
	update_a 2 6
	pop_a 6
	buildh _Nil 0
.d 4 0 
	rtn 
case.12
	pop_b 1
	buildh0_dup_a _Nil 7
	buildh0_dup_a _Nil 7
	update_a 2 6
	pop_a 6
	buildh _Nil 0
.d 4 0 
	rtn 
case.13
	pop_b 1
	push_args 6 1 1
	buildh0_put_a _Nil 8
	buildh _Nil 0
	buildh _Nil 0
	buildh _Nil 0
	push2_a 4
	build e_StdList_dmap 2 e_StdList_nmap
	update_a 3 11
	update3pop_a 0 8
.d 4 0 
	rtn 
case.7
	pop_b 1
	push_args 5 1 1
	buildh _Nil 0
	push_a 1
	updates2_a 4 1 8
	buildh _Cons 2
	dup_a 8
	update_a 4 7
	exchange_a 6 5
.d 4 0 
	pop_a_rtn 5
.o 4 1 b
s48
	eqB_b TRUE 0
	jmp_false case.15
	buildh0_put_a e_Text_dstartsWith;17 3
.d 4 0 
	pop_b_jmp 1 s23
case.15
	pop_b 1
	fill_a 2 3
.d 1 0 
	pop_a_rtn 3
.o 2 0 
s17
	buildo1 e_System.GetOpt_n_f4.112 0
	fillh e_System.GetOpt_dOptErr 1 2
.d 1 0 
	pop_a_rtn 1
.export e_System.GetOpt_d_f4.112
.export e_System.GetOpt_n_f4.112
.descn e_System.GetOpt_d_f4.112 e_System.GetOpt_n_f4.112 1 0 "_f4.112"
.n 1 e_System.GetOpt_d_f4.112 ea112
.o 1 0 
e_System.GetOpt_n_f4.112
	push_node _cycle_in_spine 1
.o 2 0 
ea112
.o 2 0 
s112
	jsr_eval 0
	push_a 0
	push_array 0
	put_a 1
	buildAC "' doesn't allow an argument\n"
	put_a 2
.d 2 0 
	jsr catAC
.o 1 0 
	buildAC "option `"
.d 2 0 
	jsr catAC
.o 1 0 
	fillh ARRAY 1 1
.d 1 0 
	rtn 
.export e_System.GetOpt_dc;77;27;26.21
.export e_System.GetOpt_nc;77;27;26.21
.descn e_System.GetOpt_dc;77;27;26.21 e_System.GetOpt_nc;77;27;26.21 1 0 "c;77;27;26.21"
.n 1 e_System.GetOpt_dc;77;27;26.21 ea21
.o 1 0 
e_System.GetOpt_nc;77;27;26.21
	push_node _cycle_in_spine 1
.o 2 0 
ea21
	jsr_eval 0
.o 2 0 
s21
s47
	jmp_ne_desc _Cons 2 0 case.17
	repl_args 2 2
	jsr_eval 0
.d 3 0 
	jmp s46
case.17
	fillh _Nil 0 1
.d 1 0 
	pop_a_rtn 1
.o 3 0 
s46
	jmp case.18
case.18
	repl_args 4 4
	updates2pop_a 4 2 3
	build e_System.GetOpt_dc;77;27;26.21 1 e_System.GetOpt_nc;77;27;26.21
	push_a 1
	fillh _Cons 2 4
.d 1 0 
	pop_a_rtn 2
case.19
	pop_a 1
	jsr_eval 0
.d 2 0 
	jmp s21
.o 4 0 
s23
	push_a 1
	updates3pop_a 0 1 3 2
.d 4 0 
	jmp s22
.export e_System.GetOpt_dc;74;25;27.22
.export e_System.GetOpt_nc;74;25;27.22
.descn e_System.GetOpt_dc;74;25;27.22 e_System.GetOpt_nc;74;25;27.22 3 0 "c;74;25;27.22"
.n 3 e_System.GetOpt_dc;74;25;27.22 ea22
.o 1 0 
e_System.GetOpt_nc;74;25;27.22
	push_node _cycle_in_spine 3
.o 4 0 
ea22
	jsr_eval 2
.o 4 0 
s22
	swap_a 2
s45
	jmp_ne_desc _Cons 2 0 case.21
	repl_args 2 2
	jsr_eval 0
	push_update_a 2 3
	updates2_a 0 2 4
.d 5 0 
	pop_a_jmp 1 s44
case.21
	fillh _Nil 0 3
.d 1 0 
	pop_a_rtn 3
.o 5 0 
s44
	jmp case.22
case.22
	push_args 0 4 4
	update_a 1 3
	update2pop_a 5 1
	build e_system_dAP 2 e_system_nAP
	create 
	swap_a1 
.d 2 0 
	jsr e_Data.List_sfind
.o 1 0 
	jsr_ap 1
	eq_desc _Just 1 0
	pop_a 1
	jmp_false else.24
	push_a2 3 1
	push_a 4
	build e_System.GetOpt_dc;74;25;27.22 3 e_System.GetOpt_nc;74;25;27.22
	push_a 1
	fillh _Cons 2 6
.d 1 0 
	pop_a_rtn 4
else.24
	jmp case.23
case.23
	push_jsr_eval 3
	dup_a 4
	exchange_a 3 2
.d 4 0 
	pop_a_jmp 2 s22
.o 1 1 i
s11
	jmp_neI_b -1 0 case.26
	buildAC ""
	buildh ARRAY 1
	swap_a1 
.d 2 0 
	pop_b_rtn 1
case.26
	push_a 0
	buildI_b 0
	build e_Text_ddropChars;5 2 e_Text_ndropChars;5
	push_ab 1 0
	build_u e_System.GetOpt_d_f3.111 1 1 e_System.GetOpt_n_f3.111
	update2pop_a 0 1
.d 2 0 
	pop_b_rtn 1
.export e_System.GetOpt_d_f3.111
.export e_System.GetOpt_n_f3.111
.descn e_System.GetOpt_d_f3.111 e_System.GetOpt_n_f3.111 2 0 "_f3.111"
.nu 1 1 e_System.GetOpt_d_f3.111 _
.o 1 0 
e_System.GetOpt_n_f3.111
	push_node_u _cycle_in_spine 1 1
.o 2 1 i
ea111
.o 2 1 i
s111
	push_b_decI 0
	jsr_eval 0
	pushI 0
	push_a 0
	push_array 0
	updatepop_a 0 2
	update2pop_b 0 1
.d 1 2 ii
	jsr sliceAC
.o 1 0 
	fillh ARRAY 1 1
.d 1 0 
	rtn 
.o 3 0 
s14
	buildo1 e_System.GetOpt_n_f1.109 1
	push_update_a 0 1
	build e_System.GetOpt_dusageInfo 2 e_System.GetOpt_nusageInfo
	fillh e_System.GetOpt_dOptErr 1 3
.d 1 0 
	pop_a_rtn 2
.export e_System.GetOpt_d_f1.109
.export e_System.GetOpt_n_f1.109
.descn e_System.GetOpt_d_f1.109 e_System.GetOpt_n_f1.109 1 0 "_f1.109"
.n 1 e_System.GetOpt_d_f1.109 ea109
.o 1 0 
e_System.GetOpt_n_f1.109
	push_node _cycle_in_spine 1
.o 2 0 
ea109
.o 2 0 
s109
	jsr_eval 0
	push_a 0
	push_array 0
	put_a 1
	buildAC "' is ambiguous; could be one of:"
	put_a 2
.d 2 0 
	jsr catAC
.o 1 0 
	buildAC "option `"
.d 2 0 
	jsr catAC
.o 1 0 
	fillh ARRAY 1 1
.d 1 0 
	rtn 
.o 3 0 
s15
	push_a2 0 1
	build e_System.GetOpt_d_f0.108 2 e_System.GetOpt_n_f0.108
	fillh e_System.GetOpt_dOptErr 1 3
.d 1 0 
	pop_a_rtn 2
.export e_System.GetOpt_d_f0.108
.export e_System.GetOpt_n_f0.108
.descn e_System.GetOpt_d_f0.108 e_System.GetOpt_n_f0.108 2 0 "_f0.108"
.n 2 e_System.GetOpt_d_f0.108 ea108
.o 1 0 
e_System.GetOpt_n_f0.108
	push_node _cycle_in_spine 2
.o 3 0 
ea108
.o 3 0 
s108
	push_jsr_eval 1
	push_array 0
	put_a 1
	buildAC "\n"
	updates2_a 0 2 3
.d 2 0 
	pop_a_jsr 1 catAC
.o 1 0 
	buildAC "' requires an argument "
.d 2 0 
	jsr catAC
.o 1 0 
	push_jsr_eval 1
	push_array 0
	updates2pop_a 0 2 3
.d 2 0 
	jsr catAC
.o 1 0 
	buildAC "option `"
.d 2 0 
	jsr catAC
.o 1 0 
	fillh ARRAY 1 1
.d 1 0 
	rtn 
.export e_System.GetOpt_dc;94;24;32.27
.export e_System.GetOpt_nc;94;24;32.27
.descn e_System.GetOpt_dc;94;24;32.27 e_System.GetOpt_nc;94;24;32.27 1 0 "c;94;24;32.27"
.n 1 e_System.GetOpt_dc;94;24;32.27 ea27
.o 1 0 
e_System.GetOpt_nc;94;24;32.27
	push_node _cycle_in_spine 1
.o 2 0 
ea27
	jsr_eval 0
.o 2 0 
s27
s42
	jmp_ne_desc _Cons 2 0 case.28
	repl_args 2 2
	jsr_eval 0
.d 3 0 
	jmp s41
case.28
	fillh _Nil 0 1
.d 1 0 
	pop_a_rtn 1
.o 3 0 
s41
	jmp case.29
case.29
	repl_args 4 4
	updates2pop_a 4 2 3
	build e_System.GetOpt_dc;94;24;32.27 1 e_System.GetOpt_nc;94;24;32.27
	push_a 1
	fillh _Cons 2 4
.d 1 0 
	pop_a_rtn 2
case.30
	pop_a 1
	jsr_eval 0
.d 2 0 
	jmp s27
.export e_System.GetOpt_dc;93;59;30.25
.export e_System.GetOpt_nc;93;59;30.25
.descn e_System.GetOpt_dc;93;59;30.25 e_System.GetOpt_nc;93;59;30.25 4 0 "c;93;59;30.25"
.n 4 e_System.GetOpt_dc;93;59;30.25 ea25
.o 1 0 
e_System.GetOpt_nc;93;59;30.25
	push_node _cycle_in_spine 4
.o 5 0 
ea25
	jsr_eval 3
.o 5 0 
s25
	push_a 3
	updates3pop_a 0 1 2 4
.d 5 0 
	jmp s40
.o 3 0 
s26
	swap_a1 
.d 3 0 
	jmp s39
.o 5 0 
s40
	jmp_ne_desc _Cons 2 0 case.32
	repl_args 2 2
	jsr_eval 0
	pushC_a 0
	push_jsr_eval 2
	pushC_a 3
	pop_a 1
	eqC
	jmp_false else.33
	push_a2 1 3
	push_a2 6 4
	build e_System.GetOpt_dc;93;59;30.25 4 e_System.GetOpt_nc;93;59;30.25
	push_a 4
	fillh _Cons 2 7
.d 1 0 
	pop_a_rtn 5
else.33
	push_jsr_eval 1
	updates3_a 0 5 3 2
.d 5 0 
	pop_a_jmp 2 s25
case.32
	push_jsr_eval 3
	dup_a 4
	updatepop_a 2 3
.d 3 0 
	jmp s26
.o 3 0 
s39
	jmp_ne_desc _Cons 2 0 case.35
	repl_args 2 2
	jsr_eval 0
	exchange_a 2 1
.d 4 0 
	jmp s38
case.35
	fillh _Nil 0 2
.d 1 0 
	pop_a_rtn 2
.o 4 0 
s38
	jmp case.36
case.36
	push_args 0 4 4
	updatepop_a 0 3
	jsr_eval 0
	push_update_a 2 1
	updates3pop_a 0 1 4 2
.d 5 0 
	jmp s25
case.37
	push_jsr_eval 2
	dup_a 3
.d 3 0 
	pop_a_jmp 2 s26
.export e_System.GetOpt_susageInfo
.descexp e_System.GetOpt_dusageInfo e_System.GetOpt_nusageInfo e_System.GetOpt_lusageInfo 2 0 "usageInfo"
.a 0 a1
.o 2 0 
e_System.GetOpt_lusageInfo
	repl_args 1 1
.o 2 0 
a1
.d 2 0 
	jsr ea1
.o 1 0 
	buildh ARRAY 1
.d 1 0 
	rtn 
.n 2 e_System.GetOpt_dusageInfo
.o 1 0 
e_System.GetOpt_nusageInfo
	push_node _cycle_in_spine 2
.d 2 0 
	jsr ea1
.o 1 0 
	fillh ARRAY 1 1
.d 1 0 
	rtn 
.o 2 0 
ea1
.o 2 0 
e_System.GetOpt_susageInfo
.o 2 0 
s1
	buildh e_System.GetOpt_dfmtOpt.7 0
	push_update_a 0 2
	build e_System.GetOpt_d\;15;13;97.35 2 e_System.GetOpt_n\;15;13;97.35
	buildo1 n_S.3 0
	buildo1 n_S.2 1
	build e_System.GetOpt_dsameLen;94.32 1 e_System.GetOpt_nsameLen;94.32
	buildo1 n_S.1 2
	build e_System.GetOpt_dsameLen;94.32 1 e_System.GetOpt_nsameLen;94.32
	buildh e_System.GetOpt_dpaste;21.18 0
	build e_Data.List_dzipWith3 4 e_Data.List_nzipWith3
	push_a 2
	buildh _Cons 2
	buildAC "\n"
	update2pop_a 0 3
.d 2 0 
	jmp e_Text_sjoin;9
.export e_System.GetOpt_dpaste;21.18
.desc e_System.GetOpt_dpaste;21.18 _hnf l18 3 0 "paste;21.18"
.a 0 a18
.o 2 0 
l18
	repl_args 2 2
.o 3 0 
a18
.d 3 0 
	jsr ea18
.o 1 0 
	buildh ARRAY 1
.d 1 0 
	rtn 
.o 3 0 
ea18
	jsr_eval 2
	jsr_eval 1
	jsr_eval 0
	push_array 2
	push_array 2
	push_array 2
	update3pop_a 0 3
.o 3 0 
s18
	push_a 2
	buildAC "  "
.d 2 0 
	buildh0_put_a_jsr _Nil 5 catAC
.o 1 0 
	updates3_a 0 2 1 3
.d 2 0 
	pop_a_jsr 1 catAC
.o 1 0 
	buildAC "  "
.d 2 0 
	jsr catAC
.o 1 0 
	swap_a1 
.d 2 0 
	jsr catAC
.o 1 0 
	buildAC "  "
.d 2 0 
	jsr catAC
.o 1 0 
.d 1 0 
	rtn 
.export e_System.GetOpt_dsameLen;94.32
.export e_System.GetOpt_nsameLen;94.32
.descn e_System.GetOpt_dsameLen;94.32 e_System.GetOpt_nsameLen;94.32 1 0 "sameLen;94.32"
.n 1 e_System.GetOpt_dsameLen;94.32 ea32
.o 1 0 
e_System.GetOpt_nsameLen;94.32
	push_node _cycle_in_spine 1
.o 2 0 
ea32
	jsr_eval 0
.o 2 0 
s32
	buildh e_Text_dtextSize;19 0
	push_update_a 0 1
	build e_System.GetOpt_d\;15;13;92.31 2 e_System.GetOpt_n\;15;13;92.31
.d 3 0 
	jmp s33
.export e_System.GetOpt_d\;15;13;92.31
.export e_System.GetOpt_n\;15;13;92.31
.descn e_System.GetOpt_d\;15;13;92.31 e_System.GetOpt_n\;15;13;92.31 2 0 "\;15;13;92.31"
.n 2 e_System.GetOpt_d\;15;13;92.31
.o 1 0 
e_System.GetOpt_n\;15;13;92.31
	push_node _cycle_in_spine 2
.d 2 0 
	jsr ea31
.o 0 1 i
	fillI_b 0 0
.d 1 0 
	pop_b_rtn 1
.o 2 0 
ea31
.o 2 0 
s31
	create 
	push_a 1
	updates3pop_a 0 1 3 2
.d 3 0 
	jsr e_StdList_smap
.o 1 0 
	buildh e_StdInt_d<;17 0
	buildh e_Data.List_dfoldr`;104 0
	buildh e_Data.List_dfoldr1;103 0
	buildh e_Data.List_dfoldr;102 0
	buildh e_Data.List_dfoldl`;101 0
	buildh e_Data.List_dfoldl1;100 0
	buildh e_Data.List_dfoldl;99 0
	buildh e_Data.List_dfoldMap;98 0
	buildh e_Data.List_dfold;97 0
.d 10 0 
	jsr e_Data.Foldable_smaximum
.o 1 0 
	pushI0_pop_a1 
.d 0 1 i
	rtn 
.o 3 0 
s33
	push_a 0
	buildh e_System.GetOpt_d\;20;32;96.34 1
.d 3 0 
	put_a_jmp 1 e_StdList_smap
.export e_System.GetOpt_d\;20;32;96.34
.desc e_System.GetOpt_d\;20;32;96.34 _hnf l34 2 0 "\;20;32;96.34"
.a 0 a34
.o 2 0 
l34
	repl_args 1 1
.o 2 0 
a34
.d 2 0 
	jsr ea34
.o 1 0 
	buildh ARRAY 1
.d 1 0 
	rtn 
.o 2 0 
ea34
	jsr_eval 1
	jsr_eval 0
	push_array 1
	pushI_a 1
	updatepop_a 0 2
.o 1 1 i
s34
	pushC ' '
	swap_b1 
.d 1 2 ic
	jmp e_Text_srpad;14
.export e_System.GetOpt_dfmtOpt.7
.desc e_System.GetOpt_dfmtOpt.7 _hnf l7 1 0 "fmtOpt.7"
.o 2 0 
l7
	update_a 1 0
	create 
	put_a 2
.o 2 0 
ea7
	jsr_eval 0
.o 2 0 
s7
	repl_args 4 4
	push_jsr_eval 3
	push_array 0
	put_a 1
	create 
	buildAC "\n"
	exchange_a 2 1
.d 3 0 
	buildh0_put_a_jsr _Nil 7 e_Text_ssplit;16
.o 1 0 
	update_a 2 4
	updates3pop_a 0 1 3 2
s37
	jmp_ne_desc _Nil 0 0 case.39
	buildh _Nil 0
	push_a 2
	buildh e_System.GetOpt_dfmtLong.9 1
	push_update_a 0 5
	build e_StdList_dmap 2 e_StdList_nmap
	buildAC ", "
	buildh ARRAY 1
	build e_Text_djoin;9 2 e_Text_njoin;9
	push_a 3
	buildh e_System.GetOpt_dfmtShort.8 1
	push_update_a 0 5
	build e_StdList_dmap 2 e_StdList_nmap
	buildAC ", "
	buildh ARRAY 1
	build e_Text_djoin;9 2 e_Text_njoin;9
	buildAC ""
	buildh ARRAY 1
	push_a 1
	updates3pop_a 0 1 3 2
	buildh _Tuple 3
	fillh _Cons 2 6
.d 1 0 
	pop_a_rtn 4
case.39
	repl_args 2 2
	buildo1 e_System.GetOpt_nc;26;49;24.19 1
	push_a 3
	buildh e_System.GetOpt_dfmtLong.9 1
	push_update_a 0 6
	build e_StdList_dmap 2 e_StdList_nmap
	buildAC ", "
	buildh ARRAY 1
	build e_Text_djoin;9 2 e_Text_njoin;9
	push_a 4
	buildh e_System.GetOpt_dfmtShort.8 1
	push_update_a 0 6
	build e_StdList_dmap 2 e_StdList_nmap
	buildAC ", "
	buildh ARRAY 1
	build e_Text_djoin;9 2 e_Text_njoin;9
	push_update_a 0 1
	update_a 4 2
	buildh _Tuple 3
	fillh _Cons 2 7
.d 1 0 
	pop_a_rtn 5
.export e_System.GetOpt_dc;26;49;24.19
.export e_System.GetOpt_nc;26;49;24.19
.descn e_System.GetOpt_dc;26;49;24.19 e_System.GetOpt_nc;26;49;24.19 1 0 "c;26;49;24.19"
.n 1 e_System.GetOpt_dc;26;49;24.19 ea19
.o 1 0 
e_System.GetOpt_nc;26;49;24.19
	push_node _cycle_in_spine 1
.o 2 0 
ea19
	jsr_eval 0
.o 2 0 
s19
s36
	jmp_ne_desc _Cons 2 0 case.41
	repl_args 2 2
	buildo1 e_System.GetOpt_nc;26;49;24.19 1
	push_a 1
	buildAC ""
	buildh ARRAY 1
	buildAC ""
	buildh ARRAY 1
	buildh _Tuple 3
	fillh _Cons 2 4
.d 1 0 
	pop_a_rtn 2
case.41
	fillh _Nil 0 1
.d 1 0 
	pop_a_rtn 1
.export e_System.GetOpt_dfmtLong.9
.desc e_System.GetOpt_dfmtLong.9 _hnf l9 2 0 "fmtLong.9"
.a 0 a9
.o 2 0 
l9
	repl_args 1 1
.o 2 0 
a9
.d 2 0 
	jsr ea9
.o 1 0 
	buildh ARRAY 1
.d 1 0 
	rtn 
.o 2 0 
ea9
	jsr_eval 1
	jsr_eval 0
	push_array 1
	put_a 2
.o 2 0 
s9
	pushD_a 0
	jmpD ea e_System.GetOpt_dReqArg 2 case.43 case.44
case.42
	pop_b 1
	repl_args 1 1
	update_a 1 0
	buildAC "--"
	update2pop_a 0 1
.d 2 0 
	jsr catAC
.o 1 0 
.d 1 0 
	rtn 
case.43
	pop_b 1
	repl_arg 2 2
	jsr_eval 0
	push_a 0
	push_array 0
	put_a 1
	buildAC "="
	update2pop_a 0 1
.d 2 0 
	jsr catAC
.o 1 0 
	swap_a1 
.d 2 0 
	jsr catAC
.o 1 0 
	buildAC "--"
.d 2 0 
	jsr catAC
.o 1 0 
.d 1 0 
	rtn 
case.44
	pop_b 1
	repl_arg 2 2
	jsr_eval 0
	push_a 0
	push_array 0
	put_a 1
	buildAC "]"
	put_a 2
.d 2 0 
	jsr catAC
.o 1 0 
	buildAC "[="
.d 2 0 
	jsr catAC
.o 1 0 
	swap_a1 
.d 2 0 
	jsr catAC
.o 1 0 
	buildAC "--"
.d 2 0 
	jsr catAC
.o 1 0 
.d 1 0 
	rtn 
.export e_System.GetOpt_dfmtShort.8
.desc e_System.GetOpt_dfmtShort.8 _hnf l8 2 0 "fmtShort.8"
.a 0 a8
.o 2 0 
l8
	repl_args 1 1
.o 2 0 
a8
.d 2 0 
	jsr ea8
.o 1 0 
	buildh ARRAY 1
.d 1 0 
	rtn 
.o 2 0 
ea8
	jsr_eval 1
	jsr_eval 0
	pushC_a 1
	put_a 1
.o 1 1 c
s8
	pushD_a 0
	jmpD ea e_System.GetOpt_dReqArg 2 case.46 case.47
case.45
	pop_b 1
	pop_a 1
	push_b 0
	CtoAC
	buildAC "-"
.d 2 0 
	pop_b_jsr 1 catAC
.o 1 0 
.d 1 0 
	rtn 
case.46
	pop_b 1
	repl_arg 2 2
	jsr_eval 0
	push_a 0
	push_array 0
	put_a 1
	buildAC " "
	update2pop_a 0 1
.d 2 0 
	jsr catAC
.o 1 0 
	push_b 0
	CtoAC
.d 2 0 
	pop_b_jsr 1 catAC
.o 1 0 
	buildAC "-"
.d 2 0 
	jsr catAC
.o 1 0 
.d 1 0 
	rtn 
case.47
	pop_b 1
	repl_arg 2 2
	jsr_eval 0
	push_a 0
	push_array 0
	put_a 1
	buildAC "]"
	put_a 2
.d 2 0 
	jsr catAC
.o 1 0 
	buildAC "["
.d 2 0 
	jsr catAC
.o 1 0 
	push_b 0
	CtoAC
.d 2 0 
	pop_b_jsr 1 catAC
.o 1 0 
	buildAC "-"
.d 2 0 
	jsr catAC
.o 1 0 
.d 1 0 
	rtn 
.export e_System.GetOpt_d\;15;13;97.35
.export e_System.GetOpt_n\;15;13;97.35
.descn e_System.GetOpt_d\;15;13;97.35 e_System.GetOpt_n\;15;13;97.35 2 0 "\;15;13;97.35"
.n 2 e_System.GetOpt_d\;15;13;97.35
.o 1 0 
e_System.GetOpt_n\;15;13;97.35
	push_node _cycle_in_spine 2
.d 2 0 
	jsr ea35
.o 3 0 
	fillh _Tuple 3 3
.d 1 0 
	rtn 
.o 2 0 
ea35
	jsr_eval 1
.o 2 0 
s35
	create 
	push_a 1
	updates3pop_a 0 1 3 2
.d 3 0 
	jsr e_Data.List_sconcatMap
.o 1 0 
.d 1 0 
	jmp e_Data.List_sunzip3
.o 3 0 
s103
	push_a 0
	eqAC_a "--"
	jmp_false case.49
	update_a 1 2
	pop_a 2
	buildh e_System.GetOpt_dEndOfOpts 0
.d 2 0 
	rtn 
case.49
	push_a 0
	buildAC "--"
.d 2 0 
	jsr e_Text_sstartsWith;17
.o 0 1 b
	jmp_false else.50
	push_jsr_eval 2
	push_a 1
	buildh ARRAY 1
	buildI 2
	build e_Text_ddropChars;5 2 e_Text_ndropChars;5
	update_a 1 4
	updatepop_a 0 2
.d 3 0 
	jmp s105
else.50
	push_a 0
	buildAC "-"
.d 2 0 
	jsr e_Text_sstartsWith;17
.o 0 1 b
	jmp_false else.51
	push_jsr_eval 2
	push_a 1
	buildh ARRAY 1
	buildI 2
	build e_Text_ddropChars;5 2 e_Text_ndropChars;5
	buildI 1
	push_a 3
	buildh ARRAY 1
	build e__SystemArray_dselect;19 2 e__SystemArray_nselect;19
	update_a 2 5
	update2pop_a 0 2
.d 4 0 
	jmp s104
else.51
	push_a 0
	buildh ARRAY 1
	buildh e_System.GetOpt_dNonOpt 1
	updates2pop_a 0 2 3
.d 2 0 
	rtn 
.o 4 0 
s104
	create 
	push_a2 4 1
.d 3 0 
	buildh0_put_a_jsr _Nil 7 s26
.o 1 0 
	create 
.d 2 0 
	push_a_jsr 1 s27
.o 1 0 
	buildh _Nil 0
	push_a 3
	buildh _Cons 2
	buildC '-'
	buildh _Cons 2
	build e_StdList_dtoString;79 1 e_StdList_ntoString;79
	updates3_a 1 4 5 6
	dup_a 3
.d 5 0 
	pop_a_jmp 2 s107
.o 3 0 
s105
	buildo1 e_System.GetOpt_n_f2.110 0
	buildo1 n_S.1 0
	buildh e_StdString_d==;2 0
	create 
	push_a2 2 6
	exchange_a 3 2
.d 4 0 
	jsr s23
.o 1 0 
.d 1 0 
	push_a_jsr 0 e_Data.List_sisnull
.o 0 1 b
	create 
	push_a2 2 6
	exchange_a 3 2
.d 4 1 b
	buildh0_put_a_jsr _Nil 9 s48
.o 1 0 
	buildo1 n_S.2 2
	create 
	push_a 2
.d 2 0 
	buildh0_put_a_jsr _Nil 6 s21
.o 1 0 
	push_a 3
	buildAC "--"
	buildh ARRAY 1
	build e_StdString_d+++;11 2 e_StdString_n+++;11
	updates2_a 2 7 8
	dup_a 5
	updates3_a 1 6 3 4
.d 6 0 
	pop_a_jmp 3 s106
.export e_System.GetOpt_d_f2.110
.export e_System.GetOpt_n_f2.110
.descn e_System.GetOpt_d_f2.110 e_System.GetOpt_n_f2.110 1 0 "_f2.110"
.n 1 e_System.GetOpt_d_f2.110 ea110
.o 1 0 
e_System.GetOpt_n_f2.110
	push_node _cycle_in_spine 1
.o 2 0 
ea110
.o 2 0 
s110
	jsr_eval 0
	push_a 0
	push_array 0
	put_a 1
	buildAC "="
.d 2 0 
	jsr e_Text_sindexOf;7
.o 0 1 i
.d 1 1 i
	jsr s11
.o 2 0 
	fillh _Tuple 2 2
.d 1 0 
	rtn 
.o 6 0 
s106
	jmp_ne_desc _Cons 2 3 case.53
	push_args 3 2 2
	buildh0_put_a _Nil 6
	jsr_eval 1
	jmp_ne_desc _Cons 2 1 case.55
	push_args 1 2 2
	buildh0_dup_a _Nil 4
	pop_a 2
	jsr_eval 0
	jmp_eq_desc _Cons 2 0 case.56
	pop_a_jmp 3 case.53
case.56
	repl_arg 2 2
	jsr_eval 0
	jmp_eq_desc _Nil 0 0 case.57
	pop_a_jmp 3 case.53
case.57
	create 
	update_a 4 8
	dup_a 7
.d 3 0 
	pop_a_jsr 5 s14
.o 1 0 
	put_a 1
.d 2 0 
	rtn 
case.55
	jsr_eval 0
	pushD_a 0
	jmpD ea e_System.GetOpt_dReqArg 2 case.59 case.60
case.58
	pop_b 1
	repl_args 1 1
	jsr_eval 6
	push_array 6
	eqAC_a ""
	jmp_false case.62
	push_a 0
	buildh e_System.GetOpt_dOpt 1
	updatepop_a 0 7
.d 2 0 
	rtn 
case.62
	push_array 6
	buildAC "="
	update2pop_a 0 2
	buildh0_dup_a _Nil 7
	put_a 4
.d 2 0 
	jsr e_Text_sstartsWith;17
.o 0 1 b
	jmp_false else.63
	create 
	update2_a 0 4
.d 2 0 
	pop_a_jsr 3 s17
.o 1 0 
	put_a 1
.d 2 0 
	rtn 
else.63
	jmp case.53
case.59
	pop_b 1
	repl_args 2 2
	jsr_eval 7
	push_array 7
	eqAC_a ""
	jmp_false case.65
	jsr_eval 8
	jmp_ne_desc _Nil 0 8 case.67
	buildh _Nil 0
	create 
	push_a2 7 3
	buildh0_dup2_a _Nil 12
	dup3_a 8
	dup2_a 5
.d 3 0 
	pop_a_jsr 1 s15
.o 1 0 
	update2pop_a 0 9
.d 2 0 
	rtn 
case.67
	push_args 8 2 2
	buildh _Nil 0
	push_a 3
	updates2_a 2 1 12
	build e_system_dAP 2 e_system_nAP
	buildh e_System.GetOpt_dOpt 1
	update_a 2 11
	updatepop_a 0 10
.d 2 0 
	rtn 
case.65
	push_array 7
	buildAC "="
	buildh0_dup2_a _Nil 7
	put_a 4
.d 2 0 
	jsr e_Text_sstartsWith;17
.o 0 1 b
	jmp_false else.68
	push_a 7
	buildI 1
	build e_Text_ddropChars;5 2 e_Text_ndropChars;5
	push_a 1
	build e_system_dAP 2 e_system_nAP
	buildh e_System.GetOpt_dOpt 1
	updatepop_a 0 8
.d 2 0 
	rtn 
else.68
	pop_a_jmp 3 case.53
case.60
	pop_b 1
	repl_args 2 2
	put_a 1
	jsr_eval 6
	push_array 6
	eqAC_a ""
	jmp_false case.70
	buildh _None 0
	push_a 1
	build e_system_dAP 2 e_system_nAP
	buildh e_System.GetOpt_dOpt 1
	updatepop_a 0 7
.d 2 0 
	rtn 
case.70
	push_array 6
	buildAC "="
	buildh0_dup2_a _Nil 6
.d 2 0 
	pop_a_jsr 1 e_Text_sstartsWith;17
.o 0 1 b
	jmp_false else.71
	push_a 6
	buildI 1
	build e_Text_ddropChars;5 2 e_Text_ndropChars;5
	build _Justs 1 n_Justs
	push_a 1
	build e_system_dAP 2 e_system_nAP
	buildh e_System.GetOpt_dOpt 1
	updatepop_a 0 7
.d 2 0 
	rtn 
else.71
	pop_a_jmp 2 case.53
case.53
	push_a 0
	buildAC "--"
	buildh ARRAY 1
	build e_StdString_d+++;11 2 e_StdString_n+++;11
	buildh e_System.GetOpt_dUnreqOpt 1
	updatepop_a 0 5
.d 2 0 
	rtn 
.o 5 0 
s107
	jmp_ne_desc _Cons 2 2 case.73
	push_args 2 2 2
	buildh0_put_a _Nil 5
	jsr_eval 1
	jmp_ne_desc _Cons 2 1 case.75
	push_args 1 2 2
	buildh0_dup_a _Nil 4
	pop_a 2
	jsr_eval 0
	jmp_eq_desc _Cons 2 0 case.76
	pop_a_jmp 1 case.75
case.76
	repl_arg 2 2
	jsr_eval 0
	jmp_eq_desc _Nil 0 0 case.77
	pop_a_jmp 1 case.75
case.77
	create 
	dup_a 3
	updates3_a 5 2 4 1
.d 3 0 
	pop_a_jsr 1 s14
.o 1 0 
	updatepop_a 0 4
.d 2 0 
	rtn 
case.75
	jsr_eval 0
	pushD_a 0
	jmpD ea e_System.GetOpt_dReqArg 2 case.79 case.80
case.78
	pop_b 1
	repl_args 1 1
	jsr_eval 5
	push_array 5
	eqAC_a ""
	jmp_false case.82
	push_a 0
	buildh e_System.GetOpt_dOpt 1
	updatepop_a 0 6
.d 2 0 
	rtn 
case.82
	push2_a 6
	buildAC "-"
	buildh ARRAY 1
	build e_StdString_d+++;11 2 e_StdString_n+++;11
	buildh _Cons 2
	push_a 1
	buildh e_System.GetOpt_dOpt 1
	update2pop_a 0 7
.d 2 0 
	rtn 
case.79
	pop_b 1
	repl_args 2 2
	jsr_eval 6
	push_array 6
	eqAC_a ""
	jmp_false case.84
	jsr_eval 7
	jmp_ne_desc _Nil 0 7 case.86
	buildh _Nil 0
	create 
	push_a2 6 3
	buildh0_dup2_a _Nil 11
	dup2_a 8
	dup2_a 5
.d 3 0 
	pop_a_jsr 1 s15
.o 1 0 
	update2pop_a 0 8
.d 2 0 
	rtn 
case.86
	push_args 7 2 2
	buildh _Nil 0
	push_a 3
	updates2_a 2 1 11
	build e_system_dAP 2 e_system_nAP
	buildh e_System.GetOpt_dOpt 1
	update_a 2 10
	updatepop_a 0 9
.d 2 0 
	rtn 
case.84
	push_a2 6 0
	build e_system_dAP 2 e_system_nAP
	buildh e_System.GetOpt_dOpt 1
	updatepop_a 0 7
.d 2 0 
	rtn 
case.80
	pop_b 1
	repl_args 2 2
	put_a 1
	jsr_eval 5
	push_array 5
	eqAC_a ""
	jmp_false case.88
	buildh _None 0
	push_a 1
	build e_system_dAP 2 e_system_nAP
	buildh e_System.GetOpt_dOpt 1
	updatepop_a 0 6
.d 2 0 
	rtn 
case.88
	push_a 5
	buildh _Just 1
	push_a 1
	build e_system_dAP 2 e_system_nAP
	buildh e_System.GetOpt_dOpt 1
	updatepop_a 0 6
.d 2 0 
	rtn 
case.73
	jsr_eval 3
	push_array 3
	eqAC_a ""
	jmp_false case.90
	push_a 1
	buildh e_System.GetOpt_dUnreqOpt 1
	updatepop_a 0 4
.d 2 0 
	rtn 
case.90
	push2_a 4
	buildAC "-"
	buildh ARRAY 1
	build e_StdString_d+++;11 2 e_StdString_n+++;11
	buildh _Cons 2
	push_a 2
	buildh e_System.GetOpt_dUnreqOpt 1
	update2pop_a 0 5
.d 2 0 
	rtn 
