.comp 920 000111010010000
.start _nostart_
.depend "ostoolbox" "20210613122053"
.depend "menuCCall_12" "20210613122053"
.impobj "cCrossCallMenus_121."
.module m_menuCCall_12 "menuCCall_12" "20210613122053"
.endinfo
.impmod _system
.implab _cycle_in_spine
.implab _type_error
.implab _hnf
.impdesc e_system_dind
.implab e_system_nind e_system_eaind
.impdesc e_system_dif
.implab e_system_nif e_system_eaif
.implab e_system_sif
.impdesc e_system_dAP
.implab e_system_nAP e_system_eaAP
.implab e_system_sAP
.impdesc ARRAY
.impdesc _Nil
.impdesc _Cons
.impdesc _Conss
.implab n_Conss ea_Conss
.impdesc _Consts
.implab n_Consts ea_Consts
.impdesc _Conssts
.implab n_Conssts ea_Conssts
.impdesc _Tuple
.impdesc d_S.1
.implab n_S.1 ea_S.1
.impdesc d_S.2
.implab n_S.2 ea_S.2
.impdesc d_S.3
.implab n_S.3 ea_S.3
.impdesc d_S.4
.implab n_S.4 ea_S.4
.impdesc d_S.5
.implab n_S.5 ea_S.5
.impdesc d_S.6
.implab n_S.6 ea_S.6
.implab _driver
.export e_menuCCall_12_swinInitialiseMenus
.descexp e_menuCCall_12_dwinInitialiseMenus e_menuCCall_12_nwinInitialiseMenus e_menuCCall_12_lwinInitialiseMenus 1 0 "winInitialiseMenus"
.o 2 0
e_menuCCall_12_lwinInitialiseMenus
	pop_a 1
.d 1 0
	jsr ea1
.o 0 1 i
	buildI_b 0
	pop_b 1
.d 1 0
	rtn
.n 1 e_menuCCall_12_dwinInitialiseMenus
.o 1 0
e_menuCCall_12_nwinInitialiseMenus
	push_node _cycle_in_spine 1
.d 1 0
	jsr ea1
.o 0 1 i
	fillI_b 0 0
	pop_b 1
.d 1 0
	rtn
.o 1 0
ea1
	jsr_eval 0
	pushI_a 0
	pop_a 1
.o 0 1 i
e_menuCCall_12_swinInitialiseMenus
.o 0 1 i
s1
.inline InstallCrossCallMenus
	ccall InstallCrossCallMenus "I-I"
.end
.d 0 1 i
	rtn
