.comp 920 000111010010000
.start _nostart_
.depend "menuaccess" "20210613122053"
.depend "clCCall_12" "20210613122053"
.depend "StdProcessAttribute" "20210613122055"
.depend "StdReal" "20210613122005"
.depend "StdList" "20210613122005"
.depend "StdProcessDef" "20210613122053"
.depend "StdMisc" "20210613122005"
.depend "StdChar" "20210613122005"
.depend "roundrobin" "20210613122053"
.depend "processstack" "20210613122053"
.depend "timerhandle" "20210613122053"
.depend "processhandle" "20210613122053"
.depend "osmenu" "20210613122053"
.depend "StdMenuDef" "20210613122053"
.depend "menuhandle" "20210613122053"
.depend "devicesystemstate" "20210613122053"
.depend "keyfocus" "20210613122053"
.depend "StdBool" "20210613122005"
.depend "StdClass" "20210613122005"
.depend "commondef" "20210613122053"
.depend "receiverhandle" "20210613122053"
.depend "StdWindowDef" "20210613122053"
.depend "StdControlDef" "20210613122053"
.depend "windowhandle" "20210613122053"
.depend "StdTimerDef" "20210613122053"
.depend "timertable" "20210613122053"
.depend "semidynamic" "20210613122053"
.depend "receivertable" "20210613122053"
.depend "receivermessage" "20210613122053"
.depend "deviceevents" "20210613122055"
.depend "devicefunctions" "20210613122053"
.depend "ossystem" "20210613122053"
.depend "osguishare" "20210613122053"
.depend "ostime" "20210613122053"
.depend "clCrossCall_12" "20210613122053"
.depend "StdInt" "20210613122005"
.depend "osevent" "20210613122053"
.depend "ostoolbar" "20210613122053"
.depend "menuCrossCall_12" "20210613122053"
.depend "osdocumentinterface" "20210613122053"
.depend "osactivaterequests" "20210613122053"
.depend "iostate" "20210613122053"
.depend "systemid" "20210613122053"
.depend "device" "20210613122053"
.depend "id" "20210613122053"
.depend "oskey" "20210613122053"
.depend "StdKey" "20210613122053"
.depend "StdPicture" "20210613122053"
.depend "StdIOBasic" "20210613122053"
.depend "StdPictureDef" "20210613122053"
.depend "osfont" "20210613122053"
.depend "ostypes" "20210613122053"
.depend "ostoolbox" "20210613122053"
.depend "osrgn" "20210613122053"
.depend "ospicture" "20210613122053"
.depend "osbitmap" "20210613122055"
.depend "StdFile" "20210613122005"
.depend "_SystemStrictMaybes" "20210613122005"
.depend "StdMaybe" "20210613122005"
.depend "StdBitmap" "20210613122053"
.depend "StdString" "20210613122005"
.depend "StdOverloaded" "20210613122005"
.depend "StdIOCommon" "20210613122055"
.depend "StdFunctions" "20210613122005"
.depend "StdFunc" "20210613122005"
.depend "StdPSt" "20210613122053"
.depend "menuevent" "20210613122053"
.module m_menuevent "menuevent" "20210613122053"
.endinfo
.impmod _system
.implab _cycle_in_spine
.implab _type_error
.implab _hnf
.impdesc e_system_dind
.implab e_system_nind e_system_eaind
.impdesc e_system_dif
.implab e_system_nif e_system_eaif
.implab e_system_sif
.impdesc e_system_dAP
.implab e_system_nAP e_system_eaAP
.implab e_system_sAP
.impdesc ARRAY
.impdesc _Nil
.impdesc _Cons
.impdesc _Conss
.implab n_Conss ea_Conss
.impdesc _Consts
.implab n_Consts ea_Consts
.impdesc _Conssts
.implab n_Conssts ea_Conssts
.impdesc _Tuple
.impdesc d_S.1
.implab n_S.1 ea_S.1
.impdesc d_S.2
.implab n_S.2 ea_S.2
.impdesc d_S.3
.implab n_S.3 ea_S.3
.impdesc d_S.4
.implab n_S.4 ea_S.4
.impdesc d_S.5
.implab n_S.5 ea_S.5
.impdesc d_S.6
.implab n_S.6 ea_S.6
.implab _driver
.impmod menuaccess
.implab e_menuaccess_smenuStateHandleGetMenuId
.impmod clCCall_12
.implab e_clCCall_12_stoModifiers
.impdesc e_clCCall_12_dwinMakeCString
.impmod StdProcessAttribute
.impdesc e_StdProcessAttribute_disProcessToolbar
.implab e_StdProcessAttribute_sgetProcessToolbarAtt
.impmod StdList
.impdesc e_StdList_d++
.implab e_StdList_s++
.implab e_StdList_n++ e_StdList_ea++
.implab e_StdList_ssplitAt
.impmod StdMisc
.impdesc e_StdMisc_dundef
.implab e_StdMisc_nundef _
.impmod processstack
.impdesc e_processstack_dtopShowProcessShowState
.implab e_processstack_ntopShowProcessShowState
.impmod osmenu
.implab e_osmenu_sosMenuItemCheck
.impmod devicesystemstate
.implab e_devicesystemstate_smenuSystemStateGetMenuHandles
.impmod StdBool
.implab e_StdBool_snot
.impmod commondef
.implab e_commondef_sfatalError
.implab e_commondef_suisEmpty
.implab e_commondef_shdtl
.implab e_commondef_sucontains
.implab e_commondef_scselect
.implab e_commondef_sulength
.impmod deviceevents
.implab e_deviceevents_sgetMsgEventRecLoc
.impmod StdInt
.implab e_StdInt_s+;6
.impdesc e_StdInt_d-;7
.implab e_StdInt_s-;7
.implab e_StdInt_n-;7
.implab e_StdInt_s==;16
.impmod osdocumentinterface
.implab e_osdocumentinterface_sgetOSDInfoOSToolbar
.impmod iostate
.implab e_iostate_sioStGetProcessAttributes
.implab e_iostate_sioStGetProcessStack
.implab e_iostate_sioStGetOSDInfo
.implab e_iostate_sioStGetIOId
.implab e_iostate_sioStHasDevice
.implab e_iostate_sioStGetDevice
.implab e_iostate_sioStSetDevice
.implab e_iostate_sgetIOToolbox
.implab e_iostate_ssetIOToolbox
.implab e_iostate_saccIOToolbox
.impmod systemid
.implab e_systemid_s==;5
.impmod device
.implab e_device_s==;2
.impmod id
.implab e_id_s==;27
.impmod StdPSt
.implab e_StdPSt_saccPIO
.impmod osmenu
.impdesc e_osmenu_kPopUpTrackedByItemId
.impmod menuhandle
.impdesc e_menuhandle_rMenuHandles
.impdesc e_menuhandle_kMenuLSHandle
.impdesc e_menuhandle_rMenuLSHandle
.impdesc e_menuhandle_rMenuHandle
.impdesc e_menuhandle_kMenuItemHandle
.impdesc e_menuhandle_kSubMenuHandle
.impdesc e_menuhandle_kRadioMenuHandle
.impdesc e_menuhandle_kMenuSeparatorHandle
.impdesc e_menuhandle_kMenuListLSHandle
.impdesc e_menuhandle_kMenuExtendLSHandle
.impdesc e_menuhandle_kMenuChangeLSHandle
.impdesc e_menuhandle_rSubMenuHandle
.impdesc e_menuhandle_rRadioMenuHandle
.impdesc e_menuhandle_rMenuExtendLSHandle
.impdesc e_menuhandle_rMenuChangeLSHandle
.impmod devicesystemstate
.impdesc e_devicesystemstate_dMenuSystemState
.impmod deviceevents
.impdesc e_deviceevents_kScheduleOSEvent
.impdesc e_deviceevents_kScheduleMsgEvent
.impdesc e_deviceevents_kMenuTraceEvent
.impdesc e_deviceevents_kToolbarSelection
.impdesc e_deviceevents_kReceiverEvent
.impdesc e_deviceevents_dReceiverEvent
.implab e_deviceevents_nReceiverEvent e_deviceevents_eaReceiverEvent
.impdesc e_deviceevents_rMenuTraceInfo
.impdesc e_deviceevents_rToolbarSelectInfo
.impmod iostate
.impdesc e_iostate_rPSt
.impmod device
.impdesc e_device_dMenuDevice
.impmod StdIOCommon
.impdesc e_StdIOCommon_dToolbarItem
.impdesc e_StdIOCommon_dToolbarSeparator
.export e_menuevent_spopUpMenuEvent
.descexp e_menuevent_dpopUpMenuEvent e_menuevent_npopUpMenuEvent e_menuevent_lpopUpMenuEvent 3 0 "popUpMenuEvent"
.a 0 a2
.o 2 0
e_menuevent_lpopUpMenuEvent
	repl_args 2 2
.o 3 0
a2
.d 3 0
	jsr ea2
.o 2 1 i
	buildI_b 0
	push_a 2
	push_a 2
	buildh _Tuple 3
	updatepop_a 0 2
	pop_b 1
.d 1 0
	rtn
.n 3 e_menuevent_dpopUpMenuEvent
.o 1 0
e_menuevent_npopUpMenuEvent
	push_node _cycle_in_spine 3
.d 3 0
	jsr ea2
.o 2 1 i
	buildI_b 0
	push_a 2
	push_a 2
	fillh _Tuple 3 5
	pop_a 2
	pop_b 1
.d 1 0
	rtn
.o 3 0
ea2
	jsr_eval 2
	jsr_eval 1
	jsr_eval 0
	pushI_a 2
	repl_r_args 2 0
	update_a 2 3
	update_a 1 2
	update_a 0 1
	pop_a 1
.o 3 1 i
e_menuevent_spopUpMenuEvent
.o 3 1 i
s2
	jmp case.1
case.1
	eq_desc e_osmenu_kPopUpTrackedByItemId 0 0
	jmp_true case.3
	jmp case.2
case.3
	repl_r_args 0 1
	push_r_args 0 0 5
	push_b 6
	push_a 1
	push_b 6
	push_b 6
	update_b 2 7
	update_b 3 2
	update_b 4 3
	update_b 5 4
	update_b 6 5
	update_b 0 6
	pop_b 1
	update_b 6 8
	update_b 5 7
	update_b 4 6
	update_b 3 5
	update_b 2 4
	update_b 1 3
	updatepop_b 0 2
	updatepop_a 0 2
.d 1 7 ibbbbbi
	jsr s6
.o 2 2 bi
	push_b 1
	push_a 1
	push_a 1
	update_a 1 3
	updatepop_a 0 2
	updatepop_b 0 2
.d 2 1 i
	rtn
case.2
	buildAC "PopUpTrackedByIndex not expected"
	buildAC "popUpMenuEvent"
	update_a 1 4
	updatepop_a 0 3
	pop_b 1
.d 2 0
	jsr s3
.o 1 0
	repl_args 3 3
	jsr_eval 2
	jsr_eval 1
	jsr_eval 0
	pushI_a 2
	update_a 1 2
	update_a 0 1
	pop_a 1
.d 2 1 i
	rtn
.export e_menuevent_smenuEvent
.descexp e_menuevent_dmenuEvent e_menuevent_nmenuEvent e_menuevent_lmenuEvent 2 0 "menuEvent"
.a 0 a1
.o 2 0
e_menuevent_lmenuEvent
	repl_args 1 1
.o 2 0
a1
.d 2 0
	jsr ea1
.o 4 1 b
	build_r e_iostate_rPSt 2 0 2 0
	push_a 2
	push_a 2
	buildB_b 0
	buildh _Tuple 4
	updatepop_a 0 4
	pop_b 1
.d 1 0
	rtn
.n 2 e_menuevent_dmenuEvent
.o 1 0
e_menuevent_nmenuEvent
	push_node _cycle_in_spine 2
.d 2 0
	jsr ea1
.o 4 1 b
	build_r e_iostate_rPSt 2 0 2 0
	push_a 2
	push_a 2
	buildB_b 0
	fillh _Tuple 4 8
	pop_a 4
	pop_b 1
.d 1 0
	rtn
.o 2 0
ea1
	jsr_eval 1
	jsr_eval 0
	push_r_args 1 2 0
	update_a 1 3
	update_a 2 1
	update_a 0 2
	pop_a 1
.o 3 0
e_menuevent_smenuEvent
.o 3 0
s1
	buildh d30 0
	push_a 3
	push_a 3
	push_a 2
	update_a 2 3
	update_a 1 2
	update_a 0 1
	pop_a 1
	update_a 3 5
	update_a 2 4
	update_a 1 3
	updatepop_a 0 2
.d 3 0
	jsr e_StdPSt_saccPIO
.o 3 0
	pushB_a 0
	notB
	jmp_false else.4
	buildAC "MenuDevice.dEvent applied while MenuDevice not present in IOSt"
	buildAC "menuEvent"
	update_a 1 5
	updatepop_a 0 4
.d 2 0
	jsr s3
.o 1 0
	repl_args 4 4
	jsr_eval 3
	jsr_eval 2
	jsr_eval 1
	jsr_eval 0
	push_r_args 3 2 0
	pushB_a 2
	update_a 1 5
	update_a 3 2
	update_a 4 3
	update_a 0 4
	pop_a 2
.d 4 1 b
	rtn
else.4
	push_a 2
	push_a 2
	push_a 5
	update_a 2 6
	update_a 1 5
	updatepop_a 0 4
.d 3 0
	jmp s12
.desc d30 _hnf l30 1 0 "_f0"
.o 2 0
l30
	update_a 1 0
	create
	update_a 0 2
	pop_a 1
.o 2 0
ea30
.o 2 0
s30
	push_a 0
	jsr_eval 0
	buildh e_device_dMenuDevice 0
	update_a 1 2
	updatepop_a 0 1
.d 2 0
	jsr e_iostate_sioStHasDevice
.o 1 1 b
	push_a 0
	buildB_b 0
	fillh _Tuple 2 3
	pop_a 1
	pop_b 1
.d 1 0
	rtn
.o 3 0
s12
	pushD_a 0
	jmpD be e_deviceevents_kScheduleMsgEvent 0 case.5 case.6
	pop_b 1
	jmp case.7
case.5
	pop_b 1
	push_args 0 2 2
	update_a 0 1
	pop_a 1
	push_r_args 0 0 7
	update_b 0 6
	pop_b 6
	push_b 0
.d 0 1 i
	jsr s9
.o 0 1 b
	jmp_false else.8
	push_a 3
	pop_b 1
.d 1 0
	jsr e_iostate_sioStGetOSDInfo
.o 2 0
	push_r_args 2 0 7
	push_a 1
	push_a 1
	update_a 1 3
	updatepop_a 0 2
.d 2 7 iiiiiii
	jsr s4
.o 3 1 b
	push_a 2
	push_a 7
	push_a 7
	update_a 2 1
	update_a 1 2
	updatepop_a 0 1
	push_a 2
	buildh _Nil 0
	update_a 0 9
	update_a 0 6
	pop_a 1
	eq_desc _Just 1 0
	pop_a 1
	create
	push_a 7
	push_a 4
	push_a 8
	buildh _Nil 0
	update_a 0 10
	update_a 0 7
	update_a 0 11
	pop_a 1
.d 4 1 b
	jsr s23
.o 1 0
	push_a 4
	push_b 0
	update_a 3 10
	update_a 2 9
	update_a 1 8
	updatepop_a 0 7
	updatepop_b 0 1
.d 4 1 b
	rtn
else.8
	push_b 0
	updatepop_b 0 1
.d 0 1 i
	jsr s8
.o 0 1 b
	jmp_false else.9
	push_a 3
.d 1 0
	jsr e_iostate_sioStGetProcessStack
.o 2 0
	push_a 1
	update_a 1 2
	updatepop_a 0 1
.d 1 0
	jsr e_iostate_sioStGetIOId
.o 2 0
	push_a 1
	update_a 1 2
	updatepop_a 0 1
.d 1 0
	jsr e_iostate_sgetIOToolbox
.o 1 1 i
	buildh e_device_dMenuDevice 0
	push_a 1
	push_a 1
	update_a 1 2
	update_a 0 1
	pop_a 1
	update_a 1 2
	updatepop_a 0 1
.d 2 0
	jsr e_iostate_sioStGetDevice
.o 2 1 b
	push_a 0
	jsr_eval 0
	updatepop_a 0 1
.d 1 0
	jsr e_devicesystemstate_smenuSystemStateGetMenuHandles
.o 4 1 b
	push_a 6
	build e_processstack_dtopShowProcessShowState 1 e_processstack_ntopShowProcessShowState
	build d_S.2 -1 n_S.2
	push_a 6
	push_b 1
	push_a 1
	update_a 1 2
	update_a 0 1
	pop_a 1
	buildh _Nil 0
	update_a 0 8
	update_a 0 9
	pop_a 1
.d 2 1 b
	jsr s24
.o 0 1 b
	push_r_args 7 0 7
	push_b 10
	push_b 9
	update_b 1 10
	update_b 2 1
	update_b 3 2
	update_b 4 3
	update_b 5 4
	update_b 6 5
	update_b 7 6
	update_b 8 7
	update_b 9 8
	update_b 0 9
	pop_b 1
	update_b 9 11
	update_b 8 10
	update_b 7 9
	update_b 6 8
	update_b 5 7
	update_b 4 6
	update_b 3 5
	update_b 2 4
	update_b 1 3
	updatepop_b 0 2
	update_a 4 6
	update_a 3 5
	update_a 2 4
	update_a 1 3
	updatepop_a 0 2
.d 4 10 iiiiiiibbi
	jsr s5
.o 6 3 bbi
	build_r e_menuhandle_rMenuHandles 4 1 2 1
	buildh e_devicesystemstate_dMenuSystemState 1
	create
	push_a 8
	push_a 2
	update_a 2 3
	update_a 1 2
	update_a 0 1
	pop_a 1
	update_a 4 9
	update_a 3 8
	update_a 2 7
	update_a 1 6
	updatepop_a 0 5
.d 3 0
	jsr e_iostate_sioStSetDevice
.o 1 0
	create
	push_b 2
	push_a 1
	update_a 1 2
	update_a 0 1
	pop_a 1
.d 2 1 i
	jsr e_iostate_ssetIOToolbox
.o 1 0
	push_a 6
	push_a 6
	update_a 2 1
	update_a 1 2
	updatepop_a 0 1
	push_a 2
	buildh _Nil 0
	update_a 0 8
	pop_a 1
	eq_desc _Just 1 0
	pop_a 1
	create
	push_a 6
	push_a 4
	push_a 7
	buildh _Nil 0
	update_a 0 9
	update_a 0 7
	update_a 0 10
	pop_a 1
.d 4 1 b
	jsr s26
.o 1 0
	push_a 4
	push_b 0
	update_a 3 9
	update_a 2 8
	update_a 1 7
	updatepop_a 0 6
	updatepop_b 0 3
.d 4 1 b
	rtn
else.9
	buildh _Nothing 0
	push_a 4
	push_a 4
	push_a 4
	pushB FALSE
	push_a 3
	update_a 3 4
	update_a 2 3
	update_a 1 2
	update_a 0 1
	pop_a 1
	update_a 3 7
	update_a 2 6
	update_a 1 5
	updatepop_a 0 4
.d 4 1 b
	rtn
case.6
	pop_b 1
	push_args 0 1 1
	push_a 3
.d 1 0
	jsr e_iostate_sioStGetIOId
.o 2 0
	push_a 2
.d 1 0
	jsr e_deviceevents_sgetMsgEventRecLoc
.o 4 0
	push_a 0
	push_a 5
	buildh _Nil 0
	update_a 0 7
	pop_a 1
.d 2 0
	jsr e_systemid_s==;5
.o 0 1 b
	notB
	jmp_true then.10
	buildh e_device_dMenuDevice 0
	push_a 2
.d 2 0
	jsr e_device_s==;2
.o 0 1 b
	notB
	jmp_false else.10
then.10
	push_a 5
	push_a 10
	push_a 10
	update_a 2 1
	update_a 1 2
	updatepop_a 0 1
	buildh _Nothing 0
	push_a 10
	pushB FALSE
	push_a 1
	update_a 1 2
	update_a 0 1
	pop_a 1
	update_a 3 13
	update_a 2 12
	update_a 1 11
	updatepop_a 0 10
.d 4 1 b
	rtn
else.10
	buildh e_device_dMenuDevice 0
	push_a 6
	push_a 1
	update_a 1 2
	update_a 0 1
	pop_a 1
	buildh _Nil 0
	update_a 0 8
	pop_a 1
.d 2 0
	jsr e_iostate_sioStGetDevice
.o 2 1 b
	push_a 0
	jsr_eval 0
	pop_b 1
	updatepop_a 0 1
.d 1 0
	jsr e_devicesystemstate_smenuSystemStateGetMenuHandles
.o 4 1 b
	push_a 7
	update_a 5 11
	update_a 4 10
	update_a 3 9
	update_a 2 8
	update_a 1 7
	updatepop_a 0 6
.d 5 1 b
	jsr s11
.o 4 2 bb
	build_r e_menuhandle_rMenuHandles 4 1 0 1
	buildh e_devicesystemstate_dMenuSystemState 1
	create
	push_a 6
	push_a 2
	update_a 2 3
	update_a 1 2
	update_a 0 1
	pop_a 1
	update_a 2 7
	update_a 1 6
	updatepop_a 0 5
.d 3 0
	jsr e_iostate_sioStSetDevice
.o 1 0
	push_a 4
	push_a 4
	update_a 2 1
	update_a 1 2
	updatepop_a 0 1
	create
	push_a 3
	push_b 0
	buildh _Nil 0
	update_a 0 5
	update_a 0 8
	update_a 0 7
	pop_a 1
.d 2 1 b
	jsr s27
.o 1 0
	push_a 4
	push_b 0
	push_a 1
	update_a 1 2
	update_a 0 1
	pop_a 1
	update_a 3 7
	update_a 2 6
	update_a 1 5
	updatepop_a 0 4
	updatepop_b 0 2
.d 4 1 b
	rtn
case.7
	buildh _Nothing 0
	push_a 3
	push_a 3
	push_a 3
	pushB FALSE
	push_a 3
	update_a 3 4
	update_a 2 3
	update_a 1 2
	update_a 0 1
	pop_a 1
	update_a 3 6
	update_a 2 5
	update_a 1 4
	updatepop_a 0 3
.d 4 1 b
	rtn
.o 2 1 b
s27
	eqB_b TRUE 0
	jmp_true case.12
	jmp case.13
case.12
	push_a 0
	buildhr e_deviceevents_kReceiverEvent 1 0
	fillh _Just 1 2
	pop_a 1
	pop_b 1
.d 1 0
	rtn
case.13
	fillh _Nothing 0 1
	pop_a 1
	pop_b 1
.d 1 0
	rtn
.o 4 1 b
s26
	eqB_b TRUE 0
	jmp_true case.14
	jmp case.15
case.14
	push_a 1
	eq_desc _Just 1 0
	exit_false selector_m_error
	repl_args 1 1
	jsr_eval 0
	push_a 1
	fill_r e_deviceevents_kScheduleOSEvent 2 0 5 0 0
	pop_a 5
	pop_b 1
.d 1 0
	rtn
case.15
	pop_b 1
	fill_a 2 3
	pop_a 3
.d 1 0
	rtn
.o 2 1 b
s24
	eqB_b TRUE 0
	jmp_true case.16
	jmp case.17
case.16
	push_a 0
	jsr_eval 0
	push_a 2
	push_a 1
	update_a 1 2
	update_a 0 1
	pop_a 1
	update_a 1 3
	updatepop_a 0 2
	pop_b 1
.d 2 0
	jmp e_systemid_s==;5
case.17
	pop_a 2
	pop_b 1
	pushB FALSE
.d 0 1 b
	rtn
.o 4 1 b
s23
	eqB_b TRUE 0
	jmp_true case.18
	jmp case.19
case.18
	push_a 1
	eq_desc _Just 1 0
	exit_false selector_m_error
	repl_args 1 1
	jsr_eval 0
	push_a 1
	fill_r e_deviceevents_kScheduleOSEvent 2 0 5 0 0
	pop_a 5
	pop_b 1
.d 1 0
	rtn
case.19
	pop_b 1
	fill_a 2 3
	pop_a 3
.d 1 0
	rtn
.o 5 1 b
s11
	push_a 0
	buildh d10 1
	push_a 2
	push_a 1
	update_a 1 2
	update_a 0 1
	pop_a 1
	update_a 1 2
	updatepop_a 0 1
.d 2 0
	jsr e_commondef_sucontains
.o 1 1 b
	push_a 0
	push_a 5
	push_a 5
	push_b 1
	push_a 5
	push_a 5
	update_a 4 0
	update_a 3 4
	update_a 2 3
	update_a 1 2
	updatepop_a 0 1
	push_b 1
	update_a 3 8
	update_a 2 7
	update_a 1 6
	updatepop_a 0 5
	update_b 1 3
	updatepop_b 0 2
.d 4 2 bb
	rtn
.desc d10 _hnf l10 2 0 "eqMenuId;9"
.a 0 a10
.o 2 0
l10
	repl_args 1 1
.o 2 0
a10
.o 2 0
ea10
	jsr_eval 1
	push_a 1
	update_a 1 2
	updatepop_a 0 1
.d 1 0
	jsr e_menuaccess_smenuStateHandleGetMenuId
.o 2 0
	push_a 0
	push_a 3
	update_a 3 4
	update_a 1 3
	updatepop_a 0 2
.d 2 0
	jsr e_id_s==;27
.o 0 1 b
	push_a 0
	updatepop_a 0 1
	push_a 0
	buildB_b 0
	buildh _Tuple 2
	updatepop_a 0 1
	pop_b 1
.d 1 0
	rtn
.o 4 10 iiiiiiibbi
s5
	jmp case.20
case.20
	eqI_b 103 0
	jmp_true case.22
	jmp case.21
case.22
	push_b 8
	notB
	jmp_false else.23
	buildh _Nothing 0
	buildh _Nothing 0
	push_b 9
	push_a 5
	push_a 5
	push_b 9
	push_a 5
	push_a 5
	pushB FALSE
	push_a 5
	update_a 4 6
	update_a 2 4
	update_a 0 2
	update_a 5 0
	update_a 3 5
	update_a 1 3
	update_a 0 1
	pop_a 1
	update_a 5 9
	update_a 4 8
	update_a 3 7
	update_a 2 6
	update_a 1 5
	updatepop_a 0 4
	update_b 2 12
	update_b 1 11
	updatepop_b 0 10
.d 6 3 bbi
	rtn
else.23
	push_b 2
	updatepop_b 0 1
.d 0 1 i
	jsr e_clCCall_12_stoModifiers
.o 0 5 bbbbb
	push_b 13
	push_a 0
	push_b 6
	push_b 6
	update_b 2 7
	update_b 3 2
	update_b 4 3
	update_b 5 4
	update_b 6 5
	update_b 0 6
	pop_b 1
	update_b 6 13
	update_b 5 12
	update_b 4 11
	update_b 3 10
	update_b 2 9
	update_b 1 8
	updatepop_b 0 7
.d 1 7 ibbbbbi
	jsr s14
.o 2 2 bi
	push_a 1
	push_a 6
	push_a 6
	push_b 2
	push_a 6
	push_a 6
	update_a 4 0
	update_a 3 4
	update_a 2 3
	update_a 1 2
	updatepop_a 0 1
	buildh _Nothing 0
	push_b 2
	push_a 5
	push_b 2
	push_a 1
	update_a 1 2
	update_a 0 1
	pop_a 1
	push_b 2
	update_b 2 3
	update_b 0 2
	pop_b 1
	update_a 5 11
	update_a 4 10
	update_a 3 9
	update_a 2 8
	update_a 1 7
	updatepop_a 0 6
	update_b 2 6
	update_b 1 5
	updatepop_b 0 4
.d 6 3 bbi
	rtn
case.21
	buildAC "unmatched OSEvent"
	buildAC "filterOSEvent"
	update_a 1 5
	updatepop_a 0 4
	pop_b 10
.d 2 0
	jsr s3
.o 1 0
	repl_args 5 5
	jsr_eval 4
	jsr_eval 3
	jsr_eval 2
	jsr_eval 1
	jsr_eval 0
	pushI_a 4
	push_r_args 3 4 1
	pushB_a 4
	update_a 3 8
	update_a 5 3
	update_a 0 5
	update_a 2 7
	update_a 6 4
	update_a 1 6
	pop_a 3
.d 6 3 bbi
	rtn
.o 1 7 ibbbbbi
s14
	push_a 0
	updatepop_a 0 1
.d 1 0
	jsr e_commondef_suisEmpty
.o 1 1 b
	push_b 0
	jmp_false else.24
	buildh _Nothing 0
	push_b 7
	push_a 1
	pushB FALSE
	push_a 1
	update_a 1 2
	update_a 0 1
	pop_a 1
	update_a 1 2
	updatepop_a 0 1
	update_b 1 9
	updatepop_b 0 8
.d 2 2 bi
	rtn
else.24
	push_a 0
	pop_b 1
	updatepop_a 0 1
.d 1 0
	jsr e_commondef_shdtl
.o 2 0
	push_b 6
	push_a 0
	push_b 6
	push_b 6
	push_b 6
	push_b 6
	push_b 6
	push_b 6
	updatepop_a 0 1
.d 1 7 ibbbbbi
	jsr s6
.o 2 2 bi
	push_b 0
	jmp_false else.25
	push_a 2
	push_a 2
	buildh _Cons 2
	push_b 1
	push_a 1
	push_b 1
	update_a 1 4
	updatepop_a 0 3
	update_b 1 10
	updatepop_b 0 9
.d 2 2 bi
	rtn
else.25
	push_b 1
	push_a 2
	push_b 8
	push_b 8
	push_b 8
	push_b 8
	push_b 8
	push_b 8
	update_a 2 3
	updatepop_a 0 2
.d 1 7 ibbbbbi
	jsr s14
.o 2 2 bi
	push_a 1
	push_a 3
	buildh _Cons 2
	push_b 1
	push_a 1
	push_b 1
	update_a 1 4
	updatepop_a 0 3
	update_b 1 12
	updatepop_b 0 11
.d 2 2 bi
	rtn
.o 1 7 ibbbbbi
s6
	push_args 0 2 2
	push_a 1
	push_a 1
	pop_a 1
	push_r_args_u 0 3 3
	update_a 0 1
	update_b 0 1
	pop_a 1
	pop_b 1
	push_b 1
	notB
	jmp_false else.26
	buildh _Nothing 0
	push_b 8
	push_a 6
	pushB FALSE
	push_a 1
	update_a 1 2
	update_a 0 1
	pop_a 1
	update_a 1 7
	updatepop_a 0 6
	update_b 1 10
	updatepop_b 0 9
.d 2 2 bi
	rtn
else.26
	buildh _Nil 0
	push_b 8
	push_a 2
	pushI 0
	push_b 9
	push_b 9
	push_b 9
	push_b 9
	push_b 9
	push_a 2
	push_b 7
	push_b 10
	push_a 2
	update_a 2 3
	update_a 0 2
	pop_a 1
	update_b 8 17
	update_b 7 16
	update_b 6 15
	update_b 5 14
	update_b 4 13
	update_b 3 12
	update_b 2 11
	update_b 1 10
	updatepop_b 0 9
	update_a 2 4
	update_a 1 3
	updatepop_a 0 2
.d 3 9 iibbbbbii
	jsr s17
.o 3 3 bii
	push_a 2
	fill2_r e_menuhandle_rMenuHandle 3 3 4 0001000
	push_a 3
	push_a 6
	push_a 6
	update_a 2 1
	update_a 1 2
	updatepop_a 0 1
	buildhr e_menuhandle_kMenuLSHandle 2 0
	push_b 2
	push_a 1
	push_b 1
	update_a 1 8
	updatepop_a 0 7
	update_b 1 4
	updatepop_b 0 3
.d 2 2 bi
	rtn
.o 3 10 iiibbbbbii
s16
	pushD_a 2
	eqD_b e_menuhandle_kMenuItemHandle 0
	jmp_true case.27
	eqD_b e_menuhandle_kSubMenuHandle 0
	jmp_true case.28
	eqD_b e_menuhandle_kRadioMenuHandle 0
	jmp_true case.29
	eqD_b e_menuhandle_kMenuSeparatorHandle 0
	jmp_true case.30
	eqD_b e_menuhandle_kMenuListLSHandle 0
	jmp_true case.31
	jmpD ea e_menuhandle_kMenuExtendLSHandle 0 case.32 case.33
	pop_b 1
	jmp case.34
case.27
	pop_b 1
	push_r_args 2 4 3
	pop_a 4
	pop_b 2
	push_b 0
	push_b 3
	eqI
	jmp_false else.35
	pushI 1
	push_b 10
	addI
.impdesc e_StdIOCommon_rModifiers
	build_r e_StdIOCommon_rModifiers 0 5 0 5
	push_b 10
	push_a 2
	push_a 2
	buildhr e_deviceevents_kMenuTraceEvent 3 1
	buildh _Just 1
	push_b 11
	push_a 3
	push_a 3
	pushB TRUE
	push_a 2
	update_a 2 3
	update_a 1 2
	update_a 0 1
	pop_a 1
	push_b 2
	update_b 2 3
	update_b 0 2
	pop_b 1
	update_a 2 5
	update_a 1 4
	updatepop_a 0 3
	update_b 2 13
	update_b 1 12
	updatepop_b 0 11
.d 3 3 bii
	rtn
else.35
	pushI 1
	push_b 10
	addI
	buildh _Nothing 0
	push_b 11
	push_a 3
	push_a 3
	pushB FALSE
	push_a 2
	update_a 2 3
	update_a 1 2
	update_a 0 1
	pop_a 1
	push_b 2
	update_b 2 3
	update_b 0 2
	pop_b 1
	update_a 2 5
	update_a 1 4
	updatepop_a 0 3
	update_b 2 13
	update_b 1 12
	updatepop_b 0 11
.d 3 3 bii
	rtn
case.28
	pop_b 1
	push_r_args 2 4 3
	push_a 3
	push_a 3
	push_a 3
	push_a 3
	push_b 2
	push_b 2
	push_b 2
	update_a 1 3
	update_b 0 1
	pop_a 3
	pop_b 1
	push_b 1
	notB
	jmp_false else.36
	pushI 1
	push_b 14
	addI
	buildh _Nothing 0
	push_b 15
	push_a 8
	push_a 8
	pushB FALSE
	push_a 2
	update_a 2 3
	update_a 1 2
	update_a 0 1
	pop_a 1
	push_b 2
	update_b 2 3
	update_b 0 2
	pop_b 1
	update_a 2 10
	update_a 1 9
	updatepop_a 0 8
	update_b 2 17
	update_b 1 16
	updatepop_b 0 15
.d 3 3 bii
	rtn
else.36
	buildh _Nil 0
	buildI_b 13
	buildh _Cons 2
	create
	push_a 8
	push_a 2
	update_a 2 3
	update_a 0 2
	pop_a 1
.d 3 0
	jsr e_StdList_s++
.o 1 0
	push_b 14
	push_a 1
	pushI 0
	push_b 14
	push_b 14
	push_b 14
	push_b 14
	push_b 14
	push_a 7
	push_b 7
	push_b 14
	push_a 2
	update_a 2 3
	update_a 0 2
	pop_a 1
	update_b 8 10
	update_b 7 9
	update_b 6 8
	update_b 5 7
	update_b 4 6
	update_b 3 5
	update_b 2 4
	update_b 1 3
	updatepop_b 0 2
	update_a 2 3
	update_a 1 2
	updatepop_a 0 1
	buildh _Nil 0
	update_a 0 8
	pop_a 1
.d 3 9 iibbbbbii
	jsr s17
.o 3 3 bii
	push_a 2
	push_a 7
	push_b 5
	push_a 7
	push_a 7
	push_b 5
	push_a 7
	push_b 5
	update_a 4 1
	update_a 3 4
	update_a 2 3
	update_a 1 2
	updatepop_a 0 1
	buildhr e_menuhandle_kSubMenuHandle 4 3
	pushI 1
	push_b 15
	addI
	create
	push_a 10
	push_a 4
	push_b 1
	buildh _Nil 0
	update_a 0 6
	update_a 0 13
	update_a 0 8
	update_a 0 9
	update_a 0 10
	update_a 0 11
	update_a 0 7
	pop_a 1
.d 3 1 b
	jsr s21
.o 1 0
	push_b 3
	push_a 2
	push_b 2
	push_b 2
	update_b 2 3
	update_b 0 2
	pop_b 1
	update_a 2 12
	update_a 1 11
	updatepop_a 0 10
	update_b 2 18
	update_b 1 17
	updatepop_b 0 16
.d 3 3 bii
	rtn
case.29
	pop_b 1
	push_r_args 2 3 2
	buildh _Nil 0
	update_a 0 6
	pop_a 1
	push_a 2
	push_a 2
	push_a 2
	push_b 1
	push_b 1
	update_a 1 2
	pop_a 2
	push_b 1
	notB
	jmp_false else.37
	push_a 0
	pop_b 2
	updatepop_a 0 1
	buildh _Nil 0
	update_a 0 5
	pop_a 1
.d 1 0
	jsr e_commondef_sulength
.o 1 1 i
	push_a 0
	push_a 4
	push_b 2
	push_a 4
	push_b 2
	push_a 4
	update_a 3 1
	update_a 2 3
	update_a 1 2
	updatepop_a 0 1
	buildhr e_menuhandle_kRadioMenuHandle 3 2
	push_b 0
	push_b 12
	addI
	buildh _Nothing 0
	push_b 13
	push_a 7
	pushB FALSE
	push_a 1
	update_a 1 2
	update_a 0 1
	pop_a 1
	push_b 2
	update_b 2 3
	update_b 0 2
	pop_b 1
	update_a 2 9
	update_a 1 8
	updatepop_a 0 7
	update_b 2 15
	update_b 1 14
	updatepop_b 0 13
.d 3 3 bii
	rtn
else.37
	push_a 0
	updatepop_a 0 1
.d 1 0
	jsr e_commondef_sulength
.o 1 1 i
	pop_b 1
	push_b 13
	push_b 13
	push_a 5
	push_b 13
	push_b 13
	push_b 13
	push_b 13
	push_b 13
	push_a 5
	push_b 13
	push_b 13
	update_a 5 8
	update_a 4 7
	update_a 3 6
	update_a 2 5
	update_a 1 4
	updatepop_a 0 3
.d 3 9 iibbbbbii
	jsr s17
.o 3 3 bii
	push_b 0
	notB
	jmp_false else.38
	push_a 2
	push_a 6
	push_b 6
	push_a 6
	push_b 6
	push_a 6
	update_a 3 1
	update_a 2 3
	update_a 1 2
	updatepop_a 0 1
	buildhr e_menuhandle_kRadioMenuHandle 3 2
	push_b 2
	push_b 2
	push_a 2
	push_a 2
	push_b 2
	update_a 2 8
	update_a 1 7
	updatepop_a 0 6
	update_b 2 19
	update_b 1 18
	updatepop_b 0 17
.d 3 3 bii
	rtn
else.38
	push_b 1
	push_b 16
	push_b 1
	subI
	push_b 0
	push_b 6
	eqI
	jmp_false else.39
	push_a 2
	push_a 6
	push_b 8
	push_a 6
	push_b 8
	push_a 6
	update_a 3 1
	update_a 2 3
	update_a 1 2
	updatepop_a 0 1
	buildhr e_menuhandle_kRadioMenuHandle 3 2
	push_b 4
	push_b 2
	push_a 2
	push_a 2
	push_b 4
	update_a 2 8
	update_a 1 7
	updatepop_a 0 6
	update_b 2 21
	update_b 1 20
	updatepop_b 0 19
.d 3 3 bii
	rtn
else.39
	pushI 1
	push_b 6
	subI
	push_a 2
	buildh _Nil 0
	update_a 0 4
	pop_a 1
.d 1 1 i
	jsr e_StdList_ssplitAt
.o 2 0
	push_a 1
	jsr_eval 0
	eq_desc _Cons 2 0
	exit_false selector_m_error
	repl_args 2 2
	jsr_eval 0
	push_a 0
	updatepop_a 0 1
	buildh _Nil 0
	update_a 0 4
	pop_a 1
.d 1 0
	jsr s15
.o 1 1 i
	push_a 1
	push_a 1
	buildh _Cons 2
	push_a 3
	build e_StdList_d++ 2 e_StdList_n++
	pushI 1
	push_b 2
	subI
	updatepop_a 0 4
.d 1 1 i
	jsr e_StdList_ssplitAt
.o 2 0
	push_a 1
	jsr_eval 0
	eq_desc _Cons 2 0
	exit_false selector_m_error
	repl_args 2 2
	jsr_eval 0
	push_a 0
	updatepop_a 0 1
	buildh _Nil 0
	update_a 0 4
	pop_a 1
.d 1 0
	jsr s15
.o 1 1 i
	push_b 6
	pushI 0
	pushI 0
	push_b 4
	push_b 17
	pushB FALSE
.d 0 6 biiiii
	jsr e_osmenu_sosMenuItemCheck
.o 0 1 i
	pushI 0
	pushI 0
	push_b 3
	push_b 17
	pushB TRUE
	update_b 5 7
	update_b 4 6
	update_b 3 5
	update_b 2 4
	update_b 1 3
	updatepop_b 0 2
.d 0 6 biiiii
	jsr e_osmenu_sosMenuItemCheck
.o 0 1 i
	push_a 1
	push_a 1
	buildh _Cons 2
	push_a 3
	jsr_eval 0
	create
	push_a 2
	update_a 1 3
	update_a 2 1
	update_a 0 2
	pop_a 1
	update_a 2 6
	update_a 1 5
	updatepop_a 0 4
.d 3 0
	jsr e_StdList_s++
.o 1 0
	push_b 1
	push_a 6
	push_b 10
	push_a 6
	push_b 10
	push_a 6
	update_b 2 0
	update_a 3 1
	update_a 2 3
	update_a 1 2
	updatepop_a 0 1
	update_b 1 2
	updatepop_b 0 1
	buildhr e_menuhandle_kRadioMenuHandle 3 2
	push_b 2
	push_a 2
	push_a 2
	push_b 4
	update_a 2 8
	update_a 1 7
	updatepop_a 0 6
	update_b 2 21
	update_b 1 20
	updatepop_b 0 19
.d 3 3 bii
	rtn
case.30
	pop_b 1
	push_r_args 2 1 1
	pop_a 1
	pop_b 1
	pushI 1
	push_b 9
	addI
	buildh _Nothing 0
	push_b 10
	push_a 3
	push_a 3
	pushB FALSE
	push_a 2
	update_a 2 3
	update_a 1 2
	update_a 0 1
	pop_a 1
	push_b 2
	update_b 2 3
	update_b 0 2
	pop_b 1
	update_a 2 5
	update_a 1 4
	updatepop_a 0 3
	update_b 2 12
	update_b 1 11
	updatepop_b 0 10
.d 3 3 bii
	rtn
case.31
	pop_b 1
	push_args 2 1 1
	buildh _Nil 0
	update_a 0 4
	pop_a 1
	push_b 9
	push_a 0
	push_b 9
	push_a 3
	push_b 9
	push_b 9
	push_b 9
	push_b 9
	push_b 9
	push_a 3
	push_b 9
	push_b 9
	update_b 8 18
	update_b 7 17
	update_b 6 16
	update_b 5 15
	update_b 4 14
	update_b 3 13
	update_b 2 12
	update_b 1 11
	updatepop_b 0 10
	update_a 2 6
	update_a 1 5
	updatepop_a 0 4
.d 3 9 iibbbbbii
	jsr s17
.o 3 3 bii
	push_a 2
	buildhr e_menuhandle_kMenuListLSHandle 1 0
	push_b 2
	push_b 2
	push_a 2
	push_a 2
	push_b 2
	update_a 2 5
	update_a 1 4
	updatepop_a 0 3
	update_b 2 5
	update_b 1 4
	updatepop_b 0 3
.d 3 3 bii
	rtn
case.32
	pop_b 1
	push_args 2 2 2
	buildh _Nil 0
	update_a 0 5
	pop_a 1
	push_a 1
	push_a 1
	pop_a 1
	push_b 9
	push_a 0
	push_b 9
	push_a 5
	push_b 9
	push_b 9
	push_b 9
	push_b 9
	push_b 9
	push_a 5
	push_b 9
	push_b 9
	update_b 8 18
	update_b 7 17
	update_b 6 16
	update_b 5 15
	update_b 4 14
	update_b 3 13
	update_b 2 12
	update_b 1 11
	updatepop_b 0 10
	update_a 5 8
	update_a 4 7
	update_a 2 6
	update_a 1 5
	updatepop_a 0 4
.d 3 9 iibbbbbii
	jsr s17
.o 3 3 bii
	push_a 2
	push_a 5
	push_a 5
	update_a 2 1
	update_a 1 2
	updatepop_a 0 1
	buildhr e_menuhandle_kMenuExtendLSHandle 2 0
	push_b 2
	push_b 2
	push_a 2
	push_a 2
	push_b 2
	update_a 2 7
	update_a 1 6
	updatepop_a 0 5
	update_b 2 5
	update_b 1 4
	updatepop_b 0 3
.d 3 3 bii
	rtn
case.33
	pop_b 1
	push_args 2 2 2
	buildh _Nil 0
	update_a 0 5
	pop_a 1
	push_a 1
	push_a 1
	pop_a 1
	push_b 9
	push_a 0
	push_b 1
	push_a 5
	push_b 9
	push_b 9
	push_b 9
	push_b 9
	push_b 9
	push_a 5
	push_b 9
	push_b 9
	update_b 8 18
	update_b 7 17
	update_b 6 16
	update_b 5 15
	update_b 4 14
	update_b 3 13
	update_b 2 12
	update_b 1 11
	updatepop_b 0 10
	update_a 5 8
	update_a 4 7
	update_a 2 6
	update_a 1 5
	updatepop_a 0 4
.d 3 9 iibbbbbii
	jsr s17
.o 3 3 bii
	push_a 2
	push_a 5
	push_a 5
	update_a 2 1
	update_a 1 2
	updatepop_a 0 1
	buildhr e_menuhandle_kMenuChangeLSHandle 2 0
	push_b 2
	push_b 2
	push_a 2
	push_a 2
	push_b 2
	update_a 2 7
	update_a 1 6
	updatepop_a 0 5
	update_b 2 5
	update_b 1 4
	updatepop_b 0 3
.d 3 3 bii
	rtn
case.34
	buildh _Nothing 0
	push_b 9
	push_a 3
	push_b 9
	push_a 3
	pushB FALSE
	push_a 2
	update_a 2 3
	update_a 1 2
	update_a 0 1
	pop_a 1
	update_a 2 5
	update_a 1 4
	updatepop_a 0 3
	update_b 2 12
	update_b 1 11
	updatepop_b 0 10
.d 3 3 bii
	rtn
.o 3 9 iibbbbbii
s17
	push_a 2
	buildh _Nil 0
	update_a 0 4
	pop_a 1
.d 1 0
	jsr e_commondef_suisEmpty
.o 1 1 b
	push_b 0
	jmp_false else.40
	buildh _Nothing 0
	push_b 9
	push_a 1
	push_b 9
	push_a 4
	pushB FALSE
	push_a 2
	update_a 2 3
	update_a 1 2
	update_a 0 1
	pop_a 1
	update_a 2 6
	update_a 1 5
	updatepop_a 0 4
	update_b 2 12
	update_b 1 11
	updatepop_b 0 10
.d 3 3 bii
	rtn
else.40
	push_a 0
	pop_b 1
	updatepop_a 0 1
.d 1 0
	jsr e_commondef_shdtl
.o 2 0
	push_b 8
	push_a 0
	push_b 8
	push_a 4
	push_b 8
	push_b 8
	push_b 8
	push_b 8
	push_b 8
	push_a 4
	push_b 8
	push_b 8
	push_b 16
	update_a 5 7
	update_a 4 6
	update_a 2 5
	update_a 1 4
	updatepop_a 0 3
.d 3 10 iiibbbbbii
	jsr s16
.o 3 3 bii
	push_b 0
	jmp_false else.41
	push_a 3
	push_a 3
	buildh _Cons 2
	push_b 2
	push_b 2
	push_a 2
	push_a 2
	push_b 2
	update_a 2 7
	update_a 1 6
	updatepop_a 0 5
	update_b 2 14
	update_b 1 13
	updatepop_b 0 12
.d 3 3 bii
	rtn
else.41
	push_b 2
	push_a 3
	push_b 2
	push_a 2
	push_b 11
	push_b 11
	push_b 11
	push_b 11
	push_b 11
	push_a 6
	push_b 11
	push_b 11
	update_a 5 7
	update_a 2 6
	update_a 1 5
	updatepop_a 0 4
.d 3 9 iibbbbbii
	jsr s17
.o 3 3 bii
	push_a 2
	push_a 4
	buildh _Cons 2
	push_b 2
	push_b 2
	push_a 2
	push_a 2
	push_b 2
	update_a 2 6
	update_a 1 5
	updatepop_a 0 4
	update_b 2 17
	update_b 1 16
	updatepop_b 0 15
.d 3 3 bii
	rtn
.o 3 1 b
s21
	eqB_b TRUE 0
	jmp_true case.42
	jmp case.43
case.42
	pop_b 1
	fill_a 0 2
	pop_a 2
.d 1 0
	rtn
case.43
	pop_b 1
	fill_a 1 2
	pop_a 2
.d 1 0
	rtn
.o 1 0
s15
	eq_desc e_menuhandle_kMenuItemHandle 0 0
	jmp_true case.44
	jmp s15.1
case.44
	push_r_args 0 4 3
	pop_a 4
	pop_b 2
	push_a 0
	push_b 0
	updatepop_a 0 1
	updatepop_b 0 1
.d 1 1 i
	rtn
s15.1
	pop_a 1
	pushD m_menuevent
	pushD x_15
.d 0 2 ii
	jmp _match_error
.string x_15 "getMenuItemOSMenuItem;14"
.o 0 1 i
s8
	eqI_b 103 0
	jmp_true case.45
	jmp case.46
case.45
	pop_b 1
	pushB TRUE
.d 0 1 b
	rtn
case.46
	pop_b 1
	pushB FALSE
.d 0 1 b
	rtn
.o 2 7 iiiiiii
s4
	jmp case.47
case.47
	eqI_b 118 0
	jmp_true case.49
	eqI_b 131 0
	jmp_true case.50
	jmp case.48
case.49
	push_b 2
	push_a 0
	updatepop_b 0 4
	updatepop_a 0 1
.d 1 1 i
	jsr s7
.o 0 1 b
	jmp_false else.51
	push_b 0
	buildhr e_deviceevents_kToolbarSelection 0 1
	buildh _Just 1
	buildh _Nothing 0
	push_a 2
	pushB TRUE
	push_a 2
	update_a 1 3
	update_a 2 1
	update_a 0 2
	pop_a 1
	update_a 2 3
	update_a 1 2
	updatepop_a 0 1
	updatepop_b 0 3
.d 3 1 b
	rtn
else.51
	buildh _Nothing 0
	buildh _Nothing 0
	push_a 2
	pushB FALSE
	push_a 2
	update_a 1 3
	update_a 2 1
	update_a 0 2
	pop_a 1
	update_a 2 3
	update_a 1 2
	updatepop_a 0 1
	updatepop_b 0 3
.d 3 1 b
	rtn
case.50
	push_b 1
	push_a 0
	updatepop_b 0 2
	updatepop_a 0 1
.d 1 1 i
	jsr s7
.o 0 1 b
	jmp_false else.52
	push_a 0
	updatepop_a 0 1
.d 1 0
	jsr e_iostate_sioStGetProcessAttributes
.o 2 0
	build _ 0 e_StdMisc_nundef
	buildh e_StdProcessAttribute_disProcessToolbar 0
	push_a 2
	push_a 2
	update_a 1 3
	update_a 2 1
	update_a 0 2
	pop_a 1
	update_a 2 3
	update_a 1 2
	updatepop_a 0 1
.d 3 0
	jsr e_commondef_scselect
.o 1 1 b
	push_b 0
	notB
	jmp_false else.53
	buildh _Nothing 0
	buildh _Nothing 0
	push_a 3
	pushB TRUE
	push_a 2
	update_a 1 3
	update_a 2 1
	update_a 0 2
	pop_a 1
	update_a 2 4
	update_a 1 3
	updatepop_a 0 2
	updatepop_b 0 6
.d 3 1 b
	rtn
else.53
	push_a 0
	jsr_eval 0
	create
	push_a 1
	update_a 1 2
	update_a 0 1
	pop_a 1
	pop_b 1
	update_a 1 2
	updatepop_a 0 1
.d 2 0
	jsr e_StdProcessAttribute_sgetProcessToolbarAtt
.o 1 0
	create
	push_b 0
	push_a 1
	update_a 1 2
	update_a 0 1
	pop_a 1
	updatepop_b 0 5
.d 2 1 i
	jsr s13
.o 1 0
	push_a 0
	eq_desc _Nothing 0 0
	pop_a 1
	jmp_false else.54
	buildh _Nothing 0
	buildh _Nothing 0
	push_a 3
	pushB TRUE
	push_a 2
	update_a 1 3
	update_a 2 1
	update_a 0 2
	pop_a 1
	update_a 2 4
	update_a 1 3
	updatepop_a 0 2
.d 3 1 b
	rtn
else.54
	push_a 0
	build _ 1 n31
	buildh e_clCCall_12_dwinMakeCString 1
	push_a 2
	push_a 1
	update_a 1 2
	update_a 0 1
	pop_a 1
	update_a 1 3
	updatepop_a 0 2
.d 2 0
	jsr e_iostate_saccIOToolbox
.o 2 0
	buildh _Nothing 0
	buildh _Nil 0
	push_a 2
	buildh _Cons 2
	buildh _Just 1
	push_a 3
	pushB TRUE
	push_a 2
	update_a 1 3
	update_a 2 1
	update_a 0 2
	pop_a 1
	update_a 2 4
	update_a 1 3
	updatepop_a 0 2
.d 3 1 b
	rtn
else.52
	buildh _Nothing 0
	buildh _Nothing 0
	push_a 2
	pushB FALSE
	push_a 2
	update_a 1 3
	update_a 2 1
	update_a 0 2
	pop_a 1
	update_a 2 3
	update_a 1 2
	updatepop_a 0 1
	updatepop_b 0 5
.d 3 1 b
	rtn
case.48
	buildAC "unmatched OSEvent"
	buildAC "filterToolbarEvent"
	update_a 1 3
	updatepop_a 0 2
	pop_b 7
.d 2 0
	jsr s3
.o 1 0
	repl_args 4 4
	jsr_eval 3
	jsr_eval 2
	jsr_eval 1
	jsr_eval 0
	pushB_a 0
	pop_a 1
.d 3 1 b
	rtn
.n 1 _ _
.o 1 0
n31
	push_node _cycle_in_spine 1
.d 1 0
	jsr ea31
.o 1 0
	fill_a 0 1
	pop_a 1
.d 1 0
	rtn
.o 1 0
ea31
	jsr_eval 0
.o 1 0
s31
	eq_desc _Just 1 0
	jmp_true case.55
	jmp s31.1
case.55
	repl_args 1 1
	jmp_eval
s31.1
	pop_a 1
	pushD m_menuevent
	pushD x_31
.d 0 2 ii
	jmp _match_error
.string x_31 "_match0"
.o 2 1 i
s13
	eq_desc _Cons 2 0
	jmp_true case.56
	jmp case.57
case.56
	repl_args 2 2
	buildI_b 0
	push_a 1
	build _ 2 n19
	pushI 1
	push_b 1
	eqI
	jmp_false else.58
	jsr_eval 0
	push_arg 0 3 1
	jsr_eval 0
	pushB_a 0
	pop_a 1
	jmp_false else.58
	jsr_eval 0
	push_arg 0 3 3
	pop_b 1
	updatepop_a 0 3
	jmp_eval_upd
else.58
	push_a 2
	jsr_eval 0
	jsr_eval 1
	push_arg 1 3 2
	jsr_eval 0
	pushI_a 0
	pop_a 1
	updatepop_a 0 3
	updatepop_b 0 1
.d 2 1 i
	jmp s13
case.57
	fillh _Nothing 0 1
	pop_a 1
	pop_b 1
.d 1 0
	rtn
.n 2 _
.o 1 0
n19
	push_node _cycle_in_spine 2
.d 2 0
	jsr ea19
.o 3 0
	push_a 2
	push_a 2
	push_a 2
	fillh _Tuple 3 6
	pop_a 3
.d 1 0
	rtn
.o 2 0
ea19
	jsr_eval 0
.o 2 0
s19
	eq_desc e_StdIOCommon_dToolbarItem 3 0
	jmp_true case.60
	jmp case.61
case.60
	repl_args 3 3
	update_a 1 2
	pop_a 2
	buildI 1
	push_a 2
	build _ 2 e_StdInt_n-;7
	push_a 1
	buildB TRUE
	push_a 2
	update_a 2 3
	update_a 0 2
	pop_a 1
	update_a 2 4
	update_a 1 3
	updatepop_a 0 2
.d 3 0
	rtn
case.61
	buildh _Nothing 0
	push_a 2
	buildB FALSE
	update_a 2 4
	update_a 1 3
	updatepop_a 0 2
.d 3 0
	rtn
.o 1 1 i
s7
	create
	push_a 1
	update_a 1 2
	updatepop_a 0 1
.d 2 0
	jsr e_osdocumentinterface_sgetOSDInfoOSToolbar
.o 1 0
	push_a 0
	eq_desc _Nothing 0 0
	pop_a 1
	jmp_false else.62
	pop_a 1
	pop_b 1
	pushB FALSE
.d 0 1 b
	rtn
else.62
	push_a 0
	eq_desc _Just 1 0
	exit_false selector_m_error
	repl_args 1 1
	jsr_eval 0
	repl_r_args 0 2
	updatepop_b 0 1
	push_b 1
	push_b 1
	update_b 1 2
	update_b 0 1
	pop_b 1
	update_b 1 2
	updatepop_b 0 1
	pop_a 1
	eqI
.d 0 1 b
	rtn
.o 0 1 i
s9
	eqI_b 118 0
	jmp_true case.63
	eqI_b 131 0
	jmp_true case.64
	jmp case.65
case.63
	pop_b 1
	pushB TRUE
.d 0 1 b
	rtn
case.64
	pop_b 1
	pushB TRUE
.d 0 1 b
	rtn
case.65
	pop_b 1
	pushB FALSE
.d 0 1 b
	rtn
.o 2 0
s3
	push_a 1
	buildAC "menuevent"
	push_a 2
	update_a 2 4
	update_a 1 3
	updatepop_a 0 2
.d 3 0
	jmp e_commondef_sfatalError
.impmod _system
.implab _match_error
.implab selector_m_error
