.comp 920 000011110011000
.start _nostart_
.depend "Data.GenDefault" "20210613144732"
.depend "Text.HTML" "20210613144732"
.depend "Text.GenJSON" "20210613144732"
.depend "Data.Bifunctor" "20210613144732"
.depend "Data.Either" "20210613144732"
.depend "StdFile" "20210613144732"
.depend "System._Time" "20210613144732"
.depend "System.Time" "20210613144732"
.depend "System.OSError" "20210613144732"
.depend "StdString" "20210613144732"
.depend "Control.Monad.Fail" "20210613144732"
.depend "Data.Traversable" "20210613144732"
.depend "StdMisc" "20210613144732"
.depend "StdOverloadedList" "20210613144732"
.depend "Data.List" "20210613144732"
.depend "Data.Foldable" "20210613144732"
.depend "Data.Set" "20210613144732"
.depend "Data.GenLexOrd" "20210613144732"
.depend "StdFunctions" "20210613144732"
.depend "StdFunc" "20210613144732"
.depend "Data.Map" "20210613144732"
.depend "_SystemEnumStrict" "20210613144732"
.depend "_SystemStrictLists" "20210613144732"
.depend "StdStrictLists" "20210613144732"
.depend "StdGeneric" "20210613144732"
.depend "Data.GenEq" "20210613144732"
.depend "StdReal" "20210613144732"
.depend "StdChar" "20210613144732"
.depend "StdInt" "20210613144732"
.depend "StdBool" "20210613144732"
.depend "StdClass" "20210613144732"
.depend "StdList" "20210613144732"
.depend "Data.Monoid" "20210613144732"
.depend "Control.Applicative" "20210613144732"
.depend "Control.Monad" "20210613144732"
.depend "Data.Functor" "20210613144732"
.depend "Data.Error" "20210613144732"
.depend "StdOverloaded" "20210613144732"
.depend "_SystemDynamic" "20210613144732"
.depend "iTasks.Internal.Generic.Defaults" "20210613144730"
.module m_iTasks.Internal.Generic.Defaults "iTasks.Internal.Generic.Defaults" "20210613144730"
.endinfo
.impmod _system
.implab _cycle_in_spine
.implab _type_error
.implab _hnf
.impdesc e_system_dind
.implab e_system_nind e_system_eaind
.impdesc e_system_dif
.implab e_system_nif e_system_eaif
.implab e_system_sif
.impdesc e_system_dAP
.implab e_system_nAP e_system_eaAP
.implab e_system_sAP
.impdesc ARRAY
.impdesc _Nil
.impdesc _Cons
.impdesc _Conss
.implab n_Conss ea_Conss
.impdesc _Consts
.implab n_Consts ea_Consts
.impdesc _Conssts
.implab n_Conssts ea_Conssts
.impdesc _Tuple
.impdesc d_S.1
.implab n_S.1 ea_S.1
.impdesc d_S.2
.implab n_S.2 ea_S.2
.impdesc d_S.3
.implab n_S.3 ea_S.3
.impdesc d_S.4
.implab n_S.4 ea_S.4
.impdesc d_S.5
.implab n_S.5 ea_S.5
.impdesc d_S.6
.implab n_S.6 ea_S.6
.implab _driver
.impmod Data.GenDefault
.impdesc e_Data.GenDefault_dgDefault_Bool;0
.implab e_Data.GenDefault_ngDefault_Bool;0
.impdesc e_Data.GenDefault_dgDefault_Int;2
.implab e_Data.GenDefault_ngDefault_Int;2
.impdesc e_Data.GenDefault_dgDefault_Real;3
.implab e_Data.GenDefault_ngDefault_Real;3
.impdesc e_Data.GenDefault_dgDefault__String;4
.implab e_Data.GenDefault_ngDefault__String;4
.impdesc e_Data.GenDefault_dgDefault_UNIT;6
.implab e_Data.GenDefault_ngDefault_UNIT;6 e_Data.GenDefault_eagDefault_UNIT;6
.impdesc e_Data.GenDefault_dgDefault_PAIR;7
.implab e_Data.GenDefault_ngDefault_PAIR;7 e_Data.GenDefault_eagDefault_PAIR;7
.impdesc e_Data.GenDefault_dgDefault_EITHER;8
.implab e_Data.GenDefault_ngDefault_EITHER;8 e_Data.GenDefault_eagDefault_EITHER;8
.impdesc e_Data.GenDefault_dgDefault_CONS;9
.implab e_Data.GenDefault_ngDefault_CONS;9 e_Data.GenDefault_eagDefault_CONS;9
.impdesc e_Data.GenDefault_dgDefault_FIELD;10
.implab e_Data.GenDefault_ngDefault_FIELD;10 _
.implab e_Data.GenDefault_sgDefault_OBJECT;11
.implab e_Data.GenDefault_sgDefault_RECORD;12
.impdesc e_Data.GenDefault_dgDefault__List;13
.implab e_Data.GenDefault_ngDefault__List;13 e_Data.GenDefault_eagDefault__List;13
.impdesc e_Data.GenDefault_dgDefault__Tuple2;20
.implab e_Data.GenDefault_ngDefault__Tuple2;20
.impmod Data.Set
.implab e_Data.Set_snewSet
.impmod Data.Map
.implab e_Data.Map_snewMap
.impmod Text.HTML
.impdesc e_Text.HTML_kHtml
.impmod Text.GenJSON
.impdesc e_Text.GenJSON_dJSONNull
.impdesc e_Text.GenJSON_kJSONBool
.impdesc e_Text.GenJSON_kJSONInt
.impdesc e_Text.GenJSON_kJSONReal
.impdesc e_Text.GenJSON_kJSONString
.impdesc e_Text.GenJSON_kJSONArray
.impdesc e_Text.GenJSON_kJSONObject
.impdesc e_Text.GenJSON_kJSONRaw
.impdesc e_Text.GenJSON_dJSONError
.impmod Data.Either
.impdesc e_Data.Either_dLeft
.impdesc e_Data.Either_dRight
.impmod System.Time
.impdesc e_System.Time_rTimespec
.impmod StdGeneric
.impdesc e_StdGeneric_dUNIT
.impdesc e_StdGeneric_dLEFT
.impdesc e_StdGeneric_dRIGHT
.impdesc e_StdGeneric_dPAIR
.impdesc e_StdGeneric_dCONS
.impdesc e_StdGeneric_dRECORD
.impmod Data.Error
.impdesc e_Data.Error_dError
.impdesc e_Data.Error_dOk
.export e_iTasks.Internal.Generic.Defaults_rgDefault_s;
.record e_iTasks.Internal.Generic.Defaults_rgDefault_s; a 1 0 "gDefault_s;"
.export e_iTasks.Internal.Generic.Defaults_sgDefault_Timespec;9
.descexp e_iTasks.Internal.Generic.Defaults_dgDefault_Timespec;9 e_iTasks.Internal.Generic.Defaults_ngDefault_Timespec;9 e_iTasks.Internal.Generic.Defaults_lgDefault_Timespec;9 0 0 "gDefault_Timespec;9"
.o 1 0
e_iTasks.Internal.Generic.Defaults_igDefault_Timespec;9
	pop_a 1
.d 0 0
	jsr s10
.o 0 2 ii
	buildhr e_System.Time_rTimespec 0 2
.d 1 0
	rtn
.o 1 0
e_iTasks.Internal.Generic.Defaults_lgDefault_Timespec;9
	halt
.n 0 e_iTasks.Internal.Generic.Defaults_dgDefault_Timespec;9
.o 1 0
e_iTasks.Internal.Generic.Defaults_ngDefault_Timespec;9
	push_node _cycle_in_spine 0
.d 0 0
	jsr ea10
.o 0 2 ii
	fill_r e_System.Time_rTimespec 0 2 0 0 0
	pop_b 2
.d 1 0
	rtn
.o 0 0
ea10
.o 0 0
e_iTasks.Internal.Generic.Defaults_sgDefault_Timespec;9
.o 0 0
s10
	build e_Data.GenDefault_dgDefault_Int;2 0 e_Data.GenDefault_ngDefault_Int;2
	build e_Data.GenDefault_dgDefault_FIELD;10 1 e_Data.GenDefault_ngDefault_FIELD;10
	build e_Data.GenDefault_dgDefault_Int;2 0 e_Data.GenDefault_ngDefault_Int;2
	build e_Data.GenDefault_dgDefault_FIELD;10 1 e_Data.GenDefault_ngDefault_FIELD;10
	build e_Data.GenDefault_dgDefault_PAIR;7 2 e_Data.GenDefault_ngDefault_PAIR;7
	create
	push_a 1
	update_a 1 2
	update_a 0 1
	pop_a 1
.d 2 0
	jsr e_Data.GenDefault_sgDefault_RECORD;12
.o 1 0
.d 1 0
	jmp s15
.o 1 0
s15
	repl_args 1 1
	jsr_eval 0
	repl_args 2 2
	push_a 1
	jsr_eval 0
	pushI_a 2
	pop_a 1
	push_a 0
	jsr_eval 0
	pushI_a 1
	pop_a 1
	pop_a 2
.d 0 2 ii
	rtn
.export e_iTasks.Internal.Generic.Defaults_sgDefault_Timestamp;8
.descexp e_iTasks.Internal.Generic.Defaults_dgDefault_Timestamp;8 e_iTasks.Internal.Generic.Defaults_ngDefault_Timestamp;8 e_iTasks.Internal.Generic.Defaults_lgDefault_Timestamp;8 0 0 "gDefault_Timestamp;8"
.o 1 0
e_iTasks.Internal.Generic.Defaults_igDefault_Timestamp;8
	pop_a 1
.d 0 0
	jsr s9
.o 0 1 i
	buildI_b 0
	pop_b 1
.d 1 0
	rtn
.o 1 0
e_iTasks.Internal.Generic.Defaults_lgDefault_Timestamp;8
	halt
.n 0 e_iTasks.Internal.Generic.Defaults_dgDefault_Timestamp;8
.o 1 0
e_iTasks.Internal.Generic.Defaults_ngDefault_Timestamp;8
	push_node _cycle_in_spine 0
.d 0 0
	jsr ea9
.o 0 1 i
	fillI_b 0 0
	pop_b 1
.d 1 0
	rtn
.o 0 0
ea9
.o 0 0
e_iTasks.Internal.Generic.Defaults_sgDefault_Timestamp;8
.o 0 0
s9
	build e_Data.GenDefault_dgDefault_Int;2 0 e_Data.GenDefault_ngDefault_Int;2
.d 1 0
	jsr e_Data.GenDefault_sgDefault_OBJECT;11
.o 1 0
	pushI_a 0
	pop_a 1
.d 0 1 i
	jmp s14
.o 0 1 i
s14
.d 0 1 i
	rtn
.export e_iTasks.Internal.Generic.Defaults_sgDefault_HtmlTag;7
.export e_iTasks.Internal.Generic.Defaults_eagDefault_HtmlTag;7
.descexp e_iTasks.Internal.Generic.Defaults_dgDefault_HtmlTag;7 e_iTasks.Internal.Generic.Defaults_ngDefault_HtmlTag;7 e_iTasks.Internal.Generic.Defaults_lgDefault_HtmlTag;7 0 0 "gDefault_HtmlTag;7"
.o 1 0
e_iTasks.Internal.Generic.Defaults_igDefault_HtmlTag;7
	pop_a 1
	create
.d 1 0
	jmp s8
.o 1 0
e_iTasks.Internal.Generic.Defaults_lgDefault_HtmlTag;7
	halt
.n 0 e_iTasks.Internal.Generic.Defaults_dgDefault_HtmlTag;7 e_iTasks.Internal.Generic.Defaults_eagDefault_HtmlTag;7
.o 1 0
e_iTasks.Internal.Generic.Defaults_ngDefault_HtmlTag;7
	push_node _cycle_in_spine 0
.o 1 0
e_iTasks.Internal.Generic.Defaults_eagDefault_HtmlTag;7
.o 1 0
e_iTasks.Internal.Generic.Defaults_sgDefault_HtmlTag;7
.o 1 0
s8
	buildAC ""
	fill_r e_Text.HTML_kHtml 1 0 1 0 0
	pop_a 1
.d 1 0
	rtn
.export e_iTasks.Internal.Generic.Defaults_sgDefault_JSONNode;6
.export e_iTasks.Internal.Generic.Defaults_eagDefault_JSONNode;6
.descexp e_iTasks.Internal.Generic.Defaults_dgDefault_JSONNode;6 e_iTasks.Internal.Generic.Defaults_ngDefault_JSONNode;6 e_iTasks.Internal.Generic.Defaults_lgDefault_JSONNode;6 0 0 "gDefault_JSONNode;6"
.o 1 0
e_iTasks.Internal.Generic.Defaults_igDefault_JSONNode;6
	pop_a 1
	create
.d 1 0
	jmp s7
.o 1 0
e_iTasks.Internal.Generic.Defaults_lgDefault_JSONNode;6
	halt
.n 0 e_iTasks.Internal.Generic.Defaults_dgDefault_JSONNode;6 e_iTasks.Internal.Generic.Defaults_eagDefault_JSONNode;6
.o 1 0
e_iTasks.Internal.Generic.Defaults_ngDefault_JSONNode;6
	push_node _cycle_in_spine 0
.o 1 0
e_iTasks.Internal.Generic.Defaults_eagDefault_JSONNode;6
.o 1 0
e_iTasks.Internal.Generic.Defaults_sgDefault_JSONNode;6
.o 1 0
s7
	build e_Data.GenDefault_dgDefault_UNIT;6 0 e_Data.GenDefault_ngDefault_UNIT;6
	build e_Data.GenDefault_dgDefault_CONS;9 1 e_Data.GenDefault_ngDefault_CONS;9
	build e_Data.GenDefault_dgDefault__String;4 0 e_Data.GenDefault_ngDefault__String;4
	build e_Data.GenDefault_dgDefault_CONS;9 1 e_Data.GenDefault_ngDefault_CONS;9
	build e_Data.GenDefault_dgDefault_EITHER;8 2 e_Data.GenDefault_ngDefault_EITHER;8
	build e_iTasks.Internal.Generic.Defaults_dgDefault_JSONNode;6 0 e_iTasks.Internal.Generic.Defaults_ngDefault_JSONNode;6
	build e_Data.GenDefault_dgDefault__String;4 0 e_Data.GenDefault_ngDefault__String;4
	build e_Data.GenDefault_dgDefault__Tuple2;20 2 e_Data.GenDefault_ngDefault__Tuple2;20
	build e_Data.GenDefault_dgDefault__List;13 1 e_Data.GenDefault_ngDefault__List;13
	build e_Data.GenDefault_dgDefault_CONS;9 1 e_Data.GenDefault_ngDefault_CONS;9
	build e_Data.GenDefault_dgDefault_EITHER;8 2 e_Data.GenDefault_ngDefault_EITHER;8
	build e_iTasks.Internal.Generic.Defaults_dgDefault_JSONNode;6 0 e_iTasks.Internal.Generic.Defaults_ngDefault_JSONNode;6
	build e_Data.GenDefault_dgDefault__List;13 1 e_Data.GenDefault_ngDefault__List;13
	build e_Data.GenDefault_dgDefault_CONS;9 1 e_Data.GenDefault_ngDefault_CONS;9
	build e_Data.GenDefault_dgDefault__String;4 0 e_Data.GenDefault_ngDefault__String;4
	build e_Data.GenDefault_dgDefault_CONS;9 1 e_Data.GenDefault_ngDefault_CONS;9
	build e_Data.GenDefault_dgDefault_EITHER;8 2 e_Data.GenDefault_ngDefault_EITHER;8
	build e_Data.GenDefault_dgDefault_EITHER;8 2 e_Data.GenDefault_ngDefault_EITHER;8
	build e_Data.GenDefault_dgDefault_Real;3 0 e_Data.GenDefault_ngDefault_Real;3
	build e_Data.GenDefault_dgDefault_CONS;9 1 e_Data.GenDefault_ngDefault_CONS;9
	build e_Data.GenDefault_dgDefault_Int;2 0 e_Data.GenDefault_ngDefault_Int;2
	build e_Data.GenDefault_dgDefault_CONS;9 1 e_Data.GenDefault_ngDefault_CONS;9
	build e_Data.GenDefault_dgDefault_EITHER;8 2 e_Data.GenDefault_ngDefault_EITHER;8
	build e_Data.GenDefault_dgDefault_Bool;0 0 e_Data.GenDefault_ngDefault_Bool;0
	build e_Data.GenDefault_dgDefault_CONS;9 1 e_Data.GenDefault_ngDefault_CONS;9
	build e_Data.GenDefault_dgDefault_UNIT;6 0 e_Data.GenDefault_ngDefault_UNIT;6
	build e_Data.GenDefault_dgDefault_CONS;9 1 e_Data.GenDefault_ngDefault_CONS;9
	build e_Data.GenDefault_dgDefault_EITHER;8 2 e_Data.GenDefault_ngDefault_EITHER;8
	build e_Data.GenDefault_dgDefault_EITHER;8 2 e_Data.GenDefault_ngDefault_EITHER;8
	build e_Data.GenDefault_dgDefault_EITHER;8 2 e_Data.GenDefault_ngDefault_EITHER;8
.d 1 0
	jsr e_Data.GenDefault_sgDefault_OBJECT;11
.o 1 0
.d 2 0
	jmp s13
.o 2 0
s13
	eq_desc e_StdGeneric_dLEFT 1 0
	jmp_true case.1
	jmp case.2
case.1
	repl_args 1 1
	jsr_eval 0
	eq_desc e_StdGeneric_dLEFT 1 0
	jmp_true case.3
	jmp case.4
case.3
	repl_args 1 1
	jsr_eval 0
	eq_desc e_StdGeneric_dLEFT 1 0
	jmp_true case.5
	jmp case.6
case.5
	repl_args 1 1
	jsr_eval 0
	repl_args 1 1
	jsr_eval 0
	fillh e_Text.GenJSON_dJSONNull 0 1
	pop_a 1
.d 1 0
	rtn
case.6
	repl_args 1 1
	jsr_eval 0
	repl_args 1 1
	push_a 0
	jsr_eval 0
	pushB_a 1
	pop_a 1
	fill_r e_Text.GenJSON_kJSONBool 0 1 1 0 0
	pop_a 1
	pop_b 1
.d 1 0
	rtn
case.4
	repl_args 1 1
	jsr_eval 0
	eq_desc e_StdGeneric_dLEFT 1 0
	jmp_true case.7
	jmp case.8
case.7
	repl_args 1 1
	jsr_eval 0
	repl_args 1 1
	push_a 0
	jsr_eval 0
	pushI_a 1
	pop_a 1
	fill_r e_Text.GenJSON_kJSONInt 0 1 1 0 0
	pop_a 1
	pop_b 1
.d 1 0
	rtn
case.8
	repl_args 1 1
	jsr_eval 0
	repl_args 1 1
	push_a 0
	jsr_eval 0
	pushR_a 1
	pop_a 1
	fill_r e_Text.GenJSON_kJSONReal 0 1 1 0 0
	pop_a 1
	pop_b 1
.d 1 0
	rtn
case.2
	repl_args 1 1
	jsr_eval 0
	eq_desc e_StdGeneric_dLEFT 1 0
	jmp_true case.9
	jmp case.10
case.9
	repl_args 1 1
	jsr_eval 0
	eq_desc e_StdGeneric_dLEFT 1 0
	jmp_true case.11
	jmp case.12
case.11
	repl_args 1 1
	jsr_eval 0
	repl_args 1 1
	push_a 0
	jsr_eval 0
	push_array 0
	updatepop_a 0 1
	fill_r e_Text.GenJSON_kJSONString 1 0 2 0 0
	pop_a 2
.d 1 0
	rtn
case.12
	repl_args 1 1
	jsr_eval 0
	repl_args 1 1
	push_a 0
	jsr_eval 0
	fill_r e_Text.GenJSON_kJSONArray 1 0 2 0 0
	pop_a 2
.d 1 0
	rtn
case.10
	repl_args 1 1
	jsr_eval 0
	eq_desc e_StdGeneric_dLEFT 1 0
	jmp_true case.13
	jmp case.14
case.13
	repl_args 1 1
	jsr_eval 0
	repl_args 1 1
	push_a 0
	jsr_eval 0
	fill_r e_Text.GenJSON_kJSONObject 1 0 2 0 0
	pop_a 2
.d 1 0
	rtn
case.14
	repl_args 1 1
	jsr_eval 0
	eq_desc e_StdGeneric_dLEFT 1 0
	jmp_true case.15
	jmp case.16
case.15
	repl_args 1 1
	jsr_eval 0
	repl_args 1 1
	push_a 0
	jsr_eval 0
	push_array 0
	updatepop_a 0 1
	fill_r e_Text.GenJSON_kJSONRaw 1 0 2 0 0
	pop_a 2
.d 1 0
	rtn
case.16
	repl_args 1 1
	jsr_eval 0
	repl_args 1 1
	jsr_eval 0
	fillh e_Text.GenJSON_dJSONError 0 1
	pop_a 1
.d 1 0
	rtn
.export e_iTasks.Internal.Generic.Defaults_sgDefault_Set;5
.export e_iTasks.Internal.Generic.Defaults_eagDefault_Set;5
.descexp e_iTasks.Internal.Generic.Defaults_dgDefault_Set;5 e_iTasks.Internal.Generic.Defaults_ngDefault_Set;5 e_iTasks.Internal.Generic.Defaults_lgDefault_Set;5 1 0 "gDefault_Set;5"
.o 2 0
e_iTasks.Internal.Generic.Defaults_igDefault_Set;5
	pop_a 1
	create
	push_a 1
	update_a 1 2
	update_a 0 1
	pop_a 1
.d 2 0
	jmp s6
.ai 1 _ e_iTasks.Internal.Generic.Defaults_igDefault_Set;5
.o 2 0
e_iTasks.Internal.Generic.Defaults_lgDefault_Set;5
	update_a 1 0
	create
	update_a 0 2
	pop_a 1
.d 2 0
	jmp e_iTasks.Internal.Generic.Defaults_eagDefault_Set;5
.n 1 e_iTasks.Internal.Generic.Defaults_dgDefault_Set;5 e_iTasks.Internal.Generic.Defaults_eagDefault_Set;5
.o 1 0
e_iTasks.Internal.Generic.Defaults_ngDefault_Set;5
	push_node _cycle_in_spine 1
.o 2 0
e_iTasks.Internal.Generic.Defaults_eagDefault_Set;5
.o 2 0
e_iTasks.Internal.Generic.Defaults_sgDefault_Set;5
.o 2 0
s6
	pop_a 1
.d 1 0
	jmp e_Data.Set_snewSet
.export e_iTasks.Internal.Generic.Defaults_sgDefault_Map;4
.export e_iTasks.Internal.Generic.Defaults_eagDefault_Map;4
.descexp e_iTasks.Internal.Generic.Defaults_dgDefault_Map;4 e_iTasks.Internal.Generic.Defaults_ngDefault_Map;4 e_iTasks.Internal.Generic.Defaults_lgDefault_Map;4 2 0 "gDefault_Map;4"
.o 3 0
e_iTasks.Internal.Generic.Defaults_igDefault_Map;4
	pop_a 1
	create
	push_a 2
	update_a 1 3
	update_a 2 1
	update_a 0 2
	pop_a 1
.d 3 0
	jmp s5
.ai 2 e_iTasks.Internal.Generic.Defaults_eagDefault_Map;4 e_iTasks.Internal.Generic.Defaults_igDefault_Map;4
.o 2 0
e_iTasks.Internal.Generic.Defaults_lgDefault_Map;4
	push_args 0 1 1
	update_a 2 1
	create
	update_a 0 3
	pop_a 1
.d 3 0
	jmp e_iTasks.Internal.Generic.Defaults_eagDefault_Map;4
.n 2 e_iTasks.Internal.Generic.Defaults_dgDefault_Map;4 e_iTasks.Internal.Generic.Defaults_eagDefault_Map;4
.o 1 0
e_iTasks.Internal.Generic.Defaults_ngDefault_Map;4
	push_node _cycle_in_spine 2
.o 3 0
e_iTasks.Internal.Generic.Defaults_eagDefault_Map;4
.o 3 0
e_iTasks.Internal.Generic.Defaults_sgDefault_Map;4
.o 3 0
s5
	pop_a 2
.d 1 0
	jmp e_Data.Map_snewMap
.export e_iTasks.Internal.Generic.Defaults_sgDefault_MaybeError;3
.export e_iTasks.Internal.Generic.Defaults_eagDefault_MaybeError;3
.descexp e_iTasks.Internal.Generic.Defaults_dgDefault_MaybeError;3 e_iTasks.Internal.Generic.Defaults_ngDefault_MaybeError;3 e_iTasks.Internal.Generic.Defaults_lgDefault_MaybeError;3 2 0 "gDefault_MaybeError;3"
.o 3 0
e_iTasks.Internal.Generic.Defaults_igDefault_MaybeError;3
	pop_a 1
	create
	push_a 2
	update_a 1 3
	update_a 2 1
	update_a 0 2
	pop_a 1
.d 3 0
	jmp s4
.ai 2 e_iTasks.Internal.Generic.Defaults_eagDefault_MaybeError;3 e_iTasks.Internal.Generic.Defaults_igDefault_MaybeError;3
.o 2 0
e_iTasks.Internal.Generic.Defaults_lgDefault_MaybeError;3
	push_args 0 1 1
	update_a 2 1
	create
	update_a 0 3
	pop_a 1
.d 3 0
	jmp e_iTasks.Internal.Generic.Defaults_eagDefault_MaybeError;3
.n 2 e_iTasks.Internal.Generic.Defaults_dgDefault_MaybeError;3 e_iTasks.Internal.Generic.Defaults_eagDefault_MaybeError;3
.o 1 0
e_iTasks.Internal.Generic.Defaults_ngDefault_MaybeError;3
	push_node _cycle_in_spine 2
.o 3 0
e_iTasks.Internal.Generic.Defaults_eagDefault_MaybeError;3
.o 3 0
e_iTasks.Internal.Generic.Defaults_sgDefault_MaybeError;3
.o 3 0
s4
	push_a 1
	build e_Data.GenDefault_dgDefault_CONS;9 1 e_Data.GenDefault_ngDefault_CONS;9
	push_a 1
	build e_Data.GenDefault_dgDefault_CONS;9 1 e_Data.GenDefault_ngDefault_CONS;9
	build e_Data.GenDefault_dgDefault_EITHER;8 2 e_Data.GenDefault_ngDefault_EITHER;8
	updatepop_a 0 2
.d 1 0
	jsr e_Data.GenDefault_sgDefault_OBJECT;11
.o 1 0
.d 2 0
	jmp s12
.o 2 0
s12
	eq_desc e_StdGeneric_dLEFT 1 0
	jmp_true case.17
	jmp case.18
case.17
	repl_args 1 1
	jsr_eval 0
	repl_args 1 1
	push_a 0
	fillh e_Data.Error_dError 1 2
	pop_a 1
.d 1 0
	rtn
case.18
	repl_args 1 1
	jsr_eval 0
	repl_args 1 1
	push_a 0
	fillh e_Data.Error_dOk 1 2
	pop_a 1
.d 1 0
	rtn
.export e_iTasks.Internal.Generic.Defaults_sgDefault_Either;2
.export e_iTasks.Internal.Generic.Defaults_eagDefault_Either;2
.descexp e_iTasks.Internal.Generic.Defaults_dgDefault_Either;2 e_iTasks.Internal.Generic.Defaults_ngDefault_Either;2 e_iTasks.Internal.Generic.Defaults_lgDefault_Either;2 2 0 "gDefault_Either;2"
.o 3 0
e_iTasks.Internal.Generic.Defaults_igDefault_Either;2
	pop_a 1
	create
	push_a 2
	update_a 1 3
	update_a 2 1
	update_a 0 2
	pop_a 1
.d 3 0
	jmp s3
.ai 2 e_iTasks.Internal.Generic.Defaults_eagDefault_Either;2 e_iTasks.Internal.Generic.Defaults_igDefault_Either;2
.o 2 0
e_iTasks.Internal.Generic.Defaults_lgDefault_Either;2
	push_args 0 1 1
	update_a 2 1
	create
	update_a 0 3
	pop_a 1
.d 3 0
	jmp e_iTasks.Internal.Generic.Defaults_eagDefault_Either;2
.n 2 e_iTasks.Internal.Generic.Defaults_dgDefault_Either;2 e_iTasks.Internal.Generic.Defaults_eagDefault_Either;2
.o 1 0
e_iTasks.Internal.Generic.Defaults_ngDefault_Either;2
	push_node _cycle_in_spine 2
.o 3 0
e_iTasks.Internal.Generic.Defaults_eagDefault_Either;2
.o 3 0
e_iTasks.Internal.Generic.Defaults_sgDefault_Either;2
.o 3 0
s3
	push_a 1
	build e_Data.GenDefault_dgDefault_CONS;9 1 e_Data.GenDefault_ngDefault_CONS;9
	push_a 1
	build e_Data.GenDefault_dgDefault_CONS;9 1 e_Data.GenDefault_ngDefault_CONS;9
	build e_Data.GenDefault_dgDefault_EITHER;8 2 e_Data.GenDefault_ngDefault_EITHER;8
	updatepop_a 0 2
.d 1 0
	jsr e_Data.GenDefault_sgDefault_OBJECT;11
.o 1 0
.d 2 0
	jmp s11
.o 2 0
s11
	eq_desc e_StdGeneric_dLEFT 1 0
	jmp_true case.19
	jmp case.20
case.19
	repl_args 1 1
	jsr_eval 0
	repl_args 1 1
	push_a 0
	fillh e_Data.Either_dLeft 1 2
	pop_a 1
.d 1 0
	rtn
case.20
	repl_args 1 1
	jsr_eval 0
	repl_args 1 1
	push_a 0
	fillh e_Data.Either_dRight 1 2
	pop_a 1
.d 1 0
	rtn
.export e_iTasks.Internal.Generic.Defaults_sgDefault__!Maybe;1
.export e_iTasks.Internal.Generic.Defaults_eagDefault__!Maybe;1
.descexp e_iTasks.Internal.Generic.Defaults_dgDefault__!Maybe;1 e_iTasks.Internal.Generic.Defaults_ngDefault__!Maybe;1 e_iTasks.Internal.Generic.Defaults_lgDefault__!Maybe;1 1 0 "gDefault__!Maybe;1"
.o 2 0
e_iTasks.Internal.Generic.Defaults_igDefault__!Maybe;1
	pop_a 1
	create
	push_a 1
	update_a 1 2
	update_a 0 1
	pop_a 1
.d 2 0
	jmp s2
.ai 1 _ e_iTasks.Internal.Generic.Defaults_igDefault__!Maybe;1
.o 2 0
e_iTasks.Internal.Generic.Defaults_lgDefault__!Maybe;1
	update_a 1 0
	create
	update_a 0 2
	pop_a 1
.d 2 0
	jmp e_iTasks.Internal.Generic.Defaults_eagDefault__!Maybe;1
.n 1 e_iTasks.Internal.Generic.Defaults_dgDefault__!Maybe;1 e_iTasks.Internal.Generic.Defaults_eagDefault__!Maybe;1
.o 1 0
e_iTasks.Internal.Generic.Defaults_ngDefault__!Maybe;1
	push_node _cycle_in_spine 1
.o 2 0
e_iTasks.Internal.Generic.Defaults_eagDefault__!Maybe;1
.o 2 0
e_iTasks.Internal.Generic.Defaults_sgDefault__!Maybe;1
.o 2 0
s2
	fillh _None 0 1
	pop_a 1
.d 1 0
	rtn
.export e_iTasks.Internal.Generic.Defaults_sdefaultValue
.descexp e_iTasks.Internal.Generic.Defaults_ddefaultValue e_iTasks.Internal.Generic.Defaults_ndefaultValue e_iTasks.Internal.Generic.Defaults_ldefaultValue 1 0 "defaultValue"
.o 2 0
e_iTasks.Internal.Generic.Defaults_ldefaultValue
	pop_a 1
.d 1 0
	jmp ea1
.n 1 e_iTasks.Internal.Generic.Defaults_ddefaultValue _
.o 1 0
e_iTasks.Internal.Generic.Defaults_ndefaultValue
	push_node _cycle_in_spine 1
.d 1 0
	jsr ea1
.o 1 0
	fill_a 0 1
	pop_a 1
.d 1 0
	rtn
.o 1 0
ea1
	jsr_eval 0
	repl_r_args 1 0
.o 1 0
e_iTasks.Internal.Generic.Defaults_sdefaultValue
.o 1 0
s1
	jmp_eval
